%!PS-Adobe-3.0 EPSF-3.0
%%Creator: (MATLAB, The Mathworks, Inc. Version 9.3.0.713579 \(R2017b\). Operating System: Mac OS X)
%%Title: ./accuracy-averaged.eps
%%CreationDate: 2018-04-23T17:13:07
%%Pages: (atend)
%%BoundingBox:     0    18   544   401
%%LanguageLevel: 3
%%EndComments
%%BeginProlog
%%BeginResource: procset (Apache XML Graphics Std ProcSet) 1.2 0
%%Version: 1.2 0
%%Copyright: (Copyright 2001-2003,2010 The Apache Software Foundation. License terms: http://www.apache.org/licenses/LICENSE-2.0)
/bd{bind def}bind def
/ld{load def}bd
/GR/grestore ld
/GS/gsave ld
/RM/rmoveto ld
/C/curveto ld
/t/show ld
/L/lineto ld
/ML/setmiterlimit ld
/CT/concat ld
/f/fill ld
/N/newpath ld
/S/stroke ld
/CC/setcmykcolor ld
/A/ashow ld
/cp/closepath ld
/RC/setrgbcolor ld
/LJ/setlinejoin ld
/GC/setgray ld
/LW/setlinewidth ld
/M/moveto ld
/re {4 2 roll M
1 index 0 rlineto
0 exch rlineto
neg 0 rlineto
cp } bd
/_ctm matrix def
/_tm matrix def
/BT { _ctm currentmatrix pop matrix _tm copy pop 0 0 moveto } bd
/ET { _ctm setmatrix } bd
/iTm { _ctm setmatrix _tm concat } bd
/Tm { _tm astore pop iTm 0 0 moveto } bd
/ux 0.0 def
/uy 0.0 def
/F {
  /Tp exch def
  /Tf exch def
  Tf findfont Tp scalefont setfont
  /cf Tf def  /cs Tp def
} bd
/ULS {currentpoint /uy exch def /ux exch def} bd
/ULE {
  /Tcx currentpoint pop def
  gsave
  newpath
  cf findfont cs scalefont dup
  /FontMatrix get 0 get /Ts exch def /FontInfo get dup
  /UnderlinePosition get Ts mul /To exch def
  /UnderlineThickness get Ts mul /Tt exch def
  ux uy To add moveto  Tcx uy To add lineto
  Tt setlinewidth stroke
  grestore
} bd
/OLE {
  /Tcx currentpoint pop def
  gsave
  newpath
  cf findfont cs scalefont dup
  /FontMatrix get 0 get /Ts exch def /FontInfo get dup
  /UnderlinePosition get Ts mul /To exch def
  /UnderlineThickness get Ts mul /Tt exch def
  ux uy To add cs add moveto Tcx uy To add cs add lineto
  Tt setlinewidth stroke
  grestore
} bd
/SOE {
  /Tcx currentpoint pop def
  gsave
  newpath
  cf findfont cs scalefont dup
  /FontMatrix get 0 get /Ts exch def /FontInfo get dup
  /UnderlinePosition get Ts mul /To exch def
  /UnderlineThickness get Ts mul /Tt exch def
  ux uy To add cs 10 mul 26 idiv add moveto Tcx uy To add cs 10 mul 26 idiv add lineto
  Tt setlinewidth stroke
  grestore
} bd
/QT {
/Y22 exch store
/X22 exch store
/Y21 exch store
/X21 exch store
currentpoint
/Y21 load 2 mul add 3 div exch
/X21 load 2 mul add 3 div exch
/X21 load 2 mul /X22 load add 3 div
/Y21 load 2 mul /Y22 load add 3 div
/X22 load /Y22 load curveto
} bd
/SSPD {
dup length /d exch dict def
{
/v exch def
/k exch def
currentpagedevice k known {
/cpdv currentpagedevice k get def
v cpdv ne {
/upd false def
/nullv v type /nulltype eq def
/nullcpdv cpdv type /nulltype eq def
nullv nullcpdv or
{
/upd true def
} {
/sametype v type cpdv type eq def
sametype {
v type /arraytype eq {
/vlen v length def
/cpdvlen cpdv length def
vlen cpdvlen eq {
0 1 vlen 1 sub {
/i exch def
/obj v i get def
/cpdobj cpdv i get def
obj cpdobj ne {
/upd true def
exit
} if
} for
} {
/upd true def
} ifelse
} {
v type /dicttype eq {
v {
/dv exch def
/dk exch def
/cpddv cpdv dk get def
dv cpddv ne {
/upd true def
exit
} if
} forall
} {
/upd true def
} ifelse
} ifelse
} if
} ifelse
upd true eq {
d k v put
} if
} if
} if
} forall
d length 0 gt {
d setpagedevice
} if
} bd
/RE { % /NewFontName [NewEncodingArray] /FontName RE -
  findfont dup length dict begin
  {
    1 index /FID ne
    {def} {pop pop} ifelse
  } forall
  /Encoding exch def
  /FontName 1 index def
  currentdict definefont pop
  end
} bind def
%%EndResource
%%BeginResource: procset (Apache XML Graphics EPS ProcSet) 1.0 0
%%Version: 1.0 0
%%Copyright: (Copyright 2002-2003 The Apache Software Foundation. License terms: http://www.apache.org/licenses/LICENSE-2.0)
/BeginEPSF { %def
/b4_Inc_state save def         % Save state for cleanup
/dict_count countdictstack def % Count objects on dict stack
/op_count count 1 sub def      % Count objects on operand stack
userdict begin                 % Push userdict on dict stack
/showpage { } def              % Redefine showpage, { } = null proc
0 setgray 0 setlinecap         % Prepare graphics state
1 setlinewidth 0 setlinejoin
10 setmiterlimit [ ] 0 setdash newpath
/languagelevel where           % If level not equal to 1 then
{pop languagelevel             % set strokeadjust and
1 ne                           % overprint to their defaults.
{false setstrokeadjust false setoverprint
} if
} if
} bd
/EndEPSF { %def
count op_count sub {pop} repeat            % Clean up stacks
countdictstack dict_count sub {end} repeat
b4_Inc_state restore
} bd
%%EndResource
%FOPBeginFontDict
%%IncludeResource: font Courier-Oblique
%%IncludeResource: font Courier-BoldOblique
%%IncludeResource: font Courier-Bold
%%IncludeResource: font ZapfDingbats
%%IncludeResource: font Symbol
%%IncludeResource: font Helvetica
%%IncludeResource: font Helvetica-Oblique
%%IncludeResource: font Helvetica-Bold
%%IncludeResource: font Helvetica-BoldOblique
%%IncludeResource: font Times-Roman
%%IncludeResource: font Times-Italic
%%IncludeResource: font Times-Bold
%%IncludeResource: font Times-BoldItalic
%%IncludeResource: font Courier
%FOPEndFontDict
%%BeginResource: encoding WinAnsiEncoding
/WinAnsiEncoding [
/.notdef /.notdef /.notdef /.notdef /.notdef
/.notdef /.notdef /.notdef /.notdef /.notdef
/.notdef /.notdef /.notdef /.notdef /.notdef
/.notdef /.notdef /.notdef /.notdef /.notdef
/.notdef /.notdef /.notdef /.notdef /.notdef
/.notdef /.notdef /.notdef /.notdef /.notdef
/.notdef /.notdef /space /exclam /quotedbl
/numbersign /dollar /percent /ampersand /quotesingle
/parenleft /parenright /asterisk /plus /comma
/hyphen /period /slash /zero /one
/two /three /four /five /six
/seven /eight /nine /colon /semicolon
/less /equal /greater /question /at
/A /B /C /D /E
/F /G /H /I /J
/K /L /M /N /O
/P /Q /R /S /T
/U /V /W /X /Y
/Z /bracketleft /backslash /bracketright /asciicircum
/underscore /quoteleft /a /b /c
/d /e /f /g /h
/i /j /k /l /m
/n /o /p /q /r
/s /t /u /v /w
/x /y /z /braceleft /bar
/braceright /asciitilde /bullet /Euro /bullet
/quotesinglbase /florin /quotedblbase /ellipsis /dagger
/daggerdbl /circumflex /perthousand /Scaron /guilsinglleft
/OE /bullet /Zcaron /bullet /bullet
/quoteleft /quoteright /quotedblleft /quotedblright /bullet
/endash /emdash /asciitilde /trademark /scaron
/guilsinglright /oe /bullet /zcaron /Ydieresis
/space /exclamdown /cent /sterling /currency
/yen /brokenbar /section /dieresis /copyright
/ordfeminine /guillemotleft /logicalnot /sfthyphen /registered
/macron /degree /plusminus /twosuperior /threesuperior
/acute /mu /paragraph /middot /cedilla
/onesuperior /ordmasculine /guillemotright /onequarter /onehalf
/threequarters /questiondown /Agrave /Aacute /Acircumflex
/Atilde /Adieresis /Aring /AE /Ccedilla
/Egrave /Eacute /Ecircumflex /Edieresis /Igrave
/Iacute /Icircumflex /Idieresis /Eth /Ntilde
/Ograve /Oacute /Ocircumflex /Otilde /Odieresis
/multiply /Oslash /Ugrave /Uacute /Ucircumflex
/Udieresis /Yacute /Thorn /germandbls /agrave
/aacute /acircumflex /atilde /adieresis /aring
/ae /ccedilla /egrave /eacute /ecircumflex
/edieresis /igrave /iacute /icircumflex /idieresis
/eth /ntilde /ograve /oacute /ocircumflex
/otilde /odieresis /divide /oslash /ugrave
/uacute /ucircumflex /udieresis /yacute /thorn
/ydieresis
] def
%%EndResource
%FOPBeginFontReencode
/Courier-Oblique findfont
dup length dict begin
  {1 index /FID ne {def} {pop pop} ifelse} forall
  /Encoding WinAnsiEncoding def
  currentdict
end
/Courier-Oblique exch definefont pop
/Courier-BoldOblique findfont
dup length dict begin
  {1 index /FID ne {def} {pop pop} ifelse} forall
  /Encoding WinAnsiEncoding def
  currentdict
end
/Courier-BoldOblique exch definefont pop
/Courier-Bold findfont
dup length dict begin
  {1 index /FID ne {def} {pop pop} ifelse} forall
  /Encoding WinAnsiEncoding def
  currentdict
end
/Courier-Bold exch definefont pop
/Helvetica findfont
dup length dict begin
  {1 index /FID ne {def} {pop pop} ifelse} forall
  /Encoding WinAnsiEncoding def
  currentdict
end
/Helvetica exch definefont pop
/Helvetica-Oblique findfont
dup length dict begin
  {1 index /FID ne {def} {pop pop} ifelse} forall
  /Encoding WinAnsiEncoding def
  currentdict
end
/Helvetica-Oblique exch definefont pop
/Helvetica-Bold findfont
dup length dict begin
  {1 index /FID ne {def} {pop pop} ifelse} forall
  /Encoding WinAnsiEncoding def
  currentdict
end
/Helvetica-Bold exch definefont pop
/Helvetica-BoldOblique findfont
dup length dict begin
  {1 index /FID ne {def} {pop pop} ifelse} forall
  /Encoding WinAnsiEncoding def
  currentdict
end
/Helvetica-BoldOblique exch definefont pop
/Times-Roman findfont
dup length dict begin
  {1 index /FID ne {def} {pop pop} ifelse} forall
  /Encoding WinAnsiEncoding def
  currentdict
end
/Times-Roman exch definefont pop
/Times-Italic findfont
dup length dict begin
  {1 index /FID ne {def} {pop pop} ifelse} forall
  /Encoding WinAnsiEncoding def
  currentdict
end
/Times-Italic exch definefont pop
/Times-Bold findfont
dup length dict begin
  {1 index /FID ne {def} {pop pop} ifelse} forall
  /Encoding WinAnsiEncoding def
  currentdict
end
/Times-Bold exch definefont pop
/Times-BoldItalic findfont
dup length dict begin
  {1 index /FID ne {def} {pop pop} ifelse} forall
  /Encoding WinAnsiEncoding def
  currentdict
end
/Times-BoldItalic exch definefont pop
/Courier findfont
dup length dict begin
  {1 index /FID ne {def} {pop pop} ifelse} forall
  /Encoding WinAnsiEncoding def
  currentdict
end
/Courier exch definefont pop
%FOPEndFontReencode
%%EndProlog
%%Page: 1 1
%%PageBoundingBox: 0 0 600 400
%%BeginPageSetup
[1 0 0 -1 0 400] CT
%%EndPageSetup
GS
1 GC
N
0 0 600 400 re
f
GR
GS
1 GC
N
0 0 600 400 re
f
GR
GS
1 GC
N
78 356 M
543 356 L
543 32 L
78 32 L
cp
f
GR
GS
0.873 GC
1 LJ
0.5 LW
N
310.5 356 M
310.5 32 L
S
GR
GS
0.873 GC
1 LJ
0.5 LW
N
543 307.645 M
78 307.645 L
S
GR
GS
0.873 GC
1 LJ
0.5 LW
N
543 245.998 M
78 245.998 L
S
GR
GS
0.873 GC
1 LJ
0.5 LW
N
543 184.352 M
78 184.352 L
S
GR
GS
0.873 GC
1 LJ
0.5 LW
N
543 122.706 M
78 122.706 L
S
GR
GS
0.873 GC
1 LJ
0.5 LW
N
543 61.059 M
78 61.059 L
S
GR
GS
0.149 GC
2 setlinecap
1 LJ
0.5 LW
N
78 356 M
543 356 L
S
GR
GS
0.149 GC
2 setlinecap
1 LJ
0.5 LW
N
78 32 M
543 32 L
S
GR
GS
0.149 GC
2 setlinecap
1 LJ
0.5 LW
N
310.5 356 M
310.5 351.35 L
S
GR
GS
0.149 GC
2 setlinecap
1 LJ
0.5 LW
N
310.5 32 M
310.5 36.65 L
S
GR
GS
[1 0 0 1 310.5 362] CT
0.149 GC
/Helvetica 20 F
GS
[1 0 0 1 0 0] CT
-3 20 moveto 
1 -1 scale
( ) t 
GR
GR
GS
0.149 GC
2 setlinecap
1 LJ
0.5 LW
N
78 356 M
78 32 L
S
GR
GS
0.149 GC
2 setlinecap
1 LJ
0.5 LW
N
543 356 M
543 32 L
S
GR
GS
0.149 GC
2 setlinecap
1 LJ
0.5 LW
N
78 307.645 M
82.65 307.645 L
S
GR
GS
0.149 GC
2 setlinecap
1 LJ
0.5 LW
N
78 245.998 M
82.65 245.998 L
S
GR
GS
0.149 GC
2 setlinecap
1 LJ
0.5 LW
N
78 184.352 M
82.65 184.352 L
S
GR
GS
0.149 GC
2 setlinecap
1 LJ
0.5 LW
N
78 122.706 M
82.65 122.706 L
S
GR
GS
0.149 GC
2 setlinecap
1 LJ
0.5 LW
N
78 61.059 M
82.65 61.059 L
S
GR
GS
0.149 GC
2 setlinecap
1 LJ
0.5 LW
N
543 307.645 M
538.35 307.645 L
S
GR
GS
0.149 GC
2 setlinecap
1 LJ
0.5 LW
N
543 245.998 M
538.35 245.998 L
S
GR
GS
0.149 GC
2 setlinecap
1 LJ
0.5 LW
N
543 184.352 M
538.35 184.352 L
S
GR
GS
0.149 GC
2 setlinecap
1 LJ
0.5 LW
N
543 122.706 M
538.35 122.706 L
S
GR
GS
0.149 GC
2 setlinecap
1 LJ
0.5 LW
N
543 61.059 M
538.35 61.059 L
S
GR
GS
[1 0 0 1 72.00001 307.64468] CT
0.149 GC
/Helvetica 20 F
GS
[1 0 0 1 0 0] CT
-23 7.5 moveto 
1 -1 scale
(92) t 
GR
GR
GS
[1 0 0 1 72.00001 245.99838] CT
0.149 GC
/Helvetica 20 F
GS
[1 0 0 1 0 0] CT
-23 7.5 moveto 
1 -1 scale
(94) t 
GR
GR
GS
[1 0 0 1 72.00001 184.35208] CT
0.149 GC
/Helvetica 20 F
GS
[1 0 0 1 0 0] CT
-23 7.5 moveto 
1 -1 scale
(96) t 
GR
GR
GS
[1 0 0 1 72.00001 122.70579] CT
0.149 GC
/Helvetica 20 F
GS
[1 0 0 1 0 0] CT
-23 7.5 moveto 
1 -1 scale
(98) t 
GR
GR
GS
[1 0 0 1 72.00001 61.0595] CT
0.149 GC
/Helvetica 20 F
GS
[1 0 0 1 0 0] CT
-34 7.5 moveto 
1 -1 scale
(100) t 
GR
GR
GS
[0 -1 1 0 35 193.99983] CT
0.149 GC
/Helvetica 22 F
GS
[1 0 0 1 0 0] CT
-115 -5 moveto 
1 -1 scale
(Detection accuracy [%]) t 
GR
GR
GS
[1 0 0 1 310.50027 26.5001] CT
/Helvetica-Bold 22 F
GS
[1 0 0 1 0 0] CT
-194.5 -5 moveto 
1 -1 scale
(Cadaver iris image detection for PAD) t 
GR
GR
GS
[10 6] 0 setdash
2 LJ
0.5 LW
N
310.5 61.059 M
310.5 61.059 L
S
GR
GS
[10 6] 0 setdash
2 LJ
0.5 LW
N
310.5 146.686 M
310.5 101.885 L
S
GR
GS
1 LJ
0.5 LW
N
293.063 61.059 M
327.938 61.059 L
S
GR
GS
1 LJ
0.5 LW
N
293.063 146.686 M
327.938 146.686 L
S
GR
GS
0 0 1 RC
1 LJ
0.5 LW
N
275.625 101.885 M
275.625 61.059 L
345.375 61.059 L
345.375 101.885 L
275.625 101.885 L
S
GR
GS
1 0 0 RC
1 LJ
0.5 LW
N
275.625 61.059 M
345.375 61.059 L
S
GR
GS
[1 0 0 1 310.5 341.27283] CT
1 0 0 RC
10.0 ML
N
0 -3 M
0 3 L
-3 0 M
3 0 L
S
GR
GS
[1 0 0 1 310.5 169.83437] CT
1 0 0 RC
10.0 ML
N
0 -3 M
0 3 L
-3 0 M
3 0 L
S
GR
GS
[1 0 0 1 357 61.0595] CT
1 0 0 RC
/Helvetica 24 F
GS
[1 0 0 1 0 0] CT
0 8.5 moveto 
1 -1 scale
(Median: 100.00) t 
GR
GR
GS
[1 0 0 1 357 93.82602] CT
0 0 1 RC
/Helvetica 24 F
GS
[1 0 0 1 0 0] CT
0 8.5 moveto 
1 -1 scale
(Mean:     98.94) t 
GR
GR
%%Trailer
%%Pages: 1
%%EOF
