%!PS-Adobe-3.0 EPSF-3.0
%%Creator: (MATLAB, The Mathworks, Inc. Version 9.3.0.713579 \(R2017b\). Operating System: Mac OS X)
%%Title: /Users/trokielewicz/Desktop/coldPAD/VGG-16/JerryPro-calculations-1/accuracy-timewise.eps
%%CreationDate: 2018-07-09T10:20:45
%%Pages: (atend)
%%BoundingBox: 0 0 1440 849
%%LanguageLevel: 3
%%EndComments
%%BeginProlog
%%BeginResource: procset (Apache XML Graphics Std ProcSet) 1.2 0
%%Version: 1.2 0
%%Copyright: (Copyright 2001-2003,2010 The Apache Software Foundation. License terms: http://www.apache.org/licenses/LICENSE-2.0)
/bd{bind def}bind def
/ld{load def}bd
/GR/grestore ld
/GS/gsave ld
/RM/rmoveto ld
/C/curveto ld
/t/show ld
/L/lineto ld
/ML/setmiterlimit ld
/CT/concat ld
/f/fill ld
/N/newpath ld
/S/stroke ld
/CC/setcmykcolor ld
/A/ashow ld
/cp/closepath ld
/RC/setrgbcolor ld
/LJ/setlinejoin ld
/GC/setgray ld
/LW/setlinewidth ld
/M/moveto ld
/re {4 2 roll M
1 index 0 rlineto
0 exch rlineto
neg 0 rlineto
cp } bd
/_ctm matrix def
/_tm matrix def
/BT { _ctm currentmatrix pop matrix _tm copy pop 0 0 moveto } bd
/ET { _ctm setmatrix } bd
/iTm { _ctm setmatrix _tm concat } bd
/Tm { _tm astore pop iTm 0 0 moveto } bd
/ux 0.0 def
/uy 0.0 def
/F {
  /Tp exch def
  /Tf exch def
  Tf findfont Tp scalefont setfont
  /cf Tf def  /cs Tp def
} bd
/ULS {currentpoint /uy exch def /ux exch def} bd
/ULE {
  /Tcx currentpoint pop def
  gsave
  newpath
  cf findfont cs scalefont dup
  /FontMatrix get 0 get /Ts exch def /FontInfo get dup
  /UnderlinePosition get Ts mul /To exch def
  /UnderlineThickness get Ts mul /Tt exch def
  ux uy To add moveto  Tcx uy To add lineto
  Tt setlinewidth stroke
  grestore
} bd
/OLE {
  /Tcx currentpoint pop def
  gsave
  newpath
  cf findfont cs scalefont dup
  /FontMatrix get 0 get /Ts exch def /FontInfo get dup
  /UnderlinePosition get Ts mul /To exch def
  /UnderlineThickness get Ts mul /Tt exch def
  ux uy To add cs add moveto Tcx uy To add cs add lineto
  Tt setlinewidth stroke
  grestore
} bd
/SOE {
  /Tcx currentpoint pop def
  gsave
  newpath
  cf findfont cs scalefont dup
  /FontMatrix get 0 get /Ts exch def /FontInfo get dup
  /UnderlinePosition get Ts mul /To exch def
  /UnderlineThickness get Ts mul /Tt exch def
  ux uy To add cs 10 mul 26 idiv add moveto Tcx uy To add cs 10 mul 26 idiv add lineto
  Tt setlinewidth stroke
  grestore
} bd
/QT {
/Y22 exch store
/X22 exch store
/Y21 exch store
/X21 exch store
currentpoint
/Y21 load 2 mul add 3 div exch
/X21 load 2 mul add 3 div exch
/X21 load 2 mul /X22 load add 3 div
/Y21 load 2 mul /Y22 load add 3 div
/X22 load /Y22 load curveto
} bd
/SSPD {
dup length /d exch dict def
{
/v exch def
/k exch def
currentpagedevice k known {
/cpdv currentpagedevice k get def
v cpdv ne {
/upd false def
/nullv v type /nulltype eq def
/nullcpdv cpdv type /nulltype eq def
nullv nullcpdv or
{
/upd true def
} {
/sametype v type cpdv type eq def
sametype {
v type /arraytype eq {
/vlen v length def
/cpdvlen cpdv length def
vlen cpdvlen eq {
0 1 vlen 1 sub {
/i exch def
/obj v i get def
/cpdobj cpdv i get def
obj cpdobj ne {
/upd true def
exit
} if
} for
} {
/upd true def
} ifelse
} {
v type /dicttype eq {
v {
/dv exch def
/dk exch def
/cpddv cpdv dk get def
dv cpddv ne {
/upd true def
exit
} if
} forall
} {
/upd true def
} ifelse
} ifelse
} if
} ifelse
upd true eq {
d k v put
} if
} if
} if
} forall
d length 0 gt {
d setpagedevice
} if
} bd
/RE { % /NewFontName [NewEncodingArray] /FontName RE -
  findfont dup length dict begin
  {
    1 index /FID ne
    {def} {pop pop} ifelse
  } forall
  /Encoding exch def
  /FontName 1 index def
  currentdict definefont pop
  end
} bind def
%%EndResource
%%BeginResource: procset (Apache XML Graphics EPS ProcSet) 1.0 0
%%Version: 1.0 0
%%Copyright: (Copyright 2002-2003 The Apache Software Foundation. License terms: http://www.apache.org/licenses/LICENSE-2.0)
/BeginEPSF { %def
/b4_Inc_state save def         % Save state for cleanup
/dict_count countdictstack def % Count objects on dict stack
/op_count count 1 sub def      % Count objects on operand stack
userdict begin                 % Push userdict on dict stack
/showpage { } def              % Redefine showpage, { } = null proc
0 setgray 0 setlinecap         % Prepare graphics state
1 setlinewidth 0 setlinejoin
10 setmiterlimit [ ] 0 setdash newpath
/languagelevel where           % If level not equal to 1 then
{pop languagelevel             % set strokeadjust and
1 ne                           % overprint to their defaults.
{false setstrokeadjust false setoverprint
} if
} if
} bd
/EndEPSF { %def
count op_count sub {pop} repeat            % Clean up stacks
countdictstack dict_count sub {end} repeat
b4_Inc_state restore
} bd
%%EndResource
%FOPBeginFontDict
%%IncludeResource: font Courier-Oblique
%%IncludeResource: font Courier-BoldOblique
%%IncludeResource: font Courier-Bold
%%IncludeResource: font ZapfDingbats
%%IncludeResource: font Symbol
%%IncludeResource: font Helvetica
%%IncludeResource: font Helvetica-Oblique
%%IncludeResource: font Helvetica-Bold
%%IncludeResource: font Helvetica-BoldOblique
%%IncludeResource: font Times-Roman
%%IncludeResource: font Times-Italic
%%IncludeResource: font Times-Bold
%%IncludeResource: font Times-BoldItalic
%%IncludeResource: font Courier
%FOPEndFontDict
%%BeginResource: encoding WinAnsiEncoding
/WinAnsiEncoding [
/.notdef /.notdef /.notdef /.notdef /.notdef
/.notdef /.notdef /.notdef /.notdef /.notdef
/.notdef /.notdef /.notdef /.notdef /.notdef
/.notdef /.notdef /.notdef /.notdef /.notdef
/.notdef /.notdef /.notdef /.notdef /.notdef
/.notdef /.notdef /.notdef /.notdef /.notdef
/.notdef /.notdef /space /exclam /quotedbl
/numbersign /dollar /percent /ampersand /quotesingle
/parenleft /parenright /asterisk /plus /comma
/hyphen /period /slash /zero /one
/two /three /four /five /six
/seven /eight /nine /colon /semicolon
/less /equal /greater /question /at
/A /B /C /D /E
/F /G /H /I /J
/K /L /M /N /O
/P /Q /R /S /T
/U /V /W /X /Y
/Z /bracketleft /backslash /bracketright /asciicircum
/underscore /quoteleft /a /b /c
/d /e /f /g /h
/i /j /k /l /m
/n /o /p /q /r
/s /t /u /v /w
/x /y /z /braceleft /bar
/braceright /asciitilde /bullet /Euro /bullet
/quotesinglbase /florin /quotedblbase /ellipsis /dagger
/daggerdbl /circumflex /perthousand /Scaron /guilsinglleft
/OE /bullet /Zcaron /bullet /bullet
/quoteleft /quoteright /quotedblleft /quotedblright /bullet
/endash /emdash /asciitilde /trademark /scaron
/guilsinglright /oe /bullet /zcaron /Ydieresis
/space /exclamdown /cent /sterling /currency
/yen /brokenbar /section /dieresis /copyright
/ordfeminine /guillemotleft /logicalnot /sfthyphen /registered
/macron /degree /plusminus /twosuperior /threesuperior
/acute /mu /paragraph /middot /cedilla
/onesuperior /ordmasculine /guillemotright /onequarter /onehalf
/threequarters /questiondown /Agrave /Aacute /Acircumflex
/Atilde /Adieresis /Aring /AE /Ccedilla
/Egrave /Eacute /Ecircumflex /Edieresis /Igrave
/Iacute /Icircumflex /Idieresis /Eth /Ntilde
/Ograve /Oacute /Ocircumflex /Otilde /Odieresis
/multiply /Oslash /Ugrave /Uacute /Ucircumflex
/Udieresis /Yacute /Thorn /germandbls /agrave
/aacute /acircumflex /atilde /adieresis /aring
/ae /ccedilla /egrave /eacute /ecircumflex
/edieresis /igrave /iacute /icircumflex /idieresis
/eth /ntilde /ograve /oacute /ocircumflex
/otilde /odieresis /divide /oslash /ugrave
/uacute /ucircumflex /udieresis /yacute /thorn
/ydieresis
] def
%%EndResource
%FOPBeginFontReencode
/Courier-Oblique findfont
dup length dict begin
  {1 index /FID ne {def} {pop pop} ifelse} forall
  /Encoding WinAnsiEncoding def
  currentdict
end
/Courier-Oblique exch definefont pop
/Courier-BoldOblique findfont
dup length dict begin
  {1 index /FID ne {def} {pop pop} ifelse} forall
  /Encoding WinAnsiEncoding def
  currentdict
end
/Courier-BoldOblique exch definefont pop
/Courier-Bold findfont
dup length dict begin
  {1 index /FID ne {def} {pop pop} ifelse} forall
  /Encoding WinAnsiEncoding def
  currentdict
end
/Courier-Bold exch definefont pop
/Helvetica findfont
dup length dict begin
  {1 index /FID ne {def} {pop pop} ifelse} forall
  /Encoding WinAnsiEncoding def
  currentdict
end
/Helvetica exch definefont pop
/Helvetica-Oblique findfont
dup length dict begin
  {1 index /FID ne {def} {pop pop} ifelse} forall
  /Encoding WinAnsiEncoding def
  currentdict
end
/Helvetica-Oblique exch definefont pop
/Helvetica-Bold findfont
dup length dict begin
  {1 index /FID ne {def} {pop pop} ifelse} forall
  /Encoding WinAnsiEncoding def
  currentdict
end
/Helvetica-Bold exch definefont pop
/Helvetica-BoldOblique findfont
dup length dict begin
  {1 index /FID ne {def} {pop pop} ifelse} forall
  /Encoding WinAnsiEncoding def
  currentdict
end
/Helvetica-BoldOblique exch definefont pop
/Times-Roman findfont
dup length dict begin
  {1 index /FID ne {def} {pop pop} ifelse} forall
  /Encoding WinAnsiEncoding def
  currentdict
end
/Times-Roman exch definefont pop
/Times-Italic findfont
dup length dict begin
  {1 index /FID ne {def} {pop pop} ifelse} forall
  /Encoding WinAnsiEncoding def
  currentdict
end
/Times-Italic exch definefont pop
/Times-Bold findfont
dup length dict begin
  {1 index /FID ne {def} {pop pop} ifelse} forall
  /Encoding WinAnsiEncoding def
  currentdict
end
/Times-Bold exch definefont pop
/Times-BoldItalic findfont
dup length dict begin
  {1 index /FID ne {def} {pop pop} ifelse} forall
  /Encoding WinAnsiEncoding def
  currentdict
end
/Times-BoldItalic exch definefont pop
/Courier findfont
dup length dict begin
  {1 index /FID ne {def} {pop pop} ifelse} forall
  /Encoding WinAnsiEncoding def
  currentdict
end
/Courier exch definefont pop
%FOPEndFontReencode
%%EndProlog
%%Page: 1 1
%%PageBoundingBox: 0 0 1440 849
%%BeginPageSetup
[1 0 0 -1 0 849] CT
%%EndPageSetup
GS
1 GC
N
0 0 1440 849 re
f
GR
GS
1 GC
N
0 0 1440 849 re
f
GR
GS
1 GC
N
64 756 M
1423 756 L
1423 64 L
64 64 L
cp
f
GR
GS
0.873 GC
1 LJ
0.5 LW
N
84.591 756 M
84.591 64 L
S
GR
GS
0.873 GC
1 LJ
0.5 LW
N
125.773 756 M
125.773 64 L
S
GR
GS
0.873 GC
1 LJ
0.5 LW
N
166.955 756 M
166.955 64 L
S
GR
GS
0.873 GC
1 LJ
0.5 LW
N
208.136 756 M
208.136 64 L
S
GR
GS
0.873 GC
1 LJ
0.5 LW
N
249.318 756 M
249.318 64 L
S
GR
GS
0.873 GC
1 LJ
0.5 LW
N
290.5 756 M
290.5 64 L
S
GR
GS
0.873 GC
1 LJ
0.5 LW
N
331.682 756 M
331.682 64 L
S
GR
GS
0.873 GC
1 LJ
0.5 LW
N
372.864 756 M
372.864 64 L
S
GR
GS
0.873 GC
1 LJ
0.5 LW
N
414.045 756 M
414.045 64 L
S
GR
GS
0.873 GC
1 LJ
0.5 LW
N
455.227 756 M
455.227 64 L
S
GR
GS
0.873 GC
1 LJ
0.5 LW
N
496.409 756 M
496.409 64 L
S
GR
GS
0.873 GC
1 LJ
0.5 LW
N
537.591 756 M
537.591 64 L
S
GR
GS
0.873 GC
1 LJ
0.5 LW
N
578.773 756 M
578.773 64 L
S
GR
GS
0.873 GC
1 LJ
0.5 LW
N
619.955 756 M
619.955 64 L
S
GR
GS
0.873 GC
1 LJ
0.5 LW
N
661.136 756 M
661.136 64 L
S
GR
GS
0.873 GC
1 LJ
0.5 LW
N
702.318 756 M
702.318 64 L
S
GR
GS
0.873 GC
1 LJ
0.5 LW
N
743.5 756 M
743.5 64 L
S
GR
GS
0.873 GC
1 LJ
0.5 LW
N
784.682 756 M
784.682 64 L
S
GR
GS
0.873 GC
1 LJ
0.5 LW
N
825.864 756 M
825.864 64 L
S
GR
GS
0.873 GC
1 LJ
0.5 LW
N
867.045 756 M
867.045 64 L
S
GR
GS
0.873 GC
1 LJ
0.5 LW
N
908.227 756 M
908.227 64 L
S
GR
GS
0.873 GC
1 LJ
0.5 LW
N
949.409 756 M
949.409 64 L
S
GR
GS
0.873 GC
1 LJ
0.5 LW
N
990.591 756 M
990.591 64 L
S
GR
GS
0.873 GC
1 LJ
0.5 LW
N
1031.773 756 M
1031.773 64 L
S
GR
GS
0.873 GC
1 LJ
0.5 LW
N
1072.955 756 M
1072.955 64 L
S
GR
GS
0.873 GC
1 LJ
0.5 LW
N
1114.136 756 M
1114.136 64 L
S
GR
GS
0.873 GC
1 LJ
0.5 LW
N
1155.318 756 M
1155.318 64 L
S
GR
GS
0.873 GC
1 LJ
0.5 LW
N
1196.5 756 M
1196.5 64 L
S
GR
GS
0.873 GC
1 LJ
0.5 LW
N
1237.682 756 M
1237.682 64 L
S
GR
GS
0.873 GC
1 LJ
0.5 LW
N
1278.864 756 M
1278.864 64 L
S
GR
GS
0.873 GC
1 LJ
0.5 LW
N
1320.045 756 M
1320.045 64 L
S
GR
GS
0.873 GC
1 LJ
0.5 LW
N
1361.227 756 M
1361.227 64 L
S
GR
GS
0.873 GC
1 LJ
0.5 LW
N
1402.409 756 M
1402.409 64 L
S
GR
GS
0.873 GC
1 LJ
0.5 LW
N
1423 724.062 M
64 724.062 L
S
GR
GS
0.873 GC
1 LJ
0.5 LW
N
1423 661.201 M
64 661.201 L
S
GR
GS
0.873 GC
1 LJ
0.5 LW
N
1423 598.341 M
64 598.341 L
S
GR
GS
0.873 GC
1 LJ
0.5 LW
N
1423 535.48 M
64 535.48 L
S
GR
GS
0.873 GC
1 LJ
0.5 LW
N
1423 472.619 M
64 472.619 L
S
GR
GS
0.873 GC
1 LJ
0.5 LW
N
1423 409.758 M
64 409.758 L
S
GR
GS
0.873 GC
1 LJ
0.5 LW
N
1423 346.898 M
64 346.898 L
S
GR
GS
0.873 GC
1 LJ
0.5 LW
N
1423 284.037 M
64 284.037 L
S
GR
GS
0.873 GC
1 LJ
0.5 LW
N
1423 221.176 M
64 221.176 L
S
GR
GS
0.873 GC
1 LJ
0.5 LW
N
1423 158.315 M
64 158.315 L
S
GR
GS
0.873 GC
1 LJ
0.5 LW
N
1423 95.455 M
64 95.455 L
S
GR
GS
0.149 GC
2 setlinecap
1 LJ
0.5 LW
N
64 756 M
1423 756 L
S
GR
GS
0.149 GC
2 setlinecap
1 LJ
0.5 LW
N
64 64 M
1423 64 L
S
GR
GS
0.149 GC
2 setlinecap
1 LJ
0.5 LW
N
84.591 756 M
84.591 742.41 L
S
GR
GS
0.149 GC
2 setlinecap
1 LJ
0.5 LW
N
125.773 756 M
125.773 742.41 L
S
GR
GS
0.149 GC
2 setlinecap
1 LJ
0.5 LW
N
166.955 756 M
166.955 742.41 L
S
GR
GS
0.149 GC
2 setlinecap
1 LJ
0.5 LW
N
208.136 756 M
208.136 742.41 L
S
GR
GS
0.149 GC
2 setlinecap
1 LJ
0.5 LW
N
249.318 756 M
249.318 742.41 L
S
GR
GS
0.149 GC
2 setlinecap
1 LJ
0.5 LW
N
290.5 756 M
290.5 742.41 L
S
GR
GS
0.149 GC
2 setlinecap
1 LJ
0.5 LW
N
331.682 756 M
331.682 742.41 L
S
GR
GS
0.149 GC
2 setlinecap
1 LJ
0.5 LW
N
372.864 756 M
372.864 742.41 L
S
GR
GS
0.149 GC
2 setlinecap
1 LJ
0.5 LW
N
414.045 756 M
414.045 742.41 L
S
GR
GS
0.149 GC
2 setlinecap
1 LJ
0.5 LW
N
455.227 756 M
455.227 742.41 L
S
GR
GS
0.149 GC
2 setlinecap
1 LJ
0.5 LW
N
496.409 756 M
496.409 742.41 L
S
GR
GS
0.149 GC
2 setlinecap
1 LJ
0.5 LW
N
537.591 756 M
537.591 742.41 L
S
GR
GS
0.149 GC
2 setlinecap
1 LJ
0.5 LW
N
578.773 756 M
578.773 742.41 L
S
GR
GS
0.149 GC
2 setlinecap
1 LJ
0.5 LW
N
619.955 756 M
619.955 742.41 L
S
GR
GS
0.149 GC
2 setlinecap
1 LJ
0.5 LW
N
661.136 756 M
661.136 742.41 L
S
GR
GS
0.149 GC
2 setlinecap
1 LJ
0.5 LW
N
702.318 756 M
702.318 742.41 L
S
GR
GS
0.149 GC
2 setlinecap
1 LJ
0.5 LW
N
743.5 756 M
743.5 742.41 L
S
GR
GS
0.149 GC
2 setlinecap
1 LJ
0.5 LW
N
784.682 756 M
784.682 742.41 L
S
GR
GS
0.149 GC
2 setlinecap
1 LJ
0.5 LW
N
825.864 756 M
825.864 742.41 L
S
GR
GS
0.149 GC
2 setlinecap
1 LJ
0.5 LW
N
867.045 756 M
867.045 742.41 L
S
GR
GS
0.149 GC
2 setlinecap
1 LJ
0.5 LW
N
908.227 756 M
908.227 742.41 L
S
GR
GS
0.149 GC
2 setlinecap
1 LJ
0.5 LW
N
949.409 756 M
949.409 742.41 L
S
GR
GS
0.149 GC
2 setlinecap
1 LJ
0.5 LW
N
990.591 756 M
990.591 742.41 L
S
GR
GS
0.149 GC
2 setlinecap
1 LJ
0.5 LW
N
1031.773 756 M
1031.773 742.41 L
S
GR
GS
0.149 GC
2 setlinecap
1 LJ
0.5 LW
N
1072.955 756 M
1072.955 742.41 L
S
GR
GS
0.149 GC
2 setlinecap
1 LJ
0.5 LW
N
1114.136 756 M
1114.136 742.41 L
S
GR
GS
0.149 GC
2 setlinecap
1 LJ
0.5 LW
N
1155.318 756 M
1155.318 742.41 L
S
GR
GS
0.149 GC
2 setlinecap
1 LJ
0.5 LW
N
1196.5 756 M
1196.5 742.41 L
S
GR
GS
0.149 GC
2 setlinecap
1 LJ
0.5 LW
N
1237.682 756 M
1237.682 742.41 L
S
GR
GS
0.149 GC
2 setlinecap
1 LJ
0.5 LW
N
1278.864 756 M
1278.864 742.41 L
S
GR
GS
0.149 GC
2 setlinecap
1 LJ
0.5 LW
N
1320.045 756 M
1320.045 742.41 L
S
GR
GS
0.149 GC
2 setlinecap
1 LJ
0.5 LW
N
1361.227 756 M
1361.227 742.41 L
S
GR
GS
0.149 GC
2 setlinecap
1 LJ
0.5 LW
N
1402.409 756 M
1402.409 742.41 L
S
GR
GS
0.149 GC
2 setlinecap
1 LJ
0.5 LW
N
84.591 64 M
84.591 77.59 L
S
GR
GS
0.149 GC
2 setlinecap
1 LJ
0.5 LW
N
125.773 64 M
125.773 77.59 L
S
GR
GS
0.149 GC
2 setlinecap
1 LJ
0.5 LW
N
166.955 64 M
166.955 77.59 L
S
GR
GS
0.149 GC
2 setlinecap
1 LJ
0.5 LW
N
208.136 64 M
208.136 77.59 L
S
GR
GS
0.149 GC
2 setlinecap
1 LJ
0.5 LW
N
249.318 64 M
249.318 77.59 L
S
GR
GS
0.149 GC
2 setlinecap
1 LJ
0.5 LW
N
290.5 64 M
290.5 77.59 L
S
GR
GS
0.149 GC
2 setlinecap
1 LJ
0.5 LW
N
331.682 64 M
331.682 77.59 L
S
GR
GS
0.149 GC
2 setlinecap
1 LJ
0.5 LW
N
372.864 64 M
372.864 77.59 L
S
GR
GS
0.149 GC
2 setlinecap
1 LJ
0.5 LW
N
414.045 64 M
414.045 77.59 L
S
GR
GS
0.149 GC
2 setlinecap
1 LJ
0.5 LW
N
455.227 64 M
455.227 77.59 L
S
GR
GS
0.149 GC
2 setlinecap
1 LJ
0.5 LW
N
496.409 64 M
496.409 77.59 L
S
GR
GS
0.149 GC
2 setlinecap
1 LJ
0.5 LW
N
537.591 64 M
537.591 77.59 L
S
GR
GS
0.149 GC
2 setlinecap
1 LJ
0.5 LW
N
578.773 64 M
578.773 77.59 L
S
GR
GS
0.149 GC
2 setlinecap
1 LJ
0.5 LW
N
619.955 64 M
619.955 77.59 L
S
GR
GS
0.149 GC
2 setlinecap
1 LJ
0.5 LW
N
661.136 64 M
661.136 77.59 L
S
GR
GS
0.149 GC
2 setlinecap
1 LJ
0.5 LW
N
702.318 64 M
702.318 77.59 L
S
GR
GS
0.149 GC
2 setlinecap
1 LJ
0.5 LW
N
743.5 64 M
743.5 77.59 L
S
GR
GS
0.149 GC
2 setlinecap
1 LJ
0.5 LW
N
784.682 64 M
784.682 77.59 L
S
GR
GS
0.149 GC
2 setlinecap
1 LJ
0.5 LW
N
825.864 64 M
825.864 77.59 L
S
GR
GS
0.149 GC
2 setlinecap
1 LJ
0.5 LW
N
867.045 64 M
867.045 77.59 L
S
GR
GS
0.149 GC
2 setlinecap
1 LJ
0.5 LW
N
908.227 64 M
908.227 77.59 L
S
GR
GS
0.149 GC
2 setlinecap
1 LJ
0.5 LW
N
949.409 64 M
949.409 77.59 L
S
GR
GS
0.149 GC
2 setlinecap
1 LJ
0.5 LW
N
990.591 64 M
990.591 77.59 L
S
GR
GS
0.149 GC
2 setlinecap
1 LJ
0.5 LW
N
1031.773 64 M
1031.773 77.59 L
S
GR
GS
0.149 GC
2 setlinecap
1 LJ
0.5 LW
N
1072.955 64 M
1072.955 77.59 L
S
GR
GS
0.149 GC
2 setlinecap
1 LJ
0.5 LW
N
1114.136 64 M
1114.136 77.59 L
S
GR
GS
0.149 GC
2 setlinecap
1 LJ
0.5 LW
N
1155.318 64 M
1155.318 77.59 L
S
GR
GS
0.149 GC
2 setlinecap
1 LJ
0.5 LW
N
1196.5 64 M
1196.5 77.59 L
S
GR
GS
0.149 GC
2 setlinecap
1 LJ
0.5 LW
N
1237.682 64 M
1237.682 77.59 L
S
GR
GS
0.149 GC
2 setlinecap
1 LJ
0.5 LW
N
1278.864 64 M
1278.864 77.59 L
S
GR
GS
0.149 GC
2 setlinecap
1 LJ
0.5 LW
N
1320.045 64 M
1320.045 77.59 L
S
GR
GS
0.149 GC
2 setlinecap
1 LJ
0.5 LW
N
1361.227 64 M
1361.227 77.59 L
S
GR
GS
0.149 GC
2 setlinecap
1 LJ
0.5 LW
N
1402.409 64 M
1402.409 77.59 L
S
GR
GS
[1 0 0 1 84.59091 762.40002] CT
0.149 GC
/Helvetica 22 F
GS
[1 0 0 1 0 0] CT
-6.5 21 moveto 
1 -1 scale
(0) t 
GR
GR
GS
[1 0 0 1 125.77273 762.40002] CT
0.149 GC
/Helvetica 22 F
GS
[1 0 0 1 0 0] CT
-6.5 21 moveto 
1 -1 scale
(5) t 
GR
GR
GS
[1 0 0 1 166.95454 762.40002] CT
0.149 GC
/Helvetica 22 F
GS
[1 0 0 1 0 0] CT
-12.5 21 moveto 
1 -1 scale
(16) t 
GR
GR
GS
[1 0 0 1 208.13637 762.40002] CT
0.149 GC
/Helvetica 22 F
GS
[1 0 0 1 0 0] CT
-12.5 21 moveto 
1 -1 scale
(17) t 
GR
GR
GS
[1 0 0 1 249.31818 762.40002] CT
0.149 GC
/Helvetica 22 F
GS
[1 0 0 1 0 0] CT
-21.5 21 moveto 
1 -1 scale
(20.5) t 
GR
GR
GS
[1 0 0 1 290.5 762.40002] CT
0.149 GC
/Helvetica 22 F
GS
[1 0 0 1 0 0] CT
-12.5 21 moveto 
1 -1 scale
(21) t 
GR
GR
GS
[1 0 0 1 331.68182 762.40002] CT
0.149 GC
/Helvetica 22 F
GS
[1 0 0 1 0 0] CT
-12.5 21 moveto 
1 -1 scale
(22) t 
GR
GR
GS
[1 0 0 1 372.86365 762.40002] CT
0.149 GC
/Helvetica 22 F
GS
[1 0 0 1 0 0] CT
-12.5 21 moveto 
1 -1 scale
(23) t 
GR
GR
GS
[1 0 0 1 414.04544 762.40002] CT
0.149 GC
/Helvetica 22 F
GS
[1 0 0 1 0 0] CT
-12.5 21 moveto 
1 -1 scale
(25) t 
GR
GR
GS
[1 0 0 1 455.22726 762.40002] CT
0.149 GC
/Helvetica 22 F
GS
[1 0 0 1 0 0] CT
-12.5 21 moveto 
1 -1 scale
(27) t 
GR
GR
GS
[1 0 0 1 496.40909 762.40002] CT
0.149 GC
/Helvetica 22 F
GS
[1 0 0 1 0 0] CT
-12.5 21 moveto 
1 -1 scale
(40) t 
GR
GR
GS
[1 0 0 1 537.59088 762.40002] CT
0.149 GC
/Helvetica 22 F
GS
[1 0 0 1 0 0] CT
-12.5 21 moveto 
1 -1 scale
(41) t 
GR
GR
GS
[1 0 0 1 578.77271 762.40002] CT
0.149 GC
/Helvetica 22 F
GS
[1 0 0 1 0 0] CT
-12.5 21 moveto 
1 -1 scale
(46) t 
GR
GR
GS
[1 0 0 1 619.95453 762.40002] CT
0.149 GC
/Helvetica 22 F
GS
[1 0 0 1 0 0] CT
-12.5 21 moveto 
1 -1 scale
(49) t 
GR
GR
GS
[1 0 0 1 661.13635 762.40002] CT
0.149 GC
/Helvetica 22 F
GS
[1 0 0 1 0 0] CT
-12.5 21 moveto 
1 -1 scale
(65) t 
GR
GR
GS
[1 0 0 1 702.31818 762.40002] CT
0.149 GC
/Helvetica 22 F
GS
[1 0 0 1 0 0] CT
-12.5 21 moveto 
1 -1 scale
(67) t 
GR
GR
GS
[1 0 0 1 743.5 762.40002] CT
0.149 GC
/Helvetica 22 F
GS
[1 0 0 1 0 0] CT
-12.5 21 moveto 
1 -1 scale
(69) t 
GR
GR
GS
[1 0 0 1 784.68182 762.40002] CT
0.149 GC
/Helvetica 22 F
GS
[1 0 0 1 0 0] CT
-12.5 21 moveto 
1 -1 scale
(70) t 
GR
GR
GS
[1 0 0 1 825.86365 762.40002] CT
0.149 GC
/Helvetica 22 F
GS
[1 0 0 1 0 0] CT
-12.5 21 moveto 
1 -1 scale
(95) t 
GR
GR
GS
[1 0 0 1 867.04547 762.40002] CT
0.149 GC
/Helvetica 22 F
GS
[1 0 0 1 0 0] CT
-18.5 21 moveto 
1 -1 scale
(115) t 
GR
GR
GS
[1 0 0 1 908.22729 762.40002] CT
0.149 GC
/Helvetica 22 F
GS
[1 0 0 1 0 0] CT
-18.5 21 moveto 
1 -1 scale
(117) t 
GR
GR
GS
[1 0 0 1 949.40912 762.40002] CT
0.149 GC
/Helvetica 22 F
GS
[1 0 0 1 0 0] CT
-18.5 21 moveto 
1 -1 scale
(122) t 
GR
GR
GS
[1 0 0 1 990.59088 762.40002] CT
0.149 GC
/Helvetica 22 F
GS
[1 0 0 1 0 0] CT
-18.5 21 moveto 
1 -1 scale
(154) t 
GR
GR
GS
[1 0 0 1 1031.77271 762.40002] CT
0.149 GC
/Helvetica 22 F
GS
[1 0 0 1 0 0] CT
-18.5 21 moveto 
1 -1 scale
(211) t 
GR
GR
GS
[1 0 0 1 1072.95459 762.40002] CT
0.149 GC
/Helvetica 22 F
GS
[1 0 0 1 0 0] CT
-18.5 21 moveto 
1 -1 scale
(215) t 
GR
GR
GS
[1 0 0 1 1114.13635 762.40002] CT
0.149 GC
/Helvetica 22 F
GS
[1 0 0 1 0 0] CT
-18.5 21 moveto 
1 -1 scale
(263) t 
GR
GR
GS
[1 0 0 1 1155.31824 762.40002] CT
0.149 GC
/Helvetica 22 F
GS
[1 0 0 1 0 0] CT
-18.5 21 moveto 
1 -1 scale
(359) t 
GR
GR
GS
[1 0 0 1 1196.5 762.40002] CT
0.149 GC
/Helvetica 22 F
GS
[1 0 0 1 0 0] CT
-18.5 21 moveto 
1 -1 scale
(407) t 
GR
GR
GS
[1 0 0 1 1237.68176 762.40002] CT
0.149 GC
/Helvetica 22 F
GS
[1 0 0 1 0 0] CT
-18.5 21 moveto 
1 -1 scale
(503) t 
GR
GR
GS
[1 0 0 1 1278.86365 762.40002] CT
0.149 GC
/Helvetica 22 F
GS
[1 0 0 1 0 0] CT
-18.5 21 moveto 
1 -1 scale
(574) t 
GR
GR
GS
[1 0 0 1 1320.04541 762.40002] CT
0.149 GC
/Helvetica 22 F
GS
[1 0 0 1 0 0] CT
-18.5 21 moveto 
1 -1 scale
(622) t 
GR
GR
GS
[1 0 0 1 1361.22729 762.40002] CT
0.149 GC
/Helvetica 22 F
GS
[1 0 0 1 0 0] CT
-18.5 21 moveto 
1 -1 scale
(742) t 
GR
GR
GS
[1 0 0 1 1402.40906 762.40002] CT
0.149 GC
/Helvetica 22 F
GS
[1 0 0 1 0 0] CT
-18.5 21 moveto 
1 -1 scale
(814) t 
GR
GR
GS
[1 0 0 1 743.50061 789.40002] CT
0.149 GC
/Helvetica 24.2 F
GS
[1 0 0 1 0 0] CT
-106.5 24 moveto 
1 -1 scale
(Hours post-mortem) t 
GR
GR
GS
0.149 GC
2 setlinecap
1 LJ
0.5 LW
N
64 756 M
64 64 L
S
GR
GS
0.149 GC
2 setlinecap
1 LJ
0.5 LW
N
1423 756 M
1423 64 L
S
GR
GS
0.149 GC
2 setlinecap
1 LJ
0.5 LW
N
64 724.062 M
77.59 724.062 L
S
GR
GS
0.149 GC
2 setlinecap
1 LJ
0.5 LW
N
64 661.201 M
77.59 661.201 L
S
GR
GS
0.149 GC
2 setlinecap
1 LJ
0.5 LW
N
64 598.341 M
77.59 598.341 L
S
GR
GS
0.149 GC
2 setlinecap
1 LJ
0.5 LW
N
64 535.48 M
77.59 535.48 L
S
GR
GS
0.149 GC
2 setlinecap
1 LJ
0.5 LW
N
64 472.619 M
77.59 472.619 L
S
GR
GS
0.149 GC
2 setlinecap
1 LJ
0.5 LW
N
64 409.758 M
77.59 409.758 L
S
GR
GS
0.149 GC
2 setlinecap
1 LJ
0.5 LW
N
64 346.898 M
77.59 346.898 L
S
GR
GS
0.149 GC
2 setlinecap
1 LJ
0.5 LW
N
64 284.037 M
77.59 284.037 L
S
GR
GS
0.149 GC
2 setlinecap
1 LJ
0.5 LW
N
64 221.176 M
77.59 221.176 L
S
GR
GS
0.149 GC
2 setlinecap
1 LJ
0.5 LW
N
64 158.315 M
77.59 158.315 L
S
GR
GS
0.149 GC
2 setlinecap
1 LJ
0.5 LW
N
64 95.455 M
77.59 95.455 L
S
GR
GS
0.149 GC
2 setlinecap
1 LJ
0.5 LW
N
1423 724.062 M
1409.41 724.062 L
S
GR
GS
0.149 GC
2 setlinecap
1 LJ
0.5 LW
N
1423 661.201 M
1409.41 661.201 L
S
GR
GS
0.149 GC
2 setlinecap
1 LJ
0.5 LW
N
1423 598.341 M
1409.41 598.341 L
S
GR
GS
0.149 GC
2 setlinecap
1 LJ
0.5 LW
N
1423 535.48 M
1409.41 535.48 L
S
GR
GS
0.149 GC
2 setlinecap
1 LJ
0.5 LW
N
1423 472.619 M
1409.41 472.619 L
S
GR
GS
0.149 GC
2 setlinecap
1 LJ
0.5 LW
N
1423 409.758 M
1409.41 409.758 L
S
GR
GS
0.149 GC
2 setlinecap
1 LJ
0.5 LW
N
1423 346.898 M
1409.41 346.898 L
S
GR
GS
0.149 GC
2 setlinecap
1 LJ
0.5 LW
N
1423 284.037 M
1409.41 284.037 L
S
GR
GS
0.149 GC
2 setlinecap
1 LJ
0.5 LW
N
1423 221.176 M
1409.41 221.176 L
S
GR
GS
0.149 GC
2 setlinecap
1 LJ
0.5 LW
N
1423 158.315 M
1409.41 158.315 L
S
GR
GS
0.149 GC
2 setlinecap
1 LJ
0.5 LW
N
1423 95.455 M
1409.41 95.455 L
S
GR
GS
[1 0 0 1 57.6 724.06201] CT
0.149 GC
/Helvetica 22 F
GS
[1 0 0 1 0 0] CT
-13 8 moveto 
1 -1 scale
(0) t 
GR
GR
GS
[1 0 0 1 57.6 661.20129] CT
0.149 GC
/Helvetica 22 F
GS
[1 0 0 1 0 0] CT
-31 8 moveto 
1 -1 scale
(0.1) t 
GR
GR
GS
[1 0 0 1 57.6 598.34052] CT
0.149 GC
/Helvetica 22 F
GS
[1 0 0 1 0 0] CT
-31 8 moveto 
1 -1 scale
(0.2) t 
GR
GR
GS
[1 0 0 1 57.6 535.47974] CT
0.149 GC
/Helvetica 22 F
GS
[1 0 0 1 0 0] CT
-31 8 moveto 
1 -1 scale
(0.3) t 
GR
GR
GS
[1 0 0 1 57.6 472.61902] CT
0.149 GC
/Helvetica 22 F
GS
[1 0 0 1 0 0] CT
-31 8 moveto 
1 -1 scale
(0.4) t 
GR
GR
GS
[1 0 0 1 57.6 409.75827] CT
0.149 GC
/Helvetica 22 F
GS
[1 0 0 1 0 0] CT
-31 8 moveto 
1 -1 scale
(0.5) t 
GR
GR
GS
[1 0 0 1 57.6 346.89752] CT
0.149 GC
/Helvetica 22 F
GS
[1 0 0 1 0 0] CT
-31 8 moveto 
1 -1 scale
(0.6) t 
GR
GR
GS
[1 0 0 1 57.6 284.0368] CT
0.149 GC
/Helvetica 22 F
GS
[1 0 0 1 0 0] CT
-31 8 moveto 
1 -1 scale
(0.7) t 
GR
GR
GS
[1 0 0 1 57.6 221.17603] CT
0.149 GC
/Helvetica 22 F
GS
[1 0 0 1 0 0] CT
-31 8 moveto 
1 -1 scale
(0.8) t 
GR
GR
GS
[1 0 0 1 57.6 158.31531] CT
0.149 GC
/Helvetica 22 F
GS
[1 0 0 1 0 0] CT
-31 8 moveto 
1 -1 scale
(0.9) t 
GR
GR
GS
[1 0 0 1 57.6 95.45454] CT
0.149 GC
/Helvetica 22 F
GS
[1 0 0 1 0 0] CT
-13 8 moveto 
1 -1 scale
(1) t 
GR
GR
GS
[0 -1 1 0 23.6 409.99966] CT
0.149 GC
/Helvetica 24.2 F
GS
[1 0 0 1 0 0] CT
-81 -6 moveto 
1 -1 scale
(Liveness score) t 
GR
GR
GS
[1 0 0 1 743.50073 57.94998] CT
/Helvetica-Bold 24.2 F
GS
[1 0 0 1 0 0] CT
-363 -6 moveto 
1 -1 scale
(Liveness score in respect to sample capture time post-mortem) t 
GR
GR
GS
[10 6] 0 setdash
2 LJ
0.5 LW
N
84.591 95.458 M
84.591 95.455 L
S
GR
GS
[10 6] 0 setdash
2 LJ
0.5 LW
N
125.773 723.839 M
125.773 723.591 L
S
GR
GS
[10 6] 0 setdash
2 LJ
0.5 LW
N
166.955 724.056 M
166.955 724.049 L
S
GR
GS
[10 6] 0 setdash
2 LJ
0.5 LW
N
208.136 724.043 M
208.136 724.018 L
S
GR
GS
[10 6] 0 setdash
2 LJ
0.5 LW
N
249.318 721.887 M
249.318 720.649 L
S
GR
GS
[10 6] 0 setdash
2 LJ
0.5 LW
N
290.5 724.049 M
290.5 724.049 L
S
GR
GS
[10 6] 0 setdash
2 LJ
0.5 LW
N
331.682 724.062 M
331.682 724.062 L
S
GR
GS
[10 6] 0 setdash
2 LJ
0.5 LW
N
372.864 723.245 M
372.864 722.365 L
S
GR
GS
[10 6] 0 setdash
2 LJ
0.5 LW
N
414.045 724.056 M
414.045 724.049 L
S
GR
GS
[10 6] 0 setdash
2 LJ
0.5 LW
N
455.227 724.056 M
455.227 724.049 L
S
GR
GS
[10 6] 0 setdash
2 LJ
0.5 LW
N
496.409 724.062 M
496.409 724.062 L
S
GR
GS
[10 6] 0 setdash
2 LJ
0.5 LW
N
537.591 724.062 M
537.591 724.062 L
S
GR
GS
[10 6] 0 setdash
2 LJ
0.5 LW
N
578.773 724.062 M
578.773 724.062 L
S
GR
GS
[10 6] 0 setdash
2 LJ
0.5 LW
N
619.955 724.062 M
619.955 724.062 L
S
GR
GS
[10 6] 0 setdash
2 LJ
0.5 LW
N
661.136 724.062 M
661.136 724.062 L
S
GR
GS
[10 6] 0 setdash
2 LJ
0.5 LW
N
702.318 724.062 M
702.318 724.062 L
S
GR
GS
[10 6] 0 setdash
2 LJ
0.5 LW
N
743.5 724.062 M
743.5 724.062 L
S
GR
GS
[10 6] 0 setdash
2 LJ
0.5 LW
N
784.682 724.062 M
784.682 724.062 L
S
GR
GS
[10 6] 0 setdash
2 LJ
0.5 LW
N
825.864 724.062 M
825.864 724.062 L
S
GR
GS
[10 6] 0 setdash
2 LJ
0.5 LW
N
867.045 724.062 M
867.045 724.062 L
S
GR
GS
[10 6] 0 setdash
2 LJ
0.5 LW
N
908.227 724.062 M
908.227 724.062 L
S
GR
GS
[10 6] 0 setdash
2 LJ
0.5 LW
N
949.409 724.062 M
949.409 724.062 L
S
GR
GS
[10 6] 0 setdash
2 LJ
0.5 LW
N
990.591 724.062 M
990.591 724.062 L
S
GR
GS
[10 6] 0 setdash
2 LJ
0.5 LW
N
1031.773 724.062 M
1031.773 724.062 L
S
GR
GS
[10 6] 0 setdash
2 LJ
0.5 LW
N
1072.955 724.056 M
1072.955 724.049 L
S
GR
GS
[10 6] 0 setdash
2 LJ
0.5 LW
N
1114.136 724.049 M
1114.136 724.037 L
S
GR
GS
[10 6] 0 setdash
2 LJ
0.5 LW
N
1155.318 724.056 M
1155.318 724.049 L
S
GR
GS
[10 6] 0 setdash
2 LJ
0.5 LW
N
1196.5 724.034 M
1196.5 724.024 L
S
GR
GS
[10 6] 0 setdash
2 LJ
0.5 LW
N
1237.682 724.031 M
1237.682 724.031 L
S
GR
GS
[10 6] 0 setdash
2 LJ
0.5 LW
N
1278.864 724.049 M
1278.864 724.031 L
S
GR
GS
[10 6] 0 setdash
2 LJ
0.5 LW
N
1320.045 724.056 M
1320.045 724.049 L
S
GR
GS
[10 6] 0 setdash
2 LJ
0.5 LW
N
1361.227 723.905 M
1361.227 723.829 L
S
GR
GS
[10 6] 0 setdash
2 LJ
0.5 LW
N
1402.409 724.062 M
1402.409 724.062 L
S
GR
GS
[10 6] 0 setdash
2 LJ
0.5 LW
N
84.591 96.348 M
84.591 95.819 L
S
GR
GS
[10 6] 0 setdash
2 LJ
0.5 LW
N
125.773 724.062 M
125.773 724.062 L
S
GR
GS
[10 6] 0 setdash
2 LJ
0.5 LW
N
166.955 724.062 M
166.955 724.062 L
S
GR
GS
[10 6] 0 setdash
2 LJ
0.5 LW
N
208.136 724.062 M
208.136 724.062 L
S
GR
GS
[10 6] 0 setdash
2 LJ
0.5 LW
N
249.318 724.062 M
249.318 724.062 L
S
GR
GS
[10 6] 0 setdash
2 LJ
0.5 LW
N
290.5 724.062 M
290.5 724.062 L
S
GR
GS
[10 6] 0 setdash
2 LJ
0.5 LW
N
331.682 724.062 M
331.682 724.062 L
S
GR
GS
[10 6] 0 setdash
2 LJ
0.5 LW
N
372.864 724.062 M
372.864 724.062 L
S
GR
GS
[10 6] 0 setdash
2 LJ
0.5 LW
N
414.045 724.062 M
414.045 724.062 L
S
GR
GS
[10 6] 0 setdash
2 LJ
0.5 LW
N
455.227 724.062 M
455.227 724.062 L
S
GR
GS
[10 6] 0 setdash
2 LJ
0.5 LW
N
496.409 724.062 M
496.409 724.062 L
S
GR
GS
[10 6] 0 setdash
2 LJ
0.5 LW
N
537.591 724.062 M
537.591 724.062 L
S
GR
GS
[10 6] 0 setdash
2 LJ
0.5 LW
N
578.773 724.062 M
578.773 724.062 L
S
GR
GS
[10 6] 0 setdash
2 LJ
0.5 LW
N
619.955 724.062 M
619.955 724.062 L
S
GR
GS
[10 6] 0 setdash
2 LJ
0.5 LW
N
661.136 724.062 M
661.136 724.062 L
S
GR
GS
[10 6] 0 setdash
2 LJ
0.5 LW
N
702.318 724.062 M
702.318 724.062 L
S
GR
GS
[10 6] 0 setdash
2 LJ
0.5 LW
N
743.5 724.062 M
743.5 724.062 L
S
GR
GS
[10 6] 0 setdash
2 LJ
0.5 LW
N
784.682 724.062 M
784.682 724.062 L
S
GR
GS
[10 6] 0 setdash
2 LJ
0.5 LW
N
825.864 724.062 M
825.864 724.062 L
S
GR
GS
[10 6] 0 setdash
2 LJ
0.5 LW
N
867.045 724.062 M
867.045 724.062 L
S
GR
GS
[10 6] 0 setdash
2 LJ
0.5 LW
N
908.227 724.062 M
908.227 724.062 L
S
GR
GS
[10 6] 0 setdash
2 LJ
0.5 LW
N
949.409 724.062 M
949.409 724.062 L
S
GR
GS
[10 6] 0 setdash
2 LJ
0.5 LW
N
990.591 724.062 M
990.591 724.062 L
S
GR
GS
[10 6] 0 setdash
2 LJ
0.5 LW
N
1031.773 724.062 M
1031.773 724.062 L
S
GR
GS
[10 6] 0 setdash
2 LJ
0.5 LW
N
1072.955 724.062 M
1072.955 724.062 L
S
GR
GS
[10 6] 0 setdash
2 LJ
0.5 LW
N
1114.136 724.062 M
1114.136 724.062 L
S
GR
GS
[10 6] 0 setdash
2 LJ
0.5 LW
N
1155.318 724.062 M
1155.318 724.062 L
S
GR
GS
[10 6] 0 setdash
2 LJ
0.5 LW
N
1196.5 724.062 M
1196.5 724.062 L
S
GR
GS
[10 6] 0 setdash
2 LJ
0.5 LW
N
1237.682 724.062 M
1237.682 724.062 L
S
GR
GS
[10 6] 0 setdash
2 LJ
0.5 LW
N
1278.864 724.062 M
1278.864 724.062 L
S
GR
GS
[10 6] 0 setdash
2 LJ
0.5 LW
N
1320.045 724.062 M
1320.045 724.062 L
S
GR
GS
[10 6] 0 setdash
2 LJ
0.5 LW
N
1361.227 724.062 M
1361.227 724.056 L
S
GR
GS
[10 6] 0 setdash
2 LJ
0.5 LW
N
1402.409 724.062 M
1402.409 724.062 L
S
GR
GS
1 LJ
0.5 LW
N
79.443 95.455 M
89.739 95.455 L
S
GR
GS
1 LJ
0.5 LW
N
120.625 723.591 M
130.92 723.591 L
S
GR
GS
1 LJ
0.5 LW
N
161.807 724.049 M
172.102 724.049 L
S
GR
GS
1 LJ
0.5 LW
N
202.989 724.018 M
213.284 724.018 L
S
GR
GS
1 LJ
0.5 LW
N
244.17 720.649 M
254.466 720.649 L
S
GR
GS
1 LJ
0.5 LW
N
285.352 724.049 M
295.648 724.049 L
S
GR
GS
1 LJ
0.5 LW
N
326.534 724.062 M
336.83 724.062 L
S
GR
GS
1 LJ
0.5 LW
N
367.716 722.365 M
378.011 722.365 L
S
GR
GS
1 LJ
0.5 LW
N
408.898 724.049 M
419.193 724.049 L
S
GR
GS
1 LJ
0.5 LW
N
450.08 724.049 M
460.375 724.049 L
S
GR
GS
1 LJ
0.5 LW
N
491.261 724.062 M
501.557 724.062 L
S
GR
GS
1 LJ
0.5 LW
N
532.443 724.062 M
542.739 724.062 L
S
GR
GS
1 LJ
0.5 LW
N
573.625 724.062 M
583.92 724.062 L
S
GR
GS
1 LJ
0.5 LW
N
614.807 724.062 M
625.102 724.062 L
S
GR
GS
1 LJ
0.5 LW
N
655.989 724.062 M
666.284 724.062 L
S
GR
GS
1 LJ
0.5 LW
N
697.17 724.062 M
707.466 724.062 L
S
GR
GS
1 LJ
0.5 LW
N
738.352 724.062 M
748.648 724.062 L
S
GR
GS
1 LJ
0.5 LW
N
779.534 724.062 M
789.83 724.062 L
S
GR
GS
1 LJ
0.5 LW
N
820.716 724.062 M
831.011 724.062 L
S
GR
GS
1 LJ
0.5 LW
N
861.898 724.062 M
872.193 724.062 L
S
GR
GS
1 LJ
0.5 LW
N
903.08 724.062 M
913.375 724.062 L
S
GR
GS
1 LJ
0.5 LW
N
944.261 724.062 M
954.557 724.062 L
S
GR
GS
1 LJ
0.5 LW
N
985.443 724.062 M
995.739 724.062 L
S
GR
GS
1 LJ
0.5 LW
N
1026.625 724.062 M
1036.92 724.062 L
S
GR
GS
1 LJ
0.5 LW
N
1067.807 724.049 M
1078.102 724.049 L
S
GR
GS
1 LJ
0.5 LW
N
1108.989 724.037 M
1119.284 724.037 L
S
GR
GS
1 LJ
0.5 LW
N
1150.17 724.049 M
1160.466 724.049 L
S
GR
GS
1 LJ
0.5 LW
N
1191.352 724.024 M
1201.648 724.024 L
S
GR
GS
1 LJ
0.5 LW
N
1232.534 724.031 M
1242.83 724.031 L
S
GR
GS
1 LJ
0.5 LW
N
1273.716 724.031 M
1284.011 724.031 L
S
GR
GS
1 LJ
0.5 LW
N
1314.898 724.049 M
1325.193 724.049 L
S
GR
GS
1 LJ
0.5 LW
N
1356.08 723.829 M
1366.375 723.829 L
S
GR
GS
1 LJ
0.5 LW
N
1397.261 724.062 M
1407.557 724.062 L
S
GR
GS
1 LJ
0.5 LW
N
79.443 96.348 M
89.739 96.348 L
S
GR
GS
1 LJ
0.5 LW
N
120.625 724.062 M
130.92 724.062 L
S
GR
GS
1 LJ
0.5 LW
N
161.807 724.062 M
172.102 724.062 L
S
GR
GS
1 LJ
0.5 LW
N
202.989 724.062 M
213.284 724.062 L
S
GR
GS
1 LJ
0.5 LW
N
244.17 724.062 M
254.466 724.062 L
S
GR
GS
1 LJ
0.5 LW
N
285.352 724.062 M
295.648 724.062 L
S
GR
GS
1 LJ
0.5 LW
N
326.534 724.062 M
336.83 724.062 L
S
GR
GS
1 LJ
0.5 LW
N
367.716 724.062 M
378.011 724.062 L
S
GR
GS
1 LJ
0.5 LW
N
408.898 724.062 M
419.193 724.062 L
S
GR
GS
1 LJ
0.5 LW
N
450.08 724.062 M
460.375 724.062 L
S
GR
GS
1 LJ
0.5 LW
N
491.261 724.062 M
501.557 724.062 L
S
GR
GS
1 LJ
0.5 LW
N
532.443 724.062 M
542.739 724.062 L
S
GR
GS
1 LJ
0.5 LW
N
573.625 724.062 M
583.92 724.062 L
S
GR
GS
1 LJ
0.5 LW
N
614.807 724.062 M
625.102 724.062 L
S
GR
GS
1 LJ
0.5 LW
N
655.989 724.062 M
666.284 724.062 L
S
GR
GS
1 LJ
0.5 LW
N
697.17 724.062 M
707.466 724.062 L
S
GR
GS
1 LJ
0.5 LW
N
738.352 724.062 M
748.648 724.062 L
S
GR
GS
1 LJ
0.5 LW
N
779.534 724.062 M
789.83 724.062 L
S
GR
GS
1 LJ
0.5 LW
N
820.716 724.062 M
831.011 724.062 L
S
GR
GS
1 LJ
0.5 LW
N
861.898 724.062 M
872.193 724.062 L
S
GR
GS
1 LJ
0.5 LW
N
903.08 724.062 M
913.375 724.062 L
S
GR
GS
1 LJ
0.5 LW
N
944.261 724.062 M
954.557 724.062 L
S
GR
GS
1 LJ
0.5 LW
N
985.443 724.062 M
995.739 724.062 L
S
GR
GS
1 LJ
0.5 LW
N
1026.625 724.062 M
1036.92 724.062 L
S
GR
GS
1 LJ
0.5 LW
N
1067.807 724.062 M
1078.102 724.062 L
S
GR
GS
1 LJ
0.5 LW
N
1108.989 724.062 M
1119.284 724.062 L
S
GR
GS
1 LJ
0.5 LW
N
1150.17 724.062 M
1160.466 724.062 L
S
GR
GS
1 LJ
0.5 LW
N
1191.352 724.062 M
1201.648 724.062 L
S
GR
GS
1 LJ
0.5 LW
N
1232.534 724.062 M
1242.83 724.062 L
S
GR
GS
1 LJ
0.5 LW
N
1273.716 724.062 M
1284.011 724.062 L
S
GR
GS
1 LJ
0.5 LW
N
1314.898 724.062 M
1325.193 724.062 L
S
GR
GS
1 LJ
0.5 LW
N
1356.08 724.062 M
1366.375 724.062 L
S
GR
GS
1 LJ
0.5 LW
N
1397.261 724.062 M
1407.557 724.062 L
S
GR
GS
0 0 1 RC
1 LJ
0.5 LW
N
74.295 95.819 M
74.295 95.458 L
94.886 95.458 L
94.886 95.819 L
74.295 95.819 L
S
GR
GS
0 0 1 RC
1 LJ
0.5 LW
N
115.477 724.062 M
115.477 723.839 L
136.068 723.839 L
136.068 724.062 L
115.477 724.062 L
S
GR
GS
0 0 1 RC
1 LJ
0.5 LW
N
156.659 724.062 M
156.659 724.056 L
177.25 724.056 L
177.25 724.062 L
156.659 724.062 L
S
GR
GS
0 0 1 RC
1 LJ
0.5 LW
N
197.841 724.062 M
197.841 724.043 L
218.432 724.043 L
218.432 724.062 L
197.841 724.062 L
S
GR
GS
0 0 1 RC
1 LJ
0.5 LW
N
239.023 724.062 M
239.023 721.887 L
259.614 721.887 L
259.614 724.062 L
239.023 724.062 L
S
GR
GS
0 0 1 RC
1 LJ
0.5 LW
N
280.205 724.062 M
280.205 724.049 L
300.795 724.049 L
300.795 724.062 L
280.205 724.062 L
S
GR
GS
0 0 1 RC
1 LJ
0.5 LW
N
321.386 724.062 M
321.386 724.062 L
341.977 724.062 L
341.977 724.062 L
321.386 724.062 L
S
GR
GS
0 0 1 RC
1 LJ
0.5 LW
N
362.568 724.062 M
362.568 723.245 L
383.159 723.245 L
383.159 724.062 L
362.568 724.062 L
S
GR
GS
0 0 1 RC
1 LJ
0.5 LW
N
403.75 724.062 M
403.75 724.056 L
424.341 724.056 L
424.341 724.062 L
403.75 724.062 L
S
GR
GS
0 0 1 RC
1 LJ
0.5 LW
N
444.932 724.062 M
444.932 724.056 L
465.523 724.056 L
465.523 724.062 L
444.932 724.062 L
S
GR
GS
0 0 1 RC
1 LJ
0.5 LW
N
486.114 724.062 M
486.114 724.062 L
506.705 724.062 L
506.705 724.062 L
486.114 724.062 L
S
GR
GS
0 0 1 RC
1 LJ
0.5 LW
N
527.295 724.062 M
527.295 724.062 L
547.886 724.062 L
547.886 724.062 L
527.295 724.062 L
S
GR
GS
0 0 1 RC
1 LJ
0.5 LW
N
568.477 724.062 M
568.477 724.062 L
589.068 724.062 L
589.068 724.062 L
568.477 724.062 L
S
GR
GS
0 0 1 RC
1 LJ
0.5 LW
N
609.659 724.062 M
609.659 724.062 L
630.25 724.062 L
630.25 724.062 L
609.659 724.062 L
S
GR
GS
0 0 1 RC
1 LJ
0.5 LW
N
650.841 724.062 M
650.841 724.062 L
671.432 724.062 L
671.432 724.062 L
650.841 724.062 L
S
GR
GS
0 0 1 RC
1 LJ
0.5 LW
N
692.023 724.062 M
692.023 724.062 L
712.614 724.062 L
712.614 724.062 L
692.023 724.062 L
S
GR
GS
0 0 1 RC
1 LJ
0.5 LW
N
733.205 724.062 M
733.205 724.062 L
753.795 724.062 L
753.795 724.062 L
733.205 724.062 L
S
GR
GS
0 0 1 RC
1 LJ
0.5 LW
N
774.386 724.062 M
774.386 724.062 L
794.977 724.062 L
794.977 724.062 L
774.386 724.062 L
S
GR
GS
0 0 1 RC
1 LJ
0.5 LW
N
815.568 724.062 M
815.568 724.062 L
836.159 724.062 L
836.159 724.062 L
815.568 724.062 L
S
GR
GS
0 0 1 RC
1 LJ
0.5 LW
N
856.75 724.062 M
856.75 724.062 L
877.341 724.062 L
877.341 724.062 L
856.75 724.062 L
S
GR
GS
0 0 1 RC
1 LJ
0.5 LW
N
897.932 724.062 M
897.932 724.062 L
918.523 724.062 L
918.523 724.062 L
897.932 724.062 L
S
GR
GS
0 0 1 RC
1 LJ
0.5 LW
N
939.114 724.062 M
939.114 724.062 L
959.705 724.062 L
959.705 724.062 L
939.114 724.062 L
S
GR
GS
0 0 1 RC
1 LJ
0.5 LW
N
980.295 724.062 M
980.295 724.062 L
1000.886 724.062 L
1000.886 724.062 L
980.295 724.062 L
S
GR
GS
0 0 1 RC
1 LJ
0.5 LW
N
1021.477 724.062 M
1021.477 724.062 L
1042.068 724.062 L
1042.068 724.062 L
1021.477 724.062 L
S
GR
GS
0 0 1 RC
1 LJ
0.5 LW
N
1062.659 724.062 M
1062.659 724.056 L
1083.25 724.056 L
1083.25 724.062 L
1062.659 724.062 L
S
GR
GS
0 0 1 RC
1 LJ
0.5 LW
N
1103.841 724.062 M
1103.841 724.049 L
1124.432 724.049 L
1124.432 724.062 L
1103.841 724.062 L
S
GR
GS
0 0 1 RC
1 LJ
0.5 LW
N
1145.023 724.062 M
1145.023 724.056 L
1165.614 724.056 L
1165.614 724.062 L
1145.023 724.062 L
S
GR
GS
0 0 1 RC
1 LJ
0.5 LW
N
1186.205 724.062 M
1186.205 724.034 L
1206.795 724.034 L
1206.795 724.062 L
1186.205 724.062 L
S
GR
GS
0 0 1 RC
1 LJ
0.5 LW
N
1227.386 724.062 M
1227.386 724.031 L
1247.977 724.031 L
1247.977 724.062 L
1227.386 724.062 L
S
GR
GS
0 0 1 RC
1 LJ
0.5 LW
N
1268.568 724.062 M
1268.568 724.049 L
1289.159 724.049 L
1289.159 724.062 L
1268.568 724.062 L
S
GR
GS
0 0 1 RC
1 LJ
0.5 LW
N
1309.75 724.062 M
1309.75 724.056 L
1330.341 724.056 L
1330.341 724.062 L
1309.75 724.062 L
S
GR
GS
0 0 1 RC
1 LJ
0.5 LW
N
1350.932 724.056 M
1350.932 723.905 L
1371.523 723.905 L
1371.523 724.056 L
1350.932 724.056 L
S
GR
GS
0 0 1 RC
1 LJ
0.5 LW
N
1392.114 724.062 M
1392.114 724.062 L
1412.705 724.062 L
1412.705 724.062 L
1392.114 724.062 L
S
GR
GS
1 0 0 RC
1 LJ
0.5 LW
N
74.295 95.497 M
94.886 95.497 L
S
GR
GS
1 0 0 RC
1 LJ
0.5 LW
N
115.477 724.062 M
136.068 724.062 L
S
GR
GS
1 0 0 RC
1 LJ
0.5 LW
N
156.659 724.062 M
177.25 724.062 L
S
GR
GS
1 0 0 RC
1 LJ
0.5 LW
N
197.841 724.062 M
218.432 724.062 L
S
GR
GS
1 0 0 RC
1 LJ
0.5 LW
N
239.023 724.053 M
259.614 724.053 L
S
GR
GS
1 0 0 RC
1 LJ
0.5 LW
N
280.205 724.053 M
300.795 724.053 L
S
GR
GS
1 0 0 RC
1 LJ
0.5 LW
N
321.386 724.062 M
341.977 724.062 L
S
GR
GS
1 0 0 RC
1 LJ
0.5 LW
N
362.568 724.056 M
383.159 724.056 L
S
GR
GS
1 0 0 RC
1 LJ
0.5 LW
N
403.75 724.062 M
424.341 724.062 L
S
GR
GS
1 0 0 RC
1 LJ
0.5 LW
N
444.932 724.062 M
465.523 724.062 L
S
GR
GS
1 0 0 RC
1 LJ
0.5 LW
N
486.114 724.062 M
506.705 724.062 L
S
GR
GS
1 0 0 RC
1 LJ
0.5 LW
N
527.295 724.062 M
547.886 724.062 L
S
GR
GS
1 0 0 RC
1 LJ
0.5 LW
N
568.477 724.062 M
589.068 724.062 L
S
GR
GS
1 0 0 RC
1 LJ
0.5 LW
N
609.659 724.062 M
630.25 724.062 L
S
GR
GS
1 0 0 RC
1 LJ
0.5 LW
N
650.841 724.062 M
671.432 724.062 L
S
GR
GS
1 0 0 RC
1 LJ
0.5 LW
N
692.023 724.062 M
712.614 724.062 L
S
GR
GS
1 0 0 RC
1 LJ
0.5 LW
N
733.205 724.062 M
753.795 724.062 L
S
GR
GS
1 0 0 RC
1 LJ
0.5 LW
N
774.386 724.062 M
794.977 724.062 L
S
GR
GS
1 0 0 RC
1 LJ
0.5 LW
N
815.568 724.062 M
836.159 724.062 L
S
GR
GS
1 0 0 RC
1 LJ
0.5 LW
N
856.75 724.062 M
877.341 724.062 L
S
GR
GS
1 0 0 RC
1 LJ
0.5 LW
N
897.932 724.062 M
918.523 724.062 L
S
GR
GS
1 0 0 RC
1 LJ
0.5 LW
N
939.114 724.062 M
959.705 724.062 L
S
GR
GS
1 0 0 RC
1 LJ
0.5 LW
N
980.295 724.062 M
1000.886 724.062 L
S
GR
GS
1 0 0 RC
1 LJ
0.5 LW
N
1021.477 724.062 M
1042.068 724.062 L
S
GR
GS
1 0 0 RC
1 LJ
0.5 LW
N
1062.659 724.062 M
1083.25 724.062 L
S
GR
GS
1 0 0 RC
1 LJ
0.5 LW
N
1103.841 724.062 M
1124.432 724.062 L
S
GR
GS
1 0 0 RC
1 LJ
0.5 LW
N
1145.023 724.062 M
1165.614 724.062 L
S
GR
GS
1 0 0 RC
1 LJ
0.5 LW
N
1186.205 724.062 M
1206.795 724.062 L
S
GR
GS
1 0 0 RC
1 LJ
0.5 LW
N
1227.386 724.062 M
1247.977 724.062 L
S
GR
GS
1 0 0 RC
1 LJ
0.5 LW
N
1268.568 724.062 M
1289.159 724.062 L
S
GR
GS
1 0 0 RC
1 LJ
0.5 LW
N
1309.75 724.062 M
1330.341 724.062 L
S
GR
GS
1 0 0 RC
1 LJ
0.5 LW
N
1350.932 724.024 M
1371.523 724.024 L
S
GR
GS
1 0 0 RC
1 LJ
0.5 LW
N
1392.114 724.062 M
1412.705 724.062 L
S
GR
GS
[1 0 0 1 84.59091 723.98029] CT
1 0 0 RC
10.0 ML
N
0 -3 M
0 3 L
-3 0 M
3 0 L
S
GR
GS
[1 0 0 1 84.59091 662.13788] CT
1 0 0 RC
10.0 ML
N
0 -3 M
0 3 L
-3 0 M
3 0 L
S
GR
GS
[1 0 0 1 84.59091 652.08643] CT
1 0 0 RC
10.0 ML
N
0 -3 M
0 3 L
-3 0 M
3 0 L
S
GR
GS
[1 0 0 1 84.59091 511.38525] CT
1 0 0 RC
10.0 ML
N
0 -3 M
0 3 L
-3 0 M
3 0 L
S
GR
GS
[1 0 0 1 84.59091 507.02899] CT
1 0 0 RC
10.0 ML
N
0 -3 M
0 3 L
-3 0 M
3 0 L
S
GR
GS
[1 0 0 1 84.59091 391.52869] CT
1 0 0 RC
10.0 ML
N
0 -3 M
0 3 L
-3 0 M
3 0 L
S
GR
GS
[1 0 0 1 84.59091 367.629] CT
1 0 0 RC
10.0 ML
N
0 -3 M
0 3 L
-3 0 M
3 0 L
S
GR
GS
[1 0 0 1 84.59091 299.73941] CT
1 0 0 RC
10.0 ML
N
0 -3 M
0 3 L
-3 0 M
3 0 L
S
GR
GS
[1 0 0 1 84.59091 233.71048] CT
1 0 0 RC
10.0 ML
N
0 -3 M
0 3 L
-3 0 M
3 0 L
S
GR
GS
[1 0 0 1 84.59091 214.67624] CT
1 0 0 RC
10.0 ML
N
0 -3 M
0 3 L
-3 0 M
3 0 L
S
GR
GS
[1 0 0 1 84.59091 207.75528] CT
1 0 0 RC
10.0 ML
N
0 -3 M
0 3 L
-3 0 M
3 0 L
S
GR
GS
[1 0 0 1 84.59091 204.90138] CT
1 0 0 RC
10.0 ML
N
0 -3 M
0 3 L
-3 0 M
3 0 L
S
GR
GS
[1 0 0 1 84.59091 204.36079] CT
1 0 0 RC
10.0 ML
N
0 -3 M
0 3 L
-3 0 M
3 0 L
S
GR
GS
[1 0 0 1 84.59091 198.40785] CT
1 0 0 RC
10.0 ML
N
0 -3 M
0 3 L
-3 0 M
3 0 L
S
GR
GS
[1 0 0 1 84.59091 185.25111] CT
1 0 0 RC
10.0 ML
N
0 -3 M
0 3 L
-3 0 M
3 0 L
S
GR
GS
[1 0 0 1 84.59091 183.8116] CT
1 0 0 RC
10.0 ML
N
0 -3 M
0 3 L
-3 0 M
3 0 L
S
GR
GS
[1 0 0 1 84.59091 182.09552] CT
1 0 0 RC
10.0 ML
N
0 -3 M
0 3 L
-3 0 M
3 0 L
S
GR
GS
[1 0 0 1 84.59091 177.57581] CT
1 0 0 RC
10.0 ML
N
0 -3 M
0 3 L
-3 0 M
3 0 L
S
GR
GS
[1 0 0 1 84.59091 160.50912] CT
1 0 0 RC
10.0 ML
N
0 -3 M
0 3 L
-3 0 M
3 0 L
S
GR
GS
[1 0 0 1 84.59091 158.22163] CT
1 0 0 RC
10.0 ML
N
0 -3 M
0 3 L
-3 0 M
3 0 L
S
GR
GS
[1 0 0 1 84.59091 156.40118] CT
1 0 0 RC
10.0 ML
N
0 -3 M
0 3 L
-3 0 M
3 0 L
S
GR
GS
[1 0 0 1 84.59091 134.84499] CT
1 0 0 RC
10.0 ML
N
0 -3 M
0 3 L
-3 0 M
3 0 L
S
GR
GS
[1 0 0 1 84.59091 134.75005] CT
1 0 0 RC
10.0 ML
N
0 -3 M
0 3 L
-3 0 M
3 0 L
S
GR
GS
[1 0 0 1 84.59091 133.78326] CT
1 0 0 RC
10.0 ML
N
0 -3 M
0 3 L
-3 0 M
3 0 L
S
GR
GS
[1 0 0 1 84.59091 129.89468] CT
1 0 0 RC
10.0 ML
N
0 -3 M
0 3 L
-3 0 M
3 0 L
S
GR
GS
[1 0 0 1 84.59091 128.90213] CT
1 0 0 RC
10.0 ML
N
0 -3 M
0 3 L
-3 0 M
3 0 L
S
GR
GS
[1 0 0 1 84.59091 126.12807] CT
1 0 0 RC
10.0 ML
N
0 -3 M
0 3 L
-3 0 M
3 0 L
S
GR
GS
[1 0 0 1 84.59091 121.47073] CT
1 0 0 RC
10.0 ML
N
0 -3 M
0 3 L
-3 0 M
3 0 L
S
GR
GS
[1 0 0 1 84.59091 120.41781] CT
1 0 0 RC
10.0 ML
N
0 -3 M
0 3 L
-3 0 M
3 0 L
S
GR
GS
[1 0 0 1 84.59091 117.77261] CT
1 0 0 RC
10.0 ML
N
0 -3 M
0 3 L
-3 0 M
3 0 L
S
GR
GS
[1 0 0 1 84.59091 117.65572] CT
1 0 0 RC
10.0 ML
N
0 -3 M
0 3 L
-3 0 M
3 0 L
S
GR
GS
[1 0 0 1 84.59091 114.88039] CT
1 0 0 RC
10.0 ML
N
0 -3 M
0 3 L
-3 0 M
3 0 L
S
GR
GS
[1 0 0 1 84.59091 114.83074] CT
1 0 0 RC
10.0 ML
N
0 -3 M
0 3 L
-3 0 M
3 0 L
S
GR
GS
[1 0 0 1 84.59091 114.70441] CT
1 0 0 RC
10.0 ML
N
0 -3 M
0 3 L
-3 0 M
3 0 L
S
GR
GS
[1 0 0 1 84.59091 114.59125] CT
1 0 0 RC
10.0 ML
N
0 -3 M
0 3 L
-3 0 M
3 0 L
S
GR
GS
[1 0 0 1 84.59091 114.53591] CT
1 0 0 RC
10.0 ML
N
0 -3 M
0 3 L
-3 0 M
3 0 L
S
GR
GS
[1 0 0 1 84.59091 114.45232] CT
1 0 0 RC
10.0 ML
N
0 -3 M
0 3 L
-3 0 M
3 0 L
S
GR
GS
[1 0 0 1 84.59091 113.72691] CT
1 0 0 RC
10.0 ML
N
0 -3 M
0 3 L
-3 0 M
3 0 L
S
GR
GS
[1 0 0 1 84.59091 112.95248] CT
1 0 0 RC
10.0 ML
N
0 -3 M
0 3 L
-3 0 M
3 0 L
S
GR
GS
[1 0 0 1 84.59091 112.81793] CT
1 0 0 RC
10.0 ML
N
0 -3 M
0 3 L
-3 0 M
3 0 L
S
GR
GS
[1 0 0 1 84.59091 111.58209] CT
1 0 0 RC
10.0 ML
N
0 -3 M
0 3 L
-3 0 M
3 0 L
S
GR
GS
[1 0 0 1 84.59091 110.67252] CT
1 0 0 RC
10.0 ML
N
0 -3 M
0 3 L
-3 0 M
3 0 L
S
GR
GS
[1 0 0 1 84.59091 109.932] CT
1 0 0 RC
10.0 ML
N
0 -3 M
0 3 L
-3 0 M
3 0 L
S
GR
GS
[1 0 0 1 84.59091 109.46556] CT
1 0 0 RC
10.0 ML
N
0 -3 M
0 3 L
-3 0 M
3 0 L
S
GR
GS
[1 0 0 1 84.59091 107.99652] CT
1 0 0 RC
10.0 ML
N
0 -3 M
0 3 L
-3 0 M
3 0 L
S
GR
GS
[1 0 0 1 84.59091 106.35838] CT
1 0 0 RC
10.0 ML
N
0 -3 M
0 3 L
-3 0 M
3 0 L
S
GR
GS
[1 0 0 1 84.59091 105.82469] CT
1 0 0 RC
10.0 ML
N
0 -3 M
0 3 L
-3 0 M
3 0 L
S
GR
GS
[1 0 0 1 84.59091 105.61536] CT
1 0 0 RC
10.0 ML
N
0 -3 M
0 3 L
-3 0 M
3 0 L
S
GR
GS
[1 0 0 1 84.59091 105.44499] CT
1 0 0 RC
10.0 ML
N
0 -3 M
0 3 L
-3 0 M
3 0 L
S
GR
GS
[1 0 0 1 84.59091 105.18287] CT
1 0 0 RC
10.0 ML
N
0 -3 M
0 3 L
-3 0 M
3 0 L
S
GR
GS
[1 0 0 1 84.59091 104.7944] CT
1 0 0 RC
10.0 ML
N
0 -3 M
0 3 L
-3 0 M
3 0 L
S
GR
GS
[1 0 0 1 84.59091 104.79125] CT
1 0 0 RC
10.0 ML
N
0 -3 M
0 3 L
-3 0 M
3 0 L
S
GR
GS
[1 0 0 1 84.59091 104.35752] CT
1 0 0 RC
10.0 ML
N
0 -3 M
0 3 L
-3 0 M
3 0 L
S
GR
GS
[1 0 0 1 84.59091 103.91874] CT
1 0 0 RC
10.0 ML
N
0 -3 M
0 3 L
-3 0 M
3 0 L
S
GR
GS
[1 0 0 1 84.59091 103.91308] CT
1 0 0 RC
10.0 ML
N
0 -3 M
0 3 L
-3 0 M
3 0 L
S
GR
GS
[1 0 0 1 84.59091 103.68303] CT
1 0 0 RC
10.0 ML
N
0 -3 M
0 3 L
-3 0 M
3 0 L
S
GR
GS
[1 0 0 1 84.59091 103.65223] CT
1 0 0 RC
10.0 ML
N
0 -3 M
0 3 L
-3 0 M
3 0 L
S
GR
GS
[1 0 0 1 84.59091 103.62708] CT
1 0 0 RC
10.0 ML
N
0 -3 M
0 3 L
-3 0 M
3 0 L
S
GR
GS
[1 0 0 1 84.59091 103.43596] CT
1 0 0 RC
10.0 ML
N
0 -3 M
0 3 L
-3 0 M
3 0 L
S
GR
GS
[1 0 0 1 84.59091 103.40453] CT
1 0 0 RC
10.0 ML
N
0 -3 M
0 3 L
-3 0 M
3 0 L
S
GR
GS
[1 0 0 1 84.59091 103.30839] CT
1 0 0 RC
10.0 ML
N
0 -3 M
0 3 L
-3 0 M
3 0 L
S
GR
GS
[1 0 0 1 84.59091 102.97016] CT
1 0 0 RC
10.0 ML
N
0 -3 M
0 3 L
-3 0 M
3 0 L
S
GR
GS
[1 0 0 1 84.59091 102.0939] CT
1 0 0 RC
10.0 ML
N
0 -3 M
0 3 L
-3 0 M
3 0 L
S
GR
GS
[1 0 0 1 84.59091 101.90971] CT
1 0 0 RC
10.0 ML
N
0 -3 M
0 3 L
-3 0 M
3 0 L
S
GR
GS
[1 0 0 1 84.59091 101.60052] CT
1 0 0 RC
10.0 ML
N
0 -3 M
0 3 L
-3 0 M
3 0 L
S
GR
GS
[1 0 0 1 84.59091 101.53304] CT
1 0 0 RC
10.0 ML
N
0 -3 M
0 3 L
-3 0 M
3 0 L
S
GR
GS
[1 0 0 1 84.59091 101.35435] CT
1 0 0 RC
10.0 ML
N
0 -3 M
0 3 L
-3 0 M
3 0 L
S
GR
GS
[1 0 0 1 84.59091 101.34465] CT
1 0 0 RC
10.0 ML
N
0 -3 M
0 3 L
-3 0 M
3 0 L
S
GR
GS
[1 0 0 1 84.59091 101.23555] CT
1 0 0 RC
10.0 ML
N
0 -3 M
0 3 L
-3 0 M
3 0 L
S
GR
GS
[1 0 0 1 84.59091 101.13641] CT
1 0 0 RC
10.0 ML
N
0 -3 M
0 3 L
-3 0 M
3 0 L
S
GR
GS
[1 0 0 1 84.59091 100.71984] CT
1 0 0 RC
10.0 ML
N
0 -3 M
0 3 L
-3 0 M
3 0 L
S
GR
GS
[1 0 0 1 84.59091 100.47491] CT
1 0 0 RC
10.0 ML
N
0 -3 M
0 3 L
-3 0 M
3 0 L
S
GR
GS
[1 0 0 1 84.59091 100.15205] CT
1 0 0 RC
10.0 ML
N
0 -3 M
0 3 L
-3 0 M
3 0 L
S
GR
GS
[1 0 0 1 84.59091 99.99952] CT
1 0 0 RC
10.0 ML
N
0 -3 M
0 3 L
-3 0 M
3 0 L
S
GR
GS
[1 0 0 1 84.59091 99.9565] CT
1 0 0 RC
10.0 ML
N
0 -3 M
0 3 L
-3 0 M
3 0 L
S
GR
GS
[1 0 0 1 84.59091 99.95092] CT
1 0 0 RC
10.0 ML
N
0 -3 M
0 3 L
-3 0 M
3 0 L
S
GR
GS
[1 0 0 1 84.59091 99.91094] CT
1 0 0 RC
10.0 ML
N
0 -3 M
0 3 L
-3 0 M
3 0 L
S
GR
GS
[1 0 0 1 84.59091 99.74492] CT
1 0 0 RC
10.0 ML
N
0 -3 M
0 3 L
-3 0 M
3 0 L
S
GR
GS
[1 0 0 1 84.59091 99.61813] CT
1 0 0 RC
10.0 ML
N
0 -3 M
0 3 L
-3 0 M
3 0 L
S
GR
GS
[1 0 0 1 84.59091 99.60258] CT
1 0 0 RC
10.0 ML
N
0 -3 M
0 3 L
-3 0 M
3 0 L
S
GR
GS
[1 0 0 1 84.59091 99.41805] CT
1 0 0 RC
10.0 ML
N
0 -3 M
0 3 L
-3 0 M
3 0 L
S
GR
GS
[1 0 0 1 84.59091 99.33266] CT
1 0 0 RC
10.0 ML
N
0 -3 M
0 3 L
-3 0 M
3 0 L
S
GR
GS
[1 0 0 1 84.59091 99.27039] CT
1 0 0 RC
10.0 ML
N
0 -3 M
0 3 L
-3 0 M
3 0 L
S
GR
GS
[1 0 0 1 84.59091 98.91621] CT
1 0 0 RC
10.0 ML
N
0 -3 M
0 3 L
-3 0 M
3 0 L
S
GR
GS
[1 0 0 1 84.59091 98.89762] CT
1 0 0 RC
10.0 ML
N
0 -3 M
0 3 L
-3 0 M
3 0 L
S
GR
GS
[1 0 0 1 84.59091 98.78923] CT
1 0 0 RC
10.0 ML
N
0 -3 M
0 3 L
-3 0 M
3 0 L
S
GR
GS
[1 0 0 1 84.59091 98.74341] CT
1 0 0 RC
10.0 ML
N
0 -3 M
0 3 L
-3 0 M
3 0 L
S
GR
GS
[1 0 0 1 84.59091 98.66547] CT
1 0 0 RC
10.0 ML
N
0 -3 M
0 3 L
-3 0 M
3 0 L
S
GR
GS
[1 0 0 1 84.59091 98.64033] CT
1 0 0 RC
10.0 ML
N
0 -3 M
0 3 L
-3 0 M
3 0 L
S
GR
GS
[1 0 0 1 84.59091 98.60706] CT
1 0 0 RC
10.0 ML
N
0 -3 M
0 3 L
-3 0 M
3 0 L
S
GR
GS
[1 0 0 1 84.59091 98.45318] CT
1 0 0 RC
10.0 ML
N
0 -3 M
0 3 L
-3 0 M
3 0 L
S
GR
GS
[1 0 0 1 84.59091 98.35857] CT
1 0 0 RC
10.0 ML
N
0 -3 M
0 3 L
-3 0 M
3 0 L
S
GR
GS
[1 0 0 1 84.59091 98.33887] CT
1 0 0 RC
10.0 ML
N
0 -3 M
0 3 L
-3 0 M
3 0 L
S
GR
GS
[1 0 0 1 84.59091 98.18869] CT
1 0 0 RC
10.0 ML
N
0 -3 M
0 3 L
-3 0 M
3 0 L
S
GR
GS
[1 0 0 1 84.59091 98.14272] CT
1 0 0 RC
10.0 ML
N
0 -3 M
0 3 L
-3 0 M
3 0 L
S
GR
GS
[1 0 0 1 84.59091 98.14141] CT
1 0 0 RC
10.0 ML
N
0 -3 M
0 3 L
-3 0 M
3 0 L
S
GR
GS
[1 0 0 1 84.59091 98.09809] CT
1 0 0 RC
10.0 ML
N
0 -3 M
0 3 L
-3 0 M
3 0 L
S
GR
GS
[1 0 0 1 84.59091 98.00821] CT
1 0 0 RC
10.0 ML
N
0 -3 M
0 3 L
-3 0 M
3 0 L
S
GR
GS
[1 0 0 1 84.59091 97.96351] CT
1 0 0 RC
10.0 ML
N
0 -3 M
0 3 L
-3 0 M
3 0 L
S
GR
GS
[1 0 0 1 84.59091 97.92008] CT
1 0 0 RC
10.0 ML
N
0 -3 M
0 3 L
-3 0 M
3 0 L
S
GR
GS
[1 0 0 1 84.59091 97.8] CT
1 0 0 RC
10.0 ML
N
0 -3 M
0 3 L
-3 0 M
3 0 L
S
GR
GS
[1 0 0 1 84.59091 97.68542] CT
1 0 0 RC
10.0 ML
N
0 -3 M
0 3 L
-3 0 M
3 0 L
S
GR
GS
[1 0 0 1 84.59091 97.60393] CT
1 0 0 RC
10.0 ML
N
0 -3 M
0 3 L
-3 0 M
3 0 L
S
GR
GS
[1 0 0 1 84.59091 97.54889] CT
1 0 0 RC
10.0 ML
N
0 -3 M
0 3 L
-3 0 M
3 0 L
S
GR
GS
[1 0 0 1 84.59091 97.53975] CT
1 0 0 RC
10.0 ML
N
0 -3 M
0 3 L
-3 0 M
3 0 L
S
GR
GS
[1 0 0 1 84.59091 97.51071] CT
1 0 0 RC
10.0 ML
N
0 -3 M
0 3 L
-3 0 M
3 0 L
S
GR
GS
[1 0 0 1 84.59091 97.42637] CT
1 0 0 RC
10.0 ML
N
0 -3 M
0 3 L
-3 0 M
3 0 L
S
GR
GS
[1 0 0 1 84.59091 97.39021] CT
1 0 0 RC
10.0 ML
N
0 -3 M
0 3 L
-3 0 M
3 0 L
S
GR
GS
[1 0 0 1 84.59091 97.38141] CT
1 0 0 RC
10.0 ML
N
0 -3 M
0 3 L
-3 0 M
3 0 L
S
GR
GS
[1 0 0 1 84.59091 97.32629] CT
1 0 0 RC
10.0 ML
N
0 -3 M
0 3 L
-3 0 M
3 0 L
S
GR
GS
[1 0 0 1 84.59091 97.30524] CT
1 0 0 RC
10.0 ML
N
0 -3 M
0 3 L
-3 0 M
3 0 L
S
GR
GS
[1 0 0 1 84.59091 97.20677] CT
1 0 0 RC
10.0 ML
N
0 -3 M
0 3 L
-3 0 M
3 0 L
S
GR
GS
[1 0 0 1 84.59091 97.19553] CT
1 0 0 RC
10.0 ML
N
0 -3 M
0 3 L
-3 0 M
3 0 L
S
GR
GS
[1 0 0 1 84.59091 97.17983] CT
1 0 0 RC
10.0 ML
N
0 -3 M
0 3 L
-3 0 M
3 0 L
S
GR
GS
[1 0 0 1 84.59091 97.17541] CT
1 0 0 RC
10.0 ML
N
0 -3 M
0 3 L
-3 0 M
3 0 L
S
GR
GS
[1 0 0 1 84.59091 97.14839] CT
1 0 0 RC
10.0 ML
N
0 -3 M
0 3 L
-3 0 M
3 0 L
S
GR
GS
[1 0 0 1 84.59091 97.111] CT
1 0 0 RC
10.0 ML
N
0 -3 M
0 3 L
-3 0 M
3 0 L
S
GR
GS
[1 0 0 1 84.59091 97.06586] CT
1 0 0 RC
10.0 ML
N
0 -3 M
0 3 L
-3 0 M
3 0 L
S
GR
GS
[1 0 0 1 84.59091 97.05544] CT
1 0 0 RC
10.0 ML
N
0 -3 M
0 3 L
-3 0 M
3 0 L
S
GR
GS
[1 0 0 1 84.59091 97.04184] CT
1 0 0 RC
10.0 ML
N
0 -3 M
0 3 L
-3 0 M
3 0 L
S
GR
GS
[1 0 0 1 84.59091 96.99747] CT
1 0 0 RC
10.0 ML
N
0 -3 M
0 3 L
-3 0 M
3 0 L
S
GR
GS
[1 0 0 1 84.59091 96.98634] CT
1 0 0 RC
10.0 ML
N
0 -3 M
0 3 L
-3 0 M
3 0 L
S
GR
GS
[1 0 0 1 84.59091 96.96226] CT
1 0 0 RC
10.0 ML
N
0 -3 M
0 3 L
-3 0 M
3 0 L
S
GR
GS
[1 0 0 1 84.59091 96.93748] CT
1 0 0 RC
10.0 ML
N
0 -3 M
0 3 L
-3 0 M
3 0 L
S
GR
GS
[1 0 0 1 84.59091 96.9358] CT
1 0 0 RC
10.0 ML
N
0 -3 M
0 3 L
-3 0 M
3 0 L
S
GR
GS
[1 0 0 1 84.59091 96.93044] CT
1 0 0 RC
10.0 ML
N
0 -3 M
0 3 L
-3 0 M
3 0 L
S
GR
GS
[1 0 0 1 84.59091 96.89927] CT
1 0 0 RC
10.0 ML
N
0 -3 M
0 3 L
-3 0 M
3 0 L
S
GR
GS
[1 0 0 1 84.59091 96.77589] CT
1 0 0 RC
10.0 ML
N
0 -3 M
0 3 L
-3 0 M
3 0 L
S
GR
GS
[1 0 0 1 84.59091 96.75468] CT
1 0 0 RC
10.0 ML
N
0 -3 M
0 3 L
-3 0 M
3 0 L
S
GR
GS
[1 0 0 1 84.59091 96.74457] CT
1 0 0 RC
10.0 ML
N
0 -3 M
0 3 L
-3 0 M
3 0 L
S
GR
GS
[1 0 0 1 84.59091 96.74075] CT
1 0 0 RC
10.0 ML
N
0 -3 M
0 3 L
-3 0 M
3 0 L
S
GR
GS
[1 0 0 1 84.59091 96.73985] CT
1 0 0 RC
10.0 ML
N
0 -3 M
0 3 L
-3 0 M
3 0 L
S
GR
GS
[1 0 0 1 84.59091 96.72696] CT
1 0 0 RC
10.0 ML
N
0 -3 M
0 3 L
-3 0 M
3 0 L
S
GR
GS
[1 0 0 1 84.59091 96.72111] CT
1 0 0 RC
10.0 ML
N
0 -3 M
0 3 L
-3 0 M
3 0 L
S
GR
GS
[1 0 0 1 84.59091 96.67506] CT
1 0 0 RC
10.0 ML
N
0 -3 M
0 3 L
-3 0 M
3 0 L
S
GR
GS
[1 0 0 1 84.59091 96.65479] CT
1 0 0 RC
10.0 ML
N
0 -3 M
0 3 L
-3 0 M
3 0 L
S
GR
GS
[1 0 0 1 84.59091 96.65172] CT
1 0 0 RC
10.0 ML
N
0 -3 M
0 3 L
-3 0 M
3 0 L
S
GR
GS
[1 0 0 1 84.59091 96.62553] CT
1 0 0 RC
10.0 ML
N
0 -3 M
0 3 L
-3 0 M
3 0 L
S
GR
GS
[1 0 0 1 84.59091 96.58986] CT
1 0 0 RC
10.0 ML
N
0 -3 M
0 3 L
-3 0 M
3 0 L
S
GR
GS
[1 0 0 1 84.59091 96.58768] CT
1 0 0 RC
10.0 ML
N
0 -3 M
0 3 L
-3 0 M
3 0 L
S
GR
GS
[1 0 0 1 84.59091 96.55749] CT
1 0 0 RC
10.0 ML
N
0 -3 M
0 3 L
-3 0 M
3 0 L
S
GR
GS
[1 0 0 1 84.59091 96.52298] CT
1 0 0 RC
10.0 ML
N
0 -3 M
0 3 L
-3 0 M
3 0 L
S
GR
GS
[1 0 0 1 84.59091 96.52081] CT
1 0 0 RC
10.0 ML
N
0 -3 M
0 3 L
-3 0 M
3 0 L
S
GR
GS
[1 0 0 1 84.59091 96.51729] CT
1 0 0 RC
10.0 ML
N
0 -3 M
0 3 L
-3 0 M
3 0 L
S
GR
GS
[1 0 0 1 84.59091 96.50211] CT
1 0 0 RC
10.0 ML
N
0 -3 M
0 3 L
-3 0 M
3 0 L
S
GR
GS
[1 0 0 1 84.59091 96.48761] CT
1 0 0 RC
10.0 ML
N
0 -3 M
0 3 L
-3 0 M
3 0 L
S
GR
GS
[1 0 0 1 84.59091 96.4763] CT
1 0 0 RC
10.0 ML
N
0 -3 M
0 3 L
-3 0 M
3 0 L
S
GR
GS
[1 0 0 1 84.59091 96.4651] CT
1 0 0 RC
10.0 ML
N
0 -3 M
0 3 L
-3 0 M
3 0 L
S
GR
GS
[1 0 0 1 84.59091 96.46397] CT
1 0 0 RC
10.0 ML
N
0 -3 M
0 3 L
-3 0 M
3 0 L
S
GR
GS
[1 0 0 1 84.59091 96.4582] CT
1 0 0 RC
10.0 ML
N
0 -3 M
0 3 L
-3 0 M
3 0 L
S
GR
GS
[1 0 0 1 84.59091 96.4534] CT
1 0 0 RC
10.0 ML
N
0 -3 M
0 3 L
-3 0 M
3 0 L
S
GR
GS
[1 0 0 1 84.59091 96.44977] CT
1 0 0 RC
10.0 ML
N
0 -3 M
0 3 L
-3 0 M
3 0 L
S
GR
GS
[1 0 0 1 84.59091 96.43362] CT
1 0 0 RC
10.0 ML
N
0 -3 M
0 3 L
-3 0 M
3 0 L
S
GR
GS
[1 0 0 1 84.59091 96.41852] CT
1 0 0 RC
10.0 ML
N
0 -3 M
0 3 L
-3 0 M
3 0 L
S
GR
GS
[1 0 0 1 84.59091 96.36382] CT
1 0 0 RC
10.0 ML
N
0 -3 M
0 3 L
-3 0 M
3 0 L
S
GR
GS
[1 0 0 1 125.77273 723.48999] CT
1 0 0 RC
10.0 ML
N
0 -3 M
0 3 L
-3 0 M
3 0 L
S
GR
GS
[1 0 0 1 125.77273 723.42712] CT
1 0 0 RC
10.0 ML
N
0 -3 M
0 3 L
-3 0 M
3 0 L
S
GR
GS
[1 0 0 1 125.77273 723.39569] CT
1 0 0 RC
10.0 ML
N
0 -3 M
0 3 L
-3 0 M
3 0 L
S
GR
GS
[1 0 0 1 125.77273 723.37054] CT
1 0 0 RC
10.0 ML
N
0 -3 M
0 3 L
-3 0 M
3 0 L
S
GR
GS
[1 0 0 1 125.77273 723.3454] CT
1 0 0 RC
10.0 ML
N
0 -3 M
0 3 L
-3 0 M
3 0 L
S
GR
GS
[1 0 0 1 125.77273 723.28253] CT
1 0 0 RC
10.0 ML
N
0 -3 M
0 3 L
-3 0 M
3 0 L
S
GR
GS
[1 0 0 1 125.77273 723.25739] CT
1 0 0 RC
10.0 ML
N
0 -3 M
0 3 L
-3 0 M
3 0 L
S
GR
GS
[1 0 0 1 125.77273 723.12537] CT
1 0 0 RC
10.0 ML
N
0 -3 M
0 3 L
-3 0 M
3 0 L
S
GR
GS
[1 0 0 1 125.77273 722.8551] CT
1 0 0 RC
10.0 ML
N
0 -3 M
0 3 L
-3 0 M
3 0 L
S
GR
GS
[1 0 0 1 125.77273 722.82996] CT
1 0 0 RC
10.0 ML
N
0 -3 M
0 3 L
-3 0 M
3 0 L
S
GR
GS
[1 0 0 1 125.77273 722.76709] CT
1 0 0 RC
10.0 ML
N
0 -3 M
0 3 L
-3 0 M
3 0 L
S
GR
GS
[1 0 0 1 125.77273 722.74823] CT
1 0 0 RC
10.0 ML
N
0 -3 M
0 3 L
-3 0 M
3 0 L
S
GR
GS
[1 0 0 1 125.77273 722.66022] CT
1 0 0 RC
10.0 ML
N
0 -3 M
0 3 L
-3 0 M
3 0 L
S
GR
GS
[1 0 0 1 125.77273 722.34589] CT
1 0 0 RC
10.0 ML
N
0 -3 M
0 3 L
-3 0 M
3 0 L
S
GR
GS
[1 0 0 1 125.77273 722.03162] CT
1 0 0 RC
10.0 ML
N
0 -3 M
0 3 L
-3 0 M
3 0 L
S
GR
GS
[1 0 0 1 125.77273 722.03162] CT
1 0 0 RC
10.0 ML
N
0 -3 M
0 3 L
-3 0 M
3 0 L
S
GR
GS
[1 0 0 1 125.77273 721.98761] CT
1 0 0 RC
10.0 ML
N
0 -3 M
0 3 L
-3 0 M
3 0 L
S
GR
GS
[1 0 0 1 125.77273 721.90588] CT
1 0 0 RC
10.0 ML
N
0 -3 M
0 3 L
-3 0 M
3 0 L
S
GR
GS
[1 0 0 1 125.77273 721.87445] CT
1 0 0 RC
10.0 ML
N
0 -3 M
0 3 L
-3 0 M
3 0 L
S
GR
GS
[1 0 0 1 125.77273 721.72986] CT
1 0 0 RC
10.0 ML
N
0 -3 M
0 3 L
-3 0 M
3 0 L
S
GR
GS
[1 0 0 1 125.77273 721.72357] CT
1 0 0 RC
10.0 ML
N
0 -3 M
0 3 L
-3 0 M
3 0 L
S
GR
GS
[1 0 0 1 125.77273 721.6167] CT
1 0 0 RC
10.0 ML
N
0 -3 M
0 3 L
-3 0 M
3 0 L
S
GR
GS
[1 0 0 1 125.77273 721.61041] CT
1 0 0 RC
10.0 ML
N
0 -3 M
0 3 L
-3 0 M
3 0 L
S
GR
GS
[1 0 0 1 125.77273 721.59784] CT
1 0 0 RC
10.0 ML
N
0 -3 M
0 3 L
-3 0 M
3 0 L
S
GR
GS
[1 0 0 1 125.77273 721.48474] CT
1 0 0 RC
10.0 ML
N
0 -3 M
0 3 L
-3 0 M
3 0 L
S
GR
GS
[1 0 0 1 125.77273 720.81213] CT
1 0 0 RC
10.0 ML
N
0 -3 M
0 3 L
-3 0 M
3 0 L
S
GR
GS
[1 0 0 1 125.77273 719.85663] CT
1 0 0 RC
10.0 ML
N
0 -3 M
0 3 L
-3 0 M
3 0 L
S
GR
GS
[1 0 0 1 125.77273 719.29089] CT
1 0 0 RC
10.0 ML
N
0 -3 M
0 3 L
-3 0 M
3 0 L
S
GR
GS
[1 0 0 1 125.77273 718.80682] CT
1 0 0 RC
10.0 ML
N
0 -3 M
0 3 L
-3 0 M
3 0 L
S
GR
GS
[1 0 0 1 125.77273 718.66229] CT
1 0 0 RC
10.0 ML
N
0 -3 M
0 3 L
-3 0 M
3 0 L
S
GR
GS
[1 0 0 1 125.77273 718.62457] CT
1 0 0 RC
10.0 ML
N
0 -3 M
0 3 L
-3 0 M
3 0 L
S
GR
GS
[1 0 0 1 125.77273 718.52399] CT
1 0 0 RC
10.0 ML
N
0 -3 M
0 3 L
-3 0 M
3 0 L
S
GR
GS
[1 0 0 1 125.77273 718.22223] CT
1 0 0 RC
10.0 ML
N
0 -3 M
0 3 L
-3 0 M
3 0 L
S
GR
GS
[1 0 0 1 125.77273 718.1405] CT
1 0 0 RC
10.0 ML
N
0 -3 M
0 3 L
-3 0 M
3 0 L
S
GR
GS
[1 0 0 1 125.77273 718.02112] CT
1 0 0 RC
10.0 ML
N
0 -3 M
0 3 L
-3 0 M
3 0 L
S
GR
GS
[1 0 0 1 125.77273 716.5376] CT
1 0 0 RC
10.0 ML
N
0 -3 M
0 3 L
-3 0 M
3 0 L
S
GR
GS
[1 0 0 1 125.77273 715.44379] CT
1 0 0 RC
10.0 ML
N
0 -3 M
0 3 L
-3 0 M
3 0 L
S
GR
GS
[1 0 0 1 125.77273 714.48834] CT
1 0 0 RC
10.0 ML
N
0 -3 M
0 3 L
-3 0 M
3 0 L
S
GR
GS
[1 0 0 1 125.77273 713.74658] CT
1 0 0 RC
10.0 ML
N
0 -3 M
0 3 L
-3 0 M
3 0 L
S
GR
GS
[1 0 0 1 125.77273 712.72821] CT
1 0 0 RC
10.0 ML
N
0 -3 M
0 3 L
-3 0 M
3 0 L
S
GR
GS
[1 0 0 1 125.77273 711.60931] CT
1 0 0 RC
10.0 ML
N
0 -3 M
0 3 L
-3 0 M
3 0 L
S
GR
GS
[1 0 0 1 125.77273 708.99426] CT
1 0 0 RC
10.0 ML
N
0 -3 M
0 3 L
-3 0 M
3 0 L
S
GR
GS
[1 0 0 1 125.77273 708.71143] CT
1 0 0 RC
10.0 ML
N
0 -3 M
0 3 L
-3 0 M
3 0 L
S
GR
GS
[1 0 0 1 125.77273 707.72449] CT
1 0 0 RC
10.0 ML
N
0 -3 M
0 3 L
-3 0 M
3 0 L
S
GR
GS
[1 0 0 1 125.77273 705.29181] CT
1 0 0 RC
10.0 ML
N
0 -3 M
0 3 L
-3 0 M
3 0 L
S
GR
GS
[1 0 0 1 125.77273 704.05969] CT
1 0 0 RC
10.0 ML
N
0 -3 M
0 3 L
-3 0 M
3 0 L
S
GR
GS
[1 0 0 1 125.77273 704.03455] CT
1 0 0 RC
10.0 ML
N
0 -3 M
0 3 L
-3 0 M
3 0 L
S
GR
GS
[1 0 0 1 125.77273 702.82135] CT
1 0 0 RC
10.0 ML
N
0 -3 M
0 3 L
-3 0 M
3 0 L
S
GR
GS
[1 0 0 1 125.77273 702.80878] CT
1 0 0 RC
10.0 ML
N
0 -3 M
0 3 L
-3 0 M
3 0 L
S
GR
GS
[1 0 0 1 125.77273 702.24933] CT
1 0 0 RC
10.0 ML
N
0 -3 M
0 3 L
-3 0 M
3 0 L
S
GR
GS
[1 0 0 1 125.77273 700.98584] CT
1 0 0 RC
10.0 ML
N
0 -3 M
0 3 L
-3 0 M
3 0 L
S
GR
GS
[1 0 0 1 125.77273 698.94916] CT
1 0 0 RC
10.0 ML
N
0 -3 M
0 3 L
-3 0 M
3 0 L
S
GR
GS
[1 0 0 1 125.77273 696.53528] CT
1 0 0 RC
10.0 ML
N
0 -3 M
0 3 L
-3 0 M
3 0 L
S
GR
GS
[1 0 0 1 125.77273 693.914] CT
1 0 0 RC
10.0 ML
N
0 -3 M
0 3 L
-3 0 M
3 0 L
S
GR
GS
[1 0 0 1 125.77273 693.6311] CT
1 0 0 RC
10.0 ML
N
0 -3 M
0 3 L
-3 0 M
3 0 L
S
GR
GS
[1 0 0 1 125.77273 692.69452] CT
1 0 0 RC
10.0 ML
N
0 -3 M
0 3 L
-3 0 M
3 0 L
S
GR
GS
[1 0 0 1 125.77273 691.18585] CT
1 0 0 RC
10.0 ML
N
0 -3 M
0 3 L
-3 0 M
3 0 L
S
GR
GS
[1 0 0 1 125.77273 686.1507] CT
1 0 0 RC
10.0 ML
N
0 -3 M
0 3 L
-3 0 M
3 0 L
S
GR
GS
[1 0 0 1 125.77273 683.46655] CT
1 0 0 RC
10.0 ML
N
0 -3 M
0 3 L
-3 0 M
3 0 L
S
GR
GS
[1 0 0 1 125.77273 652.38818] CT
1 0 0 RC
10.0 ML
N
0 -3 M
0 3 L
-3 0 M
3 0 L
S
GR
GS
[1 0 0 1 125.77273 651.58984] CT
1 0 0 RC
10.0 ML
N
0 -3 M
0 3 L
-3 0 M
3 0 L
S
GR
GS
[1 0 0 1 125.77273 646.9256] CT
1 0 0 RC
10.0 ML
N
0 -3 M
0 3 L
-3 0 M
3 0 L
S
GR
GS
[1 0 0 1 125.77273 643.68201] CT
1 0 0 RC
10.0 ML
N
0 -3 M
0 3 L
-3 0 M
3 0 L
S
GR
GS
[1 0 0 1 125.77273 643.24823] CT
1 0 0 RC
10.0 ML
N
0 -3 M
0 3 L
-3 0 M
3 0 L
S
GR
GS
[1 0 0 1 125.77273 643.00305] CT
1 0 0 RC
10.0 ML
N
0 -3 M
0 3 L
-3 0 M
3 0 L
S
GR
GS
[1 0 0 1 125.77273 602.1499] CT
1 0 0 RC
10.0 ML
N
0 -3 M
0 3 L
-3 0 M
3 0 L
S
GR
GS
[1 0 0 1 125.77273 583.10938] CT
1 0 0 RC
10.0 ML
N
0 -3 M
0 3 L
-3 0 M
3 0 L
S
GR
GS
[1 0 0 1 125.77273 580.2052] CT
1 0 0 RC
10.0 ML
N
0 -3 M
0 3 L
-3 0 M
3 0 L
S
GR
GS
[1 0 0 1 125.77273 576.20099] CT
1 0 0 RC
10.0 ML
N
0 -3 M
0 3 L
-3 0 M
3 0 L
S
GR
GS
[1 0 0 1 125.77273 566.67755] CT
1 0 0 RC
10.0 ML
N
0 -3 M
0 3 L
-3 0 M
3 0 L
S
GR
GS
[1 0 0 1 125.77273 535.95123] CT
1 0 0 RC
10.0 ML
N
0 -3 M
0 3 L
-3 0 M
3 0 L
S
GR
GS
[1 0 0 1 125.77273 518.89709] CT
1 0 0 RC
10.0 ML
N
0 -3 M
0 3 L
-3 0 M
3 0 L
S
GR
GS
[1 0 0 1 125.77273 511.62411] CT
1 0 0 RC
10.0 ML
N
0 -3 M
0 3 L
-3 0 M
3 0 L
S
GR
GS
[1 0 0 1 125.77273 488.89368] CT
1 0 0 RC
10.0 ML
N
0 -3 M
0 3 L
-3 0 M
3 0 L
S
GR
GS
[1 0 0 1 125.77273 471.22351] CT
1 0 0 RC
10.0 ML
N
0 -3 M
0 3 L
-3 0 M
3 0 L
S
GR
GS
[1 0 0 1 125.77273 449.22226] CT
1 0 0 RC
10.0 ML
N
0 -3 M
0 3 L
-3 0 M
3 0 L
S
GR
GS
[1 0 0 1 125.77273 419.26282] CT
1 0 0 RC
10.0 ML
N
0 -3 M
0 3 L
-3 0 M
3 0 L
S
GR
GS
[1 0 0 1 125.77273 417.88617] CT
1 0 0 RC
10.0 ML
N
0 -3 M
0 3 L
-3 0 M
3 0 L
S
GR
GS
[1 0 0 1 125.77273 414.18997] CT
1 0 0 RC
10.0 ML
N
0 -3 M
0 3 L
-3 0 M
3 0 L
S
GR
GS
[1 0 0 1 125.77273 359.52628] CT
1 0 0 RC
10.0 ML
N
0 -3 M
0 3 L
-3 0 M
3 0 L
S
GR
GS
[1 0 0 1 125.77273 328.37247] CT
1 0 0 RC
10.0 ML
N
0 -3 M
0 3 L
-3 0 M
3 0 L
S
GR
GS
[1 0 0 1 125.77273 292.39099] CT
1 0 0 RC
10.0 ML
N
0 -3 M
0 3 L
-3 0 M
3 0 L
S
GR
GS
[1 0 0 1 125.77273 291.88809] CT
1 0 0 RC
10.0 ML
N
0 -3 M
0 3 L
-3 0 M
3 0 L
S
GR
GS
[1 0 0 1 125.77273 288.62561] CT
1 0 0 RC
10.0 ML
N
0 -3 M
0 3 L
-3 0 M
3 0 L
S
GR
GS
[1 0 0 1 125.77273 271.86066] CT
1 0 0 RC
10.0 ML
N
0 -3 M
0 3 L
-3 0 M
3 0 L
S
GR
GS
[1 0 0 1 125.77273 270.54688] CT
1 0 0 RC
10.0 ML
N
0 -3 M
0 3 L
-3 0 M
3 0 L
S
GR
GS
[1 0 0 1 125.77273 168.79419] CT
1 0 0 RC
10.0 ML
N
0 -3 M
0 3 L
-3 0 M
3 0 L
S
GR
GS
[1 0 0 1 125.77273 162.37608] CT
1 0 0 RC
10.0 ML
N
0 -3 M
0 3 L
-3 0 M
3 0 L
S
GR
GS
[1 0 0 1 125.77273 138.05714] CT
1 0 0 RC
10.0 ML
N
0 -3 M
0 3 L
-3 0 M
3 0 L
S
GR
GS
[1 0 0 1 125.77273 132.52666] CT
1 0 0 RC
10.0 ML
N
0 -3 M
0 3 L
-3 0 M
3 0 L
S
GR
GS
[1 0 0 1 125.77273 131.32353] CT
1 0 0 RC
10.0 ML
N
0 -3 M
0 3 L
-3 0 M
3 0 L
S
GR
GS
[1 0 0 1 125.77273 119.5233] CT
1 0 0 RC
10.0 ML
N
0 -3 M
0 3 L
-3 0 M
3 0 L
S
GR
GS
[1 0 0 1 125.77273 119.05686] CT
1 0 0 RC
10.0 ML
N
0 -3 M
0 3 L
-3 0 M
3 0 L
S
GR
GS
[1 0 0 1 125.77273 100.53797] CT
1 0 0 RC
10.0 ML
N
0 -3 M
0 3 L
-3 0 M
3 0 L
S
GR
GS
[1 0 0 1 125.77273 97.42798] CT
1 0 0 RC
10.0 ML
N
0 -3 M
0 3 L
-3 0 M
3 0 L
S
GR
GS
[1 0 0 1 125.77273 95.87422] CT
1 0 0 RC
10.0 ML
N
0 -3 M
0 3 L
-3 0 M
3 0 L
S
GR
GS
[1 0 0 1 166.95454 724.04315] CT
1 0 0 RC
10.0 ML
N
0 -3 M
0 3 L
-3 0 M
3 0 L
S
GR
GS
[1 0 0 1 166.95454 724.04315] CT
1 0 0 RC
10.0 ML
N
0 -3 M
0 3 L
-3 0 M
3 0 L
S
GR
GS
[1 0 0 1 166.95454 724.04315] CT
1 0 0 RC
10.0 ML
N
0 -3 M
0 3 L
-3 0 M
3 0 L
S
GR
GS
[1 0 0 1 166.95454 724.03687] CT
1 0 0 RC
10.0 ML
N
0 -3 M
0 3 L
-3 0 M
3 0 L
S
GR
GS
[1 0 0 1 166.95454 724.03687] CT
1 0 0 RC
10.0 ML
N
0 -3 M
0 3 L
-3 0 M
3 0 L
S
GR
GS
[1 0 0 1 166.95454 724.03687] CT
1 0 0 RC
10.0 ML
N
0 -3 M
0 3 L
-3 0 M
3 0 L
S
GR
GS
[1 0 0 1 166.95454 724.03058] CT
1 0 0 RC
10.0 ML
N
0 -3 M
0 3 L
-3 0 M
3 0 L
S
GR
GS
[1 0 0 1 166.95454 724.03058] CT
1 0 0 RC
10.0 ML
N
0 -3 M
0 3 L
-3 0 M
3 0 L
S
GR
GS
[1 0 0 1 166.95454 724.02429] CT
1 0 0 RC
10.0 ML
N
0 -3 M
0 3 L
-3 0 M
3 0 L
S
GR
GS
[1 0 0 1 166.95454 724.01801] CT
1 0 0 RC
10.0 ML
N
0 -3 M
0 3 L
-3 0 M
3 0 L
S
GR
GS
[1 0 0 1 166.95454 724.01172] CT
1 0 0 RC
10.0 ML
N
0 -3 M
0 3 L
-3 0 M
3 0 L
S
GR
GS
[1 0 0 1 166.95454 724.00543] CT
1 0 0 RC
10.0 ML
N
0 -3 M
0 3 L
-3 0 M
3 0 L
S
GR
GS
[1 0 0 1 166.95454 724.00543] CT
1 0 0 RC
10.0 ML
N
0 -3 M
0 3 L
-3 0 M
3 0 L
S
GR
GS
[1 0 0 1 166.95454 723.99915] CT
1 0 0 RC
10.0 ML
N
0 -3 M
0 3 L
-3 0 M
3 0 L
S
GR
GS
[1 0 0 1 166.95454 723.96771] CT
1 0 0 RC
10.0 ML
N
0 -3 M
0 3 L
-3 0 M
3 0 L
S
GR
GS
[1 0 0 1 166.95454 723.91113] CT
1 0 0 RC
10.0 ML
N
0 -3 M
0 3 L
-3 0 M
3 0 L
S
GR
GS
[1 0 0 1 166.95454 723.91113] CT
1 0 0 RC
10.0 ML
N
0 -3 M
0 3 L
-3 0 M
3 0 L
S
GR
GS
[1 0 0 1 166.95454 723.86713] CT
1 0 0 RC
10.0 ML
N
0 -3 M
0 3 L
-3 0 M
3 0 L
S
GR
GS
[1 0 0 1 166.95454 723.534] CT
1 0 0 RC
10.0 ML
N
0 -3 M
0 3 L
-3 0 M
3 0 L
S
GR
GS
[1 0 0 1 166.95454 723.25739] CT
1 0 0 RC
10.0 ML
N
0 -3 M
0 3 L
-3 0 M
3 0 L
S
GR
GS
[1 0 0 1 166.95454 722.19507] CT
1 0 0 RC
10.0 ML
N
0 -3 M
0 3 L
-3 0 M
3 0 L
S
GR
GS
[1 0 0 1 208.13637 724.00543] CT
1 0 0 RC
10.0 ML
N
0 -3 M
0 3 L
-3 0 M
3 0 L
S
GR
GS
[1 0 0 1 208.13637 723.99286] CT
1 0 0 RC
10.0 ML
N
0 -3 M
0 3 L
-3 0 M
3 0 L
S
GR
GS
[1 0 0 1 208.13637 723.99286] CT
1 0 0 RC
10.0 ML
N
0 -3 M
0 3 L
-3 0 M
3 0 L
S
GR
GS
[1 0 0 1 208.13637 723.99286] CT
1 0 0 RC
10.0 ML
N
0 -3 M
0 3 L
-3 0 M
3 0 L
S
GR
GS
[1 0 0 1 208.13637 723.98029] CT
1 0 0 RC
10.0 ML
N
0 -3 M
0 3 L
-3 0 M
3 0 L
S
GR
GS
[1 0 0 1 208.13637 723.93628] CT
1 0 0 RC
10.0 ML
N
0 -3 M
0 3 L
-3 0 M
3 0 L
S
GR
GS
[1 0 0 1 208.13637 723.88599] CT
1 0 0 RC
10.0 ML
N
0 -3 M
0 3 L
-3 0 M
3 0 L
S
GR
GS
[1 0 0 1 208.13637 723.86713] CT
1 0 0 RC
10.0 ML
N
0 -3 M
0 3 L
-3 0 M
3 0 L
S
GR
GS
[1 0 0 1 208.13637 723.86084] CT
1 0 0 RC
10.0 ML
N
0 -3 M
0 3 L
-3 0 M
3 0 L
S
GR
GS
[1 0 0 1 208.13637 723.86084] CT
1 0 0 RC
10.0 ML
N
0 -3 M
0 3 L
-3 0 M
3 0 L
S
GR
GS
[1 0 0 1 208.13637 723.85455] CT
1 0 0 RC
10.0 ML
N
0 -3 M
0 3 L
-3 0 M
3 0 L
S
GR
GS
[1 0 0 1 208.13637 723.82941] CT
1 0 0 RC
10.0 ML
N
0 -3 M
0 3 L
-3 0 M
3 0 L
S
GR
GS
[1 0 0 1 208.13637 723.79797] CT
1 0 0 RC
10.0 ML
N
0 -3 M
0 3 L
-3 0 M
3 0 L
S
GR
GS
[1 0 0 1 208.13637 723.7854] CT
1 0 0 RC
10.0 ML
N
0 -3 M
0 3 L
-3 0 M
3 0 L
S
GR
GS
[1 0 0 1 208.13637 723.59686] CT
1 0 0 RC
10.0 ML
N
0 -3 M
0 3 L
-3 0 M
3 0 L
S
GR
GS
[1 0 0 1 208.13637 723.35797] CT
1 0 0 RC
10.0 ML
N
0 -3 M
0 3 L
-3 0 M
3 0 L
S
GR
GS
[1 0 0 1 208.13637 723.21338] CT
1 0 0 RC
10.0 ML
N
0 -3 M
0 3 L
-3 0 M
3 0 L
S
GR
GS
[1 0 0 1 208.13637 723.12537] CT
1 0 0 RC
10.0 ML
N
0 -3 M
0 3 L
-3 0 M
3 0 L
S
GR
GS
[1 0 0 1 208.13637 721.86188] CT
1 0 0 RC
10.0 ML
N
0 -3 M
0 3 L
-3 0 M
3 0 L
S
GR
GS
[1 0 0 1 208.13637 716.05353] CT
1 0 0 RC
10.0 ML
N
0 -3 M
0 3 L
-3 0 M
3 0 L
S
GR
GS
[1 0 0 1 208.13637 715.60095] CT
1 0 0 RC
10.0 ML
N
0 -3 M
0 3 L
-3 0 M
3 0 L
S
GR
GS
[1 0 0 1 208.13637 617.97821] CT
1 0 0 RC
10.0 ML
N
0 -3 M
0 3 L
-3 0 M
3 0 L
S
GR
GS
[1 0 0 1 208.13637 571.15955] CT
1 0 0 RC
10.0 ML
N
0 -3 M
0 3 L
-3 0 M
3 0 L
S
GR
GS
[1 0 0 1 249.31818 716.90845] CT
1 0 0 RC
10.0 ML
N
0 -3 M
0 3 L
-3 0 M
3 0 L
S
GR
GS
[1 0 0 1 249.31818 716.56903] CT
1 0 0 RC
10.0 ML
N
0 -3 M
0 3 L
-3 0 M
3 0 L
S
GR
GS
[1 0 0 1 249.31818 711.74133] CT
1 0 0 RC
10.0 ML
N
0 -3 M
0 3 L
-3 0 M
3 0 L
S
GR
GS
[1 0 0 1 249.31818 704.47461] CT
1 0 0 RC
10.0 ML
N
0 -3 M
0 3 L
-3 0 M
3 0 L
S
GR
GS
[1 0 0 1 249.31818 704.27972] CT
1 0 0 RC
10.0 ML
N
0 -3 M
0 3 L
-3 0 M
3 0 L
S
GR
GS
[1 0 0 1 249.31818 701.67731] CT
1 0 0 RC
10.0 ML
N
0 -3 M
0 3 L
-3 0 M
3 0 L
S
GR
GS
[1 0 0 1 249.31818 684.62317] CT
1 0 0 RC
10.0 ML
N
0 -3 M
0 3 L
-3 0 M
3 0 L
S
GR
GS
[1 0 0 1 249.31818 627.09302] CT
1 0 0 RC
10.0 ML
N
0 -3 M
0 3 L
-3 0 M
3 0 L
S
GR
GS
[1 0 0 1 249.31818 606.49353] CT
1 0 0 RC
10.0 ML
N
0 -3 M
0 3 L
-3 0 M
3 0 L
S
GR
GS
[1 0 0 1 249.31818 523.24078] CT
1 0 0 RC
10.0 ML
N
0 -3 M
0 3 L
-3 0 M
3 0 L
S
GR
GS
[1 0 0 1 249.31818 229.31021] CT
1 0 0 RC
10.0 ML
N
0 -3 M
0 3 L
-3 0 M
3 0 L
S
GR
GS
[1 0 0 1 290.5 724.02429] CT
1 0 0 RC
10.0 ML
N
0 -3 M
0 3 L
-3 0 M
3 0 L
S
GR
GS
[1 0 0 1 290.5 723.98029] CT
1 0 0 RC
10.0 ML
N
0 -3 M
0 3 L
-3 0 M
3 0 L
S
GR
GS
[1 0 0 1 290.5 722.42761] CT
1 0 0 RC
10.0 ML
N
0 -3 M
0 3 L
-3 0 M
3 0 L
S
GR
GS
[1 0 0 1 372.86365 719.03314] CT
1 0 0 RC
10.0 ML
N
0 -3 M
0 3 L
-3 0 M
3 0 L
S
GR
GS
[1 0 0 1 372.86365 707.39764] CT
1 0 0 RC
10.0 ML
N
0 -3 M
0 3 L
-3 0 M
3 0 L
S
GR
GS
[1 0 0 1 372.86365 691.53156] CT
1 0 0 RC
10.0 ML
N
0 -3 M
0 3 L
-3 0 M
3 0 L
S
GR
GS
[1 0 0 1 372.86365 671.91272] CT
1 0 0 RC
10.0 ML
N
0 -3 M
0 3 L
-3 0 M
3 0 L
S
GR
GS
[1 0 0 1 414.04544 724.02429] CT
1 0 0 RC
10.0 ML
N
0 -3 M
0 3 L
-3 0 M
3 0 L
S
GR
GS
[1 0 0 1 414.04544 724.01172] CT
1 0 0 RC
10.0 ML
N
0 -3 M
0 3 L
-3 0 M
3 0 L
S
GR
GS
[1 0 0 1 414.04544 723.84827] CT
1 0 0 RC
10.0 ML
N
0 -3 M
0 3 L
-3 0 M
3 0 L
S
GR
GS
[1 0 0 1 414.04544 723.70367] CT
1 0 0 RC
10.0 ML
N
0 -3 M
0 3 L
-3 0 M
3 0 L
S
GR
GS
[1 0 0 1 414.04544 721.16412] CT
1 0 0 RC
10.0 ML
N
0 -3 M
0 3 L
-3 0 M
3 0 L
S
GR
GS
[1 0 0 1 455.22726 724.04315] CT
1 0 0 RC
10.0 ML
N
0 -3 M
0 3 L
-3 0 M
3 0 L
S
GR
GS
[1 0 0 1 455.22726 723.99915] CT
1 0 0 RC
10.0 ML
N
0 -3 M
0 3 L
-3 0 M
3 0 L
S
GR
GS
[1 0 0 1 455.22726 723.7854] CT
1 0 0 RC
10.0 ML
N
0 -3 M
0 3 L
-3 0 M
3 0 L
S
GR
GS
[1 0 0 1 455.22726 723.64716] CT
1 0 0 RC
10.0 ML
N
0 -3 M
0 3 L
-3 0 M
3 0 L
S
GR
GS
[1 0 0 1 455.22726 723.60944] CT
1 0 0 RC
10.0 ML
N
0 -3 M
0 3 L
-3 0 M
3 0 L
S
GR
GS
[1 0 0 1 455.22726 723.31396] CT
1 0 0 RC
10.0 ML
N
0 -3 M
0 3 L
-3 0 M
3 0 L
S
GR
GS
[1 0 0 1 455.22726 723.17566] CT
1 0 0 RC
10.0 ML
N
0 -3 M
0 3 L
-3 0 M
3 0 L
S
GR
GS
[1 0 0 1 619.95453 724.05573] CT
1 0 0 RC
10.0 ML
N
0 -3 M
0 3 L
-3 0 M
3 0 L
S
GR
GS
[1 0 0 1 619.95453 724.04944] CT
1 0 0 RC
10.0 ML
N
0 -3 M
0 3 L
-3 0 M
3 0 L
S
GR
GS
[1 0 0 1 619.95453 723.91113] CT
1 0 0 RC
10.0 ML
N
0 -3 M
0 3 L
-3 0 M
3 0 L
S
GR
GS
[1 0 0 1 702.31818 723.86084] CT
1 0 0 RC
10.0 ML
N
0 -3 M
0 3 L
-3 0 M
3 0 L
S
GR
GS
[1 0 0 1 825.86365 724.05573] CT
1 0 0 RC
10.0 ML
N
0 -3 M
0 3 L
-3 0 M
3 0 L
S
GR
GS
[1 0 0 1 825.86365 724.05573] CT
1 0 0 RC
10.0 ML
N
0 -3 M
0 3 L
-3 0 M
3 0 L
S
GR
GS
[1 0 0 1 825.86365 724.05573] CT
1 0 0 RC
10.0 ML
N
0 -3 M
0 3 L
-3 0 M
3 0 L
S
GR
GS
[1 0 0 1 825.86365 724.04944] CT
1 0 0 RC
10.0 ML
N
0 -3 M
0 3 L
-3 0 M
3 0 L
S
GR
GS
[1 0 0 1 825.86365 724.04944] CT
1 0 0 RC
10.0 ML
N
0 -3 M
0 3 L
-3 0 M
3 0 L
S
GR
GS
[1 0 0 1 825.86365 724.03058] CT
1 0 0 RC
10.0 ML
N
0 -3 M
0 3 L
-3 0 M
3 0 L
S
GR
GS
[1 0 0 1 825.86365 723.99915] CT
1 0 0 RC
10.0 ML
N
0 -3 M
0 3 L
-3 0 M
3 0 L
S
GR
GS
[1 0 0 1 825.86365 723.98029] CT
1 0 0 RC
10.0 ML
N
0 -3 M
0 3 L
-3 0 M
3 0 L
S
GR
GS
[1 0 0 1 825.86365 723.92999] CT
1 0 0 RC
10.0 ML
N
0 -3 M
0 3 L
-3 0 M
3 0 L
S
GR
GS
[1 0 0 1 867.04547 724.04315] CT
1 0 0 RC
10.0 ML
N
0 -3 M
0 3 L
-3 0 M
3 0 L
S
GR
GS
[1 0 0 1 1031.77271 724.05573] CT
1 0 0 RC
10.0 ML
N
0 -3 M
0 3 L
-3 0 M
3 0 L
S
GR
GS
[1 0 0 1 1031.77271 724.04944] CT
1 0 0 RC
10.0 ML
N
0 -3 M
0 3 L
-3 0 M
3 0 L
S
GR
GS
[1 0 0 1 1031.77271 724.04944] CT
1 0 0 RC
10.0 ML
N
0 -3 M
0 3 L
-3 0 M
3 0 L
S
GR
GS
[1 0 0 1 1031.77271 724.03058] CT
1 0 0 RC
10.0 ML
N
0 -3 M
0 3 L
-3 0 M
3 0 L
S
GR
GS
[1 0 0 1 1072.95459 724.04315] CT
1 0 0 RC
10.0 ML
N
0 -3 M
0 3 L
-3 0 M
3 0 L
S
GR
GS
[1 0 0 1 1072.95459 724.03058] CT
1 0 0 RC
10.0 ML
N
0 -3 M
0 3 L
-3 0 M
3 0 L
S
GR
GS
[1 0 0 1 1072.95459 723.82941] CT
1 0 0 RC
10.0 ML
N
0 -3 M
0 3 L
-3 0 M
3 0 L
S
GR
GS
[1 0 0 1 1072.95459 723.55286] CT
1 0 0 RC
10.0 ML
N
0 -3 M
0 3 L
-3 0 M
3 0 L
S
GR
GS
[1 0 0 1 1114.13635 724.02429] CT
1 0 0 RC
10.0 ML
N
0 -3 M
0 3 L
-3 0 M
3 0 L
S
GR
GS
[1 0 0 1 1114.13635 724.02429] CT
1 0 0 RC
10.0 ML
N
0 -3 M
0 3 L
-3 0 M
3 0 L
S
GR
GS
[1 0 0 1 1114.13635 724.01801] CT
1 0 0 RC
10.0 ML
N
0 -3 M
0 3 L
-3 0 M
3 0 L
S
GR
GS
[1 0 0 1 1114.13635 723.99915] CT
1 0 0 RC
10.0 ML
N
0 -3 M
0 3 L
-3 0 M
3 0 L
S
GR
GS
[1 0 0 1 1114.13635 723.98657] CT
1 0 0 RC
10.0 ML
N
0 -3 M
0 3 L
-3 0 M
3 0 L
S
GR
GS
[1 0 0 1 1114.13635 723.8797] CT
1 0 0 RC
10.0 ML
N
0 -3 M
0 3 L
-3 0 M
3 0 L
S
GR
GS
[1 0 0 1 1155.31824 724.04315] CT
1 0 0 RC
10.0 ML
N
0 -3 M
0 3 L
-3 0 M
3 0 L
S
GR
GS
[1 0 0 1 1155.31824 724.03687] CT
1 0 0 RC
10.0 ML
N
0 -3 M
0 3 L
-3 0 M
3 0 L
S
GR
GS
[1 0 0 1 1155.31824 724.03687] CT
1 0 0 RC
10.0 ML
N
0 -3 M
0 3 L
-3 0 M
3 0 L
S
GR
GS
[1 0 0 1 1155.31824 724.03687] CT
1 0 0 RC
10.0 ML
N
0 -3 M
0 3 L
-3 0 M
3 0 L
S
GR
GS
[1 0 0 1 1155.31824 724.03058] CT
1 0 0 RC
10.0 ML
N
0 -3 M
0 3 L
-3 0 M
3 0 L
S
GR
GS
[1 0 0 1 1155.31824 724.01801] CT
1 0 0 RC
10.0 ML
N
0 -3 M
0 3 L
-3 0 M
3 0 L
S
GR
GS
[1 0 0 1 1155.31824 724.00543] CT
1 0 0 RC
10.0 ML
N
0 -3 M
0 3 L
-3 0 M
3 0 L
S
GR
GS
[1 0 0 1 1155.31824 723.99915] CT
1 0 0 RC
10.0 ML
N
0 -3 M
0 3 L
-3 0 M
3 0 L
S
GR
GS
[1 0 0 1 1155.31824 723.99286] CT
1 0 0 RC
10.0 ML
N
0 -3 M
0 3 L
-3 0 M
3 0 L
S
GR
GS
[1 0 0 1 1155.31824 723.94257] CT
1 0 0 RC
10.0 ML
N
0 -3 M
0 3 L
-3 0 M
3 0 L
S
GR
GS
[1 0 0 1 1155.31824 723.91742] CT
1 0 0 RC
10.0 ML
N
0 -3 M
0 3 L
-3 0 M
3 0 L
S
GR
GS
[1 0 0 1 1155.31824 723.89856] CT
1 0 0 RC
10.0 ML
N
0 -3 M
0 3 L
-3 0 M
3 0 L
S
GR
GS
[1 0 0 1 1155.31824 723.82941] CT
1 0 0 RC
10.0 ML
N
0 -3 M
0 3 L
-3 0 M
3 0 L
S
GR
GS
[1 0 0 1 1155.31824 723.60944] CT
1 0 0 RC
10.0 ML
N
0 -3 M
0 3 L
-3 0 M
3 0 L
S
GR
GS
[1 0 0 1 1155.31824 723.60315] CT
1 0 0 RC
10.0 ML
N
0 -3 M
0 3 L
-3 0 M
3 0 L
S
GR
GS
[1 0 0 1 1155.31824 723.17566] CT
1 0 0 RC
10.0 ML
N
0 -3 M
0 3 L
-3 0 M
3 0 L
S
GR
GS
[1 0 0 1 1155.31824 722.86139] CT
1 0 0 RC
10.0 ML
N
0 -3 M
0 3 L
-3 0 M
3 0 L
S
GR
GS
[1 0 0 1 1196.5 723.98657] CT
1 0 0 RC
10.0 ML
N
0 -3 M
0 3 L
-3 0 M
3 0 L
S
GR
GS
[1 0 0 1 1196.5 723.98657] CT
1 0 0 RC
10.0 ML
N
0 -3 M
0 3 L
-3 0 M
3 0 L
S
GR
GS
[1 0 0 1 1196.5 723.974] CT
1 0 0 RC
10.0 ML
N
0 -3 M
0 3 L
-3 0 M
3 0 L
S
GR
GS
[1 0 0 1 1196.5 723.974] CT
1 0 0 RC
10.0 ML
N
0 -3 M
0 3 L
-3 0 M
3 0 L
S
GR
GS
[1 0 0 1 1196.5 723.95514] CT
1 0 0 RC
10.0 ML
N
0 -3 M
0 3 L
-3 0 M
3 0 L
S
GR
GS
[1 0 0 1 1196.5 723.95514] CT
1 0 0 RC
10.0 ML
N
0 -3 M
0 3 L
-3 0 M
3 0 L
S
GR
GS
[1 0 0 1 1196.5 723.94885] CT
1 0 0 RC
10.0 ML
N
0 -3 M
0 3 L
-3 0 M
3 0 L
S
GR
GS
[1 0 0 1 1196.5 723.94257] CT
1 0 0 RC
10.0 ML
N
0 -3 M
0 3 L
-3 0 M
3 0 L
S
GR
GS
[1 0 0 1 1196.5 723.93628] CT
1 0 0 RC
10.0 ML
N
0 -3 M
0 3 L
-3 0 M
3 0 L
S
GR
GS
[1 0 0 1 1196.5 723.93628] CT
1 0 0 RC
10.0 ML
N
0 -3 M
0 3 L
-3 0 M
3 0 L
S
GR
GS
[1 0 0 1 1196.5 723.88599] CT
1 0 0 RC
10.0 ML
N
0 -3 M
0 3 L
-3 0 M
3 0 L
S
GR
GS
[1 0 0 1 1196.5 723.47742] CT
1 0 0 RC
10.0 ML
N
0 -3 M
0 3 L
-3 0 M
3 0 L
S
GR
GS
[1 0 0 1 1196.5 723.20081] CT
1 0 0 RC
10.0 ML
N
0 -3 M
0 3 L
-3 0 M
3 0 L
S
GR
GS
[1 0 0 1 1196.5 720.17725] CT
1 0 0 RC
10.0 ML
N
0 -3 M
0 3 L
-3 0 M
3 0 L
S
GR
GS
[1 0 0 1 1196.5 719.56744] CT
1 0 0 RC
10.0 ML
N
0 -3 M
0 3 L
-3 0 M
3 0 L
S
GR
GS
[1 0 0 1 1237.68176 723.974] CT
1 0 0 RC
10.0 ML
N
0 -3 M
0 3 L
-3 0 M
3 0 L
S
GR
GS
[1 0 0 1 1237.68176 723.96771] CT
1 0 0 RC
10.0 ML
N
0 -3 M
0 3 L
-3 0 M
3 0 L
S
GR
GS
[1 0 0 1 1237.68176 723.95514] CT
1 0 0 RC
10.0 ML
N
0 -3 M
0 3 L
-3 0 M
3 0 L
S
GR
GS
[1 0 0 1 1237.68176 723.95514] CT
1 0 0 RC
10.0 ML
N
0 -3 M
0 3 L
-3 0 M
3 0 L
S
GR
GS
[1 0 0 1 1237.68176 723.92999] CT
1 0 0 RC
10.0 ML
N
0 -3 M
0 3 L
-3 0 M
3 0 L
S
GR
GS
[1 0 0 1 1237.68176 723.89227] CT
1 0 0 RC
10.0 ML
N
0 -3 M
0 3 L
-3 0 M
3 0 L
S
GR
GS
[1 0 0 1 1237.68176 723.16937] CT
1 0 0 RC
10.0 ML
N
0 -3 M
0 3 L
-3 0 M
3 0 L
S
GR
GS
[1 0 0 1 1237.68176 722.91797] CT
1 0 0 RC
10.0 ML
N
0 -3 M
0 3 L
-3 0 M
3 0 L
S
GR
GS
[1 0 0 1 1237.68176 721.98132] CT
1 0 0 RC
10.0 ML
N
0 -3 M
0 3 L
-3 0 M
3 0 L
S
GR
GS
[1 0 0 1 1237.68176 720.52295] CT
1 0 0 RC
10.0 ML
N
0 -3 M
0 3 L
-3 0 M
3 0 L
S
GR
GS
[1 0 0 1 1237.68176 719.45435] CT
1 0 0 RC
10.0 ML
N
0 -3 M
0 3 L
-3 0 M
3 0 L
S
GR
GS
[1 0 0 1 1237.68176 719.25946] CT
1 0 0 RC
10.0 ML
N
0 -3 M
0 3 L
-3 0 M
3 0 L
S
GR
GS
[1 0 0 1 1237.68176 580.46918] CT
1 0 0 RC
10.0 ML
N
0 -3 M
0 3 L
-3 0 M
3 0 L
S
GR
GS
[1 0 0 1 1278.86365 724.02429] CT
1 0 0 RC
10.0 ML
N
0 -3 M
0 3 L
-3 0 M
3 0 L
S
GR
GS
[1 0 0 1 1278.86365 724.01801] CT
1 0 0 RC
10.0 ML
N
0 -3 M
0 3 L
-3 0 M
3 0 L
S
GR
GS
[1 0 0 1 1278.86365 724.01801] CT
1 0 0 RC
10.0 ML
N
0 -3 M
0 3 L
-3 0 M
3 0 L
S
GR
GS
[1 0 0 1 1278.86365 724.01801] CT
1 0 0 RC
10.0 ML
N
0 -3 M
0 3 L
-3 0 M
3 0 L
S
GR
GS
[1 0 0 1 1278.86365 724.01801] CT
1 0 0 RC
10.0 ML
N
0 -3 M
0 3 L
-3 0 M
3 0 L
S
GR
GS
[1 0 0 1 1278.86365 723.96771] CT
1 0 0 RC
10.0 ML
N
0 -3 M
0 3 L
-3 0 M
3 0 L
S
GR
GS
[1 0 0 1 1278.86365 723.92999] CT
1 0 0 RC
10.0 ML
N
0 -3 M
0 3 L
-3 0 M
3 0 L
S
GR
GS
[1 0 0 1 1278.86365 723.77283] CT
1 0 0 RC
10.0 ML
N
0 -3 M
0 3 L
-3 0 M
3 0 L
S
GR
GS
[1 0 0 1 1278.86365 722.9054] CT
1 0 0 RC
10.0 ML
N
0 -3 M
0 3 L
-3 0 M
3 0 L
S
GR
GS
[1 0 0 1 1278.86365 722.05676] CT
1 0 0 RC
10.0 ML
N
0 -3 M
0 3 L
-3 0 M
3 0 L
S
GR
GS
[1 0 0 1 1320.04541 724.03687] CT
1 0 0 RC
10.0 ML
N
0 -3 M
0 3 L
-3 0 M
3 0 L
S
GR
GS
[1 0 0 1 1320.04541 724.03058] CT
1 0 0 RC
10.0 ML
N
0 -3 M
0 3 L
-3 0 M
3 0 L
S
GR
GS
[1 0 0 1 1320.04541 724.02429] CT
1 0 0 RC
10.0 ML
N
0 -3 M
0 3 L
-3 0 M
3 0 L
S
GR
GS
[1 0 0 1 1320.04541 724.02429] CT
1 0 0 RC
10.0 ML
N
0 -3 M
0 3 L
-3 0 M
3 0 L
S
GR
GS
[1 0 0 1 1320.04541 724.01801] CT
1 0 0 RC
10.0 ML
N
0 -3 M
0 3 L
-3 0 M
3 0 L
S
GR
GS
[1 0 0 1 1320.04541 723.93628] CT
1 0 0 RC
10.0 ML
N
0 -3 M
0 3 L
-3 0 M
3 0 L
S
GR
GS
[1 0 0 1 1320.04541 723.76025] CT
1 0 0 RC
10.0 ML
N
0 -3 M
0 3 L
-3 0 M
3 0 L
S
GR
GS
[1 0 0 1 1320.04541 723.72882] CT
1 0 0 RC
10.0 ML
N
0 -3 M
0 3 L
-3 0 M
3 0 L
S
GR
GS
[1 0 0 1 1320.04541 722.08191] CT
1 0 0 RC
10.0 ML
N
0 -3 M
0 3 L
-3 0 M
3 0 L
S
GR
GS
[1 0 0 1 1361.22729 723.6723] CT
1 0 0 RC
10.0 ML
N
0 -3 M
0 3 L
-3 0 M
3 0 L
S
GR
GS
[1 0 0 1 1361.22729 722.02533] CT
1 0 0 RC
10.0 ML
N
0 -3 M
0 3 L
-3 0 M
3 0 L
S
GR
GS
[1 0 0 1 1402.40906 724.05573] CT
1 0 0 RC
10.0 ML
N
0 -3 M
0 3 L
-3 0 M
3 0 L
S
GR
GS
[1 0 0 1 1402.40906 724.04944] CT
1 0 0 RC
10.0 ML
N
0 -3 M
0 3 L
-3 0 M
3 0 L
S
GR
GS
[1 0 0 1 1402.40906 724.04944] CT
1 0 0 RC
10.0 ML
N
0 -3 M
0 3 L
-3 0 M
3 0 L
S
GR
GS
[1 0 0 1 1402.40906 724.04315] CT
1 0 0 RC
10.0 ML
N
0 -3 M
0 3 L
-3 0 M
3 0 L
S
GR
GS
[1 0 0 1 1402.40906 724.04315] CT
1 0 0 RC
10.0 ML
N
0 -3 M
0 3 L
-3 0 M
3 0 L
S
GR
GS
[1 0 0 1 1402.40906 723.92999] CT
1 0 0 RC
10.0 ML
N
0 -3 M
0 3 L
-3 0 M
3 0 L
S
GR
GS
[1 0 0 1 1402.40906 723.67859] CT
1 0 0 RC
10.0 ML
N
0 -3 M
0 3 L
-3 0 M
3 0 L
S
GR
%%Trailer
%%Pages: 1
%%EOF
