%!PS-Adobe-3.0 EPSF-3.0
%%Creator: (MATLAB, The Mathworks, Inc. Version 9.3.0.713579 \(R2017b\). Operating System: Mac OS X)
%%Title: ./boxplots-intensity.eps
%%CreationDate: 2018-04-20T16:24:21
%%Pages: (atend)
%%BoundingBox:    26    13   454   394
%%LanguageLevel: 3
%%EndComments
%%BeginProlog
%%BeginResource: procset (Apache XML Graphics Std ProcSet) 1.2 0
%%Version: 1.2 0
%%Copyright: (Copyright 2001-2003,2010 The Apache Software Foundation. License terms: http://www.apache.org/licenses/LICENSE-2.0)
/bd{bind def}bind def
/ld{load def}bd
/GR/grestore ld
/GS/gsave ld
/RM/rmoveto ld
/C/curveto ld
/t/show ld
/L/lineto ld
/ML/setmiterlimit ld
/CT/concat ld
/f/fill ld
/N/newpath ld
/S/stroke ld
/CC/setcmykcolor ld
/A/ashow ld
/cp/closepath ld
/RC/setrgbcolor ld
/LJ/setlinejoin ld
/GC/setgray ld
/LW/setlinewidth ld
/M/moveto ld
/re {4 2 roll M
1 index 0 rlineto
0 exch rlineto
neg 0 rlineto
cp } bd
/_ctm matrix def
/_tm matrix def
/BT { _ctm currentmatrix pop matrix _tm copy pop 0 0 moveto } bd
/ET { _ctm setmatrix } bd
/iTm { _ctm setmatrix _tm concat } bd
/Tm { _tm astore pop iTm 0 0 moveto } bd
/ux 0.0 def
/uy 0.0 def
/F {
  /Tp exch def
  /Tf exch def
  Tf findfont Tp scalefont setfont
  /cf Tf def  /cs Tp def
} bd
/ULS {currentpoint /uy exch def /ux exch def} bd
/ULE {
  /Tcx currentpoint pop def
  gsave
  newpath
  cf findfont cs scalefont dup
  /FontMatrix get 0 get /Ts exch def /FontInfo get dup
  /UnderlinePosition get Ts mul /To exch def
  /UnderlineThickness get Ts mul /Tt exch def
  ux uy To add moveto  Tcx uy To add lineto
  Tt setlinewidth stroke
  grestore
} bd
/OLE {
  /Tcx currentpoint pop def
  gsave
  newpath
  cf findfont cs scalefont dup
  /FontMatrix get 0 get /Ts exch def /FontInfo get dup
  /UnderlinePosition get Ts mul /To exch def
  /UnderlineThickness get Ts mul /Tt exch def
  ux uy To add cs add moveto Tcx uy To add cs add lineto
  Tt setlinewidth stroke
  grestore
} bd
/SOE {
  /Tcx currentpoint pop def
  gsave
  newpath
  cf findfont cs scalefont dup
  /FontMatrix get 0 get /Ts exch def /FontInfo get dup
  /UnderlinePosition get Ts mul /To exch def
  /UnderlineThickness get Ts mul /Tt exch def
  ux uy To add cs 10 mul 26 idiv add moveto Tcx uy To add cs 10 mul 26 idiv add lineto
  Tt setlinewidth stroke
  grestore
} bd
/QT {
/Y22 exch store
/X22 exch store
/Y21 exch store
/X21 exch store
currentpoint
/Y21 load 2 mul add 3 div exch
/X21 load 2 mul add 3 div exch
/X21 load 2 mul /X22 load add 3 div
/Y21 load 2 mul /Y22 load add 3 div
/X22 load /Y22 load curveto
} bd
/SSPD {
dup length /d exch dict def
{
/v exch def
/k exch def
currentpagedevice k known {
/cpdv currentpagedevice k get def
v cpdv ne {
/upd false def
/nullv v type /nulltype eq def
/nullcpdv cpdv type /nulltype eq def
nullv nullcpdv or
{
/upd true def
} {
/sametype v type cpdv type eq def
sametype {
v type /arraytype eq {
/vlen v length def
/cpdvlen cpdv length def
vlen cpdvlen eq {
0 1 vlen 1 sub {
/i exch def
/obj v i get def
/cpdobj cpdv i get def
obj cpdobj ne {
/upd true def
exit
} if
} for
} {
/upd true def
} ifelse
} {
v type /dicttype eq {
v {
/dv exch def
/dk exch def
/cpddv cpdv dk get def
dv cpddv ne {
/upd true def
exit
} if
} forall
} {
/upd true def
} ifelse
} ifelse
} if
} ifelse
upd true eq {
d k v put
} if
} if
} if
} forall
d length 0 gt {
d setpagedevice
} if
} bd
/RE { % /NewFontName [NewEncodingArray] /FontName RE -
  findfont dup length dict begin
  {
    1 index /FID ne
    {def} {pop pop} ifelse
  } forall
  /Encoding exch def
  /FontName 1 index def
  currentdict definefont pop
  end
} bind def
%%EndResource
%%BeginResource: procset (Apache XML Graphics EPS ProcSet) 1.0 0
%%Version: 1.0 0
%%Copyright: (Copyright 2002-2003 The Apache Software Foundation. License terms: http://www.apache.org/licenses/LICENSE-2.0)
/BeginEPSF { %def
/b4_Inc_state save def         % Save state for cleanup
/dict_count countdictstack def % Count objects on dict stack
/op_count count 1 sub def      % Count objects on operand stack
userdict begin                 % Push userdict on dict stack
/showpage { } def              % Redefine showpage, { } = null proc
0 setgray 0 setlinecap         % Prepare graphics state
1 setlinewidth 0 setlinejoin
10 setmiterlimit [ ] 0 setdash newpath
/languagelevel where           % If level not equal to 1 then
{pop languagelevel             % set strokeadjust and
1 ne                           % overprint to their defaults.
{false setstrokeadjust false setoverprint
} if
} if
} bd
/EndEPSF { %def
count op_count sub {pop} repeat            % Clean up stacks
countdictstack dict_count sub {end} repeat
b4_Inc_state restore
} bd
%%EndResource
%FOPBeginFontDict
%%IncludeResource: font Courier-Oblique
%%IncludeResource: font Courier-BoldOblique
%%IncludeResource: font Courier-Bold
%%IncludeResource: font ZapfDingbats
%%IncludeResource: font Symbol
%%IncludeResource: font Helvetica
%%IncludeResource: font Helvetica-Oblique
%%IncludeResource: font Helvetica-Bold
%%IncludeResource: font Helvetica-BoldOblique
%%IncludeResource: font Times-Roman
%%IncludeResource: font Times-Italic
%%IncludeResource: font Times-Bold
%%IncludeResource: font Times-BoldItalic
%%IncludeResource: font Courier
%FOPEndFontDict
%%BeginResource: encoding WinAnsiEncoding
/WinAnsiEncoding [
/.notdef /.notdef /.notdef /.notdef /.notdef
/.notdef /.notdef /.notdef /.notdef /.notdef
/.notdef /.notdef /.notdef /.notdef /.notdef
/.notdef /.notdef /.notdef /.notdef /.notdef
/.notdef /.notdef /.notdef /.notdef /.notdef
/.notdef /.notdef /.notdef /.notdef /.notdef
/.notdef /.notdef /space /exclam /quotedbl
/numbersign /dollar /percent /ampersand /quotesingle
/parenleft /parenright /asterisk /plus /comma
/hyphen /period /slash /zero /one
/two /three /four /five /six
/seven /eight /nine /colon /semicolon
/less /equal /greater /question /at
/A /B /C /D /E
/F /G /H /I /J
/K /L /M /N /O
/P /Q /R /S /T
/U /V /W /X /Y
/Z /bracketleft /backslash /bracketright /asciicircum
/underscore /quoteleft /a /b /c
/d /e /f /g /h
/i /j /k /l /m
/n /o /p /q /r
/s /t /u /v /w
/x /y /z /braceleft /bar
/braceright /asciitilde /bullet /Euro /bullet
/quotesinglbase /florin /quotedblbase /ellipsis /dagger
/daggerdbl /circumflex /perthousand /Scaron /guilsinglleft
/OE /bullet /Zcaron /bullet /bullet
/quoteleft /quoteright /quotedblleft /quotedblright /bullet
/endash /emdash /asciitilde /trademark /scaron
/guilsinglright /oe /bullet /zcaron /Ydieresis
/space /exclamdown /cent /sterling /currency
/yen /brokenbar /section /dieresis /copyright
/ordfeminine /guillemotleft /logicalnot /sfthyphen /registered
/macron /degree /plusminus /twosuperior /threesuperior
/acute /mu /paragraph /middot /cedilla
/onesuperior /ordmasculine /guillemotright /onequarter /onehalf
/threequarters /questiondown /Agrave /Aacute /Acircumflex
/Atilde /Adieresis /Aring /AE /Ccedilla
/Egrave /Eacute /Ecircumflex /Edieresis /Igrave
/Iacute /Icircumflex /Idieresis /Eth /Ntilde
/Ograve /Oacute /Ocircumflex /Otilde /Odieresis
/multiply /Oslash /Ugrave /Uacute /Ucircumflex
/Udieresis /Yacute /Thorn /germandbls /agrave
/aacute /acircumflex /atilde /adieresis /aring
/ae /ccedilla /egrave /eacute /ecircumflex
/edieresis /igrave /iacute /icircumflex /idieresis
/eth /ntilde /ograve /oacute /ocircumflex
/otilde /odieresis /divide /oslash /ugrave
/uacute /ucircumflex /udieresis /yacute /thorn
/ydieresis
] def
%%EndResource
%FOPBeginFontReencode
/Courier-Oblique findfont
dup length dict begin
  {1 index /FID ne {def} {pop pop} ifelse} forall
  /Encoding WinAnsiEncoding def
  currentdict
end
/Courier-Oblique exch definefont pop
/Courier-BoldOblique findfont
dup length dict begin
  {1 index /FID ne {def} {pop pop} ifelse} forall
  /Encoding WinAnsiEncoding def
  currentdict
end
/Courier-BoldOblique exch definefont pop
/Courier-Bold findfont
dup length dict begin
  {1 index /FID ne {def} {pop pop} ifelse} forall
  /Encoding WinAnsiEncoding def
  currentdict
end
/Courier-Bold exch definefont pop
/Helvetica findfont
dup length dict begin
  {1 index /FID ne {def} {pop pop} ifelse} forall
  /Encoding WinAnsiEncoding def
  currentdict
end
/Helvetica exch definefont pop
/Helvetica-Oblique findfont
dup length dict begin
  {1 index /FID ne {def} {pop pop} ifelse} forall
  /Encoding WinAnsiEncoding def
  currentdict
end
/Helvetica-Oblique exch definefont pop
/Helvetica-Bold findfont
dup length dict begin
  {1 index /FID ne {def} {pop pop} ifelse} forall
  /Encoding WinAnsiEncoding def
  currentdict
end
/Helvetica-Bold exch definefont pop
/Helvetica-BoldOblique findfont
dup length dict begin
  {1 index /FID ne {def} {pop pop} ifelse} forall
  /Encoding WinAnsiEncoding def
  currentdict
end
/Helvetica-BoldOblique exch definefont pop
/Times-Roman findfont
dup length dict begin
  {1 index /FID ne {def} {pop pop} ifelse} forall
  /Encoding WinAnsiEncoding def
  currentdict
end
/Times-Roman exch definefont pop
/Times-Italic findfont
dup length dict begin
  {1 index /FID ne {def} {pop pop} ifelse} forall
  /Encoding WinAnsiEncoding def
  currentdict
end
/Times-Italic exch definefont pop
/Times-Bold findfont
dup length dict begin
  {1 index /FID ne {def} {pop pop} ifelse} forall
  /Encoding WinAnsiEncoding def
  currentdict
end
/Times-Bold exch definefont pop
/Times-BoldItalic findfont
dup length dict begin
  {1 index /FID ne {def} {pop pop} ifelse} forall
  /Encoding WinAnsiEncoding def
  currentdict
end
/Times-BoldItalic exch definefont pop
/Courier findfont
dup length dict begin
  {1 index /FID ne {def} {pop pop} ifelse} forall
  /Encoding WinAnsiEncoding def
  currentdict
end
/Courier exch definefont pop
%FOPEndFontReencode
%%EndProlog
%%Page: 1 1
%%PageBoundingBox: 0 0 500 400
%%BeginPageSetup
[1 0 0 -1 0 400] CT
%%EndPageSetup
GS
1 GC
N
0 0 500 400 re
f
GR
GS
1 GC
N
0 0 500 400 re
f
GR
GS
1 GC
N
65 356 M
453 356 L
453 33 L
65 33 L
cp
f
GR
GS
0.873 GC
1 LJ
0.5 LW
N
162 356 M
162 33 L
S
GR
GS
0.873 GC
1 LJ
0.5 LW
N
356 356 M
356 33 L
S
GR
GS
0.873 GC
1 LJ
0.5 LW
N
453 319.065 M
65 319.065 L
S
GR
GS
0.873 GC
1 LJ
0.5 LW
N
453 278.517 M
65 278.517 L
S
GR
GS
0.873 GC
1 LJ
0.5 LW
N
453 237.968 M
65 237.968 L
S
GR
GS
0.873 GC
1 LJ
0.5 LW
N
453 197.42 M
65 197.42 L
S
GR
GS
0.873 GC
1 LJ
0.5 LW
N
453 156.872 M
65 156.872 L
S
GR
GS
0.873 GC
1 LJ
0.5 LW
N
453 116.323 M
65 116.323 L
S
GR
GS
0.873 GC
1 LJ
0.5 LW
N
453 75.775 M
65 75.775 L
S
GR
GS
0.873 GC
1 LJ
0.5 LW
N
453 35.227 M
65 35.227 L
S
GR
GS
0.149 GC
2 setlinecap
1 LJ
0.5 LW
N
65 356 M
453 356 L
S
GR
GS
0.149 GC
2 setlinecap
1 LJ
0.5 LW
N
65 33 M
453 33 L
S
GR
GS
0.149 GC
2 setlinecap
1 LJ
0.5 LW
N
162 356 M
162 352.12 L
S
GR
GS
0.149 GC
2 setlinecap
1 LJ
0.5 LW
N
356 356 M
356 352.12 L
S
GR
GS
0.149 GC
2 setlinecap
1 LJ
0.5 LW
N
162 33 M
162 36.88 L
S
GR
GS
0.149 GC
2 setlinecap
1 LJ
0.5 LW
N
356 33 M
356 36.88 L
S
GR
GS
[1 0 0 1 162 362] CT
0.149 GC
/Helvetica 20 F
GS
[1 0 0 1 0 0] CT
-52.5 20 moveto 
1 -1 scale
(Living irises) t 
GR
GR
GS
[1 0 0 1 356 362] CT
0.149 GC
/Helvetica 20 F
GS
[1 0 0 1 0 0] CT
-85 20 moveto 
1 -1 scale
(Post-mortem irises) t 
GR
GR
GS
0.149 GC
2 setlinecap
1 LJ
0.5 LW
N
65 356 M
65 33 L
S
GR
GS
0.149 GC
2 setlinecap
1 LJ
0.5 LW
N
453 356 M
453 33 L
S
GR
GS
0.149 GC
2 setlinecap
1 LJ
0.5 LW
N
65 319.065 M
68.88 319.065 L
S
GR
GS
0.149 GC
2 setlinecap
1 LJ
0.5 LW
N
65 278.517 M
68.88 278.517 L
S
GR
GS
0.149 GC
2 setlinecap
1 LJ
0.5 LW
N
65 237.968 M
68.88 237.968 L
S
GR
GS
0.149 GC
2 setlinecap
1 LJ
0.5 LW
N
65 197.42 M
68.88 197.42 L
S
GR
GS
0.149 GC
2 setlinecap
1 LJ
0.5 LW
N
65 156.872 M
68.88 156.872 L
S
GR
GS
0.149 GC
2 setlinecap
1 LJ
0.5 LW
N
65 116.323 M
68.88 116.323 L
S
GR
GS
0.149 GC
2 setlinecap
1 LJ
0.5 LW
N
65 75.775 M
68.88 75.775 L
S
GR
GS
0.149 GC
2 setlinecap
1 LJ
0.5 LW
N
65 35.227 M
68.88 35.227 L
S
GR
GS
0.149 GC
2 setlinecap
1 LJ
0.5 LW
N
453 319.065 M
449.12 319.065 L
S
GR
GS
0.149 GC
2 setlinecap
1 LJ
0.5 LW
N
453 278.517 M
449.12 278.517 L
S
GR
GS
0.149 GC
2 setlinecap
1 LJ
0.5 LW
N
453 237.968 M
449.12 237.968 L
S
GR
GS
0.149 GC
2 setlinecap
1 LJ
0.5 LW
N
453 197.42 M
449.12 197.42 L
S
GR
GS
0.149 GC
2 setlinecap
1 LJ
0.5 LW
N
453 156.872 M
449.12 156.872 L
S
GR
GS
0.149 GC
2 setlinecap
1 LJ
0.5 LW
N
453 116.323 M
449.12 116.323 L
S
GR
GS
0.149 GC
2 setlinecap
1 LJ
0.5 LW
N
453 75.775 M
449.12 75.775 L
S
GR
GS
0.149 GC
2 setlinecap
1 LJ
0.5 LW
N
453 35.227 M
449.12 35.227 L
S
GR
GS
[1 0 0 1 59 319.06516] CT
0.149 GC
/Helvetica 20 F
GS
[1 0 0 1 0 0] CT
-34 7.5 moveto 
1 -1 scale
(110) t 
GR
GR
GS
[1 0 0 1 59 278.51678] CT
0.149 GC
/Helvetica 20 F
GS
[1 0 0 1 0 0] CT
-34 7.5 moveto 
1 -1 scale
(120) t 
GR
GR
GS
[1 0 0 1 59 237.96843] CT
0.149 GC
/Helvetica 20 F
GS
[1 0 0 1 0 0] CT
-34 7.5 moveto 
1 -1 scale
(130) t 
GR
GR
GS
[1 0 0 1 59 197.42007] CT
0.149 GC
/Helvetica 20 F
GS
[1 0 0 1 0 0] CT
-34 7.5 moveto 
1 -1 scale
(140) t 
GR
GR
GS
[1 0 0 1 59 156.8717] CT
0.149 GC
/Helvetica 20 F
GS
[1 0 0 1 0 0] CT
-34 7.5 moveto 
1 -1 scale
(150) t 
GR
GR
GS
[1 0 0 1 59 116.32335] CT
0.149 GC
/Helvetica 20 F
GS
[1 0 0 1 0 0] CT
-34 7.5 moveto 
1 -1 scale
(160) t 
GR
GR
GS
[1 0 0 1 59 75.77499] CT
0.149 GC
/Helvetica 20 F
GS
[1 0 0 1 0 0] CT
-34 7.5 moveto 
1 -1 scale
(170) t 
GR
GR
GS
[1 0 0 1 59 35.22663] CT
0.149 GC
/Helvetica 20 F
GS
[1 0 0 1 0 0] CT
-34 7.5 moveto 
1 -1 scale
(180) t 
GR
GR
GS
[1 0 0 1 259.00024 27.50001] CT
/Helvetica-Bold 22 F
GS
[1 0 0 1 0 0] CT
-126 -5 moveto 
1 -1 scale
(Average image intensity) t 
GR
GR
GS
[10 6] 0 setdash
2 LJ
0.5 LW
N
162 152.098 M
162 100.706 L
S
GR
GS
[10 6] 0 setdash
2 LJ
0.5 LW
N
356 175.603 M
356 82.323 L
S
GR
GS
[10 6] 0 setdash
2 LJ
0.5 LW
N
162 302.032 M
162 215.411 L
S
GR
GS
[10 6] 0 setdash
2 LJ
0.5 LW
N
356 341.318 M
356 242.077 L
S
GR
GS
1 LJ
0.5 LW
N
147.45 100.706 M
176.55 100.706 L
S
GR
GS
1 LJ
0.5 LW
N
341.45 82.323 M
370.55 82.323 L
S
GR
GS
1 LJ
0.5 LW
N
147.45 302.032 M
176.55 302.032 L
S
GR
GS
1 LJ
0.5 LW
N
341.45 341.318 M
370.55 341.318 L
S
GR
GS
0 0 1 RC
1 LJ
0.5 LW
N
147.45 183.893 M
132.9 177.681 L
132.9 152.098 L
191.1 152.098 L
191.1 177.681 L
176.55 183.893 L
191.1 190.106 L
191.1 215.411 L
132.9 215.411 L
132.9 190.106 L
147.45 183.893 L
S
GR
GS
0 0 1 RC
1 LJ
0.5 LW
N
341.45 210.388 M
326.9 206.032 L
326.9 175.603 L
385.1 175.603 L
385.1 206.032 L
370.55 210.388 L
385.1 214.744 L
385.1 242.077 L
326.9 242.077 L
326.9 214.744 L
341.45 210.388 L
S
GR
GS
1 0 0 RC
1 LJ
0.5 LW
N
147.45 183.893 M
176.55 183.893 L
S
GR
GS
1 0 0 RC
1 LJ
0.5 LW
N
341.45 210.388 M
370.55 210.388 L
S
GR
GS
[1 0 0 1 162 335.63919] CT
1 0 0 RC
10.0 ML
N
0 -3 M
0 3 L
-3 0 M
3 0 L
S
GR
GS
[1 0 0 1 162 322.99503] CT
1 0 0 RC
10.0 ML
N
0 -3 M
0 3 L
-3 0 M
3 0 L
S
GR
GS
[1 0 0 1 162 310.74942] CT
1 0 0 RC
10.0 ML
N
0 -3 M
0 3 L
-3 0 M
3 0 L
S
GR
GS
[1 0 0 1 356 63.492] CT
1 0 0 RC
10.0 ML
N
0 -3 M
0 3 L
-3 0 M
3 0 L
S
GR
GS
[1 0 0 1 356 47.68182] CT
1 0 0 RC
10.0 ML
N
0 -3 M
0 3 L
-3 0 M
3 0 L
S
GR
GS
[1 0 0 1 200.8 183.89326] CT
1 0 0 RC
/Helvetica 24 F
GS
[1 0 0 1 0 0] CT
0 8.5 moveto 
1 -1 scale
(143.3) t 
GR
GR
GS
[1 0 0 1 394.80002 210.38774] CT
1 0 0 RC
/Helvetica 24 F
GS
[1 0 0 1 0 0] CT
0 8.5 moveto 
1 -1 scale
(136.8) t 
GR
GR
%%Trailer
%%Pages: 1
%%EOF
