%!PS-Adobe-3.0 EPSF-3.0
%%Creator: (MATLAB, The Mathworks, Inc. Version 9.3.0.713579 \(R2017b\). Operating System: Mac OS X)
%%Title: ./boxplots-grayscale.eps
%%CreationDate: 2018-04-20T16:24:21
%%Pages: (atend)
%%BoundingBox:    31    13   454   394
%%LanguageLevel: 3
%%EndComments
%%BeginProlog
%%BeginResource: procset (Apache XML Graphics Std ProcSet) 1.2 0
%%Version: 1.2 0
%%Copyright: (Copyright 2001-2003,2010 The Apache Software Foundation. License terms: http://www.apache.org/licenses/LICENSE-2.0)
/bd{bind def}bind def
/ld{load def}bd
/GR/grestore ld
/GS/gsave ld
/RM/rmoveto ld
/C/curveto ld
/t/show ld
/L/lineto ld
/ML/setmiterlimit ld
/CT/concat ld
/f/fill ld
/N/newpath ld
/S/stroke ld
/CC/setcmykcolor ld
/A/ashow ld
/cp/closepath ld
/RC/setrgbcolor ld
/LJ/setlinejoin ld
/GC/setgray ld
/LW/setlinewidth ld
/M/moveto ld
/re {4 2 roll M
1 index 0 rlineto
0 exch rlineto
neg 0 rlineto
cp } bd
/_ctm matrix def
/_tm matrix def
/BT { _ctm currentmatrix pop matrix _tm copy pop 0 0 moveto } bd
/ET { _ctm setmatrix } bd
/iTm { _ctm setmatrix _tm concat } bd
/Tm { _tm astore pop iTm 0 0 moveto } bd
/ux 0.0 def
/uy 0.0 def
/F {
  /Tp exch def
  /Tf exch def
  Tf findfont Tp scalefont setfont
  /cf Tf def  /cs Tp def
} bd
/ULS {currentpoint /uy exch def /ux exch def} bd
/ULE {
  /Tcx currentpoint pop def
  gsave
  newpath
  cf findfont cs scalefont dup
  /FontMatrix get 0 get /Ts exch def /FontInfo get dup
  /UnderlinePosition get Ts mul /To exch def
  /UnderlineThickness get Ts mul /Tt exch def
  ux uy To add moveto  Tcx uy To add lineto
  Tt setlinewidth stroke
  grestore
} bd
/OLE {
  /Tcx currentpoint pop def
  gsave
  newpath
  cf findfont cs scalefont dup
  /FontMatrix get 0 get /Ts exch def /FontInfo get dup
  /UnderlinePosition get Ts mul /To exch def
  /UnderlineThickness get Ts mul /Tt exch def
  ux uy To add cs add moveto Tcx uy To add cs add lineto
  Tt setlinewidth stroke
  grestore
} bd
/SOE {
  /Tcx currentpoint pop def
  gsave
  newpath
  cf findfont cs scalefont dup
  /FontMatrix get 0 get /Ts exch def /FontInfo get dup
  /UnderlinePosition get Ts mul /To exch def
  /UnderlineThickness get Ts mul /Tt exch def
  ux uy To add cs 10 mul 26 idiv add moveto Tcx uy To add cs 10 mul 26 idiv add lineto
  Tt setlinewidth stroke
  grestore
} bd
/QT {
/Y22 exch store
/X22 exch store
/Y21 exch store
/X21 exch store
currentpoint
/Y21 load 2 mul add 3 div exch
/X21 load 2 mul add 3 div exch
/X21 load 2 mul /X22 load add 3 div
/Y21 load 2 mul /Y22 load add 3 div
/X22 load /Y22 load curveto
} bd
/SSPD {
dup length /d exch dict def
{
/v exch def
/k exch def
currentpagedevice k known {
/cpdv currentpagedevice k get def
v cpdv ne {
/upd false def
/nullv v type /nulltype eq def
/nullcpdv cpdv type /nulltype eq def
nullv nullcpdv or
{
/upd true def
} {
/sametype v type cpdv type eq def
sametype {
v type /arraytype eq {
/vlen v length def
/cpdvlen cpdv length def
vlen cpdvlen eq {
0 1 vlen 1 sub {
/i exch def
/obj v i get def
/cpdobj cpdv i get def
obj cpdobj ne {
/upd true def
exit
} if
} for
} {
/upd true def
} ifelse
} {
v type /dicttype eq {
v {
/dv exch def
/dk exch def
/cpddv cpdv dk get def
dv cpddv ne {
/upd true def
exit
} if
} forall
} {
/upd true def
} ifelse
} ifelse
} if
} ifelse
upd true eq {
d k v put
} if
} if
} if
} forall
d length 0 gt {
d setpagedevice
} if
} bd
/RE { % /NewFontName [NewEncodingArray] /FontName RE -
  findfont dup length dict begin
  {
    1 index /FID ne
    {def} {pop pop} ifelse
  } forall
  /Encoding exch def
  /FontName 1 index def
  currentdict definefont pop
  end
} bind def
%%EndResource
%%BeginResource: procset (Apache XML Graphics EPS ProcSet) 1.0 0
%%Version: 1.0 0
%%Copyright: (Copyright 2002-2003 The Apache Software Foundation. License terms: http://www.apache.org/licenses/LICENSE-2.0)
/BeginEPSF { %def
/b4_Inc_state save def         % Save state for cleanup
/dict_count countdictstack def % Count objects on dict stack
/op_count count 1 sub def      % Count objects on operand stack
userdict begin                 % Push userdict on dict stack
/showpage { } def              % Redefine showpage, { } = null proc
0 setgray 0 setlinecap         % Prepare graphics state
1 setlinewidth 0 setlinejoin
10 setmiterlimit [ ] 0 setdash newpath
/languagelevel where           % If level not equal to 1 then
{pop languagelevel             % set strokeadjust and
1 ne                           % overprint to their defaults.
{false setstrokeadjust false setoverprint
} if
} if
} bd
/EndEPSF { %def
count op_count sub {pop} repeat            % Clean up stacks
countdictstack dict_count sub {end} repeat
b4_Inc_state restore
} bd
%%EndResource
%FOPBeginFontDict
%%IncludeResource: font Courier-Oblique
%%IncludeResource: font Courier-BoldOblique
%%IncludeResource: font Courier-Bold
%%IncludeResource: font ZapfDingbats
%%IncludeResource: font Symbol
%%IncludeResource: font Helvetica
%%IncludeResource: font Helvetica-Oblique
%%IncludeResource: font Helvetica-Bold
%%IncludeResource: font Helvetica-BoldOblique
%%IncludeResource: font Times-Roman
%%IncludeResource: font Times-Italic
%%IncludeResource: font Times-Bold
%%IncludeResource: font Times-BoldItalic
%%IncludeResource: font Courier
%FOPEndFontDict
%%BeginResource: encoding WinAnsiEncoding
/WinAnsiEncoding [
/.notdef /.notdef /.notdef /.notdef /.notdef
/.notdef /.notdef /.notdef /.notdef /.notdef
/.notdef /.notdef /.notdef /.notdef /.notdef
/.notdef /.notdef /.notdef /.notdef /.notdef
/.notdef /.notdef /.notdef /.notdef /.notdef
/.notdef /.notdef /.notdef /.notdef /.notdef
/.notdef /.notdef /space /exclam /quotedbl
/numbersign /dollar /percent /ampersand /quotesingle
/parenleft /parenright /asterisk /plus /comma
/hyphen /period /slash /zero /one
/two /three /four /five /six
/seven /eight /nine /colon /semicolon
/less /equal /greater /question /at
/A /B /C /D /E
/F /G /H /I /J
/K /L /M /N /O
/P /Q /R /S /T
/U /V /W /X /Y
/Z /bracketleft /backslash /bracketright /asciicircum
/underscore /quoteleft /a /b /c
/d /e /f /g /h
/i /j /k /l /m
/n /o /p /q /r
/s /t /u /v /w
/x /y /z /braceleft /bar
/braceright /asciitilde /bullet /Euro /bullet
/quotesinglbase /florin /quotedblbase /ellipsis /dagger
/daggerdbl /circumflex /perthousand /Scaron /guilsinglleft
/OE /bullet /Zcaron /bullet /bullet
/quoteleft /quoteright /quotedblleft /quotedblright /bullet
/endash /emdash /asciitilde /trademark /scaron
/guilsinglright /oe /bullet /zcaron /Ydieresis
/space /exclamdown /cent /sterling /currency
/yen /brokenbar /section /dieresis /copyright
/ordfeminine /guillemotleft /logicalnot /sfthyphen /registered
/macron /degree /plusminus /twosuperior /threesuperior
/acute /mu /paragraph /middot /cedilla
/onesuperior /ordmasculine /guillemotright /onequarter /onehalf
/threequarters /questiondown /Agrave /Aacute /Acircumflex
/Atilde /Adieresis /Aring /AE /Ccedilla
/Egrave /Eacute /Ecircumflex /Edieresis /Igrave
/Iacute /Icircumflex /Idieresis /Eth /Ntilde
/Ograve /Oacute /Ocircumflex /Otilde /Odieresis
/multiply /Oslash /Ugrave /Uacute /Ucircumflex
/Udieresis /Yacute /Thorn /germandbls /agrave
/aacute /acircumflex /atilde /adieresis /aring
/ae /ccedilla /egrave /eacute /ecircumflex
/edieresis /igrave /iacute /icircumflex /idieresis
/eth /ntilde /ograve /oacute /ocircumflex
/otilde /odieresis /divide /oslash /ugrave
/uacute /ucircumflex /udieresis /yacute /thorn
/ydieresis
] def
%%EndResource
%FOPBeginFontReencode
/Courier-Oblique findfont
dup length dict begin
  {1 index /FID ne {def} {pop pop} ifelse} forall
  /Encoding WinAnsiEncoding def
  currentdict
end
/Courier-Oblique exch definefont pop
/Courier-BoldOblique findfont
dup length dict begin
  {1 index /FID ne {def} {pop pop} ifelse} forall
  /Encoding WinAnsiEncoding def
  currentdict
end
/Courier-BoldOblique exch definefont pop
/Courier-Bold findfont
dup length dict begin
  {1 index /FID ne {def} {pop pop} ifelse} forall
  /Encoding WinAnsiEncoding def
  currentdict
end
/Courier-Bold exch definefont pop
/Helvetica findfont
dup length dict begin
  {1 index /FID ne {def} {pop pop} ifelse} forall
  /Encoding WinAnsiEncoding def
  currentdict
end
/Helvetica exch definefont pop
/Helvetica-Oblique findfont
dup length dict begin
  {1 index /FID ne {def} {pop pop} ifelse} forall
  /Encoding WinAnsiEncoding def
  currentdict
end
/Helvetica-Oblique exch definefont pop
/Helvetica-Bold findfont
dup length dict begin
  {1 index /FID ne {def} {pop pop} ifelse} forall
  /Encoding WinAnsiEncoding def
  currentdict
end
/Helvetica-Bold exch definefont pop
/Helvetica-BoldOblique findfont
dup length dict begin
  {1 index /FID ne {def} {pop pop} ifelse} forall
  /Encoding WinAnsiEncoding def
  currentdict
end
/Helvetica-BoldOblique exch definefont pop
/Times-Roman findfont
dup length dict begin
  {1 index /FID ne {def} {pop pop} ifelse} forall
  /Encoding WinAnsiEncoding def
  currentdict
end
/Times-Roman exch definefont pop
/Times-Italic findfont
dup length dict begin
  {1 index /FID ne {def} {pop pop} ifelse} forall
  /Encoding WinAnsiEncoding def
  currentdict
end
/Times-Italic exch definefont pop
/Times-Bold findfont
dup length dict begin
  {1 index /FID ne {def} {pop pop} ifelse} forall
  /Encoding WinAnsiEncoding def
  currentdict
end
/Times-Bold exch definefont pop
/Times-BoldItalic findfont
dup length dict begin
  {1 index /FID ne {def} {pop pop} ifelse} forall
  /Encoding WinAnsiEncoding def
  currentdict
end
/Times-BoldItalic exch definefont pop
/Courier findfont
dup length dict begin
  {1 index /FID ne {def} {pop pop} ifelse} forall
  /Encoding WinAnsiEncoding def
  currentdict
end
/Courier exch definefont pop
%FOPEndFontReencode
%%EndProlog
%%Page: 1 1
%%PageBoundingBox: 0 0 500 400
%%BeginPageSetup
[1 0 0 -1 0 400] CT
%%EndPageSetup
GS
1 GC
N
0 0 500 400 re
f
GR
GS
1 GC
N
0 0 500 400 re
f
GR
GS
1 GC
N
65 356 M
453 356 L
453 33 L
65 33 L
cp
f
GR
GS
0.873 GC
1 LJ
0.5 LW
N
162 356 M
162 33 L
S
GR
GS
0.873 GC
1 LJ
0.5 LW
N
356 356 M
356 33 L
S
GR
GS
0.873 GC
1 LJ
0.5 LW
N
453 338.219 M
65 338.219 L
S
GR
GS
0.873 GC
1 LJ
0.5 LW
N
453 282.126 M
65 282.126 L
S
GR
GS
0.873 GC
1 LJ
0.5 LW
N
453 226.032 M
65 226.032 L
S
GR
GS
0.873 GC
1 LJ
0.5 LW
N
453 169.938 M
65 169.938 L
S
GR
GS
0.873 GC
1 LJ
0.5 LW
N
453 113.845 M
65 113.845 L
S
GR
GS
0.873 GC
1 LJ
0.5 LW
N
453 57.751 M
65 57.751 L
S
GR
GS
0.149 GC
2 setlinecap
1 LJ
0.5 LW
N
65 356 M
453 356 L
S
GR
GS
0.149 GC
2 setlinecap
1 LJ
0.5 LW
N
65 33 M
453 33 L
S
GR
GS
0.149 GC
2 setlinecap
1 LJ
0.5 LW
N
162 356 M
162 352.12 L
S
GR
GS
0.149 GC
2 setlinecap
1 LJ
0.5 LW
N
356 356 M
356 352.12 L
S
GR
GS
0.149 GC
2 setlinecap
1 LJ
0.5 LW
N
162 33 M
162 36.88 L
S
GR
GS
0.149 GC
2 setlinecap
1 LJ
0.5 LW
N
356 33 M
356 36.88 L
S
GR
GS
[1 0 0 1 162 361.99997] CT
0.149 GC
/Helvetica 20 F
GS
[1 0 0 1 0 0] CT
-52.5 20 moveto 
1 -1 scale
(Living irises) t 
GR
GR
GS
[1 0 0 1 356 361.99997] CT
0.149 GC
/Helvetica 20 F
GS
[1 0 0 1 0 0] CT
-85 20 moveto 
1 -1 scale
(Post-mortem irises) t 
GR
GR
GS
0.149 GC
2 setlinecap
1 LJ
0.5 LW
N
65 356 M
65 33 L
S
GR
GS
0.149 GC
2 setlinecap
1 LJ
0.5 LW
N
453 356 M
453 33 L
S
GR
GS
0.149 GC
2 setlinecap
1 LJ
0.5 LW
N
65 338.219 M
68.88 338.219 L
S
GR
GS
0.149 GC
2 setlinecap
1 LJ
0.5 LW
N
65 282.126 M
68.88 282.126 L
S
GR
GS
0.149 GC
2 setlinecap
1 LJ
0.5 LW
N
65 226.032 M
68.88 226.032 L
S
GR
GS
0.149 GC
2 setlinecap
1 LJ
0.5 LW
N
65 169.938 M
68.88 169.938 L
S
GR
GS
0.149 GC
2 setlinecap
1 LJ
0.5 LW
N
65 113.845 M
68.88 113.845 L
S
GR
GS
0.149 GC
2 setlinecap
1 LJ
0.5 LW
N
65 57.751 M
68.88 57.751 L
S
GR
GS
0.149 GC
2 setlinecap
1 LJ
0.5 LW
N
453 338.219 M
449.12 338.219 L
S
GR
GS
0.149 GC
2 setlinecap
1 LJ
0.5 LW
N
453 282.126 M
449.12 282.126 L
S
GR
GS
0.149 GC
2 setlinecap
1 LJ
0.5 LW
N
453 226.032 M
449.12 226.032 L
S
GR
GS
0.149 GC
2 setlinecap
1 LJ
0.5 LW
N
453 169.938 M
449.12 169.938 L
S
GR
GS
0.149 GC
2 setlinecap
1 LJ
0.5 LW
N
453 113.845 M
449.12 113.845 L
S
GR
GS
0.149 GC
2 setlinecap
1 LJ
0.5 LW
N
453 57.751 M
449.12 57.751 L
S
GR
GS
[1 0 0 1 59 338.21915] CT
0.149 GC
/Helvetica 20 F
GS
[1 0 0 1 0 0] CT
-12 7.5 moveto 
1 -1 scale
(6) t 
GR
GR
GS
[1 0 0 1 59 282.12558] CT
0.149 GC
/Helvetica 20 F
GS
[1 0 0 1 0 0] CT
-28 7.5 moveto 
1 -1 scale
(6.2) t 
GR
GR
GS
[1 0 0 1 59 226.03189] CT
0.149 GC
/Helvetica 20 F
GS
[1 0 0 1 0 0] CT
-28 7.5 moveto 
1 -1 scale
(6.4) t 
GR
GR
GS
[1 0 0 1 59 169.93832] CT
0.149 GC
/Helvetica 20 F
GS
[1 0 0 1 0 0] CT
-28 7.5 moveto 
1 -1 scale
(6.6) t 
GR
GR
GS
[1 0 0 1 59 113.84463] CT
0.149 GC
/Helvetica 20 F
GS
[1 0 0 1 0 0] CT
-28 7.5 moveto 
1 -1 scale
(6.8) t 
GR
GR
GS
[1 0 0 1 59 57.75107] CT
0.149 GC
/Helvetica 20 F
GS
[1 0 0 1 0 0] CT
-12 7.5 moveto 
1 -1 scale
(7) t 
GR
GR
GS
[1 0 0 1 259.00024 27.50002] CT
/Helvetica-Bold 22 F
GS
[1 0 0 1 0 0] CT
-136.5 -5 moveto 
1 -1 scale
(Grayscale utilisation [bits]) t 
GR
GR
GS
[10 6] 0 setdash
2 LJ
0.5 LW
N
162 118.57 M
162 62.883 L
S
GR
GS
[10 6] 0 setdash
2 LJ
0.5 LW
N
356 126.814 M
356 47.682 L
S
GR
GS
[10 6] 0 setdash
2 LJ
0.5 LW
N
162 238.337 M
162 171.38 L
S
GR
GS
[10 6] 0 setdash
2 LJ
0.5 LW
N
356 323.802 M
356 210.195 L
S
GR
GS
1 LJ
0.5 LW
N
147.45 62.883 M
176.55 62.883 L
S
GR
GS
1 LJ
0.5 LW
N
341.45 47.682 M
370.55 47.682 L
S
GR
GS
1 LJ
0.5 LW
N
147.45 238.337 M
176.55 238.337 L
S
GR
GS
1 LJ
0.5 LW
N
341.45 323.802 M
370.55 323.802 L
S
GR
GS
0 0 1 RC
1 LJ
0.5 LW
N
147.45 144.613 M
132.9 139.431 L
132.9 118.57 L
191.1 118.57 L
191.1 139.431 L
176.55 144.613 L
191.1 149.795 L
191.1 171.38 L
132.9 171.38 L
132.9 149.795 L
147.45 144.613 L
S
GR
GS
0 0 1 RC
1 LJ
0.5 LW
N
341.45 168.573 M
326.9 163.109 L
326.9 126.814 L
385.1 126.814 L
385.1 163.109 L
370.55 168.573 L
385.1 174.037 L
385.1 210.195 L
326.9 210.195 L
326.9 174.037 L
341.45 168.573 L
S
GR
GS
1 0 0 RC
1 LJ
0.5 LW
N
147.45 144.613 M
176.55 144.613 L
S
GR
GS
1 0 0 RC
1 LJ
0.5 LW
N
341.45 168.573 M
370.55 168.573 L
S
GR
GS
[1 0 0 1 356 341.31824] CT
1 0 0 RC
10.0 ML
N
0 -3 M
0 3 L
-3 0 M
3 0 L
S
GR
GS
[1 0 0 1 200.8 144.61337] CT
1 0 0 RC
/Helvetica 24 F
GS
[1 0 0 1 0 0] CT
0 8.5 moveto 
1 -1 scale
(6.7) t 
GR
GR
GS
[1 0 0 1 394.80002 168.57339] CT
1 0 0 RC
/Helvetica 24 F
GS
[1 0 0 1 0 0] CT
0 8.5 moveto 
1 -1 scale
(6.6) t 
GR
GR
%%Trailer
%%Pages: 1
%%EOF
