%!PS-Adobe-3.0 EPSF-3.0
%%Creator: (MATLAB, The Mathworks, Inc. Version 9.3.0.713579 \(R2017b\). Operating System: Mac OS X)
%%Title: ./ROC-averaged.eps
%%CreationDate: 2018-04-02T14:53:15
%%Pages: (atend)
%%BoundingBox:     9     4   559   394
%%LanguageLevel: 3
%%EndComments
%%BeginProlog
%%BeginResource: procset (Apache XML Graphics Std ProcSet) 1.2 0
%%Version: 1.2 0
%%Copyright: (Copyright 2001-2003,2010 The Apache Software Foundation. License terms: http://www.apache.org/licenses/LICENSE-2.0)
/bd{bind def}bind def
/ld{load def}bd
/GR/grestore ld
/GS/gsave ld
/RM/rmoveto ld
/C/curveto ld
/t/show ld
/L/lineto ld
/ML/setmiterlimit ld
/CT/concat ld
/f/fill ld
/N/newpath ld
/S/stroke ld
/CC/setcmykcolor ld
/A/ashow ld
/cp/closepath ld
/RC/setrgbcolor ld
/LJ/setlinejoin ld
/GC/setgray ld
/LW/setlinewidth ld
/M/moveto ld
/re {4 2 roll M
1 index 0 rlineto
0 exch rlineto
neg 0 rlineto
cp } bd
/_ctm matrix def
/_tm matrix def
/BT { _ctm currentmatrix pop matrix _tm copy pop 0 0 moveto } bd
/ET { _ctm setmatrix } bd
/iTm { _ctm setmatrix _tm concat } bd
/Tm { _tm astore pop iTm 0 0 moveto } bd
/ux 0.0 def
/uy 0.0 def
/F {
  /Tp exch def
  /Tf exch def
  Tf findfont Tp scalefont setfont
  /cf Tf def  /cs Tp def
} bd
/ULS {currentpoint /uy exch def /ux exch def} bd
/ULE {
  /Tcx currentpoint pop def
  gsave
  newpath
  cf findfont cs scalefont dup
  /FontMatrix get 0 get /Ts exch def /FontInfo get dup
  /UnderlinePosition get Ts mul /To exch def
  /UnderlineThickness get Ts mul /Tt exch def
  ux uy To add moveto  Tcx uy To add lineto
  Tt setlinewidth stroke
  grestore
} bd
/OLE {
  /Tcx currentpoint pop def
  gsave
  newpath
  cf findfont cs scalefont dup
  /FontMatrix get 0 get /Ts exch def /FontInfo get dup
  /UnderlinePosition get Ts mul /To exch def
  /UnderlineThickness get Ts mul /Tt exch def
  ux uy To add cs add moveto Tcx uy To add cs add lineto
  Tt setlinewidth stroke
  grestore
} bd
/SOE {
  /Tcx currentpoint pop def
  gsave
  newpath
  cf findfont cs scalefont dup
  /FontMatrix get 0 get /Ts exch def /FontInfo get dup
  /UnderlinePosition get Ts mul /To exch def
  /UnderlineThickness get Ts mul /Tt exch def
  ux uy To add cs 10 mul 26 idiv add moveto Tcx uy To add cs 10 mul 26 idiv add lineto
  Tt setlinewidth stroke
  grestore
} bd
/QT {
/Y22 exch store
/X22 exch store
/Y21 exch store
/X21 exch store
currentpoint
/Y21 load 2 mul add 3 div exch
/X21 load 2 mul add 3 div exch
/X21 load 2 mul /X22 load add 3 div
/Y21 load 2 mul /Y22 load add 3 div
/X22 load /Y22 load curveto
} bd
/SSPD {
dup length /d exch dict def
{
/v exch def
/k exch def
currentpagedevice k known {
/cpdv currentpagedevice k get def
v cpdv ne {
/upd false def
/nullv v type /nulltype eq def
/nullcpdv cpdv type /nulltype eq def
nullv nullcpdv or
{
/upd true def
} {
/sametype v type cpdv type eq def
sametype {
v type /arraytype eq {
/vlen v length def
/cpdvlen cpdv length def
vlen cpdvlen eq {
0 1 vlen 1 sub {
/i exch def
/obj v i get def
/cpdobj cpdv i get def
obj cpdobj ne {
/upd true def
exit
} if
} for
} {
/upd true def
} ifelse
} {
v type /dicttype eq {
v {
/dv exch def
/dk exch def
/cpddv cpdv dk get def
dv cpddv ne {
/upd true def
exit
} if
} forall
} {
/upd true def
} ifelse
} ifelse
} if
} ifelse
upd true eq {
d k v put
} if
} if
} if
} forall
d length 0 gt {
d setpagedevice
} if
} bd
/RE { % /NewFontName [NewEncodingArray] /FontName RE -
  findfont dup length dict begin
  {
    1 index /FID ne
    {def} {pop pop} ifelse
  } forall
  /Encoding exch def
  /FontName 1 index def
  currentdict definefont pop
  end
} bind def
%%EndResource
%%BeginResource: procset (Apache XML Graphics EPS ProcSet) 1.0 0
%%Version: 1.0 0
%%Copyright: (Copyright 2002-2003 The Apache Software Foundation. License terms: http://www.apache.org/licenses/LICENSE-2.0)
/BeginEPSF { %def
/b4_Inc_state save def         % Save state for cleanup
/dict_count countdictstack def % Count objects on dict stack
/op_count count 1 sub def      % Count objects on operand stack
userdict begin                 % Push userdict on dict stack
/showpage { } def              % Redefine showpage, { } = null proc
0 setgray 0 setlinecap         % Prepare graphics state
1 setlinewidth 0 setlinejoin
10 setmiterlimit [ ] 0 setdash newpath
/languagelevel where           % If level not equal to 1 then
{pop languagelevel             % set strokeadjust and
1 ne                           % overprint to their defaults.
{false setstrokeadjust false setoverprint
} if
} if
} bd
/EndEPSF { %def
count op_count sub {pop} repeat            % Clean up stacks
countdictstack dict_count sub {end} repeat
b4_Inc_state restore
} bd
%%EndResource
%FOPBeginFontDict
%%IncludeResource: font Courier-Oblique
%%IncludeResource: font Courier-BoldOblique
%%IncludeResource: font Courier-Bold
%%IncludeResource: font ZapfDingbats
%%IncludeResource: font Symbol
%%IncludeResource: font Helvetica
%%IncludeResource: font Helvetica-Oblique
%%IncludeResource: font Helvetica-Bold
%%IncludeResource: font Helvetica-BoldOblique
%%IncludeResource: font Times-Roman
%%IncludeResource: font Times-Italic
%%IncludeResource: font Times-Bold
%%IncludeResource: font Times-BoldItalic
%%IncludeResource: font Courier
%FOPEndFontDict
%%BeginResource: encoding WinAnsiEncoding
/WinAnsiEncoding [
/.notdef /.notdef /.notdef /.notdef /.notdef
/.notdef /.notdef /.notdef /.notdef /.notdef
/.notdef /.notdef /.notdef /.notdef /.notdef
/.notdef /.notdef /.notdef /.notdef /.notdef
/.notdef /.notdef /.notdef /.notdef /.notdef
/.notdef /.notdef /.notdef /.notdef /.notdef
/.notdef /.notdef /space /exclam /quotedbl
/numbersign /dollar /percent /ampersand /quotesingle
/parenleft /parenright /asterisk /plus /comma
/hyphen /period /slash /zero /one
/two /three /four /five /six
/seven /eight /nine /colon /semicolon
/less /equal /greater /question /at
/A /B /C /D /E
/F /G /H /I /J
/K /L /M /N /O
/P /Q /R /S /T
/U /V /W /X /Y
/Z /bracketleft /backslash /bracketright /asciicircum
/underscore /quoteleft /a /b /c
/d /e /f /g /h
/i /j /k /l /m
/n /o /p /q /r
/s /t /u /v /w
/x /y /z /braceleft /bar
/braceright /asciitilde /bullet /Euro /bullet
/quotesinglbase /florin /quotedblbase /ellipsis /dagger
/daggerdbl /circumflex /perthousand /Scaron /guilsinglleft
/OE /bullet /Zcaron /bullet /bullet
/quoteleft /quoteright /quotedblleft /quotedblright /bullet
/endash /emdash /asciitilde /trademark /scaron
/guilsinglright /oe /bullet /zcaron /Ydieresis
/space /exclamdown /cent /sterling /currency
/yen /brokenbar /section /dieresis /copyright
/ordfeminine /guillemotleft /logicalnot /sfthyphen /registered
/macron /degree /plusminus /twosuperior /threesuperior
/acute /mu /paragraph /middot /cedilla
/onesuperior /ordmasculine /guillemotright /onequarter /onehalf
/threequarters /questiondown /Agrave /Aacute /Acircumflex
/Atilde /Adieresis /Aring /AE /Ccedilla
/Egrave /Eacute /Ecircumflex /Edieresis /Igrave
/Iacute /Icircumflex /Idieresis /Eth /Ntilde
/Ograve /Oacute /Ocircumflex /Otilde /Odieresis
/multiply /Oslash /Ugrave /Uacute /Ucircumflex
/Udieresis /Yacute /Thorn /germandbls /agrave
/aacute /acircumflex /atilde /adieresis /aring
/ae /ccedilla /egrave /eacute /ecircumflex
/edieresis /igrave /iacute /icircumflex /idieresis
/eth /ntilde /ograve /oacute /ocircumflex
/otilde /odieresis /divide /oslash /ugrave
/uacute /ucircumflex /udieresis /yacute /thorn
/ydieresis
] def
%%EndResource
%FOPBeginFontReencode
/Courier-Oblique findfont
dup length dict begin
  {1 index /FID ne {def} {pop pop} ifelse} forall
  /Encoding WinAnsiEncoding def
  currentdict
end
/Courier-Oblique exch definefont pop
/Courier-BoldOblique findfont
dup length dict begin
  {1 index /FID ne {def} {pop pop} ifelse} forall
  /Encoding WinAnsiEncoding def
  currentdict
end
/Courier-BoldOblique exch definefont pop
/Courier-Bold findfont
dup length dict begin
  {1 index /FID ne {def} {pop pop} ifelse} forall
  /Encoding WinAnsiEncoding def
  currentdict
end
/Courier-Bold exch definefont pop
/Helvetica findfont
dup length dict begin
  {1 index /FID ne {def} {pop pop} ifelse} forall
  /Encoding WinAnsiEncoding def
  currentdict
end
/Helvetica exch definefont pop
/Helvetica-Oblique findfont
dup length dict begin
  {1 index /FID ne {def} {pop pop} ifelse} forall
  /Encoding WinAnsiEncoding def
  currentdict
end
/Helvetica-Oblique exch definefont pop
/Helvetica-Bold findfont
dup length dict begin
  {1 index /FID ne {def} {pop pop} ifelse} forall
  /Encoding WinAnsiEncoding def
  currentdict
end
/Helvetica-Bold exch definefont pop
/Helvetica-BoldOblique findfont
dup length dict begin
  {1 index /FID ne {def} {pop pop} ifelse} forall
  /Encoding WinAnsiEncoding def
  currentdict
end
/Helvetica-BoldOblique exch definefont pop
/Times-Roman findfont
dup length dict begin
  {1 index /FID ne {def} {pop pop} ifelse} forall
  /Encoding WinAnsiEncoding def
  currentdict
end
/Times-Roman exch definefont pop
/Times-Italic findfont
dup length dict begin
  {1 index /FID ne {def} {pop pop} ifelse} forall
  /Encoding WinAnsiEncoding def
  currentdict
end
/Times-Italic exch definefont pop
/Times-Bold findfont
dup length dict begin
  {1 index /FID ne {def} {pop pop} ifelse} forall
  /Encoding WinAnsiEncoding def
  currentdict
end
/Times-Bold exch definefont pop
/Times-BoldItalic findfont
dup length dict begin
  {1 index /FID ne {def} {pop pop} ifelse} forall
  /Encoding WinAnsiEncoding def
  currentdict
end
/Times-BoldItalic exch definefont pop
/Courier findfont
dup length dict begin
  {1 index /FID ne {def} {pop pop} ifelse} forall
  /Encoding WinAnsiEncoding def
  currentdict
end
/Courier exch definefont pop
%FOPEndFontReencode
%%EndProlog
%%Page: 1 1
%%PageBoundingBox: 0 0 600 400
%%BeginPageSetup
[1 0 0 -1 0 400] CT
%%EndPageSetup
GS
1 GC
N
0 0 600 400 re
f
GR
GS
1 GC
N
0 0 600 400 re
f
GR
GS
1 GC
N
78 336 M
543 336 L
543 33 L
78 33 L
cp
f
GR
GS
0.775 GC
[1 3] 0 setdash
2 LJ
0.5 LW
N
124.66 336 M
124.66 33 L
S
GR
GS
0.775 GC
[1 3] 0 setdash
2 LJ
0.5 LW
N
151.954 336 M
151.954 33 L
S
GR
GS
0.775 GC
[1 3] 0 setdash
2 LJ
0.5 LW
N
171.319 336 M
171.319 33 L
S
GR
GS
0.775 GC
[1 3] 0 setdash
2 LJ
0.5 LW
N
186.34 336 M
186.34 33 L
S
GR
GS
0.775 GC
[1 3] 0 setdash
2 LJ
0.5 LW
N
198.613 336 M
198.613 33 L
S
GR
GS
0.775 GC
[1 3] 0 setdash
2 LJ
0.5 LW
N
208.99 336 M
208.99 33 L
S
GR
GS
0.775 GC
[1 3] 0 setdash
2 LJ
0.5 LW
N
217.979 336 M
217.979 33 L
S
GR
GS
0.775 GC
[1 3] 0 setdash
2 LJ
0.5 LW
N
225.908 336 M
225.908 33 L
S
GR
GS
0.775 GC
[1 3] 0 setdash
2 LJ
0.5 LW
N
279.66 336 M
279.66 33 L
S
GR
GS
0.775 GC
[1 3] 0 setdash
2 LJ
0.5 LW
N
306.954 336 M
306.954 33 L
S
GR
GS
0.775 GC
[1 3] 0 setdash
2 LJ
0.5 LW
N
326.319 336 M
326.319 33 L
S
GR
GS
0.775 GC
[1 3] 0 setdash
2 LJ
0.5 LW
N
341.34 336 M
341.34 33 L
S
GR
GS
0.775 GC
[1 3] 0 setdash
2 LJ
0.5 LW
N
353.613 336 M
353.613 33 L
S
GR
GS
0.775 GC
[1 3] 0 setdash
2 LJ
0.5 LW
N
363.99 336 M
363.99 33 L
S
GR
GS
0.775 GC
[1 3] 0 setdash
2 LJ
0.5 LW
N
372.979 336 M
372.979 33 L
S
GR
GS
0.775 GC
[1 3] 0 setdash
2 LJ
0.5 LW
N
380.908 336 M
380.908 33 L
S
GR
GS
0.775 GC
[1 3] 0 setdash
2 LJ
0.5 LW
N
434.66 336 M
434.66 33 L
S
GR
GS
0.775 GC
[1 3] 0 setdash
2 LJ
0.5 LW
N
461.954 336 M
461.954 33 L
S
GR
GS
0.775 GC
[1 3] 0 setdash
2 LJ
0.5 LW
N
481.319 336 M
481.319 33 L
S
GR
GS
0.775 GC
[1 3] 0 setdash
2 LJ
0.5 LW
N
496.34 336 M
496.34 33 L
S
GR
GS
0.775 GC
[1 3] 0 setdash
2 LJ
0.5 LW
N
508.613 336 M
508.613 33 L
S
GR
GS
0.775 GC
[1 3] 0 setdash
2 LJ
0.5 LW
N
518.99 336 M
518.99 33 L
S
GR
GS
0.775 GC
[1 3] 0 setdash
2 LJ
0.5 LW
N
527.979 336 M
527.979 33 L
S
GR
GS
0.775 GC
[1 3] 0 setdash
2 LJ
0.5 LW
N
535.908 336 M
535.908 33 L
S
GR
GS
0.873 GC
1 LJ
0.5 LW
N
78 336 M
78 33 L
S
GR
GS
0.873 GC
1 LJ
0.5 LW
N
233 336 M
233 33 L
S
GR
GS
0.873 GC
1 LJ
0.5 LW
N
388 336 M
388 33 L
S
GR
GS
0.873 GC
1 LJ
0.5 LW
N
543 336 M
543 33 L
S
GR
GS
0.873 GC
1 LJ
0.5 LW
N
543 249.429 M
78 249.429 L
S
GR
GS
0.873 GC
1 LJ
0.5 LW
N
543 141.214 M
78 141.214 L
S
GR
GS
0.873 GC
1 LJ
0.5 LW
N
543 33 M
78 33 L
S
GR
GS
0.149 GC
2 setlinecap
1 LJ
0.5 LW
N
78 336 M
543 336 L
S
GR
GS
0.149 GC
2 setlinecap
1 LJ
0.5 LW
N
78 33 M
543 33 L
S
GR
GS
0.149 GC
2 setlinecap
1 LJ
0.5 LW
N
78 336 M
78 331.35 L
S
GR
GS
0.149 GC
2 setlinecap
1 LJ
0.5 LW
N
233 336 M
233 331.35 L
S
GR
GS
0.149 GC
2 setlinecap
1 LJ
0.5 LW
N
388 336 M
388 331.35 L
S
GR
GS
0.149 GC
2 setlinecap
1 LJ
0.5 LW
N
543 336 M
543 331.35 L
S
GR
GS
0.149 GC
2 setlinecap
1 LJ
0.5 LW
N
78 33 M
78 37.65 L
S
GR
GS
0.149 GC
2 setlinecap
1 LJ
0.5 LW
N
233 33 M
233 37.65 L
S
GR
GS
0.149 GC
2 setlinecap
1 LJ
0.5 LW
N
388 33 M
388 37.65 L
S
GR
GS
0.149 GC
2 setlinecap
1 LJ
0.5 LW
N
543 33 M
543 37.65 L
S
GR
GS
0.149 GC
2 setlinecap
1 LJ
0.5 LW
N
78 336 M
78 333.675 L
S
GR
GS
0.149 GC
2 setlinecap
1 LJ
0.5 LW
N
124.66 336 M
124.66 333.675 L
S
GR
GS
0.149 GC
2 setlinecap
1 LJ
0.5 LW
N
151.954 336 M
151.954 333.675 L
S
GR
GS
0.149 GC
2 setlinecap
1 LJ
0.5 LW
N
171.319 336 M
171.319 333.675 L
S
GR
GS
0.149 GC
2 setlinecap
1 LJ
0.5 LW
N
186.34 336 M
186.34 333.675 L
S
GR
GS
0.149 GC
2 setlinecap
1 LJ
0.5 LW
N
198.613 336 M
198.613 333.675 L
S
GR
GS
0.149 GC
2 setlinecap
1 LJ
0.5 LW
N
208.99 336 M
208.99 333.675 L
S
GR
GS
0.149 GC
2 setlinecap
1 LJ
0.5 LW
N
217.979 336 M
217.979 333.675 L
S
GR
GS
0.149 GC
2 setlinecap
1 LJ
0.5 LW
N
225.908 336 M
225.908 333.675 L
S
GR
GS
0.149 GC
2 setlinecap
1 LJ
0.5 LW
N
233 336 M
233 333.675 L
S
GR
GS
0.149 GC
2 setlinecap
1 LJ
0.5 LW
N
279.66 336 M
279.66 333.675 L
S
GR
GS
0.149 GC
2 setlinecap
1 LJ
0.5 LW
N
306.954 336 M
306.954 333.675 L
S
GR
GS
0.149 GC
2 setlinecap
1 LJ
0.5 LW
N
326.319 336 M
326.319 333.675 L
S
GR
GS
0.149 GC
2 setlinecap
1 LJ
0.5 LW
N
341.34 336 M
341.34 333.675 L
S
GR
GS
0.149 GC
2 setlinecap
1 LJ
0.5 LW
N
353.613 336 M
353.613 333.675 L
S
GR
GS
0.149 GC
2 setlinecap
1 LJ
0.5 LW
N
363.99 336 M
363.99 333.675 L
S
GR
GS
0.149 GC
2 setlinecap
1 LJ
0.5 LW
N
372.979 336 M
372.979 333.675 L
S
GR
GS
0.149 GC
2 setlinecap
1 LJ
0.5 LW
N
380.908 336 M
380.908 333.675 L
S
GR
GS
0.149 GC
2 setlinecap
1 LJ
0.5 LW
N
388 336 M
388 333.675 L
S
GR
GS
0.149 GC
2 setlinecap
1 LJ
0.5 LW
N
434.66 336 M
434.66 333.675 L
S
GR
GS
0.149 GC
2 setlinecap
1 LJ
0.5 LW
N
461.954 336 M
461.954 333.675 L
S
GR
GS
0.149 GC
2 setlinecap
1 LJ
0.5 LW
N
481.319 336 M
481.319 333.675 L
S
GR
GS
0.149 GC
2 setlinecap
1 LJ
0.5 LW
N
496.34 336 M
496.34 333.675 L
S
GR
GS
0.149 GC
2 setlinecap
1 LJ
0.5 LW
N
508.613 336 M
508.613 333.675 L
S
GR
GS
0.149 GC
2 setlinecap
1 LJ
0.5 LW
N
518.99 336 M
518.99 333.675 L
S
GR
GS
0.149 GC
2 setlinecap
1 LJ
0.5 LW
N
527.979 336 M
527.979 333.675 L
S
GR
GS
0.149 GC
2 setlinecap
1 LJ
0.5 LW
N
535.908 336 M
535.908 333.675 L
S
GR
GS
0.149 GC
2 setlinecap
1 LJ
0.5 LW
N
543 336 M
543 333.675 L
S
GR
GS
0.149 GC
2 setlinecap
1 LJ
0.5 LW
N
78 33 M
78 35.325 L
S
GR
GS
0.149 GC
2 setlinecap
1 LJ
0.5 LW
N
124.66 33 M
124.66 35.325 L
S
GR
GS
0.149 GC
2 setlinecap
1 LJ
0.5 LW
N
151.954 33 M
151.954 35.325 L
S
GR
GS
0.149 GC
2 setlinecap
1 LJ
0.5 LW
N
171.319 33 M
171.319 35.325 L
S
GR
GS
0.149 GC
2 setlinecap
1 LJ
0.5 LW
N
186.34 33 M
186.34 35.325 L
S
GR
GS
0.149 GC
2 setlinecap
1 LJ
0.5 LW
N
198.613 33 M
198.613 35.325 L
S
GR
GS
0.149 GC
2 setlinecap
1 LJ
0.5 LW
N
208.99 33 M
208.99 35.325 L
S
GR
GS
0.149 GC
2 setlinecap
1 LJ
0.5 LW
N
217.979 33 M
217.979 35.325 L
S
GR
GS
0.149 GC
2 setlinecap
1 LJ
0.5 LW
N
225.908 33 M
225.908 35.325 L
S
GR
GS
0.149 GC
2 setlinecap
1 LJ
0.5 LW
N
233 33 M
233 35.325 L
S
GR
GS
0.149 GC
2 setlinecap
1 LJ
0.5 LW
N
279.66 33 M
279.66 35.325 L
S
GR
GS
0.149 GC
2 setlinecap
1 LJ
0.5 LW
N
306.954 33 M
306.954 35.325 L
S
GR
GS
0.149 GC
2 setlinecap
1 LJ
0.5 LW
N
326.319 33 M
326.319 35.325 L
S
GR
GS
0.149 GC
2 setlinecap
1 LJ
0.5 LW
N
341.34 33 M
341.34 35.325 L
S
GR
GS
0.149 GC
2 setlinecap
1 LJ
0.5 LW
N
353.613 33 M
353.613 35.325 L
S
GR
GS
0.149 GC
2 setlinecap
1 LJ
0.5 LW
N
363.99 33 M
363.99 35.325 L
S
GR
GS
0.149 GC
2 setlinecap
1 LJ
0.5 LW
N
372.979 33 M
372.979 35.325 L
S
GR
GS
0.149 GC
2 setlinecap
1 LJ
0.5 LW
N
380.908 33 M
380.908 35.325 L
S
GR
GS
0.149 GC
2 setlinecap
1 LJ
0.5 LW
N
388 33 M
388 35.325 L
S
GR
GS
0.149 GC
2 setlinecap
1 LJ
0.5 LW
N
434.66 33 M
434.66 35.325 L
S
GR
GS
0.149 GC
2 setlinecap
1 LJ
0.5 LW
N
461.954 33 M
461.954 35.325 L
S
GR
GS
0.149 GC
2 setlinecap
1 LJ
0.5 LW
N
481.319 33 M
481.319 35.325 L
S
GR
GS
0.149 GC
2 setlinecap
1 LJ
0.5 LW
N
496.34 33 M
496.34 35.325 L
S
GR
GS
0.149 GC
2 setlinecap
1 LJ
0.5 LW
N
508.613 33 M
508.613 35.325 L
S
GR
GS
0.149 GC
2 setlinecap
1 LJ
0.5 LW
N
518.99 33 M
518.99 35.325 L
S
GR
GS
0.149 GC
2 setlinecap
1 LJ
0.5 LW
N
527.979 33 M
527.979 35.325 L
S
GR
GS
0.149 GC
2 setlinecap
1 LJ
0.5 LW
N
535.908 33 M
535.908 35.325 L
S
GR
GS
0.149 GC
2 setlinecap
1 LJ
0.5 LW
N
543 33 M
543 35.325 L
S
GR
GS
[1 0 0 1 58 368] CT
0.149 GC
/Helvetica 20 F
GS
[1 0 0 1 0 0] CT
0 0 moveto 
1 -1 scale
(10) t 
GR
GR
GS
[1 0 0 1 81 358] CT
0.149 GC
/Helvetica 16 F
GS
[1 0 0 1 0 0] CT
0 0 moveto 
1 -1 scale
(-3) t 
GR
GR
GS
[1 0 0 1 213 368] CT
0.149 GC
/Helvetica 20 F
GS
[1 0 0 1 0 0] CT
0 0 moveto 
1 -1 scale
(10) t 
GR
GR
GS
[1 0 0 1 236 358] CT
0.149 GC
/Helvetica 16 F
GS
[1 0 0 1 0 0] CT
0 0 moveto 
1 -1 scale
(-2) t 
GR
GR
GS
[1 0 0 1 368 368] CT
0.149 GC
/Helvetica 20 F
GS
[1 0 0 1 0 0] CT
0 0 moveto 
1 -1 scale
(10) t 
GR
GR
GS
[1 0 0 1 391 358] CT
0.149 GC
/Helvetica 16 F
GS
[1 0 0 1 0 0] CT
0 0 moveto 
1 -1 scale
(-1) t 
GR
GR
GS
[1 0 0 1 527 368] CT
0.149 GC
/Helvetica 20 F
GS
[1 0 0 1 0 0] CT
0 0 moveto 
1 -1 scale
(10) t 
GR
GR
GS
[1 0 0 1 550 358] CT
0.149 GC
/Helvetica 16 F
GS
[1 0 0 1 0 0] CT
0 0 moveto 
1 -1 scale
(0) t 
GR
GR
GS
[1 0 0 1 310.50021 374] CT
0.149 GC
/Helvetica 22 F
GS
[1 0 0 1 0 0] CT
-94 21 moveto 
1 -1 scale
(False Positive Rate) t 
GR
GR
GS
0.149 GC
2 setlinecap
1 LJ
0.5 LW
N
78 336 M
78 33 L
S
GR
GS
0.149 GC
2 setlinecap
1 LJ
0.5 LW
N
543 336 M
543 33 L
S
GR
GS
0.149 GC
2 setlinecap
1 LJ
0.5 LW
N
78 249.429 M
82.65 249.429 L
S
GR
GS
0.149 GC
2 setlinecap
1 LJ
0.5 LW
N
78 141.214 M
82.65 141.214 L
S
GR
GS
0.149 GC
2 setlinecap
1 LJ
0.5 LW
N
78 33 M
82.65 33 L
S
GR
GS
0.149 GC
2 setlinecap
1 LJ
0.5 LW
N
543 249.429 M
538.35 249.429 L
S
GR
GS
0.149 GC
2 setlinecap
1 LJ
0.5 LW
N
543 141.214 M
538.35 141.214 L
S
GR
GS
0.149 GC
2 setlinecap
1 LJ
0.5 LW
N
543 33 M
538.35 33 L
S
GR
GS
[1 0 0 1 72 249.42857] CT
0.149 GC
/Helvetica 20 F
GS
[1 0 0 1 0 0] CT
-28 7.5 moveto 
1 -1 scale
(0.9) t 
GR
GR
GS
[1 0 0 1 72 141.21429] CT
0.149 GC
/Helvetica 20 F
GS
[1 0 0 1 0 0] CT
-39 7.5 moveto 
1 -1 scale
(0.95) t 
GR
GR
GS
[1 0 0 1 72 33] CT
0.149 GC
/Helvetica 20 F
GS
[1 0 0 1 0 0] CT
-12 7.5 moveto 
1 -1 scale
(1) t 
GR
GR
GS
[0 -1 1 0 30 184.49986] CT
0.149 GC
/Helvetica 22 F
GS
[1 0 0 1 0 0] CT
-90 -5 moveto 
1 -1 scale
(True Positive Rate) t 
GR
GR
GS
[1 0 0 1 310.50031 27.50002] CT
/Helvetica-Bold 22 F
GS
[1 0 0 1 0 0] CT
-178.5 -5 moveto 
1 -1 scale
(Receiver Operating Characteristic) t 
GR
GR
GS
0 0 1 RC
1 LJ
5 LW
N
89.817 322.588 M
89.817 317.898 L
89.817 310.863 L
89.817 306.174 L
89.817 300.312 L
89.817 295.622 L
89.817 292.105 L
89.817 286.243 L
89.817 280.38 L
89.817 279.208 L
89.817 273.346 L
89.817 272.173 L
89.817 268.656 L
89.817 265.139 L
89.817 262.794 L
89.817 261.622 L
89.817 259.277 L
89.817 254.587 L
89.817 252.242 L
89.817 251.07 L
89.817 249.898 L
89.817 244.035 L
89.817 242.863 L
89.817 240.518 L
89.817 238.173 L
89.817 235.829 L
89.817 234.656 L
89.817 232.311 L
89.817 231.139 L
89.817 228.794 L
89.817 227.622 L
89.817 226.449 L
89.817 225.277 L
89.817 222.932 L
89.817 221.759 L
89.817 219.415 L
89.817 217.07 L
89.817 215.897 L
89.817 214.725 L
89.817 213.553 L
89.817 211.208 L
89.817 210.035 L
89.817 208.863 L
89.817 207.69 L
89.817 206.518 L
89.817 205.346 L
89.817 204.173 L
89.817 203.001 L
89.817 201.828 L
89.817 200.656 L
89.817 199.484 L
89.817 197.139 L
89.817 195.966 L
89.817 194.794 L
89.817 193.621 L
89.817 192.449 L
89.817 191.277 L
89.817 188.932 L
89.817 187.759 L
89.817 184.242 L
89.817 183.07 L
89.817 181.897 L
89.817 180.725 L
89.817 179.552 L
89.817 178.38 L
89.817 177.208 L
89.817 176.035 L
89.817 174.863 L
89.817 173.69 L
89.817 172.518 L
89.817 171.345 L
89.817 170.173 L
89.817 169.001 L
89.817 167.828 L
89.817 166.656 L
89.817 165.483 L
89.817 164.311 L
89.817 161.966 L
89.817 160.794 L
89.817 159.621 L
89.817 158.449 L
89.817 157.276 L
89.817 156.104 L
89.817 154.932 L
89.817 153.759 L
89.817 152.587 L
89.817 151.414 L
89.817 150.242 L
89.817 149.069 L
89.817 147.897 L
89.817 146.725 L
89.817 145.552 L
89.817 144.38 L
89.817 143.207 L
89.817 142.035 L
89.817 140.863 L
89.817 139.69 L
89.817 138.518 L
89.817 137.345 L
89.817 136.173 L
89.817 135 L
89.817 133.828 L
89.817 132.656 L
89.817 131.483 L
89.817 130.311 L
89.817 129.138 L
89.817 127.966 L
89.817 126.794 L
89.817 125.621 L
89.817 124.449 L
89.817 123.276 L
89.817 122.104 L
89.817 120.931 L
89.817 119.759 L
89.817 118.587 L
89.817 117.414 L
89.817 116.242 L
89.817 115.069 L
89.817 113.897 L
89.817 112.725 L
89.817 111.552 L
89.817 110.38 L
89.817 109.207 L
89.817 108.035 L
89.817 106.862 L
89.817 105.69 L
89.817 104.518 L
89.817 103.345 L
89.817 102.173 L
89.817 101 L
89.817 99.828 L
89.817 98.655 L
89.817 97.483 L
89.817 96.311 L
89.817 95.138 L
89.817 93.966 L
89.817 92.793 L
89.817 91.621 L
89.817 90.449 L
89.817 89.276 L
89.817 88.104 L
89.817 86.931 L
89.817 85.759 L
89.817 84.586 L
136.477 84.586 L
136.477 83.414 L
163.771 83.414 L
163.771 82.242 L
163.771 81.069 L
163.771 79.897 L
163.771 78.724 L
163.771 77.552 L
163.771 76.38 L
163.771 75.207 L
163.771 74.035 L
163.771 72.862 L
163.771 71.69 L
163.771 70.517 L
163.771 69.345 L
163.771 68.173 L
163.771 67 L
163.771 65.828 L
163.771 64.655 L
163.771 63.483 L
163.771 62.31 L
163.771 61.138 L
183.136 61.138 L
198.157 61.138 L
198.157 59.966 L
198.157 58.793 L
198.157 57.621 L
198.157 56.448 L
198.157 55.276 L
198.157 54.104 L
210.43 54.104 L
220.807 54.104 L
220.807 52.931 L
220.807 51.759 L
229.796 51.759 L
229.796 50.586 L
229.796 49.414 L
229.796 48.241 L
229.796 47.069 L
229.796 45.897 L
237.724 45.897 L
237.724 44.724 L
244.817 44.724 L
251.233 44.724 L
257.09 44.724 L
262.478 44.724 L
267.467 44.724 L
272.111 44.724 L
276.456 44.724 L
280.536 44.724 L
284.384 44.724 L
284.384 43.552 L
284.384 42.379 L
288.024 42.379 L
291.477 42.379 L
294.761 42.379 L
294.761 41.207 L
297.892 41.207 L
300.885 41.207 L
303.75 41.207 L
303.75 40.035 L
303.75 38.862 L
306.498 38.862 L
309.138 38.862 L
311.678 38.862 L
314.126 38.862 L
316.489 38.862 L
316.489 37.69 L
316.489 36.517 L
318.771 36.517 L
320.978 36.517 L
323.115 36.517 L
325.187 36.517 L
327.196 36.517 L
329.147 36.517 L
331.044 36.517 L
332.888 36.517 L
334.683 36.517 L
336.432 36.517 L
338.136 36.517 L
339.798 36.517 L
341.421 36.517 L
343.005 36.517 L
344.552 36.517 L
346.065 36.517 L
347.544 36.517 L
348.992 36.517 L
350.409 36.517 L
351.797 36.517 L
353.157 36.517 L
354.49 36.517 L
355.797 36.517 L
357.08 36.517 L
358.338 36.517 L
359.573 36.517 L
360.786 36.517 L
361.978 36.517 L
363.148 36.517 L
364.299 36.517 L
365.43 36.517 L
366.543 36.517 L
367.638 36.517 L
368.715 36.517 L
369.775 36.517 L
370.818 36.517 L
371.846 36.517 L
372.858 36.517 L
373.856 36.517 L
374.839 36.517 L
375.807 36.517 L
376.762 36.517 L
376.762 35.345 L
377.703 35.345 L
378.632 35.345 L
379.548 35.345 L
380.451 35.345 L
381.343 35.345 L
382.223 35.345 L
383.092 35.345 L
383.949 35.345 L
384.796 35.345 L
385.632 35.345 L
386.458 35.345 L
387.274 35.345 L
388.08 35.345 L
388.877 35.345 L
389.664 35.345 L
390.442 35.345 L
391.212 35.345 L
391.972 35.345 L
392.724 35.345 L
393.468 35.345 L
394.204 35.345 L
394.932 35.345 L
395.652 35.345 L
396.364 35.345 L
397.069 35.345 L
397.767 35.345 L
398.457 35.345 L
399.14 35.345 L
399.817 35.345 L
400.487 35.345 L
401.15 35.345 L
401.807 35.345 L
402.457 35.345 L
403.101 35.345 L
403.739 35.345 L
403.739 34.172 L
404.371 34.172 L
404.998 34.172 L
405.618 34.172 L
406.233 34.172 L
406.842 34.172 L
407.446 34.172 L
408.044 34.172 L
408.637 34.172 L
409.225 34.172 L
409.808 34.172 L
410.386 34.172 L
410.959 34.172 L
411.527 34.172 L
412.09 34.172 L
412.649 34.172 L
413.203 34.172 L
413.752 34.172 L
414.297 34.172 L
414.838 34.172 L
415.374 34.172 L
415.906 34.172 L
416.434 34.172 L
416.958 34.172 L
417.478 34.172 L
417.994 34.172 L
418.506 34.172 L
419.014 34.172 L
419.518 34.172 L
420.019 34.172 L
420.515 34.172 L
421.009 34.172 L
421.498 34.172 L
421.984 34.172 L
422.467 34.172 L
422.946 34.172 L
423.422 34.172 L
423.894 34.172 L
424.363 34.172 L
424.829 34.172 L
425.292 34.172 L
425.751 34.172 L
426.207 34.172 L
426.661 34.172 L
427.111 34.172 L
427.558 34.172 L
428.003 34.172 L
428.444 34.172 L
428.883 34.172 L
429.318 34.172 L
429.751 34.172 L
430.181 34.172 L
430.609 34.172 L
431.033 34.172 L
431.455 34.172 L
431.875 34.172 L
432.292 34.172 L
432.706 34.172 L
433.118 34.172 L
433.527 34.172 L
433.934 34.172 L
434.338 34.172 L
434.74 34.172 L
435.139 34.172 L
435.536 34.172 L
435.931 34.172 L
436.324 34.172 L
436.714 34.172 L
437.102 34.172 L
437.488 34.172 L
437.871 34.172 L
438.253 34.172 L
438.632 34.172 L
439.009 34.172 L
439.384 34.172 L
439.757 34.172 L
440.128 34.172 L
440.497 34.172 L
440.864 34.172 L
441.229 34.172 L
441.591 34.172 L
441.952 34.172 L
442.311 34.172 L
442.668 34.172 L
443.024 34.172 L
443.377 34.172 L
443.729 34.172 L
444.078 34.172 L
444.426 34.172 L
444.772 34.172 L
445.117 34.172 L
445.459 34.172 L
445.8 34.172 L
446.139 34.172 L
446.139 33 L
446.477 33 L
446.812 33 L
447.146 33 L
447.479 33 L
447.81 33 L
448.139 33 L
448.466 33 L
448.792 33 L
449.117 33 L
449.44 33 L
449.761 33 L
450.081 33 L
450.399 33 L
450.716 33 L
451.031 33 L
451.345 33 L
451.657 33 L
451.968 33 L
452.278 33 L
452.586 33 L
452.892 33 L
453.198 33 L
453.502 33 L
453.804 33 L
454.105 33 L
454.405 33 L
454.704 33 L
455.001 33 L
455.297 33 L
455.591 33 L
455.885 33 L
456.177 33 L
456.468 33 L
456.757 33 L
457.045 33 L
457.332 33 L
457.618 33 L
457.903 33 L
458.186 33 L
458.469 33 L
458.75 33 L
459.03 33 L
459.308 33 L
459.586 33 L
459.862 33 L
460.138 33 L
460.412 33 L
460.685 33 L
460.957 33 L
461.228 33 L
461.498 33 L
461.766 33 L
462.034 33 L
462.301 33 L
462.566 33 L
462.831 33 L
463.094 33 L
463.357 33 L
463.618 33 L
463.878 33 L
464.138 33 L
464.396 33 L
464.654 33 L
464.91 33 L
465.166 33 L
465.42 33 L
465.674 33 L
465.926 33 L
466.178 33 L
466.428 33 L
466.678 33 L
466.927 33 L
467.175 33 L
467.422 33 L
467.668 33 L
467.913 33 L
468.158 33 L
468.401 33 L
468.644 33 L
468.886 33 L
469.126 33 L
469.366 33 L
469.605 33 L
469.844 33 L
470.081 33 L
470.318 33 L
470.554 33 L
470.789 33 L
471.023 33 L
471.256 33 L
471.489 33 L
471.72 33 L
471.951 33 L
472.181 33 L
472.411 33 L
472.639 33 L
472.867 33 L
473.094 33 L
473.32 33 L
473.546 33 L
473.771 33 L
473.995 33 L
474.218 33 L
474.44 33 L
474.662 33 L
474.883 33 L
475.104 33 L
475.323 33 L
475.542 33 L
475.76 33 L
475.978 33 L
476.195 33 L
476.411 33 L
476.626 33 L
476.841 33 L
477.055 33 L
477.268 33 L
477.481 33 L
477.693 33 L
477.904 33 L
478.115 33 L
478.325 33 L
478.535 33 L
478.743 33 L
478.951 33 L
479.159 33 L
479.366 33 L
479.572 33 L
479.777 33 L
479.982 33 L
480.187 33 L
480.39 33 L
480.593 33 L
480.796 33 L
480.998 33 L
481.199 33 L
481.399 33 L
481.6 33 L
481.799 33 L
481.998 33 L
482.196 33 L
482.394 33 L
482.591 33 L
482.787 33 L
482.983 33 L
483.179 33 L
483.374 33 L
483.568 33 L
483.762 33 L
483.955 33 L
484.147 33 L
484.34 33 L
484.531 33 L
484.722 33 L
484.912 33 L
485.102 33 L
485.292 33 L
485.48 33 L
485.669 33 L
485.857 33 L
486.044 33 L
486.23 33 L
486.417 33 L
486.602 33 L
486.788 33 L
486.972 33 L
487.156 33 L
487.34 33 L
487.523 33 L
487.706 33 L
487.888 33 L
488.07 33 L
488.251 33 L
488.432 33 L
488.612 33 L
488.792 33 L
488.971 33 L
489.15 33 L
489.328 33 L
489.506 33 L
489.683 33 L
489.86 33 L
490.037 33 L
490.213 33 L
490.388 33 L
490.563 33 L
490.738 33 L
490.912 33 L
491.086 33 L
491.259 33 L
491.432 33 L
491.604 33 L
491.776 33 L
491.948 33 L
492.119 33 L
492.289 33 L
492.46 33 L
492.629 33 L
492.799 33 L
492.968 33 L
493.136 33 L
493.304 33 L
493.472 33 L
493.639 33 L
493.806 33 L
493.972 33 L
494.138 33 L
494.304 33 L
494.469 33 L
494.634 33 L
494.798 33 L
494.962 33 L
495.126 33 L
495.289 33 L
495.452 33 L
495.614 33 L
495.776 33 L
495.938 33 L
496.099 33 L
496.26 33 L
496.421 33 L
496.581 33 L
496.74 33 L
496.9 33 L
497.059 33 L
497.217 33 L
497.375 33 L
497.533 33 L
497.691 33 L
497.848 33 L
498.005 33 L
498.161 33 L
498.317 33 L
498.473 33 L
498.628 33 L
498.783 33 L
498.937 33 L
499.091 33 L
499.245 33 L
499.399 33 L
499.552 33 L
499.705 33 L
499.857 33 L
500.009 33 L
500.161 33 L
500.313 33 L
500.464 33 L
500.615 33 L
500.765 33 L
500.915 33 L
501.065 33 L
501.214 33 L
501.363 33 L
501.512 33 L
501.661 33 L
501.809 33 L
501.956 33 L
502.104 33 L
502.251 33 L
502.398 33 L
502.544 33 L
502.691 33 L
502.836 33 L
502.982 33 L
503.127 33 L
503.272 33 L
503.417 33 L
503.561 33 L
503.705 33 L
503.849 33 L
503.992 33 L
504.135 33 L
504.278 33 L
504.42 33 L
504.563 33 L
504.704 33 L
504.846 33 L
504.987 33 L
505.128 33 L
505.269 33 L
505.409 33 L
505.549 33 L
505.689 33 L
505.829 33 L
505.968 33 L
506.107 33 L
506.246 33 L
506.384 33 L
506.522 33 L
506.66 33 L
506.797 33 L
506.935 33 L
507.071 33 L
507.208 33 L
507.345 33 L
507.481 33 L
507.617 33 L
507.752 33 L
507.887 33 L
508.022 33 L
508.157 33 L
508.292 33 L
508.426 33 L
508.56 33 L
508.694 33 L
508.827 33 L
508.96 33 L
509.093 33 L
509.226 33 L
509.358 33 L
509.49 33 L
509.622 33 L
509.754 33 L
509.885 33 L
510.016 33 L
510.147 33 L
510.278 33 L
510.408 33 L
510.538 33 L
510.668 33 L
510.797 33 L
510.927 33 L
511.056 33 L
511.185 33 L
511.313 33 L
511.442 33 L
511.57 33 L
511.698 33 L
511.825 33 L
511.953 33 L
512.08 33 L
512.207 33 L
512.333 33 L
512.46 33 L
512.586 33 L
512.712 33 L
512.837 33 L
512.963 33 L
513.088 33 L
513.338 33 L
513.462 33 L
513.587 33 L
513.711 33 L
513.835 33 L
513.958 33 L
514.082 33 L
514.205 33 L
514.328 33 L
514.451 33 L
514.573 33 L
514.695 33 L
514.817 33 L
514.939 33 L
515.061 33 L
515.182 33 L
515.303 33 L
515.424 33 L
515.545 33 L
515.666 33 L
515.786 33 L
515.906 33 L
516.026 33 L
516.146 33 L
516.265 33 L
516.384 33 L
516.503 33 L
516.622 33 L
516.741 33 L
516.859 33 L
516.977 33 L
517.095 33 L
517.213 33 L
517.331 33 L
517.448 33 L
517.565 33 L
517.682 33 L
517.799 33 L
517.916 33 L
518.032 33 L
518.148 33 L
518.264 33 L
518.38 33 L
518.496 33 L
518.611 33 L
518.726 33 L
518.841 33 L
518.956 33 L
519.07 33 L
519.185 33 L
519.299 33 L
519.413 33 L
519.527 33 L
519.64 33 L
519.754 33 L
519.867 33 L
519.98 33 L
520.093 33 L
520.206 33 L
520.318 33 L
520.43 33 L
520.542 33 L
520.654 33 L
520.766 33 L
520.878 33 L
520.989 33 L
521.1 33 L
521.211 33 L
521.322 33 L
521.433 33 L
521.543 33 L
521.653 33 L
521.763 33 L
521.873 33 L
521.983 33 L
522.093 33 L
522.202 33 L
522.311 33 L
522.42 33 L
522.529 33 L
522.638 33 L
522.746 33 L
522.854 33 L
522.963 33 L
523.07 33 L
523.178 33 L
523.286 33 L
523.393 33 L
523.501 33 L
523.608 33 L
523.715 33 L
523.821 33 L
523.928 33 L
524.034 33 L
524.141 33 L
524.247 33 L
524.353 33 L
524.458 33 L
524.564 33 L
524.67 33 L
524.775 33 L
524.88 33 L
524.985 33 L
525.09 33 L
525.194 33 L
525.299 33 L
525.403 33 L
525.507 33 L
525.611 33 L
525.715 33 L
525.818 33 L
525.922 33 L
526.025 33 L
526.128 33 L
526.231 33 L
526.334 33 L
526.437 33 L
526.54 33 L
526.642 33 L
526.744 33 L
526.846 33 L
526.948 33 L
527.05 33 L
527.151 33 L
527.253 33 L
527.354 33 L
527.455 33 L
527.556 33 L
527.657 33 L
527.758 33 L
527.859 33 L
527.959 33 L
528.059 33 L
528.159 33 L
528.259 33 L
528.359 33 L
528.459 33 L
528.558 33 L
528.657 33 L
528.757 33 L
528.856 33 L
528.955 33 L
529.053 33 L
529.152 33 L
529.251 33 L
529.349 33 L
529.447 33 L
529.545 33 L
529.643 33 L
529.741 33 L
529.839 33 L
529.936 33 L
530.033 33 L
530.131 33 L
530.228 33 L
530.325 33 L
530.421 33 L
530.518 33 L
530.615 33 L
530.711 33 L
530.807 33 L
530.903 33 L
530.999 33 L
531.095 33 L
531.191 33 L
531.286 33 L
531.382 33 L
531.477 33 L
531.572 33 L
531.667 33 L
531.762 33 L
531.857 33 L
531.951 33 L
532.046 33 L
532.14 33 L
532.234 33 L
532.328 33 L
532.422 33 L
532.516 33 L
532.61 33 L
532.703 33 L
532.797 33 L
532.89 33 L
532.983 33 L
533.076 33 L
533.169 33 L
533.262 33 L
533.355 33 L
533.447 33 L
533.54 33 L
533.632 33 L
533.724 33 L
533.816 33 L
533.908 33 L
534 33 L
534.091 33 L
534.183 33 L
534.274 33 L
534.366 33 L
534.457 33 L
534.548 33 L
534.639 33 L
534.729 33 L
534.82 33 L
534.911 33 L
535.001 33 L
535.091 33 L
535.182 33 L
535.272 33 L
535.362 33 L
535.451 33 L
535.541 33 L
535.631 33 L
535.72 33 L
535.809 33 L
535.899 33 L
535.988 33 L
536.077 33 L
536.166 33 L
536.254 33 L
536.343 33 L
536.432 33 L
536.52 33 L
536.608 33 L
536.696 33 L
536.784 33 L
536.872 33 L
536.96 33 L
537.048 33 L
537.135 33 L
537.223 33 L
537.31 33 L
537.398 33 L
537.485 33 L
537.572 33 L
537.659 33 L
537.745 33 L
537.832 33 L
537.919 33 L
538.005 33 L
538.092 33 L
538.178 33 L
538.264 33 L
538.35 33 L
538.436 33 L
538.522 33 L
538.607 33 L
538.693 33 L
538.778 33 L
538.864 33 L
538.949 33 L
539.034 33 L
539.119 33 L
539.204 33 L
539.289 33 L
539.374 33 L
539.458 33 L
539.543 33 L
539.627 33 L
539.712 33 L
539.796 33 L
539.88 33 L
539.964 33 L
540.048 33 L
540.132 33 L
540.215 33 L
540.299 33 L
540.382 33 L
540.466 33 L
540.549 33 L
540.632 33 L
540.715 33 L
540.798 33 L
540.881 33 L
540.964 33 L
541.046 33 L
541.129 33 L
541.211 33 L
541.294 33 L
541.376 33 L
541.458 33 L
541.54 33 L
541.622 33 L
541.704 33 L
541.786 33 L
541.867 33 L
541.949 33 L
542.03 33 L
542.112 33 L
542.193 33 L
542.274 33 L
542.355 33 L
542.436 33 L
542.517 33 L
542.598 33 L
542.678 33 L
542.759 33 L
542.839 33 L
542.92 33 L
543 33 L
S
GR
GS
1 0 0 RC
[5 5] 0 setdash
2 LJ
5 LW
N
89.817 218.335 M
89.817 213.74 L
89.817 207.613 L
89.817 206.082 L
89.817 199.955 L
89.817 196.891 L
89.817 192.296 L
89.817 184.638 L
89.817 178.511 L
89.817 176.979 L
89.817 172.384 L
89.817 170.853 L
89.817 167.789 L
89.817 166.258 L
89.817 163.194 L
89.817 161.662 L
89.817 158.599 L
89.817 154.004 L
89.817 152.472 L
89.817 150.941 L
89.817 144.814 L
89.817 143.282 L
89.817 140.219 L
89.817 137.155 L
89.817 135.624 L
89.817 134.092 L
89.817 132.56 L
89.817 131.029 L
89.817 129.497 L
89.817 127.965 L
89.817 124.902 L
89.817 123.37 L
89.817 121.838 L
89.817 118.775 L
89.817 117.243 L
89.817 115.712 L
89.817 114.18 L
89.817 112.648 L
89.817 111.116 L
89.817 109.585 L
89.817 108.053 L
89.817 106.521 L
89.817 104.99 L
89.817 103.458 L
89.817 100.395 L
89.817 98.863 L
89.817 95.8 L
89.817 94.268 L
89.817 92.736 L
89.817 91.204 L
89.817 89.673 L
89.817 88.141 L
89.817 86.609 L
89.817 85.078 L
89.817 83.546 L
89.817 82.014 L
89.817 80.483 L
89.817 78.951 L
89.817 77.419 L
89.817 75.887 L
89.817 74.356 L
89.817 72.824 L
89.817 71.292 L
89.817 69.761 L
89.817 68.229 L
89.817 66.697 L
89.817 65.166 L
89.817 63.634 L
89.817 62.102 L
89.817 60.571 L
89.817 59.039 L
89.817 57.507 L
89.817 55.975 L
89.817 54.444 L
89.817 52.912 L
89.817 51.38 L
89.817 49.849 L
89.817 48.317 L
89.817 46.785 L
89.817 45.254 L
89.817 43.722 L
136.477 43.722 L
163.771 43.722 L
163.771 42.19 L
163.771 40.658 L
163.771 39.127 L
163.771 37.595 L
163.771 36.063 L
163.771 34.532 L
183.136 34.532 L
198.157 34.532 L
210.43 34.532 L
220.807 34.532 L
229.796 34.532 L
237.724 34.532 L
237.724 33 L
244.817 33 L
251.233 33 L
257.09 33 L
262.478 33 L
267.467 33 L
272.111 33 L
276.456 33 L
280.536 33 L
284.384 33 L
288.024 33 L
291.477 33 L
294.761 33 L
297.892 33 L
300.885 33 L
303.75 33 L
306.498 33 L
309.138 33 L
311.678 33 L
314.126 33 L
316.489 33 L
318.771 33 L
320.978 33 L
323.115 33 L
325.187 33 L
327.196 33 L
329.147 33 L
331.044 33 L
332.888 33 L
334.683 33 L
336.432 33 L
338.136 33 L
339.798 33 L
341.421 33 L
343.005 33 L
344.552 33 L
346.065 33 L
347.544 33 L
348.992 33 L
350.409 33 L
351.797 33 L
353.157 33 L
354.49 33 L
355.797 33 L
357.08 33 L
358.338 33 L
359.573 33 L
360.786 33 L
361.978 33 L
363.148 33 L
364.299 33 L
365.43 33 L
366.543 33 L
367.638 33 L
368.715 33 L
369.775 33 L
370.818 33 L
371.846 33 L
372.858 33 L
373.856 33 L
374.839 33 L
375.807 33 L
376.762 33 L
377.703 33 L
378.632 33 L
379.548 33 L
380.451 33 L
381.343 33 L
382.223 33 L
383.092 33 L
383.949 33 L
384.796 33 L
385.632 33 L
386.458 33 L
387.274 33 L
388.08 33 L
388.877 33 L
389.664 33 L
390.442 33 L
391.212 33 L
391.972 33 L
392.724 33 L
393.468 33 L
394.204 33 L
394.932 33 L
395.652 33 L
396.364 33 L
397.069 33 L
397.767 33 L
398.457 33 L
399.14 33 L
399.817 33 L
400.487 33 L
401.15 33 L
401.807 33 L
402.457 33 L
403.101 33 L
403.739 33 L
404.371 33 L
404.998 33 L
405.618 33 L
406.233 33 L
406.842 33 L
407.446 33 L
408.044 33 L
408.637 33 L
409.225 33 L
409.808 33 L
410.386 33 L
410.959 33 L
411.527 33 L
412.09 33 L
412.649 33 L
413.203 33 L
413.752 33 L
414.297 33 L
414.838 33 L
415.374 33 L
415.906 33 L
416.434 33 L
416.958 33 L
417.478 33 L
417.994 33 L
418.506 33 L
419.014 33 L
419.518 33 L
420.019 33 L
420.515 33 L
421.009 33 L
421.498 33 L
421.984 33 L
422.467 33 L
422.946 33 L
423.422 33 L
423.894 33 L
424.363 33 L
424.829 33 L
425.292 33 L
425.751 33 L
426.207 33 L
426.661 33 L
427.111 33 L
427.558 33 L
428.003 33 L
428.444 33 L
428.883 33 L
429.318 33 L
429.751 33 L
430.181 33 L
430.609 33 L
431.033 33 L
431.455 33 L
431.875 33 L
432.292 33 L
432.706 33 L
433.118 33 L
433.527 33 L
433.934 33 L
434.338 33 L
434.74 33 L
435.139 33 L
435.536 33 L
435.931 33 L
436.324 33 L
436.714 33 L
437.102 33 L
437.488 33 L
437.871 33 L
438.253 33 L
438.632 33 L
439.009 33 L
439.384 33 L
439.757 33 L
440.128 33 L
440.497 33 L
440.864 33 L
441.229 33 L
441.591 33 L
441.952 33 L
442.311 33 L
442.668 33 L
443.024 33 L
443.377 33 L
443.729 33 L
444.078 33 L
444.426 33 L
444.772 33 L
445.117 33 L
445.459 33 L
445.8 33 L
446.139 33 L
446.477 33 L
446.812 33 L
447.146 33 L
447.479 33 L
447.81 33 L
448.139 33 L
448.466 33 L
448.792 33 L
449.117 33 L
449.44 33 L
449.761 33 L
450.081 33 L
450.399 33 L
450.716 33 L
451.031 33 L
451.345 33 L
451.657 33 L
451.968 33 L
452.278 33 L
452.586 33 L
452.892 33 L
453.198 33 L
453.502 33 L
453.804 33 L
454.105 33 L
454.405 33 L
454.704 33 L
455.001 33 L
455.297 33 L
455.591 33 L
455.885 33 L
456.177 33 L
456.468 33 L
456.757 33 L
457.045 33 L
457.332 33 L
457.618 33 L
457.903 33 L
458.186 33 L
458.469 33 L
458.75 33 L
459.03 33 L
459.308 33 L
459.586 33 L
459.862 33 L
460.138 33 L
460.412 33 L
460.685 33 L
460.957 33 L
461.228 33 L
461.498 33 L
461.766 33 L
462.034 33 L
462.301 33 L
462.566 33 L
462.831 33 L
463.094 33 L
463.357 33 L
463.618 33 L
463.878 33 L
464.138 33 L
464.396 33 L
464.654 33 L
464.91 33 L
465.166 33 L
465.42 33 L
465.674 33 L
465.926 33 L
466.178 33 L
466.428 33 L
466.678 33 L
466.927 33 L
467.175 33 L
467.422 33 L
467.668 33 L
467.913 33 L
468.158 33 L
468.401 33 L
468.644 33 L
468.886 33 L
469.126 33 L
469.366 33 L
469.605 33 L
469.844 33 L
470.081 33 L
470.318 33 L
470.554 33 L
470.789 33 L
471.023 33 L
471.256 33 L
471.489 33 L
471.72 33 L
471.951 33 L
472.181 33 L
472.411 33 L
472.639 33 L
472.867 33 L
473.094 33 L
473.32 33 L
473.546 33 L
473.771 33 L
473.995 33 L
474.218 33 L
474.44 33 L
474.662 33 L
474.883 33 L
475.104 33 L
475.323 33 L
475.542 33 L
475.76 33 L
475.978 33 L
476.195 33 L
476.411 33 L
476.626 33 L
476.841 33 L
477.055 33 L
477.268 33 L
477.481 33 L
477.693 33 L
477.904 33 L
478.115 33 L
478.325 33 L
478.535 33 L
478.743 33 L
478.951 33 L
479.159 33 L
479.366 33 L
479.572 33 L
479.777 33 L
479.982 33 L
480.187 33 L
480.39 33 L
480.593 33 L
480.796 33 L
480.998 33 L
481.199 33 L
481.399 33 L
481.6 33 L
481.799 33 L
481.998 33 L
482.196 33 L
482.394 33 L
482.591 33 L
482.787 33 L
482.983 33 L
483.179 33 L
483.374 33 L
483.568 33 L
483.762 33 L
483.955 33 L
484.147 33 L
484.34 33 L
484.531 33 L
484.722 33 L
484.912 33 L
485.102 33 L
485.292 33 L
485.48 33 L
485.669 33 L
485.857 33 L
486.044 33 L
486.23 33 L
486.417 33 L
486.602 33 L
486.788 33 L
486.972 33 L
487.156 33 L
487.34 33 L
487.523 33 L
487.706 33 L
487.888 33 L
488.07 33 L
488.251 33 L
488.432 33 L
488.612 33 L
488.792 33 L
488.971 33 L
489.15 33 L
489.328 33 L
489.506 33 L
489.683 33 L
489.86 33 L
490.037 33 L
490.213 33 L
490.388 33 L
490.563 33 L
490.738 33 L
490.912 33 L
491.086 33 L
491.259 33 L
491.432 33 L
491.604 33 L
491.776 33 L
491.948 33 L
492.119 33 L
492.289 33 L
492.46 33 L
492.629 33 L
492.799 33 L
492.968 33 L
493.136 33 L
493.304 33 L
493.472 33 L
493.639 33 L
493.806 33 L
493.972 33 L
494.138 33 L
494.304 33 L
494.469 33 L
494.634 33 L
494.798 33 L
494.962 33 L
495.126 33 L
495.289 33 L
495.452 33 L
495.614 33 L
495.776 33 L
495.938 33 L
496.099 33 L
496.26 33 L
496.421 33 L
496.581 33 L
496.74 33 L
496.9 33 L
497.059 33 L
497.217 33 L
497.375 33 L
497.533 33 L
497.691 33 L
497.848 33 L
498.005 33 L
498.161 33 L
498.317 33 L
498.473 33 L
498.628 33 L
498.783 33 L
498.937 33 L
499.091 33 L
499.245 33 L
499.399 33 L
499.552 33 L
499.705 33 L
499.857 33 L
500.009 33 L
500.161 33 L
500.313 33 L
500.464 33 L
500.615 33 L
500.765 33 L
500.915 33 L
501.065 33 L
501.214 33 L
501.363 33 L
501.512 33 L
501.661 33 L
501.809 33 L
501.956 33 L
502.104 33 L
502.251 33 L
502.398 33 L
502.544 33 L
502.691 33 L
502.836 33 L
502.982 33 L
503.127 33 L
503.272 33 L
503.417 33 L
503.561 33 L
503.705 33 L
503.849 33 L
503.992 33 L
504.135 33 L
504.278 33 L
504.42 33 L
504.563 33 L
504.704 33 L
504.846 33 L
504.987 33 L
505.128 33 L
505.269 33 L
505.409 33 L
505.549 33 L
505.689 33 L
505.829 33 L
505.968 33 L
506.107 33 L
506.246 33 L
506.384 33 L
506.522 33 L
506.66 33 L
506.797 33 L
506.935 33 L
507.071 33 L
507.208 33 L
507.345 33 L
507.481 33 L
507.617 33 L
507.752 33 L
507.887 33 L
508.022 33 L
508.157 33 L
508.292 33 L
508.426 33 L
508.56 33 L
508.694 33 L
508.827 33 L
508.96 33 L
509.093 33 L
509.226 33 L
509.358 33 L
509.49 33 L
509.622 33 L
509.754 33 L
509.885 33 L
510.016 33 L
510.147 33 L
510.278 33 L
510.408 33 L
510.538 33 L
510.668 33 L
510.797 33 L
510.927 33 L
511.056 33 L
511.185 33 L
511.313 33 L
511.442 33 L
511.57 33 L
511.698 33 L
511.825 33 L
511.953 33 L
512.08 33 L
512.207 33 L
512.333 33 L
512.46 33 L
512.586 33 L
512.712 33 L
512.837 33 L
512.963 33 L
513.088 33 L
513.338 33 L
513.462 33 L
513.587 33 L
513.711 33 L
513.835 33 L
513.958 33 L
514.082 33 L
514.205 33 L
514.328 33 L
514.451 33 L
514.573 33 L
514.695 33 L
514.817 33 L
514.939 33 L
515.061 33 L
515.182 33 L
515.303 33 L
515.424 33 L
515.545 33 L
515.666 33 L
515.786 33 L
515.906 33 L
516.026 33 L
516.146 33 L
516.265 33 L
516.384 33 L
516.503 33 L
516.622 33 L
516.741 33 L
516.859 33 L
516.977 33 L
517.095 33 L
517.213 33 L
517.331 33 L
517.448 33 L
517.565 33 L
517.682 33 L
517.799 33 L
517.916 33 L
518.032 33 L
518.148 33 L
518.264 33 L
518.38 33 L
518.496 33 L
518.611 33 L
518.726 33 L
518.841 33 L
518.956 33 L
519.07 33 L
519.185 33 L
519.299 33 L
519.413 33 L
519.527 33 L
519.64 33 L
519.754 33 L
519.867 33 L
519.98 33 L
520.093 33 L
520.206 33 L
520.318 33 L
520.43 33 L
520.542 33 L
520.654 33 L
520.766 33 L
520.878 33 L
520.989 33 L
521.1 33 L
521.211 33 L
521.322 33 L
521.433 33 L
521.543 33 L
521.653 33 L
521.763 33 L
521.873 33 L
521.983 33 L
522.093 33 L
522.202 33 L
522.311 33 L
522.42 33 L
522.529 33 L
522.638 33 L
522.746 33 L
522.854 33 L
522.963 33 L
523.07 33 L
523.178 33 L
523.286 33 L
523.393 33 L
523.501 33 L
523.608 33 L
523.715 33 L
523.821 33 L
523.928 33 L
524.034 33 L
524.141 33 L
524.247 33 L
524.353 33 L
524.458 33 L
524.564 33 L
524.67 33 L
524.775 33 L
524.88 33 L
524.985 33 L
525.09 33 L
525.194 33 L
525.299 33 L
525.403 33 L
525.507 33 L
525.611 33 L
525.715 33 L
525.818 33 L
525.922 33 L
526.025 33 L
526.128 33 L
526.231 33 L
526.334 33 L
526.437 33 L
526.54 33 L
526.642 33 L
526.744 33 L
526.846 33 L
526.948 33 L
527.05 33 L
527.151 33 L
527.253 33 L
527.354 33 L
527.455 33 L
527.556 33 L
527.657 33 L
527.758 33 L
527.859 33 L
527.959 33 L
528.059 33 L
528.159 33 L
528.259 33 L
528.359 33 L
528.459 33 L
528.558 33 L
528.657 33 L
528.757 33 L
528.856 33 L
528.955 33 L
529.053 33 L
529.152 33 L
529.251 33 L
529.349 33 L
529.447 33 L
529.545 33 L
529.643 33 L
529.741 33 L
529.839 33 L
529.936 33 L
530.033 33 L
530.131 33 L
530.228 33 L
530.325 33 L
530.421 33 L
530.518 33 L
530.615 33 L
530.711 33 L
530.807 33 L
530.903 33 L
530.999 33 L
531.095 33 L
531.191 33 L
531.286 33 L
531.382 33 L
531.477 33 L
531.572 33 L
531.667 33 L
531.762 33 L
531.857 33 L
531.951 33 L
532.046 33 L
532.14 33 L
532.234 33 L
532.328 33 L
532.422 33 L
532.516 33 L
532.61 33 L
532.703 33 L
532.797 33 L
532.89 33 L
532.983 33 L
533.076 33 L
533.169 33 L
533.262 33 L
533.355 33 L
533.447 33 L
533.54 33 L
533.632 33 L
533.724 33 L
533.816 33 L
533.908 33 L
534 33 L
534.091 33 L
534.183 33 L
534.274 33 L
534.366 33 L
534.457 33 L
534.548 33 L
534.639 33 L
534.729 33 L
534.82 33 L
534.911 33 L
535.001 33 L
535.091 33 L
535.182 33 L
535.272 33 L
535.362 33 L
535.451 33 L
535.541 33 L
535.631 33 L
535.72 33 L
535.809 33 L
535.899 33 L
535.988 33 L
536.077 33 L
536.166 33 L
536.254 33 L
536.343 33 L
536.432 33 L
536.52 33 L
536.608 33 L
536.696 33 L
536.784 33 L
536.872 33 L
536.96 33 L
537.048 33 L
537.135 33 L
537.223 33 L
537.31 33 L
537.398 33 L
537.485 33 L
537.572 33 L
537.659 33 L
537.745 33 L
537.832 33 L
537.919 33 L
538.005 33 L
538.092 33 L
538.178 33 L
538.264 33 L
538.35 33 L
538.436 33 L
538.522 33 L
538.607 33 L
538.693 33 L
538.778 33 L
538.864 33 L
538.949 33 L
539.034 33 L
539.119 33 L
539.204 33 L
539.289 33 L
539.374 33 L
539.458 33 L
539.543 33 L
539.627 33 L
539.712 33 L
539.796 33 L
539.88 33 L
539.964 33 L
540.048 33 L
540.132 33 L
540.215 33 L
540.299 33 L
540.382 33 L
540.466 33 L
540.549 33 L
540.632 33 L
540.715 33 L
540.798 33 L
540.881 33 L
540.964 33 L
541.046 33 L
541.129 33 L
541.211 33 L
541.294 33 L
541.376 33 L
541.458 33 L
541.54 33 L
541.622 33 L
541.704 33 L
541.786 33 L
541.867 33 L
541.949 33 L
542.03 33 L
542.112 33 L
542.193 33 L
542.274 33 L
542.355 33 L
542.436 33 L
542.517 33 L
542.598 33 L
542.678 33 L
542.759 33 L
542.839 33 L
542.92 33 L
543 33 L
S
GR
GS
1 GC
N
533 326 M
533 277 L
155 277 L
155 326 L
cp
f
GR
GS
[1 0 0 1 192 290.13403] CT
/Helvetica 18 F
GS
[1 0 0 1 0 0] CT
0 7 moveto 
1 -1 scale
(All samples, AUC = 99.94%) t 
GR
GR
GS
0 0 1 RC
1 LJ
5 LW
N
159 290.134 M
189 290.134 L
S
GR
GS
[1 0 0 1 192 312.86597] CT
/Helvetica 18 F
GS
[1 0 0 1 0 0] CT
0 7 moveto 
1 -1 scale
(At least 16h post-mortem, AUC = 99.99%) t 
GR
GR
GS
1 0 0 RC
[5 5] 0 setdash
2 LJ
5 LW
N
159 312.866 M
189 312.866 L
S
GR
GS
0.149 GC
10.0 ML
0.5 LW
N
155 326 M
155 277 L
533 277 L
533 326 L
cp
S
GR
%%Trailer
%%Pages: 1
%%EOF
