%!PS-Adobe-3.0 EPSF-3.0
%%Creator: (MATLAB, The Mathworks, Inc. Version 9.5.0.1049112 \(R2018b\) Update 3. Operating System: Mac OS X)
%%Title: ./ROCs_postmortem_seg_48.eps
%%CreationDate: 2019-03-22T17:42:18
%%Pages: (atend)
%%BoundingBox:    61     5   907   587
%%LanguageLevel: 3
%%EndComments
%%BeginProlog
%%BeginResource: procset (Apache XML Graphics Std ProcSet) 1.2 0
%%Version: 1.2 0
%%Copyright: (Copyright 2001-2003,2010 The Apache Software Foundation. License terms: http://www.apache.org/licenses/LICENSE-2.0)
/bd{bind def}bind def
/ld{load def}bd
/GR/grestore ld
/GS/gsave ld
/RM/rmoveto ld
/C/curveto ld
/t/show ld
/L/lineto ld
/ML/setmiterlimit ld
/CT/concat ld
/f/fill ld
/N/newpath ld
/S/stroke ld
/CC/setcmykcolor ld
/A/ashow ld
/cp/closepath ld
/RC/setrgbcolor ld
/LJ/setlinejoin ld
/GC/setgray ld
/LW/setlinewidth ld
/M/moveto ld
/re {4 2 roll M
1 index 0 rlineto
0 exch rlineto
neg 0 rlineto
cp } bd
/_ctm matrix def
/_tm matrix def
/BT { _ctm currentmatrix pop matrix _tm copy pop 0 0 moveto } bd
/ET { _ctm setmatrix } bd
/iTm { _ctm setmatrix _tm concat } bd
/Tm { _tm astore pop iTm 0 0 moveto } bd
/ux 0.0 def
/uy 0.0 def
/F {
  /Tp exch def
  /Tf exch def
  Tf findfont Tp scalefont setfont
  /cf Tf def  /cs Tp def
} bd
/ULS {currentpoint /uy exch def /ux exch def} bd
/ULE {
  /Tcx currentpoint pop def
  gsave
  newpath
  cf findfont cs scalefont dup
  /FontMatrix get 0 get /Ts exch def /FontInfo get dup
  /UnderlinePosition get Ts mul /To exch def
  /UnderlineThickness get Ts mul /Tt exch def
  ux uy To add moveto  Tcx uy To add lineto
  Tt setlinewidth stroke
  grestore
} bd
/OLE {
  /Tcx currentpoint pop def
  gsave
  newpath
  cf findfont cs scalefont dup
  /FontMatrix get 0 get /Ts exch def /FontInfo get dup
  /UnderlinePosition get Ts mul /To exch def
  /UnderlineThickness get Ts mul /Tt exch def
  ux uy To add cs add moveto Tcx uy To add cs add lineto
  Tt setlinewidth stroke
  grestore
} bd
/SOE {
  /Tcx currentpoint pop def
  gsave
  newpath
  cf findfont cs scalefont dup
  /FontMatrix get 0 get /Ts exch def /FontInfo get dup
  /UnderlinePosition get Ts mul /To exch def
  /UnderlineThickness get Ts mul /Tt exch def
  ux uy To add cs 10 mul 26 idiv add moveto Tcx uy To add cs 10 mul 26 idiv add lineto
  Tt setlinewidth stroke
  grestore
} bd
/QT {
/Y22 exch store
/X22 exch store
/Y21 exch store
/X21 exch store
currentpoint
/Y21 load 2 mul add 3 div exch
/X21 load 2 mul add 3 div exch
/X21 load 2 mul /X22 load add 3 div
/Y21 load 2 mul /Y22 load add 3 div
/X22 load /Y22 load curveto
} bd
/SSPD {
dup length /d exch dict def
{
/v exch def
/k exch def
currentpagedevice k known {
/cpdv currentpagedevice k get def
v cpdv ne {
/upd false def
/nullv v type /nulltype eq def
/nullcpdv cpdv type /nulltype eq def
nullv nullcpdv or
{
/upd true def
} {
/sametype v type cpdv type eq def
sametype {
v type /arraytype eq {
/vlen v length def
/cpdvlen cpdv length def
vlen cpdvlen eq {
0 1 vlen 1 sub {
/i exch def
/obj v i get def
/cpdobj cpdv i get def
obj cpdobj ne {
/upd true def
exit
} if
} for
} {
/upd true def
} ifelse
} {
v type /dicttype eq {
v {
/dv exch def
/dk exch def
/cpddv cpdv dk get def
dv cpddv ne {
/upd true def
exit
} if
} forall
} {
/upd true def
} ifelse
} ifelse
} if
} ifelse
upd true eq {
d k v put
} if
} if
} if
} forall
d length 0 gt {
d setpagedevice
} if
} bd
/RE { % /NewFontName [NewEncodingArray] /FontName RE -
  findfont dup length dict begin
  {
    1 index /FID ne
    {def} {pop pop} ifelse
  } forall
  /Encoding exch def
  /FontName 1 index def
  currentdict definefont pop
  end
} bind def
%%EndResource
%%BeginResource: procset (Apache XML Graphics EPS ProcSet) 1.0 0
%%Version: 1.0 0
%%Copyright: (Copyright 2002-2003 The Apache Software Foundation. License terms: http://www.apache.org/licenses/LICENSE-2.0)
/BeginEPSF { %def
/b4_Inc_state save def         % Save state for cleanup
/dict_count countdictstack def % Count objects on dict stack
/op_count count 1 sub def      % Count objects on operand stack
userdict begin                 % Push userdict on dict stack
/showpage { } def              % Redefine showpage, { } = null proc
0 setgray 0 setlinecap         % Prepare graphics state
1 setlinewidth 0 setlinejoin
10 setmiterlimit [ ] 0 setdash newpath
/languagelevel where           % If level not equal to 1 then
{pop languagelevel             % set strokeadjust and
1 ne                           % overprint to their defaults.
{false setstrokeadjust false setoverprint
} if
} if
} bd
/EndEPSF { %def
count op_count sub {pop} repeat            % Clean up stacks
countdictstack dict_count sub {end} repeat
b4_Inc_state restore
} bd
%%EndResource
%FOPBeginFontDict
%%IncludeResource: font Courier-Oblique
%%IncludeResource: font Courier-BoldOblique
%%IncludeResource: font Courier-Bold
%%IncludeResource: font ZapfDingbats
%%IncludeResource: font Symbol
%%IncludeResource: font Helvetica
%%IncludeResource: font Helvetica-Oblique
%%IncludeResource: font Helvetica-Bold
%%IncludeResource: font Helvetica-BoldOblique
%%IncludeResource: font Times-Roman
%%IncludeResource: font Times-Italic
%%IncludeResource: font Times-Bold
%%IncludeResource: font Times-BoldItalic
%%IncludeResource: font Courier
%FOPEndFontDict
%%BeginResource: encoding WinAnsiEncoding
/WinAnsiEncoding [
/.notdef /.notdef /.notdef /.notdef /.notdef
/.notdef /.notdef /.notdef /.notdef /.notdef
/.notdef /.notdef /.notdef /.notdef /.notdef
/.notdef /.notdef /.notdef /.notdef /.notdef
/.notdef /.notdef /.notdef /.notdef /.notdef
/.notdef /.notdef /.notdef /.notdef /.notdef
/.notdef /.notdef /space /exclam /quotedbl
/numbersign /dollar /percent /ampersand /quotesingle
/parenleft /parenright /asterisk /plus /comma
/hyphen /period /slash /zero /one
/two /three /four /five /six
/seven /eight /nine /colon /semicolon
/less /equal /greater /question /at
/A /B /C /D /E
/F /G /H /I /J
/K /L /M /N /O
/P /Q /R /S /T
/U /V /W /X /Y
/Z /bracketleft /backslash /bracketright /asciicircum
/underscore /quoteleft /a /b /c
/d /e /f /g /h
/i /j /k /l /m
/n /o /p /q /r
/s /t /u /v /w
/x /y /z /braceleft /bar
/braceright /asciitilde /bullet /Euro /bullet
/quotesinglbase /florin /quotedblbase /ellipsis /dagger
/daggerdbl /circumflex /perthousand /Scaron /guilsinglleft
/OE /bullet /Zcaron /bullet /bullet
/quoteleft /quoteright /quotedblleft /quotedblright /bullet
/endash /emdash /asciitilde /trademark /scaron
/guilsinglright /oe /bullet /zcaron /Ydieresis
/space /exclamdown /cent /sterling /currency
/yen /brokenbar /section /dieresis /copyright
/ordfeminine /guillemotleft /logicalnot /sfthyphen /registered
/macron /degree /plusminus /twosuperior /threesuperior
/acute /mu /paragraph /middot /cedilla
/onesuperior /ordmasculine /guillemotright /onequarter /onehalf
/threequarters /questiondown /Agrave /Aacute /Acircumflex
/Atilde /Adieresis /Aring /AE /Ccedilla
/Egrave /Eacute /Ecircumflex /Edieresis /Igrave
/Iacute /Icircumflex /Idieresis /Eth /Ntilde
/Ograve /Oacute /Ocircumflex /Otilde /Odieresis
/multiply /Oslash /Ugrave /Uacute /Ucircumflex
/Udieresis /Yacute /Thorn /germandbls /agrave
/aacute /acircumflex /atilde /adieresis /aring
/ae /ccedilla /egrave /eacute /ecircumflex
/edieresis /igrave /iacute /icircumflex /idieresis
/eth /ntilde /ograve /oacute /ocircumflex
/otilde /odieresis /divide /oslash /ugrave
/uacute /ucircumflex /udieresis /yacute /thorn
/ydieresis
] def
%%EndResource
%FOPBeginFontReencode
/Courier-Oblique findfont
dup length dict begin
  {1 index /FID ne {def} {pop pop} ifelse} forall
  /Encoding WinAnsiEncoding def
  currentdict
end
/Courier-Oblique exch definefont pop
/Courier-BoldOblique findfont
dup length dict begin
  {1 index /FID ne {def} {pop pop} ifelse} forall
  /Encoding WinAnsiEncoding def
  currentdict
end
/Courier-BoldOblique exch definefont pop
/Courier-Bold findfont
dup length dict begin
  {1 index /FID ne {def} {pop pop} ifelse} forall
  /Encoding WinAnsiEncoding def
  currentdict
end
/Courier-Bold exch definefont pop
/Helvetica findfont
dup length dict begin
  {1 index /FID ne {def} {pop pop} ifelse} forall
  /Encoding WinAnsiEncoding def
  currentdict
end
/Helvetica exch definefont pop
/Helvetica-Oblique findfont
dup length dict begin
  {1 index /FID ne {def} {pop pop} ifelse} forall
  /Encoding WinAnsiEncoding def
  currentdict
end
/Helvetica-Oblique exch definefont pop
/Helvetica-Bold findfont
dup length dict begin
  {1 index /FID ne {def} {pop pop} ifelse} forall
  /Encoding WinAnsiEncoding def
  currentdict
end
/Helvetica-Bold exch definefont pop
/Helvetica-BoldOblique findfont
dup length dict begin
  {1 index /FID ne {def} {pop pop} ifelse} forall
  /Encoding WinAnsiEncoding def
  currentdict
end
/Helvetica-BoldOblique exch definefont pop
/Times-Roman findfont
dup length dict begin
  {1 index /FID ne {def} {pop pop} ifelse} forall
  /Encoding WinAnsiEncoding def
  currentdict
end
/Times-Roman exch definefont pop
/Times-Italic findfont
dup length dict begin
  {1 index /FID ne {def} {pop pop} ifelse} forall
  /Encoding WinAnsiEncoding def
  currentdict
end
/Times-Italic exch definefont pop
/Times-Bold findfont
dup length dict begin
  {1 index /FID ne {def} {pop pop} ifelse} forall
  /Encoding WinAnsiEncoding def
  currentdict
end
/Times-Bold exch definefont pop
/Times-BoldItalic findfont
dup length dict begin
  {1 index /FID ne {def} {pop pop} ifelse} forall
  /Encoding WinAnsiEncoding def
  currentdict
end
/Times-BoldItalic exch definefont pop
/Courier findfont
dup length dict begin
  {1 index /FID ne {def} {pop pop} ifelse} forall
  /Encoding WinAnsiEncoding def
  currentdict
end
/Courier exch definefont pop
%FOPEndFontReencode
%%EndProlog
%%Page: 1 1
%%PageBoundingBox: 0 0 1000 600
%%BeginPageSetup
[1 0 0 -1 0 600] CT
%%EndPageSetup
GS
1 GC
N
0 0 1000 600 re
f
GR
GS
1 GC
N
0 0 1000 600 re
f
GR
GS
1 GC
N
130 531 M
905 531 L
905 45 L
130 45 L
cp
f
GR
GS
0.873 GC
1 LJ
0.5 LW
N
130 531 M
130 45 L
S
GR
GS
0.873 GC
1 LJ
0.5 LW
N
285 531 M
285 45 L
S
GR
GS
0.873 GC
1 LJ
0.5 LW
N
440 531 M
440 45 L
S
GR
GS
0.873 GC
1 LJ
0.5 LW
N
595 531 M
595 45 L
S
GR
GS
0.873 GC
1 LJ
0.5 LW
N
750 531 M
750 45 L
S
GR
GS
0.873 GC
1 LJ
0.5 LW
N
905 531 M
905 45 L
S
GR
GS
0.873 GC
1 LJ
0.5 LW
N
905 531 M
130 531 L
S
GR
GS
0.873 GC
1 LJ
0.5 LW
N
905 433.8 M
130 433.8 L
S
GR
GS
0.873 GC
1 LJ
0.5 LW
N
905 336.6 M
130 336.6 L
S
GR
GS
0.873 GC
1 LJ
0.5 LW
N
905 239.4 M
130 239.4 L
S
GR
GS
0.873 GC
1 LJ
0.5 LW
N
905 142.2 M
130 142.2 L
S
GR
GS
0.873 GC
1 LJ
0.5 LW
N
905 45 M
130 45 L
S
GR
GS
0.149 GC
2 setlinecap
1 LJ
0.5 LW
N
130 531 M
905 531 L
S
GR
GS
0.149 GC
2 setlinecap
1 LJ
0.5 LW
N
130 45 M
905 45 L
S
GR
GS
0.149 GC
2 setlinecap
1 LJ
0.5 LW
N
130 531 M
130 523.25 L
S
GR
GS
0.149 GC
2 setlinecap
1 LJ
0.5 LW
N
285 531 M
285 523.25 L
S
GR
GS
0.149 GC
2 setlinecap
1 LJ
0.5 LW
N
440 531 M
440 523.25 L
S
GR
GS
0.149 GC
2 setlinecap
1 LJ
0.5 LW
N
595 531 M
595 523.25 L
S
GR
GS
0.149 GC
2 setlinecap
1 LJ
0.5 LW
N
750 531 M
750 523.25 L
S
GR
GS
0.149 GC
2 setlinecap
1 LJ
0.5 LW
N
905 531 M
905 523.25 L
S
GR
GS
0.149 GC
2 setlinecap
1 LJ
0.5 LW
N
130 45 M
130 52.75 L
S
GR
GS
0.149 GC
2 setlinecap
1 LJ
0.5 LW
N
285 45 M
285 52.75 L
S
GR
GS
0.149 GC
2 setlinecap
1 LJ
0.5 LW
N
440 45 M
440 52.75 L
S
GR
GS
0.149 GC
2 setlinecap
1 LJ
0.5 LW
N
595 45 M
595 52.75 L
S
GR
GS
0.149 GC
2 setlinecap
1 LJ
0.5 LW
N
750 45 M
750 52.75 L
S
GR
GS
0.149 GC
2 setlinecap
1 LJ
0.5 LW
N
905 45 M
905 52.75 L
S
GR
GS
[1 0 0 1 130 537.79999] CT
0.149 GC
/Helvetica 24 F
GS
[1 0 0 1 0 0] CT
-7 23 moveto 
1 -1 scale
(0) t 
GR
GR
GS
[1 0 0 1 285 537.79999] CT
0.149 GC
/Helvetica 24 F
GS
[1 0 0 1 0 0] CT
-17 23 moveto 
1 -1 scale
(0.2) t 
GR
GR
GS
[1 0 0 1 440 537.79999] CT
0.149 GC
/Helvetica 24 F
GS
[1 0 0 1 0 0] CT
-17 23 moveto 
1 -1 scale
(0.4) t 
GR
GR
GS
[1 0 0 1 595 537.79999] CT
0.149 GC
/Helvetica 24 F
GS
[1 0 0 1 0 0] CT
-17 23 moveto 
1 -1 scale
(0.6) t 
GR
GR
GS
[1 0 0 1 750 537.79999] CT
0.149 GC
/Helvetica 24 F
GS
[1 0 0 1 0 0] CT
-17 23 moveto 
1 -1 scale
(0.8) t 
GR
GR
GS
[1 0 0 1 905 537.79999] CT
0.149 GC
/Helvetica 24 F
GS
[1 0 0 1 0 0] CT
-7 23 moveto 
1 -1 scale
(1) t 
GR
GR
GS
[1 0 0 1 517.50037 567.79999] CT
0.149 GC
/Helvetica 26.4 F
GS
[1 0 0 1 0 0] CT
-103.5 26 moveto 
1 -1 scale
(False Match Rate) t 
GR
GR
GS
0.149 GC
2 setlinecap
1 LJ
0.5 LW
N
130 531 M
130 45 L
S
GR
GS
0.149 GC
2 setlinecap
1 LJ
0.5 LW
N
905 531 M
905 45 L
S
GR
GS
0.149 GC
2 setlinecap
1 LJ
0.5 LW
N
130 531 M
137.75 531 L
S
GR
GS
0.149 GC
2 setlinecap
1 LJ
0.5 LW
N
130 433.8 M
137.75 433.8 L
S
GR
GS
0.149 GC
2 setlinecap
1 LJ
0.5 LW
N
130 336.6 M
137.75 336.6 L
S
GR
GS
0.149 GC
2 setlinecap
1 LJ
0.5 LW
N
130 239.4 M
137.75 239.4 L
S
GR
GS
0.149 GC
2 setlinecap
1 LJ
0.5 LW
N
130 142.2 M
137.75 142.2 L
S
GR
GS
0.149 GC
2 setlinecap
1 LJ
0.5 LW
N
130 45 M
137.75 45 L
S
GR
GS
0.149 GC
2 setlinecap
1 LJ
0.5 LW
N
905 531 M
897.25 531 L
S
GR
GS
0.149 GC
2 setlinecap
1 LJ
0.5 LW
N
905 433.8 M
897.25 433.8 L
S
GR
GS
0.149 GC
2 setlinecap
1 LJ
0.5 LW
N
905 336.6 M
897.25 336.6 L
S
GR
GS
0.149 GC
2 setlinecap
1 LJ
0.5 LW
N
905 239.4 M
897.25 239.4 L
S
GR
GS
0.149 GC
2 setlinecap
1 LJ
0.5 LW
N
905 142.2 M
897.25 142.2 L
S
GR
GS
0.149 GC
2 setlinecap
1 LJ
0.5 LW
N
905 45 M
897.25 45 L
S
GR
GS
[1 0 0 1 123.2 531] CT
0.149 GC
/Helvetica 24 F
GS
[1 0 0 1 0 0] CT
-14 8.5 moveto 
1 -1 scale
(0) t 
GR
GR
GS
[1 0 0 1 123.2 433.79999] CT
0.149 GC
/Helvetica 24 F
GS
[1 0 0 1 0 0] CT
-34 8.5 moveto 
1 -1 scale
(0.2) t 
GR
GR
GS
[1 0 0 1 123.2 336.60001] CT
0.149 GC
/Helvetica 24 F
GS
[1 0 0 1 0 0] CT
-34 8.5 moveto 
1 -1 scale
(0.4) t 
GR
GR
GS
[1 0 0 1 123.2 239.39999] CT
0.149 GC
/Helvetica 24 F
GS
[1 0 0 1 0 0] CT
-34 8.5 moveto 
1 -1 scale
(0.6) t 
GR
GR
GS
[1 0 0 1 123.2 142.2] CT
0.149 GC
/Helvetica 24 F
GS
[1 0 0 1 0 0] CT
-34 8.5 moveto 
1 -1 scale
(0.8) t 
GR
GR
GS
[1 0 0 1 123.2 45] CT
0.149 GC
/Helvetica 24 F
GS
[1 0 0 1 0 0] CT
-14 8.5 moveto 
1 -1 scale
(1) t 
GR
GR
GS
[0 -1 1 0 86.2 287.99976] CT
0.149 GC
/Helvetica 26.4 F
GS
[1 0 0 1 0 0] CT
-153 -6 moveto 
1 -1 scale
(1 - False Non-Match Rate) t 
GR
GR
GS
[1 0 0 1 517.50049 38.40002] CT
/Helvetica-Bold 26.4 F
GS
[1 0 0 1 0 0] CT
-279.5 -6 moveto 
1 -1 scale
(Data acquired less than 48 hours after death) t 
GR
GR
GS
0 0 1 RC
1 LJ
3 LW
N
130 530.503 M
130 530.503 L
130 530.503 L
130 530.503 L
130 530.503 L
130 530.503 L
130 530.503 L
130 530.503 L
130 530.503 L
130 530.503 L
130 530.503 L
130 530.503 L
130 530.503 L
130 530.503 L
130 530.503 L
130 530.503 L
130 530.503 L
130 530.503 L
130 530.503 L
130 530.503 L
130 530.503 L
130 530.503 L
130 530.503 L
130 530.503 L
130 530.503 L
130 530.503 L
130 530.503 L
130 530.503 L
130 530.503 L
130 530.503 L
130 530.503 L
130 530.503 L
130 530.503 L
130 530.503 L
130 530.503 L
130 530.503 L
130 530.503 L
130 530.503 L
130 530.503 L
130 530.503 L
130 530.503 L
130 530.503 L
130 530.503 L
130 530.503 L
130 530.503 L
130 530.503 L
130 530.503 L
130 530.503 L
130 530.503 L
130 530.503 L
130 530.503 L
130 530.503 L
130 530.503 L
130 530.503 L
130 530.503 L
130 530.503 L
130 530.503 L
130 530.503 L
130 530.503 L
130 530.503 L
130 530.503 L
130 530.503 L
130 530.503 L
130 530.503 L
130 530.503 L
130 530.503 L
130 530.503 L
130 530.503 L
130 530.503 L
130 530.503 L
130 530.503 L
130 530.503 L
130 530.503 L
130 530.503 L
130 530.503 L
130 530.503 L
130 530.503 L
130 530.503 L
130 530.503 L
130 530.503 L
130 530.503 L
130 530.503 L
130 530.503 L
130 530.503 L
130 530.503 L
130 530.503 L
130 530.503 L
130 530.503 L
130 530.503 L
130 530.503 L
130 530.503 L
130 530.503 L
130 530.503 L
130 530.503 L
130 530.503 L
130 530.503 L
130 530.503 L
130 530.503 L
130 530.503 L
130 530.503 L
130 530.503 L
130 530.503 L
130 530.503 L
130 530.503 L
130 530.503 L
130 530.503 L
130 530.503 L
130 530.503 L
130 530.503 L
130 530.503 L
130 530.503 L
130 530.503 L
130 530.503 L
130 530.503 L
130 530.503 L
130 530.503 L
130 530.503 L
130 530.503 L
130 530.503 L
130 530.503 L
130 530.503 L
130 530.503 L
130 530.503 L
130 530.503 L
130 530.503 L
130 530.503 L
130 530.503 L
130 530.503 L
130 530.503 L
130 530.503 L
130 530.503 L
130 530.503 L
130 530.503 L
130 530.503 L
130 530.503 L
130 530.503 L
130 530.503 L
130 530.503 L
130 530.503 L
130 530.503 L
130 530.503 L
130 530.503 L
130 530.503 L
130 530.503 L
130 530.503 L
130 530.503 L
130 530.503 L
130 530.503 L
130 530.503 L
130 530.503 L
130 530.503 L
130 530.503 L
130 530.503 L
130 530.503 L
130 530.503 L
130 530.503 L
130 530.503 L
130 530.503 L
130 530.503 L
130 530.503 L
130 530.503 L
130 530.503 L
130 530.503 L
130 530.503 L
130 530.503 L
130 530.503 L
130 530.503 L
130 530.503 L
130 530.503 L
130 530.503 L
130 530.503 L
130 530.503 L
130 530.503 L
130 530.503 L
130 530.503 L
130 530.503 L
130 530.503 L
130 530.503 L
130 530.503 L
130 530.503 L
130 530.503 L
130 530.503 L
130 530.503 L
130 530.503 L
130 530.503 L
130 530.503 L
130 530.503 L
130 530.503 L
130 530.503 L
130 530.503 L
130 530.503 L
130 530.503 L
130 530.503 L
130 530.503 L
130 530.503 L
130 530.503 L
130 530.503 L
130 530.006 L
130 529.509 L
130 529.509 L
130 529.509 L
130 529.509 L
130 529.509 L
130 528.515 L
130 528.515 L
130 528.018 L
130 527.521 L
130 527.521 L
130 527.521 L
130 527.521 L
130 527.521 L
130 527.521 L
130 527.521 L
130 526.528 L
130 526.031 L
130 526.031 L
130 525.534 L
130 525.534 L
130 525.534 L
130 525.534 L
130 525.534 L
130 525.037 L
130 524.043 L
130 523.049 L
130 522.552 L
130 522.552 L
130 522.552 L
130 522.055 L
130 521.061 L
130 520.564 L
130 520.068 L
130 519.571 L
130 519.571 L
130 519.571 L
130 519.571 L
130 519.571 L
130 519.074 L
130 518.577 L
130 518.08 L
130 518.08 L
130 517.086 L
130 516.092 L
130 515.098 L
130 514.601 L
130 513.607 L
130 513.11 L
130 512.614 L
130 510.129 L
130 508.141 L
130 506.65 L
130 504.663 L
130 503.172 L
130 502.675 L
130 502.675 L
130 502.178 L
130 501.681 L
130 501.681 L
130 501.184 L
130 501.184 L
130 500.19 L
130 498.699 L
130 497.706 L
130 497.209 L
130 496.215 L
130 494.227 L
130 493.233 L
130 492.736 L
130 491.742 L
130 491.742 L
130 490.748 L
130 489.755 L
130 488.264 L
130 488.264 L
130 488.264 L
130 487.767 L
130 487.767 L
130 487.27 L
130 486.276 L
130 485.282 L
130 484.785 L
130 484.288 L
130 483.294 L
130 480.81 L
130 479.816 L
130 479.319 L
130 478.822 L
130 477.331 L
130 476.337 L
130 475.84 L
130 474.847 L
130 474.847 L
130 474.847 L
130 474.35 L
130 473.356 L
130 472.362 L
130 471.865 L
130 471.368 L
130 469.877 L
130 469.877 L
130 469.877 L
130 468.883 L
130 467.89 L
130 466.896 L
130 465.902 L
130 465.405 L
130 464.908 L
130 461.926 L
130 461.926 L
130 461.926 L
130 461.429 L
130 460.933 L
130 458.448 L
130 457.454 L
130 456.46 L
130 454.969 L
130 453.479 L
130 451.988 L
130 451.491 L
130 449.006 L
130 447.515 L
130 447.515 L
130 446.521 L
130 446.025 L
130 445.528 L
130 444.037 L
130 444.037 L
130 443.54 L
130 443.54 L
130 441.055 L
130 438.571 L
130 438.074 L
130 436.086 L
130 434.595 L
130 433.104 L
130 431.117 L
130 430.123 L
130 429.129 L
130 428.135 L
130 425.65 L
130 424.16 L
130 423.166 L
130 422.669 L
130 421.675 L
130 420.184 L
130 419.19 L
130 417.699 L
130 415.215 L
130 412.73 L
130 412.233 L
130 411.736 L
130 410.742 L
130 409.748 L
130 409.252 L
130 407.761 L
130 405.773 L
130 405.276 L
130 403.785 L
130 402.791 L
130 402.294 L
130 401.798 L
130 400.307 L
130 399.313 L
130 399.313 L
130 398.319 L
130 397.325 L
130 395.834 L
130 395.834 L
130 395.337 L
130 394.344 L
130 393.847 L
130 393.35 L
130 391.859 L
130 390.865 L
130 390.865 L
130 389.871 L
130 388.38 L
130 387.387 L
130 385.896 L
130 384.405 L
130 381.92 L
130 380.926 L
130 380.429 L
130 379.933 L
130 378.939 L
130 377.448 L
130 376.951 L
130 374.963 L
130 374.466 L
130 372.975 L
130 372.479 L
130 370.988 L
130 368.006 L
130 367.509 L
130 367.012 L
130 365.025 L
130 364.528 L
130 363.534 L
130 363.037 L
130 362.043 L
130 361.546 L
130 361.546 L
130 360.552 L
130 359.061 L
130 359.061 L
130 358.564 L
130 358.067 L
130 356.577 L
130 355.086 L
130 354.092 L
130 353.595 L
130 352.601 L
130 352.601 L
130 351.11 L
130 350.117 L
130 349.123 L
130 349.123 L
130 347.135 L
130 346.638 L
130 346.141 L
130 345.147 L
130 344.153 L
130 343.656 L
130 342.663 L
130 342.166 L
130 341.669 L
130 341.669 L
130 340.675 L
130 340.178 L
130 339.184 L
130 338.19 L
130 338.19 L
130 337.693 L
130 337.196 L
130 336.699 L
130 336.699 L
130 335.706 L
130 334.215 L
130 332.724 L
130 332.724 L
130 331.233 L
130 331.233 L
130 330.239 L
130 330.239 L
130 329.245 L
130 329.245 L
130 329.245 L
130 328.252 L
130 327.755 L
130 327.258 L
130 326.761 L
130 325.767 L
130 324.773 L
130 322.288 L
130 321.791 L
130 320.798 L
130 319.804 L
130 319.307 L
130 319.307 L
130 317.816 L
130 316.822 L
130 316.325 L
130 316.325 L
130 315.828 L
130 315.828 L
130 315.331 L
130 314.834 L
130 314.834 L
130 313.84 L
130 313.84 L
130 313.84 L
130 313.344 L
130 312.847 L
130 312.35 L
130 312.35 L
130 312.35 L
130 311.853 L
130 310.859 L
130 310.362 L
130 309.865 L
130 309.865 L
130 308.871 L
130 308.871 L
130 308.374 L
130 307.877 L
130 307.877 L
130 307.38 L
130 306.883 L
130 306.387 L
130 305.393 L
130 303.902 L
130 303.405 L
130 301.417 L
130 300.423 L
130 299.926 L
130 299.926 L
130 299.926 L
130 298.436 L
130 296.945 L
130 295.951 L
130 295.951 L
130 294.957 L
130 294.957 L
130 294.46 L
130 294.46 L
130 294.46 L
130 292.969 L
130 290.982 L
130 290.485 L
130 289.491 L
130 288.994 L
130 287.006 L
130 286.509 L
130 285.515 L
130 285.515 L
130 284.025 L
130 284.025 L
130 283.528 L
130 283.528 L
130 282.534 L
130 282.037 L
130 281.54 L
130 281.043 L
130 280.049 L
130 279.552 L
130 279.055 L
130 279.055 L
130 278.558 L
130 278.558 L
130 278.061 L
130 277.067 L
130 275.577 L
130 274.583 L
130 274.583 L
130 273.092 L
130 273.092 L
130.009 272.595 L
130.009 271.601 L
130.009 271.601 L
130.009 270.11 L
130.009 269.117 L
130.009 269.117 L
130.009 268.62 L
130.009 266.135 L
130.009 265.141 L
130.009 264.644 L
130.009 263.153 L
130.018 262.16 L
130.018 260.669 L
130.018 260.172 L
130.018 259.675 L
130.018 258.184 L
130.018 258.184 L
130.026 256.196 L
130.026 255.699 L
130.026 254.209 L
130.026 252.221 L
130.026 251.724 L
130.026 251.227 L
130.026 249.239 L
130.035 248.245 L
130.044 246.258 L
130.044 244.767 L
130.053 244.27 L
130.062 243.773 L
130.062 242.282 L
130.062 240.791 L
130.079 239.798 L
130.079 238.804 L
130.088 237.313 L
130.097 236.319 L
130.097 235.325 L
130.097 234.331 L
130.097 232.84 L
130.097 231.847 L
130.097 230.853 L
130.097 228.865 L
130.097 226.38 L
130.106 226.38 L
130.106 225.387 L
130.115 224.89 L
130.132 223.399 L
130.132 220.914 L
130.141 219.423 L
130.15 218.429 L
130.15 217.933 L
130.159 217.436 L
130.159 217.436 L
130.176 216.442 L
130.176 215.945 L
130.176 215.448 L
130.194 214.951 L
130.212 213.957 L
130.221 213.46 L
130.238 212.963 L
130.265 212.963 L
130.273 212.466 L
130.273 211.472 L
130.309 209.485 L
130.318 208.988 L
130.326 208.491 L
130.335 208.491 L
130.37 207.497 L
130.388 207 L
130.397 205.509 L
130.432 205.509 L
130.476 205.012 L
130.494 204.515 L
130.503 203.025 L
130.547 202.528 L
130.565 202.031 L
130.582 201.534 L
130.609 201.534 L
130.626 201.534 L
130.706 201.534 L
130.741 201.534 L
130.812 200.54 L
130.865 200.54 L
130.944 200.043 L
131.067 199.546 L
131.138 198.552 L
131.182 197.558 L
131.244 197.061 L
131.359 196.564 L
131.464 196.564 L
131.597 196.564 L
131.764 196.564 L
131.861 195.571 L
131.932 194.08 L
132.073 192.589 L
132.249 192.092 L
132.435 191.595 L
132.532 191.595 L
132.699 191.098 L
132.849 190.601 L
132.999 189.607 L
133.255 189.11 L
133.44 188.613 L
133.732 187.62 L
133.996 186.626 L
134.261 185.632 L
134.437 184.638 L
134.764 183.644 L
134.993 183.644 L
135.293 183.147 L
135.611 183.147 L
135.937 182.65 L
136.352 181.656 L
136.713 181.16 L
137.172 179.669 L
137.551 179.669 L
138.028 179.669 L
138.345 179.172 L
138.733 178.675 L
139.183 178.675 L
139.633 178.675 L
140.383 178.178 L
140.956 177.184 L
141.45 176.687 L
142.086 176.687 L
142.756 175.196 L
143.541 175.196 L
144.247 175.196 L
145.05 175.196 L
145.949 174.699 L
146.893 174.202 L
147.696 174.202 L
148.772 173.706 L
149.593 173.209 L
150.792 172.712 L
152.001 172.215 L
153.165 171.221 L
154.25 170.227 L
155.459 170.227 L
156.967 169.233 L
158.203 167.742 L
159.667 167.245 L
160.99 167.245 L
162.463 167.245 L
164.139 166.748 L
165.621 166.252 L
167.35 165.755 L
169.344 164.761 L
171.426 164.264 L
173.384 163.767 L
175.537 163.27 L
177.769 162.773 L
179.992 162.276 L
182.426 162.276 L
184.861 161.779 L
187.12 160.785 L
189.81 159.791 L
192.783 159.791 L
195.588 157.804 L
198.288 157.307 L
201.366 155.319 L
204.313 154.325 L
207.427 153.828 L
210.726 153.828 L
214.361 153.828 L
217.713 152.834 L
221.294 152.834 L
224.946 152.337 L
228.554 152.337 L
232.753 151.84 L
236.564 151.84 L
241.099 150.35 L
245.245 148.362 L
249.682 147.865 L
253.969 147.368 L
258.345 146.871 L
263.073 146.871 L
267.969 145.877 L
272.997 145.877 L
278.405 145.877 L
283.442 143.89 L
289.167 143.393 L
294.566 142.896 L
300.15 141.405 L
305.981 140.411 L
311.53 139.417 L
317.255 139.417 L
323.236 137.926 L
329.076 137.429 L
335.745 136.933 L
341.611 135.442 L
348.148 134.945 L
354.844 134.945 L
361.663 134.945 L
368.217 133.454 L
374.648 131.963 L
381.211 130.969 L
388.119 130.969 L
395.511 128.982 L
402.895 128.485 L
410.102 127.491 L
416.612 126 L
424.384 126 L
431.159 125.006 L
438.869 124.012 L
446.306 123.515 L
453.495 122.025 L
461.311 121.528 L
468.924 121.031 L
476.308 120.037 L
483.603 118.546 L
491.031 117.552 L
498.935 117.055 L
506.336 116.558 L
512.635 116.061 L
520.442 116.061 L
527.376 116.061 L
534.23 116.061 L
541.693 115.067 L
548.689 114.074 L
555.596 113.08 L
562.777 113.08 L
569.384 113.08 L
576.45 112.583 L
582.696 112.583 L
589.629 111.589 L
596.51 111.092 L
603.135 111.092 L
609.787 110.098 L
615.697 109.104 L
622.287 109.104 L
628.435 108.607 L
634.963 108.607 L
640.786 108.11 L
646.176 108.11 L
651.627 107.117 L
656.885 107.117 L
662.204 106.123 L
667.497 105.626 L
672.57 105.626 L
677.757 104.632 L
682.803 104.135 L
687.425 104.135 L
692.162 104.135 L
696.423 103.638 L
700.966 103.141 L
704.98 103.141 L
709.117 102.644 L
713.29 102.644 L
717.251 102.147 L
720.956 102.147 L
725.076 102.147 L
728.834 101.65 L
732.256 100.656 L
735.485 100.656 L
738.864 100.656 L
742.26 100.656 L
745.497 100.656 L
748.629 100.656 L
751.725 100.656 L
754.592 100.16 L
757.292 100.16 L
759.524 100.16 L
761.614 100.16 L
763.732 99.663 L
765.999 99.663 L
767.966 99.663 L
769.21 99.663 L
861.501 48.479 L
863.477 48.479 L
865.391 47.982 L
866.97 47.982 L
868.62 47.982 L
870.261 47.485 L
871.743 46.491 L
873.472 46.491 L
874.989 46.491 L
876.436 46.491 L
877.812 46.491 L
879.188 46.491 L
880.476 46.491 L
881.579 46.491 L
882.549 46.491 L
883.555 46.491 L
884.366 46.491 L
885.301 46.491 L
886.104 46.491 L
886.951 46.491 L
887.833 46.491 L
888.565 46.491 L
889.421 46.491 L
890.242 46.491 L
890.824 46.491 L
891.459 46.491 L
892.235 46.491 L
892.826 46.491 L
893.32 46.491 L
893.814 46.491 L
894.264 45.994 L
894.688 45.994 L
895.261 45.994 L
895.702 45.994 L
896.073 45.994 L
896.328 45.994 L
896.725 45.994 L
897.105 45.994 L
897.519 45.994 L
897.925 45.994 L
898.216 45.994 L
898.507 45.994 L
898.754 45.994 L
898.966 45.994 L
899.204 45.994 L
899.39 45.994 L
899.619 45.994 L
899.883 45.994 L
900.148 45.994 L
900.272 45.994 L
900.492 45.994 L
900.677 45.994 L
900.889 45.994 L
901.057 45.994 L
901.154 45.994 L
901.304 45.994 L
901.489 45.497 L
901.648 45.497 L
901.762 45.497 L
901.912 45.497 L
902.089 45.497 L
902.195 45.497 L
902.318 45.497 L
902.362 45.497 L
902.504 45.497 L
902.592 45.497 L
902.689 45.497 L
902.803 45.497 L
902.865 45.497 L
902.953 45.497 L
903.112 45.497 L
903.227 45 L
903.315 45 L
903.403 45 L
903.474 45 L
903.527 45 L
903.58 45 L
903.694 45 L
903.739 45 L
903.8 45 L
903.853 45 L
903.888 45 L
903.941 45 L
903.968 45 L
903.986 45 L
904.003 45 L
904.012 45 L
904.056 45 L
904.083 45 L
904.135 45 L
904.162 45 L
904.188 45 L
904.233 45 L
904.321 45 L
904.338 45 L
904.435 45 L
904.462 45 L
904.497 45 L
904.515 45 L
904.532 45 L
904.559 45 L
904.594 45 L
904.612 45 L
904.621 45 L
904.647 45 L
904.665 45 L
904.691 45 L
904.7 45 L
904.7 45 L
904.718 45 L
904.744 45 L
904.744 45 L
904.753 45 L
904.753 45 L
904.753 45 L
904.762 45 L
904.762 45 L
904.788 45 L
904.788 45 L
904.788 45 L
904.797 45 L
904.806 45 L
904.832 45 L
904.841 45 L
904.841 45 L
904.85 45 L
904.85 45 L
904.859 45 L
904.868 45 L
904.868 45 L
904.868 45 L
904.868 45 L
904.868 45 L
904.876 45 L
904.876 45 L
904.876 45 L
904.885 45 L
904.912 45 L
904.921 45 L
904.921 45 L
904.921 45 L
904.921 45 L
904.921 45 L
904.921 45 L
904.921 45 L
904.921 45 L
904.921 45 L
904.921 45 L
904.929 45 L
904.929 45 L
904.929 45 L
904.929 45 L
904.929 45 L
904.929 45 L
904.929 45 L
904.938 45 L
904.938 45 L
904.938 45 L
904.938 45 L
904.938 45 L
904.947 45 L
904.947 45 L
904.947 45 L
904.947 45 L
904.947 45 L
904.947 45 L
904.947 45 L
904.956 45 L
904.965 45 L
904.965 45 L
904.974 45 L
904.991 45 L
904.991 45 L
904.991 45 L
904.991 45 L
904.991 45 L
904.991 45 L
904.991 45 L
904.991 45 L
904.991 45 L
904.991 45 L
904.991 45 L
904.991 45 L
904.991 45 L
904.991 45 L
904.991 45 L
904.991 45 L
904.991 45 L
904.991 45 L
904.991 45 L
904.991 45 L
904.991 45 L
904.991 45 L
904.991 45 L
904.991 45 L
904.991 45 L
904.991 45 L
904.991 45 L
905 45 L
S
GR
GS
0 1 0 RC
1 LJ
3 LW
N
130 530.503 M
130 530.503 L
130 530.503 L
130 530.503 L
130 530.503 L
130 530.503 L
130 530.503 L
130 530.503 L
130 530.503 L
130 530.503 L
130 530.503 L
130 530.503 L
130 530.503 L
130 530.503 L
130 530.503 L
130 530.503 L
130 530.503 L
130 530.503 L
130 530.503 L
130 530.503 L
130 530.503 L
130 530.503 L
130 530.503 L
130 530.503 L
130 530.503 L
130 530.503 L
130 530.503 L
130 530.503 L
130 530.503 L
130 530.503 L
130 530.503 L
130 530.503 L
130 530.503 L
130 530.503 L
130 530.503 L
130 530.503 L
130 530.503 L
130 530.503 L
130 530.503 L
130 530.503 L
130 530.503 L
130 530.503 L
130 530.503 L
130 530.503 L
130 530.503 L
130 530.503 L
130 530.503 L
130 530.503 L
130 530.503 L
130 530.503 L
130 530.503 L
130 530.503 L
130 530.503 L
130 530.503 L
130 530.503 L
130 530.503 L
130 530.503 L
130 530.503 L
130 530.503 L
130 530.503 L
130 530.503 L
130 530.503 L
130 530.503 L
130 530.503 L
130 530.503 L
130 530.503 L
130 530.503 L
130 530.503 L
130 530.503 L
130 530.503 L
130 530.503 L
130 530.503 L
130 530.503 L
130 530.503 L
130 530.503 L
130 530.503 L
130 530.503 L
130 530.503 L
130 530.503 L
130 530.503 L
130 530.503 L
130 530.503 L
130 530.503 L
130 530.503 L
130 530.503 L
130 530.503 L
130 530.503 L
130 530.503 L
130 530.503 L
130 530.503 L
130 530.503 L
130 530.503 L
130 530.503 L
130 530.503 L
130 530.503 L
130 530.503 L
130 530.503 L
130 530.503 L
130 530.503 L
130 530.503 L
130 530.503 L
130 530.503 L
130 530.503 L
130 530.503 L
130 530.503 L
130 530.503 L
130 530.503 L
130 530.503 L
130 530.503 L
130 530.503 L
130 530.503 L
130 530.503 L
130 530.503 L
130 530.503 L
130 530.503 L
130 530.503 L
130 530.503 L
130 530.503 L
130 530.503 L
130 530.503 L
130 530.503 L
130 530.503 L
130 530.503 L
130 530.503 L
130 530.503 L
130 530.503 L
130 530.503 L
130 530.503 L
130 530.503 L
130 530.503 L
130 530.503 L
130 530.503 L
130 530.503 L
130 530.503 L
130 530.503 L
130 530.503 L
130 530.503 L
130 530.503 L
130 530.503 L
130 530.503 L
130 530.503 L
130 530.503 L
130 530.503 L
130 530.503 L
130 530.503 L
130 530.503 L
130 530.503 L
130 530.503 L
130 530.503 L
130 530.503 L
130 530.503 L
130 530.503 L
130 530.503 L
130 530.503 L
130 530.503 L
130 530.503 L
130 530.503 L
130 530.503 L
130 530.503 L
130 530.503 L
130 530.503 L
130 530.503 L
130 530.503 L
130 530.503 L
130 530.503 L
130 530.503 L
130 530.503 L
130 530.503 L
130 530.503 L
130 530.006 L
130 530.006 L
130 530.006 L
130 530.006 L
130 530.006 L
130 530.006 L
130 530.006 L
130 530.006 L
130 530.006 L
130 530.006 L
130 530.006 L
130 530.006 L
130 530.006 L
130 530.006 L
130 530.006 L
130 530.006 L
130 530.006 L
130 530.006 L
130 530.006 L
130 530.006 L
130 530.006 L
130 529.509 L
130 529.509 L
130 529.509 L
130 529.509 L
130 528.515 L
130 528.515 L
130 528.515 L
130 528.515 L
130 528.515 L
130 528.515 L
130 528.515 L
130 528.515 L
130 528.515 L
130 528.018 L
130 527.521 L
130 527.025 L
130 526.528 L
130 525.534 L
130 525.534 L
130 524.54 L
130 524.54 L
130 524.54 L
130 524.54 L
130 524.54 L
130 524.54 L
130 523.546 L
130 523.546 L
130 523.049 L
130 523.049 L
130 523.049 L
130 522.552 L
130 522.055 L
130 522.055 L
130 521.558 L
130 521.061 L
130 520.564 L
130 520.564 L
130 520.068 L
130 519.074 L
130 519.074 L
130 518.08 L
130 516.589 L
130 515.098 L
130 514.601 L
130 514.104 L
130 514.104 L
130 512.614 L
130 512.117 L
130 511.123 L
130 510.626 L
130 509.135 L
130 507.644 L
130 507.644 L
130 506.65 L
130 505.656 L
130 504.663 L
130 503.669 L
130 503.669 L
130 503.172 L
130 502.675 L
130 502.178 L
130 501.681 L
130 501.681 L
130 500.687 L
130 499.693 L
130 498.699 L
130 496.215 L
130 495.718 L
130 494.724 L
130 493.233 L
130 491.245 L
130 489.258 L
130 487.27 L
130 486.276 L
130 484.288 L
130 484.288 L
130 483.294 L
130 482.301 L
130 480.313 L
130 477.828 L
130 477.331 L
130 475.84 L
130 472.362 L
130 471.865 L
130 469.877 L
130 467.89 L
130 466.896 L
130 466.399 L
130 464.908 L
130 463.417 L
130 461.926 L
130 461.429 L
130 458.945 L
130 456.957 L
130 455.466 L
130 453.975 L
130 453.479 L
130 452.485 L
130 451.491 L
130 450 L
130 449.006 L
130 445.528 L
130 444.534 L
130 443.043 L
130 440.558 L
130 439.067 L
130 436.583 L
130 434.098 L
130 433.104 L
130 433.104 L
130 432.11 L
130 431.117 L
130 430.62 L
130 430.123 L
130 427.638 L
130 426.147 L
130 423.663 L
130 421.178 L
130 418.196 L
130 417.202 L
130 416.209 L
130 413.724 L
130 411.736 L
130 411.239 L
130 411.239 L
130 410.742 L
130 409.252 L
130 407.761 L
130 407.761 L
130 407.264 L
130 405.773 L
130 403.288 L
130 402.791 L
130 399.81 L
130 396.828 L
130 394.84 L
130 392.356 L
130 391.859 L
130 391.859 L
130 387.387 L
130 384.902 L
130 383.411 L
130 381.92 L
130 379.933 L
130 378.939 L
130 377.945 L
130 376.951 L
130 373.969 L
130 373.472 L
130 370.988 L
130 366.018 L
130 366.018 L
130 364.528 L
130 363.037 L
130 362.043 L
130 359.558 L
130 358.564 L
130 357.074 L
130 356.08 L
130 355.086 L
130 352.601 L
130 351.607 L
130 350.613 L
130 347.632 L
130 346.638 L
130 345.147 L
130 344.153 L
130 342.166 L
130 342.166 L
130 339.681 L
130 338.19 L
130 337.693 L
130 336.202 L
130 334.215 L
130 333.718 L
130 331.233 L
130 330.736 L
130 330.239 L
130 330.239 L
130 328.748 L
130 325.767 L
130 324.276 L
130 322.785 L
130 322.288 L
130 321.791 L
130 320.798 L
130 319.804 L
130 318.81 L
130 316.325 L
130 314.834 L
130 313.344 L
130 311.356 L
130 309.368 L
130 308.871 L
130 306.883 L
130 305.393 L
130 303.405 L
130 302.908 L
130 301.417 L
130 300.423 L
130 299.429 L
130 298.436 L
130 295.454 L
130 293.963 L
130 292.472 L
130 291.975 L
130 289.988 L
130 286.509 L
130 285.018 L
130 285.018 L
130 283.031 L
130 280.049 L
130 278.558 L
130 276.571 L
130 274.583 L
130 272.098 L
130 271.601 L
130 271.104 L
130 271.104 L
130 268.62 L
130 267.626 L
130 266.632 L
130 263.65 L
130 263.153 L
130 262.16 L
130 261.663 L
130 259.178 L
130 257.687 L
130 256.693 L
130 256.196 L
130 254.706 L
130 253.712 L
130 253.215 L
130 251.724 L
130 250.73 L
130 249.736 L
130 248.742 L
130 247.748 L
130 247.252 L
130 247.252 L
130 246.755 L
130 246.258 L
130 246.258 L
130 245.264 L
130 242.779 L
130 240.791 L
130 238.804 L
130 237.81 L
130 236.816 L
130 235.822 L
130 235.822 L
130 234.331 L
130 233.834 L
130 231.847 L
130 230.853 L
130 229.859 L
130 228.865 L
130 227.871 L
130 226.877 L
130 225.387 L
130 223.896 L
130 223.896 L
130 223.399 L
130 222.405 L
130 221.908 L
130 220.914 L
130 218.926 L
130 217.933 L
130 217.436 L
130 216.442 L
130 215.945 L
130 215.945 L
130 214.454 L
130 214.454 L
130 213.957 L
130 213.46 L
130 212.466 L
130 212.466 L
130 212.466 L
130 212.466 L
130 212.466 L
130 212.466 L
130 211.969 L
130 210.479 L
130 209.485 L
130 208.988 L
130 207 L
130 206.503 L
130 206.503 L
130 206.006 L
130 206.006 L
130 205.012 L
130 204.515 L
130 203.521 L
130 202.528 L
130 200.54 L
130 200.54 L
130 199.546 L
130 199.049 L
130 198.552 L
130 198.055 L
130 197.061 L
130 195.571 L
130 195.571 L
130 194.08 L
130 192.092 L
130 190.601 L
130 189.607 L
130 189.11 L
130 188.613 L
130 186.129 L
130 185.135 L
130 184.638 L
130 184.638 L
130 184.141 L
130 182.65 L
130 180.663 L
130 179.172 L
130 176.687 L
130 176.19 L
130 175.693 L
130 175.196 L
130 173.706 L
130 173.209 L
130 172.712 L
130 171.221 L
130 170.724 L
130 169.73 L
130 169.233 L
130 168.736 L
130 168.736 L
130 168.239 L
130 167.245 L
130 167.245 L
130.009 167.245 L
130.009 166.748 L
130.009 166.252 L
130.009 164.761 L
130.009 163.767 L
130.009 163.27 L
130.009 161.282 L
130.009 159.791 L
130.009 157.307 L
130.009 156.81 L
130.009 155.319 L
130.018 154.325 L
130.026 152.834 L
130.035 150.847 L
130.035 149.356 L
130.035 147.368 L
130.035 146.871 L
130.044 143.89 L
130.079 142.399 L
130.088 139.914 L
130.097 138.423 L
130.106 137.926 L
130.124 137.429 L
130.124 137.429 L
130.124 135.939 L
130.15 134.448 L
130.159 131.466 L
130.185 129.479 L
130.185 128.485 L
130.203 127.988 L
130.221 127.491 L
130.238 127.491 L
130.273 126 L
130.318 125.006 L
130.344 123.515 L
130.388 123.018 L
130.441 120.037 L
130.52 119.54 L
130.538 118.546 L
130.679 118.049 L
130.767 117.552 L
130.803 117.552 L
130.891 116.558 L
130.962 115.067 L
131.059 114.074 L
131.164 113.577 L
131.253 113.08 L
131.447 113.08 L
131.658 111.589 L
131.844 110.595 L
132.064 110.595 L
132.302 108.607 L
132.602 106.123 L
132.867 105.129 L
133.096 105.129 L
133.485 104.632 L
133.97 103.638 L
134.455 102.147 L
134.931 101.153 L
135.416 100.16 L
135.972 100.16 L
136.396 99.663 L
136.995 99.166 L
137.781 98.172 L
138.372 97.178 L
139.183 95.687 L
140.101 94.693 L
140.921 94.196 L
141.83 93.202 L
142.897 92.706 L
143.973 92.706 L
145.005 91.712 L
146.24 91.712 L
147.29 91.712 L
148.525 91.712 L
149.619 91.712 L
151.128 91.215 L
152.301 91.215 L
153.977 90.718 L
155.538 90.221 L
156.826 89.724 L
158.132 89.724 L
159.526 89.227 L
161.122 89.227 L
162.604 88.73 L
164.166 88.233 L
165.63 87.736 L
167.148 87.736 L
168.533 87.736 L
170.112 87.736 L
171.444 87.736 L
172.802 87.736 L
174.311 87.736 L
175.343 87.736 L
176.454 87.736 L
177.504 87.736 L
178.413 87.736 L
179.365 87.736 L
180.362 87.239 L
181.341 86.742 L
182.082 86.742 L
182.85 86.742 L
183.591 86.245 L
184.367 85.748 L
185.073 85.748 L
185.523 85.748 L
186.07 85.748 L
186.599 85.748 L
187.093 85.748 L
187.49 85.748 L
187.861 85.252 L
188.099 85.252 L
188.399 85.252 L
188.584 84.755 L
188.884 84.755 L
189.06 84.755 L
189.254 84.755 L
189.475 84.755 L
189.598 84.755 L
189.704 84.755 L
189.828 84.755 L
189.951 84.755 L
190.084 84.755 L
190.154 84.755 L
190.207 84.755 L
190.269 84.755 L
190.313 84.755 L
190.331 84.755 L
190.392 84.755 L
190.419 84.755 L
190.428 84.755 L
190.463 84.755 L
190.507 84.755 L
190.525 84.755 L
190.534 84.755 L
190.534 84.755 L
190.534 84.755 L
190.542 84.755 L
190.542 84.755 L
194.45 82.767 L
198.993 82.27 L
203.872 80.282 L
208.856 80.282 L
214.246 79.785 L
219.759 79.288 L
225.573 77.798 L
231.351 77.798 L
237.932 76.804 L
244.001 75.81 L
250.926 75.313 L
257.542 74.319 L
264.864 73.822 L
271.948 73.822 L
279.543 72.828 L
287.182 72.828 L
294.134 72.828 L
301.156 71.834 L
307.375 71.834 L
313.806 71.834 L
320.272 71.337 L
326.068 71.337 L
330.981 71.337 L
334.995 71.337 L
338.25 71.337 L
341.214 71.337 L
343.349 71.337 L
345.131 71.337 L
346.578 71.337 L
347.566 71.337 L
348.192 71.337 L
348.616 71.337 L
348.766 71.337 L
348.907 71.337 L
348.986 71.337 L
349.013 71.337 L
349.013 71.337 L
349.022 71.337 L
349.03 71.337 L
349.03 71.337 L
349.03 71.337 L
349.03 71.337 L
349.03 71.337 L
349.03 71.337 L
349.03 71.337 L
349.03 71.337 L
349.03 71.337 L
349.03 71.337 L
349.03 71.337 L
349.03 71.337 L
349.03 71.337 L
349.03 71.337 L
349.03 71.337 L
349.03 71.337 L
349.03 71.337 L
349.03 71.337 L
349.03 71.337 L
349.03 71.337 L
349.03 71.337 L
349.03 71.337 L
349.03 71.337 L
349.03 71.337 L
349.03 71.337 L
349.03 71.337 L
349.03 71.337 L
349.03 71.337 L
349.03 71.337 L
349.03 71.337 L
349.03 71.337 L
349.03 71.337 L
349.03 71.337 L
349.03 71.337 L
349.03 71.337 L
349.03 71.337 L
349.03 71.337 L
349.03 71.337 L
349.03 71.337 L
349.03 71.337 L
349.03 71.337 L
349.03 71.337 L
349.03 71.337 L
349.03 71.337 L
349.03 71.337 L
349.03 71.337 L
349.03 71.337 L
349.03 71.337 L
349.03 71.337 L
349.03 71.337 L
349.03 71.337 L
349.03 71.337 L
349.03 71.337 L
349.03 71.337 L
349.03 71.337 L
349.03 71.337 L
349.03 71.337 L
349.03 71.337 L
349.03 71.337 L
349.03 71.337 L
349.03 71.337 L
349.03 71.337 L
349.03 71.337 L
349.03 71.337 L
349.03 71.337 L
349.03 71.337 L
349.03 71.337 L
349.03 71.337 L
349.03 71.337 L
349.03 71.337 L
349.03 71.337 L
349.03 71.337 L
349.03 71.337 L
349.03 71.337 L
349.03 71.337 L
349.03 71.337 L
349.03 71.337 L
349.03 71.337 L
349.03 71.337 L
349.03 71.337 L
349.03 71.337 L
349.03 71.337 L
349.03 71.337 L
349.03 71.337 L
349.03 71.337 L
349.03 71.337 L
349.03 71.337 L
349.03 71.337 L
349.03 71.337 L
349.03 71.337 L
349.03 71.337 L
349.03 71.337 L
349.03 71.337 L
349.03 71.337 L
349.03 71.337 L
349.03 71.337 L
349.03 71.337 L
349.03 71.337 L
349.03 71.337 L
349.03 71.337 L
349.03 71.337 L
349.03 71.337 L
349.03 71.337 L
349.03 71.337 L
349.03 71.337 L
349.03 71.337 L
349.03 71.337 L
349.03 71.337 L
349.03 71.337 L
349.03 71.337 L
349.03 71.337 L
349.03 71.337 L
349.03 71.337 L
349.03 71.337 L
349.03 71.337 L
349.03 71.337 L
349.03 71.337 L
349.03 71.337 L
349.03 71.337 L
349.03 71.337 L
349.03 71.337 L
349.03 71.337 L
349.03 71.337 L
349.03 71.337 L
349.03 71.337 L
349.03 71.337 L
349.03 71.337 L
349.03 71.337 L
349.03 71.337 L
349.03 71.337 L
349.03 71.337 L
349.03 71.337 L
349.03 71.337 L
349.03 71.337 L
349.03 71.337 L
349.03 71.337 L
349.03 71.337 L
349.03 71.337 L
349.03 71.337 L
349.03 71.337 L
349.03 71.337 L
349.03 71.337 L
349.03 71.337 L
349.03 71.337 L
349.03 71.337 L
349.03 71.337 L
349.03 71.337 L
349.03 71.337 L
349.03 71.337 L
349.03 71.337 L
349.03 71.337 L
349.03 71.337 L
349.03 71.337 L
349.03 71.337 L
349.03 71.337 L
349.03 71.337 L
349.03 71.337 L
349.03 71.337 L
349.03 71.337 L
349.03 71.337 L
349.03 71.337 L
349.03 71.337 L
349.03 71.337 L
349.03 71.337 L
349.03 71.337 L
349.03 71.337 L
349.03 71.337 L
349.03 71.337 L
349.03 71.337 L
349.03 71.337 L
349.03 71.337 L
349.03 71.337 L
349.03 71.337 L
349.03 71.337 L
349.03 71.337 L
349.03 71.337 L
349.03 71.337 L
349.03 71.337 L
349.03 71.337 L
349.03 71.337 L
349.03 71.337 L
349.03 71.337 L
349.03 71.337 L
349.03 71.337 L
349.03 71.337 L
349.03 71.337 L
349.03 71.337 L
349.03 71.337 L
349.03 71.337 L
349.03 71.337 L
349.03 71.337 L
349.03 71.337 L
349.03 71.337 L
349.03 71.337 L
349.03 71.337 L
349.03 71.337 L
349.03 71.337 L
349.03 71.337 L
349.03 71.337 L
349.03 71.337 L
349.03 71.337 L
349.03 71.337 L
349.03 71.337 L
349.03 71.337 L
349.03 71.337 L
349.03 71.337 L
349.03 71.337 L
349.03 71.337 L
349.03 71.337 L
349.03 71.337 L
349.03 71.337 L
349.03 71.337 L
349.03 71.337 L
349.03 71.337 L
349.03 71.337 L
349.03 71.337 L
349.03 71.337 L
349.03 71.337 L
349.03 71.337 L
349.03 71.337 L
349.03 71.337 L
349.03 71.337 L
349.03 71.337 L
349.03 71.337 L
349.03 71.337 L
349.03 71.337 L
349.03 71.337 L
349.03 71.337 L
349.03 71.337 L
349.03 71.337 L
349.03 71.337 L
349.03 71.337 L
349.03 71.337 L
349.03 71.337 L
349.03 71.337 L
349.03 71.337 L
349.03 71.337 L
349.03 71.337 L
349.03 71.337 L
349.03 71.337 L
349.03 71.337 L
349.03 71.337 L
349.03 71.337 L
349.03 71.337 L
349.03 71.337 L
349.03 71.337 L
349.03 71.337 L
349.03 71.337 L
349.03 71.337 L
349.03 71.337 L
349.03 71.337 L
349.03 71.337 L
349.03 71.337 L
349.03 71.337 L
349.03 71.337 L
349.03 71.337 L
349.03 71.337 L
349.03 71.337 L
349.03 71.337 L
349.03 71.337 L
349.03 71.337 L
349.03 71.337 L
349.03 71.337 L
349.03 71.337 L
349.03 71.337 L
349.03 71.337 L
349.03 71.337 L
349.03 71.337 L
349.03 71.337 L
349.03 71.337 L
349.03 71.337 L
349.03 71.337 L
349.03 71.337 L
349.03 71.337 L
349.03 71.337 L
349.03 71.337 L
349.03 71.337 L
349.03 71.337 L
349.03 71.337 L
349.03 71.337 L
349.03 71.337 L
349.03 71.337 L
349.03 71.337 L
349.03 71.337 L
349.03 71.337 L
349.03 71.337 L
349.03 71.337 L
349.03 71.337 L
349.03 71.337 L
349.03 71.337 L
349.03 71.337 L
349.03 71.337 L
349.03 71.337 L
349.03 71.337 L
349.03 71.337 L
349.03 71.337 L
349.03 71.337 L
349.03 71.337 L
349.03 71.337 L
905 45 L
S
GR
GS
1 LJ
3 LW
N
130 530.503 M
130 530.503 L
130 530.503 L
130 530.503 L
130 530.503 L
130 530.503 L
130 530.503 L
130 530.503 L
130 530.503 L
130 530.503 L
130 530.503 L
130 530.503 L
130 530.503 L
130 530.503 L
130 530.503 L
130 530.503 L
130 530.503 L
130 530.503 L
130 530.503 L
130 530.503 L
130 530.503 L
130 530.503 L
130 530.503 L
130 530.503 L
130 530.503 L
130 530.503 L
130 530.503 L
130 530.503 L
130 530.503 L
130 530.503 L
130 530.503 L
130 530.503 L
130 530.503 L
130 530.503 L
130 530.503 L
130 530.503 L
130 530.503 L
130 530.503 L
130 530.503 L
130 530.503 L
130 530.503 L
130 530.503 L
130 530.503 L
130 530.503 L
130 530.503 L
130 530.503 L
130 530.503 L
130 530.503 L
130 530.503 L
130 530.503 L
130 530.503 L
130 530.503 L
130 530.503 L
130 530.503 L
130 530.503 L
130 530.503 L
130 530.503 L
130 530.503 L
130 530.503 L
130 530.503 L
130 530.503 L
130 530.503 L
130 530.503 L
130 530.503 L
130 530.503 L
130 530.503 L
130 530.503 L
130 530.503 L
130 530.503 L
130 530.503 L
130 530.503 L
130 530.503 L
130 530.503 L
130 530.503 L
130 530.503 L
130 530.503 L
130 530.503 L
130 530.503 L
130 530.503 L
130 530.503 L
130 530.503 L
130 530.503 L
130 530.503 L
130 530.503 L
130 530.503 L
130 530.503 L
130 530.503 L
130 530.503 L
130 530.503 L
130 530.503 L
130 530.503 L
130 530.503 L
130 530.503 L
130 530.503 L
130 530.503 L
130 530.503 L
130 530.503 L
130 530.503 L
130 530.503 L
130 530.503 L
130 530.503 L
130 530.503 L
130 530.503 L
130 530.503 L
130 530.503 L
130 530.503 L
130 530.503 L
130 530.503 L
130 530.503 L
130 530.503 L
130 530.503 L
130 530.503 L
130 530.503 L
130 530.503 L
130 530.503 L
130 530.503 L
130 530.503 L
130 530.503 L
130 530.503 L
130 530.503 L
130 530.503 L
130 530.503 L
130 530.503 L
130 530.503 L
130 530.503 L
130 530.503 L
130 530.503 L
130 530.503 L
130 530.503 L
130 530.503 L
130 530.503 L
130 530.503 L
130 530.503 L
130 530.503 L
130 530.503 L
130 530.503 L
130 530.503 L
130 530.503 L
130 530.503 L
130 530.503 L
130 530.503 L
130 530.503 L
130 530.503 L
130 530.503 L
130 530.503 L
130 530.503 L
130 530.503 L
130 530.503 L
130 530.503 L
130 530.503 L
130 530.503 L
130 530.503 L
130 530.503 L
130 530.503 L
130 530.503 L
130 530.503 L
130 530.503 L
130 530.503 L
130 530.503 L
130 530.503 L
130 530.503 L
130 530.503 L
130 530.503 L
130 530.503 L
130 530.503 L
130 530.503 L
130 530.503 L
130 530.503 L
130 530.503 L
130 530.503 L
130 530.503 L
130 530.503 L
130 530.503 L
130 530.503 L
130 530.503 L
130 530.503 L
130 530.503 L
130 530.503 L
130 530.503 L
130 530.503 L
130 530.503 L
130 530.503 L
130 530.503 L
130 530.006 L
130 530.006 L
130 530.006 L
130 530.006 L
130 530.006 L
130 530.006 L
130 530.006 L
130 530.006 L
130 530.006 L
130 530.006 L
130 530.006 L
130 530.006 L
130 530.006 L
130 530.006 L
130 530.006 L
130 530.006 L
130 529.509 L
130 529.509 L
130 529.509 L
130 529.509 L
130 529.509 L
130 529.509 L
130 529.509 L
130 529.509 L
130 529.509 L
130 529.509 L
130 529.509 L
130 529.509 L
130 529.012 L
130 529.012 L
130 529.012 L
130 529.012 L
130 529.012 L
130 529.012 L
130 528.515 L
130 528.515 L
130 528.515 L
130 528.515 L
130 527.521 L
130 527.521 L
130 527.521 L
130 526.528 L
130 526.528 L
130 526.528 L
130 526.528 L
130 526.031 L
130 526.031 L
130 526.031 L
130 525.534 L
130 525.037 L
130 524.54 L
130 523.049 L
130 522.055 L
130 522.055 L
130 522.055 L
130 522.055 L
130 521.558 L
130 521.558 L
130 520.564 L
130 520.068 L
130 519.074 L
130 519.074 L
130 517.583 L
130 517.583 L
130 517.583 L
130 517.583 L
130 517.583 L
130 517.583 L
130 517.583 L
130 517.086 L
130 516.589 L
130 516.589 L
130 516.589 L
130 516.589 L
130 516.589 L
130 516.589 L
130 515.595 L
130 514.601 L
130 513.607 L
130 513.11 L
130 512.117 L
130 512.117 L
130 512.117 L
130 511.62 L
130 510.626 L
130 509.632 L
130 508.638 L
130 508.141 L
130 507.644 L
130 507.644 L
130 506.65 L
130 505.656 L
130 505.16 L
130 503.669 L
130 501.681 L
130 500.19 L
130 500.19 L
130 498.699 L
130 497.209 L
130 496.215 L
130 495.221 L
130 495.221 L
130 494.227 L
130 492.736 L
130 491.742 L
130 490.748 L
130 490.748 L
130 489.755 L
130 489.755 L
130 488.264 L
130 487.27 L
130 486.773 L
130 485.779 L
130 485.282 L
130 483.791 L
130 482.798 L
130 480.81 L
130 479.319 L
130 479.319 L
130 478.822 L
130 477.828 L
130 476.834 L
130 473.356 L
130 473.356 L
130 471.368 L
130 471.368 L
130 469.877 L
130 468.883 L
130 467.89 L
130 466.896 L
130 465.405 L
130 464.908 L
130 463.914 L
130 461.926 L
130 461.429 L
130 461.429 L
130 459.442 L
130 458.945 L
130 457.454 L
130 457.454 L
130 454.472 L
130 453.479 L
130 452.485 L
130 450.994 L
130 448.509 L
130 448.012 L
130 448.012 L
130 447.515 L
130 447.018 L
130 445.031 L
130 443.54 L
130 442.546 L
130 441.552 L
130 440.558 L
130 440.558 L
130 440.061 L
130 439.564 L
130 439.564 L
130 439.067 L
130 438.074 L
130 436.086 L
130 436.086 L
130 435.092 L
130 432.607 L
130 430.62 L
130 429.129 L
130 428.135 L
130 427.141 L
130 426.644 L
130 424.656 L
130 423.663 L
130 422.172 L
130 420.184 L
130 418.693 L
130 414.718 L
130 414.718 L
130 412.233 L
130 410.742 L
130 407.761 L
130 407.264 L
130 405.773 L
130 404.779 L
130 403.785 L
130 403.288 L
130 402.294 L
130 401.798 L
130 400.804 L
130 399.81 L
130 399.81 L
130 399.81 L
130 397.822 L
130 397.325 L
130 394.84 L
130 394.344 L
130 392.853 L
130 391.859 L
130 390.865 L
130 389.374 L
130 389.374 L
130 388.877 L
130 387.387 L
130 385.896 L
130 385.399 L
130 383.411 L
130 382.914 L
130 380.926 L
130 379.933 L
130 379.436 L
130 378.442 L
130 376.454 L
130 375.46 L
130 374.963 L
130 372.479 L
130 369.994 L
130 367.012 L
130 366.018 L
130 363.037 L
130 362.043 L
130 361.049 L
130 360.055 L
130 359.061 L
130 356.577 L
130 356.08 L
130 354.589 L
130 354.092 L
130 353.098 L
130 352.601 L
130 352.601 L
130 351.607 L
130 351.607 L
130 350.117 L
130 347.632 L
130 347.632 L
130 344.65 L
130 344.153 L
130 344.153 L
130 342.663 L
130 340.675 L
130 339.184 L
130 338.687 L
130 338.19 L
130 336.202 L
130 334.712 L
130 333.718 L
130 331.73 L
130 328.748 L
130 327.258 L
130 325.767 L
130 325.767 L
130 324.276 L
130 322.785 L
130 321.791 L
130 318.81 L
130 318.313 L
130 317.816 L
130 317.319 L
130 317.319 L
130 315.828 L
130 314.337 L
130 312.35 L
130 310.362 L
130 309.865 L
130 309.368 L
130 306.883 L
130 304.896 L
130 304.399 L
130 302.411 L
130 300.92 L
130 300.423 L
130 299.926 L
130 298.933 L
130 297.442 L
130 295.454 L
130 295.454 L
130 292.472 L
130 292.472 L
130 291.479 L
130 290.485 L
130 289.491 L
130 288 L
130 287.006 L
130 286.509 L
130 286.509 L
130 286.509 L
130 285.515 L
130 284.025 L
130 284.025 L
130 282.534 L
130 280.546 L
130 279.055 L
130 277.564 L
130 276.571 L
130 274.583 L
130 274.086 L
130 272.595 L
130 271.104 L
130 271.104 L
130 270.607 L
130 269.117 L
130 267.626 L
130 267.129 L
130 266.632 L
130 265.638 L
130 264.644 L
130 263.65 L
130 263.153 L
130 262.656 L
130 262.16 L
130 261.663 L
130 260.172 L
130 259.178 L
130 258.681 L
130 257.19 L
130 256.693 L
130 254.706 L
130 254.706 L
130 252.221 L
130 251.227 L
130 250.73 L
130 250.233 L
130 249.736 L
130 248.245 L
130 246.755 L
130 246.755 L
130 246.258 L
130 246.258 L
130 246.258 L
130 244.767 L
130 243.276 L
130 242.282 L
130 241.785 L
130 240.294 L
130 240.294 L
130 240.294 L
130 240.294 L
130 239.798 L
130 239.301 L
130 239.301 L
130 238.804 L
130 237.81 L
130 237.313 L
130 237.313 L
130 237.313 L
130 235.822 L
130 234.828 L
130 234.331 L
130 233.834 L
130 233.337 L
130 232.84 L
130 230.356 L
130 229.859 L
130 227.871 L
130 227.374 L
130 225.387 L
130 224.89 L
130 222.902 L
130 222.405 L
130 221.411 L
130 219.423 L
130 218.429 L
130 216.442 L
130 216.442 L
130 215.448 L
130 214.951 L
130 214.951 L
130 213.46 L
130 211.969 L
130 211.472 L
130 210.479 L
130 208.988 L
130 207 L
130 205.509 L
130 204.515 L
130 203.025 L
130 201.037 L
130 200.54 L
130 199.546 L
130 198.552 L
130 197.558 L
130 196.067 L
130 194.577 L
130 193.583 L
130 193.583 L
130 193.583 L
130 193.086 L
130 192.589 L
130 192.092 L
130 191.098 L
130 190.601 L
130 188.613 L
130 187.62 L
130 185.632 L
130 185.632 L
130 184.638 L
130 184.638 L
130 183.147 L
130 182.153 L
130 181.656 L
130 180.663 L
130 180.166 L
130 180.166 L
130 179.172 L
130 178.178 L
130 178.178 L
130 178.178 L
130 177.184 L
130 176.687 L
130 176.687 L
130 176.19 L
130 175.196 L
130 173.209 L
130 173.209 L
130 171.221 L
130 168.736 L
130 168.736 L
130 167.245 L
130 166.748 L
130 165.258 L
130 164.761 L
130 163.27 L
130 161.282 L
130 160.288 L
130 160.288 L
130 159.791 L
130 158.798 L
130 158.301 L
130 157.804 L
130 156.81 L
130 155.816 L
130 153.828 L
130 152.834 L
130 152.337 L
130 152.337 L
130 151.84 L
130 150.847 L
130 150.847 L
130 147.865 L
130 146.871 L
130 144.883 L
130 143.393 L
130 142.399 L
130 140.908 L
130 139.417 L
130 137.926 L
130 137.429 L
130 136.933 L
130 134.945 L
130 133.951 L
130 132.46 L
130 130.472 L
130 129.479 L
130 129.479 L
130 127.491 L
130 126.994 L
130 126 L
130 124.509 L
130 124.012 L
130 122.521 L
130 121.031 L
130 121.031 L
130 120.534 L
130 119.043 L
130 118.049 L
130 116.558 L
130 116.061 L
130 115.067 L
130 113.08 L
130 110.098 L
130 109.601 L
130 109.104 L
130 108.607 L
130 106.62 L
130 106.123 L
130 105.129 L
130 104.135 L
130 104.135 L
130 103.141 L
130 102.644 L
130.018 102.644 L
130.026 102.147 L
130.026 102.147 L
130.044 101.65 L
130.062 101.65 L
130.062 99.166 L
130.062 99.166 L
130.071 98.669 L
130.071 98.172 L
130.071 96.681 L
130.088 96.681 L
130.088 95.19 L
130.088 95.19 L
130.097 94.693 L
130.097 94.693 L
130.115 93.699 L
130.132 93.699 L
130.15 92.706 L
130.159 91.712 L
130.168 91.215 L
130.176 90.221 L
130.212 89.724 L
130.238 89.227 L
130.256 88.233 L
130.273 87.736 L
130.291 87.239 L
130.326 87.239 L
130.353 87.239 L
130.397 87.239 L
130.476 86.742 L
130.512 85.748 L
130.556 85.252 L
130.618 84.258 L
130.662 83.761 L
130.697 82.767 L
130.759 82.27 L
130.847 81.276 L
130.953 80.779 L
131.067 80.282 L
131.182 79.288 L
131.235 79.288 L
131.376 79.288 L
131.429 78.791 L
131.553 78.791 L
131.685 78.791 L
131.791 78.294 L
131.888 77.301 L
132.002 76.804 L
132.17 76.307 L
132.302 75.313 L
132.505 74.319 L
132.664 73.325 L
132.938 73.325 L
133.193 73.325 L
133.423 72.331 L
133.634 71.834 L
133.943 71.337 L
134.208 70.84 L
134.552 70.84 L
134.887 69.35 L
135.311 68.853 L
135.752 68.853 L
135.875 67.859 L
136.281 67.859 L
136.74 67.859 L
137.207 66.865 L
137.807 65.871 L
138.416 65.374 L
139.095 64.877 L
139.474 64.38 L
139.986 62.89 L
140.621 62.393 L
141.424 60.902 L
141.988 60.902 L
142.835 60.902 L
143.665 60.902 L
144.097 60.902 L
144.891 60.405 L
145.746 59.411 L
146.54 59.411 L
147.431 59.411 L
148.596 58.914 L
149.743 58.417 L
149.99 57.423 L
151.286 56.926 L
152.663 56.429 L
153.836 55.933 L
155.071 54.939 L
156.562 54.442 L
158.238 54.442 L
158.908 54.442 L
160.584 54.442 L
162.04 54.442 L
163.787 54.442 L
165.692 54.442 L
167.606 52.951 L
169.415 52.454 L
171.408 52.454 L
172.864 52.454 L
174.822 52.454 L
177.107 51.957 L
179.462 51.957 L
182.012 51.957 L
184.552 51.957 L
187.411 51.957 L
188.884 51.46 L
191.857 51.46 L
195.015 51.46 L
198.12 51.46 L
201.19 51.46 L
204.375 51.46 L
207.303 51.46 L
209.359 51.46 L
212.967 51.46 L
216.839 51.46 L
220.421 51.46 L
224.417 51.46 L
228.272 51.46 L
232.418 50.466 L
234.932 50.466 L
239.29 50.466 L
243.745 49.969 L
248.121 48.975 L
252.999 48.975 L
257.983 48.975 L
263.25 48.975 L
266.214 48.975 L
271.295 48.975 L
277.055 48.975 L
282.666 48.975 L
288.717 48.975 L
294.707 48.975 L
301.253 48.975 L
304.534 48.975 L
311.539 48.479 L
318.031 48.479 L
324.665 48.479 L
331.22 47.982 L
337.801 47.485 L
344.787 47.485 L
348.907 47.485 L
356.096 47.485 L
362.977 47.485 L
369.682 47.485 L
376.986 47.485 L
384.572 47.485 L
391.956 47.485 L
399.313 47.485 L
403.459 47.485 L
411.937 47.485 L
419.338 47.485 L
427.225 47.485 L
435.64 47.485 L
443.765 47.485 L
452.401 47.485 L
457.147 47.485 L
465.554 47.485 L
473.194 46.988 L
481.283 46.491 L
489.972 45.994 L
497.859 45.994 L
506.716 45.994 L
511.726 45.994 L
520.442 45.994 L
528.884 45.994 L
536.885 45.994 L
545.539 45.994 L
553.567 45.994 L
561.753 45.994 L
566.376 45.994 L
575.286 45.994 L
583.04 45.994 L
591.376 45.994 L
599.527 45.994 L
608.252 45.994 L
616.42 45.994 L
621.184 45.994 L
629.053 45.994 L
637.363 45.994 L
645.055 45.994 L
652.377 45.994 L
660.361 45.994 L
667.524 45.994 L
672.146 45.994 L
679.847 45.994 L
687.134 45.994 L
694.182 45.994 L
701.213 45.994 L
708.429 45.994 L
715.266 45.994 L
718.865 45.994 L
725.596 45.994 L
732.309 45.497 L
739.102 45.497 L
745.118 45 L
751.329 45 L
757.327 45 L
763.52 45 L
766.749 45 L
772.324 45 L
777.978 45 L
783.598 45 L
788.838 45 L
793.804 45 L
798.797 45 L
801.691 45 L
805.802 45 L
810.415 45 L
814.676 45 L
819.016 45 L
823.286 45 L
827.079 45 L
829.426 45 L
832.91 45 L
836.501 45 L
839.668 45 L
842.746 45 L
845.975 45 L
848.948 45 L
850.827 45 L
853.544 45 L
856.058 45 L
858.696 45 L
861.157 45 L
863.539 45 L
866.088 45 L
867.323 45 L
868.955 45 L
870.816 45 L
872.845 45 L
874.751 45 L
876.665 45 L
878.509 45 L
878.509 45 L
880.255 45 L
881.852 45 L
883.246 45 L
884.56 45 L
885.893 45 L
887.004 45 L
887.939 45 L
888.61 45 L
889.668 45 L
890.621 45 L
891.653 45 L
892.535 45 L
893.373 45 L
893.991 45 L
894.511 45 L
895.208 45 L
895.746 45 L
896.452 45 L
896.946 45 L
897.422 45 L
898.093 45 L
898.419 45 L
898.887 45 L
899.284 45 L
899.707 45 L
899.954 45 L
900.316 45 L
900.554 45 L
900.783 45 L
901.039 45 L
901.436 45 L
901.718 45 L
901.93 45 L
902.133 45 L
902.354 45 L
902.512 45 L
902.698 45 L
902.909 45 L
903.024 45 L
903.174 45 L
903.289 45 L
903.421 45 L
903.5 45 L
903.615 45 L
903.73 45 L
903.809 45 L
903.915 45 L
904.03 45 L
904.144 45 L
904.18 45 L
904.233 45 L
904.285 45 L
904.365 45 L
904.4 45 L
904.427 45 L
904.444 45 L
904.488 45 L
904.532 45 L
904.568 45 L
904.612 45 L
904.638 45 L
904.682 45 L
904.709 45 L
904.735 45 L
904.744 45 L
904.762 45 L
904.806 45 L
904.832 45 L
904.841 45 L
904.841 45 L
904.868 45 L
904.876 45 L
904.885 45 L
904.894 45 L
904.894 45 L
904.929 45 L
904.929 45 L
904.938 45 L
904.938 45 L
904.947 45 L
904.947 45 L
904.956 45 L
904.965 45 L
904.974 45 L
904.974 45 L
904.974 45 L
904.982 45 L
904.982 45 L
904.982 45 L
904.982 45 L
904.982 45 L
904.982 45 L
904.982 45 L
904.982 45 L
904.991 45 L
904.991 45 L
904.991 45 L
904.991 45 L
904.991 45 L
904.991 45 L
904.991 45 L
904.991 45 L
904.991 45 L
904.991 45 L
904.991 45 L
905 45 L
S
GR
GS
[1 0 0 1 440 224.82001] CT
/Helvetica 24 F
GS
[1 0 0 1 0 0] CT
0 8.5 moveto 
1 -1 scale
(EER line) t 
GR
GR
GS
[10 6] 0 setdash
2 LJ
0.5 LW
N
905 531 M
130 45 L
S
GR
GS
1 GC
N
897 523 M
897 431 L
365 431 L
365 523 L
cp
f
GR
GS
[1 0 0 1 402 447.5] CT
/Helvetica 24 F
GS
[1 0 0 1 0 0] CT
0 8.5 moveto 
1 -1 scale
(original OSIRIS, EER = 20.34%) t 
GR
GR
GS
0 0 1 RC
1 LJ
3 LW
N
369 447.5 M
399 447.5 L
S
GR
GS
[1 0 0 1 402 477] CT
/Helvetica 24 F
GS
[1 0 0 1 0 0] CT
0 8.5 moveto 
1 -1 scale
(IriCore, EER = 8.00%) t 
GR
GR
GS
0 1 0 RC
1 LJ
3 LW
N
369 477 M
399 477 L
S
GR
GS
[1 0 0 1 402 506.5] CT
/Helvetica 24 F
GS
[1 0 0 1 0 0] CT
0 8.5 moveto 
1 -1 scale
(OSIRIS with new segmentation, EER = 2.57%) t 
GR
GR
GS
1 LJ
3 LW
N
369 506.5 M
399 506.5 L
S
GR
GS
0.149 GC
10.0 ML
0.5 LW
N
365 523 M
365 431 L
897 431 L
897 523 L
cp
S
GR
%%Trailer
%%Pages: 1
%%EOF
