%!PS-Adobe-3.0 EPSF-3.0
%%Creator: (MATLAB, The Mathworks, Inc. Version 9.5.0.1049112 \(R2018b\) Update 3. Operating System: Mac OS X)
%%Title: ./ROCs_elderly.eps
%%CreationDate: 2019-06-16T12:52:40
%%Pages: (atend)
%%BoundingBox:    13     6   754   496
%%LanguageLevel: 3
%%EndComments
%%BeginProlog
%%BeginResource: procset (Apache XML Graphics Std ProcSet) 1.2 0
%%Version: 1.2 0
%%Copyright: (Copyright 2001-2003,2010 The Apache Software Foundation. License terms: http://www.apache.org/licenses/LICENSE-2.0)
/bd{bind def}bind def
/ld{load def}bd
/GR/grestore ld
/GS/gsave ld
/RM/rmoveto ld
/C/curveto ld
/t/show ld
/L/lineto ld
/ML/setmiterlimit ld
/CT/concat ld
/f/fill ld
/N/newpath ld
/S/stroke ld
/CC/setcmykcolor ld
/A/ashow ld
/cp/closepath ld
/RC/setrgbcolor ld
/LJ/setlinejoin ld
/GC/setgray ld
/LW/setlinewidth ld
/M/moveto ld
/re {4 2 roll M
1 index 0 rlineto
0 exch rlineto
neg 0 rlineto
cp } bd
/_ctm matrix def
/_tm matrix def
/BT { _ctm currentmatrix pop matrix _tm copy pop 0 0 moveto } bd
/ET { _ctm setmatrix } bd
/iTm { _ctm setmatrix _tm concat } bd
/Tm { _tm astore pop iTm 0 0 moveto } bd
/ux 0.0 def
/uy 0.0 def
/F {
  /Tp exch def
  /Tf exch def
  Tf findfont Tp scalefont setfont
  /cf Tf def  /cs Tp def
} bd
/ULS {currentpoint /uy exch def /ux exch def} bd
/ULE {
  /Tcx currentpoint pop def
  gsave
  newpath
  cf findfont cs scalefont dup
  /FontMatrix get 0 get /Ts exch def /FontInfo get dup
  /UnderlinePosition get Ts mul /To exch def
  /UnderlineThickness get Ts mul /Tt exch def
  ux uy To add moveto  Tcx uy To add lineto
  Tt setlinewidth stroke
  grestore
} bd
/OLE {
  /Tcx currentpoint pop def
  gsave
  newpath
  cf findfont cs scalefont dup
  /FontMatrix get 0 get /Ts exch def /FontInfo get dup
  /UnderlinePosition get Ts mul /To exch def
  /UnderlineThickness get Ts mul /Tt exch def
  ux uy To add cs add moveto Tcx uy To add cs add lineto
  Tt setlinewidth stroke
  grestore
} bd
/SOE {
  /Tcx currentpoint pop def
  gsave
  newpath
  cf findfont cs scalefont dup
  /FontMatrix get 0 get /Ts exch def /FontInfo get dup
  /UnderlinePosition get Ts mul /To exch def
  /UnderlineThickness get Ts mul /Tt exch def
  ux uy To add cs 10 mul 26 idiv add moveto Tcx uy To add cs 10 mul 26 idiv add lineto
  Tt setlinewidth stroke
  grestore
} bd
/QT {
/Y22 exch store
/X22 exch store
/Y21 exch store
/X21 exch store
currentpoint
/Y21 load 2 mul add 3 div exch
/X21 load 2 mul add 3 div exch
/X21 load 2 mul /X22 load add 3 div
/Y21 load 2 mul /Y22 load add 3 div
/X22 load /Y22 load curveto
} bd
/SSPD {
dup length /d exch dict def
{
/v exch def
/k exch def
currentpagedevice k known {
/cpdv currentpagedevice k get def
v cpdv ne {
/upd false def
/nullv v type /nulltype eq def
/nullcpdv cpdv type /nulltype eq def
nullv nullcpdv or
{
/upd true def
} {
/sametype v type cpdv type eq def
sametype {
v type /arraytype eq {
/vlen v length def
/cpdvlen cpdv length def
vlen cpdvlen eq {
0 1 vlen 1 sub {
/i exch def
/obj v i get def
/cpdobj cpdv i get def
obj cpdobj ne {
/upd true def
exit
} if
} for
} {
/upd true def
} ifelse
} {
v type /dicttype eq {
v {
/dv exch def
/dk exch def
/cpddv cpdv dk get def
dv cpddv ne {
/upd true def
exit
} if
} forall
} {
/upd true def
} ifelse
} ifelse
} if
} ifelse
upd true eq {
d k v put
} if
} if
} if
} forall
d length 0 gt {
d setpagedevice
} if
} bd
/RE { % /NewFontName [NewEncodingArray] /FontName RE -
  findfont dup length dict begin
  {
    1 index /FID ne
    {def} {pop pop} ifelse
  } forall
  /Encoding exch def
  /FontName 1 index def
  currentdict definefont pop
  end
} bind def
%%EndResource
%%BeginResource: procset (Apache XML Graphics EPS ProcSet) 1.0 0
%%Version: 1.0 0
%%Copyright: (Copyright 2002-2003 The Apache Software Foundation. License terms: http://www.apache.org/licenses/LICENSE-2.0)
/BeginEPSF { %def
/b4_Inc_state save def         % Save state for cleanup
/dict_count countdictstack def % Count objects on dict stack
/op_count count 1 sub def      % Count objects on operand stack
userdict begin                 % Push userdict on dict stack
/showpage { } def              % Redefine showpage, { } = null proc
0 setgray 0 setlinecap         % Prepare graphics state
1 setlinewidth 0 setlinejoin
10 setmiterlimit [ ] 0 setdash newpath
/languagelevel where           % If level not equal to 1 then
{pop languagelevel             % set strokeadjust and
1 ne                           % overprint to their defaults.
{false setstrokeadjust false setoverprint
} if
} if
} bd
/EndEPSF { %def
count op_count sub {pop} repeat            % Clean up stacks
countdictstack dict_count sub {end} repeat
b4_Inc_state restore
} bd
%%EndResource
%FOPBeginFontDict
%%IncludeResource: font Courier-Oblique
%%IncludeResource: font Courier-BoldOblique
%%IncludeResource: font Courier-Bold
%%IncludeResource: font ZapfDingbats
%%IncludeResource: font Symbol
%%IncludeResource: font Helvetica
%%IncludeResource: font Helvetica-Oblique
%%IncludeResource: font Helvetica-Bold
%%IncludeResource: font Helvetica-BoldOblique
%%IncludeResource: font Times-Roman
%%IncludeResource: font Times-Italic
%%IncludeResource: font Times-Bold
%%IncludeResource: font Times-BoldItalic
%%IncludeResource: font Courier
%FOPEndFontDict
%%BeginResource: encoding WinAnsiEncoding
/WinAnsiEncoding [
/.notdef /.notdef /.notdef /.notdef /.notdef
/.notdef /.notdef /.notdef /.notdef /.notdef
/.notdef /.notdef /.notdef /.notdef /.notdef
/.notdef /.notdef /.notdef /.notdef /.notdef
/.notdef /.notdef /.notdef /.notdef /.notdef
/.notdef /.notdef /.notdef /.notdef /.notdef
/.notdef /.notdef /space /exclam /quotedbl
/numbersign /dollar /percent /ampersand /quotesingle
/parenleft /parenright /asterisk /plus /comma
/hyphen /period /slash /zero /one
/two /three /four /five /six
/seven /eight /nine /colon /semicolon
/less /equal /greater /question /at
/A /B /C /D /E
/F /G /H /I /J
/K /L /M /N /O
/P /Q /R /S /T
/U /V /W /X /Y
/Z /bracketleft /backslash /bracketright /asciicircum
/underscore /quoteleft /a /b /c
/d /e /f /g /h
/i /j /k /l /m
/n /o /p /q /r
/s /t /u /v /w
/x /y /z /braceleft /bar
/braceright /asciitilde /bullet /Euro /bullet
/quotesinglbase /florin /quotedblbase /ellipsis /dagger
/daggerdbl /circumflex /perthousand /Scaron /guilsinglleft
/OE /bullet /Zcaron /bullet /bullet
/quoteleft /quoteright /quotedblleft /quotedblright /bullet
/endash /emdash /asciitilde /trademark /scaron
/guilsinglright /oe /bullet /zcaron /Ydieresis
/space /exclamdown /cent /sterling /currency
/yen /brokenbar /section /dieresis /copyright
/ordfeminine /guillemotleft /logicalnot /sfthyphen /registered
/macron /degree /plusminus /twosuperior /threesuperior
/acute /mu /paragraph /middot /cedilla
/onesuperior /ordmasculine /guillemotright /onequarter /onehalf
/threequarters /questiondown /Agrave /Aacute /Acircumflex
/Atilde /Adieresis /Aring /AE /Ccedilla
/Egrave /Eacute /Ecircumflex /Edieresis /Igrave
/Iacute /Icircumflex /Idieresis /Eth /Ntilde
/Ograve /Oacute /Ocircumflex /Otilde /Odieresis
/multiply /Oslash /Ugrave /Uacute /Ucircumflex
/Udieresis /Yacute /Thorn /germandbls /agrave
/aacute /acircumflex /atilde /adieresis /aring
/ae /ccedilla /egrave /eacute /ecircumflex
/edieresis /igrave /iacute /icircumflex /idieresis
/eth /ntilde /ograve /oacute /ocircumflex
/otilde /odieresis /divide /oslash /ugrave
/uacute /ucircumflex /udieresis /yacute /thorn
/ydieresis
] def
%%EndResource
%FOPBeginFontReencode
/Courier-Oblique findfont
dup length dict begin
  {1 index /FID ne {def} {pop pop} ifelse} forall
  /Encoding WinAnsiEncoding def
  currentdict
end
/Courier-Oblique exch definefont pop
/Courier-BoldOblique findfont
dup length dict begin
  {1 index /FID ne {def} {pop pop} ifelse} forall
  /Encoding WinAnsiEncoding def
  currentdict
end
/Courier-BoldOblique exch definefont pop
/Courier-Bold findfont
dup length dict begin
  {1 index /FID ne {def} {pop pop} ifelse} forall
  /Encoding WinAnsiEncoding def
  currentdict
end
/Courier-Bold exch definefont pop
/Helvetica findfont
dup length dict begin
  {1 index /FID ne {def} {pop pop} ifelse} forall
  /Encoding WinAnsiEncoding def
  currentdict
end
/Helvetica exch definefont pop
/Helvetica-Oblique findfont
dup length dict begin
  {1 index /FID ne {def} {pop pop} ifelse} forall
  /Encoding WinAnsiEncoding def
  currentdict
end
/Helvetica-Oblique exch definefont pop
/Helvetica-Bold findfont
dup length dict begin
  {1 index /FID ne {def} {pop pop} ifelse} forall
  /Encoding WinAnsiEncoding def
  currentdict
end
/Helvetica-Bold exch definefont pop
/Helvetica-BoldOblique findfont
dup length dict begin
  {1 index /FID ne {def} {pop pop} ifelse} forall
  /Encoding WinAnsiEncoding def
  currentdict
end
/Helvetica-BoldOblique exch definefont pop
/Times-Roman findfont
dup length dict begin
  {1 index /FID ne {def} {pop pop} ifelse} forall
  /Encoding WinAnsiEncoding def
  currentdict
end
/Times-Roman exch definefont pop
/Times-Italic findfont
dup length dict begin
  {1 index /FID ne {def} {pop pop} ifelse} forall
  /Encoding WinAnsiEncoding def
  currentdict
end
/Times-Italic exch definefont pop
/Times-Bold findfont
dup length dict begin
  {1 index /FID ne {def} {pop pop} ifelse} forall
  /Encoding WinAnsiEncoding def
  currentdict
end
/Times-Bold exch definefont pop
/Times-BoldItalic findfont
dup length dict begin
  {1 index /FID ne {def} {pop pop} ifelse} forall
  /Encoding WinAnsiEncoding def
  currentdict
end
/Times-BoldItalic exch definefont pop
/Courier findfont
dup length dict begin
  {1 index /FID ne {def} {pop pop} ifelse} forall
  /Encoding WinAnsiEncoding def
  currentdict
end
/Courier exch definefont pop
%FOPEndFontReencode
%%EndProlog
%%Page: 1 1
%%PageBoundingBox: 0 0 831 527
%%BeginPageSetup
[1 0 0 -1 0 527] CT
%%EndPageSetup
GS
1 GC
N
0 0 831 527 re
f
GR
GS
1 GC
N
0 0 831 527 re
f
GR
GS
1 GC
N
108 448 M
752 448 L
752 40 L
108 40 L
cp
f
GR
GS
0.873 GC
1 LJ
0.5 LW
N
108 448 M
108 40 L
S
GR
GS
0.873 GC
1 LJ
0.5 LW
N
236.8 448 M
236.8 40 L
S
GR
GS
0.873 GC
1 LJ
0.5 LW
N
365.6 448 M
365.6 40 L
S
GR
GS
0.873 GC
1 LJ
0.5 LW
N
494.4 448 M
494.4 40 L
S
GR
GS
0.873 GC
1 LJ
0.5 LW
N
623.2 448 M
623.2 40 L
S
GR
GS
0.873 GC
1 LJ
0.5 LW
N
752 448 M
752 40 L
S
GR
GS
0.873 GC
1 LJ
0.5 LW
N
752 448 M
108 448 L
S
GR
GS
0.873 GC
1 LJ
0.5 LW
N
752 312 M
108 312 L
S
GR
GS
0.873 GC
1 LJ
0.5 LW
N
752 176 M
108 176 L
S
GR
GS
0.873 GC
1 LJ
0.5 LW
N
752 40 M
108 40 L
S
GR
GS
0.149 GC
2 setlinecap
1 LJ
0.5 LW
N
108 448 M
752 448 L
S
GR
GS
0.149 GC
2 setlinecap
1 LJ
0.5 LW
N
108 40 M
752 40 L
S
GR
GS
0.149 GC
2 setlinecap
1 LJ
0.5 LW
N
108 448 M
108 441.56 L
S
GR
GS
0.149 GC
2 setlinecap
1 LJ
0.5 LW
N
236.8 448 M
236.8 441.56 L
S
GR
GS
0.149 GC
2 setlinecap
1 LJ
0.5 LW
N
365.6 448 M
365.6 441.56 L
S
GR
GS
0.149 GC
2 setlinecap
1 LJ
0.5 LW
N
494.4 448 M
494.4 441.56 L
S
GR
GS
0.149 GC
2 setlinecap
1 LJ
0.5 LW
N
623.2 448 M
623.2 441.56 L
S
GR
GS
0.149 GC
2 setlinecap
1 LJ
0.5 LW
N
752 448 M
752 441.56 L
S
GR
GS
0.149 GC
2 setlinecap
1 LJ
0.5 LW
N
108 40 M
108 46.44 L
S
GR
GS
0.149 GC
2 setlinecap
1 LJ
0.5 LW
N
236.8 40 M
236.8 46.44 L
S
GR
GS
0.149 GC
2 setlinecap
1 LJ
0.5 LW
N
365.6 40 M
365.6 46.44 L
S
GR
GS
0.149 GC
2 setlinecap
1 LJ
0.5 LW
N
494.4 40 M
494.4 46.44 L
S
GR
GS
0.149 GC
2 setlinecap
1 LJ
0.5 LW
N
623.2 40 M
623.2 46.44 L
S
GR
GS
0.149 GC
2 setlinecap
1 LJ
0.5 LW
N
752 40 M
752 46.44 L
S
GR
GS
[1 0 0 1 108 455.60001] CT
0.149 GC
/Helvetica 28 F
GS
[1 0 0 1 0 0] CT
-8 27 moveto 
1 -1 scale
(0) t 
GR
GR
GS
[1 0 0 1 236.8 455.60001] CT
0.149 GC
/Helvetica 28 F
GS
[1 0 0 1 0 0] CT
-19.5 27 moveto 
1 -1 scale
(0.2) t 
GR
GR
GS
[1 0 0 1 365.60001 455.60001] CT
0.149 GC
/Helvetica 28 F
GS
[1 0 0 1 0 0] CT
-19.5 27 moveto 
1 -1 scale
(0.4) t 
GR
GR
GS
[1 0 0 1 494.40002 455.60001] CT
0.149 GC
/Helvetica 28 F
GS
[1 0 0 1 0 0] CT
-19.5 27 moveto 
1 -1 scale
(0.6) t 
GR
GR
GS
[1 0 0 1 623.20001 455.60001] CT
0.149 GC
/Helvetica 28 F
GS
[1 0 0 1 0 0] CT
-19.5 27 moveto 
1 -1 scale
(0.8) t 
GR
GR
GS
[1 0 0 1 752 455.60001] CT
0.149 GC
/Helvetica 28 F
GS
[1 0 0 1 0 0] CT
-8 27 moveto 
1 -1 scale
(1) t 
GR
GR
GS
[1 0 0 1 430.00031 489.59998] CT
0.149 GC
/Helvetica 30.8 F
GS
[1 0 0 1 0 0] CT
-120.5 30 moveto 
1 -1 scale
(False Match Rate) t 
GR
GR
GS
0.149 GC
2 setlinecap
1 LJ
0.5 LW
N
108 448 M
108 40 L
S
GR
GS
0.149 GC
2 setlinecap
1 LJ
0.5 LW
N
752 448 M
752 40 L
S
GR
GS
0.149 GC
2 setlinecap
1 LJ
0.5 LW
N
108 448 M
114.44 448 L
S
GR
GS
0.149 GC
2 setlinecap
1 LJ
0.5 LW
N
108 312 M
114.44 312 L
S
GR
GS
0.149 GC
2 setlinecap
1 LJ
0.5 LW
N
108 176 M
114.44 176 L
S
GR
GS
0.149 GC
2 setlinecap
1 LJ
0.5 LW
N
108 40 M
114.44 40 L
S
GR
GS
0.149 GC
2 setlinecap
1 LJ
0.5 LW
N
752 448 M
745.56 448 L
S
GR
GS
0.149 GC
2 setlinecap
1 LJ
0.5 LW
N
752 312 M
745.56 312 L
S
GR
GS
0.149 GC
2 setlinecap
1 LJ
0.5 LW
N
752 176 M
745.56 176 L
S
GR
GS
0.149 GC
2 setlinecap
1 LJ
0.5 LW
N
752 40 M
745.56 40 L
S
GR
GS
[1 0 0 1 100.4 447.99994] CT
0.149 GC
/Helvetica 28 F
GS
[1 0 0 1 0 0] CT
-55 10.5 moveto 
1 -1 scale
(0.85) t 
GR
GR
GS
[1 0 0 1 100.4 312.00006] CT
0.149 GC
/Helvetica 28 F
GS
[1 0 0 1 0 0] CT
-39 10.5 moveto 
1 -1 scale
(0.9) t 
GR
GR
GS
[1 0 0 1 100.4 176.00003] CT
0.149 GC
/Helvetica 28 F
GS
[1 0 0 1 0 0] CT
-55 10.5 moveto 
1 -1 scale
(0.95) t 
GR
GR
GS
[1 0 0 1 100.4 40] CT
0.149 GC
/Helvetica 28 F
GS
[1 0 0 1 0 0] CT
-16 10.5 moveto 
1 -1 scale
(1) t 
GR
GR
GS
[0 -1 1 0 42.4 243.9998] CT
0.149 GC
/Helvetica 30.8 F
GS
[1 0 0 1 0 0] CT
-178 -7 moveto 
1 -1 scale
(1 - False Non-Match Rate) t 
GR
GR
GS
0 0 1 RC
1 LJ
3 LW
N
108.169 448.049 M
108.197 444.193 L
108.202 441.425 L
108.223 438.657 L
108.24 435.888 L
108.249 434.504 L
108.262 433.12 L
108.275 431.735 L
108.305 431.735 L
108.313 427.583 L
108.33 423.43 L
108.356 423.43 L
108.378 420.661 L
108.395 419.277 L
108.45 415.125 L
108.485 412.356 L
108.532 409.588 L
108.605 409.588 L
108.644 408.204 L
108.661 406.819 L
108.708 404.051 L
108.746 404.051 L
108.794 399.898 L
108.849 397.13 L
108.867 395.746 L
108.914 391.593 L
108.961 390.209 L
109.008 390.209 L
109.064 386.056 L
109.145 386.056 L
109.218 386.056 L
109.3 386.056 L
109.403 384.672 L
109.497 384.672 L
109.596 381.903 L
109.647 381.903 L
109.776 381.903 L
109.862 380.519 L
109.948 377.751 L
110.059 376.366 L
110.158 376.366 L
110.295 376.366 L
110.433 374.982 L
110.6 374.982 L
110.759 372.214 L
110.965 370.83 L
111.093 369.445 L
111.291 368.061 L
111.475 368.061 L
111.621 368.061 L
111.801 366.677 L
112.028 365.293 L
112.226 361.14 L
112.457 359.756 L
112.723 358.371 L
112.989 355.603 L
113.191 354.219 L
113.53 352.835 L
113.817 351.45 L
114.131 350.066 L
114.482 350.066 L
114.766 347.298 L
115.147 347.298 L
115.512 345.913 L
115.928 344.529 L
116.314 343.145 L
116.748 341.761 L
117.267 337.608 L
117.734 336.224 L
118.211 334.84 L
118.725 332.071 L
119.232 330.687 L
119.686 325.15 L
120.291 325.15 L
120.913 323.766 L
121.553 322.382 L
122.239 320.997 L
122.917 316.845 L
123.599 315.461 L
124.324 315.461 L
125.221 315.461 L
126.062 314.076 L
126.872 311.308 L
127.821 309.924 L
128.696 309.924 L
129.575 308.54 L
130.528 307.155 L
131.639 305.771 L
132.613 304.387 L
133.797 304.387 L
135.092 303.002 L
136.478 303.002 L
138.065 303.002 L
139.228 300.234 L
140.661 296.081 L
142.175 293.313 L
143.707 293.313 L
145.312 290.544 L
146.89 290.544 L
148.546 287.776 L
150.185 287.776 L
152.017 286.392 L
153.566 286.392 L
155.599 285.008 L
157.371 285.008 L
159.323 285.008 L
161.455 283.623 L
163.588 282.239 L
165.694 282.239 L
168.139 279.471 L
170.357 278.087 L
172.829 276.702 L
175.313 275.318 L
177.805 275.318 L
180.632 273.934 L
183.288 273.934 L
186.463 273.934 L
189.067 269.781 L
191.941 269.781 L
194.889 265.629 L
198.012 265.629 L
201.152 265.629 L
204.546 265.629 L
207.935 262.86 L
211.594 260.092 L
215.323 258.707 L
218.69 251.786 L
222.281 249.018 L
225.803 249.018 L
229.853 246.249 L
233.547 244.865 L
237.498 244.865 L
241.445 244.865 L
246.285 242.097 L
249.854 237.944 L
254.492 235.176 L
258.555 235.176 L
262.965 231.023 L
267.392 229.639 L
271.781 226.87 L
276.436 225.486 L
281.374 222.718 L
286.299 222.718 L
290.885 222.718 L
296.136 221.333 L
301.074 221.333 L
306.557 219.949 L
311.791 219.949 L
316.841 217.181 L
322.199 215.796 L
327.54 214.412 L
333.027 214.412 L
338.399 214.412 L
343.894 213.028 L
349.69 213.028 L
355.07 213.028 L
361.248 210.26 L
366.602 208.875 L
372.282 204.723 L
378.241 204.723 L
383.84 203.338 L
390.228 203.338 L
395.505 200.57 L
401.383 200.57 L
406.423 200.57 L
413.026 199.186 L
418.736 197.802 L
424.446 196.417 L
430.547 196.417 L
436.18 195.033 L
442.607 193.649 L
448.484 190.88 L
454.426 189.496 L
460.509 188.112 L
466.627 186.728 L
472.561 186.728 L
478.648 183.959 L
484.264 182.575 L
489.841 182.575 L
495.483 181.191 L
501.339 179.807 L
507.096 179.807 L
512.751 178.422 L
518.431 178.422 L
524.171 178.422 L
529.306 178.422 L
534.905 178.422 L
540.401 177.038 L
545.918 175.654 L
551.405 175.654 L
556.691 175.654 L
561.59 175.654 L
567.193 175.654 L
571.663 175.654 L
576.666 174.27 L
581.398 174.27 L
586.571 174.27 L
591.471 174.27 L
596.327 174.27 L
601.025 172.885 L
605.628 170.117 L
610.721 170.117 L
615.298 167.349 L
619.593 167.349 L
624.012 167.349 L
628.559 165.964 L
632.794 164.58 L
636.844 161.812 L
640.4 161.812 L
644.609 161.812 L
648.38 161.812 L
652.108 160.427 L
656.003 160.427 L
659.375 160.427 L
662.958 160.427 L
666.471 160.427 L
669.762 159.043 L
672.791 157.659 L
676.043 157.659 L
679.325 157.659 L
682.156 157.659 L
684.945 157.659 L
688.077 156.275 L
690.711 154.891 L
693.315 152.122 L
696.001 152.122 L
698.609 152.122 L
700.909 152.122 L
703.281 152.122 L
705.297 150.738 L
707.837 150.738 L
709.789 149.354 L
711.6 147.969 L
713.702 146.585 L
716.139 142.433 L
716.649 142.433 L
719.558 138.28 L
720.33 138.28 L
722.376 134.127 L
724.101 134.127 L
725.358 134.127 L
726.504 131.359 L
728.057 131.359 L
729.146 129.975 L
730.459 129.975 L
731.609 128.59 L
732.771 125.822 L
733.737 124.438 L
734.693 124.438 L
735.654 121.669 L
736.688 121.669 L
737.521 121.669 L
738.555 117.516 L
739.245 116.132 L
740.086 110.595 L
740.734 109.211 L
741.549 107.827 L
742.167 106.443 L
742.78 103.674 L
743.222 103.674 L
743.737 100.906 L
744.346 99.522 L
744.758 99.522 L
745.127 98.137 L
745.582 98.137 L
745.938 98.137 L
746.341 96.753 L
746.719 89.832 L
747.105 88.448 L
747.354 88.448 L
747.654 88.448 L
747.95 84.295 L
748.212 81.527 L
748.456 80.143 L
748.714 78.758 L
748.98 77.374 L
749.177 77.374 L
749.387 75.99 L
749.576 74.606 L
749.709 73.221 L
749.855 70.453 L
749.988 70.453 L
750.099 67.684 L
750.241 64.916 L
750.383 63.532 L
750.477 62.148 L
750.589 59.379 L
750.696 57.995 L
750.764 55.226 L
750.85 53.842 L
750.919 53.842 L
750.992 53.842 L
751.086 53.842 L
751.146 53.842 L
751.198 52.458 L
751.241 49.69 L
751.275 46.921 L
751.318 46.921 L
751.369 46.921 L
751.404 45.537 L
751.421 45.537 L
751.464 45.537 L
751.519 45.537 L
751.575 45.537 L
751.597 45.537 L
751.618 45.537 L
751.64 44.153 L
751.665 44.153 L
751.691 44.153 L
751.713 44.153 L
751.73 41.384 L
751.747 41.384 L
751.768 41.384 L
751.794 41.384 L
751.798 41.384 L
751.82 40 L
751.828 40 L
751.837 40 L
751.854 40 L
751.858 40 L
751.867 40 L
751.871 40 L
751.871 40 L
751.876 40 L
751.88 40 L
751.888 40 L
751.893 40 L
751.906 40 L
751.918 40 L
751.923 40 L
751.931 40 L
751.936 40 L
751.944 40 L
751.949 40 L
751.957 40 L
751.957 40 L
751.957 40 L
751.966 40 L
751.974 40 L
751.974 40 L
751.979 40 L
751.979 40 L
751.979 40 L
751.979 40 L
751.979 40 L
751.979 40 L
751.979 40 L
751.979 40 L
751.979 40 L
751.983 40 L
751.983 40 L
751.983 40 L
751.983 40 L
751.983 40 L
751.983 40 L
751.983 40 L
751.983 40 L
751.987 40 L
751.991 40 L
751.991 40 L
751.991 40 L
751.991 40 L
751.991 40 L
751.991 40 L
751.991 40 L
751.996 40 L
751.996 40 L
751.996 40 L
751.996 40 L
751.996 40 L
752 40 L
S
GR
GS
0 1 0 RC
1 LJ
3 LW
N
108 448.049 M
108 446.962 L
108 445.578 L
108 444.193 L
108 441.425 L
108 434.504 L
108 434.504 L
108 433.12 L
108 430.351 L
108 426.199 L
108 424.814 L
108 424.814 L
108 424.814 L
108 422.046 L
108 420.661 L
108 419.277 L
108 419.277 L
108 416.509 L
108 416.509 L
108 412.356 L
108 409.588 L
108 409.588 L
108 409.588 L
108 409.588 L
108 405.435 L
108 395.746 L
108 394.361 L
108 390.209 L
108 388.824 L
108 386.056 L
108 383.288 L
108 379.135 L
108 374.982 L
108 369.445 L
108 366.677 L
108 359.756 L
108 356.987 L
108 355.603 L
108 352.835 L
108 351.45 L
108 350.066 L
108 343.145 L
108 341.761 L
108 337.608 L
108 336.224 L
108 333.455 L
108.004 332.071 L
108.004 325.15 L
108.009 323.766 L
108.009 318.229 L
108.009 318.229 L
108.009 316.845 L
108.009 309.924 L
108.009 301.618 L
108.009 300.234 L
108.009 296.081 L
108.013 293.313 L
108.013 293.313 L
108.013 291.929 L
108.013 290.544 L
108.013 280.855 L
108.013 279.471 L
108.013 278.087 L
108.022 276.702 L
108.026 275.318 L
108.026 271.165 L
108.039 268.397 L
108.043 267.013 L
108.052 264.244 L
108.069 262.86 L
108.09 260.092 L
108.103 254.555 L
108.116 250.402 L
108.142 249.018 L
108.177 247.634 L
108.207 244.865 L
108.254 240.712 L
108.267 236.56 L
108.306 232.407 L
108.362 228.254 L
108.422 226.87 L
108.487 224.102 L
108.586 221.333 L
108.68 218.565 L
108.771 217.181 L
108.848 215.796 L
108.896 213.028 L
108.986 211.644 L
109.111 208.875 L
109.232 208.875 L
109.395 206.107 L
109.52 204.723 L
109.653 200.57 L
109.809 199.186 L
109.959 195.033 L
110.17 192.265 L
110.39 192.265 L
110.652 189.496 L
110.898 186.728 L
111.165 183.959 L
111.436 182.575 L
111.785 179.807 L
112.151 179.807 L
112.556 179.807 L
113.06 178.422 L
113.598 177.038 L
114.119 177.038 L
114.58 175.654 L
115.161 171.501 L
115.841 170.117 L
116.496 170.117 L
117.116 168.733 L
117.938 168.733 L
118.756 165.964 L
119.48 164.58 L
120.298 163.196 L
121.219 161.812 L
122.18 160.427 L
123.191 159.043 L
124.139 157.659 L
125.056 156.275 L
126.033 153.506 L
127.149 153.506 L
128.208 152.122 L
129.155 150.738 L
130.223 150.738 L
131.239 150.738 L
132.316 149.354 L
133.418 147.969 L
134.391 145.201 L
135.459 145.201 L
136.475 145.201 L
137.56 145.201 L
138.594 145.201 L
139.545 143.817 L
140.351 143.817 L
141.436 142.433 L
142.353 142.433 L
143.24 142.433 L
144.192 142.433 L
145.1 139.664 L
145.974 139.664 L
146.685 138.28 L
147.46 138.28 L
148.218 138.28 L
148.967 138.28 L
149.682 138.28 L
150.323 135.512 L
150.939 135.512 L
151.525 134.127 L
152.067 134.127 L
152.524 134.127 L
152.903 132.743 L
153.359 131.359 L
153.807 131.359 L
154.181 129.975 L
154.474 129.975 L
154.866 129.975 L
155.155 129.975 L
155.409 129.975 L
155.663 129.975 L
155.848 129.975 L
156.033 129.975 L
156.222 129.975 L
156.356 129.975 L
156.442 129.975 L
156.524 129.975 L
156.614 129.975 L
156.688 129.975 L
156.761 128.59 L
156.864 128.59 L
156.903 128.59 L
156.937 128.59 L
156.963 128.59 L
156.998 128.59 L
157.036 128.59 L
157.062 128.59 L
157.079 128.59 L
157.105 128.59 L
157.122 128.59 L
157.14 128.59 L
157.144 128.59 L
157.148 128.59 L
157.17 128.59 L
158.914 125.822 L
161.36 125.822 L
163.792 124.438 L
166.311 118.901 L
168.865 116.132 L
171.763 114.748 L
174.484 113.364 L
177.201 111.98 L
180.056 110.595 L
183.41 107.827 L
186.859 107.827 L
190.33 107.827 L
193.964 107.827 L
197.792 107.827 L
201.612 106.443 L
205.582 105.059 L
209.759 103.674 L
213.888 103.674 L
218.259 103.674 L
222.672 103.674 L
226.901 103.674 L
231.319 103.674 L
235.792 103.674 L
240.202 103.674 L
244.624 103.674 L
248.904 103.674 L
253.003 103.674 L
256.62 103.674 L
260.143 103.674 L
263.23 103.674 L
265.964 103.674 L
268.19 103.674 L
270.335 103.674 L
272.023 103.674 L
273.284 103.674 L
274.262 103.674 L
275.007 103.674 L
275.536 103.674 L
276.014 103.674 L
276.23 103.674 L
276.367 103.674 L
276.449 103.674 L
276.523 103.674 L
276.531 103.674 L
276.548 103.674 L
276.557 103.674 L
276.566 103.674 L
276.566 103.674 L
276.566 103.674 L
276.566 103.674 L
276.566 103.674 L
276.566 103.674 L
276.566 103.674 L
276.566 103.674 L
276.566 103.674 L
276.566 103.674 L
276.566 103.674 L
276.566 103.674 L
276.566 103.674 L
276.566 103.674 L
276.566 103.674 L
276.566 103.674 L
276.566 103.674 L
276.566 103.674 L
276.566 103.674 L
276.566 103.674 L
276.566 103.674 L
276.566 103.674 L
276.566 103.674 L
276.566 103.674 L
276.566 103.674 L
276.566 103.674 L
276.566 103.674 L
276.566 103.674 L
276.566 103.674 L
276.566 103.674 L
276.566 103.674 L
276.566 103.674 L
276.566 103.674 L
276.566 103.674 L
276.566 103.674 L
276.566 103.674 L
276.566 103.674 L
276.566 103.674 L
276.566 103.674 L
276.566 103.674 L
276.566 103.674 L
276.566 103.674 L
276.566 103.674 L
276.566 103.674 L
276.566 103.674 L
276.566 103.674 L
276.566 103.674 L
276.566 103.674 L
276.566 103.674 L
276.566 103.674 L
276.566 103.674 L
276.566 103.674 L
276.566 103.674 L
276.566 103.674 L
276.566 103.674 L
276.566 103.674 L
276.566 103.674 L
276.566 103.674 L
276.566 103.674 L
276.566 103.674 L
276.566 103.674 L
276.566 103.674 L
276.566 103.674 L
276.566 103.674 L
276.566 103.674 L
276.566 103.674 L
276.566 103.674 L
276.566 103.674 L
276.566 103.674 L
276.566 103.674 L
276.566 103.674 L
276.566 103.674 L
276.566 103.674 L
276.566 103.674 L
276.566 103.674 L
276.566 103.674 L
276.566 103.674 L
276.566 103.674 L
276.566 103.674 L
276.566 103.674 L
276.566 103.674 L
276.566 103.674 L
276.566 103.674 L
276.566 103.674 L
276.566 103.674 L
276.566 103.674 L
276.566 103.674 L
276.566 103.674 L
276.566 103.674 L
276.566 103.674 L
276.566 103.674 L
276.566 103.674 L
276.566 103.674 L
276.566 103.674 L
276.566 103.674 L
276.566 103.674 L
276.566 103.674 L
276.566 103.674 L
276.566 103.674 L
276.566 103.674 L
276.566 103.674 L
276.566 103.674 L
276.566 103.674 L
276.566 103.674 L
276.566 103.674 L
276.566 103.674 L
276.566 103.674 L
276.566 103.674 L
276.566 103.674 L
276.566 103.674 L
276.566 103.674 L
276.566 103.674 L
276.566 103.674 L
276.566 103.674 L
276.566 103.674 L
276.566 103.674 L
276.566 103.674 L
276.566 103.674 L
276.566 103.674 L
276.566 103.674 L
276.566 103.674 L
276.566 103.674 L
276.566 103.674 L
276.566 103.674 L
276.566 103.674 L
276.566 103.674 L
276.566 103.674 L
276.566 103.674 L
276.566 103.674 L
276.566 103.674 L
276.566 103.674 L
276.566 103.674 L
276.566 103.674 L
276.566 103.674 L
276.566 103.674 L
276.566 103.674 L
276.566 103.674 L
276.566 103.674 L
276.566 103.674 L
276.566 103.674 L
276.566 103.674 L
276.566 103.674 L
276.566 103.674 L
276.566 103.674 L
276.566 103.674 L
276.566 103.674 L
276.566 103.674 L
276.566 103.674 L
276.566 103.674 L
276.566 103.674 L
276.566 103.674 L
276.566 103.674 L
276.566 103.674 L
276.566 103.674 L
276.566 103.674 L
276.566 103.674 L
276.566 103.674 L
276.566 103.674 L
276.566 103.674 L
276.566 103.674 L
276.566 103.674 L
276.566 103.674 L
276.566 103.674 L
276.566 103.674 L
276.566 103.674 L
276.566 103.674 L
276.566 103.674 L
276.566 103.674 L
276.566 103.674 L
276.566 103.674 L
276.566 103.674 L
276.566 103.674 L
276.566 103.674 L
276.566 103.674 L
276.566 103.674 L
276.566 103.674 L
276.566 103.674 L
276.566 103.674 L
276.566 103.674 L
276.566 103.674 L
276.566 103.674 L
276.566 103.674 L
276.566 103.674 L
276.566 103.674 L
276.566 103.674 L
276.566 103.674 L
276.566 103.674 L
276.566 103.674 L
276.566 103.674 L
276.566 103.674 L
276.566 103.674 L
276.566 103.674 L
276.566 103.674 L
276.566 103.674 L
276.566 103.674 L
276.566 103.674 L
276.566 103.674 L
276.566 103.674 L
276.566 103.674 L
276.566 103.674 L
276.566 103.674 L
276.566 103.674 L
276.566 103.674 L
276.566 103.674 L
276.566 103.674 L
276.566 103.674 L
276.566 103.674 L
276.566 103.674 L
276.566 103.674 L
276.566 103.674 L
276.566 103.674 L
276.566 103.674 L
276.566 103.674 L
276.566 103.674 L
276.566 103.674 L
276.566 103.674 L
276.566 103.674 L
276.566 103.674 L
276.566 103.674 L
276.566 103.674 L
276.566 103.674 L
276.566 103.674 L
276.566 103.674 L
276.566 103.674 L
276.566 103.674 L
276.566 103.674 L
276.566 103.674 L
276.566 103.674 L
276.566 103.674 L
276.566 103.674 L
276.566 103.674 L
276.566 103.674 L
276.566 103.674 L
276.566 103.674 L
276.566 103.674 L
276.566 103.674 L
276.566 103.674 L
276.566 103.674 L
276.566 103.674 L
276.566 103.674 L
276.566 103.674 L
276.566 103.674 L
276.566 103.674 L
276.566 103.674 L
276.566 103.674 L
276.566 103.674 L
276.566 103.674 L
276.566 103.674 L
276.566 103.674 L
276.566 103.674 L
276.566 103.674 L
276.566 103.674 L
276.566 103.674 L
276.566 103.674 L
276.566 103.674 L
276.566 103.674 L
276.566 103.674 L
276.566 103.674 L
276.566 103.674 L
276.566 103.674 L
276.566 103.674 L
276.566 103.674 L
276.566 103.674 L
276.566 103.674 L
276.566 103.674 L
276.566 103.674 L
276.566 103.674 L
276.566 103.674 L
276.566 103.674 L
276.566 103.674 L
276.566 103.674 L
276.566 103.674 L
276.566 103.674 L
276.566 103.674 L
276.566 103.674 L
276.566 103.674 L
276.566 103.674 L
276.566 103.674 L
276.566 103.674 L
276.566 103.674 L
276.566 103.674 L
276.566 103.674 L
276.566 103.674 L
276.566 103.674 L
276.566 103.674 L
276.566 103.674 L
276.566 103.674 L
276.566 103.674 L
276.566 103.674 L
276.566 103.674 L
276.566 103.674 L
276.566 103.674 L
276.566 103.674 L
276.566 103.674 L
276.566 103.674 L
276.566 103.674 L
276.566 103.674 L
276.566 103.674 L
276.566 103.674 L
276.566 103.674 L
276.566 103.674 L
276.566 103.674 L
276.566 103.674 L
276.566 103.674 L
276.566 103.674 L
276.566 103.674 L
276.566 103.674 L
276.566 103.674 L
276.566 103.674 L
276.566 103.674 L
276.566 103.674 L
276.566 103.674 L
276.566 103.674 L
276.566 103.674 L
276.566 103.674 L
276.566 103.674 L
276.566 103.674 L
276.566 103.674 L
276.566 103.674 L
276.566 103.674 L
276.566 103.674 L
276.566 103.674 L
276.566 103.674 L
276.566 103.674 L
276.566 103.674 L
276.566 103.674 L
276.566 103.674 L
276.566 103.674 L
276.566 103.674 L
276.566 103.674 L
276.566 103.674 L
276.566 103.674 L
276.566 103.674 L
276.566 103.674 L
276.566 103.674 L
276.566 103.674 L
276.566 103.674 L
276.566 103.674 L
276.566 103.674 L
276.566 103.674 L
276.566 103.674 L
276.566 103.674 L
276.566 103.674 L
276.566 103.674 L
276.566 103.674 L
276.566 103.674 L
276.566 103.674 L
276.566 103.674 L
276.566 103.674 L
276.566 103.674 L
276.566 103.674 L
752 40 L
S
GR
GS
1 LJ
3 LW
N
108 448.049 M
108 444.193 L
108 444.193 L
108 441.425 L
108 438.657 L
108 434.504 L
108.004 433.12 L
108.004 433.12 L
108.004 427.583 L
108.004 424.814 L
108.004 423.43 L
108.004 420.661 L
108.004 417.893 L
108.004 410.972 L
108.004 408.204 L
108.004 406.819 L
108.004 406.819 L
108.004 402.667 L
108.004 401.282 L
108.004 394.361 L
108.004 391.593 L
108.004 388.824 L
108.004 388.824 L
108.004 387.44 L
108.004 386.056 L
108.004 386.056 L
108.004 381.903 L
108.004 374.982 L
108.004 369.445 L
108.004 365.293 L
108.004 362.524 L
108.004 362.524 L
108.004 358.371 L
108.004 354.219 L
108.004 350.066 L
108.004 347.298 L
108.004 345.913 L
108.004 343.145 L
108.004 338.992 L
108.004 336.224 L
108.004 334.84 L
108.004 334.84 L
108.004 334.84 L
108.004 330.687 L
108.004 327.919 L
108.004 326.534 L
108.004 322.382 L
108.004 318.229 L
108.004 316.845 L
108.004 314.076 L
108.004 311.308 L
108.004 309.924 L
108.004 308.54 L
108.009 304.387 L
108.009 303.002 L
108.009 301.618 L
108.009 296.081 L
108.009 291.929 L
108.009 289.16 L
108.013 280.855 L
108.013 271.165 L
108.017 265.629 L
108.017 264.244 L
108.017 258.707 L
108.026 257.323 L
108.026 254.555 L
108.026 251.786 L
108.026 249.018 L
108.026 244.865 L
108.026 242.097 L
108.026 236.56 L
108.026 233.791 L
108.03 233.791 L
108.03 228.254 L
108.03 226.87 L
108.034 224.102 L
108.043 222.718 L
108.043 218.565 L
108.043 215.796 L
108.043 213.028 L
108.043 213.028 L
108.047 213.028 L
108.056 211.644 L
108.065 211.644 L
108.069 210.26 L
108.073 210.26 L
108.086 210.26 L
108.09 207.491 L
108.108 204.723 L
108.116 201.954 L
108.121 200.57 L
108.125 199.186 L
108.129 195.033 L
108.146 195.033 L
108.155 195.033 L
108.168 193.649 L
108.185 193.649 L
108.215 190.88 L
108.228 189.496 L
108.245 186.728 L
108.267 186.728 L
108.28 183.959 L
108.293 178.422 L
108.297 177.038 L
108.314 175.654 L
108.332 174.27 L
108.37 172.885 L
108.409 167.349 L
108.431 164.58 L
108.452 161.812 L
108.474 160.427 L
108.499 160.427 L
108.538 157.659 L
108.568 156.275 L
108.611 154.891 L
108.676 150.738 L
108.745 149.354 L
108.827 147.969 L
108.883 146.585 L
108.93 145.201 L
108.982 145.201 L
109.064 143.817 L
109.132 141.048 L
109.219 141.048 L
109.296 138.28 L
109.374 138.28 L
109.451 136.896 L
109.554 136.896 L
109.679 135.512 L
109.778 135.512 L
109.882 134.127 L
109.981 129.975 L
110.144 128.59 L
110.299 128.59 L
110.446 128.59 L
110.622 127.206 L
110.773 125.822 L
110.928 123.053 L
111.1 123.053 L
111.277 123.053 L
111.453 123.053 L
111.703 121.669 L
111.94 120.285 L
112.211 120.285 L
112.495 120.285 L
112.672 120.285 L
112.956 118.901 L
113.215 116.132 L
113.529 113.364 L
113.783 110.595 L
114.037 106.443 L
114.377 106.443 L
114.704 103.674 L
115.092 103.674 L
115.454 103.674 L
115.798 100.906 L
116.16 99.522 L
116.577 96.753 L
116.961 92.601 L
117.365 92.601 L
117.843 92.601 L
118.352 88.448 L
118.894 87.064 L
119.428 85.679 L
119.962 84.295 L
120.565 82.911 L
121.224 81.527 L
121.766 81.527 L
122.438 78.758 L
123.14 78.758 L
123.945 78.758 L
124.729 78.758 L
125.474 77.374 L
126.391 75.99 L
127.342 74.606 L
128.311 74.606 L
129.228 74.606 L
130.292 74.606 L
131.42 74.606 L
132.385 73.221 L
133.586 70.453 L
134.675 70.453 L
135.851 67.684 L
137.095 67.684 L
138.348 67.684 L
139.688 67.684 L
141.156 66.3 L
142.547 64.916 L
144.019 64.916 L
145.703 64.916 L
147.52 64.916 L
149.264 64.916 L
151.042 64.916 L
152.885 64.916 L
154.961 64.916 L
156.907 64.916 L
159.237 64.916 L
161.42 64.916 L
163.461 64.916 L
165.726 64.916 L
168.064 64.916 L
170.652 64.916 L
173.313 64.916 L
175.789 64.916 L
178.321 63.532 L
181.072 62.148 L
183.72 62.148 L
186.58 62.148 L
189.74 62.148 L
192.84 60.763 L
195.506 60.763 L
198.92 60.763 L
202.09 60.763 L
205.431 60.763 L
208.82 60.763 L
212.325 60.763 L
216.136 59.379 L
219.74 59.379 L
223.607 59.379 L
227.37 59.379 L
231.314 59.379 L
235.28 59.379 L
239.543 59.379 L
243.793 59.379 L
248.06 59.379 L
252.439 57.995 L
256.521 57.995 L
261.206 57.995 L
265.689 55.226 L
270.524 55.226 L
275.248 55.226 L
280.023 53.842 L
284.73 53.842 L
289.229 53.842 L
293.561 53.842 L
298.784 53.842 L
303.676 53.842 L
308.322 53.842 L
313.769 53.842 L
318.798 53.842 L
324.017 51.074 L
329.098 51.074 L
334.489 51.074 L
340.023 51.074 L
345.689 51.074 L
350.986 51.074 L
356.441 51.074 L
361.682 49.69 L
367.012 49.69 L
372.705 48.305 L
378.053 48.305 L
383.457 48.305 L
389.477 48.305 L
395.324 48.305 L
401.262 48.305 L
407.355 48.305 L
413.745 48.305 L
418.899 48.305 L
425.005 46.921 L
430.874 46.921 L
436.356 46.921 L
442.487 45.537 L
448.206 45.537 L
454.225 45.537 L
459.905 45.537 L
465.774 45.537 L
471.742 45.537 L
477.43 45.537 L
483.26 45.537 L
488.871 45.537 L
495.016 45.537 L
500.17 45.537 L
506.349 45.537 L
511.818 45.537 L
517.489 45.537 L
523.16 45.537 L
529.136 45.537 L
534.441 44.153 L
539.97 44.153 L
545.288 44.153 L
550.257 44.153 L
555.876 44.153 L
560.953 44.153 L
565.784 44.153 L
571.279 44.153 L
576.545 44.153 L
581.432 44.153 L
586.694 44.153 L
591.31 44.153 L
596.525 44.153 L
600.886 42.768 L
606.071 42.768 L
610.881 41.384 L
615.436 41.384 L
619.923 41.384 L
624.04 41.384 L
628.143 41.384 L
632.574 41.384 L
636.648 41.384 L
640.941 41.384 L
644.859 41.384 L
648.592 41.384 L
652.166 40 L
656.192 40 L
659.809 40 L
663.099 40 L
666.488 40 L
669.803 40 L
673.162 40 L
676.146 40 L
679.285 40 L
682.407 40 L
685.352 40 L
688.168 40 L
691.04 40 L
693.77 40 L
696.35 40 L
698.989 40 L
701.616 40 L
704.113 40 L
706.611 40 L
708.811 40 L
710.719 40 L
713.035 40 L
714.624 40 L
716.024 40 L
719.227 40 L
719.262 40 L
721.893 40 L
723.266 40 L
724.851 40 L
726.194 40 L
727.779 40 L
729.092 40 L
730.285 40 L
731.461 40 L
732.593 40 L
733.786 40 L
734.867 40 L
735.943 40 L
736.916 40 L
737.73 40 L
738.557 40 L
739.388 40 L
740.18 40 L
741.003 40 L
741.597 40 L
742.346 40 L
742.897 40 L
743.547 40 L
744.15 40 L
744.68 40 L
745.132 40 L
745.649 40 L
746.053 40 L
746.389 40 L
746.764 40 L
747.143 40 L
747.414 40 L
747.737 40 L
748.034 40 L
748.344 40 L
748.603 40 L
748.887 40 L
749.115 40 L
749.335 40 L
749.481 40 L
749.688 40 L
749.877 40 L
750.006 40 L
750.144 40 L
750.308 40 L
750.433 40 L
750.523 40 L
750.635 40 L
750.756 40 L
750.816 40 L
750.88 40 L
750.979 40 L
751.07 40 L
751.134 40 L
751.203 40 L
751.294 40 L
751.376 40 L
751.406 40 L
751.47 40 L
751.5 40 L
751.535 40 L
751.582 40 L
751.617 40 L
751.638 40 L
751.677 40 L
751.699 40 L
751.72 40 L
751.737 40 L
751.763 40 L
751.798 40 L
751.819 40 L
751.849 40 L
751.867 40 L
751.875 40 L
751.892 40 L
751.897 40 L
751.901 40 L
751.905 40 L
751.918 40 L
751.94 40 L
751.948 40 L
751.957 40 L
751.966 40 L
751.966 40 L
751.974 40 L
751.974 40 L
751.978 40 L
751.978 40 L
751.983 40 L
751.983 40 L
751.983 40 L
751.983 40 L
751.987 40 L
751.987 40 L
751.987 40 L
751.987 40 L
751.987 40 L
751.991 40 L
751.991 40 L
751.991 40 L
751.991 40 L
751.991 40 L
751.991 40 L
751.991 40 L
751.991 40 L
751.991 40 L
751.991 40 L
751.991 40 L
751.991 40 L
751.996 40 L
751.996 40 L
751.996 40 L
751.996 40 L
751.996 40 L
751.996 40 L
751.996 40 L
751.996 40 L
751.996 40 L
751.996 40 L
751.996 40 L
751.996 40 L
751.996 40 L
751.996 40 L
751.996 40 L
752 40 L
S
GR
GS
[10 6] 0 setdash
2 LJ
0.5 LW
N
204.611 448.049 M
108 40 L
S
GR
GS
1 GC
N
736 430 M
736 304 L
291 304 L
291 430 L
cp
f
GR
GS
[1 0 0 1 328 321.06772] CT
/Helvetica 25.2 F
GS
[1 0 0 1 0 0] CT
0 9 moveto 
1 -1 scale
(baseline OSIRIS, EER = 8.90%) t 
GR
GR
GS
0 0 1 RC
1 LJ
3 LW
N
295 321.068 M
325 321.068 L
S
GR
GS
[1 0 0 1 328 351.68924] CT
/Helvetica 25.2 F
GS
[1 0 0 1 0 0] CT
0 9 moveto 
1 -1 scale
(IriCore, EER = 3.97%) t 
GR
GR
GS
0 1 0 RC
1 LJ
3 LW
N
295 351.689 M
325 351.689 L
S
GR
GS
[1 0 0 1 328 382.31076] CT
/Helvetica 25.2 F
GS
[1 0 0 1 0 0] CT
0 9 moveto 
1 -1 scale
(train on healthy irises, EER = 1.73%) t 
GR
GR
GS
1 LJ
3 LW
N
295 382.311 M
325 382.311 L
S
GR
GS
[1 0 0 1 328 412.93228] CT
/Helvetica 25.2 F
GS
[1 0 0 1 0 0] CT
0 9 moveto 
1 -1 scale
(EER line) t 
GR
GR
GS
[10 6] 0 setdash
2 LJ
0.5 LW
N
295 412.932 M
325 412.932 L
S
GR
GS
0.149 GC
10.0 ML
0.5 LW
N
291 430 M
291 304 L
736 304 L
736 430 L
cp
S
GR
%%Trailer
%%Pages: 1
%%EOF
