%!PS-Adobe-3.0 EPSF-3.0
%%Creator: (MATLAB, The Mathworks, Inc. Version 9.5.0.1049112 \(R2018b\) Update 3. Operating System: Mac OS X)
%%Title: ./ROCs_postmortem_new_60.eps
%%CreationDate: 2019-06-16T12:49:58
%%Pages: (atend)
%%BoundingBox:    51     6   907   564
%%LanguageLevel: 3
%%EndComments
%%BeginProlog
%%BeginResource: procset (Apache XML Graphics Std ProcSet) 1.2 0
%%Version: 1.2 0
%%Copyright: (Copyright 2001-2003,2010 The Apache Software Foundation. License terms: http://www.apache.org/licenses/LICENSE-2.0)
/bd{bind def}bind def
/ld{load def}bd
/GR/grestore ld
/GS/gsave ld
/RM/rmoveto ld
/C/curveto ld
/t/show ld
/L/lineto ld
/ML/setmiterlimit ld
/CT/concat ld
/f/fill ld
/N/newpath ld
/S/stroke ld
/CC/setcmykcolor ld
/A/ashow ld
/cp/closepath ld
/RC/setrgbcolor ld
/LJ/setlinejoin ld
/GC/setgray ld
/LW/setlinewidth ld
/M/moveto ld
/re {4 2 roll M
1 index 0 rlineto
0 exch rlineto
neg 0 rlineto
cp } bd
/_ctm matrix def
/_tm matrix def
/BT { _ctm currentmatrix pop matrix _tm copy pop 0 0 moveto } bd
/ET { _ctm setmatrix } bd
/iTm { _ctm setmatrix _tm concat } bd
/Tm { _tm astore pop iTm 0 0 moveto } bd
/ux 0.0 def
/uy 0.0 def
/F {
  /Tp exch def
  /Tf exch def
  Tf findfont Tp scalefont setfont
  /cf Tf def  /cs Tp def
} bd
/ULS {currentpoint /uy exch def /ux exch def} bd
/ULE {
  /Tcx currentpoint pop def
  gsave
  newpath
  cf findfont cs scalefont dup
  /FontMatrix get 0 get /Ts exch def /FontInfo get dup
  /UnderlinePosition get Ts mul /To exch def
  /UnderlineThickness get Ts mul /Tt exch def
  ux uy To add moveto  Tcx uy To add lineto
  Tt setlinewidth stroke
  grestore
} bd
/OLE {
  /Tcx currentpoint pop def
  gsave
  newpath
  cf findfont cs scalefont dup
  /FontMatrix get 0 get /Ts exch def /FontInfo get dup
  /UnderlinePosition get Ts mul /To exch def
  /UnderlineThickness get Ts mul /Tt exch def
  ux uy To add cs add moveto Tcx uy To add cs add lineto
  Tt setlinewidth stroke
  grestore
} bd
/SOE {
  /Tcx currentpoint pop def
  gsave
  newpath
  cf findfont cs scalefont dup
  /FontMatrix get 0 get /Ts exch def /FontInfo get dup
  /UnderlinePosition get Ts mul /To exch def
  /UnderlineThickness get Ts mul /Tt exch def
  ux uy To add cs 10 mul 26 idiv add moveto Tcx uy To add cs 10 mul 26 idiv add lineto
  Tt setlinewidth stroke
  grestore
} bd
/QT {
/Y22 exch store
/X22 exch store
/Y21 exch store
/X21 exch store
currentpoint
/Y21 load 2 mul add 3 div exch
/X21 load 2 mul add 3 div exch
/X21 load 2 mul /X22 load add 3 div
/Y21 load 2 mul /Y22 load add 3 div
/X22 load /Y22 load curveto
} bd
/SSPD {
dup length /d exch dict def
{
/v exch def
/k exch def
currentpagedevice k known {
/cpdv currentpagedevice k get def
v cpdv ne {
/upd false def
/nullv v type /nulltype eq def
/nullcpdv cpdv type /nulltype eq def
nullv nullcpdv or
{
/upd true def
} {
/sametype v type cpdv type eq def
sametype {
v type /arraytype eq {
/vlen v length def
/cpdvlen cpdv length def
vlen cpdvlen eq {
0 1 vlen 1 sub {
/i exch def
/obj v i get def
/cpdobj cpdv i get def
obj cpdobj ne {
/upd true def
exit
} if
} for
} {
/upd true def
} ifelse
} {
v type /dicttype eq {
v {
/dv exch def
/dk exch def
/cpddv cpdv dk get def
dv cpddv ne {
/upd true def
exit
} if
} forall
} {
/upd true def
} ifelse
} ifelse
} if
} ifelse
upd true eq {
d k v put
} if
} if
} if
} forall
d length 0 gt {
d setpagedevice
} if
} bd
/RE { % /NewFontName [NewEncodingArray] /FontName RE -
  findfont dup length dict begin
  {
    1 index /FID ne
    {def} {pop pop} ifelse
  } forall
  /Encoding exch def
  /FontName 1 index def
  currentdict definefont pop
  end
} bind def
%%EndResource
%%BeginResource: procset (Apache XML Graphics EPS ProcSet) 1.0 0
%%Version: 1.0 0
%%Copyright: (Copyright 2002-2003 The Apache Software Foundation. License terms: http://www.apache.org/licenses/LICENSE-2.0)
/BeginEPSF { %def
/b4_Inc_state save def         % Save state for cleanup
/dict_count countdictstack def % Count objects on dict stack
/op_count count 1 sub def      % Count objects on operand stack
userdict begin                 % Push userdict on dict stack
/showpage { } def              % Redefine showpage, { } = null proc
0 setgray 0 setlinecap         % Prepare graphics state
1 setlinewidth 0 setlinejoin
10 setmiterlimit [ ] 0 setdash newpath
/languagelevel where           % If level not equal to 1 then
{pop languagelevel             % set strokeadjust and
1 ne                           % overprint to their defaults.
{false setstrokeadjust false setoverprint
} if
} if
} bd
/EndEPSF { %def
count op_count sub {pop} repeat            % Clean up stacks
countdictstack dict_count sub {end} repeat
b4_Inc_state restore
} bd
%%EndResource
%FOPBeginFontDict
%%IncludeResource: font Courier-Oblique
%%IncludeResource: font Courier-BoldOblique
%%IncludeResource: font Courier-Bold
%%IncludeResource: font ZapfDingbats
%%IncludeResource: font Symbol
%%IncludeResource: font Helvetica
%%IncludeResource: font Helvetica-Oblique
%%IncludeResource: font Helvetica-Bold
%%IncludeResource: font Helvetica-BoldOblique
%%IncludeResource: font Times-Roman
%%IncludeResource: font Times-Italic
%%IncludeResource: font Times-Bold
%%IncludeResource: font Times-BoldItalic
%%IncludeResource: font Courier
%FOPEndFontDict
%%BeginResource: encoding WinAnsiEncoding
/WinAnsiEncoding [
/.notdef /.notdef /.notdef /.notdef /.notdef
/.notdef /.notdef /.notdef /.notdef /.notdef
/.notdef /.notdef /.notdef /.notdef /.notdef
/.notdef /.notdef /.notdef /.notdef /.notdef
/.notdef /.notdef /.notdef /.notdef /.notdef
/.notdef /.notdef /.notdef /.notdef /.notdef
/.notdef /.notdef /space /exclam /quotedbl
/numbersign /dollar /percent /ampersand /quotesingle
/parenleft /parenright /asterisk /plus /comma
/hyphen /period /slash /zero /one
/two /three /four /five /six
/seven /eight /nine /colon /semicolon
/less /equal /greater /question /at
/A /B /C /D /E
/F /G /H /I /J
/K /L /M /N /O
/P /Q /R /S /T
/U /V /W /X /Y
/Z /bracketleft /backslash /bracketright /asciicircum
/underscore /quoteleft /a /b /c
/d /e /f /g /h
/i /j /k /l /m
/n /o /p /q /r
/s /t /u /v /w
/x /y /z /braceleft /bar
/braceright /asciitilde /bullet /Euro /bullet
/quotesinglbase /florin /quotedblbase /ellipsis /dagger
/daggerdbl /circumflex /perthousand /Scaron /guilsinglleft
/OE /bullet /Zcaron /bullet /bullet
/quoteleft /quoteright /quotedblleft /quotedblright /bullet
/endash /emdash /asciitilde /trademark /scaron
/guilsinglright /oe /bullet /zcaron /Ydieresis
/space /exclamdown /cent /sterling /currency
/yen /brokenbar /section /dieresis /copyright
/ordfeminine /guillemotleft /logicalnot /sfthyphen /registered
/macron /degree /plusminus /twosuperior /threesuperior
/acute /mu /paragraph /middot /cedilla
/onesuperior /ordmasculine /guillemotright /onequarter /onehalf
/threequarters /questiondown /Agrave /Aacute /Acircumflex
/Atilde /Adieresis /Aring /AE /Ccedilla
/Egrave /Eacute /Ecircumflex /Edieresis /Igrave
/Iacute /Icircumflex /Idieresis /Eth /Ntilde
/Ograve /Oacute /Ocircumflex /Otilde /Odieresis
/multiply /Oslash /Ugrave /Uacute /Ucircumflex
/Udieresis /Yacute /Thorn /germandbls /agrave
/aacute /acircumflex /atilde /adieresis /aring
/ae /ccedilla /egrave /eacute /ecircumflex
/edieresis /igrave /iacute /icircumflex /idieresis
/eth /ntilde /ograve /oacute /ocircumflex
/otilde /odieresis /divide /oslash /ugrave
/uacute /ucircumflex /udieresis /yacute /thorn
/ydieresis
] def
%%EndResource
%FOPBeginFontReencode
/Courier-Oblique findfont
dup length dict begin
  {1 index /FID ne {def} {pop pop} ifelse} forall
  /Encoding WinAnsiEncoding def
  currentdict
end
/Courier-Oblique exch definefont pop
/Courier-BoldOblique findfont
dup length dict begin
  {1 index /FID ne {def} {pop pop} ifelse} forall
  /Encoding WinAnsiEncoding def
  currentdict
end
/Courier-BoldOblique exch definefont pop
/Courier-Bold findfont
dup length dict begin
  {1 index /FID ne {def} {pop pop} ifelse} forall
  /Encoding WinAnsiEncoding def
  currentdict
end
/Courier-Bold exch definefont pop
/Helvetica findfont
dup length dict begin
  {1 index /FID ne {def} {pop pop} ifelse} forall
  /Encoding WinAnsiEncoding def
  currentdict
end
/Helvetica exch definefont pop
/Helvetica-Oblique findfont
dup length dict begin
  {1 index /FID ne {def} {pop pop} ifelse} forall
  /Encoding WinAnsiEncoding def
  currentdict
end
/Helvetica-Oblique exch definefont pop
/Helvetica-Bold findfont
dup length dict begin
  {1 index /FID ne {def} {pop pop} ifelse} forall
  /Encoding WinAnsiEncoding def
  currentdict
end
/Helvetica-Bold exch definefont pop
/Helvetica-BoldOblique findfont
dup length dict begin
  {1 index /FID ne {def} {pop pop} ifelse} forall
  /Encoding WinAnsiEncoding def
  currentdict
end
/Helvetica-BoldOblique exch definefont pop
/Times-Roman findfont
dup length dict begin
  {1 index /FID ne {def} {pop pop} ifelse} forall
  /Encoding WinAnsiEncoding def
  currentdict
end
/Times-Roman exch definefont pop
/Times-Italic findfont
dup length dict begin
  {1 index /FID ne {def} {pop pop} ifelse} forall
  /Encoding WinAnsiEncoding def
  currentdict
end
/Times-Italic exch definefont pop
/Times-Bold findfont
dup length dict begin
  {1 index /FID ne {def} {pop pop} ifelse} forall
  /Encoding WinAnsiEncoding def
  currentdict
end
/Times-Bold exch definefont pop
/Times-BoldItalic findfont
dup length dict begin
  {1 index /FID ne {def} {pop pop} ifelse} forall
  /Encoding WinAnsiEncoding def
  currentdict
end
/Times-BoldItalic exch definefont pop
/Courier findfont
dup length dict begin
  {1 index /FID ne {def} {pop pop} ifelse} forall
  /Encoding WinAnsiEncoding def
  currentdict
end
/Courier exch definefont pop
%FOPEndFontReencode
%%EndProlog
%%Page: 1 1
%%PageBoundingBox: 0 0 1000 600
%%BeginPageSetup
[1 0 0 -1 0 600] CT
%%EndPageSetup
GS
1 GC
N
0 0 1000 600 re
f
GR
GS
1 GC
N
0 0 1000 600 re
f
GR
GS
1 GC
N
130 521 M
905 521 L
905 45 L
130 45 L
cp
f
GR
GS
0.873 GC
1 LJ
0.5 LW
N
130 521 M
130 45 L
S
GR
GS
0.873 GC
1 LJ
0.5 LW
N
285 521 M
285 45 L
S
GR
GS
0.873 GC
1 LJ
0.5 LW
N
440 521 M
440 45 L
S
GR
GS
0.873 GC
1 LJ
0.5 LW
N
595 521 M
595 45 L
S
GR
GS
0.873 GC
1 LJ
0.5 LW
N
750 521 M
750 45 L
S
GR
GS
0.873 GC
1 LJ
0.5 LW
N
905 521 M
905 45 L
S
GR
GS
0.873 GC
1 LJ
0.5 LW
N
905 521 M
130 521 L
S
GR
GS
0.873 GC
1 LJ
0.5 LW
N
905 425.8 M
130 425.8 L
S
GR
GS
0.873 GC
1 LJ
0.5 LW
N
905 330.6 M
130 330.6 L
S
GR
GS
0.873 GC
1 LJ
0.5 LW
N
905 235.4 M
130 235.4 L
S
GR
GS
0.873 GC
1 LJ
0.5 LW
N
905 140.2 M
130 140.2 L
S
GR
GS
0.873 GC
1 LJ
0.5 LW
N
905 45 M
130 45 L
S
GR
GS
0.149 GC
2 setlinecap
1 LJ
0.5 LW
N
130 521 M
905 521 L
S
GR
GS
0.149 GC
2 setlinecap
1 LJ
0.5 LW
N
130 45 M
905 45 L
S
GR
GS
0.149 GC
2 setlinecap
1 LJ
0.5 LW
N
130 521 M
130 513.25 L
S
GR
GS
0.149 GC
2 setlinecap
1 LJ
0.5 LW
N
285 521 M
285 513.25 L
S
GR
GS
0.149 GC
2 setlinecap
1 LJ
0.5 LW
N
440 521 M
440 513.25 L
S
GR
GS
0.149 GC
2 setlinecap
1 LJ
0.5 LW
N
595 521 M
595 513.25 L
S
GR
GS
0.149 GC
2 setlinecap
1 LJ
0.5 LW
N
750 521 M
750 513.25 L
S
GR
GS
0.149 GC
2 setlinecap
1 LJ
0.5 LW
N
905 521 M
905 513.25 L
S
GR
GS
0.149 GC
2 setlinecap
1 LJ
0.5 LW
N
130 45 M
130 52.75 L
S
GR
GS
0.149 GC
2 setlinecap
1 LJ
0.5 LW
N
285 45 M
285 52.75 L
S
GR
GS
0.149 GC
2 setlinecap
1 LJ
0.5 LW
N
440 45 M
440 52.75 L
S
GR
GS
0.149 GC
2 setlinecap
1 LJ
0.5 LW
N
595 45 M
595 52.75 L
S
GR
GS
0.149 GC
2 setlinecap
1 LJ
0.5 LW
N
750 45 M
750 52.75 L
S
GR
GS
0.149 GC
2 setlinecap
1 LJ
0.5 LW
N
905 45 M
905 52.75 L
S
GR
GS
[1 0 0 1 130 528.59998] CT
0.149 GC
/Helvetica 28 F
GS
[1 0 0 1 0 0] CT
-8 27 moveto 
1 -1 scale
(0) t 
GR
GR
GS
[1 0 0 1 285 528.59998] CT
0.149 GC
/Helvetica 28 F
GS
[1 0 0 1 0 0] CT
-19.5 27 moveto 
1 -1 scale
(0.2) t 
GR
GR
GS
[1 0 0 1 440 528.59998] CT
0.149 GC
/Helvetica 28 F
GS
[1 0 0 1 0 0] CT
-19.5 27 moveto 
1 -1 scale
(0.4) t 
GR
GR
GS
[1 0 0 1 595 528.59998] CT
0.149 GC
/Helvetica 28 F
GS
[1 0 0 1 0 0] CT
-19.5 27 moveto 
1 -1 scale
(0.6) t 
GR
GR
GS
[1 0 0 1 750 528.59998] CT
0.149 GC
/Helvetica 28 F
GS
[1 0 0 1 0 0] CT
-19.5 27 moveto 
1 -1 scale
(0.8) t 
GR
GR
GS
[1 0 0 1 905 528.59998] CT
0.149 GC
/Helvetica 28 F
GS
[1 0 0 1 0 0] CT
-8 27 moveto 
1 -1 scale
(1) t 
GR
GR
GS
[1 0 0 1 517.50037 562.59998] CT
0.149 GC
/Helvetica 30.8 F
GS
[1 0 0 1 0 0] CT
-120.5 30 moveto 
1 -1 scale
(False Match Rate) t 
GR
GR
GS
0.149 GC
2 setlinecap
1 LJ
0.5 LW
N
130 521 M
130 45 L
S
GR
GS
0.149 GC
2 setlinecap
1 LJ
0.5 LW
N
905 521 M
905 45 L
S
GR
GS
0.149 GC
2 setlinecap
1 LJ
0.5 LW
N
130 521 M
137.75 521 L
S
GR
GS
0.149 GC
2 setlinecap
1 LJ
0.5 LW
N
130 425.8 M
137.75 425.8 L
S
GR
GS
0.149 GC
2 setlinecap
1 LJ
0.5 LW
N
130 330.6 M
137.75 330.6 L
S
GR
GS
0.149 GC
2 setlinecap
1 LJ
0.5 LW
N
130 235.4 M
137.75 235.4 L
S
GR
GS
0.149 GC
2 setlinecap
1 LJ
0.5 LW
N
130 140.2 M
137.75 140.2 L
S
GR
GS
0.149 GC
2 setlinecap
1 LJ
0.5 LW
N
130 45 M
137.75 45 L
S
GR
GS
0.149 GC
2 setlinecap
1 LJ
0.5 LW
N
905 521 M
897.25 521 L
S
GR
GS
0.149 GC
2 setlinecap
1 LJ
0.5 LW
N
905 425.8 M
897.25 425.8 L
S
GR
GS
0.149 GC
2 setlinecap
1 LJ
0.5 LW
N
905 330.6 M
897.25 330.6 L
S
GR
GS
0.149 GC
2 setlinecap
1 LJ
0.5 LW
N
905 235.4 M
897.25 235.4 L
S
GR
GS
0.149 GC
2 setlinecap
1 LJ
0.5 LW
N
905 140.2 M
897.25 140.2 L
S
GR
GS
0.149 GC
2 setlinecap
1 LJ
0.5 LW
N
905 45 M
897.25 45 L
S
GR
GS
[1 0 0 1 122.4 521] CT
0.149 GC
/Helvetica 28 F
GS
[1 0 0 1 0 0] CT
-16 10.5 moveto 
1 -1 scale
(0) t 
GR
GR
GS
[1 0 0 1 122.4 425.79999] CT
0.149 GC
/Helvetica 28 F
GS
[1 0 0 1 0 0] CT
-39 10.5 moveto 
1 -1 scale
(0.2) t 
GR
GR
GS
[1 0 0 1 122.4 330.60001] CT
0.149 GC
/Helvetica 28 F
GS
[1 0 0 1 0 0] CT
-39 10.5 moveto 
1 -1 scale
(0.4) t 
GR
GR
GS
[1 0 0 1 122.4 235.39999] CT
0.149 GC
/Helvetica 28 F
GS
[1 0 0 1 0 0] CT
-39 10.5 moveto 
1 -1 scale
(0.6) t 
GR
GR
GS
[1 0 0 1 122.4 140.2] CT
0.149 GC
/Helvetica 28 F
GS
[1 0 0 1 0 0] CT
-39 10.5 moveto 
1 -1 scale
(0.8) t 
GR
GR
GS
[1 0 0 1 122.4 45] CT
0.149 GC
/Helvetica 28 F
GS
[1 0 0 1 0 0] CT
-16 10.5 moveto 
1 -1 scale
(1) t 
GR
GR
GS
[0 -1 1 0 80.39999 282.99979] CT
0.149 GC
/Helvetica 30.8 F
GS
[1 0 0 1 0 0] CT
-178 -7 moveto 
1 -1 scale
(1 - False Non-Match Rate) t 
GR
GR
GS
0 0 1 RC
1 LJ
3 LW
N
130 520.766 M
130 520.766 L
130 520.766 L
130 520.766 L
130 520.766 L
130 520.766 L
130 520.766 L
130 520.766 L
130 520.766 L
130 520.766 L
130 520.766 L
130 520.766 L
130 520.766 L
130 520.766 L
130 520.766 L
130 520.766 L
130 520.766 L
130 520.766 L
130 520.766 L
130 520.766 L
130 520.766 L
130 520.766 L
130 520.766 L
130 520.766 L
130 520.766 L
130 520.766 L
130 520.766 L
130 520.766 L
130 520.766 L
130 520.766 L
130 520.766 L
130 520.766 L
130 520.766 L
130 520.766 L
130 520.766 L
130 520.766 L
130 520.766 L
130 520.766 L
130 520.766 L
130 520.766 L
130 520.766 L
130 520.766 L
130 520.766 L
130 520.766 L
130 520.766 L
130 520.766 L
130 520.766 L
130 520.766 L
130 520.766 L
130 520.766 L
130 520.766 L
130 520.766 L
130 520.766 L
130 520.766 L
130 520.766 L
130 520.766 L
130 520.766 L
130 520.766 L
130 520.766 L
130 520.766 L
130 520.766 L
130 520.766 L
130 520.766 L
130 520.766 L
130 520.766 L
130 520.766 L
130 520.766 L
130 520.766 L
130 520.766 L
130 520.766 L
130 520.766 L
130 520.766 L
130 520.766 L
130 520.766 L
130 520.766 L
130 520.766 L
130 520.766 L
130 520.766 L
130 520.766 L
130 520.766 L
130 520.766 L
130 520.766 L
130 520.766 L
130 520.766 L
130 520.766 L
130 520.766 L
130 520.766 L
130 520.766 L
130 520.766 L
130 520.766 L
130 520.766 L
130 520.766 L
130 520.766 L
130 520.766 L
130 520.766 L
130 520.766 L
130 520.766 L
130 520.766 L
130 520.766 L
130 520.766 L
130 520.766 L
130 520.766 L
130 520.766 L
130 520.766 L
130 520.766 L
130 520.766 L
130 520.766 L
130 520.766 L
130 520.766 L
130 520.766 L
130 520.766 L
130 520.766 L
130 520.766 L
130 520.766 L
130 520.766 L
130 520.766 L
130 520.766 L
130 520.766 L
130 520.766 L
130 520.766 L
130 520.766 L
130 520.766 L
130 520.766 L
130 520.766 L
130 520.766 L
130 520.766 L
130 520.766 L
130 520.766 L
130 520.766 L
130 520.766 L
130 520.766 L
130 520.766 L
130 520.766 L
130 520.766 L
130 520.766 L
130 520.766 L
130 520.766 L
130 520.766 L
130 520.766 L
130 520.766 L
130 520.766 L
130 520.766 L
130 520.766 L
130 520.766 L
130 520.766 L
130 520.766 L
130 520.766 L
130 520.766 L
130 520.766 L
130 520.766 L
130 520.766 L
130 520.766 L
130 520.766 L
130 520.766 L
130 520.766 L
130 520.766 L
130 520.766 L
130 520.766 L
130 520.766 L
130 520.766 L
130 520.766 L
130 520.766 L
130 520.766 L
130 520.766 L
130 520.766 L
130 520.766 L
130 520.766 L
130 520.766 L
130 520.766 L
130 520.766 L
130 520.766 L
130 520.766 L
130 520.766 L
130 520.766 L
130 520.766 L
130 520.766 L
130 520.766 L
130 520.766 L
130 520.766 L
130 520.766 L
130 520.766 L
130 520.766 L
130 520.766 L
130 520.766 L
130 520.766 L
130 520.766 L
130 520.766 L
130 520.766 L
130 520.766 L
130 520.766 L
130 520.532 L
130 520.532 L
130 520.532 L
130 520.532 L
130 520.532 L
130 520.532 L
130 520.532 L
130 520.298 L
130 520.064 L
130 520.064 L
130 520.064 L
130 520.064 L
130 519.83 L
130 519.362 L
130 519.128 L
130 518.894 L
130 518.66 L
130 518.66 L
130 518.66 L
130 518.66 L
130 518.66 L
130 518.66 L
130 518.66 L
130 518.192 L
130 517.958 L
130 517.49 L
130 517.256 L
130 517.256 L
130 517.022 L
130 517.022 L
130 517.022 L
130 516.788 L
130 516.32 L
130 515.852 L
130 515.617 L
130 515.383 L
130 515.383 L
130 515.149 L
130 514.447 L
130 514.213 L
130 513.979 L
130 513.745 L
130 513.745 L
130 513.511 L
130 513.511 L
130 513.277 L
130 513.043 L
130 512.809 L
130 512.575 L
130 512.575 L
130 512.107 L
130 511.405 L
130 510.937 L
130 510.469 L
130 510.001 L
130 509.767 L
130 509.299 L
130 508.129 L
130 507.193 L
130 506.491 L
130 505.321 L
130 504.384 L
130 504.15 L
130 503.916 L
130 503.682 L
130 503.448 L
130 503.448 L
130 503.214 L
130 502.98 L
130 502.512 L
130 501.81 L
130 501.108 L
130 500.874 L
130 500.172 L
130 499.236 L
130 498.768 L
130 498.534 L
130 498.066 L
130 498.066 L
130 497.598 L
130 496.896 L
130 495.96 L
130 495.96 L
130 495.96 L
130 495.726 L
130 495.726 L
130 495.258 L
130 494.322 L
130 493.853 L
130 493.385 L
130 493.151 L
130 492.683 L
130 491.279 L
130 490.343 L
130 490.109 L
130 489.875 L
130 488.939 L
130 488.237 L
130 487.769 L
130 486.833 L
130 486.833 L
130 486.833 L
130 486.599 L
130 485.897 L
130 485.429 L
130 485.195 L
130 484.961 L
130 483.791 L
130 483.557 L
130 483.557 L
130 483.089 L
130 481.918 L
130 481.45 L
130 480.982 L
130 480.046 L
130 479.578 L
130 477.706 L
130 477.706 L
130 477.706 L
130 477.472 L
130 477.238 L
130 475.834 L
130 475.132 L
130 474.43 L
130 473.728 L
130 473.026 L
130 472.089 L
130 471.153 L
130 469.983 L
130 469.281 L
130 469.047 L
130 468.345 L
130 467.409 L
130 466.707 L
130 466.005 L
130 466.005 L
130 465.537 L
130 465.069 L
130 463.665 L
130 462.027 L
130 461.793 L
130 460.622 L
130 459.92 L
130 459.218 L
130 457.58 L
130 457.112 L
130 456.644 L
130 456.176 L
130 455.006 L
130 453.836 L
130 453.134 L
130 452.666 L
130 451.73 L
130 451.028 L
130 450.559 L
130 449.623 L
130 448.453 L
130 447.049 L
130 446.113 L
130 445.879 L
130 445.177 L
130 444.709 L
130 444.241 L
130 443.539 L
130 442.603 L
130 441.901 L
130 440.965 L
130.004 440.497 L
130.004 440.263 L
130.004 440.029 L
130.004 439.092 L
130.004 438.624 L
130.004 437.922 L
130.004 437.454 L
130.004 436.986 L
130.004 436.284 L
130.004 436.284 L
130.004 435.816 L
130.004 435.114 L
130.004 434.88 L
130.004 434.412 L
130.004 433.476 L
130.004 432.54 L
130.004 432.306 L
130.009 431.37 L
130.009 430.434 L
130.009 429.966 L
130.009 428.795 L
130.009 427.859 L
130.009 426.689 L
130.009 426.221 L
130.009 425.519 L
130.009 425.285 L
130.009 424.349 L
130.009 423.647 L
130.009 423.179 L
130.018 422.243 L
130.018 421.541 L
130.018 420.137 L
130.018 419.903 L
130.018 418.967 L
130.018 417.562 L
130.018 417.094 L
130.018 416.86 L
130.018 415.456 L
130.018 414.988 L
130.018 414.52 L
130.018 414.286 L
130.018 413.584 L
130.018 413.116 L
130.018 412.882 L
130.018 412.414 L
130.018 411.244 L
130.018 411.244 L
130.018 410.308 L
130.018 409.84 L
130.018 409.138 L
130.018 408.202 L
130.018 407.5 L
130.022 407.031 L
130.022 406.563 L
130.022 406.563 L
130.022 405.861 L
130.022 404.925 L
130.022 404.223 L
130.022 403.989 L
130.026 403.053 L
130.026 402.585 L
130.026 402.351 L
130.026 401.883 L
130.026 401.181 L
130.026 400.713 L
130.026 399.777 L
130.026 399.309 L
130.026 398.607 L
130.026 398.373 L
130.026 397.671 L
130.026 397.437 L
130.026 396.969 L
130.026 396.5 L
130.026 396.032 L
130.031 395.33 L
130.031 394.628 L
130.031 394.394 L
130.031 394.394 L
130.031 393.926 L
130.031 393.224 L
130.031 392.522 L
130.031 392.288 L
130.031 391.352 L
130.031 391.352 L
130.031 390.65 L
130.031 390.416 L
130.031 389.48 L
130.031 389.246 L
130.031 389.012 L
130.048 388.544 L
130.048 388.31 L
130.048 387.842 L
130.048 387.608 L
130.048 386.672 L
130.048 385.97 L
130.048 384.565 L
130.048 384.097 L
130.048 383.395 L
130.053 382.693 L
130.057 382.459 L
130.057 382.459 L
130.057 381.757 L
130.057 381.055 L
130.07 380.353 L
130.07 379.885 L
130.07 379.183 L
130.075 378.949 L
130.075 378.715 L
130.075 378.013 L
130.075 377.779 L
130.075 377.077 L
130.075 376.375 L
130.075 376.375 L
130.075 376.141 L
130.075 375.673 L
130.075 374.97 L
130.075 374.736 L
130.075 374.034 L
130.11 373.098 L
130.11 372.396 L
130.11 371.226 L
130.11 370.992 L
130.11 370.992 L
130.11 370.056 L
130.11 369.588 L
130.11 369.354 L
130.11 368.418 L
130.11 367.716 L
130.114 367.248 L
130.114 366.78 L
130.114 366.312 L
130.123 365.61 L
130.123 364.206 L
130.18 363.737 L
130.18 362.801 L
130.18 362.099 L
130.18 360.929 L
130.18 360.227 L
130.18 359.759 L
130.18 358.121 L
130.193 357.185 L
130.193 356.249 L
130.193 356.249 L
130.193 354.845 L
130.198 354.377 L
130.198 354.143 L
130.202 353.675 L
130.202 353.206 L
130.255 351.802 L
130.255 350.398 L
130.255 349.93 L
130.255 348.994 L
130.255 348.526 L
130.259 347.122 L
130.259 346.186 L
130.259 345.718 L
130.259 345.016 L
130.264 343.846 L
130.264 343.846 L
130.268 342.676 L
130.272 342.676 L
130.277 341.739 L
130.29 341.037 L
130.316 340.101 L
130.316 339.633 L
130.316 338.463 L
130.316 337.761 L
130.321 337.293 L
130.321 336.123 L
130.321 335.187 L
130.325 334.953 L
130.325 334.251 L
130.325 333.549 L
130.325 332.613 L
130.325 331.442 L
130.325 331.208 L
130.325 329.804 L
130.325 329.804 L
130.448 329.102 L
130.448 328.166 L
130.448 327.932 L
130.452 326.762 L
130.461 325.592 L
130.461 325.358 L
130.461 324.89 L
130.461 323.486 L
130.461 322.316 L
130.461 320.911 L
130.461 319.975 L
130.466 319.039 L
130.47 318.337 L
130.47 316.933 L
130.54 316.465 L
130.567 315.763 L
130.58 315.295 L
130.597 313.891 L
130.602 312.721 L
130.61 312.019 L
130.628 310.381 L
130.628 310.147 L
130.637 308.976 L
130.641 306.636 L
130.65 305.466 L
130.654 304.296 L
130.659 303.36 L
130.663 301.956 L
130.672 301.488 L
130.782 300.084 L
130.786 297.977 L
130.808 296.807 L
130.812 295.403 L
130.826 294.467 L
130.83 292.829 L
130.839 291.425 L
130.848 290.255 L
130.861 289.319 L
130.865 287.68 L
130.87 286.744 L
130.878 285.574 L
130.878 284.17 L
130.883 283.468 L
130.887 282.298 L
130.997 281.362 L
131.01 280.426 L
131.019 278.554 L
131.032 276.915 L
131.045 275.979 L
131.045 275.277 L
131.076 275.043 L
131.085 274.341 L
131.102 272.703 L
131.137 271.533 L
131.137 270.597 L
131.155 270.129 L
131.173 268.491 L
131.199 267.789 L
131.217 267.321 L
131.348 266.618 L
131.37 266.384 L
131.397 265.214 L
131.44 264.278 L
131.471 263.81 L
131.489 262.406 L
131.515 262.172 L
131.581 261.47 L
131.616 261.002 L
131.629 259.364 L
131.673 258.662 L
131.722 257.726 L
131.752 257.258 L
131.792 256.088 L
131.871 255.853 L
131.959 254.917 L
132.007 254.215 L
132.064 253.513 L
132.112 252.811 L
132.213 252.577 L
132.271 251.875 L
132.358 249.769 L
132.433 249.535 L
132.512 248.833 L
132.635 248.131 L
132.71 247.429 L
132.828 246.727 L
132.912 245.791 L
133.048 244.386 L
133.149 244.386 L
133.377 243.684 L
133.544 242.748 L
133.641 241.812 L
133.751 240.642 L
133.873 239.472 L
134.062 239.238 L
134.273 238.302 L
134.458 237.6 L
134.646 236.898 L
134.857 236.196 L
135.007 235.494 L
135.292 235.026 L
135.494 234.558 L
135.81 233.387 L
136.153 231.749 L
136.487 230.345 L
136.754 228.707 L
137.115 227.771 L
137.413 227.069 L
137.738 226.133 L
138.046 225.197 L
138.441 224.729 L
138.871 224.027 L
139.227 223.09 L
139.671 221.452 L
140.101 220.516 L
140.566 219.58 L
140.97 218.41 L
141.497 217.24 L
142.121 216.304 L
142.666 214.9 L
143.351 214.198 L
143.944 212.559 L
144.559 212.325 L
145.27 210.453 L
145.981 208.815 L
146.772 208.347 L
147.641 207.879 L
148.555 206.943 L
149.543 206.709 L
150.492 206.241 L
151.467 206.007 L
152.63 205.071 L
153.605 203.667 L
154.831 202.263 L
156.096 201.326 L
157.259 200.156 L
158.476 198.284 L
159.745 198.05 L
161.221 197.114 L
162.485 195.944 L
164.075 195.008 L
165.476 194.54 L
167.154 194.306 L
168.928 193.838 L
170.527 193.136 L
172.318 191.732 L
174.246 190.093 L
176.258 189.157 L
178.309 187.987 L
180.465 187.519 L
182.766 186.349 L
184.993 186.115 L
187.47 185.413 L
190.087 184.945 L
192.516 184.009 L
195.177 182.839 L
197.931 182.605 L
200.702 181.435 L
203.539 180.499 L
206.67 179.328 L
209.644 178.392 L
212.946 177.456 L
216.187 177.222 L
219.714 176.754 L
222.986 175.584 L
226.565 174.882 L
230.298 173.946 L
234.079 173.244 L
238.097 172.308 L
241.852 172.074 L
246.161 171.138 L
250.377 169.5 L
254.935 168.797 L
259.103 167.861 L
263.495 167.627 L
268.348 166.925 L
273.13 165.755 L
278.238 165.521 L
283.49 164.819 L
288.383 162.947 L
293.92 161.777 L
299.169 161.075 L
304.601 159.671 L
310.315 158.5 L
315.835 157.798 L
321.193 157.33 L
326.915 156.394 L
332.835 156.16 L
338.975 155.692 L
344.719 154.756 L
351.14 154.054 L
357.416 153.82 L
363.902 153.586 L
370.384 152.416 L
376.625 151.48 L
382.804 150.31 L
389.484 150.076 L
396.269 148.672 L
403.169 148.204 L
409.897 147.267 L
416.159 146.097 L
423.528 144.693 L
430.142 143.523 L
437.512 142.821 L
444.683 142.353 L
451.486 141.183 L
458.741 139.545 L
465.908 138.843 L
472.962 137.673 L
479.637 136.736 L
486.725 136.034 L
494.024 135.332 L
501.003 134.396 L
507.23 134.162 L
514.591 133.694 L
521.283 133.694 L
527.88 132.524 L
534.823 131.12 L
541.556 129.95 L
548.411 128.312 L
555.293 127.142 L
561.577 126.206 L
568.398 125.971 L
574.871 125.269 L
581.432 124.099 L
587.708 123.865 L
593.87 123.397 L
600.299 122.461 L
606.219 121.993 L
612.424 120.823 L
618.41 120.355 L
624.677 119.887 L
630.242 119.653 L
635.542 119.653 L
641.067 118.951 L
646.144 118.717 L
651.348 117.547 L
656.451 117.313 L
661.458 117.313 L
666.324 116.377 L
671.234 114.972 L
675.788 114.738 L
680.54 114.738 L
684.765 114.504 L
689.293 114.036 L
693.355 114.036 L
697.417 113.334 L
701.471 113.1 L
705.419 112.632 L
709.042 112.164 L
712.995 111.462 L
716.666 110.526 L
720.039 110.058 L
723.289 110.058 L
726.569 109.59 L
729.929 108.42 L
733.131 107.718 L
736.266 107.25 L
739.354 106.548 L
742.16 106.314 L
744.909 106.08 L
747.325 106.08 L
749.613 105.846 L
751.901 105.378 L
754.189 105.378 L
756.148 105.378 L
757.557 105.378 L
858.492 50.148 L
860.609 49.914 L
862.523 49.446 L
864.276 49.212 L
865.98 48.978 L
867.868 48.276 L
869.44 47.808 L
871.096 47.808 L
872.572 47.808 L
874.008 47.808 L
875.29 47.574 L
876.669 47.574 L
877.995 47.574 L
879.229 47.574 L
880.314 47.574 L
881.469 47.574 L
882.462 47.574 L
883.494 47.34 L
884.412 47.106 L
885.343 46.872 L
886.225 46.872 L
887.064 46.872 L
887.934 46.872 L
888.716 46.872 L
889.471 46.872 L
890.147 46.872 L
890.933 46.638 L
891.561 46.404 L
892.163 46.404 L
892.734 46.404 L
893.261 46.17 L
893.775 45.936 L
894.311 45.702 L
894.759 45.702 L
895.189 45.702 L
895.518 45.702 L
895.962 45.702 L
896.392 45.702 L
896.809 45.702 L
897.214 45.702 L
897.512 45.702 L
897.859 45.702 L
898.109 45.702 L
898.342 45.702 L
898.658 45.702 L
898.939 45.702 L
899.155 45.702 L
899.401 45.702 L
899.66 45.702 L
899.831 45.702 L
900.055 45.702 L
900.261 45.702 L
900.49 45.702 L
900.67 45.702 L
900.802 45.702 L
900.973 45.702 L
901.153 45.468 L
901.293 45.468 L
901.456 45.468 L
901.605 45.468 L
901.772 45.468 L
901.895 45.468 L
902.027 45.468 L
902.115 45.468 L
902.242 45.468 L
902.347 45.468 L
902.448 45.468 L
902.589 45.468 L
902.655 45.468 L
902.769 45.468 L
902.91 45.468 L
903.002 45.234 L
903.09 45 L
903.213 45 L
903.292 45 L
903.327 45 L
903.397 45 L
903.502 45 L
903.564 45 L
903.643 45 L
903.691 45 L
903.744 45 L
903.801 45 L
903.832 45 L
903.893 45 L
903.933 45 L
903.955 45 L
904.012 45 L
904.047 45 L
904.117 45 L
904.157 45 L
904.201 45 L
904.258 45 L
904.319 45 L
904.346 45 L
904.407 45 L
904.425 45 L
904.46 45 L
904.477 45 L
904.504 45 L
904.526 45 L
904.552 45 L
904.561 45 L
904.57 45 L
904.596 45 L
904.614 45 L
904.64 45 L
904.666 45 L
904.684 45 L
904.701 45 L
904.728 45 L
904.732 45 L
904.745 45 L
904.754 45 L
904.758 45 L
904.763 45 L
904.763 45 L
904.776 45 L
904.78 45 L
904.78 45 L
904.785 45 L
904.802 45 L
904.824 45 L
904.829 45 L
904.837 45 L
904.846 45 L
904.855 45 L
904.859 45 L
904.864 45 L
904.868 45 L
904.868 45 L
904.873 45 L
904.881 45 L
904.89 45 L
904.895 45 L
904.895 45 L
904.899 45 L
904.912 45 L
904.917 45 L
904.921 45 L
904.921 45 L
904.921 45 L
904.925 45 L
904.934 45 L
904.934 45 L
904.939 45 L
904.939 45 L
904.939 45 L
904.947 45 L
904.947 45 L
904.952 45 L
904.956 45 L
904.956 45 L
904.956 45 L
904.956 45 L
904.96 45 L
904.96 45 L
904.96 45 L
904.96 45 L
904.96 45 L
904.965 45 L
904.965 45 L
904.965 45 L
904.965 45 L
904.965 45 L
904.965 45 L
904.965 45 L
904.969 45 L
904.974 45 L
904.974 45 L
904.978 45 L
904.987 45 L
904.987 45 L
904.987 45 L
904.987 45 L
904.987 45 L
904.987 45 L
904.987 45 L
904.987 45 L
904.987 45 L
904.987 45 L
904.987 45 L
904.987 45 L
904.991 45 L
904.991 45 L
904.991 45 L
904.991 45 L
904.991 45 L
904.991 45 L
904.991 45 L
904.991 45 L
904.991 45 L
904.991 45 L
904.996 45 L
904.996 45 L
904.996 45 L
904.996 45 L
904.996 45 L
905 45 L
S
GR
GS
0 1 0 RC
1 LJ
3 LW
N
130 520.766 M
130 520.766 L
130 520.766 L
130 520.766 L
130 520.766 L
130 520.766 L
130 520.766 L
130 520.766 L
130 520.766 L
130 520.766 L
130 520.766 L
130 520.766 L
130 520.766 L
130 520.766 L
130 520.766 L
130 520.766 L
130 520.766 L
130 520.766 L
130 520.766 L
130 520.766 L
130 520.766 L
130 520.766 L
130 520.766 L
130 520.766 L
130 520.766 L
130 520.766 L
130 520.766 L
130 520.766 L
130 520.766 L
130 520.766 L
130 520.766 L
130 520.766 L
130 520.766 L
130 520.766 L
130 520.766 L
130 520.766 L
130 520.766 L
130 520.766 L
130 520.766 L
130 520.766 L
130 520.766 L
130 520.766 L
130 520.766 L
130 520.766 L
130 520.766 L
130 520.766 L
130 520.766 L
130 520.766 L
130 520.766 L
130 520.766 L
130 520.766 L
130 520.766 L
130 520.766 L
130 520.766 L
130 520.766 L
130 520.766 L
130 520.766 L
130 520.766 L
130 520.766 L
130 520.766 L
130 520.766 L
130 520.766 L
130 520.766 L
130 520.766 L
130 520.766 L
130 520.766 L
130 520.766 L
130 520.766 L
130 520.766 L
130 520.766 L
130 520.766 L
130 520.766 L
130 520.766 L
130 520.766 L
130 520.766 L
130 520.766 L
130 520.766 L
130 520.766 L
130 520.766 L
130 520.766 L
130 520.766 L
130 520.766 L
130 520.766 L
130 520.766 L
130 520.766 L
130 520.766 L
130 520.766 L
130 520.766 L
130 520.766 L
130 520.766 L
130 520.766 L
130 520.766 L
130 520.766 L
130 520.766 L
130 520.766 L
130 520.766 L
130 520.766 L
130 520.766 L
130 520.766 L
130 520.766 L
130 520.766 L
130 520.766 L
130 520.766 L
130 520.766 L
130 520.766 L
130 520.766 L
130 520.766 L
130 520.766 L
130 520.766 L
130 520.766 L
130 520.766 L
130 520.766 L
130 520.766 L
130 520.766 L
130 520.766 L
130 520.766 L
130 520.766 L
130 520.766 L
130 520.766 L
130 520.766 L
130 520.766 L
130 520.766 L
130 520.766 L
130 520.766 L
130 520.766 L
130 520.766 L
130 520.766 L
130 520.766 L
130 520.766 L
130 520.766 L
130 520.766 L
130 520.766 L
130 520.766 L
130 520.766 L
130 520.766 L
130 520.766 L
130 520.766 L
130 520.766 L
130 520.766 L
130 520.766 L
130 520.766 L
130 520.766 L
130 520.766 L
130 520.766 L
130 520.766 L
130 520.766 L
130 520.766 L
130 520.766 L
130 520.766 L
130 520.766 L
130 520.766 L
130 520.766 L
130 520.766 L
130 520.766 L
130 520.766 L
130 520.766 L
130 520.766 L
130 520.766 L
130 520.766 L
130 520.766 L
130 520.766 L
130 520.766 L
130 520.766 L
130 520.766 L
130 520.766 L
130 520.766 L
130 520.766 L
130 520.766 L
130 520.766 L
130 520.532 L
130 520.532 L
130 520.532 L
130 520.532 L
130 520.532 L
130 520.532 L
130 520.532 L
130 520.532 L
130 520.532 L
130 520.532 L
130 520.532 L
130 520.532 L
130 520.532 L
130 520.532 L
130 520.532 L
130 520.532 L
130 520.532 L
130 520.532 L
130 520.532 L
130 520.532 L
130 520.532 L
130 520.298 L
130 520.298 L
130 520.298 L
130 520.298 L
130 519.83 L
130 519.83 L
130 519.83 L
130 519.83 L
130 519.83 L
130 519.83 L
130 519.83 L
130 519.83 L
130 519.83 L
130 519.596 L
130 519.362 L
130 518.894 L
130 518.66 L
130 518.192 L
130 518.192 L
130 517.724 L
130 517.724 L
130 517.724 L
130 517.724 L
130 517.49 L
130 517.49 L
130 517.022 L
130 517.022 L
130 516.554 L
130 516.554 L
130 516.554 L
130 516.086 L
130 515.852 L
130 515.852 L
130 515.383 L
130 514.915 L
130 514.681 L
130 514.681 L
130 514.447 L
130 513.979 L
130 513.979 L
130 513.511 L
130 512.107 L
130 511.171 L
130 510.937 L
130 510.703 L
130 510.703 L
130 510.001 L
130 509.767 L
130 509.065 L
130 508.597 L
130 507.895 L
130 507.193 L
130 507.193 L
130 506.725 L
130 506.023 L
130 505.555 L
130 505.087 L
130 505.087 L
130 504.618 L
130 504.15 L
130 503.916 L
130 503.448 L
130 503.214 L
130 502.746 L
130 502.278 L
130 501.576 L
130 500.172 L
130 499.47 L
130 499.002 L
130 498.066 L
130 497.13 L
130 495.96 L
130 495.024 L
130 494.556 L
130 493.619 L
130 493.619 L
130 493.151 L
130 492.683 L
130 491.747 L
130 490.577 L
130 490.109 L
130 488.939 L
130 487.067 L
130 486.833 L
130 485.429 L
130 484.025 L
130 483.323 L
130 482.854 L
130 482.152 L
130 480.982 L
130 480.28 L
130 479.578 L
130 478.408 L
130 477.472 L
130 476.77 L
130 476.068 L
130 475.6 L
130 474.898 L
130 473.962 L
130 473.26 L
130 472.558 L
130 470.685 L
130 469.983 L
130 469.047 L
130 467.877 L
130 466.707 L
130 465.303 L
130 463.197 L
130 462.495 L
130 462.261 L
130 461.793 L
130 461.09 L
130 460.622 L
130 460.154 L
130 458.984 L
130 457.814 L
130 456.176 L
130 454.304 L
130 452.198 L
130 451.496 L
130 450.794 L
130 449.155 L
130 447.751 L
130 447.049 L
130 447.049 L
130 446.581 L
130 445.411 L
130 444.709 L
130 444.709 L
130 444.241 L
130 443.539 L
130 442.135 L
130 441.433 L
130 439.794 L
130 437.922 L
130 436.752 L
130 435.582 L
130 435.348 L
130 434.646 L
130 432.54 L
130 430.902 L
130 430.2 L
130 428.561 L
130 427.391 L
130 426.689 L
130 425.987 L
130 425.285 L
130 423.647 L
130 423.413 L
130 421.541 L
130 419.201 L
130 419.201 L
130 418.499 L
130 417.094 L
130 416.392 L
130 414.754 L
130 414.052 L
130 413.35 L
130 412.882 L
130 411.712 L
130 410.074 L
130 409.606 L
130 408.904 L
130 407.5 L
130 407.031 L
130 405.861 L
130 404.925 L
130 403.521 L
130 403.287 L
130 401.883 L
130 400.947 L
130 399.075 L
130 398.373 L
130 397.203 L
130 396.266 L
130 394.628 L
130 394.16 L
130 393.692 L
130 393.224 L
130 392.288 L
130 390.65 L
130 389.246 L
130 388.076 L
130 387.374 L
130 386.204 L
130 385.736 L
130 384.565 L
130 383.863 L
130 382.693 L
130 381.523 L
130 379.417 L
130 378.013 L
130 376.375 L
130 374.97 L
130 373.566 L
130 372.63 L
130 370.29 L
130 370.056 L
130 368.184 L
130 367.248 L
130 366.078 L
130 364.674 L
130 363.269 L
130 362.099 L
130 361.397 L
130 360.929 L
130 359.759 L
130 357.653 L
130 356.717 L
130 356.249 L
130 355.079 L
130 353.675 L
130 352.972 L
130 351.1 L
130 349.696 L
130 348.292 L
130 347.59 L
130 347.122 L
130 347.122 L
130 345.718 L
130 344.314 L
130 343.612 L
130 341.973 L
130 341.505 L
130 341.037 L
130 340.803 L
130 339.633 L
130 338.697 L
130 337.995 L
130 337.527 L
130 336.591 L
130 335.655 L
130 335.187 L
130 333.783 L
130 332.847 L
130 331.911 L
130 331.208 L
130 330.506 L
130 330.038 L
130 329.336 L
130 328.4 L
130 328.166 L
130 328.166 L
130 327.464 L
130 326.06 L
130 323.954 L
130 323.018 L
130 322.082 L
130 321.146 L
130 320.209 L
130 319.741 L
130 318.337 L
130 318.103 L
130 316.699 L
130 315.997 L
130 314.827 L
130 313.423 L
130 312.955 L
130 312.019 L
130 311.083 L
130 309.678 L
130 308.976 L
130 308.274 L
130 307.338 L
130 306.402 L
130 305.232 L
130 304.062 L
130 302.658 L
130 301.488 L
130 299.85 L
130 298.913 L
130 298.679 L
130 296.573 L
130 296.105 L
130 295.637 L
130 294.935 L
130 293.999 L
130 293.765 L
130 292.595 L
130 291.425 L
130 290.957 L
130 289.553 L
130 288.148 L
130 286.744 L
130 285.106 L
130 284.17 L
130 282.532 L
130 280.894 L
130 280.192 L
130 279.49 L
130 278.788 L
130 277.852 L
130 277.383 L
130 275.745 L
130 274.575 L
130 272.703 L
130 271.533 L
130 270.597 L
130 270.363 L
130 268.725 L
130 268.257 L
130 267.087 L
130 265.916 L
130 265.916 L
130 264.278 L
130 261.704 L
130 260.066 L
130 259.13 L
130 257.96 L
130 257.024 L
130 254.683 L
130 253.279 L
130 252.577 L
130 252.577 L
130 251.641 L
130 250.237 L
130 247.663 L
130 245.323 L
130 242.748 L
130 241.578 L
130 240.174 L
130 238.536 L
130 236.898 L
130 235.494 L
130 233.621 L
130 231.515 L
130 230.813 L
130 228.941 L
130 226.601 L
130 225.431 L
130 224.261 L
130 222.154 L
130 220.516 L
130 219.112 L
130.004 216.304 L
130.004 214.9 L
130.004 213.028 L
130.004 210.453 L
130.004 208.815 L
130.004 207.177 L
130.004 204.837 L
130.004 202.263 L
130.004 199.454 L
130.004 197.348 L
130.004 195.476 L
130.009 193.838 L
130.013 191.966 L
130.018 190.327 L
130.018 187.987 L
130.018 186.115 L
130.018 185.647 L
130.022 183.307 L
130.04 181.903 L
130.044 179.328 L
130.048 176.754 L
130.053 175.35 L
130.066 173.712 L
130.066 172.542 L
130.066 169.968 L
130.079 168.563 L
130.083 166.457 L
130.097 165.053 L
130.105 163.649 L
130.114 163.415 L
130.127 162.713 L
130.145 161.777 L
130.176 160.841 L
130.215 159.671 L
130.237 158.266 L
130.264 157.096 L
130.329 154.522 L
130.373 153.82 L
130.4 152.884 L
130.492 151.48 L
130.553 150.778 L
130.593 149.842 L
130.659 147.501 L
130.733 145.863 L
130.812 145.161 L
130.931 144.459 L
131.032 143.757 L
131.195 143.055 L
131.339 140.715 L
131.511 138.843 L
131.682 138.375 L
131.91 136.97 L
132.152 134.63 L
132.398 133.928 L
132.635 133.694 L
132.986 132.758 L
133.408 130.652 L
133.834 128.546 L
134.26 127.61 L
134.774 126.674 L
135.288 125.737 L
135.727 125.269 L
136.306 124.333 L
136.996 123.397 L
137.646 122.695 L
138.379 121.525 L
139.245 120.121 L
140.026 118.951 L
140.927 118.249 L
141.866 117.313 L
142.876 116.611 L
143.838 115.675 L
145.05 115.206 L
146.131 114.036 L
147.382 113.568 L
148.524 113.568 L
149.908 111.93 L
151.177 111.696 L
152.679 111.228 L
154.08 110.526 L
155.428 110.292 L
156.662 110.058 L
158.133 109.356 L
159.49 108.888 L
160.913 108.42 L
162.384 107.952 L
163.684 107.25 L
165.138 107.016 L
166.416 106.782 L
167.777 106.314 L
169.161 105.612 L
170.505 105.378 L
171.849 104.91 L
172.819 104.676 L
173.939 103.973 L
174.993 103.973 L
175.88 103.505 L
176.798 103.271 L
177.716 103.037 L
178.607 102.803 L
179.407 102.803 L
180.136 102.803 L
180.816 102.569 L
181.528 102.335 L
182.195 102.335 L
182.727 102.335 L
183.267 102.335 L
183.781 101.867 L
184.194 101.867 L
184.593 101.867 L
184.931 101.633 L
185.208 101.399 L
185.524 101.399 L
185.775 101.165 L
186.016 101.165 L
186.218 100.931 L
186.442 100.931 L
186.609 100.931 L
186.723 100.931 L
186.837 100.931 L
186.956 100.931 L
187.101 100.931 L
187.206 100.931 L
187.268 100.931 L
187.321 100.931 L
187.4 100.931 L
187.426 100.931 L
187.452 100.931 L
187.492 100.931 L
187.518 100.931 L
187.536 100.931 L
187.566 100.931 L
187.61 100.931 L
187.624 100.931 L
187.646 100.931 L
187.654 100.931 L
187.663 100.931 L
187.676 100.931 L
187.676 100.931 L
191.567 99.293 L
196.126 98.357 L
201.058 96.953 L
206.099 96.251 L
211.343 94.847 L
216.732 93.442 L
222.524 92.038 L
228.387 91.804 L
234.812 91.102 L
241.281 90.4 L
248.277 89.698 L
255.006 88.996 L
262.177 88.528 L
269.45 88.294 L
276.999 86.89 L
284.667 86.422 L
291.927 86.422 L
299.103 85.486 L
305.51 85.252 L
312.146 84.784 L
318.391 84.082 L
324.219 83.848 L
329.142 83.38 L
333.516 83.146 L
336.959 82.911 L
340.011 82.911 L
342.348 82.911 L
344.355 82.911 L
345.813 82.911 L
346.748 82.911 L
347.42 82.911 L
347.89 82.911 L
348.083 82.911 L
348.233 82.911 L
348.303 82.911 L
348.342 82.911 L
348.356 82.911 L
348.36 82.911 L
348.364 82.911 L
348.364 82.911 L
348.364 82.911 L
348.364 82.911 L
348.364 82.911 L
348.364 82.911 L
348.364 82.911 L
348.364 82.911 L
348.364 82.911 L
348.364 82.911 L
348.364 82.911 L
348.364 82.911 L
348.364 82.911 L
348.364 82.911 L
348.364 82.911 L
348.364 82.911 L
348.364 82.911 L
348.364 82.911 L
348.364 82.911 L
348.364 82.911 L
348.364 82.911 L
348.364 82.911 L
348.364 82.911 L
348.364 82.911 L
348.364 82.911 L
348.364 82.911 L
348.364 82.911 L
348.364 82.911 L
348.364 82.911 L
348.364 82.911 L
348.364 82.911 L
348.364 82.911 L
348.364 82.911 L
348.364 82.911 L
348.364 82.911 L
348.364 82.911 L
348.364 82.911 L
348.364 82.911 L
348.364 82.911 L
348.364 82.911 L
348.364 82.911 L
348.364 82.911 L
348.364 82.911 L
348.364 82.911 L
348.364 82.911 L
348.364 82.911 L
348.364 82.911 L
348.364 82.911 L
348.364 82.911 L
348.364 82.911 L
348.364 82.911 L
348.364 82.911 L
348.364 82.911 L
348.364 82.911 L
348.364 82.911 L
348.364 82.911 L
348.364 82.911 L
348.364 82.911 L
348.364 82.911 L
348.364 82.911 L
348.364 82.911 L
348.364 82.911 L
348.364 82.911 L
348.364 82.911 L
348.364 82.911 L
348.364 82.911 L
348.364 82.911 L
348.364 82.911 L
348.364 82.911 L
348.364 82.911 L
348.364 82.911 L
348.364 82.911 L
348.364 82.911 L
348.364 82.911 L
348.364 82.911 L
348.364 82.911 L
348.364 82.911 L
348.364 82.911 L
348.364 82.911 L
348.364 82.911 L
348.364 82.911 L
348.364 82.911 L
348.364 82.911 L
348.364 82.911 L
348.364 82.911 L
348.364 82.911 L
348.364 82.911 L
348.364 82.911 L
348.364 82.911 L
348.364 82.911 L
348.364 82.911 L
348.364 82.911 L
348.364 82.911 L
348.364 82.911 L
348.364 82.911 L
348.364 82.911 L
348.364 82.911 L
348.364 82.911 L
348.364 82.911 L
348.364 82.911 L
348.364 82.911 L
348.364 82.911 L
348.364 82.911 L
348.364 82.911 L
348.364 82.911 L
348.364 82.911 L
348.364 82.911 L
348.364 82.911 L
348.364 82.911 L
348.364 82.911 L
348.364 82.911 L
348.364 82.911 L
348.364 82.911 L
348.364 82.911 L
348.364 82.911 L
348.364 82.911 L
348.364 82.911 L
348.364 82.911 L
348.364 82.911 L
348.364 82.911 L
348.364 82.911 L
348.364 82.911 L
348.364 82.911 L
348.364 82.911 L
348.364 82.911 L
348.364 82.911 L
348.364 82.911 L
348.364 82.911 L
348.364 82.911 L
348.364 82.911 L
348.364 82.911 L
348.364 82.911 L
348.364 82.911 L
348.364 82.911 L
348.364 82.911 L
348.364 82.911 L
348.364 82.911 L
348.364 82.911 L
348.364 82.911 L
348.364 82.911 L
348.364 82.911 L
348.364 82.911 L
348.364 82.911 L
348.364 82.911 L
348.364 82.911 L
348.364 82.911 L
348.364 82.911 L
348.364 82.911 L
348.364 82.911 L
348.364 82.911 L
348.364 82.911 L
348.364 82.911 L
348.364 82.911 L
348.364 82.911 L
348.364 82.911 L
348.364 82.911 L
348.364 82.911 L
348.364 82.911 L
348.364 82.911 L
348.364 82.911 L
348.364 82.911 L
348.364 82.911 L
348.364 82.911 L
348.364 82.911 L
348.364 82.911 L
348.364 82.911 L
348.364 82.911 L
348.364 82.911 L
348.364 82.911 L
348.364 82.911 L
348.364 82.911 L
348.364 82.911 L
348.364 82.911 L
348.364 82.911 L
348.364 82.911 L
348.364 82.911 L
348.364 82.911 L
348.364 82.911 L
348.364 82.911 L
348.364 82.911 L
348.364 82.911 L
348.364 82.911 L
348.364 82.911 L
348.364 82.911 L
348.364 82.911 L
348.364 82.911 L
348.364 82.911 L
348.364 82.911 L
348.364 82.911 L
348.364 82.911 L
348.364 82.911 L
348.364 82.911 L
348.364 82.911 L
348.364 82.911 L
348.364 82.911 L
348.364 82.911 L
348.364 82.911 L
348.364 82.911 L
348.364 82.911 L
348.364 82.911 L
348.364 82.911 L
348.364 82.911 L
348.364 82.911 L
348.364 82.911 L
348.364 82.911 L
348.364 82.911 L
348.364 82.911 L
348.364 82.911 L
348.364 82.911 L
348.364 82.911 L
348.364 82.911 L
348.364 82.911 L
348.364 82.911 L
348.364 82.911 L
348.364 82.911 L
348.364 82.911 L
348.364 82.911 L
348.364 82.911 L
348.364 82.911 L
348.364 82.911 L
348.364 82.911 L
348.364 82.911 L
348.364 82.911 L
348.364 82.911 L
348.364 82.911 L
348.364 82.911 L
348.364 82.911 L
348.364 82.911 L
348.364 82.911 L
348.364 82.911 L
348.364 82.911 L
348.364 82.911 L
348.364 82.911 L
348.364 82.911 L
348.364 82.911 L
348.364 82.911 L
348.364 82.911 L
348.364 82.911 L
348.364 82.911 L
348.364 82.911 L
348.364 82.911 L
348.364 82.911 L
348.364 82.911 L
348.364 82.911 L
348.364 82.911 L
348.364 82.911 L
348.364 82.911 L
348.364 82.911 L
348.364 82.911 L
348.364 82.911 L
348.364 82.911 L
348.364 82.911 L
348.364 82.911 L
348.364 82.911 L
348.364 82.911 L
348.364 82.911 L
348.364 82.911 L
348.364 82.911 L
348.364 82.911 L
348.364 82.911 L
348.364 82.911 L
348.364 82.911 L
348.364 82.911 L
348.364 82.911 L
348.364 82.911 L
348.364 82.911 L
348.364 82.911 L
348.364 82.911 L
348.364 82.911 L
348.364 82.911 L
348.364 82.911 L
348.364 82.911 L
348.364 82.911 L
348.364 82.911 L
348.364 82.911 L
348.364 82.911 L
348.364 82.911 L
348.364 82.911 L
348.364 82.911 L
348.364 82.911 L
348.364 82.911 L
348.364 82.911 L
348.364 82.911 L
348.364 82.911 L
348.364 82.911 L
348.364 82.911 L
348.364 82.911 L
348.364 82.911 L
348.364 82.911 L
348.364 82.911 L
348.364 82.911 L
348.364 82.911 L
348.364 82.911 L
348.364 82.911 L
348.364 82.911 L
348.364 82.911 L
348.364 82.911 L
348.364 82.911 L
348.364 82.911 L
905 45 L
S
GR
GS
1 LJ
3 LW
N
130 520.766 M
130 520.766 L
130 520.766 L
130 520.766 L
130 520.766 L
130 520.766 L
130 520.766 L
130 520.766 L
130 520.766 L
130 520.766 L
130 520.766 L
130 520.766 L
130 520.766 L
130 520.766 L
130 520.766 L
130 520.766 L
130 520.766 L
130 520.766 L
130 520.766 L
130 520.766 L
130 520.766 L
130 520.766 L
130 520.766 L
130 520.766 L
130 520.766 L
130 520.766 L
130 520.766 L
130 520.766 L
130 520.766 L
130 520.766 L
130 520.766 L
130 520.766 L
130 520.766 L
130 520.766 L
130 520.766 L
130 520.766 L
130 520.766 L
130 520.766 L
130 520.766 L
130 520.766 L
130 520.766 L
130 520.766 L
130 520.766 L
130 520.766 L
130 520.766 L
130 520.766 L
130 520.766 L
130 520.766 L
130 520.766 L
130 520.766 L
130 520.766 L
130 520.766 L
130 520.766 L
130 520.766 L
130 520.766 L
130 520.766 L
130 520.766 L
130 520.766 L
130 520.766 L
130 520.766 L
130 520.766 L
130 520.766 L
130 520.766 L
130 520.766 L
130 520.766 L
130 520.766 L
130 520.766 L
130 520.766 L
130 520.766 L
130 520.766 L
130 520.766 L
130 520.766 L
130 520.766 L
130 520.766 L
130 520.766 L
130 520.766 L
130 520.766 L
130 520.766 L
130 520.766 L
130 520.766 L
130 520.766 L
130 520.766 L
130 520.766 L
130 520.766 L
130 520.766 L
130 520.766 L
130 520.766 L
130 520.766 L
130 520.766 L
130 520.766 L
130 520.766 L
130 520.766 L
130 520.766 L
130 520.766 L
130 520.766 L
130 520.766 L
130 520.766 L
130 520.766 L
130 520.766 L
130 520.766 L
130 520.766 L
130 520.766 L
130 520.766 L
130 520.766 L
130 520.766 L
130 520.766 L
130 520.766 L
130 520.766 L
130 520.766 L
130 520.766 L
130 520.766 L
130 520.766 L
130 520.766 L
130 520.766 L
130 520.766 L
130 520.766 L
130 520.766 L
130 520.766 L
130 520.766 L
130 520.766 L
130 520.766 L
130 520.766 L
130 520.766 L
130 520.766 L
130 520.766 L
130 520.766 L
130 520.766 L
130 520.766 L
130 520.766 L
130 520.766 L
130 520.766 L
130 520.766 L
130 520.766 L
130 520.766 L
130 520.766 L
130 520.766 L
130 520.766 L
130 520.766 L
130 520.766 L
130 520.766 L
130 520.766 L
130 520.766 L
130 520.766 L
130 520.766 L
130 520.766 L
130 520.766 L
130 520.766 L
130 520.766 L
130 520.766 L
130 520.766 L
130 520.766 L
130 520.766 L
130 520.766 L
130 520.766 L
130 520.766 L
130 520.766 L
130 520.766 L
130 520.766 L
130 520.766 L
130 520.766 L
130 520.766 L
130 520.766 L
130 520.766 L
130 520.766 L
130 520.766 L
130 520.766 L
130 520.766 L
130 520.766 L
130 520.766 L
130 520.766 L
130 520.766 L
130 520.766 L
130 520.766 L
130 520.766 L
130 520.766 L
130 520.766 L
130 520.766 L
130 520.766 L
130 520.766 L
130 520.766 L
130 520.766 L
130 520.766 L
130 520.532 L
130 520.532 L
130 520.532 L
130 520.532 L
130 520.532 L
130 520.532 L
130 520.532 L
130 520.532 L
130 520.532 L
130 520.532 L
130 520.532 L
130 520.532 L
130 520.532 L
130 520.532 L
130 520.532 L
130 520.532 L
130 520.298 L
130 520.298 L
130 520.298 L
130 520.298 L
130 520.298 L
130 520.298 L
130 520.298 L
130 520.298 L
130 520.298 L
130 520.298 L
130 520.298 L
130 520.064 L
130 520.064 L
130 520.064 L
130 520.064 L
130 520.064 L
130 519.83 L
130 519.596 L
130 519.596 L
130 519.596 L
130 519.596 L
130 519.596 L
130 519.128 L
130 519.128 L
130 518.894 L
130 518.66 L
130 518.66 L
130 518.66 L
130 518.66 L
130 518.426 L
130 518.426 L
130 518.192 L
130 517.958 L
130 517.724 L
130 517.022 L
130 516.554 L
130 516.554 L
130 516.554 L
130 516.554 L
130 516.32 L
130 516.32 L
130 515.852 L
130 515.383 L
130 515.149 L
130 514.681 L
130 513.979 L
130 513.979 L
130 513.979 L
130 513.979 L
130 513.979 L
130 513.979 L
130 513.979 L
130 513.745 L
130 513.511 L
130 513.511 L
130 513.511 L
130 513.511 L
130 513.511 L
130 513.511 L
130 512.809 L
130 512.341 L
130 511.639 L
130 510.937 L
130 510.469 L
130 510.235 L
130 510.001 L
130 509.299 L
130 509.065 L
130 508.363 L
130 507.895 L
130 507.661 L
130 507.427 L
130 506.257 L
130 506.257 L
130 505.789 L
130 505.555 L
130 504.15 L
130 503.214 L
130 502.512 L
130 501.81 L
130 500.874 L
130 500.64 L
130 499.938 L
130 499.236 L
130 498.768 L
130 498.066 L
130 497.364 L
130 496.194 L
130 495.96 L
130 495.492 L
130 495.492 L
130 495.492 L
130 494.79 L
130 493.853 L
130 492.917 L
130 491.747 L
130 491.747 L
130 490.811 L
130 490.343 L
130 489.407 L
130 488.705 L
130 488.237 L
130 487.067 L
130 486.833 L
130 486.131 L
130 484.493 L
130 484.259 L
130 483.323 L
130 482.152 L
130 481.45 L
130 481.216 L
130 480.982 L
130 480.046 L
130 479.344 L
130 478.876 L
130 477.706 L
130 477.238 L
130 477.238 L
130 477.004 L
130 475.834 L
130 475.132 L
130 474.664 L
130 472.792 L
130 471.855 L
130 470.919 L
130 469.749 L
130 469.515 L
130 468.579 L
130 467.877 L
130 467.175 L
130 466.941 L
130 465.771 L
130 464.601 L
130 464.367 L
130 463.431 L
130 462.963 L
130 462.495 L
130 462.027 L
130 461.793 L
130 461.559 L
130 461.324 L
130 461.09 L
130 460.154 L
130 458.984 L
130 458.516 L
130 457.346 L
130 455.942 L
130 455.24 L
130 454.538 L
130 453.602 L
130 452.9 L
130 451.964 L
130 451.496 L
130 450.325 L
130 449.155 L
130 448.687 L
130 448.219 L
130 446.113 L
130 444.709 L
130 444.007 L
130 442.837 L
130 442.135 L
130 440.731 L
130 440.497 L
130 439.326 L
130 438.624 L
130 437.922 L
130 437.22 L
130 436.518 L
130 435.816 L
130 435.348 L
130 435.114 L
130 434.178 L
130 433.944 L
130 432.54 L
130 432.072 L
130 431.136 L
130 430.434 L
130 430.2 L
130 429.03 L
130 428.795 L
130 428.093 L
130 427.391 L
130 426.689 L
130 426.221 L
130 424.817 L
130 424.583 L
130 423.647 L
130 422.945 L
130 422.009 L
130 421.541 L
130 420.605 L
130 420.137 L
130 419.903 L
130 418.264 L
130 415.924 L
130 414.988 L
130 414.52 L
130 412.882 L
130 411.712 L
130 411.01 L
130 410.074 L
130 409.372 L
130 407.968 L
130 407.5 L
130 406.563 L
130 406.329 L
130 405.159 L
130 404.691 L
130 404.457 L
130 403.989 L
130 402.819 L
130 402.351 L
130 401.181 L
130 399.777 L
130 399.309 L
130 399.075 L
130 398.607 L
130 397.671 L
130 396.735 L
130 395.096 L
130 395.096 L
130 393.692 L
130 392.054 L
130 392.054 L
130 391.352 L
130 389.246 L
130 388.076 L
130 386.906 L
130 386.204 L
130 385.033 L
130 384.799 L
130 383.395 L
130 382.693 L
130 380.821 L
130 380.353 L
130 379.885 L
130 379.651 L
130 378.715 L
130 378.481 L
130 377.545 L
130 376.375 L
130 375.439 L
130 374.502 L
130 372.864 L
130 371.46 L
130 370.992 L
130 370.758 L
130 368.652 L
130 367.014 L
130 366.546 L
130 365.844 L
130 365.142 L
130 363.971 L
130 363.971 L
130 363.737 L
130 362.099 L
130 361.631 L
130 360.695 L
130 359.759 L
130 359.057 L
130 359.057 L
130 358.355 L
130 357.887 L
130 357.887 L
130 357.653 L
130 356.483 L
130 356.015 L
130 355.547 L
130 355.079 L
130 353.909 L
130 352.504 L
130 352.036 L
130 350.866 L
130 350.398 L
130 349.228 L
130 348.994 L
130 348.058 L
130 347.59 L
130 346.654 L
130 345.25 L
130 344.782 L
130 344.314 L
130 343.612 L
130 343.612 L
130 341.973 L
130 341.505 L
130 340.335 L
130 339.633 L
130 339.399 L
130 338.697 L
130 338.463 L
130 337.995 L
130 337.059 L
130 336.825 L
130 335.655 L
130 335.421 L
130 333.783 L
130 333.315 L
130 332.847 L
130 332.379 L
130 332.145 L
130 330.974 L
130 330.272 L
130 329.804 L
130 329.57 L
130 329.336 L
130 329.102 L
130 327.698 L
130 326.762 L
130 326.06 L
130 325.826 L
130 324.656 L
130 324.188 L
130 323.954 L
130 323.72 L
130 323.252 L
130 322.784 L
130 322.316 L
130 321.614 L
130 321.146 L
130 320.677 L
130 320.209 L
130 319.507 L
130 318.571 L
130 317.401 L
130 316.933 L
130 316.231 L
130 315.295 L
130 314.827 L
130 312.955 L
130 311.785 L
130 310.147 L
130 309.913 L
130 308.04 L
130 306.636 L
130 306.636 L
130 305.466 L
130 304.062 L
130 303.126 L
130 301.722 L
130 299.85 L
130 299.616 L
130 298.445 L
130 298.211 L
130 297.275 L
130 296.573 L
130 295.169 L
130 293.765 L
130 291.893 L
130 289.787 L
130 289.553 L
130 287.212 L
130 285.808 L
130 285.34 L
130 283.702 L
130 282.064 L
130 280.894 L
130 279.256 L
130 279.022 L
130 278.086 L
130 276.681 L
130 275.511 L
130 275.043 L
130 274.341 L
130 273.873 L
130 273.639 L
130 272.937 L
130 271.533 L
130 270.597 L
130 268.023 L
130 266.15 L
130 265.448 L
130 264.278 L
130 264.044 L
130 263.81 L
130 261.938 L
130 260.768 L
130 259.832 L
130 258.662 L
130 257.96 L
130 257.492 L
130 255.619 L
130 254.215 L
130 253.747 L
130 252.577 L
130 251.875 L
130 251.407 L
130 250.471 L
130 250.237 L
130 248.833 L
130 247.195 L
130 245.791 L
130 244.152 L
130 243.684 L
130 242.514 L
130 242.046 L
130 241.11 L
130 238.536 L
130 237.6 L
130 234.792 L
130 233.621 L
130 233.153 L
130 232.451 L
130 231.749 L
130 230.111 L
130 228.941 L
130 227.303 L
130 225.899 L
130 224.261 L
130 223.559 L
130 222.856 L
130 222.388 L
130 221.218 L
130 219.58 L
130 218.878 L
130 217.006 L
130 215.368 L
130 213.496 L
130 212.325 L
130 209.985 L
130 207.879 L
130 206.709 L
130.004 205.773 L
130.004 204.135 L
130.004 203.667 L
130.009 202.263 L
130.009 201.092 L
130.013 199.22 L
130.013 197.114 L
130.013 195.008 L
130.018 194.54 L
130.022 192.902 L
130.022 191.498 L
130.026 190.561 L
130.026 188.689 L
130.026 187.285 L
130.026 186.349 L
130.026 184.945 L
130.026 183.073 L
130.026 182.371 L
130.031 181.435 L
130.035 180.733 L
130.04 179.094 L
130.044 177.924 L
130.044 176.754 L
130.044 174.18 L
130.044 172.308 L
130.048 171.372 L
130.048 171.138 L
130.061 169.734 L
130.066 167.861 L
130.07 166.925 L
130.07 165.755 L
130.07 164.585 L
130.075 163.883 L
130.088 162.479 L
130.105 161.777 L
130.114 161.309 L
130.136 159.905 L
130.145 159.203 L
130.158 157.096 L
130.171 156.394 L
130.184 154.054 L
130.189 152.65 L
130.198 151.012 L
130.215 149.608 L
130.237 148.438 L
130.259 147.033 L
130.259 146.097 L
130.268 144.693 L
130.281 144.225 L
130.307 143.523 L
130.329 142.587 L
130.386 141.651 L
130.408 140.247 L
130.43 138.843 L
130.457 137.439 L
130.483 135.8 L
130.505 134.63 L
130.567 133.928 L
130.606 132.524 L
130.654 132.056 L
130.729 130.652 L
130.769 130.418 L
130.83 130.418 L
130.944 129.482 L
131.001 129.014 L
131.107 127.844 L
131.19 127.142 L
131.274 126.206 L
131.379 124.801 L
131.471 123.865 L
131.625 121.993 L
131.713 121.525 L
131.871 119.887 L
131.998 118.951 L
132.152 117.547 L
132.328 117.547 L
132.464 117.079 L
132.596 116.143 L
132.798 115.441 L
132.907 114.738 L
133.122 113.1 L
133.325 112.164 L
133.557 110.994 L
133.759 110.292 L
133.983 108.888 L
134.163 108.186 L
134.387 107.484 L
134.752 107.484 L
135.033 106.548 L
135.402 106.314 L
135.819 105.612 L
136.201 104.91 L
136.557 103.037 L
137.018 102.101 L
137.334 101.633 L
137.813 100.931 L
138.296 100.229 L
138.748 99.527 L
139.218 99.527 L
139.75 99.059 L
140.413 97.889 L
140.834 96.953 L
141.462 95.783 L
142.147 94.379 L
142.876 92.272 L
143.623 91.57 L
144.462 90.634 L
145.217 90.166 L
146.113 89.464 L
146.746 89.464 L
147.58 89.23 L
148.498 88.06 L
149.49 86.89 L
150.395 86.656 L
151.515 86.188 L
152.705 85.252 L
153.412 84.784 L
154.475 83.848 L
155.977 83.38 L
157.294 82.911 L
158.52 82.209 L
159.938 81.507 L
161.576 80.805 L
163.135 80.337 L
164.106 79.869 L
165.661 79.401 L
167.242 79.167 L
168.959 78.933 L
170.909 78.465 L
173.083 77.295 L
175.125 76.359 L
176.319 76.125 L
178.695 75.423 L
180.715 75.423 L
183.074 75.189 L
185.489 75.189 L
188.054 74.955 L
190.658 73.785 L
193.627 73.785 L
195.371 73.551 L
198.396 73.083 L
201.712 72.849 L
204.738 72.849 L
208.106 72.849 L
211.295 72.615 L
214.523 72.615 L
216.828 71.912 L
220.658 71.912 L
224.312 70.976 L
228.014 70.976 L
232.34 70.508 L
236.512 70.274 L
240.364 69.338 L
244.76 68.168 L
247.465 68.168 L
251.826 67.7 L
256.446 67.232 L
261.075 66.998 L
266.182 66.998 L
271.409 66.998 L
276.441 66.764 L
279.595 65.828 L
284.996 65.36 L
291.079 64.892 L
296.384 64.658 L
302.357 64.19 L
308.703 63.956 L
314.583 63.488 L
321.052 62.786 L
324.987 62.318 L
331.478 62.084 L
337.662 61.148 L
344.306 60.913 L
351.039 60.211 L
357.899 60.211 L
364.842 59.977 L
369.344 59.977 L
376.506 59.509 L
383.305 59.275 L
390.485 59.275 L
397.956 58.807 L
405.123 58.573 L
413.015 58.105 L
420.573 57.403 L
425.43 56.701 L
433.441 55.999 L
441.205 55.999 L
449.044 55.999 L
457.033 55.999 L
465.452 55.531 L
473.409 55.297 L
482.557 54.829 L
486.945 54.361 L
494.604 53.893 L
503.023 53.425 L
511.156 53.191 L
519.496 52.957 L
527.722 52.723 L
535.842 52.255 L
541.437 52.255 L
549.724 52.021 L
557.392 51.787 L
565.504 51.553 L
573.624 51.085 L
581.898 51.085 L
590.088 50.851 L
598.283 50.382 L
603.755 50.148 L
611.309 50.148 L
618.718 50.148 L
626.803 50.148 L
634.625 49.914 L
642.35 49.446 L
650.044 49.212 L
654.932 48.978 L
661.91 48.744 L
669.236 48.51 L
676.666 48.51 L
683.649 48.51 L
690.83 48.276 L
697.773 47.808 L
705.147 47.34 L
709.727 47.34 L
716.069 47.106 L
722.353 47.106 L
728.73 46.872 L
735.458 46.872 L
741.804 46.404 L
748.133 46.17 L
751.958 46.17 L
757.636 46.17 L
763.126 46.17 L
768.655 46.17 L
774.395 45.936 L
780.139 45.936 L
785.352 45.702 L
790.64 45.702 L
793.784 45.702 L
798.58 45.702 L
802.612 45.702 L
807.179 45.702 L
811.61 45.702 L
815.927 45.702 L
819.999 45.702 L
822.572 45.702 L
825.94 45.468 L
829.577 45.468 L
833.077 45.468 L
836.476 45.468 L
839.77 45.468 L
842.963 45.468 L
846.041 45.468 L
847.89 45.468 L
850.42 45.468 L
853.099 45.468 L
855.852 45.468 L
858.25 45.468 L
860.573 45.468 L
863.195 45.468 L
864.504 45.468 L
866.406 45.468 L
868.435 45.468 L
870.727 45.468 L
872.739 45.468 L
874.596 45.234 L
876.546 45.234 L
877.46 45 L
878.334 45 L
879.906 45 L
881.469 45 L
882.857 45 L
884.139 45 L
885.308 45 L
886.313 45 L
886.906 45 L
888.03 45 L
889.023 45 L
890.086 45 L
891.039 45 L
891.935 45 L
892.659 45 L
893.305 45 L
893.893 45 L
894.578 45 L
895.264 45 L
895.874 45 L
896.542 45 L
897.073 45 L
897.565 45 L
897.907 45 L
898.391 45 L
898.891 45 L
899.225 45 L
899.62 45 L
899.993 45 L
900.261 45 L
900.573 45 L
900.885 45 L
901.223 45 L
901.447 45 L
901.697 45 L
901.974 45 L
902.198 45 L
902.374 45 L
902.519 45 L
902.664 45 L
902.809 45 L
902.945 45 L
903.076 45 L
903.199 45 L
903.314 45 L
903.445 45 L
903.524 45 L
903.647 45 L
903.757 45 L
903.854 45 L
903.937 45 L
904.008 45 L
904.095 45 L
904.152 45 L
904.223 45 L
904.28 45 L
904.324 45 L
904.376 45 L
904.42 45 L
904.469 45 L
904.513 45 L
904.534 45 L
904.587 45 L
904.622 45 L
904.644 45 L
904.662 45 L
904.701 45 L
904.728 45 L
904.75 45 L
904.767 45 L
904.78 45 L
904.802 45 L
904.816 45 L
904.829 45 L
904.851 45 L
904.868 45 L
904.873 45 L
904.886 45 L
904.89 45 L
904.903 45 L
904.903 45 L
904.912 45 L
904.912 45 L
904.921 45 L
904.921 45 L
904.93 45 L
904.934 45 L
904.943 45 L
904.952 45 L
904.96 45 L
904.965 45 L
904.965 45 L
904.969 45 L
904.969 45 L
904.974 45 L
904.978 45 L
904.978 45 L
904.978 45 L
904.978 45 L
904.978 45 L
904.978 45 L
904.978 45 L
904.978 45 L
904.987 45 L
904.987 45 L
904.987 45 L
904.991 45 L
904.991 45 L
904.991 45 L
904.991 45 L
904.991 45 L
904.996 45 L
904.996 45 L
905 45 L
S
GR
GS
1 0 0 RC
1 LJ
3 LW
N
130 520.766 M
130 520.766 L
130 520.766 L
130 520.766 L
130 520.766 L
130 520.766 L
130 520.766 L
130 520.766 L
130 520.766 L
130 520.766 L
130 520.766 L
130 520.766 L
130 520.766 L
130 520.766 L
130 520.766 L
130 520.766 L
130 520.766 L
130 520.766 L
130 520.766 L
130 520.766 L
130 520.766 L
130 520.766 L
130 520.766 L
130 520.766 L
130 520.766 L
130 520.766 L
130 520.766 L
130 520.766 L
130 520.766 L
130 520.766 L
130 520.766 L
130 520.766 L
130 520.766 L
130 520.766 L
130 520.766 L
130 520.766 L
130 520.766 L
130 520.766 L
130 520.766 L
130 520.766 L
130 520.766 L
130 520.766 L
130 520.766 L
130 520.766 L
130 520.766 L
130 520.766 L
130 520.766 L
130 520.766 L
130 520.766 L
130 520.766 L
130 520.766 L
130 520.766 L
130 520.766 L
130 520.766 L
130 520.766 L
130 520.766 L
130 520.766 L
130 520.766 L
130 520.766 L
130 520.766 L
130 520.766 L
130 520.766 L
130 520.766 L
130 520.766 L
130 520.766 L
130 520.766 L
130 520.766 L
130 520.766 L
130 520.766 L
130 520.766 L
130 520.766 L
130 520.766 L
130 520.766 L
130 520.766 L
130 520.766 L
130 520.766 L
130 520.766 L
130 520.766 L
130 520.766 L
130 520.766 L
130 520.766 L
130 520.766 L
130 520.766 L
130 520.766 L
130 520.766 L
130 520.766 L
130 520.766 L
130 520.766 L
130 520.766 L
130 520.766 L
130 520.766 L
130 520.766 L
130 520.766 L
130 520.766 L
130 520.766 L
130 520.766 L
130 520.766 L
130 520.766 L
130 520.766 L
130 520.766 L
130 520.766 L
130 520.766 L
130 520.766 L
130 520.766 L
130 520.766 L
130 520.766 L
130 520.766 L
130 520.766 L
130 520.766 L
130 520.766 L
130 520.766 L
130 520.766 L
130 520.766 L
130 520.766 L
130 520.766 L
130 520.766 L
130 520.766 L
130 520.766 L
130 520.766 L
130 520.766 L
130 520.766 L
130 520.766 L
130 520.766 L
130 520.766 L
130 520.766 L
130 520.766 L
130 520.766 L
130 520.766 L
130 520.766 L
130 520.766 L
130 520.766 L
130 520.766 L
130 520.766 L
130 520.766 L
130 520.766 L
130 520.766 L
130 520.766 L
130 520.766 L
130 520.766 L
130 520.766 L
130 520.766 L
130 520.766 L
130 520.766 L
130 520.766 L
130 520.766 L
130 520.766 L
130 520.766 L
130 520.766 L
130 520.766 L
130 520.766 L
130 520.766 L
130 520.766 L
130 520.766 L
130 520.766 L
130 520.766 L
130 520.766 L
130 520.766 L
130 520.766 L
130 520.766 L
130 520.766 L
130 520.766 L
130 520.766 L
130 520.766 L
130 520.766 L
130 520.766 L
130 520.766 L
130 520.766 L
130 520.532 L
130 520.532 L
130 520.532 L
130 520.532 L
130 520.532 L
130 520.532 L
130 520.532 L
130 520.532 L
130 520.532 L
130 520.532 L
130 520.532 L
130 520.532 L
130 520.532 L
130 520.532 L
130 520.532 L
130 520.532 L
130 520.298 L
130 520.298 L
130 520.298 L
130 520.298 L
130 520.298 L
130 520.298 L
130 520.298 L
130 520.298 L
130 520.298 L
130 520.298 L
130 520.298 L
130 520.064 L
130 519.83 L
130 519.83 L
130 519.362 L
130 519.362 L
130 519.362 L
130 519.362 L
130 519.128 L
130 518.66 L
130 518.66 L
130 518.66 L
130 518.66 L
130 518.66 L
130 517.958 L
130 517.958 L
130 517.958 L
130 517.958 L
130 517.724 L
130 517.724 L
130 517.49 L
130 517.49 L
130 517.022 L
130 516.788 L
130 516.554 L
130 516.32 L
130 516.086 L
130 515.617 L
130 515.149 L
130 514.447 L
130 514.447 L
130 514.213 L
130 514.213 L
130 513.745 L
130 513.511 L
130 513.043 L
130 513.043 L
130 512.809 L
130 512.107 L
130 511.873 L
130 511.171 L
130 510.469 L
130 510.235 L
130 509.533 L
130 509.533 L
130 509.065 L
130 509.065 L
130 509.065 L
130 508.831 L
130 508.831 L
130 508.597 L
130 507.193 L
130 505.789 L
130 504.853 L
130 504.618 L
130 504.15 L
130 504.15 L
130 503.214 L
130 502.98 L
130 502.278 L
130 502.044 L
130 501.81 L
130 501.108 L
130 500.172 L
130 499.47 L
130 498.3 L
130 497.832 L
130 497.598 L
130 497.364 L
130 495.96 L
130 495.726 L
130 495.024 L
130 492.683 L
130 491.747 L
130 491.045 L
130 490.811 L
130 489.173 L
130 488.003 L
130 487.301 L
130 486.599 L
130 486.131 L
130 485.897 L
130 485.195 L
130 484.259 L
130 482.854 L
130 481.918 L
130 481.216 L
130 480.982 L
130 479.812 L
130 478.642 L
130 477.238 L
130 476.77 L
130 475.366 L
130 475.366 L
130 474.43 L
130 473.962 L
130 473.026 L
130 472.792 L
130 471.855 L
130 471.621 L
130 470.685 L
130 469.749 L
130 468.579 L
130 468.111 L
130 467.175 L
130 465.771 L
130 465.303 L
130 464.601 L
130 463.665 L
130 463.197 L
130 462.261 L
130 462.027 L
130 462.027 L
130 460.388 L
130 459.218 L
130 458.75 L
130 458.048 L
130 457.346 L
130 456.878 L
130 455.708 L
130 453.836 L
130 452.666 L
130 452.432 L
130 451.964 L
130 451.496 L
130 450.091 L
130 449.155 L
130 449.155 L
130 448.219 L
130 447.751 L
130 447.283 L
130 446.347 L
130 445.177 L
130 444.943 L
130 444.475 L
130 443.773 L
130 443.305 L
130 443.071 L
130 442.135 L
130 441.199 L
130 439.56 L
130 437.922 L
130 437.688 L
130 437.22 L
130 436.986 L
130 435.348 L
130 433.476 L
130 432.306 L
130 431.136 L
130 431.136 L
130 429.264 L
130 428.327 L
130 426.689 L
130 425.519 L
130 424.349 L
130 424.115 L
130 422.243 L
130 421.541 L
130 421.073 L
130 419.201 L
130 418.264 L
130 417.094 L
130 417.094 L
130 416.392 L
130 415.69 L
130 414.754 L
130 414.052 L
130 412.648 L
130 412.18 L
130 410.074 L
130 408.904 L
130 408.436 L
130 407.734 L
130 407.5 L
130 407.266 L
130 405.861 L
130 405.159 L
130 403.989 L
130 403.989 L
130 403.521 L
130 403.287 L
130 402.351 L
130 401.649 L
130 401.181 L
130 400.713 L
130 399.777 L
130 399.309 L
130 398.607 L
130 397.437 L
130 396.735 L
130 395.564 L
130 395.096 L
130 394.16 L
130 393.458 L
130 392.522 L
130 391.586 L
130 390.416 L
130 389.012 L
130 387.374 L
130 387.14 L
130 386.204 L
130 385.736 L
130 384.565 L
130 383.629 L
130 382.693 L
130 381.991 L
130 380.587 L
130 378.715 L
130 377.779 L
130 377.077 L
130 376.375 L
130 376.375 L
130 375.439 L
130 374.502 L
130 374.502 L
130 374.268 L
130 372.864 L
130 372.396 L
130 371.694 L
130 371.226 L
130 370.758 L
130 369.588 L
130 367.95 L
130 366.546 L
130 366.546 L
130 365.142 L
130 364.206 L
130 362.801 L
130 361.397 L
130 360.227 L
130 359.993 L
130 359.291 L
130 358.823 L
130 358.823 L
130 358.121 L
130 357.653 L
130 357.653 L
130 357.419 L
130 357.185 L
130 356.015 L
130 354.845 L
130 354.377 L
130 353.909 L
130 353.441 L
130 352.504 L
130 351.802 L
130 350.866 L
130 349.228 L
130 348.292 L
130 348.058 L
130 347.59 L
130 346.42 L
130 345.484 L
130 344.548 L
130 343.612 L
130 343.378 L
130 342.676 L
130 342.207 L
130 341.973 L
130 341.739 L
130 341.505 L
130 341.037 L
130 341.037 L
130 340.101 L
130 339.399 L
130 338.697 L
130 337.995 L
130 337.527 L
130 337.293 L
130 336.123 L
130 335.655 L
130 334.953 L
130 334.485 L
130 334.251 L
130 333.549 L
130 333.081 L
130 332.379 L
130 331.676 L
130 330.974 L
130 330.272 L
130 330.272 L
130 329.57 L
130 328.634 L
130 328.634 L
130 328.166 L
130 328.166 L
130 328.166 L
130 327.932 L
130 326.762 L
130 326.528 L
130 325.358 L
130 325.124 L
130 325.124 L
130 324.89 L
130 324.422 L
130 323.486 L
130 323.018 L
130 322.784 L
130 322.55 L
130 321.614 L
130 320.677 L
130 319.741 L
130 319.273 L
130 318.337 L
130 318.337 L
130 317.635 L
130 317.167 L
130 316.699 L
130 315.763 L
130 315.061 L
130 314.359 L
130 313.891 L
130 312.955 L
130 312.019 L
130 311.785 L
130 310.615 L
130 309.913 L
130 309.444 L
130 307.806 L
130 306.87 L
130 305.466 L
130 304.998 L
130 303.36 L
130 302.892 L
130 302.19 L
130 301.02 L
130 299.85 L
130 298.211 L
130 296.339 L
130 295.871 L
130 293.999 L
130 292.361 L
130 291.425 L
130 290.255 L
130 288.148 L
130 287.914 L
130 287.212 L
130 286.51 L
130 285.808 L
130 285.106 L
130 283.468 L
130 282.532 L
130 282.064 L
130 281.128 L
130 280.192 L
130 279.49 L
130 278.32 L
130 277.149 L
130 276.447 L
130 275.745 L
130 274.809 L
130 273.405 L
130 272.703 L
130 271.767 L
130 270.597 L
130 269.895 L
130 268.491 L
130 267.087 L
130 265.682 L
130 264.512 L
130 264.044 L
130 263.576 L
130 263.342 L
130 262.172 L
130 260.768 L
130 259.598 L
130 257.726 L
130 257.258 L
130 255.619 L
130 254.683 L
130 253.981 L
130 253.513 L
130 252.109 L
130 251.875 L
130 250.939 L
130 249.535 L
130 248.599 L
130 247.195 L
130 246.493 L
130 246.025 L
130 243.684 L
130 242.748 L
130 241.11 L
130 240.642 L
130 239.004 L
130 238.068 L
130 237.366 L
130 235.728 L
130 234.324 L
130 232.685 L
130 231.983 L
130 230.813 L
130 229.409 L
130 228.473 L
130 227.069 L
130 226.367 L
130 225.197 L
130 223.324 L
130 221.92 L
130 221.218 L
130 220.282 L
130 218.41 L
130 217.006 L
130 216.07 L
130 215.368 L
130 213.73 L
130 212.091 L
130 209.283 L
130 207.645 L
130 206.007 L
130 205.773 L
130 204.369 L
130 202.731 L
130 200.624 L
130 197.114 L
130 193.838 L
130 193.604 L
130 192.902 L
130 191.498 L
130 189.157 L
130 187.753 L
130 185.179 L
130 184.711 L
130 182.605 L
130 180.733 L
130 178.392 L
130 176.286 L
130 174.882 L
130 174.414 L
130 173.946 L
130 172.074 L
130 169.968 L
130 168.563 L
130 167.159 L
130 165.989 L
130 164.585 L
130 162.479 L
130 161.075 L
130 160.139 L
130 157.798 L
130 156.628 L
130 156.394 L
130 155.458 L
130 154.756 L
130 153.352 L
130.004 152.416 L
130.009 151.246 L
130.009 150.778 L
130.009 149.374 L
130.009 148.204 L
130.009 147.267 L
130.009 146.799 L
130.022 146.331 L
130.026 145.629 L
130.035 144.927 L
130.044 143.991 L
130.044 143.289 L
130.044 140.949 L
130.048 140.013 L
130.053 138.843 L
130.053 138.141 L
130.057 137.907 L
130.061 136.034 L
130.061 135.098 L
130.066 133.46 L
130.07 131.588 L
130.07 130.886 L
130.079 129.014 L
130.083 127.61 L
130.105 126.908 L
130.11 125.503 L
130.11 124.567 L
130.127 123.631 L
130.136 122.929 L
130.158 121.525 L
130.171 120.355 L
130.18 119.419 L
130.18 118.249 L
130.193 117.547 L
130.211 116.611 L
130.224 115.675 L
130.242 114.27 L
130.272 113.568 L
130.285 113.334 L
130.307 112.164 L
130.343 110.526 L
130.369 109.59 L
130.382 109.59 L
130.4 109.122 L
130.422 107.484 L
130.452 106.314 L
130.466 106.08 L
130.505 105.612 L
130.527 105.144 L
130.553 104.676 L
130.602 104.207 L
130.65 102.803 L
130.694 102.335 L
130.742 101.867 L
130.83 101.633 L
130.887 101.399 L
130.962 100.697 L
131.076 100.463 L
131.129 99.293 L
131.252 98.825 L
131.348 98.123 L
131.432 97.421 L
131.559 97.187 L
131.704 96.719 L
131.801 96.017 L
131.932 95.549 L
132.108 95.549 L
132.297 94.613 L
132.468 94.145 L
132.639 93.442 L
132.806 92.038 L
132.929 91.336 L
133.158 90.634 L
133.39 90.4 L
133.663 88.528 L
133.887 87.826 L
134.168 87.358 L
134.308 86.89 L
134.642 85.72 L
134.967 85.252 L
135.345 85.018 L
135.784 84.55 L
136.153 83.848 L
136.403 83.38 L
136.842 82.209 L
137.325 81.039 L
137.738 80.571 L
138.349 80.103 L
138.889 79.635 L
139.275 79.401 L
139.877 78.231 L
140.54 77.061 L
141.199 76.827 L
141.945 76.359 L
142.653 75.423 L
143.285 74.955 L
144.216 74.487 L
145.064 73.785 L
146.012 73.317 L
146.992 73.083 L
147.962 72.147 L
149.042 71.21 L
149.714 70.976 L
150.847 70.742 L
152.222 70.04 L
153.575 69.338 L
155.055 68.87 L
156.623 67.934 L
157.685 67.7 L
159.244 67.232 L
161.01 66.998 L
162.903 66.53 L
164.765 65.594 L
166.833 65.594 L
167.953 65.126 L
169.951 64.892 L
172.332 63.956 L
174.514 63.722 L
176.965 63.488 L
179.407 62.552 L
180.953 62.318 L
183.596 61.616 L
186.552 60.913 L
189.437 60.913 L
192.134 60.445 L
195.586 60.445 L
196.807 60.445 L
200.355 60.445 L
203.908 59.509 L
206.987 59.041 L
210.922 58.573 L
214.799 57.871 L
218.278 57.871 L
220.851 57.403 L
224.971 57.169 L
229.143 56.701 L
233.306 56.467 L
238.049 55.999 L
242.691 55.999 L
245.331 55.999 L
250.363 55.765 L
255.629 55.531 L
260.293 55.531 L
265.44 55.063 L
270.947 55.063 L
274.189 54.595 L
279.612 54.361 L
285.256 54.127 L
290.859 53.893 L
297.047 53.893 L
303.165 53.893 L
307.236 53.893 L
314.004 53.893 L
320.464 53.659 L
326.964 53.425 L
333.621 53.191 L
340.661 52.723 L
347.728 52.489 L
352.326 52.255 L
359.418 51.787 L
366.559 51.787 L
374.372 51.553 L
381.965 51.319 L
389.985 50.617 L
394.17 50.382 L
402.154 50.382 L
409.62 50.382 L
417.661 50.148 L
425.672 49.68 L
433.691 49.68 L
438.451 49.446 L
446.906 49.446 L
454.951 49.446 L
463.959 48.978 L
471.947 48.744 L
480.805 48.744 L
485.447 48.744 L
494.696 48.744 L
502.518 48.51 L
511.56 48.042 L
519.755 47.808 L
528.732 47.34 L
534.344 47.106 L
543.558 46.872 L
552.1 46.638 L
560.708 46.638 L
568.854 46.638 L
577.418 46.404 L
586.004 46.17 L
591.577 46.17 L
599.052 46.17 L
607.963 46.17 L
616.078 46.17 L
624.502 46.17 L
632.31 45.936 L
637.22 45.936 L
644.717 45.936 L
652.841 45.936 L
660.294 45.936 L
668.349 45.936 L
675.876 45.936 L
680.404 45.936 L
687.857 45.936 L
695.151 45.936 L
702.27 45.936 L
709.147 45.702 L
716.091 45.702 L
720.351 45.702 L
726.855 45.702 L
733.038 45.702 L
739.231 45.468 L
745.678 45.468 L
751.901 45.468 L
755.599 45.234 L
761.966 45.234 L
767.272 45.234 L
772.669 45.234 L
778.062 45.234 L
783.385 45.234 L
788.686 45.234 L
791.997 45.234 L
796.929 45.234 L
801.624 45.234 L
806.108 45.234 L
810.201 45.234 L
814.584 45.234 L
817.451 45.234 L
821.509 45.234 L
825.396 45.234 L
828.966 45.234 L
832.84 45.234 L
836.612 45.234 L
839.037 45.234 L
842.229 45.234 L
845.334 45.234 L
848.154 45.234 L
850.907 45.234 L
853.924 45 L
855.835 45 L
858.356 45 L
860.868 45 L
862.963 45 L
865.259 45 L
867.42 45 L
869.045 45 L
870.995 45 L
872.699 45 L
874.456 45 L
876.155 45 L
877.776 45 L
879.392 45 L
880.455 45 L
881.838 45 L
883.116 45 L
884.297 45 L
885.615 45 L
886.687 45 L
887.376 45 L
888.391 45 L
889.405 45 L
890.345 45 L
891.289 45 L
892.255 45 L
892.76 45 L
893.538 45 L
894.297 45 L
894.969 45 L
895.646 45 L
896.287 45 L
896.871 45 L
897.376 45 L
897.798 45 L
898.421 45 L
898.917 45 L
899.37 45 L
899.809 45 L
899.971 45 L
900.253 45 L
900.74 45 L
901.074 45 L
901.311 45 L
901.592 45 L
901.768 45 L
902.088 45 L
902.361 45 L
902.576 45 L
902.826 45 L
902.984 45 L
903.103 45 L
903.252 45 L
903.362 45 L
903.48 45 L
903.621 45 L
903.713 45 L
903.81 45 L
903.911 45 L
903.968 45 L
904.06 45 L
904.139 45 L
904.218 45 L
904.28 45 L
904.346 45 L
904.385 45 L
904.451 45 L
904.499 45 L
904.517 45 L
904.539 45 L
904.578 45 L
904.609 45 L
904.627 45 L
904.684 45 L
904.706 45 L
904.732 45 L
904.75 45 L
904.763 45 L
904.789 45 L
904.807 45 L
904.82 45 L
904.82 45 L
904.846 45 L
904.868 45 L
904.886 45 L
904.89 45 L
904.908 45 L
904.917 45 L
904.921 45 L
904.925 45 L
904.93 45 L
904.93 45 L
904.943 45 L
904.943 45 L
904.952 45 L
904.96 45 L
904.974 45 L
904.978 45 L
904.978 45 L
904.982 45 L
904.982 45 L
904.982 45 L
904.991 45 L
904.991 45 L
904.991 45 L
904.991 45 L
904.991 45 L
904.991 45 L
904.991 45 L
904.991 45 L
904.991 45 L
904.991 45 L
904.991 45 L
904.991 45 L
904.991 45 L
904.991 45 L
904.991 45 L
904.991 45 L
904.991 45 L
904.991 45 L
904.991 45 L
904.991 45 L
904.991 45 L
904.991 45 L
904.996 45 L
905 45 L
S
GR
GS
[1 0 0 1 440 221.12] CT
/Helvetica 24 F
GS
[1 0 0 1 0 0] CT
0 8.5 moveto 
1 -1 scale
(EER line) t 
GR
GR
GS
[10 6] 0 setdash
2 LJ
0.5 LW
N
905 521 M
130 45 L
S
GR
GS
1 GC
N
897 513 M
897 391 L
226 391 L
226 513 L
cp
f
GR
GS
[1 0 0 1 263 407.5679] CT
/Helvetica 24 F
GS
[1 0 0 1 0 0] CT
0 8.5 moveto 
1 -1 scale
(original OSIRIS, EER = 23.69%) t 
GR
GR
GS
0 0 1 RC
1 LJ
3 LW
N
230 407.568 M
260 407.568 L
S
GR
GS
[1 0 0 1 263 437.1893] CT
/Helvetica 24 F
GS
[1 0 0 1 0 0] CT
0 8.5 moveto 
1 -1 scale
(IriCore, EER = 10.46%) t 
GR
GR
GS
0 1 0 RC
1 LJ
3 LW
N
230 437.189 M
260 437.189 L
S
GR
GS
[1 0 0 1 263 466.8107] CT
/Helvetica 24 F
GS
[1 0 0 1 0 0] CT
0 8.5 moveto 
1 -1 scale
(OSIRIS with new segmentation, EER = 6.40%) t 
GR
GR
GS
1 LJ
3 LW
N
230 466.811 M
260 466.811 L
S
GR
GS
[1 0 0 1 263 496.4321] CT
/Helvetica 24 F
GS
[1 0 0 1 0 0] CT
0 8.5 moveto 
1 -1 scale
(OSIRIS with new segmentation and filter set, EER = 4.39%) t 
GR
GR
GS
1 0 0 RC
1 LJ
3 LW
N
230 496.432 M
260 496.432 L
S
GR
GS
0.149 GC
10.0 ML
0.5 LW
N
226 513 M
226 391 L
897 391 L
897 513 L
cp
S
GR
%%Trailer
%%Pages: 1
%%EOF
