%!PS-Adobe-3.0 EPSF-3.0
%%Creator: (MATLAB, The Mathworks, Inc. Version 9.5.0.1049112 \(R2018b\) Update 3. Operating System: Mac OS X)
%%Title: ./ROCs_postmortem_new_24_closeup.eps
%%CreationDate: 2019-03-12T15:39:07
%%Pages: (atend)
%%BoundingBox:    48     5   927   587
%%LanguageLevel: 3
%%EndComments
%%BeginProlog
%%BeginResource: procset (Apache XML Graphics Std ProcSet) 1.2 0
%%Version: 1.2 0
%%Copyright: (Copyright 2001-2003,2010 The Apache Software Foundation. License terms: http://www.apache.org/licenses/LICENSE-2.0)
/bd{bind def}bind def
/ld{load def}bd
/GR/grestore ld
/GS/gsave ld
/RM/rmoveto ld
/C/curveto ld
/t/show ld
/L/lineto ld
/ML/setmiterlimit ld
/CT/concat ld
/f/fill ld
/N/newpath ld
/S/stroke ld
/CC/setcmykcolor ld
/A/ashow ld
/cp/closepath ld
/RC/setrgbcolor ld
/LJ/setlinejoin ld
/GC/setgray ld
/LW/setlinewidth ld
/M/moveto ld
/re {4 2 roll M
1 index 0 rlineto
0 exch rlineto
neg 0 rlineto
cp } bd
/_ctm matrix def
/_tm matrix def
/BT { _ctm currentmatrix pop matrix _tm copy pop 0 0 moveto } bd
/ET { _ctm setmatrix } bd
/iTm { _ctm setmatrix _tm concat } bd
/Tm { _tm astore pop iTm 0 0 moveto } bd
/ux 0.0 def
/uy 0.0 def
/F {
  /Tp exch def
  /Tf exch def
  Tf findfont Tp scalefont setfont
  /cf Tf def  /cs Tp def
} bd
/ULS {currentpoint /uy exch def /ux exch def} bd
/ULE {
  /Tcx currentpoint pop def
  gsave
  newpath
  cf findfont cs scalefont dup
  /FontMatrix get 0 get /Ts exch def /FontInfo get dup
  /UnderlinePosition get Ts mul /To exch def
  /UnderlineThickness get Ts mul /Tt exch def
  ux uy To add moveto  Tcx uy To add lineto
  Tt setlinewidth stroke
  grestore
} bd
/OLE {
  /Tcx currentpoint pop def
  gsave
  newpath
  cf findfont cs scalefont dup
  /FontMatrix get 0 get /Ts exch def /FontInfo get dup
  /UnderlinePosition get Ts mul /To exch def
  /UnderlineThickness get Ts mul /Tt exch def
  ux uy To add cs add moveto Tcx uy To add cs add lineto
  Tt setlinewidth stroke
  grestore
} bd
/SOE {
  /Tcx currentpoint pop def
  gsave
  newpath
  cf findfont cs scalefont dup
  /FontMatrix get 0 get /Ts exch def /FontInfo get dup
  /UnderlinePosition get Ts mul /To exch def
  /UnderlineThickness get Ts mul /Tt exch def
  ux uy To add cs 10 mul 26 idiv add moveto Tcx uy To add cs 10 mul 26 idiv add lineto
  Tt setlinewidth stroke
  grestore
} bd
/QT {
/Y22 exch store
/X22 exch store
/Y21 exch store
/X21 exch store
currentpoint
/Y21 load 2 mul add 3 div exch
/X21 load 2 mul add 3 div exch
/X21 load 2 mul /X22 load add 3 div
/Y21 load 2 mul /Y22 load add 3 div
/X22 load /Y22 load curveto
} bd
/SSPD {
dup length /d exch dict def
{
/v exch def
/k exch def
currentpagedevice k known {
/cpdv currentpagedevice k get def
v cpdv ne {
/upd false def
/nullv v type /nulltype eq def
/nullcpdv cpdv type /nulltype eq def
nullv nullcpdv or
{
/upd true def
} {
/sametype v type cpdv type eq def
sametype {
v type /arraytype eq {
/vlen v length def
/cpdvlen cpdv length def
vlen cpdvlen eq {
0 1 vlen 1 sub {
/i exch def
/obj v i get def
/cpdobj cpdv i get def
obj cpdobj ne {
/upd true def
exit
} if
} for
} {
/upd true def
} ifelse
} {
v type /dicttype eq {
v {
/dv exch def
/dk exch def
/cpddv cpdv dk get def
dv cpddv ne {
/upd true def
exit
} if
} forall
} {
/upd true def
} ifelse
} ifelse
} if
} ifelse
upd true eq {
d k v put
} if
} if
} if
} forall
d length 0 gt {
d setpagedevice
} if
} bd
/RE { % /NewFontName [NewEncodingArray] /FontName RE -
  findfont dup length dict begin
  {
    1 index /FID ne
    {def} {pop pop} ifelse
  } forall
  /Encoding exch def
  /FontName 1 index def
  currentdict definefont pop
  end
} bind def
%%EndResource
%%BeginResource: procset (Apache XML Graphics EPS ProcSet) 1.0 0
%%Version: 1.0 0
%%Copyright: (Copyright 2002-2003 The Apache Software Foundation. License terms: http://www.apache.org/licenses/LICENSE-2.0)
/BeginEPSF { %def
/b4_Inc_state save def         % Save state for cleanup
/dict_count countdictstack def % Count objects on dict stack
/op_count count 1 sub def      % Count objects on operand stack
userdict begin                 % Push userdict on dict stack
/showpage { } def              % Redefine showpage, { } = null proc
0 setgray 0 setlinecap         % Prepare graphics state
1 setlinewidth 0 setlinejoin
10 setmiterlimit [ ] 0 setdash newpath
/languagelevel where           % If level not equal to 1 then
{pop languagelevel             % set strokeadjust and
1 ne                           % overprint to their defaults.
{false setstrokeadjust false setoverprint
} if
} if
} bd
/EndEPSF { %def
count op_count sub {pop} repeat            % Clean up stacks
countdictstack dict_count sub {end} repeat
b4_Inc_state restore
} bd
%%EndResource
%FOPBeginFontDict
%%IncludeResource: font Courier-Oblique
%%IncludeResource: font Courier-BoldOblique
%%IncludeResource: font Courier-Bold
%%IncludeResource: font ZapfDingbats
%%IncludeResource: font Symbol
%%IncludeResource: font Helvetica
%%IncludeResource: font Helvetica-Oblique
%%IncludeResource: font Helvetica-Bold
%%IncludeResource: font Helvetica-BoldOblique
%%IncludeResource: font Times-Roman
%%IncludeResource: font Times-Italic
%%IncludeResource: font Times-Bold
%%IncludeResource: font Times-BoldItalic
%%IncludeResource: font Courier
%FOPEndFontDict
%%BeginResource: encoding WinAnsiEncoding
/WinAnsiEncoding [
/.notdef /.notdef /.notdef /.notdef /.notdef
/.notdef /.notdef /.notdef /.notdef /.notdef
/.notdef /.notdef /.notdef /.notdef /.notdef
/.notdef /.notdef /.notdef /.notdef /.notdef
/.notdef /.notdef /.notdef /.notdef /.notdef
/.notdef /.notdef /.notdef /.notdef /.notdef
/.notdef /.notdef /space /exclam /quotedbl
/numbersign /dollar /percent /ampersand /quotesingle
/parenleft /parenright /asterisk /plus /comma
/hyphen /period /slash /zero /one
/two /three /four /five /six
/seven /eight /nine /colon /semicolon
/less /equal /greater /question /at
/A /B /C /D /E
/F /G /H /I /J
/K /L /M /N /O
/P /Q /R /S /T
/U /V /W /X /Y
/Z /bracketleft /backslash /bracketright /asciicircum
/underscore /quoteleft /a /b /c
/d /e /f /g /h
/i /j /k /l /m
/n /o /p /q /r
/s /t /u /v /w
/x /y /z /braceleft /bar
/braceright /asciitilde /bullet /Euro /bullet
/quotesinglbase /florin /quotedblbase /ellipsis /dagger
/daggerdbl /circumflex /perthousand /Scaron /guilsinglleft
/OE /bullet /Zcaron /bullet /bullet
/quoteleft /quoteright /quotedblleft /quotedblright /bullet
/endash /emdash /asciitilde /trademark /scaron
/guilsinglright /oe /bullet /zcaron /Ydieresis
/space /exclamdown /cent /sterling /currency
/yen /brokenbar /section /dieresis /copyright
/ordfeminine /guillemotleft /logicalnot /sfthyphen /registered
/macron /degree /plusminus /twosuperior /threesuperior
/acute /mu /paragraph /middot /cedilla
/onesuperior /ordmasculine /guillemotright /onequarter /onehalf
/threequarters /questiondown /Agrave /Aacute /Acircumflex
/Atilde /Adieresis /Aring /AE /Ccedilla
/Egrave /Eacute /Ecircumflex /Edieresis /Igrave
/Iacute /Icircumflex /Idieresis /Eth /Ntilde
/Ograve /Oacute /Ocircumflex /Otilde /Odieresis
/multiply /Oslash /Ugrave /Uacute /Ucircumflex
/Udieresis /Yacute /Thorn /germandbls /agrave
/aacute /acircumflex /atilde /adieresis /aring
/ae /ccedilla /egrave /eacute /ecircumflex
/edieresis /igrave /iacute /icircumflex /idieresis
/eth /ntilde /ograve /oacute /ocircumflex
/otilde /odieresis /divide /oslash /ugrave
/uacute /ucircumflex /udieresis /yacute /thorn
/ydieresis
] def
%%EndResource
%FOPBeginFontReencode
/Courier-Oblique findfont
dup length dict begin
  {1 index /FID ne {def} {pop pop} ifelse} forall
  /Encoding WinAnsiEncoding def
  currentdict
end
/Courier-Oblique exch definefont pop
/Courier-BoldOblique findfont
dup length dict begin
  {1 index /FID ne {def} {pop pop} ifelse} forall
  /Encoding WinAnsiEncoding def
  currentdict
end
/Courier-BoldOblique exch definefont pop
/Courier-Bold findfont
dup length dict begin
  {1 index /FID ne {def} {pop pop} ifelse} forall
  /Encoding WinAnsiEncoding def
  currentdict
end
/Courier-Bold exch definefont pop
/Helvetica findfont
dup length dict begin
  {1 index /FID ne {def} {pop pop} ifelse} forall
  /Encoding WinAnsiEncoding def
  currentdict
end
/Helvetica exch definefont pop
/Helvetica-Oblique findfont
dup length dict begin
  {1 index /FID ne {def} {pop pop} ifelse} forall
  /Encoding WinAnsiEncoding def
  currentdict
end
/Helvetica-Oblique exch definefont pop
/Helvetica-Bold findfont
dup length dict begin
  {1 index /FID ne {def} {pop pop} ifelse} forall
  /Encoding WinAnsiEncoding def
  currentdict
end
/Helvetica-Bold exch definefont pop
/Helvetica-BoldOblique findfont
dup length dict begin
  {1 index /FID ne {def} {pop pop} ifelse} forall
  /Encoding WinAnsiEncoding def
  currentdict
end
/Helvetica-BoldOblique exch definefont pop
/Times-Roman findfont
dup length dict begin
  {1 index /FID ne {def} {pop pop} ifelse} forall
  /Encoding WinAnsiEncoding def
  currentdict
end
/Times-Roman exch definefont pop
/Times-Italic findfont
dup length dict begin
  {1 index /FID ne {def} {pop pop} ifelse} forall
  /Encoding WinAnsiEncoding def
  currentdict
end
/Times-Italic exch definefont pop
/Times-Bold findfont
dup length dict begin
  {1 index /FID ne {def} {pop pop} ifelse} forall
  /Encoding WinAnsiEncoding def
  currentdict
end
/Times-Bold exch definefont pop
/Times-BoldItalic findfont
dup length dict begin
  {1 index /FID ne {def} {pop pop} ifelse} forall
  /Encoding WinAnsiEncoding def
  currentdict
end
/Times-BoldItalic exch definefont pop
/Courier findfont
dup length dict begin
  {1 index /FID ne {def} {pop pop} ifelse} forall
  /Encoding WinAnsiEncoding def
  currentdict
end
/Courier exch definefont pop
%FOPEndFontReencode
%%EndProlog
%%Page: 1 1
%%PageBoundingBox: 0 0 1000 600
%%BeginPageSetup
[1 0 0 -1 0 600] CT
%%EndPageSetup
GS
1 GC
N
0 0 1000 600 re
f
GR
GS
1 GC
N
0 0 1000 600 re
f
GR
GS
1 GC
N
130 531 M
905 531 L
905 45 L
130 45 L
cp
f
GR
GS
0.873 GC
1 LJ
0.5 LW
N
130 531 M
130 45 L
S
GR
GS
0.873 GC
1 LJ
0.5 LW
N
285 531 M
285 45 L
S
GR
GS
0.873 GC
1 LJ
0.5 LW
N
440 531 M
440 45 L
S
GR
GS
0.873 GC
1 LJ
0.5 LW
N
595 531 M
595 45 L
S
GR
GS
0.873 GC
1 LJ
0.5 LW
N
750 531 M
750 45 L
S
GR
GS
0.873 GC
1 LJ
0.5 LW
N
905 531 M
905 45 L
S
GR
GS
0.873 GC
1 LJ
0.5 LW
N
905 531 M
130 531 L
S
GR
GS
0.873 GC
1 LJ
0.5 LW
N
905 450 M
130 450 L
S
GR
GS
0.873 GC
1 LJ
0.5 LW
N
905 369 M
130 369 L
S
GR
GS
0.873 GC
1 LJ
0.5 LW
N
905 288 M
130 288 L
S
GR
GS
0.873 GC
1 LJ
0.5 LW
N
905 207 M
130 207 L
S
GR
GS
0.873 GC
1 LJ
0.5 LW
N
905 126 M
130 126 L
S
GR
GS
0.873 GC
1 LJ
0.5 LW
N
905 45 M
130 45 L
S
GR
GS
0.149 GC
2 setlinecap
1 LJ
0.5 LW
N
130 531 M
905 531 L
S
GR
GS
0.149 GC
2 setlinecap
1 LJ
0.5 LW
N
130 45 M
905 45 L
S
GR
GS
0.149 GC
2 setlinecap
1 LJ
0.5 LW
N
130 531 M
130 523.25 L
S
GR
GS
0.149 GC
2 setlinecap
1 LJ
0.5 LW
N
285 531 M
285 523.25 L
S
GR
GS
0.149 GC
2 setlinecap
1 LJ
0.5 LW
N
440 531 M
440 523.25 L
S
GR
GS
0.149 GC
2 setlinecap
1 LJ
0.5 LW
N
595 531 M
595 523.25 L
S
GR
GS
0.149 GC
2 setlinecap
1 LJ
0.5 LW
N
750 531 M
750 523.25 L
S
GR
GS
0.149 GC
2 setlinecap
1 LJ
0.5 LW
N
905 531 M
905 523.25 L
S
GR
GS
0.149 GC
2 setlinecap
1 LJ
0.5 LW
N
130 45 M
130 52.75 L
S
GR
GS
0.149 GC
2 setlinecap
1 LJ
0.5 LW
N
285 45 M
285 52.75 L
S
GR
GS
0.149 GC
2 setlinecap
1 LJ
0.5 LW
N
440 45 M
440 52.75 L
S
GR
GS
0.149 GC
2 setlinecap
1 LJ
0.5 LW
N
595 45 M
595 52.75 L
S
GR
GS
0.149 GC
2 setlinecap
1 LJ
0.5 LW
N
750 45 M
750 52.75 L
S
GR
GS
0.149 GC
2 setlinecap
1 LJ
0.5 LW
N
905 45 M
905 52.75 L
S
GR
GS
[1 0 0 1 130 537.80005] CT
0.149 GC
/Helvetica 24 F
GS
[1 0 0 1 0 0] CT
-7 23 moveto 
1 -1 scale
(0) t 
GR
GR
GS
[1 0 0 1 285 537.80005] CT
0.149 GC
/Helvetica 24 F
GS
[1 0 0 1 0 0] CT
-23.5 23 moveto 
1 -1 scale
(0.01) t 
GR
GR
GS
[1 0 0 1 440 537.80005] CT
0.149 GC
/Helvetica 24 F
GS
[1 0 0 1 0 0] CT
-23.5 23 moveto 
1 -1 scale
(0.02) t 
GR
GR
GS
[1 0 0 1 595 537.80005] CT
0.149 GC
/Helvetica 24 F
GS
[1 0 0 1 0 0] CT
-23.5 23 moveto 
1 -1 scale
(0.03) t 
GR
GR
GS
[1 0 0 1 750 537.80005] CT
0.149 GC
/Helvetica 24 F
GS
[1 0 0 1 0 0] CT
-23.5 23 moveto 
1 -1 scale
(0.04) t 
GR
GR
GS
[1 0 0 1 905 537.80005] CT
0.149 GC
/Helvetica 24 F
GS
[1 0 0 1 0 0] CT
-23.5 23 moveto 
1 -1 scale
(0.05) t 
GR
GR
GS
[1 0 0 1 517.50037 567.79999] CT
0.149 GC
/Helvetica 26.4 F
GS
[1 0 0 1 0 0] CT
-103.5 26 moveto 
1 -1 scale
(False Match Rate) t 
GR
GR
GS
0.149 GC
2 setlinecap
1 LJ
0.5 LW
N
130 531 M
130 45 L
S
GR
GS
0.149 GC
2 setlinecap
1 LJ
0.5 LW
N
905 531 M
905 45 L
S
GR
GS
0.149 GC
2 setlinecap
1 LJ
0.5 LW
N
130 531 M
137.75 531 L
S
GR
GS
0.149 GC
2 setlinecap
1 LJ
0.5 LW
N
130 450 M
137.75 450 L
S
GR
GS
0.149 GC
2 setlinecap
1 LJ
0.5 LW
N
130 369 M
137.75 369 L
S
GR
GS
0.149 GC
2 setlinecap
1 LJ
0.5 LW
N
130 288 M
137.75 288 L
S
GR
GS
0.149 GC
2 setlinecap
1 LJ
0.5 LW
N
130 207 M
137.75 207 L
S
GR
GS
0.149 GC
2 setlinecap
1 LJ
0.5 LW
N
130 126 M
137.75 126 L
S
GR
GS
0.149 GC
2 setlinecap
1 LJ
0.5 LW
N
130 45 M
137.75 45 L
S
GR
GS
0.149 GC
2 setlinecap
1 LJ
0.5 LW
N
905 531 M
897.25 531 L
S
GR
GS
0.149 GC
2 setlinecap
1 LJ
0.5 LW
N
905 450 M
897.25 450 L
S
GR
GS
0.149 GC
2 setlinecap
1 LJ
0.5 LW
N
905 369 M
897.25 369 L
S
GR
GS
0.149 GC
2 setlinecap
1 LJ
0.5 LW
N
905 288 M
897.25 288 L
S
GR
GS
0.149 GC
2 setlinecap
1 LJ
0.5 LW
N
905 207 M
897.25 207 L
S
GR
GS
0.149 GC
2 setlinecap
1 LJ
0.5 LW
N
905 126 M
897.25 126 L
S
GR
GS
0.149 GC
2 setlinecap
1 LJ
0.5 LW
N
905 45 M
897.25 45 L
S
GR
GS
[1 0 0 1 123.2 531] CT
0.149 GC
/Helvetica 24 F
GS
[1 0 0 1 0 0] CT
-34 8.5 moveto 
1 -1 scale
(0.7) t 
GR
GR
GS
[1 0 0 1 123.2 450] CT
0.149 GC
/Helvetica 24 F
GS
[1 0 0 1 0 0] CT
-47 8.5 moveto 
1 -1 scale
(0.75) t 
GR
GR
GS
[1 0 0 1 123.2 368.99997] CT
0.149 GC
/Helvetica 24 F
GS
[1 0 0 1 0 0] CT
-34 8.5 moveto 
1 -1 scale
(0.8) t 
GR
GR
GS
[1 0 0 1 123.2 287.99997] CT
0.149 GC
/Helvetica 24 F
GS
[1 0 0 1 0 0] CT
-47 8.5 moveto 
1 -1 scale
(0.85) t 
GR
GR
GS
[1 0 0 1 123.2 207.00005] CT
0.149 GC
/Helvetica 24 F
GS
[1 0 0 1 0 0] CT
-34 8.5 moveto 
1 -1 scale
(0.9) t 
GR
GR
GS
[1 0 0 1 123.2 126.00002] CT
0.149 GC
/Helvetica 24 F
GS
[1 0 0 1 0 0] CT
-47 8.5 moveto 
1 -1 scale
(0.95) t 
GR
GR
GS
[1 0 0 1 123.2 45] CT
0.149 GC
/Helvetica 24 F
GS
[1 0 0 1 0 0] CT
-14 8.5 moveto 
1 -1 scale
(1) t 
GR
GR
GS
[0 -1 1 0 73.2 287.99976] CT
0.149 GC
/Helvetica 26.4 F
GS
[1 0 0 1 0 0] CT
-153 -6 moveto 
1 -1 scale
(1 - False Non-Match Rate) t 
GR
GR
GS
[1 0 0 1 517.50049 38.39996] CT
/Helvetica-Bold 26.4 F
GS
[1 0 0 1 0 0] CT
-279.5 -6 moveto 
1 -1 scale
(Data acquired less than 24 hours after death) t 
GR
GR
GS
0 0 1 RC
1 LJ
2 LW
N
130.764 531.058 M
130.764 530.724 L
131.019 527.964 L
131.019 527.964 L
131.274 527.964 L
131.529 525.204 L
131.529 522.445 L
131.529 519.685 L
131.529 514.165 L
131.529 514.165 L
131.529 511.405 L
131.529 511.405 L
131.529 511.405 L
131.783 511.405 L
131.783 511.405 L
132.038 511.405 L
132.548 511.405 L
132.548 508.646 L
132.803 508.646 L
132.803 505.886 L
132.803 505.886 L
132.803 503.126 L
132.803 503.126 L
132.803 500.366 L
132.803 497.606 L
132.803 497.606 L
133.057 497.606 L
133.567 494.847 L
133.822 494.847 L
134.331 494.847 L
134.841 494.847 L
135.096 492.087 L
135.096 489.327 L
135.605 486.567 L
135.86 486.567 L
136.115 486.567 L
136.369 486.567 L
137.388 486.567 L
137.898 483.808 L
138.153 478.288 L
139.172 478.288 L
140.191 478.288 L
140.701 475.528 L
140.955 472.768 L
141.72 472.768 L
142.229 472.768 L
142.484 472.768 L
143.248 472.768 L
143.758 472.768 L
145.541 472.768 L
146.051 472.768 L
147.834 472.768 L
149.108 472.768 L
150.637 472.768 L
153.949 472.768 L
155.732 470.008 L
156.751 467.249 L
158.28 467.249 L
160.573 467.249 L
162.611 467.249 L
165.414 467.249 L
169.235 467.249 L
171.274 464.489 L
173.057 458.969 L
176.114 453.45 L
179.426 450.69 L
181.974 447.93 L
183.758 447.93 L
187.324 445.17 L
190.127 445.17 L
193.439 439.651 L
199.299 439.651 L
203.12 436.891 L
208.471 436.891 L
213.311 436.891 L
218.152 431.371 L
221.719 428.612 L
228.853 425.852 L
233.439 425.852 L
239.808 425.852 L
246.687 425.852 L
254.075 423.092 L
263.502 423.092 L
270.891 423.092 L
280.317 417.572 L
287.451 417.572 L
296.878 417.572 L
302.483 414.813 L
309.616 414.813 L
317.769 414.813 L
326.177 414.813 L
340.954 412.053 L
351.909 409.293 L
360.826 409.293 L
373.31 409.293 L
385.03 403.773 L
401.081 403.773 L
416.367 403.773 L
431.654 403.773 L
448.723 401.014 L
467.832 398.254 L
482.609 398.254 L
500.698 398.254 L
516.748 398.254 L
539.169 395.494 L
566.175 395.494 L
589.869 395.494 L
613.308 389.974 L
636.493 389.974 L
668.085 389.974 L
691.779 387.215 L
724.645 384.455 L
749.613 384.455 L
779.167 384.455 L
812.287 384.455 L
840.313 384.455 L
874.198 384.455 L
905.092 384.455 L
S
GR
GS
0 1 0 RC
1 LJ
2 LW
N
130 531.058 M
130 527.964 L
130 527.964 L
130 527.964 L
130 527.964 L
130 527.964 L
130 525.204 L
130 525.204 L
130 525.204 L
130 519.685 L
130 519.685 L
130 516.925 L
130 514.165 L
130 505.886 L
130 497.606 L
130 497.606 L
130 497.606 L
130 492.087 L
130 486.567 L
130 486.567 L
130 478.288 L
130 475.528 L
130 470.008 L
130 467.249 L
130 461.729 L
130 458.969 L
130 458.969 L
130 458.969 L
130 458.969 L
130 458.969 L
130 453.45 L
130 442.411 L
130 434.131 L
130 428.612 L
130 423.092 L
130 423.092 L
130 420.332 L
130 420.332 L
130 417.572 L
130 414.813 L
130 409.293 L
130 403.773 L
130 401.014 L
130 401.014 L
130 395.494 L
130 389.974 L
130 387.215 L
130 384.455 L
130 384.455 L
130 381.695 L
130 381.695 L
130 378.935 L
130 376.176 L
130 370.656 L
130 367.896 L
130 365.136 L
130 362.376 L
130 359.617 L
130 359.617 L
130 354.097 L
130 354.097 L
130 351.337 L
130 351.337 L
130 348.578 L
130 348.578 L
130 348.578 L
130 348.578 L
130 348.578 L
130 348.578 L
130 345.818 L
130 337.538 L
130 334.779 L
130 332.019 L
130 326.499 L
130 326.499 L
130 326.499 L
130 326.499 L
130 326.499 L
130 326.499 L
130 323.739 L
130 320.98 L
130 318.22 L
130 309.94 L
130 309.94 L
130 304.421 L
130 304.421 L
130 301.661 L
130 301.661 L
130 301.661 L
130 296.141 L
130 296.141 L
130 290.622 L
130 285.102 L
130 282.342 L
130 282.342 L
130 282.342 L
130 282.342 L
130 274.063 L
130 274.063 L
130 271.303 L
130 271.303 L
130 268.543 L
130 268.543 L
130 265.784 L
130 263.024 L
130 257.504 L
130 254.744 L
130 254.744 L
130 254.744 L
130 254.744 L
130 251.985 L
130 249.225 L
130 246.465 L
130 243.705 L
130 238.186 L
130 238.186 L
130 235.426 L
130 235.426 L
130 235.426 L
130 235.426 L
130 235.426 L
130 235.426 L
130 232.666 L
130 232.666 L
130 229.906 L
130 229.906 L
130 229.906 L
130 227.147 L
130 224.387 L
130 216.107 L
130 216.107 L
130 210.588 L
130.255 207.828 L
130.255 207.828 L
130.51 205.068 L
130.51 202.308 L
130.51 199.549 L
130.51 196.789 L
130.764 191.269 L
131.783 191.269 L
131.783 191.269 L
132.038 191.269 L
132.293 191.269 L
132.803 191.269 L
132.803 191.269 L
132.803 191.269 L
133.312 188.509 L
133.312 180.23 L
134.076 180.23 L
134.076 177.47 L
134.076 177.47 L
134.076 177.47 L
134.331 177.47 L
135.096 174.71 L
135.86 174.71 L
136.369 174.71 L
137.388 174.71 L
138.408 174.71 L
139.936 174.71 L
140.191 174.71 L
142.739 174.71 L
144.013 174.71 L
144.522 174.71 L
146.306 174.71 L
147.834 174.71 L
149.618 174.71 L
151.911 174.71 L
153.439 171.951 L
157.516 171.951 L
161.337 166.431 L
165.669 166.431 L
169.235 166.431 L
173.567 160.911 L
178.662 160.911 L
183.248 160.911 L
188.089 160.911 L
194.968 160.911 L
202.611 158.152 L
212.802 158.152 L
220.19 155.392 L
228.088 155.392 L
237.515 155.392 L
244.904 155.392 L
258.152 152.632 L
273.693 152.632 L
282.101 152.632 L
297.132 152.632 L
314.457 152.632 L
328.979 149.872 L
345.285 149.872 L
365.157 149.872 L
386.304 149.872 L
405.667 149.872 L
428.342 149.872 L
446.94 149.872 L
472.163 149.872 L
493.309 149.872 L
521.844 149.872 L
543.755 149.872 L
572.035 149.872 L
600.315 149.872 L
625.283 149.872 L
649.996 149.872 L
678.021 149.872 L
708.594 149.872 L
736.11 147.112 L
764.135 147.112 L
793.179 147.112 L
823.752 147.112 L
851.013 147.112 L
881.331 147.112 L
905.092 147.112 L
S
GR
GS
1 LJ
2 LW
N
130 531.058 M
130 530.724 L
130 525.204 L
130 522.445 L
130 511.405 L
130 508.646 L
130 508.646 L
130 503.126 L
130 497.606 L
130 497.606 L
130 494.847 L
130 492.087 L
130 483.808 L
130 481.048 L
130 478.288 L
130 472.768 L
130 472.768 L
130 461.729 L
130 458.969 L
130 456.21 L
130 453.45 L
130 450.69 L
130 445.17 L
130 442.411 L
130 436.891 L
130 436.891 L
130 436.891 L
130 431.371 L
130 428.612 L
130 420.332 L
130 417.572 L
130 414.813 L
130 412.053 L
130 409.293 L
130 409.293 L
130 403.773 L
130 398.254 L
130 398.254 L
130 395.494 L
130 395.494 L
130 389.974 L
130 387.215 L
130 384.455 L
130 376.176 L
130 376.176 L
130 370.656 L
130 370.656 L
130 370.656 L
130 370.656 L
130 367.896 L
130 367.896 L
130 367.896 L
130 367.896 L
130 365.136 L
130 362.376 L
130 362.376 L
130 362.376 L
130 359.617 L
130 356.857 L
130 354.097 L
130 351.337 L
130 348.578 L
130 348.578 L
130 343.058 L
130 340.298 L
130 334.779 L
130 334.779 L
130 332.019 L
130 326.499 L
130 320.98 L
130 320.98 L
130 320.98 L
130 318.22 L
130 315.46 L
130 312.7 L
130 309.94 L
130 309.94 L
130 304.421 L
130 304.421 L
130 298.901 L
130 298.901 L
130 296.141 L
130 296.141 L
130 293.382 L
130 285.102 L
130 285.102 L
130 279.583 L
130 279.583 L
130 274.063 L
130 271.303 L
130 268.543 L
130 268.543 L
130 268.543 L
130 268.543 L
130 268.543 L
130 263.024 L
130 260.264 L
130 260.264 L
130 260.264 L
130 260.264 L
130 257.504 L
130 257.504 L
130 254.744 L
130 254.744 L
130 251.985 L
130 249.225 L
130 243.705 L
130 240.945 L
130 238.186 L
130 238.186 L
130 235.426 L
130 229.906 L
130 229.906 L
130 227.147 L
130 224.387 L
130 224.387 L
130 221.627 L
130 221.627 L
130 221.627 L
130 221.627 L
130 221.627 L
130 218.867 L
130 218.867 L
130 218.867 L
130 216.107 L
130 210.588 L
130 207.828 L
130 205.068 L
130 199.549 L
130 199.549 L
130 199.549 L
130 194.029 L
130 191.269 L
130 188.509 L
130 188.509 L
130 188.509 L
130 185.75 L
130 182.99 L
130 182.99 L
130 180.23 L
130 180.23 L
130 180.23 L
130 180.23 L
130 180.23 L
130 180.23 L
130 174.71 L
130 174.71 L
130 171.951 L
130 171.951 L
130 171.951 L
130 169.191 L
130 169.191 L
130 163.671 L
130 163.671 L
130 160.911 L
130 160.911 L
130 158.152 L
130 155.392 L
130 155.392 L
130 152.632 L
130 152.632 L
130 149.872 L
130 147.112 L
130 147.112 L
130 147.112 L
130 141.593 L
130 138.833 L
130 136.073 L
130 136.073 L
130 133.313 L
130 133.313 L
130 133.313 L
130 130.554 L
130 127.794 L
130 125.034 L
130 125.034 L
130 125.034 L
130 122.274 L
130 122.274 L
130 113.995 L
130 113.995 L
130 113.995 L
130 111.235 L
130 108.475 L
130 102.956 L
130 100.196 L
130 100.196 L
130 100.196 L
130 97.436 L
130 97.436 L
130 94.676 L
130 94.676 L
130 94.676 L
130 91.917 L
130 91.917 L
130 91.917 L
130.255 91.917 L
130.255 91.917 L
130.255 91.917 L
130.764 91.917 L
130.764 91.917 L
130.764 91.917 L
130.764 91.917 L
131.019 91.917 L
131.019 91.917 L
131.019 89.157 L
131.274 89.157 L
131.274 89.157 L
131.529 89.157 L
131.529 89.157 L
131.783 89.157 L
131.783 89.157 L
132.293 89.157 L
132.293 89.157 L
132.293 86.397 L
132.548 86.397 L
133.312 86.397 L
133.312 86.397 L
133.312 86.397 L
133.567 86.397 L
134.076 86.397 L
134.331 86.397 L
134.586 86.397 L
134.841 86.397 L
135.86 86.397 L
137.134 86.397 L
137.898 86.397 L
139.427 86.397 L
140.191 83.637 L
141.465 80.877 L
141.72 80.877 L
142.994 78.118 L
144.777 78.118 L
147.07 75.358 L
149.618 75.358 L
150.892 72.598 L
151.656 72.598 L
154.713 72.598 L
156.242 72.598 L
158.535 72.598 L
161.083 72.598 L
163.63 72.598 L
164.904 72.598 L
168.216 72.598 L
171.274 72.598 L
174.331 72.598 L
177.898 67.078 L
181.21 64.319 L
184.522 64.319 L
189.872 64.319 L
193.439 58.799 L
198.534 58.799 L
204.649 58.799 L
208.216 58.799 L
214.331 58.799 L
219.426 58.799 L
227.324 56.039 L
235.986 56.039 L
243.63 56.039 L
249.744 56.039 L
259.426 56.039 L
264.266 56.039 L
273.948 56.039 L
284.648 56.039 L
297.642 56.039 L
309.871 56.039 L
324.648 56.039 L
331.782 53.279 L
344.011 53.279 L
358.788 53.279 L
368.979 53.279 L
388.597 53.279 L
405.412 53.279 L
417.131 53.279 L
430.38 53.279 L
447.704 50.52 L
462.481 50.52 L
479.551 50.52 L
501.971 50.52 L
525.411 50.52 L
531.016 50.52 L
556.748 47.76 L
582.226 47.76 L
607.194 47.76 L
631.397 45 L
658.913 45 L
671.906 45 L
706.301 45 L
739.167 45 L
769.995 45 L
804.899 45 L
836.236 45 L
859.421 45 L
897.382 45 L
905.092 45 L
S
GR
GS
1 0 0 RC
1 LJ
2 LW
N
130 531.058 M
130 530.724 L
130 527.964 L
130 525.204 L
130 525.204 L
130 522.445 L
130 516.925 L
130 511.405 L
130 500.366 L
130 494.847 L
130 494.847 L
130 492.087 L
130 481.048 L
130 478.288 L
130 464.489 L
130 464.489 L
130 464.489 L
130 456.21 L
130 453.45 L
130 450.69 L
130 447.93 L
130 445.17 L
130 439.651 L
130 439.651 L
130 431.371 L
130 431.371 L
130 428.612 L
130 428.612 L
130 428.612 L
130 428.612 L
130 425.852 L
130 420.332 L
130 417.572 L
130 417.572 L
130 417.572 L
130 414.813 L
130 414.813 L
130 412.053 L
130 409.293 L
130 406.533 L
130 403.773 L
130 403.773 L
130 398.254 L
130 395.494 L
130 395.494 L
130 392.734 L
130 392.734 L
130 392.734 L
130 392.734 L
130 384.455 L
130 381.695 L
130 376.176 L
130 373.416 L
130 373.416 L
130 370.656 L
130 367.896 L
130 359.617 L
130 359.617 L
130 359.617 L
130 359.617 L
130 356.857 L
130 351.337 L
130 343.058 L
130 340.298 L
130 337.538 L
130 337.538 L
130 332.019 L
130 332.019 L
130 332.019 L
130 329.259 L
130 329.259 L
130 326.499 L
130 320.98 L
130 312.7 L
130 307.181 L
130 304.421 L
130 301.661 L
130 298.901 L
130 293.382 L
130 290.622 L
130 285.102 L
130 282.342 L
130 282.342 L
130 282.342 L
130 279.583 L
130 279.583 L
130 279.583 L
130 274.063 L
130 268.543 L
130 260.264 L
130 257.504 L
130 251.985 L
130 249.225 L
130 249.225 L
130 249.225 L
130 243.705 L
130 243.705 L
130 243.705 L
130 243.705 L
130 243.705 L
130 243.705 L
130 238.186 L
130 238.186 L
130 235.426 L
130 235.426 L
130 232.666 L
130 232.666 L
130 232.666 L
130 232.666 L
130 229.906 L
130 229.906 L
130 229.906 L
130 229.906 L
130 229.906 L
130 229.906 L
130 224.387 L
130 221.627 L
130 221.627 L
130 221.627 L
130 213.348 L
130 210.588 L
130 207.828 L
130 207.828 L
130 207.828 L
130 205.068 L
130 205.068 L
130 205.068 L
130 205.068 L
130 202.308 L
130 202.308 L
130 199.549 L
130 199.549 L
130 199.549 L
130 196.789 L
130 194.029 L
130 194.029 L
130 185.75 L
130 185.75 L
130 185.75 L
130 185.75 L
130 185.75 L
130 182.99 L
130 180.23 L
130 177.47 L
130 177.47 L
130 174.71 L
130 174.71 L
130 174.71 L
130 171.951 L
130 166.431 L
130 160.911 L
130 160.911 L
130 158.152 L
130 155.392 L
130 152.632 L
130 149.872 L
130 149.872 L
130 144.353 L
130 144.353 L
130 144.353 L
130 144.353 L
130 144.353 L
130 144.353 L
130 144.353 L
130 144.353 L
130 144.353 L
130 141.593 L
130 141.593 L
130 138.833 L
130 133.313 L
130 133.313 L
130 130.554 L
130 130.554 L
130 125.034 L
130 125.034 L
130 122.274 L
130 122.274 L
130 122.274 L
130 116.755 L
130 116.755 L
130 113.995 L
130 113.995 L
130 113.995 L
130 111.235 L
130 111.235 L
130 111.235 L
130 108.475 L
130 108.475 L
130 108.475 L
130 105.715 L
130 105.715 L
130 102.956 L
130 102.956 L
130 102.956 L
130 102.956 L
130 100.196 L
130 97.436 L
130 97.436 L
130 97.436 L
130 97.436 L
130 97.436 L
130 97.436 L
130 94.676 L
130 94.676 L
130 94.676 L
130 94.676 L
130 94.676 L
130.255 94.676 L
130.255 91.917 L
130.255 91.917 L
130.255 91.917 L
130.255 91.917 L
130.255 91.917 L
130.255 91.917 L
130.255 91.917 L
130.255 91.917 L
130.51 91.917 L
130.51 89.157 L
130.51 86.397 L
130.51 83.637 L
130.51 80.877 L
130.51 80.877 L
130.51 80.877 L
130.51 80.877 L
130.51 80.877 L
130.51 80.877 L
130.51 80.877 L
130.51 80.877 L
130.51 78.118 L
130.51 78.118 L
131.019 78.118 L
131.274 78.118 L
131.529 78.118 L
132.038 78.118 L
132.038 78.118 L
132.293 75.358 L
132.548 75.358 L
132.548 72.598 L
132.548 72.598 L
132.548 72.598 L
132.803 72.598 L
132.803 72.598 L
133.312 69.838 L
133.567 69.838 L
133.822 69.838 L
133.822 69.838 L
134.841 67.078 L
134.841 67.078 L
134.841 67.078 L
134.841 67.078 L
135.35 67.078 L
135.605 67.078 L
136.115 67.078 L
136.369 67.078 L
137.134 67.078 L
137.388 67.078 L
137.898 67.078 L
138.153 64.319 L
138.662 64.319 L
139.681 64.319 L
141.465 64.319 L
142.484 64.319 L
143.503 64.319 L
144.777 64.319 L
147.579 64.319 L
149.363 64.319 L
150.637 64.319 L
152.165 64.319 L
153.439 64.319 L
155.732 61.559 L
158.79 61.559 L
160.318 61.559 L
163.376 61.559 L
166.942 61.559 L
169.235 61.559 L
171.783 61.559 L
175.605 58.799 L
177.388 58.799 L
180.191 58.799 L
182.738 58.799 L
186.815 58.799 L
188.853 58.799 L
193.184 58.799 L
197.006 56.039 L
203.12 56.039 L
207.961 56.039 L
215.859 56.039 L
217.897 56.039 L
224.776 56.039 L
229.872 56.039 L
239.044 56.039 L
246.942 56.039 L
254.075 56.039 L
260.7 50.52 L
273.948 50.52 L
284.139 50.52 L
293.82 50.52 L
305.285 50.52 L
313.438 50.52 L
321.846 50.52 L
336.113 50.52 L
348.852 50.52 L
362.864 50.52 L
376.367 50.52 L
397.004 50.52 L
410.252 50.52 L
427.068 50.52 L
444.902 50.52 L
464.01 50.52 L
484.647 50.52 L
512.672 50.52 L
528.978 50.52 L
554.2 50.52 L
582.99 50.52 L
611.525 50.52 L
645.155 50.52 L
676.492 50.52 L
712.161 50.52 L
731.014 50.52 L
762.097 50.52 L
801.077 50.52 L
832.924 50.52 L
876.236 50.52 L
905.092 50.52 L
S
GR
GS
[10 6] 0 setdash
2 LJ
0.5 LW
N
905.092 126.01 M
130 45 L
S
GR
%%Trailer
%%Pages: 1
%%EOF
