%!PS-Adobe-3.0 EPSF-3.0
%%Creator: (MATLAB, The Mathworks, Inc. Version 9.5.0.1049112 \(R2018b\) Update 3. Operating System: Mac OS X)
%%Title: ./ROCs_postmortem_new_120.eps
%%CreationDate: 2019-03-24T18:07:46
%%Pages: (atend)
%%BoundingBox:    61     5   907   587
%%LanguageLevel: 3
%%EndComments
%%BeginProlog
%%BeginResource: procset (Apache XML Graphics Std ProcSet) 1.2 0
%%Version: 1.2 0
%%Copyright: (Copyright 2001-2003,2010 The Apache Software Foundation. License terms: http://www.apache.org/licenses/LICENSE-2.0)
/bd{bind def}bind def
/ld{load def}bd
/GR/grestore ld
/GS/gsave ld
/RM/rmoveto ld
/C/curveto ld
/t/show ld
/L/lineto ld
/ML/setmiterlimit ld
/CT/concat ld
/f/fill ld
/N/newpath ld
/S/stroke ld
/CC/setcmykcolor ld
/A/ashow ld
/cp/closepath ld
/RC/setrgbcolor ld
/LJ/setlinejoin ld
/GC/setgray ld
/LW/setlinewidth ld
/M/moveto ld
/re {4 2 roll M
1 index 0 rlineto
0 exch rlineto
neg 0 rlineto
cp } bd
/_ctm matrix def
/_tm matrix def
/BT { _ctm currentmatrix pop matrix _tm copy pop 0 0 moveto } bd
/ET { _ctm setmatrix } bd
/iTm { _ctm setmatrix _tm concat } bd
/Tm { _tm astore pop iTm 0 0 moveto } bd
/ux 0.0 def
/uy 0.0 def
/F {
  /Tp exch def
  /Tf exch def
  Tf findfont Tp scalefont setfont
  /cf Tf def  /cs Tp def
} bd
/ULS {currentpoint /uy exch def /ux exch def} bd
/ULE {
  /Tcx currentpoint pop def
  gsave
  newpath
  cf findfont cs scalefont dup
  /FontMatrix get 0 get /Ts exch def /FontInfo get dup
  /UnderlinePosition get Ts mul /To exch def
  /UnderlineThickness get Ts mul /Tt exch def
  ux uy To add moveto  Tcx uy To add lineto
  Tt setlinewidth stroke
  grestore
} bd
/OLE {
  /Tcx currentpoint pop def
  gsave
  newpath
  cf findfont cs scalefont dup
  /FontMatrix get 0 get /Ts exch def /FontInfo get dup
  /UnderlinePosition get Ts mul /To exch def
  /UnderlineThickness get Ts mul /Tt exch def
  ux uy To add cs add moveto Tcx uy To add cs add lineto
  Tt setlinewidth stroke
  grestore
} bd
/SOE {
  /Tcx currentpoint pop def
  gsave
  newpath
  cf findfont cs scalefont dup
  /FontMatrix get 0 get /Ts exch def /FontInfo get dup
  /UnderlinePosition get Ts mul /To exch def
  /UnderlineThickness get Ts mul /Tt exch def
  ux uy To add cs 10 mul 26 idiv add moveto Tcx uy To add cs 10 mul 26 idiv add lineto
  Tt setlinewidth stroke
  grestore
} bd
/QT {
/Y22 exch store
/X22 exch store
/Y21 exch store
/X21 exch store
currentpoint
/Y21 load 2 mul add 3 div exch
/X21 load 2 mul add 3 div exch
/X21 load 2 mul /X22 load add 3 div
/Y21 load 2 mul /Y22 load add 3 div
/X22 load /Y22 load curveto
} bd
/SSPD {
dup length /d exch dict def
{
/v exch def
/k exch def
currentpagedevice k known {
/cpdv currentpagedevice k get def
v cpdv ne {
/upd false def
/nullv v type /nulltype eq def
/nullcpdv cpdv type /nulltype eq def
nullv nullcpdv or
{
/upd true def
} {
/sametype v type cpdv type eq def
sametype {
v type /arraytype eq {
/vlen v length def
/cpdvlen cpdv length def
vlen cpdvlen eq {
0 1 vlen 1 sub {
/i exch def
/obj v i get def
/cpdobj cpdv i get def
obj cpdobj ne {
/upd true def
exit
} if
} for
} {
/upd true def
} ifelse
} {
v type /dicttype eq {
v {
/dv exch def
/dk exch def
/cpddv cpdv dk get def
dv cpddv ne {
/upd true def
exit
} if
} forall
} {
/upd true def
} ifelse
} ifelse
} if
} ifelse
upd true eq {
d k v put
} if
} if
} if
} forall
d length 0 gt {
d setpagedevice
} if
} bd
/RE { % /NewFontName [NewEncodingArray] /FontName RE -
  findfont dup length dict begin
  {
    1 index /FID ne
    {def} {pop pop} ifelse
  } forall
  /Encoding exch def
  /FontName 1 index def
  currentdict definefont pop
  end
} bind def
%%EndResource
%%BeginResource: procset (Apache XML Graphics EPS ProcSet) 1.0 0
%%Version: 1.0 0
%%Copyright: (Copyright 2002-2003 The Apache Software Foundation. License terms: http://www.apache.org/licenses/LICENSE-2.0)
/BeginEPSF { %def
/b4_Inc_state save def         % Save state for cleanup
/dict_count countdictstack def % Count objects on dict stack
/op_count count 1 sub def      % Count objects on operand stack
userdict begin                 % Push userdict on dict stack
/showpage { } def              % Redefine showpage, { } = null proc
0 setgray 0 setlinecap         % Prepare graphics state
1 setlinewidth 0 setlinejoin
10 setmiterlimit [ ] 0 setdash newpath
/languagelevel where           % If level not equal to 1 then
{pop languagelevel             % set strokeadjust and
1 ne                           % overprint to their defaults.
{false setstrokeadjust false setoverprint
} if
} if
} bd
/EndEPSF { %def
count op_count sub {pop} repeat            % Clean up stacks
countdictstack dict_count sub {end} repeat
b4_Inc_state restore
} bd
%%EndResource
%FOPBeginFontDict
%%IncludeResource: font Courier-Oblique
%%IncludeResource: font Courier-BoldOblique
%%IncludeResource: font Courier-Bold
%%IncludeResource: font ZapfDingbats
%%IncludeResource: font Symbol
%%IncludeResource: font Helvetica
%%IncludeResource: font Helvetica-Oblique
%%IncludeResource: font Helvetica-Bold
%%IncludeResource: font Helvetica-BoldOblique
%%IncludeResource: font Times-Roman
%%IncludeResource: font Times-Italic
%%IncludeResource: font Times-Bold
%%IncludeResource: font Times-BoldItalic
%%IncludeResource: font Courier
%FOPEndFontDict
%%BeginResource: encoding WinAnsiEncoding
/WinAnsiEncoding [
/.notdef /.notdef /.notdef /.notdef /.notdef
/.notdef /.notdef /.notdef /.notdef /.notdef
/.notdef /.notdef /.notdef /.notdef /.notdef
/.notdef /.notdef /.notdef /.notdef /.notdef
/.notdef /.notdef /.notdef /.notdef /.notdef
/.notdef /.notdef /.notdef /.notdef /.notdef
/.notdef /.notdef /space /exclam /quotedbl
/numbersign /dollar /percent /ampersand /quotesingle
/parenleft /parenright /asterisk /plus /comma
/hyphen /period /slash /zero /one
/two /three /four /five /six
/seven /eight /nine /colon /semicolon
/less /equal /greater /question /at
/A /B /C /D /E
/F /G /H /I /J
/K /L /M /N /O
/P /Q /R /S /T
/U /V /W /X /Y
/Z /bracketleft /backslash /bracketright /asciicircum
/underscore /quoteleft /a /b /c
/d /e /f /g /h
/i /j /k /l /m
/n /o /p /q /r
/s /t /u /v /w
/x /y /z /braceleft /bar
/braceright /asciitilde /bullet /Euro /bullet
/quotesinglbase /florin /quotedblbase /ellipsis /dagger
/daggerdbl /circumflex /perthousand /Scaron /guilsinglleft
/OE /bullet /Zcaron /bullet /bullet
/quoteleft /quoteright /quotedblleft /quotedblright /bullet
/endash /emdash /asciitilde /trademark /scaron
/guilsinglright /oe /bullet /zcaron /Ydieresis
/space /exclamdown /cent /sterling /currency
/yen /brokenbar /section /dieresis /copyright
/ordfeminine /guillemotleft /logicalnot /sfthyphen /registered
/macron /degree /plusminus /twosuperior /threesuperior
/acute /mu /paragraph /middot /cedilla
/onesuperior /ordmasculine /guillemotright /onequarter /onehalf
/threequarters /questiondown /Agrave /Aacute /Acircumflex
/Atilde /Adieresis /Aring /AE /Ccedilla
/Egrave /Eacute /Ecircumflex /Edieresis /Igrave
/Iacute /Icircumflex /Idieresis /Eth /Ntilde
/Ograve /Oacute /Ocircumflex /Otilde /Odieresis
/multiply /Oslash /Ugrave /Uacute /Ucircumflex
/Udieresis /Yacute /Thorn /germandbls /agrave
/aacute /acircumflex /atilde /adieresis /aring
/ae /ccedilla /egrave /eacute /ecircumflex
/edieresis /igrave /iacute /icircumflex /idieresis
/eth /ntilde /ograve /oacute /ocircumflex
/otilde /odieresis /divide /oslash /ugrave
/uacute /ucircumflex /udieresis /yacute /thorn
/ydieresis
] def
%%EndResource
%FOPBeginFontReencode
/Courier-Oblique findfont
dup length dict begin
  {1 index /FID ne {def} {pop pop} ifelse} forall
  /Encoding WinAnsiEncoding def
  currentdict
end
/Courier-Oblique exch definefont pop
/Courier-BoldOblique findfont
dup length dict begin
  {1 index /FID ne {def} {pop pop} ifelse} forall
  /Encoding WinAnsiEncoding def
  currentdict
end
/Courier-BoldOblique exch definefont pop
/Courier-Bold findfont
dup length dict begin
  {1 index /FID ne {def} {pop pop} ifelse} forall
  /Encoding WinAnsiEncoding def
  currentdict
end
/Courier-Bold exch definefont pop
/Helvetica findfont
dup length dict begin
  {1 index /FID ne {def} {pop pop} ifelse} forall
  /Encoding WinAnsiEncoding def
  currentdict
end
/Helvetica exch definefont pop
/Helvetica-Oblique findfont
dup length dict begin
  {1 index /FID ne {def} {pop pop} ifelse} forall
  /Encoding WinAnsiEncoding def
  currentdict
end
/Helvetica-Oblique exch definefont pop
/Helvetica-Bold findfont
dup length dict begin
  {1 index /FID ne {def} {pop pop} ifelse} forall
  /Encoding WinAnsiEncoding def
  currentdict
end
/Helvetica-Bold exch definefont pop
/Helvetica-BoldOblique findfont
dup length dict begin
  {1 index /FID ne {def} {pop pop} ifelse} forall
  /Encoding WinAnsiEncoding def
  currentdict
end
/Helvetica-BoldOblique exch definefont pop
/Times-Roman findfont
dup length dict begin
  {1 index /FID ne {def} {pop pop} ifelse} forall
  /Encoding WinAnsiEncoding def
  currentdict
end
/Times-Roman exch definefont pop
/Times-Italic findfont
dup length dict begin
  {1 index /FID ne {def} {pop pop} ifelse} forall
  /Encoding WinAnsiEncoding def
  currentdict
end
/Times-Italic exch definefont pop
/Times-Bold findfont
dup length dict begin
  {1 index /FID ne {def} {pop pop} ifelse} forall
  /Encoding WinAnsiEncoding def
  currentdict
end
/Times-Bold exch definefont pop
/Times-BoldItalic findfont
dup length dict begin
  {1 index /FID ne {def} {pop pop} ifelse} forall
  /Encoding WinAnsiEncoding def
  currentdict
end
/Times-BoldItalic exch definefont pop
/Courier findfont
dup length dict begin
  {1 index /FID ne {def} {pop pop} ifelse} forall
  /Encoding WinAnsiEncoding def
  currentdict
end
/Courier exch definefont pop
%FOPEndFontReencode
%%EndProlog
%%Page: 1 1
%%PageBoundingBox: 0 0 1000 600
%%BeginPageSetup
[1 0 0 -1 0 600] CT
%%EndPageSetup
GS
1 GC
N
0 0 1000 600 re
f
GR
GS
1 GC
N
0 0 1000 600 re
f
GR
GS
1 GC
N
130 531 M
905 531 L
905 45 L
130 45 L
cp
f
GR
GS
0.873 GC
1 LJ
0.5 LW
N
130 531 M
130 45 L
S
GR
GS
0.873 GC
1 LJ
0.5 LW
N
285 531 M
285 45 L
S
GR
GS
0.873 GC
1 LJ
0.5 LW
N
440 531 M
440 45 L
S
GR
GS
0.873 GC
1 LJ
0.5 LW
N
595 531 M
595 45 L
S
GR
GS
0.873 GC
1 LJ
0.5 LW
N
750 531 M
750 45 L
S
GR
GS
0.873 GC
1 LJ
0.5 LW
N
905 531 M
905 45 L
S
GR
GS
0.873 GC
1 LJ
0.5 LW
N
905 531 M
130 531 L
S
GR
GS
0.873 GC
1 LJ
0.5 LW
N
905 433.8 M
130 433.8 L
S
GR
GS
0.873 GC
1 LJ
0.5 LW
N
905 336.6 M
130 336.6 L
S
GR
GS
0.873 GC
1 LJ
0.5 LW
N
905 239.4 M
130 239.4 L
S
GR
GS
0.873 GC
1 LJ
0.5 LW
N
905 142.2 M
130 142.2 L
S
GR
GS
0.873 GC
1 LJ
0.5 LW
N
905 45 M
130 45 L
S
GR
GS
0.149 GC
2 setlinecap
1 LJ
0.5 LW
N
130 531 M
905 531 L
S
GR
GS
0.149 GC
2 setlinecap
1 LJ
0.5 LW
N
130 45 M
905 45 L
S
GR
GS
0.149 GC
2 setlinecap
1 LJ
0.5 LW
N
130 531 M
130 523.25 L
S
GR
GS
0.149 GC
2 setlinecap
1 LJ
0.5 LW
N
285 531 M
285 523.25 L
S
GR
GS
0.149 GC
2 setlinecap
1 LJ
0.5 LW
N
440 531 M
440 523.25 L
S
GR
GS
0.149 GC
2 setlinecap
1 LJ
0.5 LW
N
595 531 M
595 523.25 L
S
GR
GS
0.149 GC
2 setlinecap
1 LJ
0.5 LW
N
750 531 M
750 523.25 L
S
GR
GS
0.149 GC
2 setlinecap
1 LJ
0.5 LW
N
905 531 M
905 523.25 L
S
GR
GS
0.149 GC
2 setlinecap
1 LJ
0.5 LW
N
130 45 M
130 52.75 L
S
GR
GS
0.149 GC
2 setlinecap
1 LJ
0.5 LW
N
285 45 M
285 52.75 L
S
GR
GS
0.149 GC
2 setlinecap
1 LJ
0.5 LW
N
440 45 M
440 52.75 L
S
GR
GS
0.149 GC
2 setlinecap
1 LJ
0.5 LW
N
595 45 M
595 52.75 L
S
GR
GS
0.149 GC
2 setlinecap
1 LJ
0.5 LW
N
750 45 M
750 52.75 L
S
GR
GS
0.149 GC
2 setlinecap
1 LJ
0.5 LW
N
905 45 M
905 52.75 L
S
GR
GS
[1 0 0 1 130 537.79999] CT
0.149 GC
/Helvetica 24 F
GS
[1 0 0 1 0 0] CT
-7 23 moveto 
1 -1 scale
(0) t 
GR
GR
GS
[1 0 0 1 285 537.79999] CT
0.149 GC
/Helvetica 24 F
GS
[1 0 0 1 0 0] CT
-17 23 moveto 
1 -1 scale
(0.2) t 
GR
GR
GS
[1 0 0 1 440 537.79999] CT
0.149 GC
/Helvetica 24 F
GS
[1 0 0 1 0 0] CT
-17 23 moveto 
1 -1 scale
(0.4) t 
GR
GR
GS
[1 0 0 1 595 537.79999] CT
0.149 GC
/Helvetica 24 F
GS
[1 0 0 1 0 0] CT
-17 23 moveto 
1 -1 scale
(0.6) t 
GR
GR
GS
[1 0 0 1 750 537.79999] CT
0.149 GC
/Helvetica 24 F
GS
[1 0 0 1 0 0] CT
-17 23 moveto 
1 -1 scale
(0.8) t 
GR
GR
GS
[1 0 0 1 905 537.79999] CT
0.149 GC
/Helvetica 24 F
GS
[1 0 0 1 0 0] CT
-7 23 moveto 
1 -1 scale
(1) t 
GR
GR
GS
[1 0 0 1 517.50037 567.79999] CT
0.149 GC
/Helvetica 26.4 F
GS
[1 0 0 1 0 0] CT
-103.5 26 moveto 
1 -1 scale
(False Match Rate) t 
GR
GR
GS
0.149 GC
2 setlinecap
1 LJ
0.5 LW
N
130 531 M
130 45 L
S
GR
GS
0.149 GC
2 setlinecap
1 LJ
0.5 LW
N
905 531 M
905 45 L
S
GR
GS
0.149 GC
2 setlinecap
1 LJ
0.5 LW
N
130 531 M
137.75 531 L
S
GR
GS
0.149 GC
2 setlinecap
1 LJ
0.5 LW
N
130 433.8 M
137.75 433.8 L
S
GR
GS
0.149 GC
2 setlinecap
1 LJ
0.5 LW
N
130 336.6 M
137.75 336.6 L
S
GR
GS
0.149 GC
2 setlinecap
1 LJ
0.5 LW
N
130 239.4 M
137.75 239.4 L
S
GR
GS
0.149 GC
2 setlinecap
1 LJ
0.5 LW
N
130 142.2 M
137.75 142.2 L
S
GR
GS
0.149 GC
2 setlinecap
1 LJ
0.5 LW
N
130 45 M
137.75 45 L
S
GR
GS
0.149 GC
2 setlinecap
1 LJ
0.5 LW
N
905 531 M
897.25 531 L
S
GR
GS
0.149 GC
2 setlinecap
1 LJ
0.5 LW
N
905 433.8 M
897.25 433.8 L
S
GR
GS
0.149 GC
2 setlinecap
1 LJ
0.5 LW
N
905 336.6 M
897.25 336.6 L
S
GR
GS
0.149 GC
2 setlinecap
1 LJ
0.5 LW
N
905 239.4 M
897.25 239.4 L
S
GR
GS
0.149 GC
2 setlinecap
1 LJ
0.5 LW
N
905 142.2 M
897.25 142.2 L
S
GR
GS
0.149 GC
2 setlinecap
1 LJ
0.5 LW
N
905 45 M
897.25 45 L
S
GR
GS
[1 0 0 1 123.2 531] CT
0.149 GC
/Helvetica 24 F
GS
[1 0 0 1 0 0] CT
-14 8.5 moveto 
1 -1 scale
(0) t 
GR
GR
GS
[1 0 0 1 123.2 433.79999] CT
0.149 GC
/Helvetica 24 F
GS
[1 0 0 1 0 0] CT
-34 8.5 moveto 
1 -1 scale
(0.2) t 
GR
GR
GS
[1 0 0 1 123.2 336.60001] CT
0.149 GC
/Helvetica 24 F
GS
[1 0 0 1 0 0] CT
-34 8.5 moveto 
1 -1 scale
(0.4) t 
GR
GR
GS
[1 0 0 1 123.2 239.39999] CT
0.149 GC
/Helvetica 24 F
GS
[1 0 0 1 0 0] CT
-34 8.5 moveto 
1 -1 scale
(0.6) t 
GR
GR
GS
[1 0 0 1 123.2 142.2] CT
0.149 GC
/Helvetica 24 F
GS
[1 0 0 1 0 0] CT
-34 8.5 moveto 
1 -1 scale
(0.8) t 
GR
GR
GS
[1 0 0 1 123.2 45] CT
0.149 GC
/Helvetica 24 F
GS
[1 0 0 1 0 0] CT
-14 8.5 moveto 
1 -1 scale
(1) t 
GR
GR
GS
[0 -1 1 0 86.2 287.99976] CT
0.149 GC
/Helvetica 26.4 F
GS
[1 0 0 1 0 0] CT
-153 -6 moveto 
1 -1 scale
(1 - False Non-Match Rate) t 
GR
GR
GS
[1 0 0 1 517.50049 38.40002] CT
/Helvetica-Bold 26.4 F
GS
[1 0 0 1 0 0] CT
-287 -6 moveto 
1 -1 scale
(Data acquired less than 120 hours after death) t 
GR
GR
GS
0 0 1 RC
1 LJ
2 LW
N
130.003 530.866 M
130.003 530.866 L
130.003 530.866 L
130.003 530.866 L
130.003 530.866 L
130.003 530.866 L
130.003 530.866 L
130.003 530.866 L
130.003 530.866 L
130.003 530.866 L
130.003 530.866 L
130.003 530.866 L
130.003 530.866 L
130.003 530.866 L
130.003 530.866 L
130.003 530.866 L
130.003 530.866 L
130.003 530.866 L
130.003 530.866 L
130.003 530.866 L
130.003 530.866 L
130.003 530.866 L
130.003 530.866 L
130.003 530.866 L
130.003 530.866 L
130.003 530.866 L
130.003 530.866 L
130.003 530.866 L
130.003 530.866 L
130.003 530.866 L
130.003 530.866 L
130.003 530.866 L
130.003 530.866 L
130.003 530.866 L
130.003 530.866 L
130.003 530.866 L
130.003 530.866 L
130.003 530.866 L
130.003 530.866 L
130.003 530.866 L
130.003 530.866 L
130.003 530.866 L
130.003 530.866 L
130.003 530.866 L
130.003 530.866 L
130.003 530.866 L
130.003 530.866 L
130.003 530.866 L
130.003 530.866 L
130.003 530.866 L
130.003 530.866 L
130.003 530.866 L
130.003 530.866 L
130.003 530.866 L
130.003 530.866 L
130.003 530.866 L
130.003 530.866 L
130.003 530.866 L
130.003 530.866 L
130.003 530.866 L
130.003 530.866 L
130.003 530.866 L
130.003 530.866 L
130.003 530.866 L
130.003 530.866 L
130.003 530.866 L
130.003 530.866 L
130.003 530.866 L
130.003 530.866 L
130.003 530.866 L
130.003 530.866 L
130.003 530.866 L
130.005 530.866 L
130.005 530.866 L
130.005 530.866 L
130.005 530.866 L
130.005 530.866 L
130.005 530.866 L
130.005 530.866 L
130.005 530.866 L
130.005 530.866 L
130.005 530.866 L
130.005 530.866 L
130.005 530.866 L
130.005 530.866 L
130.005 530.866 L
130.005 530.866 L
130.005 530.866 L
130.005 530.866 L
130.005 530.866 L
130.005 530.866 L
130.005 530.866 L
130.005 530.866 L
130.005 530.866 L
130.005 530.866 L
130.005 530.866 L
130.005 530.866 L
130.005 530.866 L
130.005 530.866 L
130.005 530.866 L
130.008 530.866 L
130.008 530.866 L
130.008 530.866 L
130.008 530.866 L
130.008 530.866 L
130.008 530.866 L
130.008 530.866 L
130.008 530.866 L
130.011 530.866 L
130.011 530.866 L
130.011 530.866 L
130.011 530.866 L
130.013 530.866 L
130.013 530.866 L
130.013 530.732 L
130.013 530.732 L
130.013 530.597 L
130.013 530.597 L
130.013 530.597 L
130.013 530.463 L
130.016 530.463 L
130.016 530.463 L
130.016 530.463 L
130.016 530.329 L
130.016 530.195 L
130.016 530.195 L
130.016 530.061 L
130.016 529.524 L
130.016 529.39 L
130.016 529.121 L
130.016 529.121 L
130.016 529.121 L
130.016 529.121 L
130.016 528.719 L
130.016 528.585 L
130.016 528.182 L
130.016 528.048 L
130.016 528.048 L
130.016 527.914 L
130.016 527.377 L
130.016 526.84 L
130.016 526.706 L
130.016 526.169 L
130.027 525.767 L
130.027 525.364 L
130.027 525.23 L
130.027 524.962 L
130.027 524.694 L
130.027 524.425 L
130.027 524.157 L
130.027 523.754 L
130.027 523.083 L
130.029 522.412 L
130.029 521.876 L
130.029 521.205 L
130.034 520.131 L
130.034 519.326 L
130.034 518.655 L
130.034 518.387 L
130.034 518.119 L
130.034 518.119 L
130.034 517.582 L
130.034 517.179 L
130.034 516.106 L
130.034 515.838 L
130.034 514.63 L
130.034 514.227 L
130.058 513.825 L
130.058 513.422 L
130.058 512.483 L
130.058 512.483 L
130.058 512.215 L
130.058 511.678 L
130.058 510.873 L
130.058 510.47 L
130.058 509.8 L
130.058 508.726 L
130.058 508.055 L
130.058 507.653 L
130.069 506.848 L
130.069 505.774 L
130.069 505.64 L
130.069 505.237 L
130.069 504.567 L
130.069 504.164 L
130.069 503.091 L
130.069 502.822 L
130.069 502.822 L
130.069 501.615 L
130.069 501.078 L
130.069 500.139 L
130.074 498.797 L
130.074 498.797 L
130.079 498.663 L
130.079 497.321 L
130.082 496.65 L
130.082 495.442 L
130.082 494.637 L
130.082 493.564 L
130.082 492.625 L
130.082 492.088 L
130.082 490.88 L
130.082 490.343 L
130.085 490.075 L
130.085 489.404 L
130.085 487.928 L
130.093 487.392 L
130.093 486.452 L
130.093 485.245 L
130.101 484.44 L
130.101 483.903 L
130.101 482.561 L
130.101 481.353 L
130.103 480.682 L
130.103 480.146 L
130.13 479.475 L
130.13 478.267 L
130.133 477.194 L
130.135 476.389 L
130.135 475.718 L
130.135 474.779 L
130.135 474.108 L
130.135 472.632 L
130.143 472.095 L
130.143 471.692 L
130.143 470.619 L
130.143 469.814 L
130.148 469.411 L
130.154 468.338 L
130.154 468.07 L
130.159 467.533 L
130.162 466.996 L
130.164 465.789 L
130.164 465.118 L
130.17 464.044 L
130.17 463.105 L
130.17 462.031 L
130.175 461.092 L
130.175 460.019 L
130.199 459.482 L
130.199 458.677 L
130.207 457.872 L
130.207 456.798 L
130.207 456.53 L
130.209 454.92 L
130.209 454.249 L
130.212 453.176 L
130.212 452.639 L
130.212 452.102 L
130.212 451.565 L
130.257 450.492 L
130.257 449.553 L
130.257 449.016 L
130.257 448.345 L
130.257 447.272 L
130.26 446.869 L
130.26 446.332 L
130.26 446.064 L
130.262 444.991 L
130.262 444.186 L
130.27 443.38 L
130.273 442.978 L
130.323 442.039 L
130.323 441.099 L
130.337 440.563 L
130.339 440.16 L
130.339 439.087 L
130.345 438.55 L
130.345 438.013 L
130.347 437.342 L
130.36 436.537 L
130.366 436.135 L
130.366 435.598 L
130.368 434.793 L
130.4 433.854 L
130.4 433.451 L
130.4 433.183 L
130.4 432.512 L
130.411 431.707 L
130.411 431.304 L
130.411 430.768 L
130.411 429.828 L
130.411 428.755 L
130.411 427.95 L
130.416 427.279 L
130.419 427.01 L
130.477 426.071 L
130.477 425.266 L
130.49 424.595 L
130.496 423.79 L
130.496 423.119 L
130.496 422.583 L
130.506 421.643 L
130.506 421.375 L
130.506 420.57 L
130.519 419.899 L
130.519 419.362 L
130.551 418.557 L
130.62 417.484 L
130.62 417.081 L
130.633 415.739 L
130.633 415.203 L
130.633 414.398 L
130.636 413.727 L
130.657 412.787 L
130.657 411.177 L
130.7 409.97 L
130.7 409.567 L
130.716 408.628 L
130.716 407.689 L
130.779 406.481 L
130.779 405.81 L
130.779 404.602 L
130.784 403.797 L
130.787 402.456 L
130.84 401.248 L
130.84 399.772 L
130.848 398.296 L
130.848 397.223 L
130.853 395.612 L
130.859 394.539 L
130.872 393.465 L
130.935 392.392 L
130.943 391.855 L
130.951 390.648 L
130.97 389.44 L
130.97 388.098 L
130.973 387.159 L
130.973 385.817 L
130.975 384.61 L
130.975 382.999 L
130.975 381.658 L
130.978 380.584 L
130.978 379.377 L
131.177 378.303 L
131.177 377.096 L
131.182 375.754 L
131.185 374.814 L
131.185 373.607 L
131.185 371.863 L
131.185 369.984 L
131.187 368.642 L
131.19 366.764 L
131.24 365.69 L
131.267 364.348 L
131.28 362.47 L
131.373 360.457 L
131.397 359.384 L
131.407 356.7 L
131.42 355.224 L
131.434 352.943 L
131.436 351.467 L
131.526 349.857 L
131.548 347.442 L
131.55 344.892 L
131.572 342.88 L
131.582 341.135 L
131.595 339.123 L
131.678 336.707 L
131.696 335.231 L
131.696 332.682 L
131.707 330.535 L
131.799 328.925 L
131.821 326.241 L
131.839 324.765 L
131.863 323.289 L
131.882 321.142 L
131.924 318.593 L
131.94 315.775 L
131.956 313.763 L
132.067 312.018 L
132.16 310.676 L
132.202 308.932 L
132.255 307.59 L
132.29 305.041 L
132.356 303.297 L
132.393 301.284 L
132.449 298.6 L
132.51 296.722 L
132.597 295.38 L
132.706 292.965 L
132.857 291.22 L
132.923 289.61 L
133.032 287.866 L
133.156 284.646 L
133.278 283.438 L
133.44 281.962 L
133.604 279.949 L
133.758 277.131 L
134.007 275.253 L
134.248 273.777 L
134.431 272.301 L
134.648 269.886 L
135.035 268.276 L
135.316 266.263 L
135.594 264.653 L
135.939 262.372 L
136.236 261.298 L
136.723 259.42 L
137.206 256.065 L
137.68 253.382 L
138.093 251.503 L
138.626 249.625 L
139.286 247.612 L
139.887 245.331 L
140.64 241.842 L
141.366 239.427 L
142.283 237.817 L
143.171 235.401 L
144.17 233.523 L
145.161 231.779 L
146.266 228.558 L
147.485 226.814 L
148.871 225.338 L
150.31 224.667 L
151.9 223.862 L
153.633 221.447 L
155.438 219.702 L
157.519 217.421 L
159.453 214.201 L
161.645 212.725 L
163.9 211.115 L
166.404 209.639 L
168.988 208.297 L
171.712 206.553 L
174.763 204.54 L
177.884 202.796 L
181.38 200.783 L
185.066 198.636 L
189.01 197.16 L
193.107 195.953 L
197.5 194.879 L
202.027 193.135 L
206.638 191.659 L
211.702 190.585 L
216.944 189.243 L
222.536 188.17 L
228.432 186.962 L
234.562 185.218 L
240.813 184.01 L
247.539 182.266 L
254.639 179.851 L
261.675 178.509 L
269.339 176.631 L
277.578 174.484 L
285.454 172.605 L
293.855 170.727 L
302.547 168.446 L
311.486 166.701 L
320.441 165.225 L
330.339 163.481 L
339.683 162.542 L
349.491 161.334 L
359.527 159.724 L
370.183 158.382 L
380.579 157.174 L
391.304 155.699 L
402.175 154.088 L
413.61 152.344 L
424.417 151.002 L
435.497 148.855 L
446.964 147.648 L
458.378 145.501 L
470.298 143.488 L
481.365 141.744 L
492.887 140.67 L
504.471 138.926 L
515.742 138.121 L
526.832 137.584 L
537.894 135.035 L
549.21 132.888 L
560.136 130.741 L
571.314 129.131 L
581.814 127.923 L
592.804 125.911 L
602.943 124.032 L
613.352 122.69 L
622.665 120.812 L
632.722 119.738 L
641.817 118.799 L
650.806 118.128 L
659.22 117.055 L
667.854 116.786 L
675.953 116.115 L
683.967 114.103 L
691.71 113.834 L
698.733 112.493 L
705.78 111.956 L
712.246 110.882 L
718.858 110.48 L
724.823 109.809 L
730.669 108.601 L
736.187 107.796 L
741.333 106.32 L
746.458 105.784 L
751.345 104.978 L
755.763 104.844 L
759.701 104.442 L
763.748 104.039 L
766.938 103.771 L
862.132 53.588 L
864.112 53.319 L
866.727 52.782 L
869.653 52.38 L
872.301 51.709 L
874.741 51.441 L
877.121 51.441 L
879.217 51.306 L
881.207 50.77 L
882.901 50.636 L
884.703 50.501 L
886.176 50.233 L
887.602 49.562 L
888.914 49.294 L
890.173 49.16 L
891.339 48.891 L
892.343 48.757 L
893.448 48.489 L
894.323 48.22 L
895.06 47.952 L
895.756 47.549 L
896.453 47.281 L
897.039 47.147 L
897.672 46.879 L
898.253 46.744 L
898.836 46.61 L
899.284 46.61 L
899.647 46.476 L
900.02 46.476 L
900.333 46.342 L
900.672 46.342 L
900.959 46.208 L
901.234 46.073 L
901.52 46.073 L
901.74 46.073 L
901.966 45.939 L
902.164 45.805 L
902.323 45.805 L
902.549 45.805 L
902.713 45.805 L
902.819 45.805 L
902.959 45.671 L
903.1 45.671 L
903.214 45.671 L
903.336 45.671 L
903.45 45.537 L
903.574 45.403 L
903.662 45.268 L
903.76 45.268 L
903.839 45.268 L
903.935 45.268 L
904.001 45.268 L
904.054 45.268 L
904.12 45.268 L
904.155 45.268 L
904.21 45.268 L
904.279 45.268 L
904.316 45.134 L
904.401 45 L
904.438 45 L
904.496 45 L
904.523 45 L
904.552 45 L
904.579 45 L
904.608 45 L
904.629 45 L
904.656 45 L
904.693 45 L
904.708 45 L
904.727 45 L
904.748 45 L
904.759 45 L
904.769 45 L
904.783 45 L
904.793 45 L
904.799 45 L
904.817 45 L
904.83 45 L
904.838 45 L
904.846 45 L
904.854 45 L
904.862 45 L
904.865 45 L
904.873 45 L
904.889 45 L
904.891 45 L
904.902 45 L
904.907 45 L
904.91 45 L
904.915 45 L
904.92 45 L
904.923 45 L
904.923 45 L
904.928 45 L
904.931 45 L
904.934 45 L
904.939 45 L
904.942 45 L
904.942 45 L
904.942 45 L
904.944 45 L
904.944 45 L
904.944 45 L
904.944 45 L
904.944 45 L
904.95 45 L
904.952 45 L
904.958 45 L
904.966 45 L
904.966 45 L
904.966 45 L
904.966 45 L
904.966 45 L
904.966 45 L
904.966 45 L
904.968 45 L
904.968 45 L
904.968 45 L
904.968 45 L
904.968 45 L
904.968 45 L
904.971 45 L
904.971 45 L
904.971 45 L
904.971 45 L
904.974 45 L
904.974 45 L
904.974 45 L
904.974 45 L
904.974 45 L
904.974 45 L
904.976 45 L
904.976 45 L
904.976 45 L
904.976 45 L
904.976 45 L
904.976 45 L
904.976 45 L
904.976 45 L
904.976 45 L
904.976 45 L
904.976 45 L
904.976 45 L
904.976 45 L
904.976 45 L
904.976 45 L
904.976 45 L
904.976 45 L
904.976 45 L
904.976 45 L
904.976 45 L
904.976 45 L
904.976 45 L
904.976 45 L
904.976 45 L
904.981 45 L
904.981 45 L
904.981 45 L
904.981 45 L
904.981 45 L
904.981 45 L
904.981 45 L
904.981 45 L
904.981 45 L
904.981 45 L
904.981 45 L
904.981 45 L
904.984 45 L
904.984 45 L
904.984 45 L
904.984 45 L
904.984 45 L
904.984 45 L
904.984 45 L
904.984 45 L
904.984 45 L
904.984 45 L
904.984 45 L
904.984 45 L
904.987 45 L
904.987 45 L
904.987 45 L
904.987 45 L
904.987 45 L
904.987 45 L
904.987 45 L
904.987 45 L
904.987 45 L
904.987 45 L
904.987 45 L
904.987 45 L
904.987 45 L
904.987 45 L
904.987 45 L
904.987 45 L
904.987 45 L
904.987 45 L
904.987 45 L
904.987 45 L
904.987 45 L
904.987 45 L
904.987 45 L
904.987 45 L
904.987 45 L
904.987 45 L
904.987 45 L
904.987 45 L
904.987 45 L
904.987 45 L
904.989 45 L
904.989 45 L
904.989 45 L
904.989 45 L
904.989 45 L
904.989 45 L
904.989 45 L
904.989 45 L
904.989 45 L
904.989 45 L
904.989 45 L
904.989 45 L
904.989 45 L
904.989 45 L
904.989 45 L
904.989 45 L
904.989 45 L
904.989 45 L
904.989 45 L
904.989 45 L
904.989 45 L
904.989 45 L
904.989 45 L
904.989 45 L
904.989 45 L
904.989 45 L
904.989 45 L
904.989 45 L
904.989 45 L
904.989 45 L
904.989 45 L
904.989 45 L
904.989 45 L
904.989 45 L
904.989 45 L
904.989 45 L
904.989 45 L
904.989 45 L
904.989 45 L
904.989 45 L
904.989 45 L
904.989 45 L
904.989 45 L
904.989 45 L
904.989 45 L
904.989 45 L
904.989 45 L
904.989 45 L
904.989 45 L
904.989 45 L
904.989 45 L
904.989 45 L
904.989 45 L
904.989 45 L
904.989 45 L
904.989 45 L
904.989 45 L
904.989 45 L
904.989 45 L
904.989 45 L
904.989 45 L
904.989 45 L
904.989 45 L
904.989 45 L
904.989 45 L
904.989 45 L
904.989 45 L
904.989 45 L
904.989 45 L
904.989 45 L
904.989 45 L
904.989 45 L
904.989 45 L
904.989 45 L
904.989 45 L
904.989 45 L
904.989 45 L
904.989 45 L
904.989 45 L
904.989 45 L
904.989 45 L
904.989 45 L
904.989 45 L
904.989 45 L
904.989 45 L
904.989 45 L
904.989 45 L
904.989 45 L
904.989 45 L
904.989 45 L
904.989 45 L
904.989 45 L
904.989 45 L
904.989 45 L
904.989 45 L
904.989 45 L
904.989 45 L
904.989 45 L
904.989 45 L
904.989 45 L
904.989 45 L
904.989 45 L
904.989 45 L
904.989 45 L
904.989 45 L
904.989 45 L
904.989 45 L
904.989 45 L
904.989 45 L
904.989 45 L
904.989 45 L
904.989 45 L
904.989 45 L
904.989 45 L
904.989 45 L
904.989 45 L
904.989 45 L
904.989 45 L
904.989 45 L
904.989 45 L
904.989 45 L
904.989 45 L
904.989 45 L
904.989 45 L
904.989 45 L
904.989 45 L
904.989 45 L
904.989 45 L
904.989 45 L
904.989 45 L
904.989 45 L
904.989 45 L
904.989 45 L
904.989 45 L
904.989 45 L
904.989 45 L
904.989 45 L
904.989 45 L
904.989 45 L
904.989 45 L
904.989 45 L
904.989 45 L
904.989 45 L
904.989 45 L
904.989 45 L
904.989 45 L
904.989 45 L
904.989 45 L
904.989 45 L
904.989 45 L
904.989 45 L
904.989 45 L
904.989 45 L
904.989 45 L
904.989 45 L
904.989 45 L
904.989 45 L
904.989 45 L
904.989 45 L
904.989 45 L
904.989 45 L
904.989 45 L
904.989 45 L
904.989 45 L
904.989 45 L
904.989 45 L
904.989 45 L
904.989 45 L
904.989 45 L
904.989 45 L
904.989 45 L
904.989 45 L
904.989 45 L
904.989 45 L
904.989 45 L
904.989 45 L
904.989 45 L
904.989 45 L
904.989 45 L
904.989 45 L
904.989 45 L
904.989 45 L
904.989 45 L
904.989 45 L
904.989 45 L
904.989 45 L
904.989 45 L
904.989 45 L
904.989 45 L
904.989 45 L
904.989 45 L
904.989 45 L
904.989 45 L
904.989 45 L
904.989 45 L
904.989 45 L
904.989 45 L
904.989 45 L
904.989 45 L
904.989 45 L
904.989 45 L
904.989 45 L
904.989 45 L
904.989 45 L
904.989 45 L
904.989 45 L
904.989 45 L
904.989 45 L
904.989 45 L
904.989 45 L
904.989 45 L
904.989 45 L
904.989 45 L
904.989 45 L
904.989 45 L
904.989 45 L
904.989 45 L
904.989 45 L
904.989 45 L
904.989 45 L
904.989 45 L
904.989 45 L
904.989 45 L
904.989 45 L
904.989 45 L
904.989 45 L
904.989 45 L
904.989 45 L
904.989 45 L
904.989 45 L
904.989 45 L
904.989 45 L
904.989 45 L
904.989 45 L
904.989 45 L
904.989 45 L
904.989 45 L
904.989 45 L
904.989 45 L
904.989 45 L
904.989 45 L
904.989 45 L
904.989 45 L
904.989 45 L
904.989 45 L
904.989 45 L
904.989 45 L
904.989 45 L
904.989 45 L
904.989 45 L
904.989 45 L
904.989 45 L
904.989 45 L
904.989 45 L
904.989 45 L
904.989 45 L
904.989 45 L
904.989 45 L
904.989 45 L
904.989 45 L
904.989 45 L
904.989 45 L
904.989 45 L
904.989 45 L
904.989 45 L
904.989 45 L
904.989 45 L
904.989 45 L
904.989 45 L
904.989 45 L
904.989 45 L
904.989 45 L
904.989 45 L
904.989 45 L
904.989 45 L
904.989 45 L
904.989 45 L
904.989 45 L
904.989 45 L
904.989 45 L
904.989 45 L
904.989 45 L
904.989 45 L
904.989 45 L
904.989 45 L
904.989 45 L
904.989 45 L
904.989 45 L
904.989 45 L
904.989 45 L
904.989 45 L
905 45 L
S
GR
GS
0 1 0 RC
1 LJ
2 LW
N
130 530.866 M
130 530.866 L
130 530.866 L
130 530.866 L
130 530.866 L
130 530.866 L
130 530.866 L
130 530.866 L
130 530.866 L
130 530.866 L
130 530.866 L
130 530.866 L
130 530.866 L
130 530.866 L
130 530.866 L
130 530.866 L
130 530.866 L
130 530.866 L
130 530.866 L
130 530.866 L
130 530.866 L
130 530.866 L
130 530.866 L
130 530.866 L
130 530.866 L
130 530.866 L
130 530.866 L
130 530.866 L
130 530.866 L
130 530.866 L
130 530.866 L
130 530.866 L
130 530.866 L
130 530.866 L
130 530.866 L
130 530.866 L
130 530.866 L
130 530.866 L
130 530.866 L
130 530.866 L
130 530.866 L
130 530.866 L
130 530.866 L
130 530.866 L
130 530.866 L
130 530.866 L
130 530.866 L
130 530.866 L
130 530.866 L
130 530.866 L
130 530.866 L
130 530.866 L
130 530.866 L
130 530.866 L
130 530.866 L
130 530.866 L
130 530.866 L
130 530.866 L
130 530.866 L
130 530.866 L
130 530.866 L
130 530.866 L
130 530.866 L
130 530.866 L
130 530.866 L
130 530.866 L
130 530.866 L
130 530.866 L
130 530.866 L
130 530.866 L
130 530.866 L
130 530.866 L
130 530.866 L
130 530.866 L
130 530.866 L
130 530.866 L
130 530.866 L
130 530.866 L
130 530.866 L
130 530.866 L
130 530.866 L
130 530.866 L
130 530.866 L
130 530.866 L
130 530.866 L
130 530.866 L
130 530.866 L
130 530.866 L
130 530.866 L
130 530.866 L
130 530.866 L
130 530.866 L
130 530.866 L
130 530.866 L
130 530.866 L
130 530.866 L
130 530.866 L
130 530.866 L
130 530.866 L
130 530.866 L
130 530.866 L
130 530.866 L
130 530.866 L
130 530.866 L
130 530.866 L
130 530.866 L
130 530.866 L
130 530.866 L
130 530.866 L
130 530.866 L
130 530.866 L
130 530.866 L
130 530.866 L
130 530.866 L
130 530.866 L
130 530.866 L
130 530.866 L
130 530.866 L
130 530.866 L
130 530.866 L
130 530.866 L
130 530.866 L
130 530.866 L
130 530.866 L
130 530.866 L
130 530.866 L
130 530.866 L
130 530.866 L
130 530.866 L
130 530.866 L
130 530.866 L
130 530.866 L
130 530.866 L
130 530.866 L
130 530.866 L
130 530.866 L
130 530.866 L
130 530.866 L
130 530.866 L
130 530.866 L
130 530.866 L
130 530.866 L
130 530.866 L
130 530.866 L
130 530.866 L
130 530.866 L
130 530.866 L
130 530.866 L
130 530.866 L
130 530.866 L
130 530.866 L
130 530.866 L
130 530.866 L
130 530.866 L
130 530.866 L
130 530.866 L
130 530.866 L
130 530.866 L
130 530.866 L
130 530.866 L
130 530.866 L
130 530.866 L
130 530.866 L
130 530.866 L
130 530.866 L
130 530.866 L
130 530.866 L
130 530.866 L
130 530.866 L
130 530.732 L
130 530.732 L
130 530.732 L
130 530.732 L
130 530.732 L
130 530.732 L
130 530.732 L
130 530.732 L
130 530.732 L
130 530.732 L
130 530.732 L
130 530.732 L
130 530.732 L
130 530.732 L
130 530.732 L
130 530.732 L
130 530.732 L
130 530.732 L
130 530.732 L
130 530.732 L
130 530.732 L
130 530.597 L
130 530.597 L
130 530.597 L
130 530.597 L
130 530.329 L
130 530.329 L
130 530.329 L
130 530.329 L
130 530.329 L
130 530.329 L
130 530.329 L
130 530.061 L
130 530.061 L
130 529.658 L
130 529.524 L
130 529.256 L
130 529.121 L
130 528.853 L
130 528.853 L
130 528.585 L
130 528.585 L
130 528.585 L
130 528.585 L
130 528.451 L
130 528.316 L
130 528.048 L
130 527.914 L
130 527.511 L
130 527.511 L
130 527.511 L
130 527.243 L
130 527.109 L
130 526.975 L
130 526.706 L
130 526.438 L
130 526.304 L
130 526.304 L
130 526.169 L
130 525.633 L
130 525.633 L
130 525.364 L
130 524.559 L
130 523.888 L
130 523.754 L
130 523.352 L
130 523.218 L
130 522.681 L
130 522.278 L
130 521.607 L
130 521.339 L
130 520.802 L
130 520.131 L
130 519.997 L
130 519.326 L
130 518.924 L
130 518.521 L
130 518.253 L
130 518.253 L
130 517.985 L
130 517.716 L
130 517.314 L
130 516.777 L
130 516.643 L
130 516.374 L
130 515.838 L
130 515.301 L
130 514.496 L
130 513.691 L
130 513.422 L
130 512.752 L
130 512.215 L
130 511.41 L
130 510.873 L
130 510.336 L
130 509.665 L
130 509.531 L
130 509.129 L
130 508.86 L
130 507.921 L
130 507.116 L
130 506.848 L
130 506.043 L
130 504.969 L
130 504.701 L
130 503.627 L
130 502.822 L
130 502.42 L
130 502.151 L
130 501.346 L
130 500.675 L
130 500.139 L
130 499.334 L
130 498.663 L
130 497.723 L
130 497.321 L
130 496.784 L
130 496.516 L
130 496.113 L
130 495.442 L
130 495.04 L
130 494.503 L
130 493.295 L
130 492.759 L
130 492.222 L
130 491.551 L
130 490.746 L
130 489.941 L
130 488.733 L
130 487.928 L
130 487.526 L
130 486.989 L
130 486.586 L
130 485.916 L
130 485.647 L
130 484.976 L
130 484.037 L
130 483.098 L
130 481.756 L
130 480.548 L
130 480.146 L
130 479.609 L
130 478.536 L
130 477.328 L
130 476.925 L
130 476.657 L
130 476.255 L
130 475.584 L
130 475.047 L
130 474.913 L
130 474.51 L
130 473.974 L
130 473.168 L
130 472.766 L
130 471.692 L
130 470.619 L
130 469.814 L
130 468.875 L
130 468.74 L
130 468.07 L
130 466.728 L
130 465.654 L
130 465.118 L
130 464.178 L
130 463.507 L
130 462.971 L
130 462.3 L
130 461.629 L
130 460.69 L
130 460.421 L
130 458.677 L
130 457.201 L
130 457.201 L
130 456.664 L
130 455.859 L
130 455.188 L
130 454.249 L
130 453.712 L
130 452.907 L
130 452.505 L
130 451.431 L
130 450.358 L
130 449.821 L
130 449.15 L
130 448.077 L
130 447.674 L
130 446.869 L
130 445.93 L
130 444.991 L
130 444.722 L
130 443.783 L
130 442.978 L
130 441.77 L
130 441.234 L
130 440.16 L
130 439.355 L
130 438.282 L
130 438.013 L
130 437.074 L
130 436.537 L
130 435.732 L
130 434.659 L
130 433.585 L
130 432.914 L
130 431.707 L
130 431.036 L
130 430.633 L
130 429.828 L
130 429.023 L
130 428.352 L
130 427.547 L
130 426.205 L
130 424.864 L
130 423.656 L
130 422.851 L
130 421.777 L
130 421.241 L
130 419.899 L
130 419.631 L
130 418.423 L
130 417.752 L
130 416.544 L
130 415.739 L
130 414.666 L
130 413.458 L
130 412.922 L
130 412.251 L
130 411.043 L
130 409.835 L
130 409.299 L
130 409.03 L
130 408.225 L
130 407.286 L
130 406.615 L
130 405.542 L
130 404.468 L
130 403.529 L
130 402.992 L
130 402.053 L
130 402.053 L
130 400.98 L
130 399.906 L
130 399.369 L
130 398.028 L
130 397.491 L
130 397.223 L
130 396.82 L
130 395.881 L
130 395.21 L
130 394.539 L
130 394.002 L
130 393.331 L
130 392.66 L
130 391.855 L
130 390.916 L
130 390.245 L
130 389.44 L
130 388.769 L
130 387.964 L
130 387.293 L
130 386.22 L
130 385.281 L
130 385.146 L
130 384.878 L
130 384.207 L
130 383.134 L
130 381.658 L
130 380.584 L
130 379.913 L
130 378.84 L
130 378.169 L
130 377.766 L
130 376.559 L
130 376.425 L
130 375.351 L
130 374.68 L
130 373.741 L
130 372.936 L
130 372.131 L
130 371.326 L
130 370.789 L
130 368.911 L
130 367.837 L
130 367.3 L
130 366.495 L
130 365.824 L
130 363.812 L
130 363.007 L
130 361.531 L
130 360.726 L
130 358.981 L
130 358.042 L
130 357.639 L
130 356.163 L
130 355.358 L
130 354.956 L
130 354.285 L
130 353.614 L
130 352.943 L
130 351.87 L
130 351.065 L
130 350.394 L
130 349.32 L
130 347.978 L
130 346.905 L
130 345.161 L
130 344.624 L
130 343.282 L
130 341.538 L
130 340.464 L
130 339.525 L
130 338.586 L
130 337.915 L
130 337.11 L
130 335.768 L
130 334.56 L
130 332.95 L
130 332.011 L
130.003 330.669 L
130.003 330.401 L
130.003 328.791 L
130.003 327.851 L
130.003 326.375 L
130.003 325.705 L
130.003 324.9 L
130.003 323.826 L
130.003 322.082 L
130.003 320.606 L
130.003 319.666 L
130.003 318.325 L
130.003 317.251 L
130.005 315.507 L
130.005 314.299 L
130.005 313.36 L
130.005 312.823 L
130.005 311.75 L
130.008 309.871 L
130.008 307.724 L
130.011 305.443 L
130.013 303.162 L
130.013 301.821 L
130.013 300.21 L
130.013 298.466 L
130.013 296.99 L
130.019 295.782 L
130.019 293.904 L
130.021 291.623 L
130.021 290.549 L
130.024 288.537 L
130.024 287.195 L
130.024 286.121 L
130.024 285.048 L
130.027 282.767 L
130.027 280.352 L
130.027 279.01 L
130.034 276.595 L
130.034 274.985 L
130.034 272.435 L
130.034 269.752 L
130.037 267.739 L
130.04 265.726 L
130.04 262.64 L
130.04 260.493 L
130.04 257.944 L
130.04 255.663 L
130.042 253.113 L
130.045 250.564 L
130.048 248.149 L
130.053 245.599 L
130.056 243.586 L
130.064 241.976 L
130.066 240.5 L
130.077 237.951 L
130.09 236.475 L
130.101 233.657 L
130.117 230.839 L
130.122 228.827 L
130.138 226.814 L
130.146 224.667 L
130.148 222.252 L
130.162 220.373 L
130.175 218.226 L
130.196 216.616 L
130.22 214.469 L
130.239 213.128 L
130.249 212.188 L
130.278 210.041 L
130.329 208.7 L
130.366 207.358 L
130.4 205.345 L
130.437 204.003 L
130.514 200.917 L
130.583 199.307 L
130.644 197.831 L
130.729 196.355 L
130.837 194.074 L
130.904 192.464 L
131.004 189.78 L
131.129 187.902 L
131.267 186.292 L
131.431 185.084 L
131.59 184.01 L
131.799 182.803 L
132.017 180.656 L
132.239 179.18 L
132.459 178.107 L
132.745 176.496 L
133.056 174.35 L
133.387 173.142 L
133.739 171.8 L
134.137 170.995 L
134.619 168.446 L
135.144 166.299 L
135.647 165.225 L
136.233 163.213 L
136.827 162.273 L
137.37 160.663 L
138.059 158.785 L
138.843 157.577 L
139.675 156.235 L
140.481 154.893 L
141.414 153.417 L
142.331 151.673 L
143.394 150.465 L
144.501 149.526 L
145.636 148.855 L
146.81 148.05 L
148.158 146.977 L
149.383 146.038 L
150.896 144.83 L
152.25 143.757 L
153.803 142.683 L
155.303 141.878 L
156.967 141.341 L
158.563 140.536 L
160.073 139.865 L
161.613 139.329 L
163.259 138.255 L
164.902 137.718 L
166.471 137.182 L
168.161 136.511 L
169.659 135.84 L
171.45 135.572 L
173.019 135.035 L
174.572 134.498 L
176.151 133.961 L
177.667 133.693 L
179.104 132.754 L
180.36 132.083 L
181.743 131.412 L
182.991 131.009 L
184.147 130.339 L
185.31 129.936 L
186.399 129.668 L
187.414 129.265 L
188.379 128.997 L
189.267 128.863 L
190.096 128.728 L
190.894 128.46 L
191.63 128.192 L
192.245 128.192 L
192.887 128.192 L
193.433 127.789 L
193.981 127.789 L
194.453 127.655 L
194.893 127.118 L
195.272 126.984 L
195.637 126.984 L
195.942 126.85 L
196.242 126.716 L
196.488 126.581 L
196.732 126.581 L
196.912 126.447 L
197.034 126.447 L
197.188 126.447 L
197.347 126.447 L
197.503 126.447 L
197.609 126.447 L
197.686 126.447 L
197.757 126.313 L
197.842 126.179 L
197.871 126.179 L
197.898 126.179 L
197.943 126.179 L
197.985 126.179 L
198.017 126.179 L
198.049 126.179 L
198.091 126.179 L
198.102 126.179 L
198.123 126.179 L
198.142 126.179 L
198.15 126.179 L
198.16 126.179 L
198.166 126.179 L
202.703 124.703 L
207.894 123.495 L
213.396 122.019 L
219.281 120.543 L
225.255 118.396 L
231.268 116.652 L
237.668 115.31 L
244.388 114.505 L
251.409 112.761 L
258.654 111.822 L
266.326 110.077 L
273.478 109.272 L
281.249 108.467 L
288.992 107.662 L
297.109 106.052 L
305.155 104.308 L
312.893 103.502 L
320.21 102.295 L
326.769 102.161 L
333.474 101.624 L
339.611 100.953 L
345.362 100.148 L
350.233 99.611 L
354.5 98.806 L
357.871 98.672 L
360.746 98.672 L
363.033 98.672 L
364.859 98.538 L
366.165 98.538 L
367.058 98.538 L
367.628 98.404 L
368.034 98.404 L
368.209 98.404 L
368.346 98.404 L
368.426 98.404 L
368.463 98.404 L
368.474 98.404 L
368.479 98.404 L
368.482 98.404 L
368.482 98.404 L
368.482 98.404 L
368.482 98.404 L
368.482 98.404 L
368.482 98.404 L
368.482 98.404 L
368.482 98.404 L
368.482 98.404 L
368.482 98.404 L
368.482 98.404 L
368.482 98.404 L
368.482 98.404 L
368.482 98.404 L
368.482 98.404 L
368.482 98.404 L
368.482 98.404 L
368.482 98.404 L
368.482 98.404 L
368.482 98.404 L
368.482 98.404 L
368.482 98.404 L
368.482 98.404 L
368.482 98.404 L
368.482 98.404 L
368.482 98.404 L
368.482 98.404 L
368.482 98.404 L
368.482 98.404 L
368.482 98.404 L
368.482 98.404 L
368.482 98.404 L
368.482 98.404 L
368.482 98.404 L
368.482 98.404 L
368.482 98.404 L
368.482 98.404 L
368.482 98.404 L
368.482 98.404 L
368.482 98.404 L
368.482 98.404 L
368.482 98.404 L
368.482 98.404 L
368.482 98.404 L
368.482 98.404 L
368.482 98.404 L
368.482 98.404 L
368.482 98.404 L
368.482 98.404 L
368.482 98.404 L
368.482 98.404 L
368.482 98.404 L
368.482 98.404 L
368.482 98.404 L
368.482 98.404 L
368.482 98.404 L
368.482 98.404 L
368.482 98.404 L
368.482 98.404 L
368.482 98.404 L
368.482 98.404 L
368.482 98.404 L
368.482 98.404 L
368.482 98.404 L
368.482 98.404 L
368.482 98.404 L
368.482 98.404 L
368.482 98.404 L
368.482 98.404 L
368.482 98.404 L
368.482 98.404 L
368.482 98.404 L
368.482 98.404 L
368.482 98.404 L
368.482 98.404 L
368.482 98.404 L
368.482 98.404 L
368.482 98.404 L
368.482 98.404 L
368.482 98.404 L
368.482 98.404 L
368.482 98.404 L
368.482 98.404 L
368.482 98.404 L
368.482 98.404 L
368.482 98.404 L
368.482 98.404 L
368.482 98.404 L
368.482 98.404 L
368.482 98.404 L
368.482 98.404 L
368.482 98.404 L
368.482 98.404 L
368.482 98.404 L
368.482 98.404 L
368.482 98.404 L
368.482 98.404 L
368.482 98.404 L
368.482 98.404 L
368.482 98.404 L
368.482 98.404 L
368.482 98.404 L
368.482 98.404 L
368.482 98.404 L
368.482 98.404 L
368.482 98.404 L
368.482 98.404 L
368.482 98.404 L
368.482 98.404 L
368.482 98.404 L
368.482 98.404 L
368.482 98.404 L
368.482 98.404 L
368.482 98.404 L
368.482 98.404 L
368.482 98.404 L
368.482 98.404 L
368.482 98.404 L
368.482 98.404 L
368.482 98.404 L
368.482 98.404 L
368.482 98.404 L
368.482 98.404 L
368.482 98.404 L
368.482 98.404 L
368.482 98.404 L
368.482 98.404 L
368.482 98.404 L
368.482 98.404 L
368.482 98.404 L
368.482 98.404 L
368.482 98.404 L
368.482 98.404 L
368.482 98.404 L
368.482 98.404 L
368.482 98.404 L
368.482 98.404 L
368.482 98.404 L
368.482 98.404 L
368.482 98.404 L
368.482 98.404 L
368.482 98.404 L
368.482 98.404 L
368.482 98.404 L
368.482 98.404 L
368.482 98.404 L
368.482 98.404 L
368.482 98.404 L
368.482 98.404 L
368.482 98.404 L
368.482 98.404 L
368.482 98.404 L
368.482 98.404 L
368.482 98.404 L
368.482 98.404 L
368.482 98.404 L
368.482 98.404 L
368.482 98.404 L
368.482 98.404 L
368.482 98.404 L
368.482 98.404 L
368.482 98.404 L
368.482 98.404 L
368.482 98.404 L
368.482 98.404 L
368.482 98.404 L
368.482 98.404 L
368.482 98.404 L
368.482 98.404 L
368.482 98.404 L
368.482 98.404 L
368.482 98.404 L
368.482 98.404 L
368.482 98.404 L
368.482 98.404 L
368.482 98.404 L
368.482 98.404 L
368.482 98.404 L
368.482 98.404 L
368.482 98.404 L
368.482 98.404 L
368.482 98.404 L
368.482 98.404 L
368.482 98.404 L
368.482 98.404 L
368.482 98.404 L
368.482 98.404 L
368.482 98.404 L
368.482 98.404 L
368.482 98.404 L
368.482 98.404 L
368.482 98.404 L
368.482 98.404 L
368.482 98.404 L
368.482 98.404 L
368.482 98.404 L
368.482 98.404 L
368.482 98.404 L
368.482 98.404 L
368.482 98.404 L
368.482 98.404 L
368.482 98.404 L
368.482 98.404 L
368.482 98.404 L
368.482 98.404 L
368.482 98.404 L
368.482 98.404 L
368.482 98.404 L
368.482 98.404 L
368.482 98.404 L
368.482 98.404 L
368.482 98.404 L
368.482 98.404 L
368.482 98.404 L
368.482 98.404 L
368.482 98.404 L
368.482 98.404 L
368.482 98.404 L
368.482 98.404 L
368.482 98.404 L
368.482 98.404 L
368.482 98.404 L
368.482 98.404 L
368.482 98.404 L
368.482 98.404 L
368.482 98.404 L
368.482 98.404 L
368.482 98.404 L
368.482 98.404 L
368.482 98.404 L
368.482 98.404 L
368.482 98.404 L
368.482 98.404 L
368.482 98.404 L
368.482 98.404 L
368.482 98.404 L
368.482 98.404 L
368.482 98.404 L
368.482 98.404 L
368.482 98.404 L
368.482 98.404 L
368.482 98.404 L
368.482 98.404 L
368.482 98.404 L
368.482 98.404 L
368.482 98.404 L
368.482 98.404 L
368.482 98.404 L
368.482 98.404 L
368.482 98.404 L
368.482 98.404 L
368.482 98.404 L
368.482 98.404 L
368.482 98.404 L
368.482 98.404 L
368.482 98.404 L
368.482 98.404 L
368.482 98.404 L
368.482 98.404 L
368.482 98.404 L
368.482 98.404 L
368.482 98.404 L
368.482 98.404 L
368.482 98.404 L
368.482 98.404 L
368.482 98.404 L
368.482 98.404 L
368.482 98.404 L
368.482 98.404 L
368.482 98.404 L
368.482 98.404 L
368.482 98.404 L
368.482 98.404 L
368.482 98.404 L
368.482 98.404 L
368.482 98.404 L
368.482 98.404 L
368.482 98.404 L
368.482 98.404 L
368.482 98.404 L
368.482 98.404 L
368.482 98.404 L
368.482 98.404 L
368.482 98.404 L
368.482 98.404 L
368.482 98.404 L
368.482 98.404 L
368.482 98.404 L
368.482 98.404 L
368.482 98.404 L
368.482 98.404 L
368.482 98.404 L
368.482 98.404 L
368.482 98.404 L
368.482 98.404 L
368.482 98.404 L
368.482 98.404 L
368.482 98.404 L
368.482 98.404 L
905 45 L
S
GR
GS
1 LJ
2 LW
N
130 530.866 M
130 530.866 L
130 530.866 L
130 530.866 L
130 530.866 L
130 530.866 L
130 530.866 L
130 530.866 L
130 530.866 L
130 530.866 L
130 530.866 L
130 530.866 L
130 530.866 L
130 530.866 L
130 530.866 L
130 530.866 L
130 530.866 L
130 530.866 L
130 530.866 L
130 530.866 L
130 530.866 L
130 530.866 L
130 530.866 L
130 530.866 L
130 530.866 L
130 530.866 L
130 530.866 L
130 530.866 L
130 530.866 L
130 530.866 L
130 530.866 L
130 530.866 L
130 530.866 L
130 530.866 L
130 530.866 L
130 530.866 L
130 530.866 L
130 530.866 L
130 530.866 L
130 530.866 L
130 530.866 L
130 530.866 L
130 530.866 L
130 530.866 L
130 530.866 L
130 530.866 L
130 530.866 L
130 530.866 L
130 530.866 L
130 530.866 L
130 530.866 L
130 530.866 L
130 530.866 L
130 530.866 L
130 530.866 L
130 530.866 L
130 530.866 L
130 530.866 L
130 530.866 L
130 530.866 L
130 530.866 L
130 530.866 L
130 530.866 L
130 530.866 L
130 530.866 L
130 530.866 L
130 530.866 L
130 530.866 L
130 530.866 L
130 530.866 L
130 530.866 L
130 530.866 L
130 530.866 L
130 530.866 L
130 530.866 L
130 530.866 L
130 530.866 L
130 530.866 L
130 530.866 L
130 530.866 L
130 530.866 L
130 530.866 L
130 530.866 L
130 530.866 L
130 530.866 L
130 530.866 L
130 530.866 L
130 530.866 L
130 530.866 L
130 530.866 L
130 530.866 L
130 530.866 L
130 530.866 L
130 530.866 L
130 530.866 L
130 530.866 L
130 530.866 L
130 530.866 L
130 530.866 L
130 530.866 L
130 530.866 L
130 530.866 L
130 530.866 L
130 530.866 L
130 530.866 L
130 530.866 L
130 530.866 L
130 530.866 L
130 530.866 L
130 530.866 L
130 530.866 L
130 530.866 L
130 530.866 L
130 530.866 L
130 530.866 L
130 530.866 L
130 530.866 L
130 530.866 L
130 530.866 L
130 530.866 L
130 530.866 L
130 530.866 L
130 530.866 L
130 530.866 L
130 530.866 L
130 530.866 L
130 530.866 L
130 530.866 L
130 530.866 L
130 530.866 L
130 530.866 L
130 530.866 L
130 530.866 L
130 530.866 L
130 530.866 L
130 530.866 L
130 530.866 L
130 530.866 L
130 530.866 L
130 530.866 L
130 530.866 L
130 530.866 L
130 530.866 L
130 530.866 L
130 530.866 L
130 530.866 L
130 530.866 L
130 530.866 L
130 530.866 L
130 530.866 L
130 530.866 L
130 530.866 L
130 530.866 L
130 530.866 L
130 530.866 L
130 530.866 L
130 530.866 L
130 530.866 L
130 530.866 L
130 530.866 L
130 530.866 L
130 530.866 L
130 530.866 L
130 530.866 L
130 530.866 L
130 530.866 L
130 530.866 L
130 530.866 L
130 530.866 L
130 530.866 L
130 530.866 L
130 530.866 L
130 530.866 L
130 530.866 L
130 530.866 L
130 530.866 L
130 530.866 L
130 530.866 L
130 530.732 L
130 530.732 L
130 530.732 L
130 530.732 L
130 530.732 L
130 530.732 L
130 530.732 L
130 530.732 L
130 530.732 L
130 530.732 L
130 530.732 L
130 530.732 L
130 530.732 L
130 530.732 L
130 530.732 L
130 530.732 L
130 530.597 L
130 530.597 L
130 530.597 L
130 530.597 L
130 530.597 L
130 530.597 L
130 530.597 L
130 530.463 L
130 530.463 L
130 530.463 L
130 530.463 L
130 530.463 L
130 530.329 L
130 530.329 L
130 530.329 L
130 530.329 L
130 530.195 L
130 530.061 L
130 530.061 L
130 530.061 L
130 530.061 L
130 529.927 L
130 529.658 L
130 529.658 L
130 529.524 L
130 529.39 L
130 529.39 L
130 529.39 L
130 529.39 L
130 529.256 L
130 529.256 L
130 528.987 L
130 528.853 L
130 528.719 L
130 528.316 L
130 527.914 L
130 527.78 L
130 527.78 L
130 527.78 L
130 527.646 L
130 527.646 L
130 527.243 L
130 526.84 L
130 526.572 L
130 526.169 L
130 526.035 L
130 526.035 L
130 526.035 L
130 526.035 L
130 526.035 L
130 526.035 L
130 525.901 L
130 525.499 L
130 525.364 L
130 525.364 L
130 525.364 L
130 525.364 L
130 525.364 L
130 524.962 L
130 524.694 L
130 524.157 L
130 523.888 L
130 523.754 L
130 523.486 L
130 523.218 L
130 523.083 L
130 522.412 L
130 522.01 L
130 521.607 L
130 521.205 L
130 520.937 L
130 520.668 L
130 520.266 L
130 519.863 L
130 519.729 L
130 518.924 L
130 518.119 L
130 517.716 L
130 517.314 L
130 517.179 L
130 516.643 L
130 516.106 L
130 515.703 L
130 515.435 L
130 515.033 L
130 514.63 L
130 513.691 L
130 513.557 L
130 513.288 L
130 513.288 L
130 513.288 L
130 512.886 L
130 512.215 L
130 511.812 L
130 511.007 L
130 510.202 L
130 510.202 L
130 509.934 L
130 509.129 L
130 508.726 L
130 508.324 L
130 507.518 L
130 507.25 L
130 505.908 L
130 505.64 L
130 505.506 L
130 504.701 L
130 504.164 L
130 503.761 L
130 503.359 L
130 502.822 L
130 502.151 L
130 501.883 L
130 500.944 L
130 500.81 L
130 500.541 L
130 500.273 L
130 499.602 L
130 499.065 L
130 498.663 L
130 497.455 L
130 496.516 L
130 496.382 L
130 495.308 L
130 494.771 L
130 494.235 L
130 493.832 L
130 493.43 L
130 493.027 L
130 492.356 L
130 491.551 L
130 491.283 L
130 490.612 L
130 490.343 L
130 489.941 L
130 489.404 L
130 488.867 L
130 488.197 L
130 487.66 L
130 487.392 L
130 486.721 L
130 485.781 L
130 485.513 L
130 484.574 L
130 483.769 L
130 482.964 L
130 482.293 L
130 481.89 L
130 481.756 L
130 481.219 L
130 480.682 L
130 479.609 L
130 478.804 L
130 478.401 L
130 476.791 L
130 475.718 L
130 475.584 L
130 474.644 L
130 473.571 L
130 473.168 L
130 472.498 L
130 471.424 L
130 471.022 L
130 470.485 L
130 470.216 L
130 469.411 L
130 469.009 L
130 468.472 L
130 467.935 L
130 467.533 L
130 467.13 L
130 466.057 L
130 465.52 L
130 465.386 L
130 464.581 L
130 464.178 L
130 463.373 L
130 463.105 L
130 462.837 L
130 461.897 L
130 461.361 L
130 460.958 L
130 460.69 L
130 459.885 L
130 459.348 L
130 458.945 L
130 458.14 L
130 457.872 L
130 457.335 L
130 456.798 L
130 456.396 L
130 455.188 L
130 453.846 L
130 453.041 L
130 452.639 L
130 451.431 L
130 450.492 L
130 450.224 L
130 449.419 L
130 448.882 L
130 448.211 L
130 447.808 L
130 447.272 L
130 446.869 L
130 446.332 L
130 445.93 L
130 445.527 L
130 445.125 L
130 444.186 L
130 443.649 L
130 443.112 L
130 442.173 L
130 441.77 L
130 441.099 L
130 440.563 L
130 439.892 L
130 439.758 L
130 438.55 L
130 438.013 L
130 437.074 L
130 436.537 L
130 435.732 L
130 434.927 L
130 433.988 L
130 433.719 L
130 432.646 L
130 432.243 L
130 431.438 L
130 430.499 L
130 429.962 L
130 428.755 L
130 428.486 L
130 428.218 L
130 428.084 L
130 427.95 L
130 427.413 L
130 426.742 L
130 426.071 L
130 425.4 L
130 424.864 L
130 423.522 L
130 422.448 L
130 422.18 L
130 421.912 L
130 420.704 L
130 419.631 L
130 419.362 L
130 418.96 L
130 418.423 L
130 417.752 L
130 417.35 L
130 417.081 L
130 416.142 L
130 415.471 L
130 414.934 L
130 414.263 L
130 413.727 L
130 413.324 L
130 413.056 L
130 412.787 L
130 412.787 L
130 412.519 L
130 411.446 L
130 411.311 L
130 410.909 L
130 410.104 L
130 409.433 L
130 409.165 L
130 408.494 L
130 407.957 L
130 407.42 L
130 406.213 L
130 405.408 L
130 405.005 L
130 404.334 L
130 403.261 L
130 403.126 L
130 402.456 L
130 402.321 L
130 402.053 L
130 401.248 L
130 400.577 L
130 399.504 L
130 398.833 L
130 398.699 L
130 398.43 L
130 397.625 L
130 397.357 L
130 396.552 L
130 396.283 L
130 395.612 L
130 395.344 L
130 393.734 L
130 393.465 L
130 392.526 L
130 392.258 L
130 391.855 L
130 391.05 L
130 390.245 L
130 389.843 L
130 389.708 L
130 389.44 L
130 389.306 L
130 388.098 L
130 387.427 L
130 386.757 L
130 386.354 L
130 385.549 L
130 385.281 L
130 384.61 L
130 384.475 L
130 383.939 L
130 383.805 L
130 383.134 L
130 382.463 L
130 381.792 L
130 380.584 L
130 380.182 L
130 379.779 L
130 378.706 L
130 378.035 L
130 377.364 L
130 376.29 L
130 375.754 L
130 374.278 L
130 372.936 L
130 371.594 L
130 371.594 L
130 370.789 L
130 369.313 L
130 368.508 L
130 367.703 L
130 366.629 L
130 365.422 L
130 364.483 L
130 364.214 L
130 363.409 L
130 363.007 L
130 362.067 L
130 361.531 L
130 360.189 L
130 359.115 L
130 358.444 L
130 356.7 L
130 355.627 L
130 354.822 L
130 353.077 L
130 351.333 L
130 350.26 L
130 348.784 L
130 347.576 L
130 346.637 L
130 346.1 L
130 345.161 L
130 344.624 L
130 343.014 L
130 342.343 L
130 341.269 L
130 340.33 L
130 339.391 L
130 338.854 L
130 338.049 L
130 336.842 L
130 335.634 L
130 333.621 L
130 331.877 L
130 330.938 L
130 329.73 L
130 329.193 L
130 328.254 L
130 327.449 L
130 326.51 L
130 325.436 L
130 324.363 L
130 323.826 L
130 322.216 L
130 320.337 L
130 319.398 L
130 318.727 L
130 317.654 L
130 317.117 L
130 316.312 L
130 314.97 L
130 313.628 L
130 312.018 L
130 310.408 L
130 308.798 L
130 308.798 L
130 308.127 L
130 306.517 L
130 305.578 L
130 304.102 L
130 303.431 L
130 301.284 L
130 300.076 L
130 299.271 L
130.003 297.929 L
130.003 296.99 L
130.003 295.38 L
130.005 294.038 L
130.005 292.83 L
130.005 291.757 L
130.005 290.415 L
130.005 289.342 L
130.005 288.805 L
130.005 287.732 L
130.005 286.39 L
130.005 285.182 L
130.005 284.243 L
130.005 282.364 L
130.005 281.157 L
130.005 279.278 L
130.005 278.205 L
130.005 276.058 L
130.005 274.179 L
130.005 272.301 L
130.011 270.825 L
130.011 269.483 L
130.011 268.41 L
130.013 267.202 L
130.013 265.726 L
130.016 264.921 L
130.016 263.177 L
130.016 261.298 L
130.019 260.225 L
130.021 257.944 L
130.024 256.602 L
130.024 255.126 L
130.024 253.784 L
130.024 252.711 L
130.024 251.369 L
130.024 249.625 L
130.027 248.149 L
130.029 246.941 L
130.032 245.733 L
130.034 244.257 L
130.037 243.05 L
130.04 241.842 L
130.045 239.829 L
130.05 237.817 L
130.058 236.072 L
130.061 234.462 L
130.074 233.12 L
130.077 230.973 L
130.082 229.9 L
130.09 227.753 L
130.09 226.009 L
130.093 224.533 L
130.109 222.789 L
130.119 221.178 L
130.13 220.105 L
130.146 218.226 L
130.151 217.421 L
130.167 215.543 L
130.186 213.262 L
130.193 211.652 L
130.207 210.176 L
130.212 207.626 L
130.244 205.613 L
130.262 204.406 L
130.278 202.527 L
130.289 201.856 L
130.297 200.112 L
130.31 199.71 L
130.329 197.965 L
130.363 196.087 L
130.421 194.477 L
130.44 193.135 L
130.474 191.122 L
130.517 189.512 L
130.557 187.365 L
130.612 185.755 L
130.66 185.084 L
130.718 183.34 L
130.774 181.729 L
130.845 180.253 L
130.904 179.314 L
130.959 178.509 L
131.06 176.765 L
131.161 175.423 L
131.235 174.618 L
131.304 173.679 L
131.415 171.934 L
131.511 170.324 L
131.638 168.58 L
131.778 166.03 L
131.919 165.091 L
132.064 164.018 L
132.237 162.408 L
132.356 161.737 L
132.536 160.529 L
132.706 159.59 L
132.878 157.443 L
133.069 155.967 L
133.281 154.088 L
133.482 152.747 L
133.697 151.271 L
133.885 150.465 L
134.124 148.99 L
134.37 147.379 L
134.598 145.769 L
135.006 144.964 L
135.313 143.622 L
135.631 142.683 L
136.008 141.744 L
136.416 140.67 L
136.721 139.194 L
137.131 137.853 L
137.646 136.779 L
138.168 135.572 L
138.668 134.632 L
139.183 133.425 L
139.689 132.62 L
140.298 131.68 L
140.69 130.741 L
141.316 129.802 L
142.018 128.863 L
142.747 127.252 L
143.553 125.776 L
144.334 124.971 L
145.19 123.495 L
145.969 123.093 L
146.9 121.885 L
147.549 121.348 L
148.437 119.872 L
149.385 118.665 L
150.395 117.055 L
151.458 115.847 L
152.555 114.639 L
153.721 113.566 L
155.033 112.224 L
155.494 111.822 L
157.057 110.48 L
158.488 109.809 L
159.978 109.138 L
161.305 108.199 L
162.927 107.26 L
164.615 106.32 L
166.309 105.515 L
167.896 104.978 L
169.033 104.844 L
170.989 104.039 L
172.905 103.234 L
174.93 102.295 L
177.217 101.356 L
179.363 100.685 L
181.629 100.282 L
183.977 99.343 L
186.32 98.404 L
187.894 97.867 L
190.549 96.928 L
193.295 96.123 L
196.239 95.854 L
199.271 94.915 L
202.435 94.378 L
205.559 94.11 L
208.769 93.573 L
211.064 93.036 L
214.392 93.036 L
217.824 92.634 L
221.661 91.963 L
225.112 91.292 L
229.005 90.755 L
233.308 89.95 L
237.212 89.548 L
241.495 88.609 L
244.426 87.803 L
248.827 87.535 L
253.181 86.998 L
257.676 86.462 L
262.401 85.925 L
267.532 85.657 L
272.53 84.851 L
277.697 84.449 L
281.18 83.375 L
286.596 82.57 L
292.53 82.168 L
297.793 81.631 L
303.705 80.826 L
310.156 80.155 L
315.541 79.216 L
322.386 77.874 L
328.372 77.069 L
332.87 76.801 L
339.667 75.191 L
345.993 74.52 L
352.631 73.983 L
359.426 73.983 L
366.346 73.849 L
373.668 73.044 L
380.375 72.104 L
385.291 71.702 L
392.664 71.165 L
400.187 70.628 L
407.287 70.494 L
414.81 69.957 L
422.355 69.152 L
429.497 68.481 L
437.707 67.945 L
445.501 67.676 L
450.995 67.408 L
458.844 66.737 L
466.553 66.335 L
474.798 65.395 L
482.581 64.993 L
490.807 64.188 L
499.049 63.383 L
507.063 62.712 L
512.755 62.175 L
521.254 61.638 L
529.093 60.833 L
537.019 60.431 L
545.216 59.894 L
553.227 59.089 L
561.191 58.686 L
569.3 58.15 L
578.027 57.881 L
583.473 57.345 L
590.745 56.405 L
599.36 56.003 L
606.942 55.6 L
615.29 55.466 L
623.057 54.929 L
630.862 54.393 L
638.621 53.99 L
643.995 53.588 L
651.591 53.319 L
658.542 52.782 L
665.721 52.38 L
673.019 51.843 L
680.408 51.709 L
687.489 51.441 L
694.477 50.501 L
701.786 50.233 L
706.53 50.099 L
712.988 49.83 L
719.38 49.696 L
726.095 49.428 L
732.371 49.16 L
738.739 48.623 L
744.903 48.355 L
751.112 48.355 L
755.193 48.355 L
760.764 48.22 L
766.22 48.086 L
771.936 47.952 L
777.218 47.684 L
782.791 47.684 L
787.601 47.684 L
792.851 47.684 L
797.632 47.684 L
801.056 47.415 L
805.296 47.281 L
809.544 47.281 L
813.686 47.281 L
817.672 47.281 L
821.716 47.147 L
825.458 47.013 L
829.433 46.879 L
832.035 46.879 L
835.26 46.744 L
838.456 46.61 L
841.533 46.61 L
844.636 46.61 L
847.71 46.342 L
850.527 46.208 L
853.461 46.208 L
856.005 46.208 L
857.659 46.208 L
859.872 46.208 L
862.145 46.073 L
864.414 46.073 L
866.526 45.939 L
868.845 45.805 L
870.96 45.671 L
873.056 45.537 L
875.173 45.537 L
875.173 45.537 L
877.103 45.268 L
878.743 45.134 L
880.397 45.134 L
881.78 45.134 L
883.11 45.134 L
884.401 45.134 L
885.522 45.134 L
886.224 45.134 L
887.361 45.134 L
888.392 45.134 L
889.468 45.134 L
890.446 45.134 L
891.373 45.134 L
892.168 45.134 L
892.908 45.134 L
893.575 45 L
894.188 45 L
894.943 45 L
895.613 45 L
896.294 45 L
896.851 45 L
897.37 45 L
897.839 45 L
898.287 45 L
898.688 45 L
899.053 45 L
899.496 45 L
899.795 45 L
900.14 45 L
900.521 45 L
900.821 45 L
901.099 45 L
901.316 45 L
901.571 45 L
901.815 45 L
902.064 45 L
902.31 45 L
902.477 45 L
902.673 45 L
902.795 45 L
902.944 45 L
903.034 45 L
903.179 45 L
903.338 45 L
903.431 45 L
903.564 45 L
903.688 45 L
903.805 45 L
903.882 45 L
903.961 45 L
904.043 45 L
904.12 45 L
904.186 45 L
904.242 45 L
904.3 45 L
904.353 45 L
904.401 45 L
904.465 45 L
904.486 45 L
904.52 45 L
904.568 45 L
904.605 45 L
904.624 45 L
904.65 45 L
904.682 45 L
904.703 45 L
904.724 45 L
904.748 45 L
904.772 45 L
904.793 45 L
904.807 45 L
904.822 45 L
904.838 45 L
904.852 45 L
904.857 45 L
904.87 45 L
904.875 45 L
904.886 45 L
904.886 45 L
904.897 45 L
904.913 45 L
904.915 45 L
904.92 45 L
904.926 45 L
904.931 45 L
904.936 45 L
904.942 45 L
904.955 45 L
904.955 45 L
904.958 45 L
904.963 45 L
904.963 45 L
904.966 45 L
904.974 45 L
904.976 45 L
904.976 45 L
904.976 45 L
904.976 45 L
904.976 45 L
904.976 45 L
904.981 45 L
904.981 45 L
904.981 45 L
904.984 45 L
904.984 45 L
904.984 45 L
904.984 45 L
904.989 45 L
904.992 45 L
904.992 45 L
904.992 45 L
904.995 45 L
904.995 45 L
904.995 45 L
904.995 45 L
904.995 45 L
904.995 45 L
904.995 45 L
904.995 45 L
904.995 45 L
904.997 45 L
904.997 45 L
904.997 45 L
904.997 45 L
904.997 45 L
904.997 45 L
904.997 45 L
904.997 45 L
905 45 L
S
GR
GS
1 0 0 RC
1 LJ
2 LW
N
130 530.866 M
130 530.866 L
130 530.866 L
130 530.866 L
130 530.866 L
130 530.866 L
130 530.866 L
130 530.866 L
130 530.866 L
130 530.866 L
130 530.866 L
130 530.866 L
130 530.866 L
130 530.866 L
130 530.866 L
130 530.866 L
130 530.866 L
130 530.866 L
130 530.866 L
130 530.866 L
130 530.866 L
130 530.866 L
130 530.866 L
130 530.866 L
130 530.866 L
130 530.866 L
130 530.866 L
130 530.866 L
130 530.866 L
130 530.866 L
130 530.866 L
130 530.866 L
130 530.866 L
130 530.866 L
130 530.866 L
130 530.866 L
130 530.866 L
130 530.866 L
130 530.866 L
130 530.866 L
130 530.866 L
130 530.866 L
130 530.866 L
130 530.866 L
130 530.866 L
130 530.866 L
130 530.866 L
130 530.866 L
130 530.866 L
130 530.866 L
130 530.866 L
130 530.866 L
130 530.866 L
130 530.866 L
130 530.866 L
130 530.866 L
130 530.866 L
130 530.866 L
130 530.866 L
130 530.866 L
130 530.866 L
130 530.866 L
130 530.866 L
130 530.866 L
130 530.866 L
130 530.866 L
130 530.866 L
130 530.866 L
130 530.866 L
130 530.866 L
130 530.866 L
130 530.866 L
130 530.866 L
130 530.866 L
130 530.866 L
130 530.866 L
130 530.866 L
130 530.866 L
130 530.866 L
130 530.866 L
130 530.866 L
130 530.866 L
130 530.866 L
130 530.866 L
130 530.866 L
130 530.866 L
130 530.866 L
130 530.866 L
130 530.866 L
130 530.866 L
130 530.866 L
130 530.866 L
130 530.866 L
130 530.866 L
130 530.866 L
130 530.866 L
130 530.866 L
130 530.866 L
130 530.866 L
130 530.866 L
130 530.866 L
130 530.866 L
130 530.866 L
130 530.866 L
130 530.866 L
130 530.866 L
130 530.866 L
130 530.866 L
130 530.866 L
130 530.866 L
130 530.866 L
130 530.866 L
130 530.866 L
130 530.866 L
130 530.866 L
130 530.866 L
130 530.866 L
130 530.866 L
130 530.866 L
130 530.866 L
130 530.866 L
130 530.866 L
130 530.866 L
130 530.866 L
130 530.866 L
130 530.866 L
130 530.866 L
130 530.866 L
130 530.866 L
130 530.866 L
130 530.866 L
130 530.866 L
130 530.866 L
130 530.866 L
130 530.866 L
130 530.866 L
130 530.866 L
130 530.866 L
130 530.866 L
130 530.866 L
130 530.866 L
130 530.866 L
130 530.866 L
130 530.866 L
130 530.866 L
130 530.866 L
130 530.866 L
130 530.866 L
130 530.866 L
130 530.866 L
130 530.866 L
130 530.866 L
130 530.866 L
130 530.866 L
130 530.866 L
130 530.866 L
130 530.866 L
130 530.866 L
130 530.866 L
130 530.866 L
130 530.866 L
130 530.866 L
130 530.866 L
130 530.866 L
130 530.866 L
130 530.866 L
130 530.866 L
130 530.732 L
130 530.732 L
130 530.732 L
130 530.732 L
130 530.732 L
130 530.732 L
130 530.732 L
130 530.732 L
130 530.732 L
130 530.732 L
130 530.597 L
130 530.597 L
130 530.597 L
130 530.597 L
130 530.597 L
130 530.463 L
130 530.463 L
130 530.463 L
130 530.463 L
130 530.463 L
130 530.463 L
130 530.463 L
130 530.463 L
130 530.463 L
130 530.463 L
130 530.463 L
130 530.329 L
130 530.195 L
130 530.195 L
130 529.792 L
130 529.792 L
130 529.792 L
130 529.792 L
130 529.658 L
130 529.121 L
130 529.121 L
130 529.121 L
130 529.121 L
130 529.121 L
130 528.719 L
130 528.719 L
130 528.719 L
130 528.585 L
130 528.451 L
130 528.451 L
130 528.316 L
130 528.316 L
130 528.048 L
130 527.646 L
130 527.511 L
130 527.377 L
130 527.243 L
130 526.975 L
130 526.706 L
130 526.169 L
130 526.169 L
130 526.035 L
130 526.035 L
130 525.633 L
130 525.364 L
130 524.962 L
130 524.962 L
130 524.291 L
130 524.291 L
130 524.157 L
130 523.486 L
130 523.083 L
130 522.815 L
130 522.144 L
130 522.144 L
130 521.876 L
130 521.876 L
130 521.876 L
130 521.742 L
130 521.607 L
130 521.339 L
130 520.4 L
130 519.461 L
130 519.192 L
130 519.058 L
130 518.79 L
130 518.253 L
130 518.119 L
130 518.119 L
130 517.716 L
130 517.448 L
130 517.179 L
130 516.24 L
130 516.24 L
130 515.838 L
130 514.898 L
130 514.496 L
130 514.093 L
130 513.154 L
130 513.02 L
130 512.886 L
130 512.483 L
130 511.141 L
130 510.47 L
130 510.068 L
130 509.397 L
130 508.86 L
130 508.055 L
130 507.518 L
130 506.848 L
130 506.713 L
130 505.908 L
130 505.908 L
130 505.237 L
130 504.432 L
130 503.761 L
130 503.091 L
130 502.42 L
130 501.615 L
130 501.078 L
130 500.139 L
130 499.87 L
130 498.931 L
130 497.992 L
130 497.321 L
130 497.187 L
130 496.516 L
130 496.382 L
130 495.711 L
130 495.04 L
130 494.235 L
130 493.966 L
130 493.43 L
130 493.161 L
130 492.088 L
130 491.283 L
130 490.343 L
130 489.673 L
130 489.673 L
130 489.404 L
130 488.733 L
130 488.599 L
130 487.526 L
130 486.855 L
130 486.855 L
130 486.452 L
130 485.379 L
130 484.842 L
130 483.634 L
130 482.561 L
130 482.293 L
130 481.488 L
130 480.951 L
130 480.28 L
130 479.072 L
130 478.536 L
130 478.401 L
130 478.267 L
130 477.731 L
130 477.328 L
130 476.657 L
130 475.718 L
130 475.315 L
130 475.315 L
130 474.644 L
130 473.839 L
130 473.571 L
130 472.9 L
130 472.095 L
130 471.692 L
130 470.351 L
130 469.546 L
130 468.875 L
130 468.606 L
130 468.204 L
130 466.862 L
130 466.459 L
130 465.252 L
130 464.983 L
130 464.044 L
130 463.373 L
130 462.3 L
130 462.031 L
130 461.092 L
130 460.421 L
130 459.616 L
130 458.945 L
130 458.677 L
130 457.872 L
130 457.604 L
130 456.933 L
130 456.396 L
130 455.591 L
130 455.054 L
130 454.517 L
130 454.517 L
130 453.981 L
130 453.041 L
130 451.968 L
130 450.76 L
130 450.224 L
130 450.089 L
130 449.284 L
130 448.613 L
130 447.674 L
130 447.137 L
130 446.601 L
130 446.198 L
130 446.198 L
130 445.796 L
130 445.125 L
130 444.454 L
130 443.917 L
130 443.38 L
130 443.112 L
130 442.039 L
130 441.502 L
130 440.697 L
130 440.16 L
130 439.489 L
130 439.489 L
130 438.818 L
130 437.879 L
130 437.342 L
130 436.537 L
130 435.866 L
130 435.061 L
130 434.39 L
130 433.854 L
130 432.914 L
130 432.78 L
130 431.975 L
130 431.573 L
130 431.304 L
130 430.499 L
130 429.56 L
130 428.486 L
130 427.816 L
130 427.01 L
130 426.876 L
130 426.474 L
130 425.669 L
130 424.998 L
130 424.998 L
130 424.864 L
130 423.79 L
130 423.253 L
130 422.717 L
130 422.314 L
130 421.912 L
130 420.972 L
130 419.899 L
130 419.228 L
130 419.094 L
130 418.289 L
130 417.752 L
130 416.813 L
130 416.008 L
130 415.068 L
130 414.666 L
130 414.129 L
130 413.861 L
130 413.861 L
130 413.458 L
130 413.056 L
130 412.653 L
130 412.519 L
130 412.385 L
130 411.58 L
130 410.775 L
130 410.372 L
130 409.97 L
130 409.567 L
130 408.896 L
130 408.225 L
130 407.42 L
130 406.481 L
130 405.81 L
130 405.81 L
130 405.139 L
130 404.334 L
130 403.663 L
130 403.126 L
130 402.187 L
130 402.053 L
130 401.65 L
130 400.98 L
130 400.577 L
130 400.309 L
130 399.906 L
130 399.369 L
130 399.369 L
130 398.833 L
130 398.296 L
130 398.028 L
130 397.491 L
130 396.954 L
130 396.954 L
130 396.283 L
130 395.881 L
130 395.344 L
130 394.941 L
130 394.539 L
130 394.271 L
130 393.868 L
130 393.063 L
130 392.526 L
130 392.124 L
130 391.721 L
130 391.587 L
130 391.184 L
130 390.648 L
130 390.648 L
130 390.379 L
130 390.245 L
130 389.843 L
130 389.574 L
130 388.903 L
130 388.501 L
130 387.562 L
130 387.293 L
130 387.159 L
130 386.622 L
130 385.951 L
130 385.549 L
130 385.281 L
130 385.012 L
130 384.341 L
130 383.939 L
130 383.536 L
130 382.865 L
130 381.792 L
130 381.389 L
130 380.987 L
130 380.45 L
130 380.45 L
130 380.047 L
130 379.108 L
130 378.706 L
130 377.901 L
130 377.498 L
130 376.693 L
130 376.022 L
130 375.62 L
130 374.814 L
130 373.741 L
130 372.802 L
130 371.863 L
130 371.192 L
130 369.984 L
130 368.776 L
130 368.24 L
130 367.3 L
130 366.361 L
130 366.093 L
130 364.483 L
130 363.007 L
130 362.067 L
130 360.86 L
130 359.115 L
130 358.847 L
130 357.505 L
130 356.029 L
130 354.419 L
130 354.151 L
130 353.346 L
130 352.541 L
130 352.272 L
130 351.467 L
130 350.26 L
130 349.052 L
130 348.649 L
130 347.576 L
130 347.308 L
130 346.368 L
130 344.624 L
130 343.819 L
130 343.148 L
130 341.806 L
130 340.464 L
130 339.391 L
130 338.72 L
130 337.378 L
130 336.305 L
130 335.5 L
130 333.89 L
130 333.219 L
130 332.279 L
130 331.072 L
130 330.535 L
130 329.864 L
130 329.059 L
130 327.986 L
130 326.912 L
130 326.241 L
130 324.497 L
130 322.887 L
130 322.082 L
130 321.008 L
130 320.74 L
130 320.337 L
130 319.264 L
130 317.922 L
130 316.715 L
130 315.641 L
130 314.836 L
130 313.763 L
130 312.823 L
130 311.213 L
130 310.006 L
130 308.261 L
130 307.724 L
130 306.517 L
130 305.578 L
130 304.236 L
130 303.297 L
130 302.223 L
130 299.942 L
130 299.405 L
130 298.466 L
130 296.99 L
130 296.185 L
130 294.441 L
130 292.965 L
130 292.428 L
130 291.22 L
130 288.671 L
130 287.463 L
130 286.121 L
130 284.511 L
130 283.438 L
130 282.633 L
130 280.754 L
130 279.547 L
130 277.802 L
130 275.79 L
130 274.045 L
130 273.24 L
130 272.033 L
130 270.825 L
130 269.081 L
130 266.263 L
130 263.579 L
130 262.506 L
130 260.627 L
130 259.42 L
130 257.81 L
130 256.065 L
130 254.992 L
130 253.247 L
130 251.503 L
130 249.356 L
130 247.746 L
130 246.404 L
130 245.062 L
130 243.989 L
130 243.452 L
130 241.574 L
130 240.232 L
130 238.085 L
130 236.609 L
130 234.999 L
130 233.657 L
130 231.108 L
130 229.498 L
130 228.156 L
130 226.411 L
130.003 223.996 L
130.003 222.789 L
130.003 221.983 L
130.003 219.971 L
130.003 218.226 L
130.003 216.348 L
130.005 214.604 L
130.008 213.128 L
130.008 212.591 L
130.008 210.31 L
130.008 209.236 L
130.008 207.224 L
130.011 206.687 L
130.019 205.748 L
130.029 204.54 L
130.034 203.467 L
130.04 202.259 L
130.042 200.38 L
130.042 197.697 L
130.048 195.953 L
130.05 194.477 L
130.05 193.94 L
130.053 192.866 L
130.058 190.719 L
130.061 188.975 L
130.066 186.962 L
130.074 184.547 L
130.079 183.608 L
130.087 181.595 L
130.09 179.448 L
130.106 177.972 L
130.111 175.96 L
130.117 174.35 L
130.133 173.679 L
130.143 172.471 L
130.162 170.727 L
130.172 169.385 L
130.186 168.043 L
130.188 165.762 L
130.196 164.554 L
130.204 164.018 L
130.212 162.676 L
130.231 161.468 L
130.26 159.992 L
130.286 158.785 L
130.31 157.174 L
130.337 156.235 L
130.358 155.296 L
130.371 154.625 L
130.395 153.686 L
130.413 152.076 L
130.448 150.6 L
130.48 149.795 L
130.514 149.392 L
130.541 148.319 L
130.572 147.111 L
130.617 146.172 L
130.67 144.562 L
130.729 143.757 L
130.755 143.086 L
130.835 141.744 L
130.906 140.536 L
130.967 139.463 L
131.065 138.255 L
131.145 136.779 L
131.227 136.377 L
131.328 135.169 L
131.428 134.364 L
131.54 132.62 L
131.696 131.68 L
131.81 130.607 L
131.937 129.399 L
132.035 129.265 L
132.215 128.326 L
132.372 127.387 L
132.555 126.313 L
132.759 124.971 L
132.997 123.764 L
133.109 122.959 L
133.344 122.019 L
133.594 120.409 L
133.869 119.604 L
134.121 118.665 L
134.442 117.323 L
134.614 116.786 L
134.995 115.981 L
135.319 115.713 L
135.735 114.774 L
136.101 113.298 L
136.564 111.956 L
136.999 110.48 L
137.229 109.675 L
137.632 108.736 L
138.231 108.601 L
138.759 107.796 L
139.363 107.26 L
139.959 106.052 L
140.346 105.113 L
140.998 104.308 L
141.745 103.502 L
142.599 102.161 L
143.325 101.221 L
144.181 100.416 L
144.737 100.014 L
145.641 99.209 L
146.637 98.269 L
147.605 97.733 L
148.569 97.062 L
149.677 96.391 L
150.912 96.123 L
151.704 95.586 L
152.968 94.781 L
154.503 93.573 L
155.931 92.768 L
157.513 92.366 L
159.132 91.829 L
160.2 91.56 L
161.918 90.755 L
163.688 89.95 L
165.736 89.145 L
167.486 88.34 L
169.553 87.938 L
171.935 87.267 L
173.183 86.596 L
175.595 85.657 L
177.927 85.254 L
180.405 84.851 L
183.018 83.912 L
185.806 83.51 L
187.412 83.241 L
190.075 82.973 L
193.419 82.302 L
195.942 82.034 L
199.355 81.229 L
202.612 80.289 L
204.528 79.35 L
208.268 79.082 L
211.965 78.411 L
215.468 78.277 L
219.642 77.472 L
223.742 76.532 L
227.616 76.264 L
230.46 75.861 L
234.787 75.056 L
239.621 74.788 L
244.097 74.251 L
248.984 73.849 L
253.436 73.715 L
256.847 73.312 L
261.847 72.909 L
267.312 72.373 L
272.636 71.568 L
278.339 70.897 L
283.475 70.763 L
287.439 70.226 L
293.455 70.226 L
299.834 69.957 L
305.966 69.823 L
312.085 69.421 L
318.829 68.616 L
325.489 68.079 L
329.986 67.676 L
336.733 67.274 L
343.242 66.737 L
350.368 66.2 L
357.749 65.53 L
365.275 65.261 L
370.262 65.127 L
377.335 64.322 L
384.56 63.248 L
392.253 63.114 L
400.163 62.309 L
407.737 62.175 L
412.892 61.504 L
420.762 60.833 L
428.949 60.162 L
436.819 59.626 L
445.398 59.357 L
453.547 58.955 L
462.239 58.686 L
467.497 58.418 L
477.011 57.747 L
484.415 57.613 L
492.999 57.345 L
500.981 57.21 L
510.063 56.674 L
515.736 56.137 L
524.752 55.6 L
532.92 54.795 L
541.713 53.99 L
549.801 53.453 L
558.003 52.917 L
566.698 52.782 L
572.642 52.648 L
580.69 52.514 L
588.85 52.112 L
597.402 51.709 L
605.696 51.441 L
613.88 51.306 L
619.736 51.172 L
627.642 50.501 L
635.083 50.501 L
642.872 50.099 L
650.719 49.562 L
658.306 49.562 L
663.723 49.294 L
671.49 49.025 L
678.637 49.025 L
685.618 48.891 L
693.266 48.757 L
700.291 48.355 L
707.253 48.22 L
712.296 47.952 L
718.807 47.818 L
725.721 47.549 L
732.079 47.415 L
738.561 47.415 L
744.892 47.147 L
749.215 47.013 L
755.355 46.879 L
761.209 46.879 L
766.816 46.744 L
772.064 46.61 L
777.663 46.61 L
781.482 46.61 L
786.713 46.476 L
791.653 46.476 L
796.595 46.476 L
801.281 46.342 L
805.539 46.342 L
810.066 46.342 L
813.323 46.342 L
817.43 46.208 L
821.477 46.208 L
825.288 46.208 L
829.157 46.208 L
833.061 46.208 L
835.66 45.939 L
839.103 45.537 L
842.315 45.537 L
845.166 45.537 L
848.124 45.537 L
851.116 45.268 L
853.284 45.268 L
855.793 45.268 L
858.377 45.268 L
860.579 45.268 L
862.972 45.134 L
865.275 45.134 L
867.443 45.134 L
869.115 45.134 L
870.885 45 L
872.605 45 L
874.471 45 L
876.167 45 L
877.852 45 L
879.178 45 L
880.677 45 L
882 45 L
883.309 45 L
884.748 45 L
885.858 45 L
887.038 45 L
887.872 45 L
888.943 45 L
889.852 45 L
890.793 45 L
891.787 45 L
892.629 45 L
893.226 45 L
894.005 45 L
894.699 45 L
895.391 45 L
896.08 45 L
896.711 45 L
897.119 45 L
897.604 45 L
898.115 45 L
898.632 45 L
899.125 45 L
899.536 45 L
899.986 45 L
899.986 45 L
900.5 45 L
900.887 45 L
901.168 45 L
901.425 45 L
901.732 45 L
901.886 45 L
902.135 45 L
902.334 45 L
902.557 45 L
902.747 45 L
902.898 45 L
902.999 45 L
903.15 45 L
903.272 45 L
903.415 45 L
903.55 45 L
903.659 45 L
903.749 45 L
903.818 45 L
903.945 45 L
904.004 45 L
904.094 45 L
904.189 45 L
904.242 45 L
904.292 45 L
904.337 45 L
904.391 45 L
904.428 45 L
904.473 45 L
904.526 45 L
904.552 45 L
904.576 45 L
904.621 45 L
904.642 45 L
904.671 45 L
904.69 45 L
904.724 45 L
904.746 45 L
904.764 45 L
904.777 45 L
904.793 45 L
904.815 45 L
904.836 45 L
904.846 45 L
904.859 45 L
904.873 45 L
904.889 45 L
904.889 45 L
904.894 45 L
904.899 45 L
904.902 45 L
904.918 45 L
904.928 45 L
904.936 45 L
904.947 45 L
904.947 45 L
904.95 45 L
904.952 45 L
904.958 45 L
904.963 45 L
904.971 45 L
904.976 45 L
904.976 45 L
904.976 45 L
904.981 45 L
904.981 45 L
904.981 45 L
904.981 45 L
904.981 45 L
904.981 45 L
904.981 45 L
904.981 45 L
904.981 45 L
904.981 45 L
904.984 45 L
904.984 45 L
904.984 45 L
904.987 45 L
904.987 45 L
904.987 45 L
904.989 45 L
904.992 45 L
904.995 45 L
904.995 45 L
904.997 45 L
904.997 45 L
904.997 45 L
904.997 45 L
905 45 L
S
GR
GS
[1 0 0 1 440 224.82001] CT
/Helvetica 24 F
GS
[1 0 0 1 0 0] CT
0 8.5 moveto 
1 -1 scale
(EER line) t 
GR
GR
GS
[10 6] 0 setdash
2 LJ
0.5 LW
N
905 531 M
130 45 L
S
GR
GS
1 GC
N
897 523 M
897 401 L
226 401 L
226 523 L
cp
f
GR
GS
[1 0 0 1 263 417.5679] CT
/Helvetica 24 F
GS
[1 0 0 1 0 0] CT
0 8.5 moveto 
1 -1 scale
(original OSIRIS, EER = 24.72%) t 
GR
GR
GS
0 0 1 RC
1 LJ
2 LW
N
230 417.568 M
260 417.568 L
S
GR
GS
[1 0 0 1 263 447.1893] CT
/Helvetica 24 F
GS
[1 0 0 1 0 0] CT
0 8.5 moveto 
1 -1 scale
(IriCore, EER = 14.36%) t 
GR
GR
GS
0 1 0 RC
1 LJ
2 LW
N
230 447.189 M
260 447.189 L
S
GR
GS
[1 0 0 1 263 476.8107] CT
/Helvetica 24 F
GS
[1 0 0 1 0 0] CT
0 8.5 moveto 
1 -1 scale
(OSIRIS with new segmentation, EER = 9.99%) t 
GR
GR
GS
1 LJ
2 LW
N
230 476.811 M
260 476.811 L
S
GR
GS
[1 0 0 1 263 506.4321] CT
/Helvetica 24 F
GS
[1 0 0 1 0 0] CT
0 8.5 moveto 
1 -1 scale
(OSIRIS with new segmentation and filter set, EER = 7.78%) t 
GR
GR
GS
1 0 0 RC
1 LJ
2 LW
N
230 506.432 M
260 506.432 L
S
GR
GS
0.149 GC
10.0 ML
0.5 LW
N
226 523 M
226 401 L
897 401 L
897 523 L
cp
S
GR
%%Trailer
%%Pages: 1
%%EOF
