%!PS-Adobe-3.0 EPSF-3.0
%%Creator: (MATLAB, The Mathworks, Inc. Version 9.5.0.1049112 \(R2018b\) Update 3. Operating System: Mac OS X)
%%Title: ./ROCs_postmortem_seg_24.eps
%%CreationDate: 2019-06-16T12:43:50
%%Pages: (atend)
%%BoundingBox:    51     6   908   564
%%LanguageLevel: 3
%%EndComments
%%BeginProlog
%%BeginResource: procset (Apache XML Graphics Std ProcSet) 1.2 0
%%Version: 1.2 0
%%Copyright: (Copyright 2001-2003,2010 The Apache Software Foundation. License terms: http://www.apache.org/licenses/LICENSE-2.0)
/bd{bind def}bind def
/ld{load def}bd
/GR/grestore ld
/GS/gsave ld
/RM/rmoveto ld
/C/curveto ld
/t/show ld
/L/lineto ld
/ML/setmiterlimit ld
/CT/concat ld
/f/fill ld
/N/newpath ld
/S/stroke ld
/CC/setcmykcolor ld
/A/ashow ld
/cp/closepath ld
/RC/setrgbcolor ld
/LJ/setlinejoin ld
/GC/setgray ld
/LW/setlinewidth ld
/M/moveto ld
/re {4 2 roll M
1 index 0 rlineto
0 exch rlineto
neg 0 rlineto
cp } bd
/_ctm matrix def
/_tm matrix def
/BT { _ctm currentmatrix pop matrix _tm copy pop 0 0 moveto } bd
/ET { _ctm setmatrix } bd
/iTm { _ctm setmatrix _tm concat } bd
/Tm { _tm astore pop iTm 0 0 moveto } bd
/ux 0.0 def
/uy 0.0 def
/F {
  /Tp exch def
  /Tf exch def
  Tf findfont Tp scalefont setfont
  /cf Tf def  /cs Tp def
} bd
/ULS {currentpoint /uy exch def /ux exch def} bd
/ULE {
  /Tcx currentpoint pop def
  gsave
  newpath
  cf findfont cs scalefont dup
  /FontMatrix get 0 get /Ts exch def /FontInfo get dup
  /UnderlinePosition get Ts mul /To exch def
  /UnderlineThickness get Ts mul /Tt exch def
  ux uy To add moveto  Tcx uy To add lineto
  Tt setlinewidth stroke
  grestore
} bd
/OLE {
  /Tcx currentpoint pop def
  gsave
  newpath
  cf findfont cs scalefont dup
  /FontMatrix get 0 get /Ts exch def /FontInfo get dup
  /UnderlinePosition get Ts mul /To exch def
  /UnderlineThickness get Ts mul /Tt exch def
  ux uy To add cs add moveto Tcx uy To add cs add lineto
  Tt setlinewidth stroke
  grestore
} bd
/SOE {
  /Tcx currentpoint pop def
  gsave
  newpath
  cf findfont cs scalefont dup
  /FontMatrix get 0 get /Ts exch def /FontInfo get dup
  /UnderlinePosition get Ts mul /To exch def
  /UnderlineThickness get Ts mul /Tt exch def
  ux uy To add cs 10 mul 26 idiv add moveto Tcx uy To add cs 10 mul 26 idiv add lineto
  Tt setlinewidth stroke
  grestore
} bd
/QT {
/Y22 exch store
/X22 exch store
/Y21 exch store
/X21 exch store
currentpoint
/Y21 load 2 mul add 3 div exch
/X21 load 2 mul add 3 div exch
/X21 load 2 mul /X22 load add 3 div
/Y21 load 2 mul /Y22 load add 3 div
/X22 load /Y22 load curveto
} bd
/SSPD {
dup length /d exch dict def
{
/v exch def
/k exch def
currentpagedevice k known {
/cpdv currentpagedevice k get def
v cpdv ne {
/upd false def
/nullv v type /nulltype eq def
/nullcpdv cpdv type /nulltype eq def
nullv nullcpdv or
{
/upd true def
} {
/sametype v type cpdv type eq def
sametype {
v type /arraytype eq {
/vlen v length def
/cpdvlen cpdv length def
vlen cpdvlen eq {
0 1 vlen 1 sub {
/i exch def
/obj v i get def
/cpdobj cpdv i get def
obj cpdobj ne {
/upd true def
exit
} if
} for
} {
/upd true def
} ifelse
} {
v type /dicttype eq {
v {
/dv exch def
/dk exch def
/cpddv cpdv dk get def
dv cpddv ne {
/upd true def
exit
} if
} forall
} {
/upd true def
} ifelse
} ifelse
} if
} ifelse
upd true eq {
d k v put
} if
} if
} if
} forall
d length 0 gt {
d setpagedevice
} if
} bd
/RE { % /NewFontName [NewEncodingArray] /FontName RE -
  findfont dup length dict begin
  {
    1 index /FID ne
    {def} {pop pop} ifelse
  } forall
  /Encoding exch def
  /FontName 1 index def
  currentdict definefont pop
  end
} bind def
%%EndResource
%%BeginResource: procset (Apache XML Graphics EPS ProcSet) 1.0 0
%%Version: 1.0 0
%%Copyright: (Copyright 2002-2003 The Apache Software Foundation. License terms: http://www.apache.org/licenses/LICENSE-2.0)
/BeginEPSF { %def
/b4_Inc_state save def         % Save state for cleanup
/dict_count countdictstack def % Count objects on dict stack
/op_count count 1 sub def      % Count objects on operand stack
userdict begin                 % Push userdict on dict stack
/showpage { } def              % Redefine showpage, { } = null proc
0 setgray 0 setlinecap         % Prepare graphics state
1 setlinewidth 0 setlinejoin
10 setmiterlimit [ ] 0 setdash newpath
/languagelevel where           % If level not equal to 1 then
{pop languagelevel             % set strokeadjust and
1 ne                           % overprint to their defaults.
{false setstrokeadjust false setoverprint
} if
} if
} bd
/EndEPSF { %def
count op_count sub {pop} repeat            % Clean up stacks
countdictstack dict_count sub {end} repeat
b4_Inc_state restore
} bd
%%EndResource
%FOPBeginFontDict
%%IncludeResource: font Courier-Oblique
%%IncludeResource: font Courier-BoldOblique
%%IncludeResource: font Courier-Bold
%%IncludeResource: font ZapfDingbats
%%IncludeResource: font Symbol
%%IncludeResource: font Helvetica
%%IncludeResource: font Helvetica-Oblique
%%IncludeResource: font Helvetica-Bold
%%IncludeResource: font Helvetica-BoldOblique
%%IncludeResource: font Times-Roman
%%IncludeResource: font Times-Italic
%%IncludeResource: font Times-Bold
%%IncludeResource: font Times-BoldItalic
%%IncludeResource: font Courier
%FOPEndFontDict
%%BeginResource: encoding WinAnsiEncoding
/WinAnsiEncoding [
/.notdef /.notdef /.notdef /.notdef /.notdef
/.notdef /.notdef /.notdef /.notdef /.notdef
/.notdef /.notdef /.notdef /.notdef /.notdef
/.notdef /.notdef /.notdef /.notdef /.notdef
/.notdef /.notdef /.notdef /.notdef /.notdef
/.notdef /.notdef /.notdef /.notdef /.notdef
/.notdef /.notdef /space /exclam /quotedbl
/numbersign /dollar /percent /ampersand /quotesingle
/parenleft /parenright /asterisk /plus /comma
/hyphen /period /slash /zero /one
/two /three /four /five /six
/seven /eight /nine /colon /semicolon
/less /equal /greater /question /at
/A /B /C /D /E
/F /G /H /I /J
/K /L /M /N /O
/P /Q /R /S /T
/U /V /W /X /Y
/Z /bracketleft /backslash /bracketright /asciicircum
/underscore /quoteleft /a /b /c
/d /e /f /g /h
/i /j /k /l /m
/n /o /p /q /r
/s /t /u /v /w
/x /y /z /braceleft /bar
/braceright /asciitilde /bullet /Euro /bullet
/quotesinglbase /florin /quotedblbase /ellipsis /dagger
/daggerdbl /circumflex /perthousand /Scaron /guilsinglleft
/OE /bullet /Zcaron /bullet /bullet
/quoteleft /quoteright /quotedblleft /quotedblright /bullet
/endash /emdash /asciitilde /trademark /scaron
/guilsinglright /oe /bullet /zcaron /Ydieresis
/space /exclamdown /cent /sterling /currency
/yen /brokenbar /section /dieresis /copyright
/ordfeminine /guillemotleft /logicalnot /sfthyphen /registered
/macron /degree /plusminus /twosuperior /threesuperior
/acute /mu /paragraph /middot /cedilla
/onesuperior /ordmasculine /guillemotright /onequarter /onehalf
/threequarters /questiondown /Agrave /Aacute /Acircumflex
/Atilde /Adieresis /Aring /AE /Ccedilla
/Egrave /Eacute /Ecircumflex /Edieresis /Igrave
/Iacute /Icircumflex /Idieresis /Eth /Ntilde
/Ograve /Oacute /Ocircumflex /Otilde /Odieresis
/multiply /Oslash /Ugrave /Uacute /Ucircumflex
/Udieresis /Yacute /Thorn /germandbls /agrave
/aacute /acircumflex /atilde /adieresis /aring
/ae /ccedilla /egrave /eacute /ecircumflex
/edieresis /igrave /iacute /icircumflex /idieresis
/eth /ntilde /ograve /oacute /ocircumflex
/otilde /odieresis /divide /oslash /ugrave
/uacute /ucircumflex /udieresis /yacute /thorn
/ydieresis
] def
%%EndResource
%FOPBeginFontReencode
/Courier-Oblique findfont
dup length dict begin
  {1 index /FID ne {def} {pop pop} ifelse} forall
  /Encoding WinAnsiEncoding def
  currentdict
end
/Courier-Oblique exch definefont pop
/Courier-BoldOblique findfont
dup length dict begin
  {1 index /FID ne {def} {pop pop} ifelse} forall
  /Encoding WinAnsiEncoding def
  currentdict
end
/Courier-BoldOblique exch definefont pop
/Courier-Bold findfont
dup length dict begin
  {1 index /FID ne {def} {pop pop} ifelse} forall
  /Encoding WinAnsiEncoding def
  currentdict
end
/Courier-Bold exch definefont pop
/Helvetica findfont
dup length dict begin
  {1 index /FID ne {def} {pop pop} ifelse} forall
  /Encoding WinAnsiEncoding def
  currentdict
end
/Helvetica exch definefont pop
/Helvetica-Oblique findfont
dup length dict begin
  {1 index /FID ne {def} {pop pop} ifelse} forall
  /Encoding WinAnsiEncoding def
  currentdict
end
/Helvetica-Oblique exch definefont pop
/Helvetica-Bold findfont
dup length dict begin
  {1 index /FID ne {def} {pop pop} ifelse} forall
  /Encoding WinAnsiEncoding def
  currentdict
end
/Helvetica-Bold exch definefont pop
/Helvetica-BoldOblique findfont
dup length dict begin
  {1 index /FID ne {def} {pop pop} ifelse} forall
  /Encoding WinAnsiEncoding def
  currentdict
end
/Helvetica-BoldOblique exch definefont pop
/Times-Roman findfont
dup length dict begin
  {1 index /FID ne {def} {pop pop} ifelse} forall
  /Encoding WinAnsiEncoding def
  currentdict
end
/Times-Roman exch definefont pop
/Times-Italic findfont
dup length dict begin
  {1 index /FID ne {def} {pop pop} ifelse} forall
  /Encoding WinAnsiEncoding def
  currentdict
end
/Times-Italic exch definefont pop
/Times-Bold findfont
dup length dict begin
  {1 index /FID ne {def} {pop pop} ifelse} forall
  /Encoding WinAnsiEncoding def
  currentdict
end
/Times-Bold exch definefont pop
/Times-BoldItalic findfont
dup length dict begin
  {1 index /FID ne {def} {pop pop} ifelse} forall
  /Encoding WinAnsiEncoding def
  currentdict
end
/Times-BoldItalic exch definefont pop
/Courier findfont
dup length dict begin
  {1 index /FID ne {def} {pop pop} ifelse} forall
  /Encoding WinAnsiEncoding def
  currentdict
end
/Courier exch definefont pop
%FOPEndFontReencode
%%EndProlog
%%Page: 1 1
%%PageBoundingBox: 0 0 1000 600
%%BeginPageSetup
[1 0 0 -1 0 600] CT
%%EndPageSetup
GS
1 GC
N
0 0 1000 600 re
f
GR
GS
1 GC
N
0 0 1000 600 re
f
GR
GS
1 GC
N
130 521 M
905 521 L
905 45 L
130 45 L
cp
f
GR
GS
0.873 GC
1 LJ
0.5 LW
N
130 521 M
130 45 L
S
GR
GS
0.873 GC
1 LJ
0.5 LW
N
285 521 M
285 45 L
S
GR
GS
0.873 GC
1 LJ
0.5 LW
N
440 521 M
440 45 L
S
GR
GS
0.873 GC
1 LJ
0.5 LW
N
595 521 M
595 45 L
S
GR
GS
0.873 GC
1 LJ
0.5 LW
N
750 521 M
750 45 L
S
GR
GS
0.873 GC
1 LJ
0.5 LW
N
905 521 M
905 45 L
S
GR
GS
0.873 GC
1 LJ
0.5 LW
N
905 521 M
130 521 L
S
GR
GS
0.873 GC
1 LJ
0.5 LW
N
905 425.8 M
130 425.8 L
S
GR
GS
0.873 GC
1 LJ
0.5 LW
N
905 330.6 M
130 330.6 L
S
GR
GS
0.873 GC
1 LJ
0.5 LW
N
905 235.4 M
130 235.4 L
S
GR
GS
0.873 GC
1 LJ
0.5 LW
N
905 140.2 M
130 140.2 L
S
GR
GS
0.873 GC
1 LJ
0.5 LW
N
905 45 M
130 45 L
S
GR
GS
0.149 GC
2 setlinecap
1 LJ
0.5 LW
N
130 521 M
905 521 L
S
GR
GS
0.149 GC
2 setlinecap
1 LJ
0.5 LW
N
130 45 M
905 45 L
S
GR
GS
0.149 GC
2 setlinecap
1 LJ
0.5 LW
N
130 521 M
130 513.25 L
S
GR
GS
0.149 GC
2 setlinecap
1 LJ
0.5 LW
N
285 521 M
285 513.25 L
S
GR
GS
0.149 GC
2 setlinecap
1 LJ
0.5 LW
N
440 521 M
440 513.25 L
S
GR
GS
0.149 GC
2 setlinecap
1 LJ
0.5 LW
N
595 521 M
595 513.25 L
S
GR
GS
0.149 GC
2 setlinecap
1 LJ
0.5 LW
N
750 521 M
750 513.25 L
S
GR
GS
0.149 GC
2 setlinecap
1 LJ
0.5 LW
N
905 521 M
905 513.25 L
S
GR
GS
0.149 GC
2 setlinecap
1 LJ
0.5 LW
N
130 45 M
130 52.75 L
S
GR
GS
0.149 GC
2 setlinecap
1 LJ
0.5 LW
N
285 45 M
285 52.75 L
S
GR
GS
0.149 GC
2 setlinecap
1 LJ
0.5 LW
N
440 45 M
440 52.75 L
S
GR
GS
0.149 GC
2 setlinecap
1 LJ
0.5 LW
N
595 45 M
595 52.75 L
S
GR
GS
0.149 GC
2 setlinecap
1 LJ
0.5 LW
N
750 45 M
750 52.75 L
S
GR
GS
0.149 GC
2 setlinecap
1 LJ
0.5 LW
N
905 45 M
905 52.75 L
S
GR
GS
[1 0 0 1 130 528.59998] CT
0.149 GC
/Helvetica 28 F
GS
[1 0 0 1 0 0] CT
-8 27 moveto 
1 -1 scale
(0) t 
GR
GR
GS
[1 0 0 1 285 528.59998] CT
0.149 GC
/Helvetica 28 F
GS
[1 0 0 1 0 0] CT
-19.5 27 moveto 
1 -1 scale
(0.2) t 
GR
GR
GS
[1 0 0 1 440 528.59998] CT
0.149 GC
/Helvetica 28 F
GS
[1 0 0 1 0 0] CT
-19.5 27 moveto 
1 -1 scale
(0.4) t 
GR
GR
GS
[1 0 0 1 595 528.59998] CT
0.149 GC
/Helvetica 28 F
GS
[1 0 0 1 0 0] CT
-19.5 27 moveto 
1 -1 scale
(0.6) t 
GR
GR
GS
[1 0 0 1 750 528.59998] CT
0.149 GC
/Helvetica 28 F
GS
[1 0 0 1 0 0] CT
-19.5 27 moveto 
1 -1 scale
(0.8) t 
GR
GR
GS
[1 0 0 1 905 528.59998] CT
0.149 GC
/Helvetica 28 F
GS
[1 0 0 1 0 0] CT
-8 27 moveto 
1 -1 scale
(1) t 
GR
GR
GS
[1 0 0 1 517.50037 562.59998] CT
0.149 GC
/Helvetica 30.8 F
GS
[1 0 0 1 0 0] CT
-120.5 30 moveto 
1 -1 scale
(False Match Rate) t 
GR
GR
GS
0.149 GC
2 setlinecap
1 LJ
0.5 LW
N
130 521 M
130 45 L
S
GR
GS
0.149 GC
2 setlinecap
1 LJ
0.5 LW
N
905 521 M
905 45 L
S
GR
GS
0.149 GC
2 setlinecap
1 LJ
0.5 LW
N
130 521 M
137.75 521 L
S
GR
GS
0.149 GC
2 setlinecap
1 LJ
0.5 LW
N
130 425.8 M
137.75 425.8 L
S
GR
GS
0.149 GC
2 setlinecap
1 LJ
0.5 LW
N
130 330.6 M
137.75 330.6 L
S
GR
GS
0.149 GC
2 setlinecap
1 LJ
0.5 LW
N
130 235.4 M
137.75 235.4 L
S
GR
GS
0.149 GC
2 setlinecap
1 LJ
0.5 LW
N
130 140.2 M
137.75 140.2 L
S
GR
GS
0.149 GC
2 setlinecap
1 LJ
0.5 LW
N
130 45 M
137.75 45 L
S
GR
GS
0.149 GC
2 setlinecap
1 LJ
0.5 LW
N
905 521 M
897.25 521 L
S
GR
GS
0.149 GC
2 setlinecap
1 LJ
0.5 LW
N
905 425.8 M
897.25 425.8 L
S
GR
GS
0.149 GC
2 setlinecap
1 LJ
0.5 LW
N
905 330.6 M
897.25 330.6 L
S
GR
GS
0.149 GC
2 setlinecap
1 LJ
0.5 LW
N
905 235.4 M
897.25 235.4 L
S
GR
GS
0.149 GC
2 setlinecap
1 LJ
0.5 LW
N
905 140.2 M
897.25 140.2 L
S
GR
GS
0.149 GC
2 setlinecap
1 LJ
0.5 LW
N
905 45 M
897.25 45 L
S
GR
GS
[1 0 0 1 122.4 521] CT
0.149 GC
/Helvetica 28 F
GS
[1 0 0 1 0 0] CT
-16 10.5 moveto 
1 -1 scale
(0) t 
GR
GR
GS
[1 0 0 1 122.4 425.79999] CT
0.149 GC
/Helvetica 28 F
GS
[1 0 0 1 0 0] CT
-39 10.5 moveto 
1 -1 scale
(0.2) t 
GR
GR
GS
[1 0 0 1 122.4 330.60001] CT
0.149 GC
/Helvetica 28 F
GS
[1 0 0 1 0 0] CT
-39 10.5 moveto 
1 -1 scale
(0.4) t 
GR
GR
GS
[1 0 0 1 122.4 235.39999] CT
0.149 GC
/Helvetica 28 F
GS
[1 0 0 1 0 0] CT
-39 10.5 moveto 
1 -1 scale
(0.6) t 
GR
GR
GS
[1 0 0 1 122.4 140.2] CT
0.149 GC
/Helvetica 28 F
GS
[1 0 0 1 0 0] CT
-39 10.5 moveto 
1 -1 scale
(0.8) t 
GR
GR
GS
[1 0 0 1 122.4 45] CT
0.149 GC
/Helvetica 28 F
GS
[1 0 0 1 0 0] CT
-16 10.5 moveto 
1 -1 scale
(1) t 
GR
GR
GS
[0 -1 1 0 80.39999 282.99979] CT
0.149 GC
/Helvetica 30.8 F
GS
[1 0 0 1 0 0] CT
-178 -7 moveto 
1 -1 scale
(1 - False Non-Match Rate) t 
GR
GR
GS
0 0 1 RC
1 LJ
3 LW
N
130 520.189 M
130 520.189 L
130 520.189 L
130 520.189 L
130 520.189 L
130 520.189 L
130 520.189 L
130 520.189 L
130 520.189 L
130 520.189 L
130 520.189 L
130 520.189 L
130 520.189 L
130 520.189 L
130 520.189 L
130 520.189 L
130 520.189 L
130 520.189 L
130 520.189 L
130 520.189 L
130 520.189 L
130 520.189 L
130 520.189 L
130 520.189 L
130 520.189 L
130 520.189 L
130 520.189 L
130 520.189 L
130 520.189 L
130 520.189 L
130 520.189 L
130 520.189 L
130 520.189 L
130 520.189 L
130 520.189 L
130 520.189 L
130 520.189 L
130 520.189 L
130 520.189 L
130 520.189 L
130 520.189 L
130 520.189 L
130 520.189 L
130 520.189 L
130 520.189 L
130 520.189 L
130 520.189 L
130 520.189 L
130 520.189 L
130 520.189 L
130 520.189 L
130 520.189 L
130 520.189 L
130 520.189 L
130 520.189 L
130 520.189 L
130 520.189 L
130 520.189 L
130 520.189 L
130 520.189 L
130 520.189 L
130 520.189 L
130 520.189 L
130 520.189 L
130 520.189 L
130 520.189 L
130 520.189 L
130 520.189 L
130 520.189 L
130 520.189 L
130 520.189 L
130 520.189 L
130 520.189 L
130 520.189 L
130 520.189 L
130 520.189 L
130 520.189 L
130 520.189 L
130 520.189 L
130 520.189 L
130 520.189 L
130 520.189 L
130 520.189 L
130 520.189 L
130 520.189 L
130 520.189 L
130 520.189 L
130 520.189 L
130 520.189 L
130 520.189 L
130 520.189 L
130 520.189 L
130 520.189 L
130 520.189 L
130 520.189 L
130 520.189 L
130 520.189 L
130 520.189 L
130 520.189 L
130 520.189 L
130 520.189 L
130 520.189 L
130 520.189 L
130 520.189 L
130 520.189 L
130 520.189 L
130 520.189 L
130 520.189 L
130 520.189 L
130 520.189 L
130 520.189 L
130 520.189 L
130 520.189 L
130 520.189 L
130 520.189 L
130 520.189 L
130 520.189 L
130 520.189 L
130 520.189 L
130 520.189 L
130 520.189 L
130 520.189 L
130 520.189 L
130 520.189 L
130 520.189 L
130 520.189 L
130 520.189 L
130 520.189 L
130 520.189 L
130 520.189 L
130 520.189 L
130 520.189 L
130 520.189 L
130 520.189 L
130 520.189 L
130 520.189 L
130 520.189 L
130 520.189 L
130 520.189 L
130 520.189 L
130 520.189 L
130 520.189 L
130 520.189 L
130 520.189 L
130 520.189 L
130 520.189 L
130 520.189 L
130 520.189 L
130 520.189 L
130 520.189 L
130 520.189 L
130 520.189 L
130 520.189 L
130 520.189 L
130 520.189 L
130 520.189 L
130 520.189 L
130 520.189 L
130 520.189 L
130 520.189 L
130 520.189 L
130 520.189 L
130 520.189 L
130 520.189 L
130 520.189 L
130 520.189 L
130 520.189 L
130 520.189 L
130 520.189 L
130 520.189 L
130 520.189 L
130 520.189 L
130 520.189 L
130 520.189 L
130 520.189 L
130 520.189 L
130 520.189 L
130 520.189 L
130 520.189 L
130 520.189 L
130 520.189 L
130 520.189 L
130 520.189 L
130 520.189 L
130 520.189 L
130 520.189 L
130 520.189 L
130 520.189 L
130 520.189 L
130 520.189 L
130 520.189 L
130 520.189 L
130 520.189 L
130 520.189 L
130 520.189 L
130 520.189 L
130 520.189 L
130 519.378 L
130 518.567 L
130 518.567 L
130 518.567 L
130 518.567 L
130 518.567 L
130 516.945 L
130 516.945 L
130 516.135 L
130 515.324 L
130 515.324 L
130 515.324 L
130 515.324 L
130 515.324 L
130 515.324 L
130 515.324 L
130 513.702 L
130 512.891 L
130 512.891 L
130 512.08 L
130 512.08 L
130 512.08 L
130 512.08 L
130 512.08 L
130 511.269 L
130 509.647 L
130 508.026 L
130 508.026 L
130 508.026 L
130 508.026 L
130 507.215 L
130 505.593 L
130 504.782 L
130 503.971 L
130 503.16 L
130 503.16 L
130 503.16 L
130 503.16 L
130 503.16 L
130 502.349 L
130 501.538 L
130 500.727 L
130 500.727 L
130 500.727 L
130 499.106 L
130 497.484 L
130 496.673 L
130 495.051 L
130 494.24 L
130 493.429 L
130 489.375 L
130 486.131 L
130 483.698 L
130 481.266 L
130 478.833 L
130 478.022 L
130 478.022 L
130 477.211 L
130 476.4 L
130 476.4 L
130 475.589 L
130 475.589 L
130 473.968 L
130 471.535 L
130 470.724 L
130 469.913 L
130 469.102 L
130 465.859 L
130 464.237 L
130 463.426 L
130 461.804 L
130 461.804 L
130 460.182 L
130 458.56 L
130 456.939 L
130 456.939 L
130 456.939 L
130 456.128 L
130 456.128 L
130 455.317 L
130 454.506 L
130 453.695 L
130 452.884 L
130 452.073 L
130 450.451 L
130 446.397 L
130 444.775 L
130 443.964 L
130 443.153 L
130 440.721 L
130 439.91 L
130 439.099 L
130 438.288 L
130 438.288 L
130 438.288 L
130 437.477 L
130 436.666 L
130 435.044 L
130 435.044 L
130 435.044 L
130 432.612 L
130 432.612 L
130 432.612 L
130 430.99 L
130 430.179 L
130 429.368 L
130 427.746 L
130 426.935 L
130 426.124 L
130 422.07 L
130 422.07 L
130 422.07 L
130 421.259 L
130 420.448 L
130 417.204 L
130 415.583 L
130 413.961 L
130 412.339 L
130 410.717 L
130 409.095 L
130 408.284 L
130 404.23 L
130 401.797 L
130 401.797 L
130 400.175 L
130 399.365 L
130 399.365 L
130 397.743 L
130 397.743 L
130 396.932 L
130 396.932 L
130 394.499 L
130 391.256 L
130 391.256 L
130 389.634 L
130 388.012 L
130 386.39 L
130 384.768 L
130 383.957 L
130 382.336 L
130 380.714 L
130 376.659 L
130 374.227 L
130 372.605 L
130 371.794 L
130 370.983 L
130 370.172 L
130 368.55 L
130 366.118 L
130 362.063 L
130 358.009 L
130 357.198 L
130 357.198 L
130 356.387 L
130 354.765 L
130 353.954 L
130 351.521 L
130 348.278 L
130 347.467 L
130 345.034 L
130 343.412 L
130 342.601 L
130 341.79 L
130 340.169 L
130 338.547 L
130 338.547 L
130 337.736 L
130 336.925 L
130 336.114 L
130 336.114 L
130 335.303 L
130 333.681 L
130 332.871 L
130 332.06 L
130 329.627 L
130 329.627 L
130 329.627 L
130 328.816 L
130 326.383 L
130 325.572 L
130 323.14 L
130 322.329 L
130 319.085 L
130 317.463 L
130 316.652 L
130 316.652 L
130 315.842 L
130 314.22 L
130 314.22 L
130 310.976 L
130 310.165 L
130 308.543 L
130 307.733 L
130 305.3 L
130 300.434 L
130 299.624 L
130 298.813 L
130 296.38 L
130 295.569 L
130 294.758 L
130 294.758 L
130 293.947 L
130 293.136 L
130 293.136 L
130 291.514 L
130 289.893 L
130 289.893 L
130 289.082 L
130 288.271 L
130 285.838 L
130 283.405 L
130 281.784 L
130 280.973 L
130 279.351 L
130 279.351 L
130 277.729 L
130 276.918 L
130 275.296 L
130 275.296 L
130 272.053 L
130 271.242 L
130 271.242 L
130 271.242 L
130 269.62 L
130 268.809 L
130 267.187 L
130 266.376 L
130 265.566 L
130 265.566 L
130 263.944 L
130 263.133 L
130 261.511 L
130 260.7 L
130 260.7 L
130 259.889 L
130 259.078 L
130 258.267 L
130 258.267 L
130 257.457 L
130 255.835 L
130 253.402 L
130 253.402 L
130 250.969 L
130 250.969 L
130 249.348 L
130 249.348 L
130 247.726 L
130 247.726 L
130 247.726 L
130 246.915 L
130 246.104 L
130 246.104 L
130 245.293 L
130 243.671 L
130 242.049 L
130 238.806 L
130 238.806 L
130 237.995 L
130 236.373 L
130 235.562 L
130 235.562 L
130 233.129 L
130 233.129 L
130 232.319 L
130 232.319 L
130 231.508 L
130 231.508 L
130 231.508 L
130 230.697 L
130 230.697 L
130 229.886 L
130 229.886 L
130 229.886 L
130 229.886 L
130 229.886 L
130 229.886 L
130 229.886 L
130 229.886 L
130 229.075 L
130 227.453 L
130 226.642 L
130 225.831 L
130 225.831 L
130 225.02 L
130 225.02 L
130 224.21 L
130 223.399 L
130 223.399 L
130 223.399 L
130 223.399 L
130 223.399 L
130 221.777 L
130 220.155 L
130 219.344 L
130 218.533 L
130 217.722 L
130 217.722 L
130 217.722 L
130 217.722 L
130 216.911 L
130 215.29 L
130 215.29 L
130 215.29 L
130 215.29 L
130 215.29 L
130 214.479 L
130 214.479 L
130 214.479 L
130 214.479 L
130 212.046 L
130 211.235 L
130 211.235 L
130 211.235 L
130 210.424 L
130 209.613 L
130 208.802 L
130 208.802 L
130 207.181 L
130 207.181 L
130 206.37 L
130 206.37 L
130 204.748 L
130 204.748 L
130 204.748 L
130 204.748 L
130 203.937 L
130 203.937 L
130 203.126 L
130 203.126 L
130 203.126 L
130 203.126 L
130 203.126 L
130 203.126 L
130 202.315 L
130 202.315 L
130 202.315 L
130 201.504 L
130 201.504 L
130.013 201.504 L
130.013 200.693 L
130.013 200.693 L
130.013 199.882 L
130.013 199.882 L
130.013 199.882 L
130.013 199.882 L
130.013 199.072 L
130.013 198.261 L
130.013 198.261 L
130.013 196.639 L
130.013 195.828 L
130.013 195.017 L
130.013 195.017 L
130.013 195.017 L
130.013 195.017 L
130.013 195.017 L
130.013 194.206 L
130.013 194.206 L
130.013 194.206 L
130.013 194.206 L
130.013 194.206 L
130.013 194.206 L
130.013 193.395 L
130.013 193.395 L
130.013 192.584 L
130.013 190.152 L
130.025 189.341 L
130.038 189.341 L
130.038 188.53 L
130.038 187.719 L
130.051 186.908 L
130.051 186.908 L
130.064 186.908 L
130.076 186.097 L
130.076 185.286 L
130.076 184.475 L
130.076 182.854 L
130.076 182.854 L
130.076 182.043 L
130.076 182.043 L
130.076 182.043 L
130.089 182.043 L
130.089 182.043 L
130.102 182.043 L
130.127 182.043 L
130.127 181.232 L
130.14 181.232 L
130.14 180.421 L
130.14 180.421 L
130.14 179.61 L
130.14 179.61 L
130.14 178.799 L
130.14 177.988 L
130.14 177.988 L
130.153 177.988 L
130.178 177.177 L
130.191 177.177 L
130.217 177.177 L
130.242 177.177 L
130.255 176.366 L
130.255 175.555 L
130.28 174.744 L
130.293 174.744 L
130.306 174.744 L
130.318 174.744 L
130.369 174.744 L
130.395 173.934 L
130.408 172.312 L
130.459 172.312 L
130.51 172.312 L
130.535 171.501 L
130.548 170.69 L
130.586 170.69 L
130.611 170.69 L
130.624 170.69 L
130.662 170.69 L
130.688 170.69 L
130.777 170.69 L
130.803 170.69 L
130.892 170.69 L
130.955 170.69 L
131.032 170.69 L
131.197 170.69 L
131.287 169.879 L
131.338 169.068 L
131.414 169.068 L
131.529 169.068 L
131.631 169.068 L
131.771 169.068 L
131.962 169.068 L
132.064 168.257 L
132.153 166.635 L
132.306 165.014 L
132.471 164.203 L
132.599 163.392 L
132.688 163.392 L
132.866 162.581 L
133.006 162.581 L
133.172 160.959 L
133.465 160.959 L
133.656 160.148 L
133.924 160.148 L
134.166 160.148 L
134.408 158.526 L
134.586 157.715 L
134.943 156.905 L
135.172 156.905 L
135.49 156.905 L
135.834 156.905 L
136.204 156.094 L
136.675 156.094 L
137.045 156.094 L
137.516 154.472 L
137.873 154.472 L
138.344 154.472 L
138.624 153.661 L
138.981 153.661 L
139.388 153.661 L
139.809 153.661 L
140.548 152.85 L
141.095 152.039 L
141.541 152.039 L
142.166 152.039 L
142.751 150.417 L
143.554 150.417 L
144.318 150.417 L
145.083 150.417 L
145.936 149.606 L
146.892 148.796 L
147.63 148.796 L
148.535 148.796 L
149.337 148.796 L
150.458 147.985 L
151.809 147.985 L
152.993 147.985 L
154.165 146.363 L
155.325 146.363 L
156.904 146.363 L
158.089 145.552 L
159.732 144.741 L
160.981 144.741 L
162.458 144.741 L
164.114 144.741 L
165.516 144.741 L
167.21 144.741 L
169.057 144.741 L
171.121 143.93 L
173.184 143.93 L
175.401 143.93 L
177.541 143.119 L
179.707 143.119 L
182.063 143.119 L
184.56 143.119 L
186.649 142.308 L
189.286 141.497 L
192.318 141.497 L
195.044 140.687 L
197.808 139.876 L
200.853 138.254 L
203.961 138.254 L
207.159 138.254 L
210.267 138.254 L
213.897 138.254 L
217.197 137.443 L
220.636 137.443 L
224.534 137.443 L
228.037 137.443 L
232.203 137.443 L
236.165 137.443 L
240.776 136.632 L
244.814 135.01 L
248.98 135.01 L
253.031 134.199 L
257.566 134.199 L
262.483 134.199 L
267.375 134.199 L
272.266 134.199 L
277.973 134.199 L
282.941 134.199 L
288.661 133.388 L
293.897 133.388 L
299.374 132.578 L
305.018 132.578 L
310.253 130.956 L
316.279 130.956 L
321.973 130.145 L
327.616 130.145 L
334.279 129.334 L
340.011 128.523 L
346.253 127.712 L
352.839 127.712 L
359.82 127.712 L
366.253 127.712 L
372.482 125.279 L
379.259 123.658 L
385.998 123.658 L
393.195 122.036 L
400.558 122.036 L
407.552 120.414 L
413.998 118.792 L
421.756 118.792 L
428.201 118.792 L
436.24 117.17 L
443.577 116.359 L
450.953 115.549 L
458.685 114.738 L
466.112 113.927 L
473.398 113.927 L
480.672 111.494 L
487.806 109.872 L
496.048 109.872 L
503.551 109.872 L
509.627 109.872 L
517.411 109.872 L
524.544 109.872 L
531.181 109.872 L
538.544 109.061 L
545.589 109.061 L
552.557 107.44 L
559.869 107.44 L
566.633 107.44 L
573.525 106.629 L
579.869 106.629 L
586.837 105.818 L
593.945 105.007 L
600.684 105.007 L
607.448 104.196 L
613.372 104.196 L
619.945 104.196 L
625.843 104.196 L
632.06 104.196 L
638.009 104.196 L
643.257 104.196 L
648.62 103.385 L
653.843 103.385 L
659.206 102.574 L
664.072 101.763 L
669.371 101.763 L
674.785 100.952 L
679.868 100.141 L
684.237 100.141 L
688.874 100.141 L
693.04 99.33 L
697.256 99.33 L
701.18 99.33 L
705.333 99.33 L
709.448 99.33 L
713.167 99.33 L
716.81 99.33 L
720.861 99.33 L
724.747 98.52 L
728.008 97.709 L
731.218 97.709 L
734.53 97.709 L
738.071 97.709 L
741.18 97.709 L
744.263 97.709 L
747.447 97.709 L
750.199 96.898 L
752.912 96.898 L
755.256 96.898 L
757.396 96.898 L
759.32 96.087 L
761.664 96.087 L
763.485 96.087 L
764.657 96.087 L
861.969 49.055 L
864.045 49.055 L
865.981 48.244 L
867.446 48.244 L
869.039 48.244 L
870.644 48.244 L
872.172 47.433 L
874.007 47.433 L
875.484 47.433 L
876.796 47.433 L
878.223 47.433 L
879.586 47.433 L
880.822 47.433 L
881.841 47.433 L
882.745 47.433 L
883.803 47.433 L
884.733 47.433 L
885.624 47.433 L
886.312 47.433 L
887.115 47.433 L
888.057 47.433 L
888.758 47.433 L
889.484 47.433 L
890.325 47.433 L
890.949 47.433 L
891.459 47.433 L
892.172 47.433 L
892.694 47.433 L
893.217 47.433 L
893.726 47.433 L
894.108 46.622 L
894.542 46.622 L
895.102 46.622 L
895.599 46.622 L
895.956 46.622 L
896.223 46.622 L
896.58 46.622 L
896.987 46.622 L
897.433 46.622 L
897.892 46.622 L
898.185 46.622 L
898.529 46.622 L
898.771 46.622 L
899.026 46.622 L
899.268 46.622 L
899.459 46.622 L
899.688 46.622 L
899.968 46.622 L
900.223 46.622 L
900.312 46.622 L
900.516 46.622 L
900.682 46.622 L
900.898 46.622 L
901.051 46.622 L
901.102 46.622 L
901.229 46.622 L
901.408 45.811 L
901.599 45.811 L
901.662 45.811 L
901.777 45.811 L
901.968 45.811 L
902.057 45.811 L
902.185 45.811 L
902.223 45.811 L
902.414 45.811 L
902.503 45.811 L
902.618 45.811 L
902.745 45.811 L
902.771 45.811 L
902.834 45.811 L
903.026 45.811 L
903.153 45 L
903.242 45 L
903.331 45 L
903.408 45 L
903.459 45 L
903.535 45 L
903.637 45 L
903.688 45 L
903.739 45 L
903.803 45 L
903.828 45 L
903.892 45 L
903.904 45 L
903.93 45 L
903.943 45 L
903.955 45 L
904.019 45 L
904.045 45 L
904.108 45 L
904.134 45 L
904.159 45 L
904.21 45 L
904.299 45 L
904.312 45 L
904.376 45 L
904.401 45 L
904.44 45 L
904.465 45 L
904.478 45 L
904.503 45 L
904.554 45 L
904.58 45 L
904.592 45 L
904.631 45 L
904.643 45 L
904.643 45 L
904.656 45 L
904.656 45 L
904.682 45 L
904.72 45 L
904.72 45 L
904.732 45 L
904.732 45 L
904.732 45 L
904.745 45 L
904.745 45 L
904.758 45 L
904.758 45 L
904.758 45 L
904.758 45 L
904.771 45 L
904.796 45 L
904.796 45 L
904.796 45 L
904.809 45 L
904.809 45 L
904.822 45 L
904.834 45 L
904.834 45 L
904.834 45 L
904.834 45 L
904.834 45 L
904.834 45 L
904.834 45 L
904.834 45 L
904.847 45 L
904.873 45 L
904.885 45 L
904.885 45 L
904.885 45 L
904.885 45 L
904.885 45 L
904.885 45 L
904.885 45 L
904.885 45 L
904.885 45 L
904.885 45 L
904.898 45 L
904.898 45 L
904.898 45 L
904.898 45 L
904.898 45 L
904.898 45 L
904.898 45 L
904.911 45 L
904.911 45 L
904.911 45 L
904.911 45 L
904.911 45 L
904.924 45 L
904.924 45 L
904.924 45 L
904.924 45 L
904.924 45 L
904.924 45 L
904.924 45 L
904.936 45 L
904.949 45 L
904.949 45 L
904.962 45 L
904.987 45 L
904.987 45 L
904.987 45 L
904.987 45 L
904.987 45 L
904.987 45 L
904.987 45 L
904.987 45 L
904.987 45 L
904.987 45 L
904.987 45 L
904.987 45 L
904.987 45 L
904.987 45 L
904.987 45 L
904.987 45 L
904.987 45 L
904.987 45 L
904.987 45 L
904.987 45 L
904.987 45 L
904.987 45 L
904.987 45 L
904.987 45 L
904.987 45 L
904.987 45 L
904.987 45 L
905 45 L
S
GR
GS
0 1 0 RC
1 LJ
3 LW
N
130 520.189 M
130 520.189 L
130 520.189 L
130 520.189 L
130 520.189 L
130 520.189 L
130 520.189 L
130 520.189 L
130 520.189 L
130 520.189 L
130 520.189 L
130 520.189 L
130 520.189 L
130 520.189 L
130 520.189 L
130 520.189 L
130 520.189 L
130 520.189 L
130 520.189 L
130 520.189 L
130 520.189 L
130 520.189 L
130 520.189 L
130 520.189 L
130 520.189 L
130 520.189 L
130 520.189 L
130 520.189 L
130 520.189 L
130 520.189 L
130 520.189 L
130 520.189 L
130 520.189 L
130 520.189 L
130 520.189 L
130 520.189 L
130 520.189 L
130 520.189 L
130 520.189 L
130 520.189 L
130 520.189 L
130 520.189 L
130 520.189 L
130 520.189 L
130 520.189 L
130 520.189 L
130 520.189 L
130 520.189 L
130 520.189 L
130 520.189 L
130 520.189 L
130 520.189 L
130 520.189 L
130 520.189 L
130 520.189 L
130 520.189 L
130 520.189 L
130 520.189 L
130 520.189 L
130 520.189 L
130 520.189 L
130 520.189 L
130 520.189 L
130 520.189 L
130 520.189 L
130 520.189 L
130 520.189 L
130 520.189 L
130 520.189 L
130 520.189 L
130 520.189 L
130 520.189 L
130 520.189 L
130 520.189 L
130 520.189 L
130 520.189 L
130 520.189 L
130 520.189 L
130 520.189 L
130 520.189 L
130 520.189 L
130 520.189 L
130 520.189 L
130 520.189 L
130 520.189 L
130 520.189 L
130 520.189 L
130 520.189 L
130 520.189 L
130 520.189 L
130 520.189 L
130 520.189 L
130 520.189 L
130 520.189 L
130 520.189 L
130 520.189 L
130 520.189 L
130 520.189 L
130 520.189 L
130 520.189 L
130 520.189 L
130 520.189 L
130 520.189 L
130 520.189 L
130 520.189 L
130 520.189 L
130 520.189 L
130 520.189 L
130 520.189 L
130 520.189 L
130 520.189 L
130 520.189 L
130 520.189 L
130 520.189 L
130 520.189 L
130 520.189 L
130 520.189 L
130 520.189 L
130 520.189 L
130 520.189 L
130 520.189 L
130 520.189 L
130 520.189 L
130 520.189 L
130 520.189 L
130 520.189 L
130 520.189 L
130 520.189 L
130 520.189 L
130 520.189 L
130 520.189 L
130 520.189 L
130 520.189 L
130 520.189 L
130 520.189 L
130 520.189 L
130 520.189 L
130 520.189 L
130 520.189 L
130 520.189 L
130 520.189 L
130 520.189 L
130 520.189 L
130 520.189 L
130 520.189 L
130 520.189 L
130 520.189 L
130 520.189 L
130 520.189 L
130 520.189 L
130 520.189 L
130 520.189 L
130 520.189 L
130 520.189 L
130 520.189 L
130 520.189 L
130 520.189 L
130 520.189 L
130 520.189 L
130 520.189 L
130 520.189 L
130 520.189 L
130 520.189 L
130 520.189 L
130 520.189 L
130 520.189 L
130 520.189 L
130 520.189 L
130 520.189 L
130 519.378 L
130 519.378 L
130 519.378 L
130 519.378 L
130 519.378 L
130 519.378 L
130 519.378 L
130 519.378 L
130 519.378 L
130 519.378 L
130 519.378 L
130 519.378 L
130 519.378 L
130 519.378 L
130 519.378 L
130 519.378 L
130 519.378 L
130 519.378 L
130 519.378 L
130 519.378 L
130 519.378 L
130 518.567 L
130 518.567 L
130 518.567 L
130 518.567 L
130 516.945 L
130 516.945 L
130 516.945 L
130 516.945 L
130 516.945 L
130 516.945 L
130 516.945 L
130 516.945 L
130 516.945 L
130 516.135 L
130 515.324 L
130 514.513 L
130 513.702 L
130 512.08 L
130 512.08 L
130 510.458 L
130 510.458 L
130 510.458 L
130 510.458 L
130 510.458 L
130 510.458 L
130 508.836 L
130 508.836 L
130 508.026 L
130 508.026 L
130 508.026 L
130 507.215 L
130 506.404 L
130 506.404 L
130 505.593 L
130 504.782 L
130 503.971 L
130 503.971 L
130 503.16 L
130 501.538 L
130 501.538 L
130 499.917 L
130 497.484 L
130 495.051 L
130 494.24 L
130 493.429 L
130 493.429 L
130 490.997 L
130 490.186 L
130 488.564 L
130 487.753 L
130 485.32 L
130 482.888 L
130 482.888 L
130 481.266 L
130 479.644 L
130 478.022 L
130 476.4 L
130 476.4 L
130 475.589 L
130 474.779 L
130 474.779 L
130 473.968 L
130 473.968 L
130 472.346 L
130 470.724 L
130 469.102 L
130 465.859 L
130 465.048 L
130 463.426 L
130 460.993 L
130 458.56 L
130 455.317 L
130 452.073 L
130 451.262 L
130 448.83 L
130 448.83 L
130 447.208 L
130 445.586 L
130 443.153 L
130 439.099 L
130 438.288 L
130 435.855 L
130 430.179 L
130 429.368 L
130 426.935 L
130 423.692 L
130 422.07 L
130 421.259 L
130 420.448 L
130 418.015 L
130 415.583 L
130 414.772 L
130 410.717 L
130 408.284 L
130 407.474 L
130 405.852 L
130 405.041 L
130 405.041 L
130 403.419 L
130 400.986 L
130 399.365 L
130 396.121 L
130 394.499 L
130 392.066 L
130 389.634 L
130 388.012 L
130 383.957 L
130 380.714 L
130 379.092 L
130 379.092 L
130 378.281 L
130 377.47 L
130 376.659 L
130 375.848 L
130 371.794 L
130 369.361 L
130 366.928 L
130 364.496 L
130 360.441 L
130 358.819 L
130 357.198 L
130 353.954 L
130 351.521 L
130 350.71 L
130 350.71 L
130 349.9 L
130 347.467 L
130 345.845 L
130 345.845 L
130 345.034 L
130 342.601 L
130 338.547 L
130 337.736 L
130 334.492 L
130 329.627 L
130 327.194 L
130 323.14 L
130 322.329 L
130 322.329 L
130 316.652 L
130 312.598 L
130 310.165 L
130 308.543 L
130 306.111 L
130 305.3 L
130 303.678 L
130 302.867 L
130 299.624 L
130 299.624 L
130 295.569 L
130 289.893 L
130 289.893 L
130 288.271 L
130 286.649 L
130 285.027 L
130 280.973 L
130 280.973 L
130 278.54 L
130 276.918 L
130 276.107 L
130 273.675 L
130 272.053 L
130 271.242 L
130 267.187 L
130 267.187 L
130 265.566 L
130 264.755 L
130 261.511 L
130 261.511 L
130 257.457 L
130 255.835 L
130 255.024 L
130 252.591 L
130 249.348 L
130 248.537 L
130 246.104 L
130 245.293 L
130 244.482 L
130 244.482 L
130 242.049 L
130 238.806 L
130 237.995 L
130 235.562 L
130 235.562 L
130 234.751 L
130 233.129 L
130 232.319 L
130 230.697 L
130 228.264 L
130 225.831 L
130 223.399 L
130 221.777 L
130 220.155 L
130 220.155 L
130 216.911 L
130 215.29 L
130 212.046 L
130 212.046 L
130 211.235 L
130 209.613 L
130 208.802 L
130 207.181 L
130 204.748 L
130 203.937 L
130 202.315 L
130 202.315 L
130 199.072 L
130 198.261 L
130 197.45 L
130 197.45 L
130 195.017 L
130 192.584 L
130 191.773 L
130 189.341 L
130 186.908 L
130 186.908 L
130 186.908 L
130 186.908 L
130 186.908 L
130 186.097 L
130 186.097 L
130 186.097 L
130 184.475 L
130 184.475 L
130 183.664 L
130 182.854 L
130 180.421 L
130 177.988 L
130 177.988 L
130 177.988 L
130 176.366 L
130 174.744 L
130 174.744 L
130 172.312 L
130 171.501 L
130 169.879 L
130 169.068 L
130 167.446 L
130 166.635 L
130 166.635 L
130 166.635 L
130 166.635 L
130 166.635 L
130 165.014 L
130 161.77 L
130 159.337 L
130 157.715 L
130 156.094 L
130 156.094 L
130 155.283 L
130 155.283 L
130 154.472 L
130 153.661 L
130 152.039 L
130 150.417 L
130 149.606 L
130 149.606 L
130 147.985 L
130 146.363 L
130 145.552 L
130 144.741 L
130 144.741 L
130 143.93 L
130 143.93 L
130 143.119 L
130 142.308 L
130 140.687 L
130 139.876 L
130 139.065 L
130 138.254 L
130 137.443 L
130 137.443 L
130 135.821 L
130 135.821 L
130 135.01 L
130 135.01 L
130 134.199 L
130 134.199 L
130 134.199 L
130 134.199 L
130 134.199 L
130 134.199 L
130 133.388 L
130 130.956 L
130 130.145 L
130 129.334 L
130 127.712 L
130 127.712 L
130 127.712 L
130 127.712 L
130 127.712 L
130 127.712 L
130 126.901 L
130 126.09 L
130 125.279 L
130 122.847 L
130 122.847 L
130 121.225 L
130 121.225 L
130 120.414 L
130 120.414 L
130 120.414 L
130 118.792 L
130 118.792 L
130 117.17 L
130 115.549 L
130 114.738 L
130 114.738 L
130 114.738 L
130 114.738 L
130 112.305 L
130 112.305 L
130 111.494 L
130 111.494 L
130 110.683 L
130 110.683 L
130 109.872 L
130 109.061 L
130 107.44 L
130 106.629 L
130 106.629 L
130 106.629 L
130 106.629 L
130 105.818 L
130 105.007 L
130 104.196 L
130 103.385 L
130 101.763 L
130 101.763 L
130 100.952 L
130 100.952 L
130 100.952 L
130 100.952 L
130 100.952 L
130 100.952 L
130 100.141 L
130 100.141 L
130 99.33 L
130 99.33 L
130 99.33 L
130 98.52 L
130 97.709 L
130 95.276 L
130 95.276 L
130 93.654 L
130.013 92.843 L
130.013 92.843 L
130.025 92.032 L
130.025 91.221 L
130.025 90.411 L
130.025 89.6 L
130.038 87.978 L
130.089 87.978 L
130.089 87.978 L
130.102 87.978 L
130.115 87.978 L
130.14 87.978 L
130.14 87.978 L
130.14 87.978 L
130.166 87.167 L
130.166 84.734 L
130.204 84.734 L
130.204 83.923 L
130.204 83.923 L
130.204 83.923 L
130.217 83.923 L
130.255 83.112 L
130.293 83.112 L
130.318 83.112 L
130.369 83.112 L
130.42 83.112 L
130.497 83.112 L
130.51 83.112 L
130.637 83.112 L
130.701 83.112 L
130.726 83.112 L
130.815 83.112 L
130.892 83.112 L
130.981 83.112 L
131.096 83.112 L
131.172 82.302 L
131.376 82.302 L
131.567 80.68 L
131.783 80.68 L
131.962 80.68 L
132.178 79.058 L
132.433 79.058 L
132.662 79.058 L
132.904 79.058 L
133.248 79.058 L
133.631 78.247 L
134.14 78.247 L
134.51 77.436 L
134.904 77.436 L
135.376 77.436 L
135.745 77.436 L
136.408 76.625 L
137.185 76.625 L
137.605 76.625 L
138.357 76.625 L
139.223 76.625 L
139.949 75.814 L
140.764 75.814 L
141.758 75.814 L
142.815 75.814 L
143.783 75.814 L
144.917 75.814 L
145.847 75.814 L
147.108 75.814 L
148.165 75.814 L
149.592 75.814 L
150.688 75.814 L
152.102 75.814 L
153.516 75.814 L
154.764 75.814 L
156 75.814 L
157.401 75.814 L
158.93 75.814 L
160.305 75.003 L
161.707 75.003 L
163.159 75.003 L
164.688 75.003 L
166.051 75.003 L
167.567 75.003 L
168.955 75.003 L
170.178 75.003 L
171.605 75.003 L
172.726 75.003 L
173.91 75.003 L
174.968 75.003 L
175.809 75.003 L
176.751 75.003 L
177.732 75.003 L
178.777 75.003 L
179.426 75.003 L
180.102 75.003 L
180.751 74.192 L
181.592 74.192 L
182.293 74.192 L
182.738 74.192 L
183.286 74.192 L
183.745 74.192 L
184.165 74.192 L
184.573 74.192 L
184.98 74.192 L
185.108 74.192 L
185.401 74.192 L
185.579 73.382 L
185.859 73.382 L
185.987 73.382 L
186.165 73.382 L
186.343 73.382 L
186.42 73.382 L
186.484 73.382 L
186.624 73.382 L
186.751 73.382 L
186.891 73.382 L
186.929 73.382 L
186.968 73.382 L
187.044 73.382 L
187.057 73.382 L
187.082 73.382 L
187.146 73.382 L
187.184 73.382 L
187.184 73.382 L
187.222 73.382 L
187.286 73.382 L
187.299 73.382 L
187.312 73.382 L
187.312 73.382 L
187.312 73.382 L
187.324 73.382 L
187.324 73.382 L
191.07 72.571 L
195.235 72.571 L
200.178 71.76 L
205.286 71.76 L
210.445 71.76 L
215.719 71.76 L
221.643 70.949 L
227.299 70.949 L
233.719 70.138 L
239.439 70.138 L
246.483 69.327 L
253.133 67.705 L
260.241 67.705 L
267.056 67.705 L
274.534 67.705 L
282.406 67.705 L
289.438 67.705 L
296.559 67.705 L
302.814 67.705 L
309.413 67.705 L
315.68 66.894 L
321.4 66.894 L
326.482 66.894 L
330.635 66.894 L
333.986 66.894 L
337.119 66.894 L
339.247 66.894 L
340.954 66.894 L
342.355 66.894 L
343.438 66.894 L
344.126 66.894 L
344.584 66.894 L
344.724 66.894 L
344.89 66.894 L
344.979 66.894 L
345.017 66.894 L
345.017 66.894 L
345.017 66.894 L
345.03 66.894 L
345.03 66.894 L
345.03 66.894 L
345.03 66.894 L
345.03 66.894 L
345.03 66.894 L
345.03 66.894 L
345.03 66.894 L
345.03 66.894 L
345.03 66.894 L
345.03 66.894 L
345.03 66.894 L
345.03 66.894 L
345.03 66.894 L
345.03 66.894 L
345.03 66.894 L
345.03 66.894 L
345.03 66.894 L
345.03 66.894 L
345.03 66.894 L
345.03 66.894 L
345.03 66.894 L
345.03 66.894 L
345.03 66.894 L
345.03 66.894 L
345.03 66.894 L
345.03 66.894 L
345.03 66.894 L
345.03 66.894 L
345.03 66.894 L
345.03 66.894 L
345.03 66.894 L
345.03 66.894 L
345.03 66.894 L
345.03 66.894 L
345.03 66.894 L
345.03 66.894 L
345.03 66.894 L
345.03 66.894 L
345.03 66.894 L
345.03 66.894 L
345.03 66.894 L
345.03 66.894 L
345.03 66.894 L
345.03 66.894 L
345.03 66.894 L
345.03 66.894 L
345.03 66.894 L
345.03 66.894 L
345.03 66.894 L
345.03 66.894 L
345.03 66.894 L
345.03 66.894 L
345.03 66.894 L
345.03 66.894 L
345.03 66.894 L
345.03 66.894 L
345.03 66.894 L
345.03 66.894 L
345.03 66.894 L
345.03 66.894 L
345.03 66.894 L
345.03 66.894 L
345.03 66.894 L
345.03 66.894 L
345.03 66.894 L
345.03 66.894 L
345.03 66.894 L
345.03 66.894 L
345.03 66.894 L
345.03 66.894 L
345.03 66.894 L
345.03 66.894 L
345.03 66.894 L
345.03 66.894 L
345.03 66.894 L
345.03 66.894 L
345.03 66.894 L
345.03 66.894 L
345.03 66.894 L
345.03 66.894 L
345.03 66.894 L
345.03 66.894 L
345.03 66.894 L
345.03 66.894 L
345.03 66.894 L
345.03 66.894 L
345.03 66.894 L
345.03 66.894 L
345.03 66.894 L
345.03 66.894 L
345.03 66.894 L
345.03 66.894 L
345.03 66.894 L
345.03 66.894 L
345.03 66.894 L
345.03 66.894 L
345.03 66.894 L
345.03 66.894 L
345.03 66.894 L
345.03 66.894 L
345.03 66.894 L
345.03 66.894 L
345.03 66.894 L
345.03 66.894 L
345.03 66.894 L
345.03 66.894 L
345.03 66.894 L
345.03 66.894 L
345.03 66.894 L
345.03 66.894 L
345.03 66.894 L
345.03 66.894 L
345.03 66.894 L
345.03 66.894 L
345.03 66.894 L
345.03 66.894 L
345.03 66.894 L
345.03 66.894 L
345.03 66.894 L
345.03 66.894 L
345.03 66.894 L
345.03 66.894 L
345.03 66.894 L
345.03 66.894 L
345.03 66.894 L
345.03 66.894 L
345.03 66.894 L
345.03 66.894 L
345.03 66.894 L
345.03 66.894 L
345.03 66.894 L
345.03 66.894 L
345.03 66.894 L
345.03 66.894 L
345.03 66.894 L
345.03 66.894 L
345.03 66.894 L
345.03 66.894 L
345.03 66.894 L
345.03 66.894 L
345.03 66.894 L
345.03 66.894 L
345.03 66.894 L
345.03 66.894 L
345.03 66.894 L
345.03 66.894 L
345.03 66.894 L
345.03 66.894 L
345.03 66.894 L
345.03 66.894 L
345.03 66.894 L
345.03 66.894 L
345.03 66.894 L
345.03 66.894 L
345.03 66.894 L
345.03 66.894 L
345.03 66.894 L
345.03 66.894 L
345.03 66.894 L
345.03 66.894 L
345.03 66.894 L
345.03 66.894 L
345.03 66.894 L
345.03 66.894 L
345.03 66.894 L
345.03 66.894 L
345.03 66.894 L
345.03 66.894 L
345.03 66.894 L
345.03 66.894 L
345.03 66.894 L
345.03 66.894 L
345.03 66.894 L
345.03 66.894 L
345.03 66.894 L
345.03 66.894 L
345.03 66.894 L
345.03 66.894 L
345.03 66.894 L
345.03 66.894 L
345.03 66.894 L
345.03 66.894 L
345.03 66.894 L
345.03 66.894 L
345.03 66.894 L
345.03 66.894 L
345.03 66.894 L
345.03 66.894 L
345.03 66.894 L
345.03 66.894 L
345.03 66.894 L
345.03 66.894 L
345.03 66.894 L
345.03 66.894 L
345.03 66.894 L
345.03 66.894 L
345.03 66.894 L
345.03 66.894 L
345.03 66.894 L
345.03 66.894 L
345.03 66.894 L
345.03 66.894 L
345.03 66.894 L
345.03 66.894 L
345.03 66.894 L
345.03 66.894 L
345.03 66.894 L
345.03 66.894 L
345.03 66.894 L
345.03 66.894 L
345.03 66.894 L
345.03 66.894 L
345.03 66.894 L
345.03 66.894 L
345.03 66.894 L
345.03 66.894 L
345.03 66.894 L
345.03 66.894 L
345.03 66.894 L
345.03 66.894 L
345.03 66.894 L
345.03 66.894 L
345.03 66.894 L
345.03 66.894 L
345.03 66.894 L
345.03 66.894 L
345.03 66.894 L
345.03 66.894 L
345.03 66.894 L
345.03 66.894 L
345.03 66.894 L
345.03 66.894 L
345.03 66.894 L
345.03 66.894 L
345.03 66.894 L
345.03 66.894 L
345.03 66.894 L
345.03 66.894 L
345.03 66.894 L
345.03 66.894 L
345.03 66.894 L
345.03 66.894 L
345.03 66.894 L
345.03 66.894 L
345.03 66.894 L
345.03 66.894 L
345.03 66.894 L
345.03 66.894 L
345.03 66.894 L
345.03 66.894 L
345.03 66.894 L
345.03 66.894 L
345.03 66.894 L
345.03 66.894 L
345.03 66.894 L
345.03 66.894 L
345.03 66.894 L
345.03 66.894 L
345.03 66.894 L
345.03 66.894 L
345.03 66.894 L
345.03 66.894 L
345.03 66.894 L
345.03 66.894 L
345.03 66.894 L
345.03 66.894 L
345.03 66.894 L
345.03 66.894 L
345.03 66.894 L
345.03 66.894 L
345.03 66.894 L
345.03 66.894 L
345.03 66.894 L
345.03 66.894 L
345.03 66.894 L
345.03 66.894 L
345.03 66.894 L
345.03 66.894 L
345.03 66.894 L
345.03 66.894 L
345.03 66.894 L
345.03 66.894 L
345.03 66.894 L
345.03 66.894 L
345.03 66.894 L
345.03 66.894 L
345.03 66.894 L
345.03 66.894 L
345.03 66.894 L
345.03 66.894 L
345.03 66.894 L
345.03 66.894 L
345.03 66.894 L
345.03 66.894 L
345.03 66.894 L
345.03 66.894 L
345.03 66.894 L
345.03 66.894 L
905 45 L
S
GR
GS
1 LJ
4 LW
N
130 520.189 M
130 520.189 L
130 520.189 L
130 520.189 L
130 520.189 L
130 520.189 L
130 520.189 L
130 520.189 L
130 520.189 L
130 520.189 L
130 520.189 L
130 520.189 L
130 520.189 L
130 520.189 L
130 520.189 L
130 520.189 L
130 520.189 L
130 520.189 L
130 520.189 L
130 520.189 L
130 520.189 L
130 520.189 L
130 520.189 L
130 520.189 L
130 520.189 L
130 520.189 L
130 520.189 L
130 520.189 L
130 520.189 L
130 520.189 L
130 520.189 L
130 520.189 L
130 520.189 L
130 520.189 L
130 520.189 L
130 520.189 L
130 520.189 L
130 520.189 L
130 520.189 L
130 520.189 L
130 520.189 L
130 520.189 L
130 520.189 L
130 520.189 L
130 520.189 L
130 520.189 L
130 520.189 L
130 520.189 L
130 520.189 L
130 520.189 L
130 520.189 L
130 520.189 L
130 520.189 L
130 520.189 L
130 520.189 L
130 520.189 L
130 520.189 L
130 520.189 L
130 520.189 L
130 520.189 L
130 520.189 L
130 520.189 L
130 520.189 L
130 520.189 L
130 520.189 L
130 520.189 L
130 520.189 L
130 520.189 L
130 520.189 L
130 520.189 L
130 520.189 L
130 520.189 L
130 520.189 L
130 520.189 L
130 520.189 L
130 520.189 L
130 520.189 L
130 520.189 L
130 520.189 L
130 520.189 L
130 520.189 L
130 520.189 L
130 520.189 L
130 520.189 L
130 520.189 L
130 520.189 L
130 520.189 L
130 520.189 L
130 520.189 L
130 520.189 L
130 520.189 L
130 520.189 L
130 520.189 L
130 520.189 L
130 520.189 L
130 520.189 L
130 520.189 L
130 520.189 L
130 520.189 L
130 520.189 L
130 520.189 L
130 520.189 L
130 520.189 L
130 520.189 L
130 520.189 L
130 520.189 L
130 520.189 L
130 520.189 L
130 520.189 L
130 520.189 L
130 520.189 L
130 520.189 L
130 520.189 L
130 520.189 L
130 520.189 L
130 520.189 L
130 520.189 L
130 520.189 L
130 520.189 L
130 520.189 L
130 520.189 L
130 520.189 L
130 520.189 L
130 520.189 L
130 520.189 L
130 520.189 L
130 520.189 L
130 520.189 L
130 520.189 L
130 520.189 L
130 520.189 L
130 520.189 L
130 520.189 L
130 520.189 L
130 520.189 L
130 520.189 L
130 520.189 L
130 520.189 L
130 520.189 L
130 520.189 L
130 520.189 L
130 520.189 L
130 520.189 L
130 520.189 L
130 520.189 L
130 520.189 L
130 520.189 L
130 520.189 L
130 520.189 L
130 520.189 L
130 520.189 L
130 520.189 L
130 520.189 L
130 520.189 L
130 520.189 L
130 520.189 L
130 520.189 L
130 520.189 L
130 520.189 L
130 520.189 L
130 520.189 L
130 520.189 L
130 520.189 L
130 520.189 L
130 520.189 L
130 520.189 L
130 520.189 L
130 520.189 L
130 520.189 L
130 520.189 L
130 520.189 L
130 520.189 L
130 520.189 L
130 520.189 L
130 520.189 L
130 520.189 L
130 520.189 L
130 520.189 L
130 520.189 L
130 520.189 L
130 520.189 L
130 520.189 L
130 520.189 L
130 520.189 L
130 520.189 L
130 520.189 L
130 520.189 L
130 519.378 L
130 519.378 L
130 519.378 L
130 519.378 L
130 519.378 L
130 519.378 L
130 519.378 L
130 519.378 L
130 519.378 L
130 519.378 L
130 519.378 L
130 519.378 L
130 519.378 L
130 519.378 L
130 519.378 L
130 519.378 L
130 519.378 L
130 518.567 L
130 518.567 L
130 518.567 L
130 518.567 L
130 518.567 L
130 518.567 L
130 518.567 L
130 518.567 L
130 518.567 L
130 518.567 L
130 518.567 L
130 518.567 L
130 517.756 L
130 517.756 L
130 517.756 L
130 517.756 L
130 517.756 L
130 517.756 L
130 516.945 L
130 516.945 L
130 516.945 L
130 516.945 L
130 515.324 L
130 515.324 L
130 515.324 L
130 513.702 L
130 513.702 L
130 513.702 L
130 513.702 L
130 513.702 L
130 512.891 L
130 512.891 L
130 512.08 L
130 511.269 L
130 510.458 L
130 510.458 L
130 508.026 L
130 506.404 L
130 506.404 L
130 506.404 L
130 506.404 L
130 506.404 L
130 506.404 L
130 505.593 L
130 504.782 L
130 503.16 L
130 502.349 L
130 501.538 L
130 501.538 L
130 501.538 L
130 501.538 L
130 501.538 L
130 501.538 L
130 500.727 L
130 500.727 L
130 499.917 L
130 499.917 L
130 499.917 L
130 499.917 L
130 499.917 L
130 499.917 L
130 498.295 L
130 496.673 L
130 495.862 L
130 495.051 L
130 493.429 L
130 493.429 L
130 493.429 L
130 493.429 L
130 491.807 L
130 490.186 L
130 489.375 L
130 488.564 L
130 488.564 L
130 487.753 L
130 486.131 L
130 485.32 L
130 484.509 L
130 482.888 L
130 482.077 L
130 479.644 L
130 477.211 L
130 475.589 L
130 473.157 L
130 472.346 L
130 472.346 L
130 470.724 L
130 470.724 L
130 468.291 L
130 467.48 L
130 465.048 L
130 464.237 L
130 462.615 L
130 462.615 L
130 462.615 L
130 460.182 L
130 458.56 L
130 457.75 L
130 456.939 L
130 456.128 L
130 453.695 L
130 452.073 L
130 448.83 L
130 446.397 L
130 446.397 L
130 445.586 L
130 443.964 L
130 443.153 L
130 438.288 L
130 438.288 L
130 435.044 L
130 435.044 L
130 432.612 L
130 430.99 L
130 429.368 L
130 428.557 L
130 426.124 L
130 426.124 L
130 423.692 L
130 422.07 L
130 420.448 L
130 420.448 L
130 419.637 L
130 418.826 L
130 416.394 L
130 415.583 L
130 410.717 L
130 409.095 L
130 408.284 L
130 406.663 L
130 405.852 L
130 402.608 L
130 401.797 L
130 401.797 L
130 401.797 L
130 399.365 L
130 398.554 L
130 396.932 L
130 394.499 L
130 393.688 L
130 392.066 L
130 391.256 L
130 391.256 L
130 390.445 L
130 390.445 L
130 389.634 L
130 389.634 L
130 388.012 L
130 388.012 L
130 386.39 L
130 382.336 L
130 379.903 L
130 377.47 L
130 375.848 L
130 374.227 L
130 373.416 L
130 370.172 L
130 368.55 L
130 366.118 L
130 362.874 L
130 361.252 L
130 359.63 L
130 354.765 L
130 353.143 L
130 351.521 L
130 347.467 L
130 345.845 L
130 345.034 L
130 343.412 L
130 340.98 L
130 340.169 L
130 338.547 L
130 338.547 L
130 337.736 L
130 336.925 L
130 335.303 L
130 335.303 L
130 334.492 L
130 332.06 L
130 330.438 L
130 329.627 L
130 328.816 L
130 326.383 L
130 325.572 L
130 323.14 L
130 322.329 L
130 322.329 L
130 321.518 L
130 319.085 L
130 317.463 L
130 317.463 L
130 314.22 L
130 314.22 L
130 310.976 L
130 309.354 L
130 308.543 L
130 307.733 L
130 306.111 L
130 304.489 L
130 303.678 L
130 300.434 L
130 298.002 L
130 293.136 L
130 291.514 L
130 288.271 L
130 288.271 L
130 288.271 L
130 285.838 L
130 284.216 L
130 281.784 L
130 280.162 L
130 279.351 L
130 277.729 L
130 276.107 L
130 275.296 L
130 274.486 L
130 272.864 L
130 272.864 L
130 272.053 L
130 269.62 L
130 266.376 L
130 263.944 L
130 263.133 L
130 262.322 L
130 262.322 L
130 260.7 L
130 257.457 L
130 255.024 L
130 255.024 L
130 251.78 L
130 250.158 L
130 249.348 L
130 248.537 L
130 245.293 L
130 244.482 L
130 242.86 L
130 241.239 L
130 241.239 L
130 239.617 L
130 237.184 L
130 236.373 L
130 233.94 L
130 233.94 L
130 233.94 L
130 233.129 L
130 233.129 L
130 230.697 L
130 229.886 L
130 226.642 L
130 226.642 L
130 223.399 L
130 222.588 L
130 219.344 L
130 215.29 L
130 214.479 L
130 213.668 L
130 211.235 L
130 207.991 L
130 207.991 L
130 207.991 L
130 207.181 L
130 205.559 L
130 204.748 L
130 204.748 L
130 202.315 L
130 200.693 L
130 200.693 L
130 198.261 L
130 198.261 L
130 197.45 L
130 197.45 L
130 196.639 L
130 196.639 L
130 196.639 L
130 195.828 L
130 193.395 L
130 193.395 L
130 190.963 L
130 187.719 L
130 186.097 L
130 185.286 L
130 182.043 L
130 181.232 L
130 181.232 L
130 179.61 L
130 177.988 L
130 177.988 L
130 177.177 L
130 176.366 L
130 173.934 L
130 173.123 L
130 172.312 L
130 170.69 L
130 170.69 L
130 167.446 L
130 166.635 L
130 165.825 L
130 165.014 L
130 164.203 L
130 162.581 L
130 161.77 L
130 160.148 L
130 160.148 L
130 160.148 L
130 158.526 L
130 157.715 L
130 155.283 L
130 154.472 L
130 153.661 L
130 152.85 L
130 152.039 L
130 152.039 L
130 150.417 L
130 148.796 L
130 148.796 L
130 147.985 L
130 147.985 L
130 146.363 L
130 145.552 L
130 144.741 L
130 142.308 L
130 142.308 L
130 140.687 L
130 140.687 L
130 140.687 L
130 140.687 L
130 139.876 L
130 139.876 L
130 139.876 L
130 139.876 L
130 139.065 L
130 138.254 L
130 138.254 L
130 138.254 L
130 137.443 L
130 136.632 L
130 135.821 L
130 135.01 L
130 134.199 L
130 134.199 L
130 132.578 L
130 131.767 L
130 130.145 L
130 130.145 L
130 129.334 L
130 127.712 L
130 126.09 L
130 126.09 L
130 126.09 L
130 125.279 L
130 124.468 L
130 123.658 L
130 122.847 L
130 122.847 L
130 121.225 L
130 121.225 L
130 119.603 L
130 119.603 L
130 118.792 L
130 118.792 L
130 117.981 L
130 115.549 L
130 115.549 L
130 113.927 L
130 113.927 L
130 112.305 L
130 111.494 L
130 110.683 L
130 110.683 L
130 110.683 L
130 110.683 L
130 110.683 L
130 109.061 L
130 108.25 L
130 108.25 L
130 108.25 L
130 108.25 L
130 107.44 L
130 107.44 L
130 106.629 L
130 106.629 L
130 105.818 L
130 105.007 L
130 103.385 L
130 102.574 L
130 101.763 L
130 101.763 L
130 100.952 L
130 99.33 L
130 99.33 L
130 98.52 L
130 97.709 L
130 97.709 L
130 96.898 L
130 96.898 L
130 96.898 L
130 96.898 L
130 96.898 L
130 96.087 L
130 96.087 L
130 96.087 L
130 95.276 L
130 93.654 L
130 92.843 L
130 92.032 L
130 90.411 L
130 90.411 L
130 90.411 L
130 88.789 L
130 87.978 L
130 87.167 L
130 87.167 L
130 87.167 L
130 86.356 L
130 85.545 L
130 85.545 L
130 84.734 L
130 84.734 L
130 84.734 L
130 84.734 L
130 84.734 L
130 84.734 L
130 83.112 L
130 83.112 L
130 82.302 L
130 82.302 L
130 82.302 L
130 81.491 L
130 81.491 L
130 79.869 L
130 79.869 L
130 79.058 L
130 79.058 L
130 78.247 L
130 77.436 L
130 77.436 L
130 76.625 L
130 76.625 L
130 75.814 L
130 75.003 L
130 75.003 L
130 75.003 L
130 73.382 L
130 72.571 L
130 71.76 L
130 71.76 L
130 70.949 L
130 70.949 L
130 70.949 L
130 70.138 L
130 69.327 L
130 68.516 L
130 68.516 L
130 68.516 L
130 67.705 L
130 67.705 L
130 65.273 L
130 65.273 L
130 65.273 L
130 64.462 L
130 63.651 L
130 62.029 L
130 61.218 L
130 61.218 L
130 61.218 L
130 60.407 L
130 60.407 L
130 59.596 L
130 59.596 L
130 59.596 L
130 58.785 L
130 58.785 L
130 58.785 L
130.013 58.785 L
130.013 58.785 L
130.013 58.785 L
130.038 58.785 L
130.038 58.785 L
130.038 58.785 L
130.038 58.785 L
130.051 58.785 L
130.051 58.785 L
130.051 57.974 L
130.064 57.974 L
130.064 57.974 L
130.076 57.974 L
130.076 57.974 L
130.089 57.974 L
130.089 57.974 L
130.115 57.974 L
130.115 57.974 L
130.115 57.164 L
130.127 57.164 L
130.166 57.164 L
130.166 57.164 L
130.166 57.164 L
130.178 57.164 L
130.204 57.164 L
130.217 57.164 L
130.229 57.164 L
130.242 57.164 L
130.293 57.164 L
130.357 57.164 L
130.395 57.164 L
130.471 57.164 L
130.51 56.353 L
130.573 55.542 L
130.586 55.542 L
130.65 54.731 L
130.739 54.731 L
130.854 53.92 L
130.981 53.92 L
131.045 53.109 L
131.083 53.109 L
131.236 53.109 L
131.312 53.109 L
131.427 53.109 L
131.554 53.109 L
131.682 53.109 L
131.745 53.109 L
131.911 53.109 L
132.064 53.109 L
132.217 53.109 L
132.395 51.487 L
132.56 50.676 L
132.726 50.676 L
132.994 50.676 L
133.172 49.055 L
133.427 49.055 L
133.732 49.055 L
133.911 49.055 L
134.217 49.055 L
134.471 49.055 L
134.866 48.244 L
135.299 48.244 L
135.681 48.244 L
135.987 48.244 L
136.471 48.244 L
136.713 48.244 L
137.197 48.244 L
137.732 48.244 L
138.382 48.244 L
138.994 48.244 L
139.732 48.244 L
140.089 47.433 L
140.701 47.433 L
141.439 47.433 L
141.949 47.433 L
142.93 47.433 L
143.771 47.433 L
144.357 47.433 L
145.019 47.433 L
145.885 46.622 L
146.624 46.622 L
147.478 46.622 L
148.599 46.622 L
149.771 46.622 L
150.051 46.622 L
151.337 45.811 L
152.611 45.811 L
153.86 45.811 L
155.07 45 L
156.446 45 L
157.095 45 L
158.815 45 L
160.458 45 L
162 45 L
163.745 45 L
165.312 45 L
166.471 45 L
168.369 45 L
170.344 45 L
172.216 45 L
174.203 45 L
176.382 45 L
178.789 45 L
180.089 45 L
182.344 45 L
185.044 45 L
188.063 45 L
190.84 45 L
193.592 45 L
195.464 45 L
198.573 45 L
201.35 45 L
204.433 45 L
207.197 45 L
210.547 45 L
212.967 45 L
216.611 45 L
220.139 45 L
224.076 45 L
228.279 45 L
231.693 45 L
234.381 45 L
238.674 45 L
242.7 45 L
246.687 45 L
251.413 45 L
256.177 45 L
261.273 45 L
264.317 45 L
269.375 45 L
274.47 45 L
280.75 45 L
286.279 45 L
291.91 45 L
295.68 45 L
302.279 45 L
307.948 45 L
314.814 45 L
320.814 45 L
327.349 45 L
331.527 45 L
338.164 45 L
344.24 45 L
351.094 45 L
357.922 45 L
364.559 45 L
371.514 45 L
375.488 45 L
381.82 45 L
388.902 45 L
396.393 45 L
404.023 45 L
411.399 45 L
416.303 45 L
423.832 45 L
432.227 45 L
439.654 45 L
448.125 45 L
456.239 45 L
461.157 45 L
469.883 45 L
477.539 45 L
485.144 45 L
493.475 45 L
501.882 45 L
507.5 45 L
515.908 45 L
524.685 45 L
532.608 45 L
541.016 45 L
548.965 45 L
556.952 45 L
561.538 45 L
569.64 45 L
578.289 45 L
586.276 45 L
594.264 45 L
602.862 45 L
608.098 45 L
615.257 45 L
623.028 45 L
631.066 45 L
638.646 45 L
646.747 45 L
651.856 45 L
658.684 45 L
666.225 45 L
673.945 45 L
681.116 45 L
688.772 45 L
692.785 45 L
699.83 45 L
707.371 45 L
714.046 45 L
720.148 45 L
727.333 45 L
734.352 45 L
738.441 45 L
744.53 45 L
750.441 45 L
756.109 45 L
761.995 45 L
767.753 45 L
771.651 45 L
776.988 45 L
782.542 45 L
787.638 45 L
792.746 45 L
797.752 45 L
800.988 45 L
805.166 45 L
809.268 45 L
813.714 45 L
818.224 45 L
822.491 45 L
826.262 45 L
828.708 45 L
832.351 45 L
835.943 45 L
839.281 45 L
842.287 45 L
845.485 45 L
847.255 45 L
850.083 45 L
853.115 45 L
855.727 45 L
858.593 45 L
860.886 45 L
862.58 45 L
864.465 45 L
866.491 45 L
868.503 45 L
870.325 45 L
872.554 45 L
873.994 45 L
875.217 45 L
876.618 45 L
878.644 45 L
880.363 45 L
881.421 45 L
882.605 45 L
883.522 45 L
884.936 45 L
886.096 45 L
887.319 45 L
888.121 45 L
889.166 45 L
889.866 45 L
890.694 45 L
891.79 45 L
892.592 45 L
893.497 45 L
894.083 45 L
894.452 45 L
895.14 45 L
895.586 45 L
896.299 45 L
896.771 45 L
897.28 45 L
897.968 45 L
898.325 45 L
898.745 45 L
899.166 45 L
899.51 45 L
899.815 45 L
900.147 45 L
900.338 45 L
900.618 45 L
900.873 45 L
901.293 45 L
901.497 45 L
901.79 45 L
901.968 45 L
902.248 45 L
902.478 45 L
902.643 45 L
902.834 45 L
902.911 45 L
903.038 45 L
903.166 45 L
903.28 45 L
903.42 45 L
903.535 45 L
903.599 45 L
903.713 45 L
903.752 45 L
903.828 45 L
903.994 45 L
904.083 45 L
904.134 45 L
904.185 45 L
904.248 45 L
904.299 45 L
904.35 45 L
904.389 45 L
904.414 45 L
904.478 45 L
904.516 45 L
904.567 45 L
904.605 45 L
904.631 45 L
904.682 45 L
904.72 45 L
904.745 45 L
904.758 45 L
904.783 45 L
904.822 45 L
904.847 45 L
904.847 45 L
904.847 45 L
904.873 45 L
904.873 45 L
904.885 45 L
904.885 45 L
904.885 45 L
904.936 45 L
904.936 45 L
904.949 45 L
904.949 45 L
904.962 45 L
904.962 45 L
904.974 45 L
904.974 45 L
905 45 L
S
GR
GS
[10 6] 0 setdash
2 LJ
0.5 LW
N
905 521 M
130 45 L
S
GR
GS
1 GC
N
885 507 M
885 382 L
329 382 L
329 507 L
cp
f
GR
GS
[1 0 0 1 366 398.93228] CT
/Helvetica 25.2 F
GS
[1 0 0 1 0 0] CT
0 9 moveto 
1 -1 scale
(original OSIRIS, EER = 18.73%) t 
GR
GR
GS
0 0 1 RC
1 LJ
3 LW
N
333 398.932 M
363 398.932 L
S
GR
GS
[1 0 0 1 366 429.31076] CT
/Helvetica 25.2 F
GS
[1 0 0 1 0 0] CT
0 9 moveto 
1 -1 scale
(IriCore, EER = 6.31%) t 
GR
GR
GS
0 1 0 RC
1 LJ
3 LW
N
333 429.311 M
363 429.311 L
S
GR
GS
[1 0 0 1 366 459.68924] CT
/Helvetica 25.2 F
GS
[1 0 0 1 0 0] CT
0 9 moveto 
1 -1 scale
(OSIRIS with new segmentation, EER = 0.68%) t 
GR
GR
GS
1 LJ
4 LW
N
333 459.689 M
363 459.689 L
S
GR
GS
[1 0 0 1 366 490.06772] CT
/Helvetica 25.2 F
GS
[1 0 0 1 0 0] CT
0 9 moveto 
1 -1 scale
(EER line) t 
GR
GR
GS
[10 6] 0 setdash
2 LJ
0.5 LW
N
333 490.068 M
363 490.068 L
S
GR
GS
0.149 GC
10.0 ML
0.5 LW
N
329 507 M
329 382 L
885 382 L
885 507 L
cp
S
GR
%%Trailer
%%Pages: 1
%%EOF
