%!PS-Adobe-3.0 EPSF-3.0
%%Creator: (MATLAB, The Mathworks, Inc. Version 9.5.0.1049112 \(R2018b\) Update 3. Operating System: Mac OS X)
%%Title: ./ROCs_postmortem_seg_240.eps
%%CreationDate: 2019-03-22T17:44:16
%%Pages: (atend)
%%BoundingBox:    61     5   907   587
%%LanguageLevel: 3
%%EndComments
%%BeginProlog
%%BeginResource: procset (Apache XML Graphics Std ProcSet) 1.2 0
%%Version: 1.2 0
%%Copyright: (Copyright 2001-2003,2010 The Apache Software Foundation. License terms: http://www.apache.org/licenses/LICENSE-2.0)
/bd{bind def}bind def
/ld{load def}bd
/GR/grestore ld
/GS/gsave ld
/RM/rmoveto ld
/C/curveto ld
/t/show ld
/L/lineto ld
/ML/setmiterlimit ld
/CT/concat ld
/f/fill ld
/N/newpath ld
/S/stroke ld
/CC/setcmykcolor ld
/A/ashow ld
/cp/closepath ld
/RC/setrgbcolor ld
/LJ/setlinejoin ld
/GC/setgray ld
/LW/setlinewidth ld
/M/moveto ld
/re {4 2 roll M
1 index 0 rlineto
0 exch rlineto
neg 0 rlineto
cp } bd
/_ctm matrix def
/_tm matrix def
/BT { _ctm currentmatrix pop matrix _tm copy pop 0 0 moveto } bd
/ET { _ctm setmatrix } bd
/iTm { _ctm setmatrix _tm concat } bd
/Tm { _tm astore pop iTm 0 0 moveto } bd
/ux 0.0 def
/uy 0.0 def
/F {
  /Tp exch def
  /Tf exch def
  Tf findfont Tp scalefont setfont
  /cf Tf def  /cs Tp def
} bd
/ULS {currentpoint /uy exch def /ux exch def} bd
/ULE {
  /Tcx currentpoint pop def
  gsave
  newpath
  cf findfont cs scalefont dup
  /FontMatrix get 0 get /Ts exch def /FontInfo get dup
  /UnderlinePosition get Ts mul /To exch def
  /UnderlineThickness get Ts mul /Tt exch def
  ux uy To add moveto  Tcx uy To add lineto
  Tt setlinewidth stroke
  grestore
} bd
/OLE {
  /Tcx currentpoint pop def
  gsave
  newpath
  cf findfont cs scalefont dup
  /FontMatrix get 0 get /Ts exch def /FontInfo get dup
  /UnderlinePosition get Ts mul /To exch def
  /UnderlineThickness get Ts mul /Tt exch def
  ux uy To add cs add moveto Tcx uy To add cs add lineto
  Tt setlinewidth stroke
  grestore
} bd
/SOE {
  /Tcx currentpoint pop def
  gsave
  newpath
  cf findfont cs scalefont dup
  /FontMatrix get 0 get /Ts exch def /FontInfo get dup
  /UnderlinePosition get Ts mul /To exch def
  /UnderlineThickness get Ts mul /Tt exch def
  ux uy To add cs 10 mul 26 idiv add moveto Tcx uy To add cs 10 mul 26 idiv add lineto
  Tt setlinewidth stroke
  grestore
} bd
/QT {
/Y22 exch store
/X22 exch store
/Y21 exch store
/X21 exch store
currentpoint
/Y21 load 2 mul add 3 div exch
/X21 load 2 mul add 3 div exch
/X21 load 2 mul /X22 load add 3 div
/Y21 load 2 mul /Y22 load add 3 div
/X22 load /Y22 load curveto
} bd
/SSPD {
dup length /d exch dict def
{
/v exch def
/k exch def
currentpagedevice k known {
/cpdv currentpagedevice k get def
v cpdv ne {
/upd false def
/nullv v type /nulltype eq def
/nullcpdv cpdv type /nulltype eq def
nullv nullcpdv or
{
/upd true def
} {
/sametype v type cpdv type eq def
sametype {
v type /arraytype eq {
/vlen v length def
/cpdvlen cpdv length def
vlen cpdvlen eq {
0 1 vlen 1 sub {
/i exch def
/obj v i get def
/cpdobj cpdv i get def
obj cpdobj ne {
/upd true def
exit
} if
} for
} {
/upd true def
} ifelse
} {
v type /dicttype eq {
v {
/dv exch def
/dk exch def
/cpddv cpdv dk get def
dv cpddv ne {
/upd true def
exit
} if
} forall
} {
/upd true def
} ifelse
} ifelse
} if
} ifelse
upd true eq {
d k v put
} if
} if
} if
} forall
d length 0 gt {
d setpagedevice
} if
} bd
/RE { % /NewFontName [NewEncodingArray] /FontName RE -
  findfont dup length dict begin
  {
    1 index /FID ne
    {def} {pop pop} ifelse
  } forall
  /Encoding exch def
  /FontName 1 index def
  currentdict definefont pop
  end
} bind def
%%EndResource
%%BeginResource: procset (Apache XML Graphics EPS ProcSet) 1.0 0
%%Version: 1.0 0
%%Copyright: (Copyright 2002-2003 The Apache Software Foundation. License terms: http://www.apache.org/licenses/LICENSE-2.0)
/BeginEPSF { %def
/b4_Inc_state save def         % Save state for cleanup
/dict_count countdictstack def % Count objects on dict stack
/op_count count 1 sub def      % Count objects on operand stack
userdict begin                 % Push userdict on dict stack
/showpage { } def              % Redefine showpage, { } = null proc
0 setgray 0 setlinecap         % Prepare graphics state
1 setlinewidth 0 setlinejoin
10 setmiterlimit [ ] 0 setdash newpath
/languagelevel where           % If level not equal to 1 then
{pop languagelevel             % set strokeadjust and
1 ne                           % overprint to their defaults.
{false setstrokeadjust false setoverprint
} if
} if
} bd
/EndEPSF { %def
count op_count sub {pop} repeat            % Clean up stacks
countdictstack dict_count sub {end} repeat
b4_Inc_state restore
} bd
%%EndResource
%FOPBeginFontDict
%%IncludeResource: font Courier-Oblique
%%IncludeResource: font Courier-BoldOblique
%%IncludeResource: font Courier-Bold
%%IncludeResource: font ZapfDingbats
%%IncludeResource: font Symbol
%%IncludeResource: font Helvetica
%%IncludeResource: font Helvetica-Oblique
%%IncludeResource: font Helvetica-Bold
%%IncludeResource: font Helvetica-BoldOblique
%%IncludeResource: font Times-Roman
%%IncludeResource: font Times-Italic
%%IncludeResource: font Times-Bold
%%IncludeResource: font Times-BoldItalic
%%IncludeResource: font Courier
%FOPEndFontDict
%%BeginResource: encoding WinAnsiEncoding
/WinAnsiEncoding [
/.notdef /.notdef /.notdef /.notdef /.notdef
/.notdef /.notdef /.notdef /.notdef /.notdef
/.notdef /.notdef /.notdef /.notdef /.notdef
/.notdef /.notdef /.notdef /.notdef /.notdef
/.notdef /.notdef /.notdef /.notdef /.notdef
/.notdef /.notdef /.notdef /.notdef /.notdef
/.notdef /.notdef /space /exclam /quotedbl
/numbersign /dollar /percent /ampersand /quotesingle
/parenleft /parenright /asterisk /plus /comma
/hyphen /period /slash /zero /one
/two /three /four /five /six
/seven /eight /nine /colon /semicolon
/less /equal /greater /question /at
/A /B /C /D /E
/F /G /H /I /J
/K /L /M /N /O
/P /Q /R /S /T
/U /V /W /X /Y
/Z /bracketleft /backslash /bracketright /asciicircum
/underscore /quoteleft /a /b /c
/d /e /f /g /h
/i /j /k /l /m
/n /o /p /q /r
/s /t /u /v /w
/x /y /z /braceleft /bar
/braceright /asciitilde /bullet /Euro /bullet
/quotesinglbase /florin /quotedblbase /ellipsis /dagger
/daggerdbl /circumflex /perthousand /Scaron /guilsinglleft
/OE /bullet /Zcaron /bullet /bullet
/quoteleft /quoteright /quotedblleft /quotedblright /bullet
/endash /emdash /asciitilde /trademark /scaron
/guilsinglright /oe /bullet /zcaron /Ydieresis
/space /exclamdown /cent /sterling /currency
/yen /brokenbar /section /dieresis /copyright
/ordfeminine /guillemotleft /logicalnot /sfthyphen /registered
/macron /degree /plusminus /twosuperior /threesuperior
/acute /mu /paragraph /middot /cedilla
/onesuperior /ordmasculine /guillemotright /onequarter /onehalf
/threequarters /questiondown /Agrave /Aacute /Acircumflex
/Atilde /Adieresis /Aring /AE /Ccedilla
/Egrave /Eacute /Ecircumflex /Edieresis /Igrave
/Iacute /Icircumflex /Idieresis /Eth /Ntilde
/Ograve /Oacute /Ocircumflex /Otilde /Odieresis
/multiply /Oslash /Ugrave /Uacute /Ucircumflex
/Udieresis /Yacute /Thorn /germandbls /agrave
/aacute /acircumflex /atilde /adieresis /aring
/ae /ccedilla /egrave /eacute /ecircumflex
/edieresis /igrave /iacute /icircumflex /idieresis
/eth /ntilde /ograve /oacute /ocircumflex
/otilde /odieresis /divide /oslash /ugrave
/uacute /ucircumflex /udieresis /yacute /thorn
/ydieresis
] def
%%EndResource
%FOPBeginFontReencode
/Courier-Oblique findfont
dup length dict begin
  {1 index /FID ne {def} {pop pop} ifelse} forall
  /Encoding WinAnsiEncoding def
  currentdict
end
/Courier-Oblique exch definefont pop
/Courier-BoldOblique findfont
dup length dict begin
  {1 index /FID ne {def} {pop pop} ifelse} forall
  /Encoding WinAnsiEncoding def
  currentdict
end
/Courier-BoldOblique exch definefont pop
/Courier-Bold findfont
dup length dict begin
  {1 index /FID ne {def} {pop pop} ifelse} forall
  /Encoding WinAnsiEncoding def
  currentdict
end
/Courier-Bold exch definefont pop
/Helvetica findfont
dup length dict begin
  {1 index /FID ne {def} {pop pop} ifelse} forall
  /Encoding WinAnsiEncoding def
  currentdict
end
/Helvetica exch definefont pop
/Helvetica-Oblique findfont
dup length dict begin
  {1 index /FID ne {def} {pop pop} ifelse} forall
  /Encoding WinAnsiEncoding def
  currentdict
end
/Helvetica-Oblique exch definefont pop
/Helvetica-Bold findfont
dup length dict begin
  {1 index /FID ne {def} {pop pop} ifelse} forall
  /Encoding WinAnsiEncoding def
  currentdict
end
/Helvetica-Bold exch definefont pop
/Helvetica-BoldOblique findfont
dup length dict begin
  {1 index /FID ne {def} {pop pop} ifelse} forall
  /Encoding WinAnsiEncoding def
  currentdict
end
/Helvetica-BoldOblique exch definefont pop
/Times-Roman findfont
dup length dict begin
  {1 index /FID ne {def} {pop pop} ifelse} forall
  /Encoding WinAnsiEncoding def
  currentdict
end
/Times-Roman exch definefont pop
/Times-Italic findfont
dup length dict begin
  {1 index /FID ne {def} {pop pop} ifelse} forall
  /Encoding WinAnsiEncoding def
  currentdict
end
/Times-Italic exch definefont pop
/Times-Bold findfont
dup length dict begin
  {1 index /FID ne {def} {pop pop} ifelse} forall
  /Encoding WinAnsiEncoding def
  currentdict
end
/Times-Bold exch definefont pop
/Times-BoldItalic findfont
dup length dict begin
  {1 index /FID ne {def} {pop pop} ifelse} forall
  /Encoding WinAnsiEncoding def
  currentdict
end
/Times-BoldItalic exch definefont pop
/Courier findfont
dup length dict begin
  {1 index /FID ne {def} {pop pop} ifelse} forall
  /Encoding WinAnsiEncoding def
  currentdict
end
/Courier exch definefont pop
%FOPEndFontReencode
%%EndProlog
%%Page: 1 1
%%PageBoundingBox: 0 0 1000 600
%%BeginPageSetup
[1 0 0 -1 0 600] CT
%%EndPageSetup
GS
1 GC
N
0 0 1000 600 re
f
GR
GS
1 GC
N
0 0 1000 600 re
f
GR
GS
1 GC
N
130 531 M
905 531 L
905 45 L
130 45 L
cp
f
GR
GS
0.873 GC
1 LJ
0.5 LW
N
130 531 M
130 45 L
S
GR
GS
0.873 GC
1 LJ
0.5 LW
N
285 531 M
285 45 L
S
GR
GS
0.873 GC
1 LJ
0.5 LW
N
440 531 M
440 45 L
S
GR
GS
0.873 GC
1 LJ
0.5 LW
N
595 531 M
595 45 L
S
GR
GS
0.873 GC
1 LJ
0.5 LW
N
750 531 M
750 45 L
S
GR
GS
0.873 GC
1 LJ
0.5 LW
N
905 531 M
905 45 L
S
GR
GS
0.873 GC
1 LJ
0.5 LW
N
905 531 M
130 531 L
S
GR
GS
0.873 GC
1 LJ
0.5 LW
N
905 433.8 M
130 433.8 L
S
GR
GS
0.873 GC
1 LJ
0.5 LW
N
905 336.6 M
130 336.6 L
S
GR
GS
0.873 GC
1 LJ
0.5 LW
N
905 239.4 M
130 239.4 L
S
GR
GS
0.873 GC
1 LJ
0.5 LW
N
905 142.2 M
130 142.2 L
S
GR
GS
0.873 GC
1 LJ
0.5 LW
N
905 45 M
130 45 L
S
GR
GS
0.149 GC
2 setlinecap
1 LJ
0.5 LW
N
130 531 M
905 531 L
S
GR
GS
0.149 GC
2 setlinecap
1 LJ
0.5 LW
N
130 45 M
905 45 L
S
GR
GS
0.149 GC
2 setlinecap
1 LJ
0.5 LW
N
130 531 M
130 523.25 L
S
GR
GS
0.149 GC
2 setlinecap
1 LJ
0.5 LW
N
285 531 M
285 523.25 L
S
GR
GS
0.149 GC
2 setlinecap
1 LJ
0.5 LW
N
440 531 M
440 523.25 L
S
GR
GS
0.149 GC
2 setlinecap
1 LJ
0.5 LW
N
595 531 M
595 523.25 L
S
GR
GS
0.149 GC
2 setlinecap
1 LJ
0.5 LW
N
750 531 M
750 523.25 L
S
GR
GS
0.149 GC
2 setlinecap
1 LJ
0.5 LW
N
905 531 M
905 523.25 L
S
GR
GS
0.149 GC
2 setlinecap
1 LJ
0.5 LW
N
130 45 M
130 52.75 L
S
GR
GS
0.149 GC
2 setlinecap
1 LJ
0.5 LW
N
285 45 M
285 52.75 L
S
GR
GS
0.149 GC
2 setlinecap
1 LJ
0.5 LW
N
440 45 M
440 52.75 L
S
GR
GS
0.149 GC
2 setlinecap
1 LJ
0.5 LW
N
595 45 M
595 52.75 L
S
GR
GS
0.149 GC
2 setlinecap
1 LJ
0.5 LW
N
750 45 M
750 52.75 L
S
GR
GS
0.149 GC
2 setlinecap
1 LJ
0.5 LW
N
905 45 M
905 52.75 L
S
GR
GS
[1 0 0 1 130 537.79999] CT
0.149 GC
/Helvetica 24 F
GS
[1 0 0 1 0 0] CT
-7 23 moveto 
1 -1 scale
(0) t 
GR
GR
GS
[1 0 0 1 285 537.79999] CT
0.149 GC
/Helvetica 24 F
GS
[1 0 0 1 0 0] CT
-17 23 moveto 
1 -1 scale
(0.2) t 
GR
GR
GS
[1 0 0 1 440 537.79999] CT
0.149 GC
/Helvetica 24 F
GS
[1 0 0 1 0 0] CT
-17 23 moveto 
1 -1 scale
(0.4) t 
GR
GR
GS
[1 0 0 1 595 537.79999] CT
0.149 GC
/Helvetica 24 F
GS
[1 0 0 1 0 0] CT
-17 23 moveto 
1 -1 scale
(0.6) t 
GR
GR
GS
[1 0 0 1 750 537.79999] CT
0.149 GC
/Helvetica 24 F
GS
[1 0 0 1 0 0] CT
-17 23 moveto 
1 -1 scale
(0.8) t 
GR
GR
GS
[1 0 0 1 905 537.79999] CT
0.149 GC
/Helvetica 24 F
GS
[1 0 0 1 0 0] CT
-7 23 moveto 
1 -1 scale
(1) t 
GR
GR
GS
[1 0 0 1 517.50037 567.79999] CT
0.149 GC
/Helvetica 26.4 F
GS
[1 0 0 1 0 0] CT
-103.5 26 moveto 
1 -1 scale
(False Match Rate) t 
GR
GR
GS
0.149 GC
2 setlinecap
1 LJ
0.5 LW
N
130 531 M
130 45 L
S
GR
GS
0.149 GC
2 setlinecap
1 LJ
0.5 LW
N
905 531 M
905 45 L
S
GR
GS
0.149 GC
2 setlinecap
1 LJ
0.5 LW
N
130 531 M
137.75 531 L
S
GR
GS
0.149 GC
2 setlinecap
1 LJ
0.5 LW
N
130 433.8 M
137.75 433.8 L
S
GR
GS
0.149 GC
2 setlinecap
1 LJ
0.5 LW
N
130 336.6 M
137.75 336.6 L
S
GR
GS
0.149 GC
2 setlinecap
1 LJ
0.5 LW
N
130 239.4 M
137.75 239.4 L
S
GR
GS
0.149 GC
2 setlinecap
1 LJ
0.5 LW
N
130 142.2 M
137.75 142.2 L
S
GR
GS
0.149 GC
2 setlinecap
1 LJ
0.5 LW
N
130 45 M
137.75 45 L
S
GR
GS
0.149 GC
2 setlinecap
1 LJ
0.5 LW
N
905 531 M
897.25 531 L
S
GR
GS
0.149 GC
2 setlinecap
1 LJ
0.5 LW
N
905 433.8 M
897.25 433.8 L
S
GR
GS
0.149 GC
2 setlinecap
1 LJ
0.5 LW
N
905 336.6 M
897.25 336.6 L
S
GR
GS
0.149 GC
2 setlinecap
1 LJ
0.5 LW
N
905 239.4 M
897.25 239.4 L
S
GR
GS
0.149 GC
2 setlinecap
1 LJ
0.5 LW
N
905 142.2 M
897.25 142.2 L
S
GR
GS
0.149 GC
2 setlinecap
1 LJ
0.5 LW
N
905 45 M
897.25 45 L
S
GR
GS
[1 0 0 1 123.2 531] CT
0.149 GC
/Helvetica 24 F
GS
[1 0 0 1 0 0] CT
-14 8.5 moveto 
1 -1 scale
(0) t 
GR
GR
GS
[1 0 0 1 123.2 433.79999] CT
0.149 GC
/Helvetica 24 F
GS
[1 0 0 1 0 0] CT
-34 8.5 moveto 
1 -1 scale
(0.2) t 
GR
GR
GS
[1 0 0 1 123.2 336.60001] CT
0.149 GC
/Helvetica 24 F
GS
[1 0 0 1 0 0] CT
-34 8.5 moveto 
1 -1 scale
(0.4) t 
GR
GR
GS
[1 0 0 1 123.2 239.39999] CT
0.149 GC
/Helvetica 24 F
GS
[1 0 0 1 0 0] CT
-34 8.5 moveto 
1 -1 scale
(0.6) t 
GR
GR
GS
[1 0 0 1 123.2 142.2] CT
0.149 GC
/Helvetica 24 F
GS
[1 0 0 1 0 0] CT
-34 8.5 moveto 
1 -1 scale
(0.8) t 
GR
GR
GS
[1 0 0 1 123.2 45] CT
0.149 GC
/Helvetica 24 F
GS
[1 0 0 1 0 0] CT
-14 8.5 moveto 
1 -1 scale
(1) t 
GR
GR
GS
[0 -1 1 0 86.2 287.99976] CT
0.149 GC
/Helvetica 26.4 F
GS
[1 0 0 1 0 0] CT
-153 -6 moveto 
1 -1 scale
(1 - False Non-Match Rate) t 
GR
GR
GS
[1 0 0 1 517.50049 38.40002] CT
/Helvetica-Bold 26.4 F
GS
[1 0 0 1 0 0] CT
-287 -6 moveto 
1 -1 scale
(Data acquired less than 240 hours after death) t 
GR
GR
GS
0 0 1 RC
1 LJ
3 LW
N
130.002 530.452 M
130.002 530.452 L
130.002 530.452 L
130.002 530.452 L
130.002 530.452 L
130.002 530.452 L
130.002 530.452 L
130.002 530.452 L
130.002 530.452 L
130.002 530.452 L
130.002 530.452 L
130.002 530.452 L
130.002 530.452 L
130.002 530.452 L
130.002 530.452 L
130.002 530.452 L
130.002 530.452 L
130.002 530.452 L
130.002 530.452 L
130.002 530.452 L
130.002 530.452 L
130.003 530.452 L
130.003 530.452 L
130.003 530.452 L
130.003 530.452 L
130.003 530.452 L
130.003 530.452 L
130.003 530.452 L
130.003 530.452 L
130.003 530.452 L
130.003 530.452 L
130.003 530.452 L
130.003 530.452 L
130.003 530.452 L
130.003 530.452 L
130.003 530.452 L
130.003 530.452 L
130.003 530.452 L
130.003 530.452 L
130.003 530.452 L
130.003 530.452 L
130.003 530.452 L
130.003 530.452 L
130.003 530.452 L
130.003 530.452 L
130.003 530.452 L
130.003 530.452 L
130.003 530.452 L
130.003 530.452 L
130.003 530.452 L
130.003 530.452 L
130.003 530.452 L
130.003 530.452 L
130.003 530.452 L
130.003 530.452 L
130.003 530.452 L
130.003 530.452 L
130.003 530.452 L
130.003 530.452 L
130.003 530.452 L
130.003 530.452 L
130.003 530.452 L
130.003 530.452 L
130.003 530.452 L
130.003 530.452 L
130.003 530.452 L
130.003 530.452 L
130.003 530.452 L
130.003 530.452 L
130.003 530.452 L
130.003 530.452 L
130.003 530.452 L
130.005 530.452 L
130.005 530.452 L
130.005 530.452 L
130.005 530.452 L
130.005 530.452 L
130.005 530.452 L
130.005 530.452 L
130.005 530.452 L
130.005 530.452 L
130.005 530.452 L
130.005 530.452 L
130.005 530.452 L
130.006 530.452 L
130.006 530.452 L
130.006 530.452 L
130.006 530.452 L
130.006 530.452 L
130.006 530.452 L
130.006 530.452 L
130.006 530.452 L
130.006 530.452 L
130.006 530.452 L
130.006 530.452 L
130.006 530.452 L
130.006 530.452 L
130.006 530.452 L
130.006 530.452 L
130.006 530.452 L
130.008 530.452 L
130.008 530.452 L
130.008 530.452 L
130.008 530.452 L
130.008 530.452 L
130.008 530.452 L
130.008 530.452 L
130.008 530.452 L
130.009 530.452 L
130.009 530.452 L
130.009 530.452 L
130.009 530.452 L
130.011 530.452 L
130.011 530.452 L
130.011 530.383 L
130.011 530.383 L
130.011 530.315 L
130.011 530.315 L
130.011 530.315 L
130.011 530.246 L
130.014 530.246 L
130.014 530.246 L
130.014 530.246 L
130.014 530.178 L
130.014 530.109 L
130.014 530.109 L
130.014 530.04 L
130.014 529.698 L
130.014 529.629 L
130.014 529.492 L
130.014 529.492 L
130.014 529.424 L
130.014 529.424 L
130.014 529.218 L
130.016 529.149 L
130.016 528.944 L
130.016 528.875 L
130.016 528.875 L
130.016 528.738 L
130.016 528.464 L
130.016 528.19 L
130.016 528.121 L
130.016 527.847 L
130.022 527.642 L
130.022 527.436 L
130.022 527.367 L
130.022 527.162 L
130.022 527.025 L
130.022 526.819 L
130.022 526.682 L
130.022 526.477 L
130.022 525.997 L
130.023 525.654 L
130.025 525.243 L
130.025 524.9 L
130.031 524.215 L
130.031 523.804 L
130.031 523.461 L
130.031 523.187 L
130.031 522.913 L
130.031 522.776 L
130.031 522.433 L
130.031 522.227 L
130.031 521.679 L
130.031 521.473 L
130.031 520.719 L
130.031 520.445 L
130.048 520.24 L
130.048 519.965 L
130.048 519.486 L
130.048 519.349 L
130.048 519.212 L
130.048 518.8 L
130.048 518.389 L
130.048 518.183 L
130.048 517.772 L
130.048 517.087 L
130.048 516.744 L
130.048 516.539 L
130.058 516.127 L
130.058 515.373 L
130.058 515.305 L
130.058 514.962 L
130.058 514.62 L
130.058 514.345 L
130.058 513.523 L
130.058 513.317 L
130.058 512.975 L
130.059 512.221 L
130.059 511.947 L
130.059 511.261 L
130.064 510.439 L
130.064 510.37 L
130.067 510.165 L
130.067 509.205 L
130.068 508.794 L
130.068 508.108 L
130.068 507.492 L
130.068 506.943 L
130.068 506.395 L
130.068 506.052 L
130.068 505.367 L
130.068 505.024 L
130.073 504.75 L
130.073 504.339 L
130.073 503.585 L
130.078 503.242 L
130.078 502.763 L
130.078 502.146 L
130.082 501.734 L
130.082 501.46 L
130.082 500.706 L
130.082 500.021 L
130.089 499.678 L
130.089 499.199 L
130.106 498.582 L
130.106 497.759 L
130.107 497.142 L
130.109 496.594 L
130.109 496.183 L
130.109 495.566 L
130.109 495.018 L
130.109 494.195 L
130.114 493.921 L
130.114 493.578 L
130.114 492.756 L
130.114 492.345 L
130.128 492.071 L
130.131 491.385 L
130.131 491.18 L
130.134 490.837 L
130.135 490.563 L
130.137 489.946 L
130.137 489.535 L
130.143 488.918 L
130.143 488.438 L
130.143 487.753 L
130.146 487.204 L
130.146 486.451 L
130.165 486.176 L
130.165 485.697 L
130.169 485.285 L
130.169 484.532 L
130.169 484.257 L
130.171 483.298 L
130.171 482.75 L
130.173 482.064 L
130.173 481.721 L
130.173 481.31 L
130.173 480.968 L
130.218 480.282 L
130.218 479.734 L
130.218 479.323 L
130.218 478.98 L
130.218 478.363 L
130.221 478.089 L
130.221 477.746 L
130.221 477.609 L
130.222 476.924 L
130.224 476.444 L
130.229 475.896 L
130.23 475.69 L
130.267 475.005 L
130.267 474.251 L
130.28 473.771 L
130.281 473.565 L
130.281 472.812 L
130.288 472.469 L
130.289 472.058 L
130.291 471.578 L
130.299 471.03 L
130.303 470.55 L
130.303 470.139 L
130.306 469.59 L
130.328 469.111 L
130.328 468.699 L
130.328 468.494 L
130.328 468.082 L
130.336 467.671 L
130.336 467.397 L
130.337 467.054 L
130.337 466.438 L
130.339 465.889 L
130.341 465.41 L
130.344 465.067 L
130.345 464.93 L
130.389 464.45 L
130.389 463.97 L
130.401 463.628 L
130.404 463.079 L
130.404 462.668 L
130.404 462.257 L
130.412 461.571 L
130.412 461.366 L
130.412 460.955 L
130.424 460.612 L
130.424 460.064 L
130.445 459.584 L
130.494 459.036 L
130.494 458.761 L
130.504 457.939 L
130.504 457.528 L
130.505 457.048 L
130.508 456.637 L
130.524 456.157 L
130.524 455.266 L
130.552 454.512 L
130.552 454.101 L
130.568 453.415 L
130.568 452.936 L
130.613 452.182 L
130.613 451.771 L
130.616 451.017 L
130.619 450.537 L
130.62 449.44 L
130.655 448.618 L
130.655 447.658 L
130.659 446.63 L
130.659 446.013 L
130.664 445.191 L
130.672 444.643 L
130.686 443.889 L
130.732 443.135 L
130.737 442.655 L
130.742 441.97 L
130.762 441.079 L
130.762 440.325 L
130.765 439.365 L
130.765 438.611 L
130.767 437.446 L
130.768 436.35 L
130.768 435.39 L
130.77 434.842 L
130.77 433.951 L
130.922 432.717 L
130.922 431.963 L
130.925 430.73 L
130.928 429.77 L
130.93 428.879 L
130.933 427.508 L
130.933 426.138 L
130.938 425.109 L
130.944 423.602 L
130.986 422.848 L
131.004 421.477 L
131.014 420.106 L
131.078 418.53 L
131.095 417.707 L
131.104 416.062 L
131.118 414.897 L
131.127 413.458 L
131.129 412.43 L
131.194 411.059 L
131.211 409.414 L
131.216 407.838 L
131.235 406.125 L
131.241 404.343 L
131.255 402.835 L
131.314 401.19 L
131.328 399.819 L
131.329 398.106 L
131.342 396.735 L
131.407 395.159 L
131.429 393.239 L
131.452 391.937 L
131.472 390.909 L
131.488 389.676 L
131.53 387.756 L
131.552 385.974 L
131.57 384.193 L
131.664 382.685 L
131.746 381.245 L
131.788 379.6 L
131.833 378.161 L
131.869 376.105 L
131.927 374.597 L
131.962 373.226 L
132.026 371.033 L
132.093 369.251 L
132.182 367.812 L
132.284 365.07 L
132.409 363.426 L
132.491 361.644 L
132.612 360.067 L
132.741 357.668 L
132.864 355.338 L
133.007 353.762 L
133.15 351.637 L
133.287 349.444 L
133.537 347.799 L
133.754 346.36 L
133.923 344.646 L
134.147 342.522 L
134.5 340.534 L
134.775 338.135 L
135.057 336.079 L
135.391 334.229 L
135.71 332.789 L
136.182 331.144 L
136.643 328.266 L
137.139 325.524 L
137.541 323.742 L
138.093 321.344 L
138.7 319.219 L
139.295 317.026 L
139.981 314.421 L
140.66 312.022 L
141.551 309.761 L
142.458 307.636 L
143.383 305.58 L
144.36 303.25 L
145.457 300.782 L
146.623 298.658 L
147.903 296.67 L
149.242 294.614 L
150.747 292.969 L
152.381 290.09 L
154.106 287.897 L
156.071 285.361 L
157.982 282.14 L
160.048 279.947 L
162.242 277.548 L
164.565 275.698 L
167.042 273.641 L
169.67 271.311 L
172.587 268.501 L
175.582 266.582 L
178.92 264.115 L
182.458 261.853 L
186.263 259.934 L
190.095 258.015 L
194.258 256.233 L
198.545 254.177 L
203.052 252.258 L
207.899 250.27 L
212.895 247.803 L
218.115 244.993 L
223.764 242.32 L
229.528 239.578 L
235.401 237.591 L
241.88 234.781 L
248.493 231.971 L
255.278 229.777 L
262.586 227.447 L
270.468 224.774 L
278.006 222.238 L
285.868 219.839 L
294.177 216.618 L
302.751 213.74 L
311.448 211.341 L
320.914 208.531 L
329.867 206.68 L
339.439 204.281 L
349.168 201.403 L
359.37 199.689 L
369.375 197.153 L
379.653 194.686 L
390.141 191.67 L
401.223 188.86 L
411.647 186.53 L
422.595 183.446 L
433.741 181.321 L
444.964 177.826 L
456.563 174.673 L
467.606 171.657 L
479.049 169.19 L
490.407 166.654 L
501.606 164.735 L
512.552 162.816 L
523.485 159.458 L
534.618 156.579 L
545.442 153.769 L
556.486 151.028 L
566.804 149.657 L
577.836 147.19 L
588.15 144.311 L
598.599 141.501 L
608.095 138.965 L
618.351 137.046 L
627.836 134.784 L
637.055 133.345 L
645.891 131.632 L
654.68 129.781 L
663.043 127.793 L
671.365 125.669 L
679.275 124.229 L
686.65 122.859 L
693.963 121.899 L
700.796 120.117 L
707.636 119.226 L
713.956 118.472 L
720.236 117.17 L
726.045 116.073 L
731.49 114.36 L
736.82 112.989 L
741.841 111.893 L
746.571 111.07 L
750.734 110.179 L
755.114 109.151 L
758.595 108.534 L
856.935 56.446 L
859.098 56.172 L
861.976 55.692 L
865.205 54.664 L
868.051 53.91 L
870.803 53.224 L
873.345 52.95 L
875.675 52.608 L
877.777 52.334 L
879.688 51.991 L
881.675 51.443 L
883.286 51.031 L
884.918 50.483 L
886.361 50.14 L
887.744 49.866 L
889 49.455 L
890.162 49.181 L
891.345 48.907 L
892.334 48.564 L
893.19 48.29 L
894.022 47.947 L
894.801 47.673 L
895.486 47.399 L
896.181 47.193 L
896.82 46.851 L
897.466 46.782 L
897.984 46.713 L
898.406 46.576 L
898.847 46.576 L
899.247 46.302 L
899.625 46.302 L
899.976 46.165 L
900.295 46.097 L
900.589 46.028 L
900.864 46.028 L
901.142 45.96 L
901.4 45.822 L
901.607 45.822 L
901.861 45.754 L
902.055 45.685 L
902.217 45.685 L
902.402 45.617 L
902.546 45.617 L
902.7 45.548 L
902.848 45.548 L
902.965 45.48 L
903.092 45.411 L
903.189 45.137 L
903.31 45.137 L
903.414 45.137 L
903.507 45.137 L
903.597 45.137 L
903.666 45.137 L
903.728 45.137 L
903.783 45.137 L
903.839 45.137 L
903.908 45.137 L
903.96 45.069 L
904.053 45 L
904.094 45 L
904.167 45 L
904.209 45 L
904.244 45 L
904.272 45 L
904.317 45 L
904.349 45 L
904.387 45 L
904.418 45 L
904.456 45 L
904.487 45 L
904.506 45 L
904.532 45 L
904.546 45 L
904.572 45 L
904.583 45 L
904.604 45 L
904.627 45 L
904.649 45 L
904.667 45 L
904.691 45 L
904.698 45 L
904.706 45 L
904.717 45 L
904.725 45 L
904.756 45 L
904.761 45 L
904.782 45 L
904.785 45 L
904.795 45 L
904.801 45 L
904.815 45 L
904.82 45 L
904.821 45 L
904.834 45 L
904.838 45 L
904.848 45 L
904.86 45 L
904.869 45 L
904.869 45 L
904.871 45 L
904.874 45 L
904.879 45 L
904.88 45 L
904.883 45 L
904.893 45 L
904.897 45 L
904.905 45 L
904.908 45 L
904.919 45 L
904.921 45 L
904.927 45 L
904.927 45 L
904.936 45 L
904.939 45 L
904.939 45 L
904.944 45 L
904.944 45 L
904.944 45 L
904.946 45 L
904.949 45 L
904.949 45 L
904.952 45 L
904.952 45 L
904.953 45 L
904.953 45 L
904.958 45 L
904.958 45 L
904.96 45 L
904.96 45 L
904.96 45 L
904.96 45 L
904.961 45 L
904.966 45 L
904.966 45 L
904.967 45 L
904.969 45 L
904.97 45 L
904.972 45 L
904.972 45 L
904.974 45 L
904.974 45 L
904.974 45 L
904.975 45 L
904.975 45 L
904.975 45 L
904.975 45 L
904.977 45 L
904.977 45 L
904.977 45 L
904.977 45 L
904.977 45 L
904.977 45 L
904.977 45 L
904.977 45 L
904.977 45 L
904.98 45 L
904.98 45 L
904.98 45 L
904.98 45 L
904.98 45 L
904.98 45 L
904.98 45 L
904.98 45 L
904.98 45 L
904.98 45 L
904.981 45 L
904.981 45 L
904.986 45 L
904.986 45 L
904.986 45 L
904.986 45 L
904.986 45 L
904.986 45 L
904.986 45 L
904.988 45 L
904.988 45 L
904.988 45 L
904.988 45 L
904.988 45 L
904.989 45 L
904.989 45 L
904.989 45 L
904.989 45 L
904.989 45 L
904.989 45 L
904.989 45 L
904.989 45 L
904.989 45 L
904.989 45 L
904.989 45 L
904.989 45 L
904.989 45 L
904.989 45 L
904.989 45 L
904.989 45 L
904.989 45 L
904.989 45 L
904.989 45 L
904.989 45 L
904.989 45 L
904.989 45 L
904.989 45 L
904.989 45 L
904.989 45 L
904.989 45 L
904.989 45 L
904.989 45 L
904.989 45 L
904.989 45 L
904.991 45 L
904.991 45 L
904.991 45 L
904.991 45 L
904.991 45 L
904.991 45 L
904.991 45 L
904.991 45 L
904.991 45 L
904.991 45 L
904.991 45 L
904.991 45 L
904.991 45 L
904.991 45 L
904.991 45 L
904.991 45 L
904.991 45 L
904.991 45 L
904.991 45 L
904.991 45 L
904.991 45 L
904.991 45 L
904.991 45 L
904.991 45 L
904.991 45 L
904.991 45 L
904.991 45 L
904.991 45 L
904.991 45 L
904.991 45 L
904.991 45 L
904.991 45 L
904.991 45 L
904.991 45 L
904.991 45 L
904.991 45 L
904.991 45 L
904.991 45 L
904.991 45 L
904.991 45 L
904.991 45 L
904.991 45 L
904.991 45 L
904.991 45 L
904.991 45 L
904.991 45 L
904.991 45 L
904.991 45 L
904.991 45 L
904.991 45 L
904.991 45 L
904.991 45 L
904.991 45 L
904.991 45 L
904.991 45 L
904.991 45 L
904.991 45 L
904.991 45 L
904.991 45 L
904.991 45 L
904.991 45 L
904.991 45 L
904.991 45 L
904.991 45 L
904.991 45 L
904.991 45 L
904.991 45 L
904.991 45 L
904.991 45 L
904.991 45 L
904.991 45 L
904.991 45 L
904.991 45 L
904.991 45 L
904.991 45 L
904.991 45 L
904.991 45 L
904.991 45 L
904.991 45 L
904.991 45 L
904.991 45 L
904.991 45 L
904.991 45 L
904.991 45 L
904.991 45 L
904.991 45 L
904.991 45 L
904.991 45 L
904.991 45 L
904.991 45 L
904.991 45 L
904.991 45 L
904.991 45 L
904.991 45 L
904.991 45 L
904.991 45 L
904.991 45 L
904.991 45 L
904.991 45 L
904.991 45 L
904.991 45 L
904.991 45 L
904.991 45 L
904.991 45 L
904.991 45 L
904.991 45 L
904.991 45 L
904.991 45 L
904.991 45 L
904.991 45 L
904.991 45 L
904.991 45 L
904.991 45 L
904.991 45 L
904.991 45 L
904.991 45 L
904.991 45 L
904.991 45 L
904.991 45 L
904.991 45 L
904.991 45 L
904.991 45 L
904.991 45 L
904.991 45 L
904.991 45 L
904.991 45 L
904.991 45 L
904.991 45 L
904.991 45 L
904.991 45 L
904.991 45 L
904.991 45 L
904.991 45 L
904.991 45 L
904.991 45 L
904.991 45 L
904.991 45 L
904.991 45 L
904.991 45 L
904.991 45 L
904.991 45 L
904.991 45 L
904.991 45 L
904.991 45 L
904.991 45 L
904.991 45 L
904.991 45 L
904.991 45 L
904.991 45 L
904.991 45 L
904.991 45 L
904.991 45 L
904.991 45 L
904.991 45 L
904.991 45 L
904.991 45 L
904.991 45 L
904.991 45 L
904.991 45 L
904.991 45 L
904.991 45 L
904.991 45 L
904.991 45 L
904.991 45 L
904.991 45 L
904.991 45 L
904.991 45 L
904.991 45 L
904.991 45 L
904.991 45 L
904.991 45 L
904.991 45 L
904.991 45 L
904.991 45 L
904.991 45 L
904.991 45 L
904.991 45 L
904.991 45 L
904.991 45 L
904.991 45 L
904.991 45 L
904.991 45 L
904.991 45 L
904.991 45 L
904.991 45 L
904.991 45 L
904.991 45 L
904.991 45 L
904.991 45 L
904.991 45 L
904.991 45 L
904.991 45 L
904.991 45 L
904.991 45 L
904.991 45 L
904.991 45 L
904.991 45 L
904.991 45 L
904.991 45 L
904.991 45 L
904.991 45 L
904.991 45 L
904.991 45 L
904.991 45 L
904.991 45 L
904.991 45 L
904.991 45 L
904.991 45 L
904.991 45 L
904.991 45 L
904.991 45 L
904.991 45 L
904.991 45 L
904.991 45 L
904.991 45 L
904.991 45 L
904.991 45 L
904.991 45 L
904.991 45 L
904.991 45 L
904.991 45 L
904.991 45 L
904.991 45 L
904.991 45 L
904.991 45 L
904.991 45 L
904.991 45 L
904.991 45 L
904.991 45 L
904.991 45 L
904.991 45 L
904.991 45 L
904.991 45 L
904.991 45 L
904.991 45 L
904.991 45 L
904.991 45 L
904.991 45 L
904.991 45 L
904.991 45 L
904.991 45 L
904.991 45 L
904.991 45 L
904.991 45 L
904.991 45 L
904.991 45 L
904.991 45 L
904.991 45 L
904.991 45 L
904.991 45 L
904.991 45 L
904.991 45 L
904.991 45 L
904.991 45 L
904.991 45 L
904.991 45 L
904.991 45 L
904.991 45 L
904.991 45 L
904.991 45 L
904.991 45 L
904.991 45 L
904.991 45 L
904.991 45 L
904.991 45 L
904.991 45 L
904.991 45 L
904.991 45 L
904.991 45 L
904.991 45 L
904.991 45 L
904.991 45 L
904.991 45 L
904.991 45 L
904.991 45 L
904.991 45 L
904.991 45 L
904.991 45 L
904.991 45 L
904.991 45 L
904.991 45 L
904.991 45 L
904.991 45 L
904.991 45 L
904.991 45 L
904.991 45 L
904.991 45 L
904.991 45 L
904.991 45 L
904.991 45 L
904.991 45 L
905 45 L
S
GR
GS
0 1 0 RC
1 LJ
3 LW
N
130 530.52 M
130 530.452 L
130 530.452 L
130 530.452 L
130 530.452 L
130 530.452 L
130 530.452 L
130 530.452 L
130 530.452 L
130 530.452 L
130 530.452 L
130 530.452 L
130 530.452 L
130 530.452 L
130 530.452 L
130 530.452 L
130 530.452 L
130 530.452 L
130 530.452 L
130 530.452 L
130 530.452 L
130 530.452 L
130 530.452 L
130 530.452 L
130 530.452 L
130 530.452 L
130 530.452 L
130 530.452 L
130 530.452 L
130 530.452 L
130 530.452 L
130 530.452 L
130 530.452 L
130 530.452 L
130 530.452 L
130 530.452 L
130 530.452 L
130 530.452 L
130 530.452 L
130 530.452 L
130 530.452 L
130 530.452 L
130 530.452 L
130 530.452 L
130 530.452 L
130 530.452 L
130 530.452 L
130 530.452 L
130 530.452 L
130 530.452 L
130 530.452 L
130 530.452 L
130 530.452 L
130 530.452 L
130 530.452 L
130 530.452 L
130 530.452 L
130 530.452 L
130 530.452 L
130 530.452 L
130 530.452 L
130 530.452 L
130 530.452 L
130 530.452 L
130 530.452 L
130 530.452 L
130 530.452 L
130 530.452 L
130 530.452 L
130 530.452 L
130 530.452 L
130 530.452 L
130 530.452 L
130 530.452 L
130 530.452 L
130 530.452 L
130 530.452 L
130 530.452 L
130 530.452 L
130 530.452 L
130 530.452 L
130 530.452 L
130 530.452 L
130 530.452 L
130 530.452 L
130 530.452 L
130 530.452 L
130 530.452 L
130 530.452 L
130 530.452 L
130 530.452 L
130 530.452 L
130 530.452 L
130 530.452 L
130 530.452 L
130 530.452 L
130 530.452 L
130 530.452 L
130 530.452 L
130 530.452 L
130 530.452 L
130 530.452 L
130 530.452 L
130 530.452 L
130 530.452 L
130 530.452 L
130 530.452 L
130 530.452 L
130 530.452 L
130 530.452 L
130 530.452 L
130 530.452 L
130 530.452 L
130 530.452 L
130 530.452 L
130 530.452 L
130 530.452 L
130 530.452 L
130 530.452 L
130 530.452 L
130 530.452 L
130 530.452 L
130 530.452 L
130 530.452 L
130 530.452 L
130 530.452 L
130 530.452 L
130 530.452 L
130 530.452 L
130 530.452 L
130 530.452 L
130 530.452 L
130 530.452 L
130 530.452 L
130 530.452 L
130 530.452 L
130 530.452 L
130 530.452 L
130 530.452 L
130 530.452 L
130 530.452 L
130 530.452 L
130 530.452 L
130 530.452 L
130 530.452 L
130 530.452 L
130 530.452 L
130 530.452 L
130 530.452 L
130 530.452 L
130 530.452 L
130 530.452 L
130 530.452 L
130 530.452 L
130 530.452 L
130 530.452 L
130 530.452 L
130 530.452 L
130 530.452 L
130 530.452 L
130 530.452 L
130 530.452 L
130 530.452 L
130 530.452 L
130 530.452 L
130 530.452 L
130 530.452 L
130 530.452 L
130 530.452 L
130 530.383 L
130 530.383 L
130 530.383 L
130 530.383 L
130 530.383 L
130 530.383 L
130 530.383 L
130 530.315 L
130 530.315 L
130 530.315 L
130 530.315 L
130 530.315 L
130 530.315 L
130 530.315 L
130 530.315 L
130 530.315 L
130 530.315 L
130 530.315 L
130 530.315 L
130 530.246 L
130 530.246 L
130 530.178 L
130 530.109 L
130 530.109 L
130 530.04 L
130 529.903 L
130 529.835 L
130 529.835 L
130 529.835 L
130 529.835 L
130 529.835 L
130 529.835 L
130 529.698 L
130 529.698 L
130 529.492 L
130 529.424 L
130 529.218 L
130 529.149 L
130 529.012 L
130 529.012 L
130 528.807 L
130 528.807 L
130 528.807 L
130 528.738 L
130 528.67 L
130 528.533 L
130 528.396 L
130 528.327 L
130 528.121 L
130 528.121 L
130 528.121 L
130 527.984 L
130 527.916 L
130 527.779 L
130 527.642 L
130 527.505 L
130 527.436 L
130 527.436 L
130 527.23 L
130 526.956 L
130 526.956 L
130 526.751 L
130 526.271 L
130 525.928 L
130 525.86 L
130 525.654 L
130 525.586 L
130 525.311 L
130 525.037 L
130 524.695 L
130 524.557 L
130 524.215 L
130 523.872 L
130 523.804 L
130 523.392 L
130 523.187 L
130 522.913 L
130 522.707 L
130 522.707 L
130 522.501 L
130 522.364 L
130 522.09 L
130 521.816 L
130 521.679 L
130 521.336 L
130 520.925 L
130 520.514 L
130 520.103 L
130 519.691 L
130 519.486 L
130 519.143 L
130 518.869 L
130 518.458 L
130 518.183 L
130 517.909 L
130 517.567 L
130 517.498 L
130 517.292 L
130 517.087 L
130 516.607 L
130 516.127 L
130 515.99 L
130 515.579 L
130 515.031 L
130 514.894 L
130 514.208 L
130 513.729 L
130 513.386 L
130 513.18 L
130 512.7 L
130 512.289 L
130 512.015 L
130 511.467 L
130 511.124 L
130 510.507 L
130 510.302 L
130 510.027 L
130 509.89 L
130 509.548 L
130 509.137 L
130 508.725 L
130 508.314 L
130 507.56 L
130 507.286 L
130 507.012 L
130 506.464 L
130 506.052 L
130 505.573 L
130 504.887 L
130 504.476 L
130 504.202 L
130 503.859 L
130 503.654 L
130 503.242 L
130 503.037 L
130 502.694 L
130 502.214 L
130 501.666 L
130 500.912 L
130 500.227 L
130 499.884 L
130 499.404 L
130 498.787 L
130 498.171 L
130 497.896 L
130 497.691 L
130 497.417 L
130 496.868 L
130 496.457 L
130 496.32 L
130 495.909 L
130 495.635 L
130 495.155 L
130 494.744 L
130 494.195 L
130 493.51 L
130 493.03 L
130 492.482 L
130 492.276 L
130 491.797 L
130 491.043 L
130 490.494 L
130 490.083 L
130 489.535 L
130 488.986 L
130 488.301 L
130 487.753 L
130 487.41 L
130 486.862 L
130 486.656 L
130 485.628 L
130 484.669 L
130 484.463 L
130 484.052 L
130 483.572 L
130 483.161 L
130 482.681 L
130 482.27 L
130 481.859 L
130 481.653 L
130 481.036 L
130 480.419 L
130 480.145 L
130 479.665 L
130 479.117 L
130 478.637 L
130 478.089 L
130 477.609 L
130 477.129 L
130 476.855 L
130 476.307 L
130 475.827 L
130 475.005 L
130 474.594 L
130 473.84 L
130 473.428 L
130 472.812 L
130 472.332 L
130 471.852 L
130 471.304 L
130 470.755 L
130 470.139 L
130 469.453 L
130 469.042 L
130 468.22 L
130 467.74 L
130 467.397 L
130 466.986 L
130 466.575 L
130 466.095 L
130 465.684 L
130 464.861 L
130 464.039 L
130 463.285 L
130 462.805 L
130 462.257 L
130 461.983 L
130 461.229 L
130 460.955 L
130 460.269 L
130 459.858 L
130 459.173 L
130 458.761 L
130 458.145 L
130 457.459 L
130 457.116 L
130 456.774 L
130 456.02 L
130 455.335 L
130 455.06 L
130 454.923 L
130 454.444 L
130 453.895 L
130 453.553 L
130 453.004 L
130 452.387 L
130 451.908 L
130 451.565 L
130 451.017 L
130 451.017 L
130 450.468 L
130 449.783 L
130 449.509 L
130 448.755 L
130 448.412 L
130 448.275 L
130 447.932 L
130 447.316 L
130 446.904 L
130 446.425 L
130 445.945 L
130 445.534 L
130 445.191 L
130 444.711 L
130 444.231 L
130 443.889 L
130 443.478 L
130 442.861 L
130 442.175 L
130 441.764 L
130 441.079 L
130 440.599 L
130 440.325 L
130 440.051 L
130 439.639 L
130 438.954 L
130 437.995 L
130 437.309 L
130 436.829 L
130 436.144 L
130 435.39 L
130 435.047 L
130 434.293 L
130 434.225 L
130 433.471 L
130 432.991 L
130 432.306 L
130 431.895 L
130 431.209 L
130 430.661 L
130 430.181 L
130 429.085 L
130 428.262 L
130 427.645 L
130 427.097 L
130 426.549 L
130 425.452 L
130 424.835 L
130 423.807 L
130 423.122 L
130 422.162 L
130 421.477 L
130 421.203 L
130 420.312 L
130 419.763 L
130 419.352 L
130 418.667 L
130 418.05 L
130 417.228 L
130 416.542 L
130 416.062 L
130 415.514 L
130 414.623 L
130 413.664 L
130 412.841 L
130 411.813 L
130.002 411.265 L
130.002 410.168 L
130.002 409.003 L
130.002 408.112 L
130.002 407.358 L
130.002 406.673 L
130.002 406.262 L
130.002 405.508 L
130.002 404.617 L
130.002 403.931 L
130.002 402.698 L
130.005 402.149 L
130.006 401.258 L
130.006 400.71 L
130.006 399.682 L
130.006 398.585 L
130.006 397.694 L
130.006 397.146 L
130.006 396.255 L
130.009 395.57 L
130.011 394.405 L
130.011 393.239 L
130.011 392.143 L
130.011 391.32 L
130.011 390.361 L
130.012 389.196 L
130.012 388.305 L
130.012 387.277 L
130.012 386.249 L
130.012 385.563 L
130.016 383.987 L
130.016 382.479 L
130.019 380.834 L
130.02 379.395 L
130.02 378.23 L
130.025 376.928 L
130.026 375.557 L
130.026 374.392 L
130.03 373.158 L
130.031 371.924 L
130.036 370.005 L
130.039 369.114 L
130.044 367.606 L
130.045 366.167 L
130.045 365.07 L
130.048 364.18 L
130.053 362.672 L
130.056 360.958 L
130.059 359.519 L
130.065 357.806 L
130.067 356.366 L
130.067 354.31 L
130.075 352.185 L
130.081 350.678 L
130.084 349.17 L
130.095 347.182 L
130.096 345.743 L
130.106 343.618 L
130.115 341.905 L
130.12 340.191 L
130.126 337.93 L
130.132 336.285 L
130.151 334.434 L
130.169 332.584 L
130.179 331.213 L
130.19 329.774 L
130.207 327.786 L
130.227 326.484 L
130.236 324.428 L
130.271 322.166 L
130.285 320.178 L
130.314 318.259 L
130.348 316.135 L
130.376 314.216 L
130.406 312.571 L
130.431 310.652 L
130.471 308.801 L
130.515 306.882 L
130.549 305.443 L
130.583 304.141 L
130.63 302.222 L
130.701 300.302 L
130.762 298.589 L
130.812 296.396 L
130.888 294.545 L
130.994 291.941 L
131.093 290.022 L
131.186 288.103 L
131.322 286.184 L
131.48 284.128 L
131.614 282.346 L
131.768 280.015 L
131.937 278.165 L
132.143 276.314 L
132.365 274.601 L
132.615 272.545 L
132.908 270.489 L
133.208 268.09 L
133.503 266.034 L
133.841 263.978 L
134.228 261.579 L
134.593 259.454 L
135.041 257.261 L
135.498 255.822 L
136.033 254.451 L
136.649 251.709 L
137.317 249.859 L
138.003 247.597 L
138.746 245.61 L
139.577 243.69 L
140.41 241.292 L
141.303 239.373 L
142.321 237.248 L
143.419 235.397 L
144.503 233.41 L
145.703 231.285 L
146.927 228.544 L
148.337 226.693 L
149.778 225.734 L
151.274 224.02 L
152.905 222.924 L
154.714 221.416 L
156.385 219.428 L
158.307 217.372 L
160.238 216.001 L
162.264 213.397 L
164.23 212.026 L
166.363 210.313 L
168.481 208.599 L
170.544 207.16 L
172.685 205.584 L
174.854 203.802 L
177.084 202.362 L
179.255 201.06 L
181.545 199.689 L
183.653 198.387 L
186.02 197.359 L
188.243 195.988 L
190.459 194.686 L
192.583 193.589 L
194.704 192.15 L
196.763 191.054 L
198.638 189.82 L
200.603 188.586 L
202.388 187.764 L
204.121 186.941 L
205.861 186.187 L
207.512 185.845 L
209.101 184.543 L
210.556 184.063 L
211.904 183.583 L
213.256 183.377 L
214.584 182.966 L
215.706 182.144 L
216.76 181.938 L
217.726 181.801 L
218.631 181.527 L
219.539 181.253 L
220.391 181.047 L
221.103 180.773 L
221.758 180.567 L
222.338 180.43 L
222.902 180.088 L
223.373 179.608 L
223.815 179.471 L
224.233 179.334 L
224.571 179.197 L
224.832 179.197 L
225.118 179.197 L
225.361 179.197 L
225.606 179.128 L
225.801 178.991 L
225.939 178.922 L
226.091 178.785 L
226.222 178.648 L
226.298 178.58 L
226.367 178.511 L
226.435 178.443 L
226.505 178.443 L
226.561 178.443 L
226.62 178.443 L
226.678 178.443 L
226.702 178.374 L
226.732 178.374 L
226.755 178.306 L
226.775 178.306 L
226.786 178.306 L
226.799 178.306 L
232.221 175.77 L
238.38 172.823 L
244.847 169.67 L
251.694 166.312 L
258.581 162.816 L
265.306 160.28 L
272.401 157.744 L
279.76 154.934 L
287.308 152.261 L
294.846 150 L
302.75 147.464 L
310.121 145.887 L
317.846 143.283 L
325.481 141.021 L
333.297 138.006 L
340.851 135.744 L
348.199 133.962 L
354.949 132.454 L
361.058 131.494 L
367.062 130.466 L
372.551 129.507 L
377.604 128.205 L
381.975 127.314 L
385.676 126.628 L
388.558 126.286 L
391.024 126.08 L
393.03 125.874 L
394.548 125.737 L
395.653 125.737 L
396.387 125.737 L
396.9 125.669 L
397.238 125.6 L
397.378 125.6 L
397.485 125.6 L
397.552 125.6 L
397.578 125.6 L
397.586 125.6 L
397.589 125.6 L
397.591 125.6 L
397.591 125.6 L
397.591 125.6 L
397.591 125.6 L
397.591 125.6 L
397.591 125.6 L
397.591 125.6 L
397.591 125.6 L
397.591 125.6 L
397.591 125.6 L
397.591 125.6 L
397.591 125.6 L
397.591 125.6 L
397.591 125.6 L
397.591 125.6 L
397.591 125.6 L
397.591 125.6 L
397.591 125.6 L
397.591 125.6 L
397.591 125.6 L
397.591 125.6 L
397.591 125.6 L
397.591 125.6 L
397.591 125.6 L
397.591 125.6 L
397.591 125.6 L
397.591 125.6 L
397.591 125.6 L
397.591 125.6 L
397.591 125.6 L
397.591 125.6 L
397.591 125.6 L
397.591 125.6 L
397.591 125.6 L
397.591 125.6 L
397.591 125.6 L
397.591 125.6 L
397.591 125.6 L
397.591 125.6 L
397.591 125.6 L
397.591 125.6 L
397.591 125.6 L
397.591 125.6 L
397.591 125.6 L
397.591 125.6 L
397.591 125.6 L
397.591 125.6 L
397.591 125.6 L
397.591 125.6 L
397.591 125.6 L
397.591 125.6 L
397.591 125.6 L
397.591 125.6 L
397.591 125.6 L
397.591 125.6 L
397.591 125.6 L
397.591 125.6 L
397.591 125.6 L
397.591 125.6 L
397.591 125.6 L
397.591 125.6 L
397.591 125.6 L
397.591 125.6 L
397.591 125.6 L
397.591 125.6 L
397.591 125.6 L
397.591 125.6 L
397.591 125.6 L
397.591 125.6 L
397.591 125.6 L
397.591 125.6 L
397.591 125.6 L
397.591 125.6 L
397.591 125.6 L
397.591 125.6 L
397.591 125.6 L
397.591 125.6 L
397.591 125.6 L
397.591 125.6 L
397.591 125.6 L
397.591 125.6 L
397.591 125.6 L
397.591 125.6 L
397.591 125.6 L
397.591 125.6 L
397.591 125.6 L
397.591 125.6 L
397.591 125.6 L
397.591 125.6 L
397.591 125.6 L
397.591 125.6 L
397.591 125.6 L
397.591 125.6 L
397.591 125.6 L
397.591 125.6 L
397.591 125.6 L
397.591 125.6 L
397.591 125.6 L
397.591 125.6 L
397.591 125.6 L
397.591 125.6 L
397.591 125.6 L
397.591 125.6 L
397.591 125.6 L
397.591 125.6 L
397.591 125.6 L
397.591 125.6 L
397.591 125.6 L
397.591 125.6 L
397.591 125.6 L
397.591 125.6 L
397.591 125.6 L
397.591 125.6 L
397.591 125.6 L
397.591 125.6 L
397.591 125.6 L
397.591 125.6 L
397.591 125.6 L
397.591 125.6 L
397.591 125.6 L
397.591 125.6 L
397.591 125.6 L
397.591 125.6 L
397.591 125.6 L
397.591 125.6 L
397.591 125.6 L
397.591 125.6 L
397.591 125.6 L
397.591 125.6 L
397.591 125.6 L
397.591 125.6 L
397.591 125.6 L
397.591 125.6 L
397.591 125.6 L
397.591 125.6 L
397.591 125.6 L
397.591 125.6 L
397.591 125.6 L
397.591 125.6 L
397.591 125.6 L
397.591 125.6 L
397.591 125.6 L
397.591 125.6 L
397.591 125.6 L
397.591 125.6 L
397.591 125.6 L
397.591 125.6 L
397.591 125.6 L
397.591 125.6 L
397.591 125.6 L
397.591 125.6 L
397.591 125.6 L
397.591 125.6 L
397.591 125.6 L
397.591 125.6 L
397.591 125.6 L
397.591 125.6 L
397.591 125.6 L
397.591 125.6 L
397.591 125.6 L
397.591 125.6 L
397.591 125.6 L
397.591 125.6 L
397.591 125.6 L
397.591 125.6 L
397.591 125.6 L
397.591 125.6 L
397.591 125.6 L
397.591 125.6 L
397.591 125.6 L
397.591 125.6 L
397.591 125.6 L
397.591 125.6 L
397.591 125.6 L
397.591 125.6 L
397.591 125.6 L
397.591 125.6 L
397.591 125.6 L
397.591 125.6 L
397.591 125.6 L
397.591 125.6 L
397.591 125.6 L
397.591 125.6 L
397.591 125.6 L
397.591 125.6 L
397.591 125.6 L
397.591 125.6 L
397.591 125.6 L
397.591 125.6 L
397.591 125.6 L
397.591 125.6 L
397.591 125.6 L
397.591 125.6 L
397.591 125.6 L
397.591 125.6 L
397.591 125.6 L
397.591 125.6 L
397.591 125.6 L
397.591 125.6 L
397.591 125.6 L
397.591 125.6 L
397.591 125.6 L
397.591 125.6 L
397.591 125.6 L
397.591 125.6 L
397.591 125.6 L
397.591 125.6 L
397.591 125.6 L
397.591 125.6 L
397.591 125.6 L
397.591 125.6 L
397.591 125.6 L
397.591 125.6 L
397.591 125.6 L
397.591 125.6 L
397.591 125.6 L
397.591 125.6 L
397.591 125.6 L
397.591 125.6 L
397.591 125.6 L
397.591 125.6 L
397.591 125.6 L
397.591 125.6 L
397.591 125.6 L
397.591 125.6 L
397.591 125.6 L
397.591 125.6 L
397.591 125.6 L
397.591 125.6 L
397.591 125.6 L
397.591 125.6 L
397.591 125.6 L
397.591 125.6 L
397.591 125.6 L
397.591 125.6 L
397.591 125.6 L
397.591 125.6 L
397.591 125.6 L
397.591 125.6 L
397.591 125.6 L
397.591 125.6 L
397.591 125.6 L
397.591 125.6 L
397.591 125.6 L
397.591 125.6 L
397.591 125.6 L
397.591 125.6 L
397.591 125.6 L
397.591 125.6 L
397.591 125.6 L
397.591 125.6 L
397.591 125.6 L
397.591 125.6 L
397.591 125.6 L
397.591 125.6 L
397.591 125.6 L
397.591 125.6 L
397.591 125.6 L
397.591 125.6 L
397.591 125.6 L
397.591 125.6 L
397.591 125.6 L
397.591 125.6 L
397.591 125.6 L
397.591 125.6 L
397.591 125.6 L
397.591 125.6 L
397.591 125.6 L
397.591 125.6 L
397.591 125.6 L
397.591 125.6 L
397.591 125.6 L
397.591 125.6 L
397.591 125.6 L
397.591 125.6 L
397.591 125.6 L
397.591 125.6 L
397.591 125.6 L
397.591 125.6 L
397.591 125.6 L
397.591 125.6 L
397.591 125.6 L
397.591 125.6 L
397.591 125.6 L
397.591 125.6 L
397.591 125.6 L
397.591 125.6 L
397.591 125.6 L
397.591 125.6 L
397.591 125.6 L
397.591 125.6 L
397.591 125.6 L
397.591 125.6 L
397.591 125.6 L
397.591 125.6 L
397.591 125.6 L
397.591 125.6 L
397.591 125.6 L
397.591 125.6 L
905 45 L
S
GR
GS
1 LJ
3 LW
N
130 530.452 M
130 530.452 L
130 530.452 L
130 530.452 L
130 530.452 L
130 530.452 L
130 530.452 L
130 530.452 L
130 530.452 L
130 530.452 L
130 530.452 L
130 530.452 L
130 530.452 L
130 530.452 L
130 530.452 L
130 530.452 L
130 530.452 L
130 530.452 L
130 530.452 L
130 530.452 L
130 530.452 L
130 530.452 L
130 530.452 L
130 530.452 L
130 530.452 L
130 530.452 L
130 530.452 L
130 530.452 L
130 530.452 L
130 530.452 L
130 530.452 L
130 530.452 L
130 530.452 L
130 530.452 L
130 530.452 L
130 530.452 L
130 530.452 L
130 530.452 L
130 530.452 L
130 530.452 L
130 530.452 L
130 530.452 L
130 530.452 L
130 530.452 L
130 530.452 L
130 530.452 L
130 530.452 L
130 530.452 L
130 530.452 L
130 530.452 L
130 530.452 L
130 530.452 L
130 530.452 L
130 530.452 L
130 530.452 L
130 530.452 L
130 530.452 L
130 530.452 L
130 530.452 L
130 530.452 L
130 530.452 L
130 530.452 L
130 530.452 L
130 530.452 L
130 530.452 L
130 530.452 L
130 530.452 L
130 530.452 L
130 530.452 L
130 530.452 L
130 530.452 L
130 530.452 L
130 530.452 L
130 530.452 L
130 530.452 L
130 530.452 L
130 530.452 L
130 530.452 L
130 530.452 L
130 530.452 L
130 530.452 L
130 530.452 L
130 530.452 L
130 530.452 L
130 530.452 L
130 530.452 L
130 530.452 L
130 530.452 L
130 530.452 L
130 530.452 L
130 530.452 L
130 530.452 L
130 530.452 L
130 530.452 L
130 530.452 L
130 530.452 L
130 530.452 L
130 530.452 L
130 530.452 L
130 530.452 L
130 530.452 L
130 530.452 L
130 530.452 L
130 530.452 L
130 530.452 L
130 530.452 L
130 530.452 L
130 530.452 L
130 530.452 L
130 530.452 L
130 530.452 L
130 530.452 L
130 530.452 L
130 530.452 L
130 530.452 L
130 530.452 L
130 530.452 L
130 530.452 L
130 530.452 L
130 530.452 L
130 530.452 L
130 530.452 L
130 530.452 L
130 530.452 L
130 530.452 L
130 530.452 L
130 530.452 L
130 530.452 L
130 530.452 L
130 530.452 L
130 530.452 L
130 530.452 L
130 530.452 L
130 530.452 L
130 530.452 L
130 530.452 L
130 530.452 L
130 530.452 L
130 530.452 L
130 530.452 L
130 530.452 L
130 530.452 L
130 530.452 L
130 530.452 L
130 530.452 L
130 530.452 L
130 530.452 L
130 530.452 L
130 530.452 L
130 530.452 L
130 530.452 L
130 530.452 L
130 530.452 L
130 530.452 L
130 530.452 L
130 530.452 L
130 530.452 L
130 530.452 L
130 530.452 L
130 530.452 L
130 530.452 L
130 530.452 L
130 530.452 L
130 530.452 L
130 530.452 L
130 530.452 L
130 530.452 L
130 530.452 L
130 530.452 L
130 530.452 L
130 530.452 L
130 530.452 L
130 530.452 L
130 530.452 L
130 530.452 L
130 530.452 L
130 530.452 L
130 530.383 L
130 530.315 L
130 530.315 L
130 530.315 L
130 530.315 L
130 530.315 L
130 530.315 L
130 530.315 L
130 530.315 L
130 530.315 L
130 530.315 L
130 530.315 L
130 530.315 L
130 530.315 L
130 530.315 L
130 530.315 L
130 530.315 L
130 530.246 L
130 530.246 L
130 530.246 L
130 530.246 L
130 530.246 L
130 530.246 L
130 530.246 L
130 530.178 L
130 530.109 L
130 530.109 L
130 530.04 L
130 530.04 L
130 529.972 L
130 529.972 L
130 529.972 L
130 529.972 L
130 529.835 L
130 529.766 L
130 529.766 L
130 529.766 L
130 529.766 L
130 529.698 L
130 529.561 L
130 529.561 L
130 529.492 L
130 529.424 L
130 529.424 L
130 529.355 L
130 529.355 L
130 529.287 L
130 529.287 L
130 529.149 L
130 529.081 L
130 529.012 L
130 528.807 L
130 528.601 L
130 528.533 L
130 528.464 L
130 528.464 L
130 528.396 L
130 528.396 L
130 528.19 L
130 527.916 L
130 527.779 L
130 527.573 L
130 527.505 L
130 527.505 L
130 527.505 L
130 527.505 L
130 527.505 L
130 527.505 L
130 527.436 L
130 527.162 L
130 527.093 L
130 527.025 L
130 527.025 L
130 527.025 L
130 527.025 L
130 526.819 L
130 526.682 L
130 526.408 L
130 526.271 L
130 526.202 L
130 525.997 L
130 525.86 L
130 525.791 L
130 525.38 L
130 525.174 L
130 524.969 L
130 524.763 L
130 524.557 L
130 524.352 L
130 524.146 L
130 523.941 L
130 523.872 L
130 523.461 L
130 523.05 L
130 522.707 L
130 522.501 L
130 522.364 L
130 522.022 L
130 521.679 L
130 521.405 L
130 521.268 L
130 521.062 L
130 520.856 L
130 520.377 L
130 520.308 L
130 520.171 L
130 520.103 L
130 520.034 L
130 519.76 L
130 519.349 L
130 519.143 L
130 518.732 L
130 518.252 L
130 518.252 L
130.002 518.046 L
130.002 517.498 L
130.002 517.155 L
130.002 516.95 L
130.002 516.401 L
130.002 516.196 L
130.002 515.442 L
130.002 515.305 L
130.002 515.168 L
130.002 514.757 L
130.002 514.277 L
130.002 514.071 L
130.002 513.797 L
130.002 513.523 L
130.002 513.112 L
130.002 512.975 L
130.002 512.495 L
130.002 512.426 L
130.002 512.289 L
130.002 512.084 L
130.002 511.672 L
130.002 511.398 L
130.002 511.124 L
130.002 510.439 L
130.002 509.959 L
130.002 509.89 L
130.002 509.274 L
130.002 508.931 L
130.002 508.588 L
130.002 508.314 L
130.002 508.04 L
130.002 507.766 L
130.002 507.423 L
130.002 506.806 L
130.002 506.601 L
130.002 506.258 L
130.002 505.984 L
130.002 505.778 L
130.002 505.504 L
130.002 505.161 L
130.002 504.75 L
130.002 504.407 L
130.002 503.928 L
130.002 503.516 L
130.002 502.968 L
130.002 502.763 L
130.002 502.283 L
130.002 501.872 L
130.002 501.46 L
130.002 500.981 L
130.002 500.775 L
130.002 500.706 L
130.002 500.364 L
130.002 500.021 L
130.002 499.404 L
130.002 498.719 L
130.002 498.445 L
130.002 497.622 L
130.002 497.005 L
130.002 496.8 L
130.002 496.32 L
130.002 495.703 L
130.002 495.36 L
130.002 495.018 L
130.002 494.469 L
130.002 494.058 L
130.002 493.647 L
130.002 493.441 L
130.002 493.03 L
130.002 492.619 L
130.002 492.208 L
130.002 491.934 L
130.002 491.728 L
130.002 491.522 L
130.002 490.837 L
130.002 490.563 L
130.002 490.494 L
130.002 490.015 L
130.002 489.74 L
130.002 489.261 L
130.002 488.918 L
130.002 488.644 L
130.002 487.958 L
130.002 487.547 L
130.002 487.067 L
130.002 486.793 L
130.002 486.382 L
130.002 485.834 L
130.002 485.56 L
130.002 485.011 L
130.002 484.874 L
130.002 484.6 L
130.002 484.326 L
130.002 483.983 L
130.002 483.366 L
130.002 482.544 L
130.002 482.064 L
130.002 481.859 L
130.002 481.036 L
130.002 480.419 L
130.002 480.214 L
130.002 479.802 L
130.002 479.46 L
130.002 478.911 L
130.002 478.706 L
130.002 478.295 L
130.002 478.089 L
130.002 477.678 L
130.002 477.335 L
130.002 477.129 L
130.002 476.924 L
130.002 476.376 L
130.002 475.69 L
130.002 475.347 L
130.002 474.731 L
130.002 474.525 L
130.002 474.114 L
130.002 473.771 L
130.002 473.36 L
130.002 473.223 L
130.002 472.332 L
130.002 471.921 L
130.002 471.304 L
130.002 470.961 L
130.002 470.55 L
130.002 469.933 L
130.002 469.453 L
130.002 469.179 L
130.002 468.425 L
130.002 468.082 L
130.002 467.671 L
130.002 467.123 L
130.002 466.712 L
130.002 465.958 L
130.002 465.547 L
130.002 465.204 L
130.002 465.135 L
130.002 464.861 L
130.002 464.587 L
130.002 464.176 L
130.002 463.765 L
130.002 463.422 L
130.002 463.148 L
130.002 462.462 L
130.002 461.846 L
130.002 461.503 L
130.002 461.366 L
130.002 460.749 L
130.002 460.132 L
130.002 459.858 L
130.002 459.515 L
130.002 459.173 L
130.002 458.624 L
130.002 458.35 L
130.002 458.145 L
130.002 457.665 L
130.002 457.254 L
130.002 456.911 L
130.002 456.294 L
130.003 455.883 L
130.003 455.54 L
130.003 455.335 L
130.003 455.129 L
130.003 454.992 L
130.003 454.786 L
130.003 454.169 L
130.003 454.101 L
130.003 453.758 L
130.005 453.21 L
130.005 452.799 L
130.005 452.524 L
130.005 452.113 L
130.005 451.839 L
130.005 451.565 L
130.005 450.811 L
130.005 450.331 L
130.005 450.057 L
130.005 449.714 L
130.005 449.166 L
130.005 448.823 L
130.005 448.344 L
130.005 448.138 L
130.005 447.795 L
130.005 447.179 L
130.005 446.699 L
130.005 446.013 L
130.005 445.534 L
130.005 445.328 L
130.005 444.985 L
130.006 444.506 L
130.006 444.368 L
130.006 443.889 L
130.006 443.752 L
130.008 443.34 L
130.008 443.135 L
130.008 442.312 L
130.008 442.107 L
130.008 441.558 L
130.008 441.353 L
130.008 441.147 L
130.008 440.736 L
130.008 440.256 L
130.008 439.845 L
130.008 439.776 L
130.008 439.639 L
130.009 439.434 L
130.009 438.748 L
130.009 438.2 L
130.009 437.72 L
130.009 437.309 L
130.009 436.692 L
130.009 436.487 L
130.009 435.87 L
130.009 435.664 L
130.009 435.322 L
130.009 435.253 L
130.009 434.842 L
130.016 434.362 L
130.016 433.951 L
130.016 433.128 L
130.016 432.923 L
130.016 432.443 L
130.016 431.826 L
130.016 431.483 L
130.016 431.072 L
130.017 430.387 L
130.017 430.044 L
130.017 429.222 L
130.017 428.399 L
130.017 427.508 L
130.017 427.44 L
130.017 426.96 L
130.017 426.206 L
130.026 425.726 L
130.026 425.315 L
130.026 424.63 L
130.026 424.013 L
130.026 423.327 L
130.026 422.985 L
130.026 422.436 L
130.026 422.025 L
130.026 421.477 L
130.026 421.203 L
130.026 420.38 L
130.026 419.695 L
130.026 419.147 L
130.026 418.187 L
130.026 417.502 L
130.028 416.953 L
130.028 416.062 L
130.028 414.897 L
130.03 414.143 L
130.033 413.184 L
130.033 412.361 L
130.033 411.813 L
130.033 411.402 L
130.033 410.854 L
130.033 410.511 L
130.034 409.346 L
130.036 408.866 L
130.036 408.249 L
130.044 407.427 L
130.044 406.878 L
130.044 406.536 L
130.044 406.056 L
130.044 405.302 L
130.044 404.48 L
130.044 403.314 L
130.044 402.286 L
130.045 401.67 L
130.047 400.916 L
130.059 400.573 L
130.059 400.093 L
130.059 399.545 L
130.059 398.791 L
130.059 398.037 L
130.061 397.215 L
130.061 396.735 L
130.061 395.775 L
130.064 394.199 L
130.068 393.651 L
130.068 393.102 L
130.068 392.417 L
130.068 391.732 L
130.068 391.046 L
130.068 390.087 L
130.068 388.853 L
130.068 387.894 L
130.068 386.728 L
130.079 385.495 L
130.079 385.495 L
130.079 384.741 L
130.079 383.781 L
130.079 382.959 L
130.079 381.794 L
130.079 381.04 L
130.079 379.669 L
130.081 378.847 L
130.081 378.093 L
130.092 376.996 L
130.093 376.174 L
130.096 375.008 L
130.1 373.98 L
130.1 372.747 L
130.1 371.582 L
130.101 370.622 L
130.101 369.8 L
130.101 369.183 L
130.114 368.086 L
130.117 366.784 L
130.118 365.961 L
130.12 365.345 L
130.126 363.974 L
130.128 362.535 L
130.131 361.301 L
130.134 360.547 L
130.135 358.902 L
130.135 357.531 L
130.163 356.024 L
130.166 354.927 L
130.168 353.556 L
130.169 352.597 L
130.171 351.774 L
130.173 350.746 L
130.176 350.198 L
130.176 348.69 L
130.177 347.525 L
130.194 346.702 L
130.197 344.92 L
130.201 343.618 L
130.201 342.316 L
130.202 341.082 L
130.204 339.917 L
130.208 338.821 L
130.208 337.45 L
130.213 336.422 L
130.235 335.257 L
130.236 333.886 L
130.241 332.652 L
130.247 331.624 L
130.253 330.665 L
130.261 329.02 L
130.264 327.375 L
130.271 326.004 L
130.275 324.496 L
130.286 323.126 L
130.317 321.755 L
130.323 320.59 L
130.331 319.15 L
130.341 317.711 L
130.342 316.409 L
130.362 314.695 L
130.373 313.188 L
130.381 312.434 L
130.396 310.926 L
130.448 310.172 L
130.466 308.596 L
130.482 306.882 L
130.491 305.648 L
130.515 304.415 L
130.527 302.564 L
130.55 300.714 L
130.58 299.617 L
130.594 298.315 L
130.644 297.424 L
130.661 295.916 L
130.676 295.299 L
130.714 293.723 L
130.748 291.872 L
130.801 290.639 L
130.829 289.474 L
130.868 287.966 L
130.913 286.801 L
130.953 285.224 L
131.051 283.785 L
131.09 283.031 L
131.158 281.934 L
131.214 280.495 L
131.275 278.439 L
131.342 277.342 L
131.396 276.383 L
131.477 274.601 L
131.574 273.162 L
131.724 272.408 L
131.794 271.38 L
131.897 269.803 L
131.998 268.158 L
132.113 266.651 L
132.238 264.731 L
132.348 263.087 L
132.477 261.579 L
132.642 259.66 L
132.808 258.563 L
132.987 257.261 L
133.146 256.301 L
133.332 254.862 L
133.533 253.149 L
133.733 251.298 L
133.92 249.653 L
134.134 247.94 L
134.335 246.432 L
134.553 244.513 L
134.864 242.937 L
135.092 241.36 L
135.456 239.989 L
135.8 238.07 L
136.083 236.768 L
136.454 235.534 L
136.849 234.095 L
137.143 232.793 L
137.52 231.08 L
138.07 229.366 L
138.578 227.858 L
139.046 226.282 L
139.575 224.363 L
140.051 223.061 L
140.636 221.416 L
141.065 220.388 L
141.659 218.606 L
142.341 217.029 L
143.078 215.59 L
143.817 213.534 L
144.551 211.958 L
145.348 210.381 L
146.168 208.805 L
147.049 207.366 L
147.737 205.309 L
148.609 203.87 L
149.551 202.157 L
150.556 200.238 L
151.711 198.593 L
152.801 196.674 L
153.952 194.96 L
155.202 193.041 L
155.69 192.15 L
157.289 190.3 L
158.661 189.135 L
160.111 187.627 L
161.435 186.393 L
163.082 184.611 L
164.723 183.377 L
166.4 181.801 L
167.96 180.773 L
169.246 180.019 L
171.088 178.443 L
172.962 177.14 L
174.958 175.564 L
177.075 174.056 L
179.22 172.274 L
181.529 170.766 L
183.856 169.259 L
186.172 167.682 L
187.95 166.106 L
190.593 164.392 L
193.193 163.09 L
195.976 161.788 L
198.849 160.623 L
201.899 159.389 L
204.973 158.018 L
208.171 156.785 L
210.524 155.62 L
213.78 154.729 L
217.148 153.221 L
220.968 151.713 L
224.168 150.685 L
227.901 148.903 L
232.065 147.738 L
235.869 146.847 L
240.045 145.545 L
243.088 144.311 L
247.285 143.009 L
251.562 141.775 L
255.925 140.404 L
260.466 139.102 L
265.381 138.28 L
270.255 136.703 L
275.218 135.538 L
279.134 133.551 L
284.195 131.563 L
289.895 130.055 L
295.043 128.753 L
300.722 127.588 L
306.836 125.943 L
312.071 124.983 L
318.348 123.476 L
324.019 122.242 L
328.873 120.734 L
335.228 119.021 L
341.439 117.718 L
347.885 116.827 L
354.419 115.799 L
361.116 115.114 L
368.082 113.332 L
374.434 111.824 L
379.698 111.07 L
386.871 109.699 L
393.946 108.534 L
400.803 107.575 L
408.057 106.067 L
415.397 104.216 L
422.399 103.325 L
430.003 102.092 L
437.614 101.338 L
443.333 100.173 L
450.795 98.459 L
458.428 97.705 L
466.311 96.472 L
473.994 95.512 L
481.761 93.799 L
489.854 92.222 L
497.6 91.331 L
503.517 89.687 L
511.744 88.59 L
519.706 87.425 L
527.464 86.397 L
535.341 85.232 L
543.325 84.066 L
551.198 83.175 L
559.025 81.462 L
567.391 80.16 L
573.268 79.063 L
580.344 77.83 L
589.088 76.664 L
596.449 75.979 L
604.679 74.951 L
612.165 74.06 L
619.729 73.237 L
627.486 72.278 L
633.531 71.456 L
641.024 70.565 L
648.063 69.674 L
655.25 68.645 L
662.23 67.754 L
669.513 66.658 L
676.597 65.904 L
683.609 64.876 L
690.845 64.259 L
696.048 63.574 L
702.623 62.888 L
709.096 61.997 L
715.582 61.449 L
721.864 60.901 L
728.258 60.284 L
734.326 59.941 L
740.526 59.324 L
745.027 58.708 L
750.738 57.817 L
756.156 57.474 L
761.808 56.788 L
767.226 56.24 L
772.703 55.829 L
777.584 55.486 L
782.92 55.281 L
787.893 55.075 L
791.708 54.595 L
796.148 54.253 L
800.595 53.704 L
804.889 52.95 L
808.982 52.676 L
813.334 51.991 L
817.157 51.785 L
821.279 51.648 L
824.218 51.58 L
827.796 51.1 L
831.211 50.62 L
834.481 50.552 L
837.802 50.346 L
841.017 49.866 L
844.217 49.661 L
847.251 49.523 L
849.98 49.249 L
852.085 49.044 L
854.459 48.495 L
856.843 48.358 L
859.191 48.084 L
861.579 48.016 L
863.918 47.81 L
866.239 47.536 L
868.626 47.262 L
871.05 46.919 L
871.05 46.919 L
873.226 46.576 L
875.046 46.302 L
876.73 46.028 L
878.365 46.028 L
879.818 45.822 L
881.219 45.822 L
882.399 45.822 L
883.402 45.822 L
884.615 45.822 L
885.73 45.754 L
886.943 45.617 L
888.036 45.548 L
889.039 45.548 L
889.925 45.411 L
890.743 45.411 L
891.566 45.274 L
892.256 45.274 L
893.074 45.206 L
893.82 45.206 L
894.573 45.206 L
895.217 45.206 L
895.845 45.206 L
896.45 45.206 L
896.944 45.137 L
897.403 45.137 L
897.823 45.069 L
898.287 45.069 L
898.65 45.069 L
899.081 45.069 L
899.461 45.069 L
899.833 45.069 L
900.147 45.069 L
900.441 45.069 L
900.741 45.069 L
901.068 45.069 L
901.349 45.069 L
901.637 45.069 L
901.856 45.069 L
902.066 45.069 L
902.229 45.069 L
902.413 45 L
902.548 45 L
902.739 45 L
902.904 45 L
903.025 45 L
903.192 45 L
903.333 45 L
903.482 45 L
903.597 45 L
903.703 45 L
903.806 45 L
903.884 45 L
903.961 45 L
904.019 45 L
904.08 45 L
904.153 45 L
904.232 45 L
904.296 45 L
904.331 45 L
904.369 45 L
904.422 45 L
904.453 45 L
904.482 45 L
904.52 45 L
904.555 45 L
904.591 45 L
904.627 45 L
904.652 45 L
904.68 45 L
904.708 45 L
904.726 45 L
904.742 45 L
904.767 45 L
904.785 45 L
904.796 45 L
904.809 45 L
904.824 45 L
904.835 45 L
904.846 45 L
904.857 45 L
904.874 45 L
904.88 45 L
904.891 45 L
904.901 45 L
904.907 45 L
904.913 45 L
904.919 45 L
904.928 45 L
904.935 45 L
904.943 45 L
904.949 45 L
904.952 45 L
904.958 45 L
904.963 45 L
904.966 45 L
904.966 45 L
904.967 45 L
904.969 45 L
904.97 45 L
904.97 45 L
904.975 45 L
904.977 45 L
904.978 45 L
904.98 45 L
904.981 45 L
904.981 45 L
904.983 45 L
904.986 45 L
904.989 45 L
904.989 45 L
904.989 45 L
904.991 45 L
904.992 45 L
904.992 45 L
904.992 45 L
904.992 45 L
904.992 45 L
904.992 45 L
904.994 45 L
904.995 45 L
904.997 45 L
904.997 45 L
904.997 45 L
904.997 45 L
904.997 45 L
904.997 45 L
904.997 45 L
904.997 45 L
905 45 L
S
GR
GS
[1 0 0 1 440 224.82001] CT
/Helvetica 24 F
GS
[1 0 0 1 0 0] CT
0 8.5 moveto 
1 -1 scale
(EER line) t 
GR
GR
GS
[10 6] 0 setdash
2 LJ
0.5 LW
N
905 531 M
130 45 L
S
GR
GS
1 GC
N
897 523 M
897 431 L
352 431 L
352 523 L
cp
f
GR
GS
[1 0 0 1 389 447.5] CT
/Helvetica 24 F
GS
[1 0 0 1 0 0] CT
0 8.5 moveto 
1 -1 scale
(original OSIRIS, EER = 31.19%) t 
GR
GR
GS
0 0 1 RC
1 LJ
3 LW
N
356 447.5 M
386 447.5 L
S
GR
GS
[1 0 0 1 389 477] CT
/Helvetica 24 F
GS
[1 0 0 1 0 0] CT
0 8.5 moveto 
1 -1 scale
(IriCore, EER = 21.47%) t 
GR
GR
GS
0 1 0 RC
1 LJ
3 LW
N
356 477 M
386 477 L
S
GR
GS
[1 0 0 1 389 506.5] CT
/Helvetica 24 F
GS
[1 0 0 1 0 0] CT
0 8.5 moveto 
1 -1 scale
(OSIRIS with new segmentation, EER = 18.67%) t 
GR
GR
GS
1 LJ
3 LW
N
356 506.5 M
386 506.5 L
S
GR
GS
0.149 GC
10.0 ML
0.5 LW
N
352 523 M
352 431 L
897 431 L
897 523 L
cp
S
GR
%%Trailer
%%Pages: 1
%%EOF
