%!PS-Adobe-3.0 EPSF-3.0
%%Creator: (MATLAB, The Mathworks, Inc. Version 9.5.0.1049112 \(R2018b\) Update 3. Operating System: Mac OS X)
%%Title: ./ROCs_postmortem_new_370.eps
%%CreationDate: 2019-06-16T12:48:27
%%Pages: (atend)
%%BoundingBox:    51     6   907   564
%%LanguageLevel: 3
%%EndComments
%%BeginProlog
%%BeginResource: procset (Apache XML Graphics Std ProcSet) 1.2 0
%%Version: 1.2 0
%%Copyright: (Copyright 2001-2003,2010 The Apache Software Foundation. License terms: http://www.apache.org/licenses/LICENSE-2.0)
/bd{bind def}bind def
/ld{load def}bd
/GR/grestore ld
/GS/gsave ld
/RM/rmoveto ld
/C/curveto ld
/t/show ld
/L/lineto ld
/ML/setmiterlimit ld
/CT/concat ld
/f/fill ld
/N/newpath ld
/S/stroke ld
/CC/setcmykcolor ld
/A/ashow ld
/cp/closepath ld
/RC/setrgbcolor ld
/LJ/setlinejoin ld
/GC/setgray ld
/LW/setlinewidth ld
/M/moveto ld
/re {4 2 roll M
1 index 0 rlineto
0 exch rlineto
neg 0 rlineto
cp } bd
/_ctm matrix def
/_tm matrix def
/BT { _ctm currentmatrix pop matrix _tm copy pop 0 0 moveto } bd
/ET { _ctm setmatrix } bd
/iTm { _ctm setmatrix _tm concat } bd
/Tm { _tm astore pop iTm 0 0 moveto } bd
/ux 0.0 def
/uy 0.0 def
/F {
  /Tp exch def
  /Tf exch def
  Tf findfont Tp scalefont setfont
  /cf Tf def  /cs Tp def
} bd
/ULS {currentpoint /uy exch def /ux exch def} bd
/ULE {
  /Tcx currentpoint pop def
  gsave
  newpath
  cf findfont cs scalefont dup
  /FontMatrix get 0 get /Ts exch def /FontInfo get dup
  /UnderlinePosition get Ts mul /To exch def
  /UnderlineThickness get Ts mul /Tt exch def
  ux uy To add moveto  Tcx uy To add lineto
  Tt setlinewidth stroke
  grestore
} bd
/OLE {
  /Tcx currentpoint pop def
  gsave
  newpath
  cf findfont cs scalefont dup
  /FontMatrix get 0 get /Ts exch def /FontInfo get dup
  /UnderlinePosition get Ts mul /To exch def
  /UnderlineThickness get Ts mul /Tt exch def
  ux uy To add cs add moveto Tcx uy To add cs add lineto
  Tt setlinewidth stroke
  grestore
} bd
/SOE {
  /Tcx currentpoint pop def
  gsave
  newpath
  cf findfont cs scalefont dup
  /FontMatrix get 0 get /Ts exch def /FontInfo get dup
  /UnderlinePosition get Ts mul /To exch def
  /UnderlineThickness get Ts mul /Tt exch def
  ux uy To add cs 10 mul 26 idiv add moveto Tcx uy To add cs 10 mul 26 idiv add lineto
  Tt setlinewidth stroke
  grestore
} bd
/QT {
/Y22 exch store
/X22 exch store
/Y21 exch store
/X21 exch store
currentpoint
/Y21 load 2 mul add 3 div exch
/X21 load 2 mul add 3 div exch
/X21 load 2 mul /X22 load add 3 div
/Y21 load 2 mul /Y22 load add 3 div
/X22 load /Y22 load curveto
} bd
/SSPD {
dup length /d exch dict def
{
/v exch def
/k exch def
currentpagedevice k known {
/cpdv currentpagedevice k get def
v cpdv ne {
/upd false def
/nullv v type /nulltype eq def
/nullcpdv cpdv type /nulltype eq def
nullv nullcpdv or
{
/upd true def
} {
/sametype v type cpdv type eq def
sametype {
v type /arraytype eq {
/vlen v length def
/cpdvlen cpdv length def
vlen cpdvlen eq {
0 1 vlen 1 sub {
/i exch def
/obj v i get def
/cpdobj cpdv i get def
obj cpdobj ne {
/upd true def
exit
} if
} for
} {
/upd true def
} ifelse
} {
v type /dicttype eq {
v {
/dv exch def
/dk exch def
/cpddv cpdv dk get def
dv cpddv ne {
/upd true def
exit
} if
} forall
} {
/upd true def
} ifelse
} ifelse
} if
} ifelse
upd true eq {
d k v put
} if
} if
} if
} forall
d length 0 gt {
d setpagedevice
} if
} bd
/RE { % /NewFontName [NewEncodingArray] /FontName RE -
  findfont dup length dict begin
  {
    1 index /FID ne
    {def} {pop pop} ifelse
  } forall
  /Encoding exch def
  /FontName 1 index def
  currentdict definefont pop
  end
} bind def
%%EndResource
%%BeginResource: procset (Apache XML Graphics EPS ProcSet) 1.0 0
%%Version: 1.0 0
%%Copyright: (Copyright 2002-2003 The Apache Software Foundation. License terms: http://www.apache.org/licenses/LICENSE-2.0)
/BeginEPSF { %def
/b4_Inc_state save def         % Save state for cleanup
/dict_count countdictstack def % Count objects on dict stack
/op_count count 1 sub def      % Count objects on operand stack
userdict begin                 % Push userdict on dict stack
/showpage { } def              % Redefine showpage, { } = null proc
0 setgray 0 setlinecap         % Prepare graphics state
1 setlinewidth 0 setlinejoin
10 setmiterlimit [ ] 0 setdash newpath
/languagelevel where           % If level not equal to 1 then
{pop languagelevel             % set strokeadjust and
1 ne                           % overprint to their defaults.
{false setstrokeadjust false setoverprint
} if
} if
} bd
/EndEPSF { %def
count op_count sub {pop} repeat            % Clean up stacks
countdictstack dict_count sub {end} repeat
b4_Inc_state restore
} bd
%%EndResource
%FOPBeginFontDict
%%IncludeResource: font Courier-Oblique
%%IncludeResource: font Courier-BoldOblique
%%IncludeResource: font Courier-Bold
%%IncludeResource: font ZapfDingbats
%%IncludeResource: font Symbol
%%IncludeResource: font Helvetica
%%IncludeResource: font Helvetica-Oblique
%%IncludeResource: font Helvetica-Bold
%%IncludeResource: font Helvetica-BoldOblique
%%IncludeResource: font Times-Roman
%%IncludeResource: font Times-Italic
%%IncludeResource: font Times-Bold
%%IncludeResource: font Times-BoldItalic
%%IncludeResource: font Courier
%FOPEndFontDict
%%BeginResource: encoding WinAnsiEncoding
/WinAnsiEncoding [
/.notdef /.notdef /.notdef /.notdef /.notdef
/.notdef /.notdef /.notdef /.notdef /.notdef
/.notdef /.notdef /.notdef /.notdef /.notdef
/.notdef /.notdef /.notdef /.notdef /.notdef
/.notdef /.notdef /.notdef /.notdef /.notdef
/.notdef /.notdef /.notdef /.notdef /.notdef
/.notdef /.notdef /space /exclam /quotedbl
/numbersign /dollar /percent /ampersand /quotesingle
/parenleft /parenright /asterisk /plus /comma
/hyphen /period /slash /zero /one
/two /three /four /five /six
/seven /eight /nine /colon /semicolon
/less /equal /greater /question /at
/A /B /C /D /E
/F /G /H /I /J
/K /L /M /N /O
/P /Q /R /S /T
/U /V /W /X /Y
/Z /bracketleft /backslash /bracketright /asciicircum
/underscore /quoteleft /a /b /c
/d /e /f /g /h
/i /j /k /l /m
/n /o /p /q /r
/s /t /u /v /w
/x /y /z /braceleft /bar
/braceright /asciitilde /bullet /Euro /bullet
/quotesinglbase /florin /quotedblbase /ellipsis /dagger
/daggerdbl /circumflex /perthousand /Scaron /guilsinglleft
/OE /bullet /Zcaron /bullet /bullet
/quoteleft /quoteright /quotedblleft /quotedblright /bullet
/endash /emdash /asciitilde /trademark /scaron
/guilsinglright /oe /bullet /zcaron /Ydieresis
/space /exclamdown /cent /sterling /currency
/yen /brokenbar /section /dieresis /copyright
/ordfeminine /guillemotleft /logicalnot /sfthyphen /registered
/macron /degree /plusminus /twosuperior /threesuperior
/acute /mu /paragraph /middot /cedilla
/onesuperior /ordmasculine /guillemotright /onequarter /onehalf
/threequarters /questiondown /Agrave /Aacute /Acircumflex
/Atilde /Adieresis /Aring /AE /Ccedilla
/Egrave /Eacute /Ecircumflex /Edieresis /Igrave
/Iacute /Icircumflex /Idieresis /Eth /Ntilde
/Ograve /Oacute /Ocircumflex /Otilde /Odieresis
/multiply /Oslash /Ugrave /Uacute /Ucircumflex
/Udieresis /Yacute /Thorn /germandbls /agrave
/aacute /acircumflex /atilde /adieresis /aring
/ae /ccedilla /egrave /eacute /ecircumflex
/edieresis /igrave /iacute /icircumflex /idieresis
/eth /ntilde /ograve /oacute /ocircumflex
/otilde /odieresis /divide /oslash /ugrave
/uacute /ucircumflex /udieresis /yacute /thorn
/ydieresis
] def
%%EndResource
%FOPBeginFontReencode
/Courier-Oblique findfont
dup length dict begin
  {1 index /FID ne {def} {pop pop} ifelse} forall
  /Encoding WinAnsiEncoding def
  currentdict
end
/Courier-Oblique exch definefont pop
/Courier-BoldOblique findfont
dup length dict begin
  {1 index /FID ne {def} {pop pop} ifelse} forall
  /Encoding WinAnsiEncoding def
  currentdict
end
/Courier-BoldOblique exch definefont pop
/Courier-Bold findfont
dup length dict begin
  {1 index /FID ne {def} {pop pop} ifelse} forall
  /Encoding WinAnsiEncoding def
  currentdict
end
/Courier-Bold exch definefont pop
/Helvetica findfont
dup length dict begin
  {1 index /FID ne {def} {pop pop} ifelse} forall
  /Encoding WinAnsiEncoding def
  currentdict
end
/Helvetica exch definefont pop
/Helvetica-Oblique findfont
dup length dict begin
  {1 index /FID ne {def} {pop pop} ifelse} forall
  /Encoding WinAnsiEncoding def
  currentdict
end
/Helvetica-Oblique exch definefont pop
/Helvetica-Bold findfont
dup length dict begin
  {1 index /FID ne {def} {pop pop} ifelse} forall
  /Encoding WinAnsiEncoding def
  currentdict
end
/Helvetica-Bold exch definefont pop
/Helvetica-BoldOblique findfont
dup length dict begin
  {1 index /FID ne {def} {pop pop} ifelse} forall
  /Encoding WinAnsiEncoding def
  currentdict
end
/Helvetica-BoldOblique exch definefont pop
/Times-Roman findfont
dup length dict begin
  {1 index /FID ne {def} {pop pop} ifelse} forall
  /Encoding WinAnsiEncoding def
  currentdict
end
/Times-Roman exch definefont pop
/Times-Italic findfont
dup length dict begin
  {1 index /FID ne {def} {pop pop} ifelse} forall
  /Encoding WinAnsiEncoding def
  currentdict
end
/Times-Italic exch definefont pop
/Times-Bold findfont
dup length dict begin
  {1 index /FID ne {def} {pop pop} ifelse} forall
  /Encoding WinAnsiEncoding def
  currentdict
end
/Times-Bold exch definefont pop
/Times-BoldItalic findfont
dup length dict begin
  {1 index /FID ne {def} {pop pop} ifelse} forall
  /Encoding WinAnsiEncoding def
  currentdict
end
/Times-BoldItalic exch definefont pop
/Courier findfont
dup length dict begin
  {1 index /FID ne {def} {pop pop} ifelse} forall
  /Encoding WinAnsiEncoding def
  currentdict
end
/Courier exch definefont pop
%FOPEndFontReencode
%%EndProlog
%%Page: 1 1
%%PageBoundingBox: 0 0 1000 600
%%BeginPageSetup
[1 0 0 -1 0 600] CT
%%EndPageSetup
GS
1 GC
N
0 0 1000 600 re
f
GR
GS
1 GC
N
0 0 1000 600 re
f
GR
GS
1 GC
N
130 521 M
905 521 L
905 45 L
130 45 L
cp
f
GR
GS
0.873 GC
1 LJ
0.5 LW
N
130 521 M
130 45 L
S
GR
GS
0.873 GC
1 LJ
0.5 LW
N
285 521 M
285 45 L
S
GR
GS
0.873 GC
1 LJ
0.5 LW
N
440 521 M
440 45 L
S
GR
GS
0.873 GC
1 LJ
0.5 LW
N
595 521 M
595 45 L
S
GR
GS
0.873 GC
1 LJ
0.5 LW
N
750 521 M
750 45 L
S
GR
GS
0.873 GC
1 LJ
0.5 LW
N
905 521 M
905 45 L
S
GR
GS
0.873 GC
1 LJ
0.5 LW
N
905 521 M
130 521 L
S
GR
GS
0.873 GC
1 LJ
0.5 LW
N
905 425.8 M
130 425.8 L
S
GR
GS
0.873 GC
1 LJ
0.5 LW
N
905 330.6 M
130 330.6 L
S
GR
GS
0.873 GC
1 LJ
0.5 LW
N
905 235.4 M
130 235.4 L
S
GR
GS
0.873 GC
1 LJ
0.5 LW
N
905 140.2 M
130 140.2 L
S
GR
GS
0.873 GC
1 LJ
0.5 LW
N
905 45 M
130 45 L
S
GR
GS
0.149 GC
2 setlinecap
1 LJ
0.5 LW
N
130 521 M
905 521 L
S
GR
GS
0.149 GC
2 setlinecap
1 LJ
0.5 LW
N
130 45 M
905 45 L
S
GR
GS
0.149 GC
2 setlinecap
1 LJ
0.5 LW
N
130 521 M
130 513.25 L
S
GR
GS
0.149 GC
2 setlinecap
1 LJ
0.5 LW
N
285 521 M
285 513.25 L
S
GR
GS
0.149 GC
2 setlinecap
1 LJ
0.5 LW
N
440 521 M
440 513.25 L
S
GR
GS
0.149 GC
2 setlinecap
1 LJ
0.5 LW
N
595 521 M
595 513.25 L
S
GR
GS
0.149 GC
2 setlinecap
1 LJ
0.5 LW
N
750 521 M
750 513.25 L
S
GR
GS
0.149 GC
2 setlinecap
1 LJ
0.5 LW
N
905 521 M
905 513.25 L
S
GR
GS
0.149 GC
2 setlinecap
1 LJ
0.5 LW
N
130 45 M
130 52.75 L
S
GR
GS
0.149 GC
2 setlinecap
1 LJ
0.5 LW
N
285 45 M
285 52.75 L
S
GR
GS
0.149 GC
2 setlinecap
1 LJ
0.5 LW
N
440 45 M
440 52.75 L
S
GR
GS
0.149 GC
2 setlinecap
1 LJ
0.5 LW
N
595 45 M
595 52.75 L
S
GR
GS
0.149 GC
2 setlinecap
1 LJ
0.5 LW
N
750 45 M
750 52.75 L
S
GR
GS
0.149 GC
2 setlinecap
1 LJ
0.5 LW
N
905 45 M
905 52.75 L
S
GR
GS
[1 0 0 1 130 528.59998] CT
0.149 GC
/Helvetica 28 F
GS
[1 0 0 1 0 0] CT
-8 27 moveto 
1 -1 scale
(0) t 
GR
GR
GS
[1 0 0 1 285 528.59998] CT
0.149 GC
/Helvetica 28 F
GS
[1 0 0 1 0 0] CT
-19.5 27 moveto 
1 -1 scale
(0.2) t 
GR
GR
GS
[1 0 0 1 440 528.59998] CT
0.149 GC
/Helvetica 28 F
GS
[1 0 0 1 0 0] CT
-19.5 27 moveto 
1 -1 scale
(0.4) t 
GR
GR
GS
[1 0 0 1 595 528.59998] CT
0.149 GC
/Helvetica 28 F
GS
[1 0 0 1 0 0] CT
-19.5 27 moveto 
1 -1 scale
(0.6) t 
GR
GR
GS
[1 0 0 1 750 528.59998] CT
0.149 GC
/Helvetica 28 F
GS
[1 0 0 1 0 0] CT
-19.5 27 moveto 
1 -1 scale
(0.8) t 
GR
GR
GS
[1 0 0 1 905 528.59998] CT
0.149 GC
/Helvetica 28 F
GS
[1 0 0 1 0 0] CT
-8 27 moveto 
1 -1 scale
(1) t 
GR
GR
GS
[1 0 0 1 517.50037 562.59998] CT
0.149 GC
/Helvetica 30.8 F
GS
[1 0 0 1 0 0] CT
-120.5 30 moveto 
1 -1 scale
(False Match Rate) t 
GR
GR
GS
0.149 GC
2 setlinecap
1 LJ
0.5 LW
N
130 521 M
130 45 L
S
GR
GS
0.149 GC
2 setlinecap
1 LJ
0.5 LW
N
905 521 M
905 45 L
S
GR
GS
0.149 GC
2 setlinecap
1 LJ
0.5 LW
N
130 521 M
137.75 521 L
S
GR
GS
0.149 GC
2 setlinecap
1 LJ
0.5 LW
N
130 425.8 M
137.75 425.8 L
S
GR
GS
0.149 GC
2 setlinecap
1 LJ
0.5 LW
N
130 330.6 M
137.75 330.6 L
S
GR
GS
0.149 GC
2 setlinecap
1 LJ
0.5 LW
N
130 235.4 M
137.75 235.4 L
S
GR
GS
0.149 GC
2 setlinecap
1 LJ
0.5 LW
N
130 140.2 M
137.75 140.2 L
S
GR
GS
0.149 GC
2 setlinecap
1 LJ
0.5 LW
N
130 45 M
137.75 45 L
S
GR
GS
0.149 GC
2 setlinecap
1 LJ
0.5 LW
N
905 521 M
897.25 521 L
S
GR
GS
0.149 GC
2 setlinecap
1 LJ
0.5 LW
N
905 425.8 M
897.25 425.8 L
S
GR
GS
0.149 GC
2 setlinecap
1 LJ
0.5 LW
N
905 330.6 M
897.25 330.6 L
S
GR
GS
0.149 GC
2 setlinecap
1 LJ
0.5 LW
N
905 235.4 M
897.25 235.4 L
S
GR
GS
0.149 GC
2 setlinecap
1 LJ
0.5 LW
N
905 140.2 M
897.25 140.2 L
S
GR
GS
0.149 GC
2 setlinecap
1 LJ
0.5 LW
N
905 45 M
897.25 45 L
S
GR
GS
[1 0 0 1 122.4 521] CT
0.149 GC
/Helvetica 28 F
GS
[1 0 0 1 0 0] CT
-16 10.5 moveto 
1 -1 scale
(0) t 
GR
GR
GS
[1 0 0 1 122.4 425.79999] CT
0.149 GC
/Helvetica 28 F
GS
[1 0 0 1 0 0] CT
-39 10.5 moveto 
1 -1 scale
(0.2) t 
GR
GR
GS
[1 0 0 1 122.4 330.60001] CT
0.149 GC
/Helvetica 28 F
GS
[1 0 0 1 0 0] CT
-39 10.5 moveto 
1 -1 scale
(0.4) t 
GR
GR
GS
[1 0 0 1 122.4 235.39999] CT
0.149 GC
/Helvetica 28 F
GS
[1 0 0 1 0 0] CT
-39 10.5 moveto 
1 -1 scale
(0.6) t 
GR
GR
GS
[1 0 0 1 122.4 140.2] CT
0.149 GC
/Helvetica 28 F
GS
[1 0 0 1 0 0] CT
-39 10.5 moveto 
1 -1 scale
(0.8) t 
GR
GR
GS
[1 0 0 1 122.4 45] CT
0.149 GC
/Helvetica 28 F
GS
[1 0 0 1 0 0] CT
-16 10.5 moveto 
1 -1 scale
(1) t 
GR
GR
GS
[0 -1 1 0 80.39999 282.99979] CT
0.149 GC
/Helvetica 30.8 F
GS
[1 0 0 1 0 0] CT
-178 -7 moveto 
1 -1 scale
(1 - False Non-Match Rate) t 
GR
GR
GS
0 0 1 RC
1 LJ
3 LW
N
130.001 520.573 M
130.001 520.573 L
130.001 520.573 L
130.001 520.573 L
130.001 520.573 L
130.001 520.573 L
130.001 520.573 L
130.001 520.573 L
130.001 520.573 L
130.001 520.573 L
130.001 520.573 L
130.001 520.573 L
130.001 520.573 L
130.001 520.573 L
130.001 520.573 L
130.001 520.573 L
130.001 520.573 L
130.001 520.573 L
130.001 520.573 L
130.001 520.573 L
130.001 520.573 L
130.003 520.573 L
130.003 520.573 L
130.003 520.573 L
130.003 520.573 L
130.003 520.573 L
130.003 520.573 L
130.003 520.573 L
130.003 520.573 L
130.003 520.573 L
130.003 520.573 L
130.003 520.573 L
130.003 520.573 L
130.003 520.573 L
130.003 520.573 L
130.003 520.573 L
130.003 520.573 L
130.003 520.573 L
130.003 520.573 L
130.003 520.573 L
130.003 520.573 L
130.003 520.573 L
130.003 520.573 L
130.003 520.573 L
130.003 520.573 L
130.003 520.573 L
130.003 520.573 L
130.003 520.573 L
130.004 520.573 L
130.004 520.573 L
130.004 520.573 L
130.004 520.573 L
130.004 520.573 L
130.004 520.573 L
130.004 520.573 L
130.004 520.573 L
130.004 520.573 L
130.004 520.573 L
130.004 520.573 L
130.004 520.573 L
130.004 520.573 L
130.004 520.573 L
130.004 520.573 L
130.004 520.573 L
130.004 520.573 L
130.004 520.573 L
130.004 520.573 L
130.004 520.573 L
130.004 520.573 L
130.004 520.573 L
130.004 520.573 L
130.004 520.573 L
130.005 520.573 L
130.005 520.573 L
130.005 520.573 L
130.005 520.573 L
130.005 520.573 L
130.005 520.573 L
130.005 520.573 L
130.005 520.573 L
130.005 520.573 L
130.005 520.573 L
130.005 520.573 L
130.005 520.573 L
130.007 520.573 L
130.007 520.573 L
130.007 520.573 L
130.007 520.573 L
130.007 520.573 L
130.007 520.573 L
130.007 520.573 L
130.007 520.573 L
130.007 520.573 L
130.007 520.573 L
130.007 520.573 L
130.007 520.573 L
130.007 520.573 L
130.007 520.573 L
130.007 520.573 L
130.007 520.573 L
130.008 520.573 L
130.008 520.573 L
130.008 520.573 L
130.008 520.573 L
130.008 520.573 L
130.008 520.573 L
130.008 520.573 L
130.008 520.573 L
130.009 520.573 L
130.009 520.573 L
130.009 520.573 L
130.009 520.573 L
130.012 520.573 L
130.012 520.573 L
130.012 520.52 L
130.012 520.52 L
130.012 520.467 L
130.012 520.467 L
130.012 520.467 L
130.012 520.413 L
130.014 520.413 L
130.014 520.413 L
130.014 520.413 L
130.014 520.36 L
130.014 520.307 L
130.014 520.307 L
130.014 520.253 L
130.014 519.987 L
130.014 519.933 L
130.014 519.827 L
130.014 519.827 L
130.014 519.773 L
130.014 519.773 L
130.014 519.613 L
130.016 519.56 L
130.016 519.4 L
130.016 519.293 L
130.016 519.293 L
130.016 519.186 L
130.016 518.973 L
130.016 518.76 L
130.016 518.706 L
130.016 518.493 L
130.022 518.333 L
130.022 518.173 L
130.022 518.12 L
130.022 517.96 L
130.022 517.853 L
130.022 517.693 L
130.022 517.586 L
130.022 517.426 L
130.022 517.053 L
130.024 516.786 L
130.025 516.466 L
130.025 516.199 L
130.03 515.666 L
130.03 515.346 L
130.03 515.079 L
130.03 514.866 L
130.03 514.653 L
130.03 514.546 L
130.03 514.279 L
130.03 514.119 L
130.03 513.639 L
130.03 513.372 L
130.03 512.786 L
130.03 512.519 L
130.046 512.359 L
130.046 512.092 L
130.046 511.719 L
130.046 511.612 L
130.046 511.506 L
130.046 511.186 L
130.046 510.866 L
130.046 510.706 L
130.046 510.385 L
130.046 509.852 L
130.046 509.585 L
130.047 509.425 L
130.055 509.105 L
130.055 508.519 L
130.055 508.465 L
130.055 508.199 L
130.055 507.932 L
130.055 507.719 L
130.055 507.025 L
130.055 506.812 L
130.055 506.545 L
130.057 505.958 L
130.057 505.745 L
130.057 505.212 L
130.063 504.572 L
130.063 504.465 L
130.067 504.251 L
130.067 503.505 L
130.07 503.131 L
130.07 502.598 L
130.07 502.065 L
130.07 501.638 L
130.07 501.211 L
130.07 500.944 L
130.07 500.358 L
130.07 500.091 L
130.074 499.824 L
130.074 499.451 L
130.074 498.758 L
130.079 498.491 L
130.079 498.117 L
130.079 497.637 L
130.083 497.264 L
130.083 497.051 L
130.084 496.411 L
130.084 495.824 L
130.089 495.557 L
130.089 495.184 L
130.104 494.65 L
130.104 493.904 L
130.105 493.424 L
130.107 492.89 L
130.107 492.57 L
130.107 492.09 L
130.107 491.663 L
130.107 491.023 L
130.112 490.81 L
130.112 490.543 L
130.112 489.797 L
130.112 489.423 L
130.125 489.156 L
130.128 488.623 L
130.128 488.463 L
130.13 488.196 L
130.132 487.983 L
130.133 487.503 L
130.133 487.183 L
130.138 486.703 L
130.138 486.329 L
130.138 485.796 L
130.141 485.369 L
130.141 484.729 L
130.158 484.516 L
130.159 484.089 L
130.163 483.769 L
130.163 483.076 L
130.164 482.862 L
130.166 482.116 L
130.166 481.689 L
130.167 481.156 L
130.167 480.836 L
130.167 480.515 L
130.167 480.195 L
130.208 479.662 L
130.208 479.235 L
130.208 478.862 L
130.208 478.595 L
130.209 478.115 L
130.212 477.849 L
130.213 477.528 L
130.213 477.422 L
130.216 476.888 L
130.218 476.515 L
130.222 476.088 L
130.224 475.875 L
130.257 475.342 L
130.257 474.701 L
130.268 474.328 L
130.27 474.115 L
130.27 473.528 L
130.275 473.261 L
130.276 472.941 L
130.278 472.568 L
130.284 472.141 L
130.288 471.768 L
130.288 471.448 L
130.291 471.021 L
130.311 470.541 L
130.312 470.221 L
130.312 470.061 L
130.314 469.688 L
130.322 469.261 L
130.322 468.994 L
130.324 468.727 L
130.326 468.247 L
130.329 467.767 L
130.333 467.394 L
130.336 467.127 L
130.337 466.967 L
130.376 466.594 L
130.376 466.221 L
130.391 465.954 L
130.395 465.367 L
130.397 464.994 L
130.397 464.62 L
130.404 464.087 L
130.404 463.874 L
130.408 463.554 L
130.418 463.18 L
130.418 462.753 L
130.436 462.38 L
130.479 461.953 L
130.48 461.74 L
130.488 461.1 L
130.49 460.78 L
130.491 460.407 L
130.495 460.033 L
130.511 459.606 L
130.511 458.86 L
130.538 458.273 L
130.538 457.953 L
130.555 457.313 L
130.555 456.939 L
130.595 456.299 L
130.595 455.979 L
130.599 455.339 L
130.601 454.966 L
130.603 454.059 L
130.633 453.312 L
130.634 452.566 L
130.64 451.766 L
130.643 451.286 L
130.647 450.645 L
130.655 450.219 L
130.672 449.579 L
130.713 448.992 L
130.718 448.512 L
130.724 447.978 L
130.747 447.232 L
130.747 446.592 L
130.751 445.845 L
130.751 445.258 L
130.757 444.351 L
130.758 443.445 L
130.758 442.698 L
130.761 442.218 L
130.761 441.524 L
130.907 440.458 L
130.907 439.871 L
130.911 438.857 L
130.915 438.111 L
130.92 437.417 L
130.924 436.351 L
130.925 435.284 L
130.929 434.377 L
130.934 433.203 L
130.984 432.617 L
131.003 431.55 L
131.012 430.483 L
131.072 429.203 L
131.1 428.456 L
131.111 427.123 L
131.124 426.216 L
131.136 425.096 L
131.144 424.296 L
131.199 423.069 L
131.216 421.789 L
131.221 420.562 L
131.238 419.175 L
131.255 417.788 L
131.272 416.508 L
131.333 415.175 L
131.351 413.948 L
131.362 412.508 L
131.372 411.388 L
131.438 410.001 L
131.462 408.454 L
131.487 407.281 L
131.52 406.374 L
131.54 405.36 L
131.582 403.76 L
131.605 402.267 L
131.644 400.667 L
131.74 399.493 L
131.817 398.32 L
131.858 396.933 L
131.915 395.759 L
131.961 394.106 L
132.029 392.772 L
132.071 391.599 L
132.132 389.785 L
132.208 388.345 L
132.298 386.958 L
132.413 384.665 L
132.542 382.905 L
132.638 381.358 L
132.763 379.971 L
132.892 377.944 L
133.019 376.077 L
133.174 374.584 L
133.316 372.663 L
133.454 370.797 L
133.703 369.41 L
133.908 368.076 L
134.099 366.476 L
134.335 364.716 L
134.668 362.956 L
134.936 360.822 L
135.228 359.169 L
135.56 357.462 L
135.873 356.075 L
136.323 354.581 L
136.764 352.021 L
137.272 349.461 L
137.665 347.861 L
138.201 345.354 L
138.796 343.487 L
139.406 341.3 L
140.071 338.846 L
140.74 336.499 L
141.612 334.366 L
142.481 332.179 L
143.383 330.312 L
144.321 328.018 L
145.401 325.671 L
146.533 323.485 L
147.781 321.564 L
149.116 319.644 L
150.57 317.831 L
152.143 315.164 L
153.827 313.083 L
155.702 310.683 L
157.533 307.749 L
159.54 305.829 L
161.655 303.482 L
163.924 301.349 L
166.324 299.215 L
168.902 296.815 L
171.721 294.255 L
174.62 292.121 L
177.812 289.561 L
181.248 287.054 L
184.93 285.08 L
188.672 282.947 L
192.645 280.653 L
196.806 278.039 L
201.16 275.799 L
205.867 273.666 L
210.774 270.945 L
215.855 267.478 L
221.315 264.705 L
226.981 261.664 L
232.742 259.211 L
239.043 256.49 L
245.5 253.45 L
252.202 250.57 L
259.337 247.636 L
266.96 244.382 L
274.351 241.609 L
282.016 238.888 L
290.199 235.475 L
298.556 232.328 L
307.132 229.181 L
316.514 225.927 L
325.257 223.58 L
334.647 220.646 L
344.193 217.446 L
354.148 215.312 L
364.011 212.645 L
374.105 209.925 L
384.477 206.725 L
395.428 203.524 L
405.789 201.124 L
416.628 197.55 L
427.552 195.043 L
438.695 191.63 L
450.089 188.483 L
461.118 185.336 L
472.499 182.615 L
483.784 179.628 L
494.82 177.335 L
505.755 175.041 L
516.618 171.307 L
527.691 168.214 L
538.313 165.44 L
549.318 162.773 L
559.566 160.746 L
570.513 158.239 L
580.822 155.039 L
591.305 152.159 L
600.72 149.598 L
610.846 147.305 L
620.374 144.851 L
629.571 143.091 L
638.354 141.331 L
647.082 138.931 L
655.432 136.797 L
663.801 134.717 L
671.737 133.17 L
679.156 131.623 L
686.47 130.45 L
693.34 128.583 L
700.128 127.516 L
706.558 126.716 L
712.842 125.329 L
718.675 124.049 L
724.18 122.502 L
729.536 121.009 L
734.51 119.728 L
739.3 118.608 L
743.512 117.648 L
747.94 116.635 L
751.43 115.941 L
855.843 57.748 L
857.993 57.428 L
860.896 56.841 L
864.166 55.935 L
866.999 55.294 L
869.824 54.494 L
872.342 53.961 L
874.67 53.481 L
876.784 53.161 L
878.732 52.788 L
880.743 52.201 L
882.361 51.667 L
884.002 51.081 L
885.49 50.814 L
886.915 50.494 L
888.204 50.174 L
889.385 49.907 L
890.596 49.534 L
891.613 49.16 L
892.483 48.947 L
893.337 48.574 L
894.125 48.36 L
894.857 48.04 L
895.572 47.667 L
896.231 47.4 L
896.902 47.294 L
897.436 47.027 L
897.903 46.92 L
898.364 46.92 L
898.765 46.654 L
899.151 46.654 L
899.519 46.493 L
899.844 46.387 L
900.161 46.333 L
900.45 46.28 L
900.73 46.227 L
901.021 46.067 L
901.248 46.013 L
901.526 45.907 L
901.717 45.853 L
901.901 45.8 L
902.084 45.693 L
902.247 45.693 L
902.405 45.64 L
902.571 45.587 L
902.7 45.48 L
902.83 45.427 L
902.934 45.16 L
903.054 45.16 L
903.168 45.16 L
903.271 45.107 L
903.371 45.107 L
903.449 45.107 L
903.526 45.107 L
903.592 45.107 L
903.66 45.107 L
903.738 45.107 L
903.796 45.053 L
903.901 45 L
903.943 45 L
904.016 45 L
904.06 45 L
904.108 45 L
904.143 45 L
904.189 45 L
904.224 45 L
904.276 45 L
904.317 45 L
904.357 45 L
904.392 45 L
904.413 45 L
904.446 45 L
904.464 45 L
904.493 45 L
904.505 45 L
904.537 45 L
904.56 45 L
904.582 45 L
904.6 45 L
904.629 45 L
904.638 45 L
904.646 45 L
904.659 45 L
904.666 45 L
904.703 45 L
904.712 45 L
904.733 45 L
904.737 45 L
904.75 45 L
904.759 45 L
904.779 45 L
904.784 45 L
904.786 45 L
904.801 45 L
904.807 45 L
904.817 45 L
904.832 45 L
904.843 45 L
904.843 45 L
904.847 45 L
904.85 45 L
904.858 45 L
904.859 45 L
904.863 45 L
904.872 45 L
904.878 45 L
904.884 45 L
904.888 45 L
904.897 45 L
904.899 45 L
904.905 45 L
904.905 45 L
904.914 45 L
904.918 45 L
904.918 45 L
904.925 45 L
904.925 45 L
904.925 45 L
904.926 45 L
904.93 45 L
904.93 45 L
904.933 45 L
904.934 45 L
904.935 45 L
904.937 45 L
904.941 45 L
904.941 45 L
904.942 45 L
904.945 45 L
904.945 45 L
904.945 45 L
904.946 45 L
904.951 45 L
904.951 45 L
904.953 45 L
904.954 45 L
904.955 45 L
904.957 45 L
904.957 45 L
904.958 45 L
904.959 45 L
904.962 45 L
904.963 45 L
904.963 45 L
904.964 45 L
904.964 45 L
904.966 45 L
904.966 45 L
904.966 45 L
904.966 45 L
904.966 45 L
904.966 45 L
904.966 45 L
904.966 45 L
904.966 45 L
904.968 45 L
904.968 45 L
904.968 45 L
904.968 45 L
904.968 45 L
904.968 45 L
904.968 45 L
904.968 45 L
904.968 45 L
904.968 45 L
904.97 45 L
904.97 45 L
904.974 45 L
904.974 45 L
904.974 45 L
904.974 45 L
904.974 45 L
904.975 45 L
904.975 45 L
904.976 45 L
904.976 45 L
904.976 45 L
904.976 45 L
904.976 45 L
904.979 45 L
904.979 45 L
904.979 45 L
904.98 45 L
904.98 45 L
904.98 45 L
904.98 45 L
904.98 45 L
904.98 45 L
904.98 45 L
904.98 45 L
904.98 45 L
904.98 45 L
904.98 45 L
904.98 45 L
904.98 45 L
904.98 45 L
904.98 45 L
904.98 45 L
904.98 45 L
904.98 45 L
904.98 45 L
904.98 45 L
904.98 45 L
904.98 45 L
904.98 45 L
904.98 45 L
904.98 45 L
904.98 45 L
904.98 45 L
904.982 45 L
904.982 45 L
904.982 45 L
904.982 45 L
904.982 45 L
904.982 45 L
904.982 45 L
904.982 45 L
904.982 45 L
904.982 45 L
904.982 45 L
904.982 45 L
904.982 45 L
904.982 45 L
904.982 45 L
904.982 45 L
904.982 45 L
904.982 45 L
904.982 45 L
904.982 45 L
904.982 45 L
904.982 45 L
904.982 45 L
904.982 45 L
904.982 45 L
904.982 45 L
904.982 45 L
904.982 45 L
904.982 45 L
904.982 45 L
904.982 45 L
904.982 45 L
904.982 45 L
904.982 45 L
904.982 45 L
904.982 45 L
904.982 45 L
904.982 45 L
904.982 45 L
904.982 45 L
904.982 45 L
904.982 45 L
904.982 45 L
904.982 45 L
904.982 45 L
904.982 45 L
904.982 45 L
904.982 45 L
904.982 45 L
904.982 45 L
904.982 45 L
904.982 45 L
904.982 45 L
904.982 45 L
904.982 45 L
904.982 45 L
904.982 45 L
904.982 45 L
904.982 45 L
904.982 45 L
904.982 45 L
904.982 45 L
904.982 45 L
904.982 45 L
904.982 45 L
904.982 45 L
904.982 45 L
904.982 45 L
904.982 45 L
904.982 45 L
904.982 45 L
904.982 45 L
904.982 45 L
904.982 45 L
904.982 45 L
904.982 45 L
904.982 45 L
904.982 45 L
904.982 45 L
904.982 45 L
904.982 45 L
904.982 45 L
904.982 45 L
904.982 45 L
904.982 45 L
904.982 45 L
904.982 45 L
904.982 45 L
904.982 45 L
904.982 45 L
904.982 45 L
904.982 45 L
904.982 45 L
904.982 45 L
904.982 45 L
904.982 45 L
904.982 45 L
904.982 45 L
904.982 45 L
904.982 45 L
904.982 45 L
904.982 45 L
904.982 45 L
904.982 45 L
904.982 45 L
904.982 45 L
904.982 45 L
904.982 45 L
904.982 45 L
904.982 45 L
904.982 45 L
904.982 45 L
904.982 45 L
904.982 45 L
904.982 45 L
904.982 45 L
904.982 45 L
904.982 45 L
904.982 45 L
904.982 45 L
904.982 45 L
904.982 45 L
904.982 45 L
904.982 45 L
904.982 45 L
904.982 45 L
904.982 45 L
904.982 45 L
904.982 45 L
904.982 45 L
904.982 45 L
904.982 45 L
904.982 45 L
904.982 45 L
904.982 45 L
904.982 45 L
904.982 45 L
904.982 45 L
904.982 45 L
904.982 45 L
904.982 45 L
904.982 45 L
904.982 45 L
904.982 45 L
904.982 45 L
904.982 45 L
904.982 45 L
904.982 45 L
904.982 45 L
904.982 45 L
904.982 45 L
904.982 45 L
904.982 45 L
904.982 45 L
904.982 45 L
904.982 45 L
904.982 45 L
904.982 45 L
904.982 45 L
904.982 45 L
904.982 45 L
904.982 45 L
904.982 45 L
904.982 45 L
904.982 45 L
904.982 45 L
904.982 45 L
904.982 45 L
904.982 45 L
904.982 45 L
904.982 45 L
904.982 45 L
904.982 45 L
904.982 45 L
904.982 45 L
904.982 45 L
904.982 45 L
904.982 45 L
904.982 45 L
904.982 45 L
904.982 45 L
904.982 45 L
904.982 45 L
904.982 45 L
904.982 45 L
904.982 45 L
904.982 45 L
904.982 45 L
904.982 45 L
904.982 45 L
904.982 45 L
904.982 45 L
904.982 45 L
904.982 45 L
904.982 45 L
904.982 45 L
904.982 45 L
904.982 45 L
904.982 45 L
904.982 45 L
904.982 45 L
904.982 45 L
904.982 45 L
904.982 45 L
904.982 45 L
904.982 45 L
904.982 45 L
904.982 45 L
904.982 45 L
904.982 45 L
904.982 45 L
904.982 45 L
904.982 45 L
904.982 45 L
904.982 45 L
904.982 45 L
904.982 45 L
904.982 45 L
904.982 45 L
904.982 45 L
904.982 45 L
904.982 45 L
904.982 45 L
904.982 45 L
904.982 45 L
904.982 45 L
904.982 45 L
904.982 45 L
904.982 45 L
904.982 45 L
904.982 45 L
904.982 45 L
904.982 45 L
904.982 45 L
904.982 45 L
904.982 45 L
904.982 45 L
904.982 45 L
904.982 45 L
904.982 45 L
904.982 45 L
904.982 45 L
904.982 45 L
904.982 45 L
904.982 45 L
904.982 45 L
904.982 45 L
904.982 45 L
904.982 45 L
904.982 45 L
904.982 45 L
904.982 45 L
904.982 45 L
904.982 45 L
904.982 45 L
904.982 45 L
904.982 45 L
904.982 45 L
904.982 45 L
904.982 45 L
904.982 45 L
904.982 45 L
904.982 45 L
904.982 45 L
904.982 45 L
904.982 45 L
904.982 45 L
904.982 45 L
904.982 45 L
904.982 45 L
904.982 45 L
904.982 45 L
904.982 45 L
904.982 45 L
904.982 45 L
904.982 45 L
904.982 45 L
904.982 45 L
904.982 45 L
904.982 45 L
904.982 45 L
904.982 45 L
904.982 45 L
904.982 45 L
904.982 45 L
904.982 45 L
904.982 45 L
904.982 45 L
904.982 45 L
904.982 45 L
904.982 45 L
905 45 L
S
GR
GS
0 1 0 RC
1 LJ
3 LW
N
130 520.627 M
130 520.573 L
130 520.573 L
130 520.573 L
130 520.573 L
130 520.573 L
130 520.573 L
130 520.573 L
130 520.573 L
130 520.573 L
130 520.573 L
130 520.573 L
130 520.573 L
130 520.573 L
130 520.573 L
130 520.573 L
130 520.573 L
130 520.573 L
130 520.573 L
130 520.573 L
130 520.573 L
130 520.573 L
130 520.573 L
130 520.573 L
130 520.573 L
130 520.573 L
130 520.573 L
130 520.573 L
130 520.573 L
130 520.573 L
130 520.573 L
130 520.573 L
130 520.573 L
130 520.573 L
130 520.573 L
130 520.573 L
130 520.573 L
130 520.573 L
130 520.573 L
130 520.573 L
130 520.573 L
130 520.573 L
130 520.573 L
130 520.573 L
130 520.573 L
130 520.573 L
130 520.573 L
130 520.573 L
130 520.573 L
130 520.573 L
130 520.573 L
130 520.573 L
130 520.573 L
130 520.573 L
130 520.573 L
130 520.573 L
130 520.573 L
130 520.573 L
130 520.573 L
130 520.573 L
130 520.573 L
130 520.573 L
130 520.573 L
130 520.573 L
130 520.573 L
130 520.573 L
130 520.573 L
130 520.573 L
130 520.573 L
130 520.573 L
130 520.573 L
130 520.573 L
130 520.573 L
130 520.573 L
130 520.573 L
130 520.573 L
130 520.573 L
130 520.573 L
130 520.573 L
130 520.573 L
130 520.573 L
130 520.573 L
130 520.573 L
130 520.573 L
130 520.573 L
130 520.573 L
130 520.573 L
130 520.573 L
130 520.573 L
130 520.573 L
130 520.573 L
130 520.573 L
130 520.573 L
130 520.573 L
130 520.573 L
130 520.573 L
130 520.573 L
130 520.573 L
130 520.573 L
130 520.573 L
130 520.573 L
130 520.573 L
130 520.573 L
130 520.573 L
130 520.573 L
130 520.573 L
130 520.573 L
130 520.573 L
130 520.573 L
130 520.573 L
130 520.573 L
130 520.573 L
130 520.573 L
130 520.573 L
130 520.573 L
130 520.573 L
130 520.573 L
130 520.573 L
130 520.573 L
130 520.573 L
130 520.573 L
130 520.573 L
130 520.573 L
130 520.573 L
130 520.573 L
130 520.573 L
130 520.573 L
130 520.573 L
130 520.573 L
130 520.573 L
130 520.573 L
130 520.573 L
130 520.573 L
130 520.573 L
130 520.573 L
130 520.573 L
130 520.573 L
130 520.573 L
130 520.573 L
130 520.573 L
130 520.573 L
130 520.573 L
130 520.573 L
130 520.573 L
130 520.573 L
130 520.573 L
130 520.573 L
130 520.573 L
130 520.573 L
130 520.573 L
130 520.573 L
130 520.573 L
130 520.573 L
130 520.573 L
130 520.573 L
130 520.573 L
130 520.573 L
130 520.573 L
130 520.573 L
130 520.573 L
130 520.573 L
130 520.573 L
130 520.573 L
130 520.573 L
130 520.573 L
130 520.573 L
130 520.573 L
130 520.573 L
130 520.573 L
130 520.52 L
130 520.52 L
130 520.52 L
130 520.52 L
130 520.52 L
130 520.52 L
130 520.52 L
130 520.467 L
130 520.467 L
130 520.467 L
130 520.467 L
130 520.467 L
130 520.467 L
130 520.467 L
130 520.467 L
130 520.467 L
130 520.467 L
130 520.467 L
130 520.467 L
130 520.413 L
130 520.413 L
130 520.36 L
130 520.307 L
130 520.307 L
130 520.253 L
130 520.147 L
130 520.093 L
130 520.093 L
130 520.093 L
130 520.093 L
130 520.093 L
130 520.093 L
130 519.987 L
130 519.987 L
130 519.827 L
130 519.773 L
130 519.613 L
130 519.56 L
130 519.453 L
130 519.453 L
130 519.293 L
130 519.293 L
130 519.293 L
130 519.24 L
130 519.186 L
130 519.08 L
130 518.973 L
130 518.92 L
130 518.76 L
130 518.76 L
130 518.76 L
130 518.653 L
130 518.6 L
130 518.493 L
130 518.386 L
130 518.28 L
130 518.173 L
130 518.173 L
130 518.013 L
130 517.8 L
130 517.8 L
130 517.64 L
130 517.266 L
130 517 L
130 516.946 L
130 516.786 L
130 516.733 L
130 516.519 L
130 516.306 L
130 515.986 L
130 515.879 L
130 515.559 L
130 515.293 L
130 515.239 L
130 514.919 L
130 514.759 L
130 514.546 L
130 514.386 L
130 514.386 L
130 514.226 L
130 514.119 L
130 513.853 L
130 513.639 L
130 513.532 L
130 513.266 L
130 512.892 L
130 512.572 L
130 512.199 L
130 511.826 L
130 511.666 L
130 511.399 L
130 511.186 L
130 510.866 L
130 510.652 L
130 510.439 L
130 510.172 L
130 510.119 L
130 509.959 L
130 509.799 L
130 509.372 L
130 508.999 L
130 508.839 L
130 508.465 L
130 508.039 L
130 507.932 L
130 507.398 L
130 507.025 L
130 506.758 L
130 506.545 L
130 506.118 L
130 505.745 L
130 505.478 L
130 505.052 L
130 504.785 L
130 504.198 L
130 504.038 L
130 503.825 L
130 503.718 L
130 503.451 L
130 503.131 L
130 502.811 L
130 502.385 L
130 501.798 L
130 501.585 L
130 501.371 L
130 500.944 L
130 500.624 L
130 500.251 L
130 499.664 L
130 499.344 L
130 499.131 L
130 498.864 L
130 498.704 L
130 498.277 L
130 498.117 L
130 497.851 L
130 497.477 L
130 497.051 L
130 496.464 L
130 495.931 L
130 495.61 L
130 495.237 L
130 494.704 L
130 494.17 L
130 493.904 L
130 493.637 L
130 493.424 L
130 492.944 L
130 492.623 L
130 492.517 L
130 492.197 L
130 491.983 L
130 491.557 L
130 491.183 L
130 490.757 L
130 490.223 L
130 489.797 L
130 489.37 L
130 489.21 L
130 488.783 L
130 488.196 L
130 487.77 L
130 487.343 L
130 486.916 L
130 486.383 L
130 485.849 L
130 485.423 L
130 485.156 L
130 484.676 L
130 484.516 L
130 483.716 L
130 482.969 L
130 482.809 L
130 482.489 L
130 482.009 L
130 481.689 L
130 481.316 L
130 480.942 L
130 480.622 L
130 480.409 L
130 479.875 L
130 479.395 L
130 479.129 L
130 478.702 L
130 478.275 L
130 477.902 L
130 477.475 L
130 477.102 L
130 476.728 L
130 476.515 L
130 476.035 L
130 475.662 L
130 474.968 L
130 474.648 L
130 473.955 L
130 473.581 L
130 473.101 L
130 472.728 L
130 472.355 L
130 471.928 L
130 471.448 L
130 470.968 L
130 470.434 L
130 470.114 L
130 469.421 L
130 469.048 L
130 468.674 L
130 468.354 L
130 467.981 L
130 467.607 L
130 467.287 L
130 466.647 L
130 466.007 L
130 465.367 L
130 464.994 L
130 464.46 L
130 464.247 L
130 463.607 L
130 463.34 L
130 462.753 L
130 462.433 L
130 461.9 L
130 461.58 L
130 460.993 L
130 460.407 L
130 460.14 L
130 459.873 L
130 459.286 L
130 458.753 L
130 458.54 L
130 458.433 L
130 458.06 L
130 457.633 L
130 457.313 L
130 456.726 L
130 456.246 L
130 455.819 L
130 455.553 L
130 455.126 L
130 455.126 L
130 454.593 L
130 453.952 L
130 453.686 L
130 453.046 L
130 452.779 L
130 452.619 L
130 452.246 L
130 451.766 L
130 451.339 L
130 450.859 L
130 450.485 L
130 450.112 L
130 449.845 L
130 449.419 L
130 449.045 L
130 448.725 L
130 448.405 L
130 447.925 L
130 447.392 L
130 447.072 L
130 446.485 L
130 446.112 L
130 445.845 L
130 445.632 L
130 445.312 L
130 444.778 L
130 444.031 L
130 443.498 L
130 443.125 L
130 442.485 L
130 441.844 L
130 441.578 L
130 440.991 L
130 440.938 L
130 440.298 L
130 439.871 L
130 439.338 L
130 439.017 L
130 438.484 L
130 437.951 L
130 437.577 L
130 436.671 L
130 435.924 L
130 435.337 L
130 434.91 L
130 434.324 L
130 433.47 L
130 432.99 L
130 432.19 L
130 431.657 L
130 430.857 L
130 430.323 L
130 430.11 L
130 429.416 L
130 428.99 L
130 428.616 L
130 428.083 L
130 427.603 L
130 426.963 L
130 426.429 L
130 426.056 L
130 425.576 L
130 424.883 L
130 424.136 L
130 423.496 L
130 422.696 L
130.001 422.269 L
130.001 421.415 L
130.001 420.509 L
130.001 419.815 L
130.001 419.122 L
130.001 418.535 L
130.001 418.215 L
130.001 417.575 L
130.001 416.882 L
130.001 416.295 L
130.001 415.335 L
130.004 414.908 L
130.005 414.215 L
130.005 413.735 L
130.005 412.935 L
130.005 412.028 L
130.005 411.334 L
130.005 410.908 L
130.005 410.161 L
130.008 409.628 L
130.009 408.721 L
130.009 407.814 L
130.009 406.961 L
130.009 406.32 L
130.011 405.52 L
130.012 404.614 L
130.012 403.814 L
130.012 403.013 L
130.012 402.213 L
130.012 401.68 L
130.014 400.453 L
130.016 399.226 L
130.018 397.946 L
130.02 396.826 L
130.02 395.813 L
130.025 394.639 L
130.026 393.572 L
130.026 392.612 L
130.029 391.546 L
130.03 390.532 L
130.036 388.879 L
130.038 388.078 L
130.042 386.852 L
130.043 385.732 L
130.043 384.825 L
130.046 384.131 L
130.05 382.905 L
130.053 381.518 L
130.057 380.344 L
130.062 379.011 L
130.063 377.891 L
130.064 376.29 L
130.075 374.53 L
130.08 373.357 L
130.084 372.183 L
130.095 370.636 L
130.099 369.463 L
130.109 367.756 L
130.118 366.423 L
130.124 364.983 L
130.13 363.116 L
130.139 361.836 L
130.157 360.289 L
130.172 358.688 L
130.183 357.408 L
130.196 356.182 L
130.211 354.581 L
130.228 353.408 L
130.241 351.808 L
130.275 349.781 L
130.292 348.234 L
130.33 346.58 L
130.37 344.927 L
130.403 343.433 L
130.442 342.047 L
130.478 340.446 L
130.526 339.006 L
130.575 337.459 L
130.615 336.233 L
130.666 335.219 L
130.721 333.352 L
130.801 331.752 L
130.874 330.312 L
130.945 328.498 L
131.038 326.632 L
131.153 324.445 L
131.265 322.844 L
131.37 320.978 L
131.509 319.164 L
131.692 317.297 L
131.837 315.75 L
132.021 313.723 L
132.219 312.017 L
132.449 310.203 L
132.703 308.389 L
132.959 306.629 L
133.262 304.709 L
133.603 302.522 L
133.95 300.602 L
134.317 298.522 L
134.728 296.281 L
135.147 294.255 L
135.645 291.801 L
136.147 290.201 L
136.727 288.601 L
137.389 285.774 L
138.092 283.693 L
138.828 281.293 L
139.639 279.106 L
140.498 277.133 L
141.409 274.999 L
142.387 272.599 L
143.493 270.519 L
144.645 268.385 L
145.815 266.305 L
147.116 263.851 L
148.458 261.291 L
149.96 259.317 L
151.527 257.344 L
153.155 255.317 L
154.875 254.09 L
156.787 252.33 L
158.562 250.356 L
160.591 248.543 L
162.645 246.889 L
164.824 244.009 L
166.959 242.515 L
169.235 240.489 L
171.481 238.675 L
173.733 237.022 L
176.063 235.048 L
178.466 233.181 L
180.905 231.634 L
183.28 230.247 L
185.746 228.807 L
188.072 227.367 L
190.582 226.034 L
192.998 224.7 L
195.409 223.26 L
197.761 222.247 L
200.044 221.02 L
202.33 219.793 L
204.405 218.619 L
206.567 217.179 L
208.577 216.219 L
210.43 215.099 L
212.382 214.246 L
214.229 213.926 L
215.954 212.699 L
217.571 212.005 L
219.075 211.419 L
220.566 210.992 L
222.075 210.512 L
223.362 209.605 L
224.534 209.285 L
225.653 208.965 L
226.69 208.592 L
227.714 208.218 L
228.65 207.898 L
229.466 207.632 L
230.189 207.312 L
230.843 206.991 L
231.47 206.671 L
232.025 206.245 L
232.554 206.085 L
233.042 205.925 L
233.436 205.818 L
233.734 205.765 L
234.05 205.711 L
234.332 205.711 L
234.617 205.658 L
234.85 205.551 L
235.024 205.391 L
235.211 205.231 L
235.363 205.125 L
235.474 205.071 L
235.571 205.018 L
235.657 204.965 L
235.738 204.911 L
235.804 204.911 L
235.874 204.858 L
235.942 204.805 L
235.982 204.751 L
236.027 204.751 L
236.061 204.698 L
236.082 204.698 L
236.1 204.698 L
236.123 204.698 L
241.781 201.818 L
248.213 198.671 L
254.874 194.67 L
261.9 190.776 L
268.93 187.363 L
275.842 184.002 L
283.126 181.282 L
290.574 177.922 L
298.197 174.988 L
305.782 172.161 L
313.645 169.494 L
321.017 167.68 L
328.755 165.173 L
336.425 162.933 L
344.105 159.893 L
351.525 157.599 L
358.623 155.626 L
365.297 154.026 L
371.27 152.905 L
377.08 151.732 L
382.321 150.665 L
387.134 149.545 L
391.27 148.638 L
394.769 147.998 L
397.483 147.625 L
399.822 147.411 L
401.702 147.145 L
403.115 146.985 L
404.129 146.985 L
404.804 146.985 L
405.272 146.931 L
405.587 146.878 L
405.724 146.878 L
405.814 146.878 L
405.875 146.878 L
405.901 146.878 L
405.908 146.878 L
405.91 146.878 L
405.912 146.878 L
405.912 146.878 L
405.912 146.878 L
405.912 146.878 L
405.912 146.878 L
405.912 146.878 L
405.912 146.878 L
405.912 146.878 L
405.912 146.878 L
405.912 146.878 L
405.912 146.878 L
405.912 146.878 L
405.912 146.878 L
405.912 146.878 L
405.912 146.878 L
405.912 146.878 L
405.912 146.878 L
405.912 146.878 L
405.912 146.878 L
405.912 146.878 L
405.912 146.878 L
405.912 146.878 L
405.912 146.878 L
405.912 146.878 L
405.912 146.878 L
405.912 146.878 L
405.912 146.878 L
405.912 146.878 L
405.912 146.878 L
405.912 146.878 L
405.912 146.878 L
405.912 146.878 L
405.912 146.878 L
405.912 146.878 L
405.912 146.878 L
405.912 146.878 L
405.912 146.878 L
405.912 146.878 L
405.912 146.878 L
405.912 146.878 L
405.912 146.878 L
405.912 146.878 L
405.912 146.878 L
405.912 146.878 L
405.912 146.878 L
405.912 146.878 L
405.912 146.878 L
405.912 146.878 L
405.912 146.878 L
405.912 146.878 L
405.912 146.878 L
405.912 146.878 L
405.912 146.878 L
405.912 146.878 L
405.912 146.878 L
405.912 146.878 L
405.912 146.878 L
405.912 146.878 L
405.912 146.878 L
405.912 146.878 L
405.912 146.878 L
405.912 146.878 L
405.912 146.878 L
405.912 146.878 L
405.912 146.878 L
405.912 146.878 L
405.912 146.878 L
405.912 146.878 L
405.912 146.878 L
405.912 146.878 L
405.912 146.878 L
405.912 146.878 L
405.912 146.878 L
405.912 146.878 L
405.912 146.878 L
405.912 146.878 L
405.912 146.878 L
405.912 146.878 L
405.912 146.878 L
405.912 146.878 L
405.912 146.878 L
405.912 146.878 L
405.912 146.878 L
405.912 146.878 L
405.912 146.878 L
405.912 146.878 L
405.912 146.878 L
405.912 146.878 L
405.912 146.878 L
405.912 146.878 L
405.912 146.878 L
405.912 146.878 L
405.912 146.878 L
405.912 146.878 L
405.912 146.878 L
405.912 146.878 L
405.912 146.878 L
405.912 146.878 L
405.912 146.878 L
405.912 146.878 L
405.912 146.878 L
405.912 146.878 L
405.912 146.878 L
405.912 146.878 L
405.912 146.878 L
405.912 146.878 L
405.912 146.878 L
405.912 146.878 L
405.912 146.878 L
405.912 146.878 L
405.912 146.878 L
405.912 146.878 L
405.912 146.878 L
405.912 146.878 L
405.912 146.878 L
405.912 146.878 L
405.912 146.878 L
405.912 146.878 L
405.912 146.878 L
405.912 146.878 L
405.912 146.878 L
405.912 146.878 L
405.912 146.878 L
405.912 146.878 L
405.912 146.878 L
405.912 146.878 L
405.912 146.878 L
405.912 146.878 L
405.912 146.878 L
405.912 146.878 L
405.912 146.878 L
405.912 146.878 L
405.912 146.878 L
405.912 146.878 L
405.912 146.878 L
405.912 146.878 L
405.912 146.878 L
405.912 146.878 L
405.912 146.878 L
405.912 146.878 L
405.912 146.878 L
405.912 146.878 L
405.912 146.878 L
405.912 146.878 L
405.912 146.878 L
405.912 146.878 L
405.912 146.878 L
405.912 146.878 L
405.912 146.878 L
405.912 146.878 L
405.912 146.878 L
405.912 146.878 L
405.912 146.878 L
405.912 146.878 L
405.912 146.878 L
405.912 146.878 L
405.912 146.878 L
405.912 146.878 L
405.912 146.878 L
405.912 146.878 L
405.912 146.878 L
405.912 146.878 L
405.912 146.878 L
405.912 146.878 L
405.912 146.878 L
405.912 146.878 L
405.912 146.878 L
405.912 146.878 L
405.912 146.878 L
405.912 146.878 L
405.912 146.878 L
405.912 146.878 L
405.912 146.878 L
405.912 146.878 L
405.912 146.878 L
405.912 146.878 L
405.912 146.878 L
405.912 146.878 L
405.912 146.878 L
405.912 146.878 L
405.912 146.878 L
405.912 146.878 L
405.912 146.878 L
405.912 146.878 L
405.912 146.878 L
405.912 146.878 L
405.912 146.878 L
405.912 146.878 L
405.912 146.878 L
405.912 146.878 L
405.912 146.878 L
405.912 146.878 L
405.912 146.878 L
405.912 146.878 L
405.912 146.878 L
405.912 146.878 L
405.912 146.878 L
405.912 146.878 L
405.912 146.878 L
405.912 146.878 L
405.912 146.878 L
405.912 146.878 L
405.912 146.878 L
405.912 146.878 L
405.912 146.878 L
405.912 146.878 L
405.912 146.878 L
405.912 146.878 L
405.912 146.878 L
405.912 146.878 L
405.912 146.878 L
405.912 146.878 L
405.912 146.878 L
405.912 146.878 L
405.912 146.878 L
405.912 146.878 L
405.912 146.878 L
405.912 146.878 L
405.912 146.878 L
405.912 146.878 L
405.912 146.878 L
405.912 146.878 L
405.912 146.878 L
405.912 146.878 L
405.912 146.878 L
405.912 146.878 L
405.912 146.878 L
405.912 146.878 L
405.912 146.878 L
405.912 146.878 L
405.912 146.878 L
405.912 146.878 L
405.912 146.878 L
405.912 146.878 L
405.912 146.878 L
405.912 146.878 L
405.912 146.878 L
405.912 146.878 L
405.912 146.878 L
405.912 146.878 L
405.912 146.878 L
405.912 146.878 L
405.912 146.878 L
405.912 146.878 L
405.912 146.878 L
405.912 146.878 L
405.912 146.878 L
405.912 146.878 L
405.912 146.878 L
405.912 146.878 L
405.912 146.878 L
405.912 146.878 L
405.912 146.878 L
405.912 146.878 L
405.912 146.878 L
405.912 146.878 L
405.912 146.878 L
405.912 146.878 L
405.912 146.878 L
405.912 146.878 L
405.912 146.878 L
405.912 146.878 L
405.912 146.878 L
405.912 146.878 L
405.912 146.878 L
405.912 146.878 L
405.912 146.878 L
405.912 146.878 L
405.912 146.878 L
405.912 146.878 L
405.912 146.878 L
405.912 146.878 L
405.912 146.878 L
405.912 146.878 L
405.912 146.878 L
405.912 146.878 L
405.912 146.878 L
405.912 146.878 L
405.912 146.878 L
405.912 146.878 L
405.912 146.878 L
405.912 146.878 L
405.912 146.878 L
405.912 146.878 L
405.912 146.878 L
405.912 146.878 L
405.912 146.878 L
405.912 146.878 L
405.912 146.878 L
405.912 146.878 L
405.912 146.878 L
405.912 146.878 L
405.912 146.878 L
405.912 146.878 L
405.912 146.878 L
405.912 146.878 L
405.912 146.878 L
405.912 146.878 L
405.912 146.878 L
905 45 L
S
GR
GS
1 LJ
3 LW
N
130 520.573 M
130 520.573 L
130 520.573 L
130 520.573 L
130 520.573 L
130 520.573 L
130 520.573 L
130 520.573 L
130 520.573 L
130 520.573 L
130 520.573 L
130 520.573 L
130 520.573 L
130 520.573 L
130 520.573 L
130 520.573 L
130 520.573 L
130 520.573 L
130 520.573 L
130 520.573 L
130 520.573 L
130 520.573 L
130 520.573 L
130 520.573 L
130 520.573 L
130 520.573 L
130 520.573 L
130 520.573 L
130 520.573 L
130 520.573 L
130 520.573 L
130 520.573 L
130 520.573 L
130 520.573 L
130 520.573 L
130 520.573 L
130 520.573 L
130 520.573 L
130 520.573 L
130 520.573 L
130 520.573 L
130 520.573 L
130 520.573 L
130 520.573 L
130 520.573 L
130 520.573 L
130 520.573 L
130 520.573 L
130 520.573 L
130 520.573 L
130 520.573 L
130 520.573 L
130 520.573 L
130 520.573 L
130 520.573 L
130 520.573 L
130 520.573 L
130 520.573 L
130 520.573 L
130 520.573 L
130 520.573 L
130 520.573 L
130 520.573 L
130 520.573 L
130 520.573 L
130 520.573 L
130 520.573 L
130 520.573 L
130 520.573 L
130 520.573 L
130 520.573 L
130 520.573 L
130 520.573 L
130 520.573 L
130 520.573 L
130 520.573 L
130 520.573 L
130 520.573 L
130 520.573 L
130 520.573 L
130 520.573 L
130 520.573 L
130 520.573 L
130 520.573 L
130 520.573 L
130 520.573 L
130 520.573 L
130 520.573 L
130 520.573 L
130 520.573 L
130 520.573 L
130 520.573 L
130 520.573 L
130 520.573 L
130 520.573 L
130 520.573 L
130 520.573 L
130 520.573 L
130 520.573 L
130 520.573 L
130 520.573 L
130 520.573 L
130 520.573 L
130 520.573 L
130 520.573 L
130 520.573 L
130 520.573 L
130 520.573 L
130 520.573 L
130 520.573 L
130 520.573 L
130 520.573 L
130 520.573 L
130 520.573 L
130 520.573 L
130 520.573 L
130 520.573 L
130 520.573 L
130 520.573 L
130 520.573 L
130 520.573 L
130 520.573 L
130 520.573 L
130 520.573 L
130 520.573 L
130 520.573 L
130 520.573 L
130 520.573 L
130 520.573 L
130 520.573 L
130 520.573 L
130 520.573 L
130 520.573 L
130 520.573 L
130 520.573 L
130 520.573 L
130 520.573 L
130 520.573 L
130 520.573 L
130 520.573 L
130 520.573 L
130 520.573 L
130 520.573 L
130 520.573 L
130 520.573 L
130 520.573 L
130 520.573 L
130 520.573 L
130 520.573 L
130 520.573 L
130 520.573 L
130 520.573 L
130 520.573 L
130 520.573 L
130 520.573 L
130 520.573 L
130 520.573 L
130 520.573 L
130 520.573 L
130 520.573 L
130 520.573 L
130 520.573 L
130 520.573 L
130 520.573 L
130 520.573 L
130 520.573 L
130 520.573 L
130 520.573 L
130 520.573 L
130 520.573 L
130 520.573 L
130 520.573 L
130 520.573 L
130 520.573 L
130 520.573 L
130 520.573 L
130 520.573 L
130 520.52 L
130 520.467 L
130 520.467 L
130 520.467 L
130 520.467 L
130 520.467 L
130 520.467 L
130 520.467 L
130 520.467 L
130 520.467 L
130 520.467 L
130 520.467 L
130 520.467 L
130 520.467 L
130 520.467 L
130 520.467 L
130 520.467 L
130 520.413 L
130 520.413 L
130 520.413 L
130 520.413 L
130 520.413 L
130 520.413 L
130 520.413 L
130 520.36 L
130 520.307 L
130 520.307 L
130 520.253 L
130 520.253 L
130 520.2 L
130 520.2 L
130 520.2 L
130 520.2 L
130 520.093 L
130 520.04 L
130 520.04 L
130 520.04 L
130 520.04 L
130 519.987 L
130 519.88 L
130 519.88 L
130 519.827 L
130 519.773 L
130 519.773 L
130 519.72 L
130 519.72 L
130 519.667 L
130 519.667 L
130 519.56 L
130 519.506 L
130 519.453 L
130 519.293 L
130 519.133 L
130 519.08 L
130 519.026 L
130 519.026 L
130 518.973 L
130 518.973 L
130 518.813 L
130 518.6 L
130 518.493 L
130 518.333 L
130 518.226 L
130 518.226 L
130 518.226 L
130 518.226 L
130 518.226 L
130 518.173 L
130 518.12 L
130 517.906 L
130 517.853 L
130 517.8 L
130 517.8 L
130 517.8 L
130 517.8 L
130 517.64 L
130 517.533 L
130 517.32 L
130 517.213 L
130 517.16 L
130 517 L
130 516.893 L
130 516.84 L
130 516.466 L
130 516.253 L
130 516.093 L
130 515.933 L
130 515.773 L
130 515.613 L
130 515.453 L
130 515.293 L
130 515.239 L
130 514.919 L
130 514.599 L
130 514.333 L
130 514.173 L
130 514.066 L
130 513.799 L
130 513.532 L
130 513.319 L
130 513.212 L
130 512.946 L
130 512.786 L
130 512.412 L
130 512.359 L
130 512.199 L
130 512.146 L
130 512.092 L
130 511.826 L
130 511.506 L
130 511.346 L
130 511.026 L
130 510.652 L
130 510.652 L
130.001 510.492 L
130.001 510.012 L
130.001 509.745 L
130.001 509.585 L
130.001 509.159 L
130.001 508.999 L
130.001 508.412 L
130.001 508.305 L
130.001 508.199 L
130.001 507.879 L
130.001 507.452 L
130.001 507.292 L
130.001 507.078 L
130.001 506.865 L
130.001 506.545 L
130.001 506.438 L
130.001 506.065 L
130.001 505.958 L
130.001 505.852 L
130.001 505.692 L
130.001 505.372 L
130.001 505.158 L
130.001 504.945 L
130.001 504.411 L
130.001 504.038 L
130.001 503.878 L
130.001 503.398 L
130.001 503.131 L
130.001 502.811 L
130.001 502.545 L
130.001 502.331 L
130.001 502.118 L
130.001 501.745 L
130.001 501.264 L
130.001 501.104 L
130.001 500.838 L
130.001 500.624 L
130.001 500.464 L
130.001 500.251 L
130.001 499.931 L
130.001 499.611 L
130.001 499.344 L
130.001 498.971 L
130.001 498.651 L
130.001 498.171 L
130.001 498.011 L
130.001 497.637 L
130.001 497.211 L
130.001 496.891 L
130.001 496.517 L
130.001 496.304 L
130.001 496.251 L
130.001 495.984 L
130.001 495.664 L
130.001 495.184 L
130.001 494.65 L
130.001 494.437 L
130.001 493.744 L
130.001 493.157 L
130.001 492.997 L
130.001 492.517 L
130.001 491.93 L
130.001 491.663 L
130.001 491.397 L
130.001 490.97 L
130.001 490.65 L
130.001 490.33 L
130.001 490.117 L
130.001 489.743 L
130.001 489.37 L
130.001 489.05 L
130.001 488.836 L
130.001 488.676 L
130.001 488.516 L
130.001 487.983 L
130.001 487.77 L
130.001 487.663 L
130.001 487.29 L
130.001 487.076 L
130.001 486.649 L
130.001 486.383 L
130.001 486.169 L
130.001 485.636 L
130.001 485.316 L
130.001 484.943 L
130.001 484.729 L
130.001 484.409 L
130.001 483.929 L
130.001 483.716 L
130.001 483.289 L
130.001 483.129 L
130.001 482.916 L
130.001 482.649 L
130.001 482.382 L
130.001 481.902 L
130.001 481.209 L
130.001 480.836 L
130.001 480.675 L
130.001 480.035 L
130.001 479.555 L
130.001 479.289 L
130.001 478.915 L
130.001 478.649 L
130.001 478.169 L
130.001 478.009 L
130.001 477.688 L
130.001 477.528 L
130.001 477.155 L
130.001 476.888 L
130.001 476.728 L
130.001 476.515 L
130.001 476.035 L
130.001 475.502 L
130.001 475.128 L
130.001 474.648 L
130.001 474.435 L
130.001 474.115 L
130.001 473.741 L
130.001 473.368 L
130.001 473.208 L
130.001 472.515 L
130.001 472.088 L
130.001 471.554 L
130.001 471.288 L
130.001 470.914 L
130.001 470.381 L
130.001 469.954 L
130.001 469.741 L
130.001 469.154 L
130.001 468.887 L
130.001 468.567 L
130.001 468.087 L
130.001 467.767 L
130.001 467.181 L
130.001 466.861 L
130.001 466.594 L
130.001 466.541 L
130.001 466.274 L
130.001 466.061 L
130.001 465.74 L
130.001 465.367 L
130.001 465.1 L
130.001 464.887 L
130.001 464.354 L
130.001 463.874 L
130.001 463.607 L
130.001 463.5 L
130.001 462.967 L
130.001 462.487 L
130.001 462.22 L
130.001 461.9 L
130.001 461.633 L
130.001 461.207 L
130.001 460.993 L
130.001 460.78 L
130.001 460.407 L
130.001 460.033 L
130.001 459.766 L
130.001 459.233 L
130.003 458.913 L
130.003 458.646 L
130.003 458.433 L
130.003 458.22 L
130.003 458.113 L
130.003 457.953 L
130.003 457.473 L
130.003 457.42 L
130.003 457.153 L
130.004 456.673 L
130.004 456.299 L
130.004 456.086 L
130.004 455.766 L
130.004 455.553 L
130.004 455.339 L
130.004 454.753 L
130.004 454.326 L
130.004 454.059 L
130.004 453.739 L
130.004 453.312 L
130.004 453.046 L
130.004 452.672 L
130.004 452.459 L
130.004 452.139 L
130.004 451.659 L
130.004 451.286 L
130.004 450.645 L
130.004 450.272 L
130.004 450.112 L
130.004 449.845 L
130.005 449.472 L
130.005 449.312 L
130.005 448.939 L
130.005 448.832 L
130.007 448.512 L
130.007 448.352 L
130.007 447.658 L
130.007 447.498 L
130.007 447.072 L
130.007 446.912 L
130.007 446.752 L
130.007 446.378 L
130.007 445.845 L
130.007 445.525 L
130.007 445.418 L
130.007 445.312 L
130.008 445.098 L
130.008 444.565 L
130.008 444.138 L
130.008 443.711 L
130.008 443.338 L
130.008 442.805 L
130.008 442.645 L
130.008 442.111 L
130.008 441.898 L
130.008 441.631 L
130.008 441.578 L
130.008 441.258 L
130.013 440.884 L
130.013 440.511 L
130.013 439.871 L
130.013 439.711 L
130.013 439.338 L
130.013 438.857 L
130.013 438.591 L
130.013 438.217 L
130.014 437.631 L
130.014 437.364 L
130.014 436.724 L
130.014 436.084 L
130.014 435.39 L
130.014 435.337 L
130.014 434.964 L
130.014 434.324 L
130.022 433.95 L
130.022 433.524 L
130.022 432.883 L
130.022 432.403 L
130.022 431.817 L
130.022 431.55 L
130.022 431.07 L
130.022 430.75 L
130.022 430.216 L
130.022 430.003 L
130.022 429.363 L
130.022 428.723 L
130.022 428.243 L
130.022 427.443 L
130.022 426.909 L
130.024 426.429 L
130.024 425.736 L
130.024 424.776 L
130.025 424.136 L
130.028 423.389 L
130.028 422.749 L
130.028 422.322 L
130.028 422.002 L
130.028 421.576 L
130.028 421.309 L
130.029 420.295 L
130.03 419.922 L
130.03 419.442 L
130.037 418.749 L
130.037 418.322 L
130.038 418.055 L
130.038 417.682 L
130.038 417.095 L
130.038 416.402 L
130.038 415.495 L
130.038 414.641 L
130.039 414.108 L
130.041 413.468 L
130.051 413.148 L
130.051 412.775 L
130.051 412.294 L
130.051 411.708 L
130.051 411.121 L
130.053 410.481 L
130.053 410.108 L
130.053 409.307 L
130.055 408.081 L
130.059 407.654 L
130.059 407.121 L
130.059 406.534 L
130.059 406 L
130.059 405.467 L
130.061 404.72 L
130.061 403.76 L
130.061 402.96 L
130.061 401.947 L
130.072 400.987 L
130.072 400.987 L
130.072 400.293 L
130.072 399.546 L
130.072 398.853 L
130.074 397.946 L
130.075 397.306 L
130.075 396.239 L
130.076 395.599 L
130.076 394.906 L
130.087 394.052 L
130.089 393.412 L
130.092 392.506 L
130.095 391.706 L
130.095 390.639 L
130.095 389.625 L
130.096 388.879 L
130.096 388.238 L
130.096 387.758 L
130.107 386.905 L
130.109 385.892 L
130.112 385.198 L
130.114 384.611 L
130.12 383.385 L
130.121 382.211 L
130.124 381.251 L
130.126 380.611 L
130.128 379.277 L
130.128 378.157 L
130.153 376.984 L
130.155 376.13 L
130.157 375.064 L
130.158 374.317 L
130.161 373.57 L
130.162 372.717 L
130.164 372.29 L
130.164 371.117 L
130.166 370.103 L
130.18 369.41 L
130.184 368.023 L
130.188 366.903 L
130.189 365.889 L
130.191 364.823 L
130.195 363.862 L
130.199 363.009 L
130.2 361.942 L
130.208 361.142 L
130.232 360.235 L
130.234 359.115 L
130.24 358.155 L
130.247 357.248 L
130.253 356.448 L
130.262 355.168 L
130.267 353.888 L
130.272 352.714 L
130.278 351.488 L
130.291 350.261 L
130.32 349.141 L
130.326 348.181 L
130.338 347.007 L
130.346 345.834 L
130.353 344.82 L
130.374 343.487 L
130.384 342.26 L
130.393 341.62 L
130.407 340.233 L
130.455 339.593 L
130.474 338.26 L
130.491 336.766 L
130.505 335.699 L
130.529 334.579 L
130.542 332.926 L
130.568 331.379 L
130.599 330.419 L
130.612 329.245 L
130.661 328.392 L
130.678 327.005 L
130.695 326.205 L
130.73 324.871 L
130.766 323.218 L
130.817 322.098 L
130.845 321.138 L
130.88 319.804 L
130.924 318.791 L
130.961 317.404 L
131.053 316.177 L
131.092 315.377 L
131.151 314.417 L
131.213 313.19 L
131.276 311.43 L
131.341 310.416 L
131.397 309.403 L
131.479 307.909 L
131.575 306.523 L
131.719 305.723 L
131.787 304.656 L
131.895 303.322 L
131.994 301.562 L
132.116 300.175 L
132.246 298.575 L
132.362 297.135 L
132.494 295.908 L
132.658 294.255 L
132.823 293.401 L
133 291.961 L
133.152 290.841 L
133.331 289.614 L
133.532 287.907 L
133.744 286.254 L
133.939 284.76 L
134.161 283.053 L
134.365 281.507 L
134.593 279.48 L
134.899 277.933 L
135.143 276.333 L
135.503 275.106 L
135.844 273.292 L
136.116 272.065 L
136.477 270.839 L
136.866 269.452 L
137.156 268.332 L
137.526 266.518 L
138.055 264.811 L
138.553 263.318 L
139.006 261.558 L
139.528 259.904 L
140.011 258.517 L
140.584 256.65 L
141.034 255.264 L
141.608 253.343 L
142.283 251.69 L
143.018 249.93 L
143.73 247.796 L
144.458 246.409 L
145.232 244.809 L
146.03 243.262 L
146.878 241.929 L
147.592 239.955 L
148.44 238.408 L
149.353 236.648 L
150.339 234.728 L
151.481 232.861 L
152.523 230.941 L
153.709 228.914 L
154.93 226.94 L
155.448 225.874 L
157.045 223.633 L
158.41 221.873 L
159.83 220.326 L
161.113 218.886 L
162.731 216.753 L
164.336 214.939 L
165.976 213.392 L
167.522 212.165 L
168.878 211.259 L
170.701 209.552 L
172.563 207.952 L
174.525 206.351 L
176.595 204.431 L
178.673 202.458 L
180.936 200.591 L
183.238 198.564 L
185.514 196.644 L
187.337 194.937 L
189.941 192.963 L
192.579 191.043 L
195.318 189.496 L
198.128 187.843 L
201.175 186.403 L
204.17 184.856 L
207.328 183.095 L
209.809 181.495 L
213.08 179.948 L
216.346 178.348 L
220.155 176.588 L
223.345 175.361 L
226.964 173.334 L
231.095 171.948 L
234.853 170.774 L
238.968 169.174 L
242.101 167.734 L
246.307 165.974 L
250.606 164.267 L
254.982 162.507 L
259.551 160.48 L
264.406 158.933 L
269.23 157.066 L
274.16 155.732 L
278.234 153.065 L
283.27 150.665 L
288.917 149.012 L
294.065 147.198 L
299.721 145.598 L
305.77 143.518 L
310.969 141.971 L
317.18 140.051 L
322.809 138.771 L
327.848 136.744 L
334.159 134.663 L
340.297 133.33 L
346.752 132.316 L
353.179 130.93 L
359.844 129.649 L
366.919 127.676 L
373.225 125.862 L
378.717 124.796 L
385.773 123.355 L
392.834 121.542 L
399.562 120.208 L
406.804 118.768 L
414.193 116.581 L
421.149 115.141 L
428.793 113.541 L
436.25 112.634 L
442.222 110.927 L
449.65 109.007 L
457.229 107.834 L
465.038 106.287 L
472.745 105.327 L
480.521 103.407 L
488.44 101.966 L
496.126 100.74 L
502.293 98.606 L
510.408 97.219 L
518.344 95.939 L
526.086 94.712 L
534.065 93.485 L
541.916 91.992 L
549.701 90.605 L
557.561 88.578 L
565.794 87.191 L
571.965 85.591 L
578.927 84.258 L
587.777 82.764 L
595.129 81.857 L
603.29 80.684 L
610.86 79.724 L
618.34 78.764 L
626.043 77.59 L
632.328 76.47 L
639.717 75.563 L
646.806 74.763 L
653.91 73.697 L
660.835 72.576 L
668.11 71.19 L
675.195 70.336 L
682.21 69.163 L
689.341 68.416 L
694.728 67.509 L
701.308 66.709 L
707.853 65.802 L
714.382 65.056 L
720.553 64.416 L
726.943 63.669 L
733.01 63.295 L
739.08 62.602 L
743.747 62.015 L
749.441 61.108 L
754.9 60.682 L
760.477 60.042 L
765.823 59.402 L
771.352 58.868 L
776.215 58.495 L
781.507 58.228 L
786.542 57.641 L
790.524 56.948 L
794.986 56.521 L
799.422 55.828 L
803.712 55.028 L
807.848 54.761 L
812.171 53.961 L
816.05 53.801 L
820.158 53.694 L
823.224 53.588 L
826.822 53.108 L
830.243 52.468 L
833.537 52.254 L
836.889 51.934 L
840.065 51.454 L
843.188 51.081 L
846.192 50.867 L
848.965 50.601 L
851.212 50.227 L
853.572 49.694 L
856.03 49.481 L
858.422 49.107 L
860.824 48.947 L
863.165 48.467 L
865.49 48.2 L
867.902 47.774 L
870.418 47.507 L
870.418 47.507 L
872.593 47.08 L
874.454 46.76 L
876.186 46.493 L
877.861 46.333 L
879.312 46.173 L
880.728 46.173 L
881.926 46.067 L
882.939 46.067 L
884.181 46.067 L
885.328 45.96 L
886.535 45.8 L
887.648 45.747 L
888.672 45.64 L
889.576 45.533 L
890.429 45.48 L
891.297 45.373 L
891.994 45.373 L
892.834 45.32 L
893.587 45.267 L
894.335 45.267 L
894.978 45.213 L
895.612 45.213 L
896.214 45.213 L
896.727 45.16 L
897.205 45.16 L
897.635 45.107 L
898.085 45.107 L
898.463 45.107 L
898.884 45.107 L
899.276 45.107 L
899.648 45.107 L
899.972 45.107 L
900.29 45.107 L
900.602 45.107 L
900.931 45.053 L
901.219 45.053 L
901.517 45.053 L
901.731 45.053 L
901.959 45.053 L
902.135 45.053 L
902.316 45 L
902.464 45 L
902.652 45 L
902.82 45 L
902.943 45 L
903.11 45 L
903.259 45 L
903.4 45 L
903.521 45 L
903.63 45 L
903.735 45 L
903.822 45 L
903.905 45 L
903.971 45 L
904.029 45 L
904.105 45 L
904.195 45 L
904.257 45 L
904.292 45 L
904.341 45 L
904.395 45 L
904.428 45 L
904.459 45 L
904.496 45 L
904.532 45 L
904.571 45 L
904.608 45 L
904.635 45 L
904.664 45 L
904.693 45 L
904.714 45 L
904.735 45 L
904.76 45 L
904.782 45 L
904.795 45 L
904.805 45 L
904.82 45 L
904.832 45 L
904.842 45 L
904.855 45 L
904.871 45 L
904.88 45 L
904.889 45 L
904.897 45 L
904.904 45 L
904.911 45 L
904.917 45 L
904.925 45 L
904.93 45 L
904.94 45 L
904.946 45 L
904.95 45 L
904.958 45 L
904.962 45 L
904.966 45 L
904.967 45 L
904.97 45 L
904.971 45 L
904.972 45 L
904.972 45 L
904.976 45 L
904.979 45 L
904.98 45 L
904.982 45 L
904.983 45 L
904.983 45 L
904.984 45 L
904.987 45 L
904.989 45 L
904.989 45 L
904.989 45 L
904.991 45 L
904.992 45 L
904.992 45 L
904.992 45 L
904.992 45 L
904.992 45 L
904.992 45 L
904.995 45 L
904.996 45 L
904.997 45 L
904.997 45 L
904.997 45 L
904.997 45 L
904.997 45 L
904.997 45 L
904.997 45 L
904.997 45 L
905 45 L
S
GR
GS
1 0 0 RC
1 LJ
3 LW
N
130 520.573 M
130 520.573 L
130 520.573 L
130 520.573 L
130 520.573 L
130 520.573 L
130 520.573 L
130 520.573 L
130 520.573 L
130 520.573 L
130 520.573 L
130 520.573 L
130 520.573 L
130 520.573 L
130 520.573 L
130 520.573 L
130 520.573 L
130 520.573 L
130 520.573 L
130 520.573 L
130 520.573 L
130 520.573 L
130 520.573 L
130 520.573 L
130 520.573 L
130 520.573 L
130 520.573 L
130 520.573 L
130 520.573 L
130 520.573 L
130 520.573 L
130 520.573 L
130 520.573 L
130 520.573 L
130 520.573 L
130 520.573 L
130 520.573 L
130 520.573 L
130 520.573 L
130 520.573 L
130 520.573 L
130 520.573 L
130 520.573 L
130 520.573 L
130 520.573 L
130 520.573 L
130 520.573 L
130 520.573 L
130 520.573 L
130 520.573 L
130 520.573 L
130 520.573 L
130 520.573 L
130 520.573 L
130 520.573 L
130 520.573 L
130 520.573 L
130 520.573 L
130 520.573 L
130 520.573 L
130 520.573 L
130 520.573 L
130 520.573 L
130 520.573 L
130 520.573 L
130 520.573 L
130 520.573 L
130 520.573 L
130 520.573 L
130 520.573 L
130 520.573 L
130 520.573 L
130 520.573 L
130 520.573 L
130 520.573 L
130 520.573 L
130 520.573 L
130 520.573 L
130 520.573 L
130 520.573 L
130 520.573 L
130 520.573 L
130 520.573 L
130 520.573 L
130 520.573 L
130 520.573 L
130 520.573 L
130 520.573 L
130 520.573 L
130 520.573 L
130 520.573 L
130 520.573 L
130 520.573 L
130 520.573 L
130 520.573 L
130 520.573 L
130 520.573 L
130 520.573 L
130 520.573 L
130 520.573 L
130 520.573 L
130 520.573 L
130 520.573 L
130 520.573 L
130 520.573 L
130 520.573 L
130 520.573 L
130 520.573 L
130 520.573 L
130 520.573 L
130 520.573 L
130 520.573 L
130 520.573 L
130 520.573 L
130 520.573 L
130 520.573 L
130 520.573 L
130 520.573 L
130 520.573 L
130 520.573 L
130 520.573 L
130 520.573 L
130 520.573 L
130 520.573 L
130 520.573 L
130 520.573 L
130 520.573 L
130 520.573 L
130 520.573 L
130 520.573 L
130 520.573 L
130 520.573 L
130 520.573 L
130 520.573 L
130 520.573 L
130 520.573 L
130 520.573 L
130 520.573 L
130 520.573 L
130 520.573 L
130 520.573 L
130 520.573 L
130 520.573 L
130 520.573 L
130 520.573 L
130 520.573 L
130 520.573 L
130 520.573 L
130 520.573 L
130 520.573 L
130 520.573 L
130 520.573 L
130 520.573 L
130 520.573 L
130 520.573 L
130 520.573 L
130 520.573 L
130 520.573 L
130 520.573 L
130 520.573 L
130 520.573 L
130 520.573 L
130 520.573 L
130 520.573 L
130 520.573 L
130 520.573 L
130 520.52 L
130 520.52 L
130 520.52 L
130 520.52 L
130 520.52 L
130 520.52 L
130 520.52 L
130 520.52 L
130 520.52 L
130 520.52 L
130 520.467 L
130 520.467 L
130 520.467 L
130 520.413 L
130 520.413 L
130 520.36 L
130 520.36 L
130 520.36 L
130 520.36 L
130 520.253 L
130 520.253 L
130 520.253 L
130 520.253 L
130 520.2 L
130 520.2 L
130 520.2 L
130 520.147 L
130 520.093 L
130 520.093 L
130 519.933 L
130 519.933 L
130 519.933 L
130 519.933 L
130 519.88 L
130 519.667 L
130 519.667 L
130 519.667 L
130 519.667 L
130 519.667 L
130 519.506 L
130 519.506 L
130 519.453 L
130 519.4 L
130 519.346 L
130 519.293 L
130 519.24 L
130 519.186 L
130 519.08 L
130 518.92 L
130 518.813 L
130 518.76 L
130 518.653 L
130 518.546 L
130 518.333 L
130 518.12 L
130 518.12 L
130 518.066 L
130 518.013 L
130 517.8 L
130 517.693 L
130 517.533 L
130 517.533 L
130 517.266 L
130 517.266 L
130 517.213 L
130 516.946 L
130 516.786 L
130 516.68 L
130 516.413 L
130 516.413 L
130 516.306 L
130 516.253 L
130 516.253 L
130 516.199 L
130 516.093 L
130 515.826 L
130 515.559 L
130 515.186 L
130 515.026 L
130 514.973 L
130 514.866 L
130 514.546 L
130 514.439 L
130 514.333 L
130 514.013 L
130 513.906 L
130 513.693 L
130 513.372 L
130 513.266 L
130 513.106 L
130 512.732 L
130 512.519 L
130 512.146 L
130 511.612 L
130 511.506 L
130 511.346 L
130 511.239 L
130 510.706 L
130 510.439 L
130 510.279 L
130 509.959 L
130 509.425 L
130 509.372 L
130 509.212 L
130 508.892 L
130 508.839 L
130 508.519 L
130 508.252 L
130 507.879 L
130 507.772 L
130 507.452 L
130 507.185 L
130 506.812 L
130 506.332 L
130 505.958 L
130 505.798 L
130 505.425 L
130 505.052 L
130 504.678 L
130 504.198 L
130 503.878 L
130 503.825 L
130 503.771 L
130 503.505 L
130 503.238 L
130 502.918 L
130 502.491 L
130 502.385 L
130 502.171 L
130 501.798 L
130 501.478 L
130 501.104 L
130 500.731 L
130 500.571 L
130 500.251 L
130 500.251 L
130 500.198 L
130 499.451 L
130 499.131 L
130 498.758 L
130 498.171 L
130 498.011 L
130 497.531 L
130 497.157 L
130 496.624 L
130 496.037 L
130 495.717 L
130 495.504 L
130 495.13 L
130 494.544 L
130 494.224 L
130 494.01 L
130 493.637 L
130 493.424 L
130 493.264 L
130 492.944 L
130 492.463 L
130 492.41 L
130 492.09 L
130 491.823 L
130 491.663 L
130 491.503 L
130 491.077 L
130 490.703 L
130 490.01 L
130 489.476 L
130 489.05 L
130 488.943 L
130 488.836 L
130 488.356 L
130 487.823 L
130 487.396 L
130 487.076 L
130 486.81 L
130 486.489 L
130 486.116 L
130 485.369 L
130 485.049 L
130 484.729 L
130 484.356 L
130 484.089 L
130 483.929 L
130 483.556 L
130 483.182 L
130 482.702 L
130 482.276 L
130 482.009 L
130 481.956 L
130 481.689 L
130 481.476 L
130 481.262 L
130 480.942 L
130 480.302 L
130 479.662 L
130 479.449 L
130 478.862 L
130 478.435 L
130 478.275 L
130 477.849 L
130 477.528 L
130 477.422 L
130 477.048 L
130 476.942 L
130 476.675 L
130 476.195 L
130 475.768 L
130 475.608 L
130 475.235 L
130 474.862 L
130 474.328 L
130 473.901 L
130 473.528 L
130 473.208 L
130 473.048 L
130 472.728 L
130 472.408 L
130 471.875 L
130 471.554 L
130 471.074 L
130 470.754 L
130 470.648 L
130 470.114 L
130 469.901 L
130 469.261 L
130 469.154 L
130 468.727 L
130 468.674 L
130 468.301 L
130 467.981 L
130 467.554 L
130 466.967 L
130 466.647 L
130 466.061 L
130 465.954 L
130 465.74 L
130 465.207 L
130 464.62 L
130 464.62 L
130 464.14 L
130 463.927 L
130 463.34 L
130 463.18 L
130 462.86 L
130 462.487 L
130 462.06 L
130 461.527 L
130 461.207 L
130 460.887 L
130 460.353 L
130 459.98 L
130 459.606 L
130 459.286 L
130 459.02 L
130 458.54 L
130 458.113 L
130 457.9 L
130 457.846 L
130 457.686 L
130 457.473 L
130 457.26 L
130 457.153 L
130 457.046 L
130 456.619 L
130 456.299 L
130 456.086 L
130 455.819 L
130 455.553 L
130 455.286 L
130 454.859 L
130 454.539 L
130 454.113 L
130 453.846 L
130 453.686 L
130 453.366 L
130 452.992 L
130 452.619 L
130 452.246 L
130 451.926 L
130.001 451.712 L
130.001 451.552 L
130.001 451.232 L
130.001 450.965 L
130.001 450.699 L
130.001 450.485 L
130.001 450.112 L
130.001 449.952 L
130.001 449.739 L
130.001 449.472 L
130.003 449.365 L
130.003 448.992 L
130.003 448.672 L
130.003 448.672 L
130.003 448.352 L
130.003 448.138 L
130.003 447.978 L
130.003 447.765 L
130.003 447.552 L
130.003 447.232 L
130.003 447.018 L
130.003 446.538 L
130.003 446.325 L
130.003 446.005 L
130.003 445.578 L
130.003 445.472 L
130.003 445.365 L
130.003 445.098 L
130.003 444.991 L
130.003 444.885 L
130.003 444.725 L
130.003 444.458 L
130.003 444.191 L
130.003 444.031 L
130.003 443.658 L
130.003 443.231 L
130.003 443.018 L
130.003 442.858 L
130.003 442.538 L
130.003 442.271 L
130.003 442.111 L
130.003 441.738 L
130.003 441.631 L
130.003 441.258 L
130.003 441.044 L
130.003 440.724 L
130.003 440.564 L
130.003 440.084 L
130.004 439.871 L
130.004 439.498 L
130.004 439.017 L
130.004 438.697 L
130.004 438.591 L
130.004 438.004 L
130.005 437.737 L
130.005 437.204 L
130.005 436.831 L
130.005 436.351 L
130.005 435.977 L
130.005 435.87 L
130.005 435.39 L
130.005 434.964 L
130.005 434.377 L
130.005 433.897 L
130.005 433.257 L
130.005 432.937 L
130.005 432.403 L
130.005 431.87 L
130.007 431.497 L
130.007 430.803 L
130.007 430.216 L
130.007 429.576 L
130.007 428.99 L
130.007 428.563 L
130.007 427.71 L
130.007 427.229 L
130.007 426.696 L
130.007 425.949 L
130.007 425.309 L
130.009 425.096 L
130.011 424.936 L
130.011 424.456 L
130.011 423.922 L
130.013 423.496 L
130.013 422.802 L
130.013 422.696 L
130.013 422.109 L
130.013 421.629 L
130.013 421.042 L
130.014 420.722 L
130.014 419.975 L
130.014 419.495 L
130.014 419.015 L
130.016 418.482 L
130.016 417.735 L
130.016 416.988 L
130.016 416.348 L
130.016 415.708 L
130.016 414.961 L
130.016 414.428 L
130.016 413.948 L
130.016 413.201 L
130.016 412.401 L
130.017 411.868 L
130.017 411.441 L
130.018 411.014 L
130.018 410.588 L
130.018 409.894 L
130.018 409.147 L
130.021 408.614 L
130.021 407.814 L
130.021 407.601 L
130.022 406.694 L
130.024 406.107 L
130.024 405.574 L
130.024 405.2 L
130.024 404.667 L
130.024 404.187 L
130.025 403.547 L
130.025 402.64 L
130.025 402.16 L
130.025 401.307 L
130.028 400.56 L
130.028 399.706 L
130.028 399.12 L
130.028 398.533 L
130.028 397.786 L
130.028 397.306 L
130.028 396.453 L
130.028 395.813 L
130.028 395.279 L
130.03 394.533 L
130.037 393.412 L
130.037 392.719 L
130.037 392.026 L
130.037 391.332 L
130.038 390.745 L
130.038 390.212 L
130.038 389.092 L
130.039 388.345 L
130.042 387.492 L
130.045 386.105 L
130.051 384.931 L
130.053 384.185 L
130.053 383.331 L
130.053 382.318 L
130.053 381.464 L
130.053 380.558 L
130.053 379.864 L
130.053 378.744 L
130.054 377.731 L
130.059 377.144 L
130.059 375.97 L
130.059 375.064 L
130.059 374.157 L
130.059 373.037 L
130.059 371.543 L
130.062 370.903 L
130.062 369.836 L
130.062 368.503 L
130.062 367.596 L
130.079 366.369 L
130.079 365.516 L
130.079 365.196 L
130.079 364.182 L
130.079 362.796 L
130.079 361.569 L
130.082 360.502 L
130.082 359.489 L
130.082 358.582 L
130.082 357.888 L
130.097 357.142 L
130.097 356.075 L
130.099 354.848 L
130.101 353.355 L
130.105 352.288 L
130.105 351.914 L
130.107 350.581 L
130.109 349.141 L
130.111 348.127 L
130.111 347.167 L
130.132 346.207 L
130.136 344.714 L
130.137 344.18 L
130.145 343.06 L
130.145 341.887 L
130.15 340.873 L
130.153 339.806 L
130.154 338.58 L
130.158 337.459 L
130.176 336.873 L
130.179 335.486 L
130.179 334.419 L
130.179 333.139 L
130.186 332.659 L
130.192 331.805 L
130.197 330.792 L
130.203 329.992 L
130.209 329.085 L
130.214 327.858 L
130.243 326.151 L
130.249 324.818 L
130.25 323.805 L
130.257 323.271 L
130.261 322.418 L
130.268 321.084 L
130.275 319.484 L
130.282 317.991 L
130.291 316.23 L
130.299 315.217 L
130.341 313.83 L
130.349 312.497 L
130.376 311.537 L
130.388 310.15 L
130.396 308.71 L
130.42 307.643 L
130.43 306.683 L
130.445 305.509 L
130.459 304.389 L
130.484 303.109 L
130.517 301.402 L
130.529 300.122 L
130.558 299.322 L
130.575 298.042 L
130.6 296.975 L
130.632 295.108 L
130.654 293.988 L
130.676 292.654 L
130.708 291.001 L
130.78 290.041 L
130.808 288.974 L
130.841 288.067 L
130.876 286.574 L
130.919 285.027 L
130.95 283.907 L
130.987 282.52 L
131.024 280.866 L
131.074 279.8 L
131.129 278.52 L
131.22 276.866 L
131.284 275.266 L
131.34 274.359 L
131.413 273.186 L
131.476 271.639 L
131.563 270.519 L
131.679 268.812 L
131.769 267.052 L
131.88 265.771 L
131.969 264.598 L
132.115 262.998 L
132.233 261.771 L
132.4 259.957 L
132.53 258.837 L
132.678 257.077 L
132.84 255.957 L
132.995 254.73 L
133.17 253.343 L
133.391 251.957 L
133.607 250.73 L
133.86 249.076 L
134.083 248.063 L
134.282 246.676 L
134.561 244.542 L
134.824 242.782 L
135.119 241.342 L
135.437 239.635 L
135.787 238.195 L
136.172 237.342 L
136.528 235.688 L
136.932 234.035 L
137.334 232.061 L
137.764 230.727 L
138.235 228.967 L
138.728 227.527 L
139.022 226.407 L
139.575 224.913 L
140.161 223.473 L
140.755 221.98 L
141.443 220.22 L
142.03 218.726 L
142.758 216.273 L
143.281 214.726 L
144.122 213.232 L
144.908 211.472 L
145.796 209.978 L
146.663 208.592 L
147.603 207.205 L
148.315 205.658 L
149.399 203.578 L
150.429 202.351 L
151.549 201.124 L
152.765 200.004 L
153.963 198.457 L
155.335 196.75 L
156.326 195.203 L
157.668 193.817 L
159.275 192.056 L
160.84 190.776 L
162.483 189.283 L
164.193 187.469 L
165.452 185.976 L
167.251 184.909 L
169.232 183.042 L
171.176 181.602 L
173.196 180.162 L
175.247 178.562 L
177.441 176.748 L
179.174 175.255 L
181.58 173.921 L
184.177 172.374 L
186.692 171.361 L
189.082 169.867 L
192.339 167.627 L
194.506 166.72 L
196.834 165.867 L
199.902 164.427 L
202.976 162.88 L
206.259 161.546 L
209.668 160.106 L
213.002 158.773 L
215.741 157.173 L
219.551 155.466 L
223.461 154.079 L
227.096 152.585 L
231.345 150.665 L
235.524 149.385 L
239.655 148.425 L
243.169 147.251 L
247.643 145.865 L
251.936 144.584 L
256.701 143.144 L
261.661 141.758 L
266.49 140.051 L
270.377 138.771 L
275.695 137.544 L
280.883 136.424 L
286.106 135.303 L
291.563 134.023 L
297.874 132.957 L
303.514 132.263 L
308.036 130.876 L
314.188 129.169 L
319.657 127.623 L
326.312 126.076 L
333.117 124.582 L
339.585 122.875 L
344.669 121.755 L
351.327 120.795 L
358.052 119.622 L
364.624 118.235 L
371.718 116.635 L
378.718 115.141 L
385.757 113.808 L
391.018 112.901 L
398.607 111.247 L
405.414 109.861 L
413.337 108.047 L
420.906 106.607 L
428.439 105.433 L
434.326 104.473 L
442.258 103.14 L
450.184 101.753 L
457.927 100.526 L
465.576 98.979 L
473.797 97.646 L
481.541 96.419 L
488.205 95.139 L
495.882 93.805 L
504.235 92.365 L
512.186 90.978 L
520.388 89.645 L
528.291 88.792 L
534.476 88.098 L
542.861 86.285 L
550.615 85.645 L
558.635 84.791 L
566.504 84.151 L
574.965 83.298 L
582.701 82.391 L
589.126 81.111 L
596.893 80.364 L
604.595 79.297 L
611.976 78.444 L
619.628 77.644 L
627.162 76.524 L
633.508 75.457 L
641.105 74.177 L
648.199 73.217 L
655.762 72.736 L
663.216 71.883 L
670.183 71.083 L
677.632 70.069 L
683.226 69.856 L
689.895 68.789 L
696.95 67.989 L
703.537 67.242 L
710.09 66.442 L
716.963 65.589 L
722.12 64.682 L
728.371 63.829 L
734.532 62.922 L
740.483 62.335 L
746.263 61.482 L
751.757 60.735 L
757.674 59.828 L
762.236 59.242 L
767.56 58.922 L
772.926 58.335 L
777.689 57.855 L
783.068 57.428 L
787.818 56.895 L
791.873 56.255 L
796.721 55.721 L
801.05 55.348 L
805.473 54.761 L
809.727 54.388 L
813.835 53.961 L
818.03 53.428 L
821.337 52.948 L
825.14 52.361 L
828.872 51.881 L
832.195 51.774 L
835.485 51.401 L
838.811 50.974 L
841.594 50.441 L
844.5 50.174 L
847.542 49.747 L
850.35 49.374 L
852.947 49.16 L
855.697 48.787 L
858.126 48.52 L
860.233 48.414 L
862.533 48.147 L
864.646 48.147 L
866.795 47.934 L
868.769 47.88 L
870.768 47.614 L
872.737 47.454 L
874.32 47.24 L
875.967 46.867 L
877.638 46.76 L
879.152 46.707 L
880.569 46.654 L
881.94 46.6 L
883.107 46.547 L
884.327 46.387 L
885.502 46.28 L
886.625 46.173 L
887.704 46.067 L
888.785 45.907 L
889.817 45.8 L
890.642 45.747 L
891.517 45.747 L
892.405 45.693 L
893.221 45.693 L
894.017 45.533 L
894.753 45.533 L
895.34 45.427 L
895.857 45.373 L
896.457 45.373 L
897.081 45.373 L
897.588 45.373 L
898.185 45.32 L
898.909 45.213 L
898.909 45.213 L
899.431 45.16 L
899.785 45.16 L
900.146 45.107 L
900.485 45.107 L
900.735 45.053 L
901 45.053 L
901.304 45 L
901.587 45 L
901.864 45 L
902.092 45 L
902.252 45 L
902.448 45 L
902.591 45 L
902.772 45 L
902.952 45 L
903.105 45 L
903.229 45 L
903.366 45 L
903.472 45 L
903.584 45 L
903.701 45 L
903.797 45 L
903.889 45 L
903.97 45 L
904.034 45 L
904.096 45 L
904.18 45 L
904.239 45 L
904.297 45 L
904.339 45 L
904.396 45 L
904.439 45 L
904.475 45 L
904.513 45 L
904.554 45 L
904.603 45 L
904.635 45 L
904.67 45 L
904.685 45 L
904.717 45 L
904.746 45 L
904.766 45 L
904.782 45 L
904.797 45 L
904.813 45 L
904.829 45 L
904.842 45 L
904.851 45 L
904.864 45 L
904.878 45 L
904.889 45 L
904.904 45 L
904.912 45 L
904.922 45 L
904.925 45 L
904.932 45 L
904.937 45 L
904.94 45 L
904.943 45 L
904.949 45 L
904.953 45 L
904.954 45 L
904.955 45 L
904.961 45 L
904.961 45 L
904.962 45 L
904.963 45 L
904.966 45 L
904.967 45 L
904.967 45 L
904.97 45 L
904.972 45 L
904.975 45 L
904.976 45 L
904.978 45 L
904.979 45 L
904.98 45 L
904.983 45 L
904.984 45 L
904.989 45 L
904.991 45 L
904.993 45 L
904.995 45 L
904.995 45 L
904.995 45 L
904.996 45 L
904.996 45 L
904.997 45 L
904.999 45 L
904.999 45 L
904.999 45 L
905 45 L
S
GR
GS
[1 0 0 1 440 221.12] CT
/Helvetica 24 F
GS
[1 0 0 1 0 0] CT
0 8.5 moveto 
1 -1 scale
(EER line) t 
GR
GR
GS
[10 6] 0 setdash
2 LJ
0.5 LW
N
905 521 M
130 45 L
S
GR
GS
1 GC
N
897 513 M
897 391 L
213 391 L
213 513 L
cp
f
GR
GS
[1 0 0 1 250 407.5679] CT
/Helvetica 24 F
GS
[1 0 0 1 0 0] CT
0 8.5 moveto 
1 -1 scale
(original OSIRIS, EER = 33.59%) t 
GR
GR
GS
0 0 1 RC
1 LJ
3 LW
N
217 407.568 M
247 407.568 L
S
GR
GS
[1 0 0 1 250 437.1893] CT
/Helvetica 24 F
GS
[1 0 0 1 0 0] CT
0 8.5 moveto 
1 -1 scale
(IriCore, EER = 25.38%) t 
GR
GR
GS
0 1 0 RC
1 LJ
3 LW
N
217 437.189 M
247 437.189 L
S
GR
GS
[1 0 0 1 250 466.8107] CT
/Helvetica 24 F
GS
[1 0 0 1 0 0] CT
0 8.5 moveto 
1 -1 scale
(OSIRIS with new segmentation, EER = 21.36%) t 
GR
GR
GS
1 LJ
3 LW
N
217 466.811 M
247 466.811 L
S
GR
GS
[1 0 0 1 250 496.4321] CT
/Helvetica 24 F
GS
[1 0 0 1 0 0] CT
0 8.5 moveto 
1 -1 scale
(OSIRIS with new segmentation and filter set, EER = 19.27%) t 
GR
GR
GS
1 0 0 RC
1 LJ
3 LW
N
217 496.432 M
247 496.432 L
S
GR
GS
0.149 GC
10.0 ML
0.5 LW
N
213 513 M
213 391 L
897 391 L
897 513 L
cp
S
GR
%%Trailer
%%Pages: 1
%%EOF
