%!PS-Adobe-3.0 EPSF-3.0
%%Creator: (MATLAB, The Mathworks, Inc. Version 9.3.0.713579 \(R2017b\). Operating System: Mac OS X)
%%Title: /Users/trokielewicz/Dropbox/Aplikacje/Texpad/ColdPAD-IEEEAccess/graphics/sessions.eps
%%CreationDate: 2018-03-24T14:06:34
%%Pages: (atend)
%%BoundingBox: 0 0 654 456
%%LanguageLevel: 3
%%EndComments
%%BeginProlog
%%BeginResource: procset (Apache XML Graphics Std ProcSet) 1.2 0
%%Version: 1.2 0
%%Copyright: (Copyright 2001-2003,2010 The Apache Software Foundation. License terms: http://www.apache.org/licenses/LICENSE-2.0)
/bd{bind def}bind def
/ld{load def}bd
/GR/grestore ld
/GS/gsave ld
/RM/rmoveto ld
/C/curveto ld
/t/show ld
/L/lineto ld
/ML/setmiterlimit ld
/CT/concat ld
/f/fill ld
/N/newpath ld
/S/stroke ld
/CC/setcmykcolor ld
/A/ashow ld
/cp/closepath ld
/RC/setrgbcolor ld
/LJ/setlinejoin ld
/GC/setgray ld
/LW/setlinewidth ld
/M/moveto ld
/re {4 2 roll M
1 index 0 rlineto
0 exch rlineto
neg 0 rlineto
cp } bd
/_ctm matrix def
/_tm matrix def
/BT { _ctm currentmatrix pop matrix _tm copy pop 0 0 moveto } bd
/ET { _ctm setmatrix } bd
/iTm { _ctm setmatrix _tm concat } bd
/Tm { _tm astore pop iTm 0 0 moveto } bd
/ux 0.0 def
/uy 0.0 def
/F {
  /Tp exch def
  /Tf exch def
  Tf findfont Tp scalefont setfont
  /cf Tf def  /cs Tp def
} bd
/ULS {currentpoint /uy exch def /ux exch def} bd
/ULE {
  /Tcx currentpoint pop def
  gsave
  newpath
  cf findfont cs scalefont dup
  /FontMatrix get 0 get /Ts exch def /FontInfo get dup
  /UnderlinePosition get Ts mul /To exch def
  /UnderlineThickness get Ts mul /Tt exch def
  ux uy To add moveto  Tcx uy To add lineto
  Tt setlinewidth stroke
  grestore
} bd
/OLE {
  /Tcx currentpoint pop def
  gsave
  newpath
  cf findfont cs scalefont dup
  /FontMatrix get 0 get /Ts exch def /FontInfo get dup
  /UnderlinePosition get Ts mul /To exch def
  /UnderlineThickness get Ts mul /Tt exch def
  ux uy To add cs add moveto Tcx uy To add cs add lineto
  Tt setlinewidth stroke
  grestore
} bd
/SOE {
  /Tcx currentpoint pop def
  gsave
  newpath
  cf findfont cs scalefont dup
  /FontMatrix get 0 get /Ts exch def /FontInfo get dup
  /UnderlinePosition get Ts mul /To exch def
  /UnderlineThickness get Ts mul /Tt exch def
  ux uy To add cs 10 mul 26 idiv add moveto Tcx uy To add cs 10 mul 26 idiv add lineto
  Tt setlinewidth stroke
  grestore
} bd
/QT {
/Y22 exch store
/X22 exch store
/Y21 exch store
/X21 exch store
currentpoint
/Y21 load 2 mul add 3 div exch
/X21 load 2 mul add 3 div exch
/X21 load 2 mul /X22 load add 3 div
/Y21 load 2 mul /Y22 load add 3 div
/X22 load /Y22 load curveto
} bd
/SSPD {
dup length /d exch dict def
{
/v exch def
/k exch def
currentpagedevice k known {
/cpdv currentpagedevice k get def
v cpdv ne {
/upd false def
/nullv v type /nulltype eq def
/nullcpdv cpdv type /nulltype eq def
nullv nullcpdv or
{
/upd true def
} {
/sametype v type cpdv type eq def
sametype {
v type /arraytype eq {
/vlen v length def
/cpdvlen cpdv length def
vlen cpdvlen eq {
0 1 vlen 1 sub {
/i exch def
/obj v i get def
/cpdobj cpdv i get def
obj cpdobj ne {
/upd true def
exit
} if
} for
} {
/upd true def
} ifelse
} {
v type /dicttype eq {
v {
/dv exch def
/dk exch def
/cpddv cpdv dk get def
dv cpddv ne {
/upd true def
exit
} if
} forall
} {
/upd true def
} ifelse
} ifelse
} if
} ifelse
upd true eq {
d k v put
} if
} if
} if
} forall
d length 0 gt {
d setpagedevice
} if
} bd
/RE { % /NewFontName [NewEncodingArray] /FontName RE -
  findfont dup length dict begin
  {
    1 index /FID ne
    {def} {pop pop} ifelse
  } forall
  /Encoding exch def
  /FontName 1 index def
  currentdict definefont pop
  end
} bind def
%%EndResource
%%BeginResource: procset (Apache XML Graphics EPS ProcSet) 1.0 0
%%Version: 1.0 0
%%Copyright: (Copyright 2002-2003 The Apache Software Foundation. License terms: http://www.apache.org/licenses/LICENSE-2.0)
/BeginEPSF { %def
/b4_Inc_state save def         % Save state for cleanup
/dict_count countdictstack def % Count objects on dict stack
/op_count count 1 sub def      % Count objects on operand stack
userdict begin                 % Push userdict on dict stack
/showpage { } def              % Redefine showpage, { } = null proc
0 setgray 0 setlinecap         % Prepare graphics state
1 setlinewidth 0 setlinejoin
10 setmiterlimit [ ] 0 setdash newpath
/languagelevel where           % If level not equal to 1 then
{pop languagelevel             % set strokeadjust and
1 ne                           % overprint to their defaults.
{false setstrokeadjust false setoverprint
} if
} if
} bd
/EndEPSF { %def
count op_count sub {pop} repeat            % Clean up stacks
countdictstack dict_count sub {end} repeat
b4_Inc_state restore
} bd
%%EndResource
%FOPBeginFontDict
%%IncludeResource: font Courier-Oblique
%%IncludeResource: font Courier-BoldOblique
%%IncludeResource: font Courier-Bold
%%IncludeResource: font ZapfDingbats
%%IncludeResource: font Symbol
%%IncludeResource: font Helvetica
%%IncludeResource: font Helvetica-Oblique
%%IncludeResource: font Helvetica-Bold
%%IncludeResource: font Helvetica-BoldOblique
%%IncludeResource: font Times-Roman
%%IncludeResource: font Times-Italic
%%IncludeResource: font Times-Bold
%%IncludeResource: font Times-BoldItalic
%%IncludeResource: font Courier
%FOPEndFontDict
%%BeginResource: encoding WinAnsiEncoding
/WinAnsiEncoding [
/.notdef /.notdef /.notdef /.notdef /.notdef
/.notdef /.notdef /.notdef /.notdef /.notdef
/.notdef /.notdef /.notdef /.notdef /.notdef
/.notdef /.notdef /.notdef /.notdef /.notdef
/.notdef /.notdef /.notdef /.notdef /.notdef
/.notdef /.notdef /.notdef /.notdef /.notdef
/.notdef /.notdef /space /exclam /quotedbl
/numbersign /dollar /percent /ampersand /quotesingle
/parenleft /parenright /asterisk /plus /comma
/hyphen /period /slash /zero /one
/two /three /four /five /six
/seven /eight /nine /colon /semicolon
/less /equal /greater /question /at
/A /B /C /D /E
/F /G /H /I /J
/K /L /M /N /O
/P /Q /R /S /T
/U /V /W /X /Y
/Z /bracketleft /backslash /bracketright /asciicircum
/underscore /quoteleft /a /b /c
/d /e /f /g /h
/i /j /k /l /m
/n /o /p /q /r
/s /t /u /v /w
/x /y /z /braceleft /bar
/braceright /asciitilde /bullet /Euro /bullet
/quotesinglbase /florin /quotedblbase /ellipsis /dagger
/daggerdbl /circumflex /perthousand /Scaron /guilsinglleft
/OE /bullet /Zcaron /bullet /bullet
/quoteleft /quoteright /quotedblleft /quotedblright /bullet
/endash /emdash /asciitilde /trademark /scaron
/guilsinglright /oe /bullet /zcaron /Ydieresis
/space /exclamdown /cent /sterling /currency
/yen /brokenbar /section /dieresis /copyright
/ordfeminine /guillemotleft /logicalnot /sfthyphen /registered
/macron /degree /plusminus /twosuperior /threesuperior
/acute /mu /paragraph /middot /cedilla
/onesuperior /ordmasculine /guillemotright /onequarter /onehalf
/threequarters /questiondown /Agrave /Aacute /Acircumflex
/Atilde /Adieresis /Aring /AE /Ccedilla
/Egrave /Eacute /Ecircumflex /Edieresis /Igrave
/Iacute /Icircumflex /Idieresis /Eth /Ntilde
/Ograve /Oacute /Ocircumflex /Otilde /Odieresis
/multiply /Oslash /Ugrave /Uacute /Ucircumflex
/Udieresis /Yacute /Thorn /germandbls /agrave
/aacute /acircumflex /atilde /adieresis /aring
/ae /ccedilla /egrave /eacute /ecircumflex
/edieresis /igrave /iacute /icircumflex /idieresis
/eth /ntilde /ograve /oacute /ocircumflex
/otilde /odieresis /divide /oslash /ugrave
/uacute /ucircumflex /udieresis /yacute /thorn
/ydieresis
] def
%%EndResource
%FOPBeginFontReencode
/Courier-Oblique findfont
dup length dict begin
  {1 index /FID ne {def} {pop pop} ifelse} forall
  /Encoding WinAnsiEncoding def
  currentdict
end
/Courier-Oblique exch definefont pop
/Courier-BoldOblique findfont
dup length dict begin
  {1 index /FID ne {def} {pop pop} ifelse} forall
  /Encoding WinAnsiEncoding def
  currentdict
end
/Courier-BoldOblique exch definefont pop
/Courier-Bold findfont
dup length dict begin
  {1 index /FID ne {def} {pop pop} ifelse} forall
  /Encoding WinAnsiEncoding def
  currentdict
end
/Courier-Bold exch definefont pop
/Helvetica findfont
dup length dict begin
  {1 index /FID ne {def} {pop pop} ifelse} forall
  /Encoding WinAnsiEncoding def
  currentdict
end
/Helvetica exch definefont pop
/Helvetica-Oblique findfont
dup length dict begin
  {1 index /FID ne {def} {pop pop} ifelse} forall
  /Encoding WinAnsiEncoding def
  currentdict
end
/Helvetica-Oblique exch definefont pop
/Helvetica-Bold findfont
dup length dict begin
  {1 index /FID ne {def} {pop pop} ifelse} forall
  /Encoding WinAnsiEncoding def
  currentdict
end
/Helvetica-Bold exch definefont pop
/Helvetica-BoldOblique findfont
dup length dict begin
  {1 index /FID ne {def} {pop pop} ifelse} forall
  /Encoding WinAnsiEncoding def
  currentdict
end
/Helvetica-BoldOblique exch definefont pop
/Times-Roman findfont
dup length dict begin
  {1 index /FID ne {def} {pop pop} ifelse} forall
  /Encoding WinAnsiEncoding def
  currentdict
end
/Times-Roman exch definefont pop
/Times-Italic findfont
dup length dict begin
  {1 index /FID ne {def} {pop pop} ifelse} forall
  /Encoding WinAnsiEncoding def
  currentdict
end
/Times-Italic exch definefont pop
/Times-Bold findfont
dup length dict begin
  {1 index /FID ne {def} {pop pop} ifelse} forall
  /Encoding WinAnsiEncoding def
  currentdict
end
/Times-Bold exch definefont pop
/Times-BoldItalic findfont
dup length dict begin
  {1 index /FID ne {def} {pop pop} ifelse} forall
  /Encoding WinAnsiEncoding def
  currentdict
end
/Times-BoldItalic exch definefont pop
/Courier findfont
dup length dict begin
  {1 index /FID ne {def} {pop pop} ifelse} forall
  /Encoding WinAnsiEncoding def
  currentdict
end
/Courier exch definefont pop
%FOPEndFontReencode
%%EndProlog
%%Page: 1 1
%%PageBoundingBox: 0 0 654 456
%%BeginPageSetup
[1 0 0 -1 0 456] CT
%%EndPageSetup
GS
1 GC
N
0 0 654 456 re
f
GR
GS
1 GC
N
0 0 654 456 re
f
GR
GS
1 GC
N
65 398 M
633 398 L
633 19 L
65 19 L
cp
f
GR
GS
0.873 GC
1 LJ
0.5 LW
N
78.524 398 M
78.524 19 L
S
GR
GS
0.873 GC
1 LJ
0.5 LW
N
146.143 398 M
146.143 19 L
S
GR
GS
0.873 GC
1 LJ
0.5 LW
N
213.762 398 M
213.762 19 L
S
GR
GS
0.873 GC
1 LJ
0.5 LW
N
281.381 398 M
281.381 19 L
S
GR
GS
0.873 GC
1 LJ
0.5 LW
N
349 398 M
349 19 L
S
GR
GS
0.873 GC
1 LJ
0.5 LW
N
416.619 398 M
416.619 19 L
S
GR
GS
0.873 GC
1 LJ
0.5 LW
N
484.238 398 M
484.238 19 L
S
GR
GS
0.873 GC
1 LJ
0.5 LW
N
551.857 398 M
551.857 19 L
S
GR
GS
0.873 GC
1 LJ
0.5 LW
N
619.476 398 M
619.476 19 L
S
GR
GS
0.873 GC
1 LJ
0.5 LW
N
633 398 M
65 398 L
S
GR
GS
0.873 GC
1 LJ
0.5 LW
N
633 376.944 M
65 376.944 L
S
GR
GS
0.873 GC
1 LJ
0.5 LW
N
633 355.889 M
65 355.889 L
S
GR
GS
0.873 GC
1 LJ
0.5 LW
N
633 334.833 M
65 334.833 L
S
GR
GS
0.873 GC
1 LJ
0.5 LW
N
633 313.778 M
65 313.778 L
S
GR
GS
0.873 GC
1 LJ
0.5 LW
N
633 292.722 M
65 292.722 L
S
GR
GS
0.873 GC
1 LJ
0.5 LW
N
633 271.667 M
65 271.667 L
S
GR
GS
0.873 GC
1 LJ
0.5 LW
N
633 250.611 M
65 250.611 L
S
GR
GS
0.873 GC
1 LJ
0.5 LW
N
633 229.556 M
65 229.556 L
S
GR
GS
0.873 GC
1 LJ
0.5 LW
N
633 208.5 M
65 208.5 L
S
GR
GS
0.873 GC
1 LJ
0.5 LW
N
633 187.444 M
65 187.444 L
S
GR
GS
0.873 GC
1 LJ
0.5 LW
N
633 166.389 M
65 166.389 L
S
GR
GS
0.873 GC
1 LJ
0.5 LW
N
633 145.333 M
65 145.333 L
S
GR
GS
0.873 GC
1 LJ
0.5 LW
N
633 124.278 M
65 124.278 L
S
GR
GS
0.873 GC
1 LJ
0.5 LW
N
633 103.222 M
65 103.222 L
S
GR
GS
0.873 GC
1 LJ
0.5 LW
N
633 82.167 M
65 82.167 L
S
GR
GS
0.873 GC
1 LJ
0.5 LW
N
633 61.111 M
65 61.111 L
S
GR
GS
0.873 GC
1 LJ
0.5 LW
N
633 40.056 M
65 40.056 L
S
GR
GS
0.873 GC
1 LJ
0.5 LW
N
633 19 M
65 19 L
S
GR
GS
0.149 GC
2 setlinecap
1 LJ
0.5 LW
N
65 398 M
633 398 L
S
GR
GS
0.149 GC
2 setlinecap
1 LJ
0.5 LW
N
78.524 398 M
78.524 392.32 L
S
GR
GS
0.149 GC
2 setlinecap
1 LJ
0.5 LW
N
146.143 398 M
146.143 392.32 L
S
GR
GS
0.149 GC
2 setlinecap
1 LJ
0.5 LW
N
213.762 398 M
213.762 392.32 L
S
GR
GS
0.149 GC
2 setlinecap
1 LJ
0.5 LW
N
281.381 398 M
281.381 392.32 L
S
GR
GS
0.149 GC
2 setlinecap
1 LJ
0.5 LW
N
349 398 M
349 392.32 L
S
GR
GS
0.149 GC
2 setlinecap
1 LJ
0.5 LW
N
416.619 398 M
416.619 392.32 L
S
GR
GS
0.149 GC
2 setlinecap
1 LJ
0.5 LW
N
484.238 398 M
484.238 392.32 L
S
GR
GS
0.149 GC
2 setlinecap
1 LJ
0.5 LW
N
551.857 398 M
551.857 392.32 L
S
GR
GS
0.149 GC
2 setlinecap
1 LJ
0.5 LW
N
619.476 398 M
619.476 392.32 L
S
GR
GS
[1 0 0 1 78.52381 404] CT
0.149 GC
/Helvetica 20 F
GS
[1 0 0 1 0 0] CT
-6 20 moveto 
1 -1 scale
(0) t 
GR
GR
GS
[1 0 0 1 146.14285 404] CT
0.149 GC
/Helvetica 20 F
GS
[1 0 0 1 0 0] CT
-17 20 moveto 
1 -1 scale
(100) t 
GR
GR
GS
[1 0 0 1 213.7619 404] CT
0.149 GC
/Helvetica 20 F
GS
[1 0 0 1 0 0] CT
-17 20 moveto 
1 -1 scale
(200) t 
GR
GR
GS
[1 0 0 1 281.38095 404] CT
0.149 GC
/Helvetica 20 F
GS
[1 0 0 1 0 0] CT
-17 20 moveto 
1 -1 scale
(300) t 
GR
GR
GS
[1 0 0 1 349 404] CT
0.149 GC
/Helvetica 20 F
GS
[1 0 0 1 0 0] CT
-17 20 moveto 
1 -1 scale
(400) t 
GR
GR
GS
[1 0 0 1 416.61905 404] CT
0.149 GC
/Helvetica 20 F
GS
[1 0 0 1 0 0] CT
-17 20 moveto 
1 -1 scale
(500) t 
GR
GR
GS
[1 0 0 1 484.2381 404] CT
0.149 GC
/Helvetica 20 F
GS
[1 0 0 1 0 0] CT
-17 20 moveto 
1 -1 scale
(600) t 
GR
GR
GS
[1 0 0 1 551.85712 404] CT
0.149 GC
/Helvetica 20 F
GS
[1 0 0 1 0 0] CT
-17 20 moveto 
1 -1 scale
(700) t 
GR
GR
GS
[1 0 0 1 619.4762 404] CT
0.149 GC
/Helvetica 20 F
GS
[1 0 0 1 0 0] CT
-17 20 moveto 
1 -1 scale
(800) t 
GR
GR
GS
[1 0 0 1 349.00027 430] CT
0.149 GC
/Helvetica 22 F
GS
[1 0 0 1 0 0] CT
-97 21 moveto 
1 -1 scale
(Hours post-mortem) t 
GR
GR
GS
0.149 GC
2 setlinecap
1 LJ
0.5 LW
N
65 398 M
65 19 L
S
GR
GS
0.149 GC
2 setlinecap
1 LJ
0.5 LW
N
65 398 M
70.68 398 L
S
GR
GS
0.149 GC
2 setlinecap
1 LJ
0.5 LW
N
65 376.944 M
70.68 376.944 L
S
GR
GS
0.149 GC
2 setlinecap
1 LJ
0.5 LW
N
65 355.889 M
70.68 355.889 L
S
GR
GS
0.149 GC
2 setlinecap
1 LJ
0.5 LW
N
65 334.833 M
70.68 334.833 L
S
GR
GS
0.149 GC
2 setlinecap
1 LJ
0.5 LW
N
65 313.778 M
70.68 313.778 L
S
GR
GS
0.149 GC
2 setlinecap
1 LJ
0.5 LW
N
65 292.722 M
70.68 292.722 L
S
GR
GS
0.149 GC
2 setlinecap
1 LJ
0.5 LW
N
65 271.667 M
70.68 271.667 L
S
GR
GS
0.149 GC
2 setlinecap
1 LJ
0.5 LW
N
65 250.611 M
70.68 250.611 L
S
GR
GS
0.149 GC
2 setlinecap
1 LJ
0.5 LW
N
65 229.556 M
70.68 229.556 L
S
GR
GS
0.149 GC
2 setlinecap
1 LJ
0.5 LW
N
65 208.5 M
70.68 208.5 L
S
GR
GS
0.149 GC
2 setlinecap
1 LJ
0.5 LW
N
65 187.444 M
70.68 187.444 L
S
GR
GS
0.149 GC
2 setlinecap
1 LJ
0.5 LW
N
65 166.389 M
70.68 166.389 L
S
GR
GS
0.149 GC
2 setlinecap
1 LJ
0.5 LW
N
65 145.333 M
70.68 145.333 L
S
GR
GS
0.149 GC
2 setlinecap
1 LJ
0.5 LW
N
65 124.278 M
70.68 124.278 L
S
GR
GS
0.149 GC
2 setlinecap
1 LJ
0.5 LW
N
65 103.222 M
70.68 103.222 L
S
GR
GS
0.149 GC
2 setlinecap
1 LJ
0.5 LW
N
65 82.167 M
70.68 82.167 L
S
GR
GS
0.149 GC
2 setlinecap
1 LJ
0.5 LW
N
65 61.111 M
70.68 61.111 L
S
GR
GS
0.149 GC
2 setlinecap
1 LJ
0.5 LW
N
65 40.056 M
70.68 40.056 L
S
GR
GS
0.149 GC
2 setlinecap
1 LJ
0.5 LW
N
65 19 M
70.68 19 L
S
GR
GS
[1 0 0 1 59 376.94446] CT
0.149 GC
/Helvetica 20 F
GS
[1 0 0 1 0 0] CT
-12 7.5 moveto 
1 -1 scale
(1) t 
GR
GR
GS
[1 0 0 1 59 355.88889] CT
0.149 GC
/Helvetica 20 F
GS
[1 0 0 1 0 0] CT
-12 7.5 moveto 
1 -1 scale
(2) t 
GR
GR
GS
[1 0 0 1 59 334.83334] CT
0.149 GC
/Helvetica 20 F
GS
[1 0 0 1 0 0] CT
-12 7.5 moveto 
1 -1 scale
(3) t 
GR
GR
GS
[1 0 0 1 59 313.77777] CT
0.149 GC
/Helvetica 20 F
GS
[1 0 0 1 0 0] CT
-12 7.5 moveto 
1 -1 scale
(4) t 
GR
GR
GS
[1 0 0 1 59 292.72223] CT
0.149 GC
/Helvetica 20 F
GS
[1 0 0 1 0 0] CT
-12 7.5 moveto 
1 -1 scale
(5) t 
GR
GR
GS
[1 0 0 1 59 271.66666] CT
0.149 GC
/Helvetica 20 F
GS
[1 0 0 1 0 0] CT
-12 7.5 moveto 
1 -1 scale
(6) t 
GR
GR
GS
[1 0 0 1 59 250.61111] CT
0.149 GC
/Helvetica 20 F
GS
[1 0 0 1 0 0] CT
-12 7.5 moveto 
1 -1 scale
(7) t 
GR
GR
GS
[1 0 0 1 59 229.55556] CT
0.149 GC
/Helvetica 20 F
GS
[1 0 0 1 0 0] CT
-12 7.5 moveto 
1 -1 scale
(8) t 
GR
GR
GS
[1 0 0 1 59 208.5] CT
0.149 GC
/Helvetica 20 F
GS
[1 0 0 1 0 0] CT
-12 7.5 moveto 
1 -1 scale
(9) t 
GR
GR
GS
[1 0 0 1 59 187.44444] CT
0.149 GC
/Helvetica 20 F
GS
[1 0 0 1 0 0] CT
-23 7.5 moveto 
1 -1 scale
(10) t 
GR
GR
GS
[1 0 0 1 59 166.38889] CT
0.149 GC
/Helvetica 20 F
GS
[1 0 0 1 0 0] CT
-23 7.5 moveto 
1 -1 scale
(11) t 
GR
GR
GS
[1 0 0 1 59 145.33333] CT
0.149 GC
/Helvetica 20 F
GS
[1 0 0 1 0 0] CT
-23 7.5 moveto 
1 -1 scale
(12) t 
GR
GR
GS
[1 0 0 1 59 124.27778] CT
0.149 GC
/Helvetica 20 F
GS
[1 0 0 1 0 0] CT
-23 7.5 moveto 
1 -1 scale
(13) t 
GR
GR
GS
[1 0 0 1 59 103.22222] CT
0.149 GC
/Helvetica 20 F
GS
[1 0 0 1 0 0] CT
-23 7.5 moveto 
1 -1 scale
(14) t 
GR
GR
GS
[1 0 0 1 59 82.16666] CT
0.149 GC
/Helvetica 20 F
GS
[1 0 0 1 0 0] CT
-23 7.5 moveto 
1 -1 scale
(15) t 
GR
GR
GS
[1 0 0 1 59 61.11111] CT
0.149 GC
/Helvetica 20 F
GS
[1 0 0 1 0 0] CT
-23 7.5 moveto 
1 -1 scale
(16) t 
GR
GR
GS
[1 0 0 1 59 40.05556] CT
0.149 GC
/Helvetica 20 F
GS
[1 0 0 1 0 0] CT
-23 7.5 moveto 
1 -1 scale
(17) t 
GR
GR
GS
[0 -1 1 0 33 208.49982] CT
0.149 GC
/Helvetica 22 F
GS
[1 0 0 1 0 0] CT
-51.5 -5 moveto 
1 -1 scale
(Subject ID) t 
GR
GR
GS
[1 0 0 1 81.90476 376.94446] CT
0 0 1 RC
N
4.4 0 M
4.4 -2.43 2.43 -4.4 0 -4.4 C
-2.43 -4.4 -4.4 -2.43 -4.4 0 C
-4.4 2.43 -2.43 4.4 0 4.4 C
2.43 4.4 4.4 2.43 4.4 0 C
f
GR
GS
[1 0 0 1 81.90476 376.94446] CT
0 0 1 RC
10.0 ML
N
4.4 0 M
4.4 -2.43 2.43 -4.4 0 -4.4 C
-2.43 -4.4 -4.4 -2.43 -4.4 0 C
-4.4 2.43 -2.43 4.4 0 4.4 C
2.43 4.4 4.4 2.43 4.4 0 C
S
GR
GS
[1 0 0 1 89.34286 376.94446] CT
0 0 1 RC
N
/f-1814249635{4.4 0 M
4.4 -2.43 2.43 -4.4 0 -4.4 C
-2.43 -4.4 -4.4 -2.43 -4.4 0 C
-4.4 2.43 -2.43 4.4 0 4.4 C
2.43 4.4 4.4 2.43 4.4 0 C}def
f-1814249635
f
GR
GS
[1 0 0 1 89.34286 376.94446] CT
0 0 1 RC
10.0 ML
N
4.4 0 M
4.4 -2.43 2.43 -4.4 0 -4.4 C
-2.43 -4.4 -4.4 -2.43 -4.4 0 C
-4.4 2.43 -2.43 4.4 0 4.4 C
2.43 4.4 4.4 2.43 4.4 0 C
S
GR
GS
[1 0 0 1 96.78095 376.94446] CT
0 0 1 RC
N
f-1814249635
f
GR
GS
[1 0 0 1 96.78095 376.94446] CT
0 0 1 RC
10.0 ML
N
4.4 0 M
4.4 -2.43 2.43 -4.4 0 -4.4 C
-2.43 -4.4 -4.4 -2.43 -4.4 0 C
-4.4 2.43 -2.43 4.4 0 4.4 C
2.43 4.4 4.4 2.43 4.4 0 C
S
GR
GS
[1 0 0 1 81.90476 355.88889] CT
0 0 1 RC
N
f-1814249635
f
GR
GS
[1 0 0 1 81.90476 355.88889] CT
0 0 1 RC
10.0 ML
N
4.4 0 M
4.4 -2.43 2.43 -4.4 0 -4.4 C
-2.43 -4.4 -4.4 -2.43 -4.4 0 C
-4.4 2.43 -2.43 4.4 0 4.4 C
2.43 4.4 4.4 2.43 4.4 0 C
S
GR
GS
[1 0 0 1 89.34286 355.88889] CT
0 0 1 RC
N
f-1814249635
f
GR
GS
[1 0 0 1 89.34286 355.88889] CT
0 0 1 RC
10.0 ML
N
4.4 0 M
4.4 -2.43 2.43 -4.4 0 -4.4 C
-2.43 -4.4 -4.4 -2.43 -4.4 0 C
-4.4 2.43 -2.43 4.4 0 4.4 C
2.43 4.4 4.4 2.43 4.4 0 C
S
GR
GS
[1 0 0 1 96.78095 355.88889] CT
0 0 1 RC
N
f-1814249635
f
GR
GS
[1 0 0 1 96.78095 355.88889] CT
0 0 1 RC
10.0 ML
N
4.4 0 M
4.4 -2.43 2.43 -4.4 0 -4.4 C
-2.43 -4.4 -4.4 -2.43 -4.4 0 C
-4.4 2.43 -2.43 4.4 0 4.4 C
2.43 4.4 4.4 2.43 4.4 0 C
S
GR
GS
[1 0 0 1 81.90476 334.83334] CT
0 0 1 RC
N
f-1814249635
f
GR
GS
[1 0 0 1 81.90476 334.83334] CT
0 0 1 RC
10.0 ML
N
4.4 0 M
4.4 -2.43 2.43 -4.4 0 -4.4 C
-2.43 -4.4 -4.4 -2.43 -4.4 0 C
-4.4 2.43 -2.43 4.4 0 4.4 C
2.43 4.4 4.4 2.43 4.4 0 C
S
GR
GS
[1 0 0 1 92.38571 334.83334] CT
0 0 1 RC
N
f-1814249635
f
GR
GS
[1 0 0 1 92.38571 334.83334] CT
0 0 1 RC
10.0 ML
N
4.4 0 M
4.4 -2.43 2.43 -4.4 0 -4.4 C
-2.43 -4.4 -4.4 -2.43 -4.4 0 C
-4.4 2.43 -2.43 4.4 0 4.4 C
2.43 4.4 4.4 2.43 4.4 0 C
S
GR
GS
[1 0 0 1 81.90476 313.77777] CT
0 0 1 RC
N
f-1814249635
f
GR
GS
[1 0 0 1 81.90476 313.77777] CT
0 0 1 RC
10.0 ML
N
4.4 0 M
4.4 -2.43 2.43 -4.4 0 -4.4 C
-2.43 -4.4 -4.4 -2.43 -4.4 0 C
-4.4 2.43 -2.43 4.4 0 4.4 C
2.43 4.4 4.4 2.43 4.4 0 C
S
GR
GS
[1 0 0 1 92.38571 313.77777] CT
0 0 1 RC
N
f-1814249635
f
GR
GS
[1 0 0 1 92.38571 313.77777] CT
0 0 1 RC
10.0 ML
N
4.4 0 M
4.4 -2.43 2.43 -4.4 0 -4.4 C
-2.43 -4.4 -4.4 -2.43 -4.4 0 C
-4.4 2.43 -2.43 4.4 0 4.4 C
2.43 4.4 4.4 2.43 4.4 0 C
S
GR
GS
[1 0 0 1 81.90476 292.72223] CT
0 0 1 RC
N
f-1814249635
f
GR
GS
[1 0 0 1 81.90476 292.72223] CT
0 0 1 RC
10.0 ML
N
4.4 0 M
4.4 -2.43 2.43 -4.4 0 -4.4 C
-2.43 -4.4 -4.4 -2.43 -4.4 0 C
-4.4 2.43 -2.43 4.4 0 4.4 C
2.43 4.4 4.4 2.43 4.4 0 C
S
GR
GS
[1 0 0 1 90.01905 292.72223] CT
0 0 1 RC
N
f-1814249635
f
GR
GS
[1 0 0 1 90.01905 292.72223] CT
0 0 1 RC
10.0 ML
N
4.4 0 M
4.4 -2.43 2.43 -4.4 0 -4.4 C
-2.43 -4.4 -4.4 -2.43 -4.4 0 C
-4.4 2.43 -2.43 4.4 0 4.4 C
2.43 4.4 4.4 2.43 4.4 0 C
S
GR
GS
[1 0 0 1 81.90476 271.66666] CT
0 0 1 RC
N
f-1814249635
f
GR
GS
[1 0 0 1 81.90476 271.66666] CT
0 0 1 RC
10.0 ML
N
4.4 0 M
4.4 -2.43 2.43 -4.4 0 -4.4 C
-2.43 -4.4 -4.4 -2.43 -4.4 0 C
-4.4 2.43 -2.43 4.4 0 4.4 C
2.43 4.4 4.4 2.43 4.4 0 C
S
GR
GS
[1 0 0 1 90.01905 271.66666] CT
0 0 1 RC
N
f-1814249635
f
GR
GS
[1 0 0 1 90.01905 271.66666] CT
0 0 1 RC
10.0 ML
N
4.4 0 M
4.4 -2.43 2.43 -4.4 0 -4.4 C
-2.43 -4.4 -4.4 -2.43 -4.4 0 C
-4.4 2.43 -2.43 4.4 0 4.4 C
2.43 4.4 4.4 2.43 4.4 0 C
S
GR
GS
[1 0 0 1 81.90476 250.61111] CT
0 0 1 RC
N
f-1814249635
f
GR
GS
[1 0 0 1 81.90476 250.61111] CT
0 0 1 RC
10.0 ML
N
4.4 0 M
4.4 -2.43 2.43 -4.4 0 -4.4 C
-2.43 -4.4 -4.4 -2.43 -4.4 0 C
-4.4 2.43 -2.43 4.4 0 4.4 C
2.43 4.4 4.4 2.43 4.4 0 C
S
GR
GS
[1 0 0 1 93.4 250.61111] CT
0 0 1 RC
N
f-1814249635
f
GR
GS
[1 0 0 1 93.4 250.61111] CT
0 0 1 RC
10.0 ML
N
4.4 0 M
4.4 -2.43 2.43 -4.4 0 -4.4 C
-2.43 -4.4 -4.4 -2.43 -4.4 0 C
-4.4 2.43 -2.43 4.4 0 4.4 C
2.43 4.4 4.4 2.43 4.4 0 C
S
GR
GS
[1 0 0 1 109.62857 250.61111] CT
0 0 1 RC
N
f-1814249635
f
GR
GS
[1 0 0 1 109.62857 250.61111] CT
0 0 1 RC
10.0 ML
N
4.4 0 M
4.4 -2.43 2.43 -4.4 0 -4.4 C
-2.43 -4.4 -4.4 -2.43 -4.4 0 C
-4.4 2.43 -2.43 4.4 0 4.4 C
2.43 4.4 4.4 2.43 4.4 0 C
S
GR
GS
[1 0 0 1 81.90476 229.55556] CT
0 0 1 RC
N
f-1814249635
f
GR
GS
[1 0 0 1 81.90476 229.55556] CT
0 0 1 RC
10.0 ML
N
4.4 0 M
4.4 -2.43 2.43 -4.4 0 -4.4 C
-2.43 -4.4 -4.4 -2.43 -4.4 0 C
-4.4 2.43 -2.43 4.4 0 4.4 C
2.43 4.4 4.4 2.43 4.4 0 C
S
GR
GS
[1 0 0 1 89.34286 229.55556] CT
0 0 1 RC
N
f-1814249635
f
GR
GS
[1 0 0 1 89.34286 229.55556] CT
0 0 1 RC
10.0 ML
N
4.4 0 M
4.4 -2.43 2.43 -4.4 0 -4.4 C
-2.43 -4.4 -4.4 -2.43 -4.4 0 C
-4.4 2.43 -2.43 4.4 0 4.4 C
2.43 4.4 4.4 2.43 4.4 0 C
S
GR
GS
[1 0 0 1 105.57143 229.55556] CT
0 0 1 RC
N
f-1814249635
f
GR
GS
[1 0 0 1 105.57143 229.55556] CT
0 0 1 RC
10.0 ML
N
4.4 0 M
4.4 -2.43 2.43 -4.4 0 -4.4 C
-2.43 -4.4 -4.4 -2.43 -4.4 0 C
-4.4 2.43 -2.43 4.4 0 4.4 C
2.43 4.4 4.4 2.43 4.4 0 C
S
GR
GS
[1 0 0 1 81.90476 208.5] CT
0 0 1 RC
N
f-1814249635
f
GR
GS
[1 0 0 1 81.90476 208.5] CT
0 0 1 RC
10.0 ML
N
4.4 0 M
4.4 -2.43 2.43 -4.4 0 -4.4 C
-2.43 -4.4 -4.4 -2.43 -4.4 0 C
-4.4 2.43 -2.43 4.4 0 4.4 C
2.43 4.4 4.4 2.43 4.4 0 C
S
GR
GS
[1 0 0 1 89.34286 208.5] CT
0 0 1 RC
N
f-1814249635
f
GR
GS
[1 0 0 1 89.34286 208.5] CT
0 0 1 RC
10.0 ML
N
4.4 0 M
4.4 -2.43 2.43 -4.4 0 -4.4 C
-2.43 -4.4 -4.4 -2.43 -4.4 0 C
-4.4 2.43 -2.43 4.4 0 4.4 C
2.43 4.4 4.4 2.43 4.4 0 C
S
GR
GS
[1 0 0 1 105.57143 208.5] CT
0 0 1 RC
N
f-1814249635
f
GR
GS
[1 0 0 1 105.57143 208.5] CT
0 0 1 RC
10.0 ML
N
4.4 0 M
4.4 -2.43 2.43 -4.4 0 -4.4 C
-2.43 -4.4 -4.4 -2.43 -4.4 0 C
-4.4 2.43 -2.43 4.4 0 4.4 C
2.43 4.4 4.4 2.43 4.4 0 C
S
GR
GS
[1 0 0 1 81.90476 187.44444] CT
0 0 1 RC
N
f-1814249635
f
GR
GS
[1 0 0 1 81.90476 187.44444] CT
0 0 1 RC
10.0 ML
N
4.4 0 M
4.4 -2.43 2.43 -4.4 0 -4.4 C
-2.43 -4.4 -4.4 -2.43 -4.4 0 C
-4.4 2.43 -2.43 4.4 0 4.4 C
2.43 4.4 4.4 2.43 4.4 0 C
S
GR
GS
[1 0 0 1 93.4 187.44444] CT
0 0 1 RC
N
f-1814249635
f
GR
GS
[1 0 0 1 93.4 187.44444] CT
0 0 1 RC
10.0 ML
N
4.4 0 M
4.4 -2.43 2.43 -4.4 0 -4.4 C
-2.43 -4.4 -4.4 -2.43 -4.4 0 C
-4.4 2.43 -2.43 4.4 0 4.4 C
2.43 4.4 4.4 2.43 4.4 0 C
S
GR
GS
[1 0 0 1 109.62857 187.44444] CT
0 0 1 RC
N
f-1814249635
f
GR
GS
[1 0 0 1 109.62857 187.44444] CT
0 0 1 RC
10.0 ML
N
4.4 0 M
4.4 -2.43 2.43 -4.4 0 -4.4 C
-2.43 -4.4 -4.4 -2.43 -4.4 0 C
-4.4 2.43 -2.43 4.4 0 4.4 C
2.43 4.4 4.4 2.43 4.4 0 C
S
GR
GS
[1 0 0 1 125.85714 187.44444] CT
0 0 1 RC
N
f-1814249635
f
GR
GS
[1 0 0 1 125.85714 187.44444] CT
0 0 1 RC
10.0 ML
N
4.4 0 M
4.4 -2.43 2.43 -4.4 0 -4.4 C
-2.43 -4.4 -4.4 -2.43 -4.4 0 C
-4.4 2.43 -2.43 4.4 0 4.4 C
2.43 4.4 4.4 2.43 4.4 0 C
S
GR
GS
[1 0 0 1 161.01904 187.44444] CT
0 0 1 RC
N
f-1814249635
f
GR
GS
[1 0 0 1 161.01904 187.44444] CT
0 0 1 RC
10.0 ML
N
4.4 0 M
4.4 -2.43 2.43 -4.4 0 -4.4 C
-2.43 -4.4 -4.4 -2.43 -4.4 0 C
-4.4 2.43 -2.43 4.4 0 4.4 C
2.43 4.4 4.4 2.43 4.4 0 C
S
GR
GS
[1 0 0 1 81.90476 166.38889] CT
0 0 1 RC
N
f-1814249635
f
GR
GS
[1 0 0 1 81.90476 166.38889] CT
0 0 1 RC
10.0 ML
N
4.4 0 M
4.4 -2.43 2.43 -4.4 0 -4.4 C
-2.43 -4.4 -4.4 -2.43 -4.4 0 C
-4.4 2.43 -2.43 4.4 0 4.4 C
2.43 4.4 4.4 2.43 4.4 0 C
S
GR
GS
[1 0 0 1 90.01905 166.38889] CT
0 0 1 RC
N
f-1814249635
f
GR
GS
[1 0 0 1 90.01905 166.38889] CT
0 0 1 RC
10.0 ML
N
4.4 0 M
4.4 -2.43 2.43 -4.4 0 -4.4 C
-2.43 -4.4 -4.4 -2.43 -4.4 0 C
-4.4 2.43 -2.43 4.4 0 4.4 C
2.43 4.4 4.4 2.43 4.4 0 C
S
GR
GS
[1 0 0 1 106.24762 166.38889] CT
0 0 1 RC
N
f-1814249635
f
GR
GS
[1 0 0 1 106.24762 166.38889] CT
0 0 1 RC
10.0 ML
N
4.4 0 M
4.4 -2.43 2.43 -4.4 0 -4.4 C
-2.43 -4.4 -4.4 -2.43 -4.4 0 C
-4.4 2.43 -2.43 4.4 0 4.4 C
2.43 4.4 4.4 2.43 4.4 0 C
S
GR
GS
[1 0 0 1 122.47619 166.38889] CT
0 0 1 RC
N
f-1814249635
f
GR
GS
[1 0 0 1 122.47619 166.38889] CT
0 0 1 RC
10.0 ML
N
4.4 0 M
4.4 -2.43 2.43 -4.4 0 -4.4 C
-2.43 -4.4 -4.4 -2.43 -4.4 0 C
-4.4 2.43 -2.43 4.4 0 4.4 C
2.43 4.4 4.4 2.43 4.4 0 C
S
GR
GS
[1 0 0 1 157.63809 166.38889] CT
0 0 1 RC
N
f-1814249635
f
GR
GS
[1 0 0 1 157.63809 166.38889] CT
0 0 1 RC
10.0 ML
N
4.4 0 M
4.4 -2.43 2.43 -4.4 0 -4.4 C
-2.43 -4.4 -4.4 -2.43 -4.4 0 C
-4.4 2.43 -2.43 4.4 0 4.4 C
2.43 4.4 4.4 2.43 4.4 0 C
S
GR
GS
[1 0 0 1 81.90476 145.33333] CT
0 0 1 RC
N
f-1814249635
f
GR
GS
[1 0 0 1 81.90476 145.33333] CT
0 0 1 RC
10.0 ML
N
4.4 0 M
4.4 -2.43 2.43 -4.4 0 -4.4 C
-2.43 -4.4 -4.4 -2.43 -4.4 0 C
-4.4 2.43 -2.43 4.4 0 4.4 C
2.43 4.4 4.4 2.43 4.4 0 C
S
GR
GS
[1 0 0 1 95.42857 145.33333] CT
0 0 1 RC
N
f-1814249635
f
GR
GS
[1 0 0 1 95.42857 145.33333] CT
0 0 1 RC
10.0 ML
N
4.4 0 M
4.4 -2.43 2.43 -4.4 0 -4.4 C
-2.43 -4.4 -4.4 -2.43 -4.4 0 C
-4.4 2.43 -2.43 4.4 0 4.4 C
2.43 4.4 4.4 2.43 4.4 0 C
S
GR
GS
[1 0 0 1 111.65714 145.33333] CT
0 0 1 RC
N
f-1814249635
f
GR
GS
[1 0 0 1 111.65714 145.33333] CT
0 0 1 RC
10.0 ML
N
4.4 0 M
4.4 -2.43 2.43 -4.4 0 -4.4 C
-2.43 -4.4 -4.4 -2.43 -4.4 0 C
-4.4 2.43 -2.43 4.4 0 4.4 C
2.43 4.4 4.4 2.43 4.4 0 C
S
GR
GS
[1 0 0 1 81.90476 124.27778] CT
0 0 1 RC
N
f-1814249635
f
GR
GS
[1 0 0 1 81.90476 124.27778] CT
0 0 1 RC
10.0 ML
N
4.4 0 M
4.4 -2.43 2.43 -4.4 0 -4.4 C
-2.43 -4.4 -4.4 -2.43 -4.4 0 C
-4.4 2.43 -2.43 4.4 0 4.4 C
2.43 4.4 4.4 2.43 4.4 0 C
S
GR
GS
[1 0 0 1 95.42857 124.27778] CT
0 0 1 RC
N
f-1814249635
f
GR
GS
[1 0 0 1 95.42857 124.27778] CT
0 0 1 RC
10.0 ML
N
4.4 0 M
4.4 -2.43 2.43 -4.4 0 -4.4 C
-2.43 -4.4 -4.4 -2.43 -4.4 0 C
-4.4 2.43 -2.43 4.4 0 4.4 C
2.43 4.4 4.4 2.43 4.4 0 C
S
GR
GS
[1 0 0 1 111.65714 124.27778] CT
0 0 1 RC
N
f-1814249635
f
GR
GS
[1 0 0 1 111.65714 124.27778] CT
0 0 1 RC
10.0 ML
N
4.4 0 M
4.4 -2.43 2.43 -4.4 0 -4.4 C
-2.43 -4.4 -4.4 -2.43 -4.4 0 C
-4.4 2.43 -2.43 4.4 0 4.4 C
2.43 4.4 4.4 2.43 4.4 0 C
S
GR
GS
[1 0 0 1 81.90476 103.22222] CT
0 0 1 RC
N
f-1814249635
f
GR
GS
[1 0 0 1 81.90476 103.22222] CT
0 0 1 RC
10.0 ML
N
4.4 0 M
4.4 -2.43 2.43 -4.4 0 -4.4 C
-2.43 -4.4 -4.4 -2.43 -4.4 0 C
-4.4 2.43 -2.43 4.4 0 4.4 C
2.43 4.4 4.4 2.43 4.4 0 C
S
GR
GS
[1 0 0 1 92.72381 103.22222] CT
0 0 1 RC
N
f-1814249635
f
GR
GS
[1 0 0 1 92.72381 103.22222] CT
0 0 1 RC
10.0 ML
N
4.4 0 M
4.4 -2.43 2.43 -4.4 0 -4.4 C
-2.43 -4.4 -4.4 -2.43 -4.4 0 C
-4.4 2.43 -2.43 4.4 0 4.4 C
2.43 4.4 4.4 2.43 4.4 0 C
S
GR
GS
[1 0 0 1 125.18095 103.22222] CT
0 0 1 RC
N
f-1814249635
f
GR
GS
[1 0 0 1 125.18095 103.22222] CT
0 0 1 RC
10.0 ML
N
4.4 0 M
4.4 -2.43 2.43 -4.4 0 -4.4 C
-2.43 -4.4 -4.4 -2.43 -4.4 0 C
-4.4 2.43 -2.43 4.4 0 4.4 C
2.43 4.4 4.4 2.43 4.4 0 C
S
GR
GS
[1 0 0 1 81.90476 82.16666] CT
0 0 1 RC
N
f-1814249635
f
GR
GS
[1 0 0 1 81.90476 82.16666] CT
0 0 1 RC
10.0 ML
N
4.4 0 M
4.4 -2.43 2.43 -4.4 0 -4.4 C
-2.43 -4.4 -4.4 -2.43 -4.4 0 C
-4.4 2.43 -2.43 4.4 0 4.4 C
2.43 4.4 4.4 2.43 4.4 0 C
S
GR
GS
[1 0 0 1 94.07619 82.16666] CT
0 0 1 RC
N
f-1814249635
f
GR
GS
[1 0 0 1 94.07619 82.16666] CT
0 0 1 RC
10.0 ML
N
4.4 0 M
4.4 -2.43 2.43 -4.4 0 -4.4 C
-2.43 -4.4 -4.4 -2.43 -4.4 0 C
-4.4 2.43 -2.43 4.4 0 4.4 C
2.43 4.4 4.4 2.43 4.4 0 C
S
GR
GS
[1 0 0 1 142.7619 82.16666] CT
0 0 1 RC
N
f-1814249635
f
GR
GS
[1 0 0 1 142.7619 82.16666] CT
0 0 1 RC
10.0 ML
N
4.4 0 M
4.4 -2.43 2.43 -4.4 0 -4.4 C
-2.43 -4.4 -4.4 -2.43 -4.4 0 C
-4.4 2.43 -2.43 4.4 0 4.4 C
2.43 4.4 4.4 2.43 4.4 0 C
S
GR
GS
[1 0 0 1 182.65715 82.16666] CT
0 0 1 RC
N
f-1814249635
f
GR
GS
[1 0 0 1 182.65715 82.16666] CT
0 0 1 RC
10.0 ML
N
4.4 0 M
4.4 -2.43 2.43 -4.4 0 -4.4 C
-2.43 -4.4 -4.4 -2.43 -4.4 0 C
-4.4 2.43 -2.43 4.4 0 4.4 C
2.43 4.4 4.4 2.43 4.4 0 C
S
GR
GS
[1 0 0 1 223.90475 82.16666] CT
0 0 1 RC
N
f-1814249635
f
GR
GS
[1 0 0 1 223.90475 82.16666] CT
0 0 1 RC
10.0 ML
N
4.4 0 M
4.4 -2.43 2.43 -4.4 0 -4.4 C
-2.43 -4.4 -4.4 -2.43 -4.4 0 C
-4.4 2.43 -2.43 4.4 0 4.4 C
2.43 4.4 4.4 2.43 4.4 0 C
S
GR
GS
[1 0 0 1 256.36191 82.16666] CT
0 0 1 RC
N
f-1814249635
f
GR
GS
[1 0 0 1 256.36191 82.16666] CT
0 0 1 RC
10.0 ML
N
4.4 0 M
4.4 -2.43 2.43 -4.4 0 -4.4 C
-2.43 -4.4 -4.4 -2.43 -4.4 0 C
-4.4 2.43 -2.43 4.4 0 4.4 C
2.43 4.4 4.4 2.43 4.4 0 C
S
GR
GS
[1 0 0 1 321.27618 82.16666] CT
0 0 1 RC
N
f-1814249635
f
GR
GS
[1 0 0 1 321.27618 82.16666] CT
0 0 1 RC
10.0 ML
N
4.4 0 M
4.4 -2.43 2.43 -4.4 0 -4.4 C
-2.43 -4.4 -4.4 -2.43 -4.4 0 C
-4.4 2.43 -2.43 4.4 0 4.4 C
2.43 4.4 4.4 2.43 4.4 0 C
S
GR
GS
[1 0 0 1 353.73334 82.16666] CT
0 0 1 RC
N
f-1814249635
f
GR
GS
[1 0 0 1 353.73334 82.16666] CT
0 0 1 RC
10.0 ML
N
4.4 0 M
4.4 -2.43 2.43 -4.4 0 -4.4 C
-2.43 -4.4 -4.4 -2.43 -4.4 0 C
-4.4 2.43 -2.43 4.4 0 4.4 C
2.43 4.4 4.4 2.43 4.4 0 C
S
GR
GS
[1 0 0 1 418.64761 82.16666] CT
0 0 1 RC
N
f-1814249635
f
GR
GS
[1 0 0 1 418.64761 82.16666] CT
0 0 1 RC
10.0 ML
N
4.4 0 M
4.4 -2.43 2.43 -4.4 0 -4.4 C
-2.43 -4.4 -4.4 -2.43 -4.4 0 C
-4.4 2.43 -2.43 4.4 0 4.4 C
2.43 4.4 4.4 2.43 4.4 0 C
S
GR
GS
[1 0 0 1 466.65714 82.16666] CT
0 0 1 RC
N
f-1814249635
f
GR
GS
[1 0 0 1 466.65714 82.16666] CT
0 0 1 RC
10.0 ML
N
4.4 0 M
4.4 -2.43 2.43 -4.4 0 -4.4 C
-2.43 -4.4 -4.4 -2.43 -4.4 0 C
-4.4 2.43 -2.43 4.4 0 4.4 C
2.43 4.4 4.4 2.43 4.4 0 C
S
GR
GS
[1 0 0 1 499.11429 82.16666] CT
0 0 1 RC
N
f-1814249635
f
GR
GS
[1 0 0 1 499.11429 82.16666] CT
0 0 1 RC
10.0 ML
N
4.4 0 M
4.4 -2.43 2.43 -4.4 0 -4.4 C
-2.43 -4.4 -4.4 -2.43 -4.4 0 C
-4.4 2.43 -2.43 4.4 0 4.4 C
2.43 4.4 4.4 2.43 4.4 0 C
S
GR
GS
[1 0 0 1 81.90476 61.11111] CT
0 0 1 RC
N
f-1814249635
f
GR
GS
[1 0 0 1 81.90476 61.11111] CT
0 0 1 RC
10.0 ML
N
4.4 0 M
4.4 -2.43 2.43 -4.4 0 -4.4 C
-2.43 -4.4 -4.4 -2.43 -4.4 0 C
-4.4 2.43 -2.43 4.4 0 4.4 C
2.43 4.4 4.4 2.43 4.4 0 C
S
GR
GS
[1 0 0 1 94.07619 61.11111] CT
0 0 1 RC
N
f-1814249635
f
GR
GS
[1 0 0 1 94.07619 61.11111] CT
0 0 1 RC
10.0 ML
N
4.4 0 M
4.4 -2.43 2.43 -4.4 0 -4.4 C
-2.43 -4.4 -4.4 -2.43 -4.4 0 C
-4.4 2.43 -2.43 4.4 0 4.4 C
2.43 4.4 4.4 2.43 4.4 0 C
S
GR
GS
[1 0 0 1 142.7619 61.11111] CT
0 0 1 RC
N
f-1814249635
f
GR
GS
[1 0 0 1 142.7619 61.11111] CT
0 0 1 RC
10.0 ML
N
4.4 0 M
4.4 -2.43 2.43 -4.4 0 -4.4 C
-2.43 -4.4 -4.4 -2.43 -4.4 0 C
-4.4 2.43 -2.43 4.4 0 4.4 C
2.43 4.4 4.4 2.43 4.4 0 C
S
GR
GS
[1 0 0 1 182.65715 61.11111] CT
0 0 1 RC
N
f-1814249635
f
GR
GS
[1 0 0 1 182.65715 61.11111] CT
0 0 1 RC
10.0 ML
N
4.4 0 M
4.4 -2.43 2.43 -4.4 0 -4.4 C
-2.43 -4.4 -4.4 -2.43 -4.4 0 C
-4.4 2.43 -2.43 4.4 0 4.4 C
2.43 4.4 4.4 2.43 4.4 0 C
S
GR
GS
[1 0 0 1 223.90475 61.11111] CT
0 0 1 RC
N
f-1814249635
f
GR
GS
[1 0 0 1 223.90475 61.11111] CT
0 0 1 RC
10.0 ML
N
4.4 0 M
4.4 -2.43 2.43 -4.4 0 -4.4 C
-2.43 -4.4 -4.4 -2.43 -4.4 0 C
-4.4 2.43 -2.43 4.4 0 4.4 C
2.43 4.4 4.4 2.43 4.4 0 C
S
GR
GS
[1 0 0 1 256.36191 61.11111] CT
0 0 1 RC
N
f-1814249635
f
GR
GS
[1 0 0 1 256.36191 61.11111] CT
0 0 1 RC
10.0 ML
N
4.4 0 M
4.4 -2.43 2.43 -4.4 0 -4.4 C
-2.43 -4.4 -4.4 -2.43 -4.4 0 C
-4.4 2.43 -2.43 4.4 0 4.4 C
2.43 4.4 4.4 2.43 4.4 0 C
S
GR
GS
[1 0 0 1 321.27618 61.11111] CT
0 0 1 RC
N
f-1814249635
f
GR
GS
[1 0 0 1 321.27618 61.11111] CT
0 0 1 RC
10.0 ML
N
4.4 0 M
4.4 -2.43 2.43 -4.4 0 -4.4 C
-2.43 -4.4 -4.4 -2.43 -4.4 0 C
-4.4 2.43 -2.43 4.4 0 4.4 C
2.43 4.4 4.4 2.43 4.4 0 C
S
GR
GS
[1 0 0 1 353.73334 61.11111] CT
0 0 1 RC
N
f-1814249635
f
GR
GS
[1 0 0 1 353.73334 61.11111] CT
0 0 1 RC
10.0 ML
N
4.4 0 M
4.4 -2.43 2.43 -4.4 0 -4.4 C
-2.43 -4.4 -4.4 -2.43 -4.4 0 C
-4.4 2.43 -2.43 4.4 0 4.4 C
2.43 4.4 4.4 2.43 4.4 0 C
S
GR
GS
[1 0 0 1 418.64761 61.11111] CT
0 0 1 RC
N
f-1814249635
f
GR
GS
[1 0 0 1 418.64761 61.11111] CT
0 0 1 RC
10.0 ML
N
4.4 0 M
4.4 -2.43 2.43 -4.4 0 -4.4 C
-2.43 -4.4 -4.4 -2.43 -4.4 0 C
-4.4 2.43 -2.43 4.4 0 4.4 C
2.43 4.4 4.4 2.43 4.4 0 C
S
GR
GS
[1 0 0 1 466.65714 61.11111] CT
0 0 1 RC
N
f-1814249635
f
GR
GS
[1 0 0 1 466.65714 61.11111] CT
0 0 1 RC
10.0 ML
N
4.4 0 M
4.4 -2.43 2.43 -4.4 0 -4.4 C
-2.43 -4.4 -4.4 -2.43 -4.4 0 C
-4.4 2.43 -2.43 4.4 0 4.4 C
2.43 4.4 4.4 2.43 4.4 0 C
S
GR
GS
[1 0 0 1 499.11429 61.11111] CT
0 0 1 RC
N
f-1814249635
f
GR
GS
[1 0 0 1 499.11429 61.11111] CT
0 0 1 RC
10.0 ML
N
4.4 0 M
4.4 -2.43 2.43 -4.4 0 -4.4 C
-2.43 -4.4 -4.4 -2.43 -4.4 0 C
-4.4 2.43 -2.43 4.4 0 4.4 C
2.43 4.4 4.4 2.43 4.4 0 C
S
GR
GS
[1 0 0 1 580.25714 61.11111] CT
0 0 1 RC
N
f-1814249635
f
GR
GS
[1 0 0 1 580.25714 61.11111] CT
0 0 1 RC
10.0 ML
N
4.4 0 M
4.4 -2.43 2.43 -4.4 0 -4.4 C
-2.43 -4.4 -4.4 -2.43 -4.4 0 C
-4.4 2.43 -2.43 4.4 0 4.4 C
2.43 4.4 4.4 2.43 4.4 0 C
S
GR
GS
[1 0 0 1 628.94287 61.11111] CT
0 0 1 RC
N
f-1814249635
f
GR
GS
[1 0 0 1 628.94287 61.11111] CT
0 0 1 RC
10.0 ML
N
4.4 0 M
4.4 -2.43 2.43 -4.4 0 -4.4 C
-2.43 -4.4 -4.4 -2.43 -4.4 0 C
-4.4 2.43 -2.43 4.4 0 4.4 C
2.43 4.4 4.4 2.43 4.4 0 C
S
GR
GS
[1 0 0 1 81.90476 40.05556] CT
0 0 1 RC
N
f-1814249635
f
GR
GS
[1 0 0 1 81.90476 40.05556] CT
0 0 1 RC
10.0 ML
N
4.4 0 M
4.4 -2.43 2.43 -4.4 0 -4.4 C
-2.43 -4.4 -4.4 -2.43 -4.4 0 C
-4.4 2.43 -2.43 4.4 0 4.4 C
2.43 4.4 4.4 2.43 4.4 0 C
S
GR
GS
[1 0 0 1 123.82858 40.05556] CT
0 0 1 RC
N
f-1814249635
f
GR
GS
[1 0 0 1 123.82858 40.05556] CT
0 0 1 RC
10.0 ML
N
4.4 0 M
4.4 -2.43 2.43 -4.4 0 -4.4 C
-2.43 -4.4 -4.4 -2.43 -4.4 0 C
-4.4 2.43 -2.43 4.4 0 4.4 C
2.43 4.4 4.4 2.43 4.4 0 C
S
GR
GS
[1 0 0 1 156.28572 40.05556] CT
0 0 1 RC
N
f-1814249635
f
GR
GS
[1 0 0 1 156.28572 40.05556] CT
0 0 1 RC
10.0 ML
N
4.4 0 M
4.4 -2.43 2.43 -4.4 0 -4.4 C
-2.43 -4.4 -4.4 -2.43 -4.4 0 C
-4.4 2.43 -2.43 4.4 0 4.4 C
2.43 4.4 4.4 2.43 4.4 0 C
S
GR
GS
[1 0 0 1 221.2 40.05556] CT
0 0 1 RC
N
f-1814249635
f
GR
GS
[1 0 0 1 221.2 40.05556] CT
0 0 1 RC
10.0 ML
N
4.4 0 M
4.4 -2.43 2.43 -4.4 0 -4.4 C
-2.43 -4.4 -4.4 -2.43 -4.4 0 C
-4.4 2.43 -2.43 4.4 0 4.4 C
2.43 4.4 4.4 2.43 4.4 0 C
S
GR
%%Trailer
%%Pages: 1
%%EOF
