%!PS-Adobe-3.0 EPSF-3.0
%%Creator: (MATLAB, The Mathworks, Inc. Version 9.5.0.1049112 \(R2018b\) Update 3. Operating System: Mac OS X)
%%Title: ./FNMRs1_new.eps
%%CreationDate: 2019-03-13T13:21:40
%%Pages: (atend)
%%BoundingBox:   119     0  1268   587
%%LanguageLevel: 3
%%EndComments
%%BeginProlog
%%BeginResource: procset (Apache XML Graphics Std ProcSet) 1.2 0
%%Version: 1.2 0
%%Copyright: (Copyright 2001-2003,2010 The Apache Software Foundation. License terms: http://www.apache.org/licenses/LICENSE-2.0)
/bd{bind def}bind def
/ld{load def}bd
/GR/grestore ld
/GS/gsave ld
/RM/rmoveto ld
/C/curveto ld
/t/show ld
/L/lineto ld
/ML/setmiterlimit ld
/CT/concat ld
/f/fill ld
/N/newpath ld
/S/stroke ld
/CC/setcmykcolor ld
/A/ashow ld
/cp/closepath ld
/RC/setrgbcolor ld
/LJ/setlinejoin ld
/GC/setgray ld
/LW/setlinewidth ld
/M/moveto ld
/re {4 2 roll M
1 index 0 rlineto
0 exch rlineto
neg 0 rlineto
cp } bd
/_ctm matrix def
/_tm matrix def
/BT { _ctm currentmatrix pop matrix _tm copy pop 0 0 moveto } bd
/ET { _ctm setmatrix } bd
/iTm { _ctm setmatrix _tm concat } bd
/Tm { _tm astore pop iTm 0 0 moveto } bd
/ux 0.0 def
/uy 0.0 def
/F {
  /Tp exch def
  /Tf exch def
  Tf findfont Tp scalefont setfont
  /cf Tf def  /cs Tp def
} bd
/ULS {currentpoint /uy exch def /ux exch def} bd
/ULE {
  /Tcx currentpoint pop def
  gsave
  newpath
  cf findfont cs scalefont dup
  /FontMatrix get 0 get /Ts exch def /FontInfo get dup
  /UnderlinePosition get Ts mul /To exch def
  /UnderlineThickness get Ts mul /Tt exch def
  ux uy To add moveto  Tcx uy To add lineto
  Tt setlinewidth stroke
  grestore
} bd
/OLE {
  /Tcx currentpoint pop def
  gsave
  newpath
  cf findfont cs scalefont dup
  /FontMatrix get 0 get /Ts exch def /FontInfo get dup
  /UnderlinePosition get Ts mul /To exch def
  /UnderlineThickness get Ts mul /Tt exch def
  ux uy To add cs add moveto Tcx uy To add cs add lineto
  Tt setlinewidth stroke
  grestore
} bd
/SOE {
  /Tcx currentpoint pop def
  gsave
  newpath
  cf findfont cs scalefont dup
  /FontMatrix get 0 get /Ts exch def /FontInfo get dup
  /UnderlinePosition get Ts mul /To exch def
  /UnderlineThickness get Ts mul /Tt exch def
  ux uy To add cs 10 mul 26 idiv add moveto Tcx uy To add cs 10 mul 26 idiv add lineto
  Tt setlinewidth stroke
  grestore
} bd
/QT {
/Y22 exch store
/X22 exch store
/Y21 exch store
/X21 exch store
currentpoint
/Y21 load 2 mul add 3 div exch
/X21 load 2 mul add 3 div exch
/X21 load 2 mul /X22 load add 3 div
/Y21 load 2 mul /Y22 load add 3 div
/X22 load /Y22 load curveto
} bd
/SSPD {
dup length /d exch dict def
{
/v exch def
/k exch def
currentpagedevice k known {
/cpdv currentpagedevice k get def
v cpdv ne {
/upd false def
/nullv v type /nulltype eq def
/nullcpdv cpdv type /nulltype eq def
nullv nullcpdv or
{
/upd true def
} {
/sametype v type cpdv type eq def
sametype {
v type /arraytype eq {
/vlen v length def
/cpdvlen cpdv length def
vlen cpdvlen eq {
0 1 vlen 1 sub {
/i exch def
/obj v i get def
/cpdobj cpdv i get def
obj cpdobj ne {
/upd true def
exit
} if
} for
} {
/upd true def
} ifelse
} {
v type /dicttype eq {
v {
/dv exch def
/dk exch def
/cpddv cpdv dk get def
dv cpddv ne {
/upd true def
exit
} if
} forall
} {
/upd true def
} ifelse
} ifelse
} if
} ifelse
upd true eq {
d k v put
} if
} if
} if
} forall
d length 0 gt {
d setpagedevice
} if
} bd
/RE { % /NewFontName [NewEncodingArray] /FontName RE -
  findfont dup length dict begin
  {
    1 index /FID ne
    {def} {pop pop} ifelse
  } forall
  /Encoding exch def
  /FontName 1 index def
  currentdict definefont pop
  end
} bind def
%%EndResource
%%BeginResource: procset (Apache XML Graphics EPS ProcSet) 1.0 0
%%Version: 1.0 0
%%Copyright: (Copyright 2002-2003 The Apache Software Foundation. License terms: http://www.apache.org/licenses/LICENSE-2.0)
/BeginEPSF { %def
/b4_Inc_state save def         % Save state for cleanup
/dict_count countdictstack def % Count objects on dict stack
/op_count count 1 sub def      % Count objects on operand stack
userdict begin                 % Push userdict on dict stack
/showpage { } def              % Redefine showpage, { } = null proc
0 setgray 0 setlinecap         % Prepare graphics state
1 setlinewidth 0 setlinejoin
10 setmiterlimit [ ] 0 setdash newpath
/languagelevel where           % If level not equal to 1 then
{pop languagelevel             % set strokeadjust and
1 ne                           % overprint to their defaults.
{false setstrokeadjust false setoverprint
} if
} if
} bd
/EndEPSF { %def
count op_count sub {pop} repeat            % Clean up stacks
countdictstack dict_count sub {end} repeat
b4_Inc_state restore
} bd
%%EndResource
%FOPBeginFontDict
%%IncludeResource: font Courier-Oblique
%%IncludeResource: font Courier-BoldOblique
%%IncludeResource: font Courier-Bold
%%IncludeResource: font ZapfDingbats
%%IncludeResource: font Symbol
%%IncludeResource: font Helvetica
%%IncludeResource: font Helvetica-Oblique
%%IncludeResource: font Helvetica-Bold
%%IncludeResource: font Helvetica-BoldOblique
%%IncludeResource: font Times-Roman
%%IncludeResource: font Times-Italic
%%IncludeResource: font Times-Bold
%%IncludeResource: font Times-BoldItalic
%%IncludeResource: font Courier
%FOPEndFontDict
%%BeginResource: encoding WinAnsiEncoding
/WinAnsiEncoding [
/.notdef /.notdef /.notdef /.notdef /.notdef
/.notdef /.notdef /.notdef /.notdef /.notdef
/.notdef /.notdef /.notdef /.notdef /.notdef
/.notdef /.notdef /.notdef /.notdef /.notdef
/.notdef /.notdef /.notdef /.notdef /.notdef
/.notdef /.notdef /.notdef /.notdef /.notdef
/.notdef /.notdef /space /exclam /quotedbl
/numbersign /dollar /percent /ampersand /quotesingle
/parenleft /parenright /asterisk /plus /comma
/hyphen /period /slash /zero /one
/two /three /four /five /six
/seven /eight /nine /colon /semicolon
/less /equal /greater /question /at
/A /B /C /D /E
/F /G /H /I /J
/K /L /M /N /O
/P /Q /R /S /T
/U /V /W /X /Y
/Z /bracketleft /backslash /bracketright /asciicircum
/underscore /quoteleft /a /b /c
/d /e /f /g /h
/i /j /k /l /m
/n /o /p /q /r
/s /t /u /v /w
/x /y /z /braceleft /bar
/braceright /asciitilde /bullet /Euro /bullet
/quotesinglbase /florin /quotedblbase /ellipsis /dagger
/daggerdbl /circumflex /perthousand /Scaron /guilsinglleft
/OE /bullet /Zcaron /bullet /bullet
/quoteleft /quoteright /quotedblleft /quotedblright /bullet
/endash /emdash /asciitilde /trademark /scaron
/guilsinglright /oe /bullet /zcaron /Ydieresis
/space /exclamdown /cent /sterling /currency
/yen /brokenbar /section /dieresis /copyright
/ordfeminine /guillemotleft /logicalnot /sfthyphen /registered
/macron /degree /plusminus /twosuperior /threesuperior
/acute /mu /paragraph /middot /cedilla
/onesuperior /ordmasculine /guillemotright /onequarter /onehalf
/threequarters /questiondown /Agrave /Aacute /Acircumflex
/Atilde /Adieresis /Aring /AE /Ccedilla
/Egrave /Eacute /Ecircumflex /Edieresis /Igrave
/Iacute /Icircumflex /Idieresis /Eth /Ntilde
/Ograve /Oacute /Ocircumflex /Otilde /Odieresis
/multiply /Oslash /Ugrave /Uacute /Ucircumflex
/Udieresis /Yacute /Thorn /germandbls /agrave
/aacute /acircumflex /atilde /adieresis /aring
/ae /ccedilla /egrave /eacute /ecircumflex
/edieresis /igrave /iacute /icircumflex /idieresis
/eth /ntilde /ograve /oacute /ocircumflex
/otilde /odieresis /divide /oslash /ugrave
/uacute /ucircumflex /udieresis /yacute /thorn
/ydieresis
] def
%%EndResource
%FOPBeginFontReencode
/Courier-Oblique findfont
dup length dict begin
  {1 index /FID ne {def} {pop pop} ifelse} forall
  /Encoding WinAnsiEncoding def
  currentdict
end
/Courier-Oblique exch definefont pop
/Courier-BoldOblique findfont
dup length dict begin
  {1 index /FID ne {def} {pop pop} ifelse} forall
  /Encoding WinAnsiEncoding def
  currentdict
end
/Courier-BoldOblique exch definefont pop
/Courier-Bold findfont
dup length dict begin
  {1 index /FID ne {def} {pop pop} ifelse} forall
  /Encoding WinAnsiEncoding def
  currentdict
end
/Courier-Bold exch definefont pop
/Helvetica findfont
dup length dict begin
  {1 index /FID ne {def} {pop pop} ifelse} forall
  /Encoding WinAnsiEncoding def
  currentdict
end
/Helvetica exch definefont pop
/Helvetica-Oblique findfont
dup length dict begin
  {1 index /FID ne {def} {pop pop} ifelse} forall
  /Encoding WinAnsiEncoding def
  currentdict
end
/Helvetica-Oblique exch definefont pop
/Helvetica-Bold findfont
dup length dict begin
  {1 index /FID ne {def} {pop pop} ifelse} forall
  /Encoding WinAnsiEncoding def
  currentdict
end
/Helvetica-Bold exch definefont pop
/Helvetica-BoldOblique findfont
dup length dict begin
  {1 index /FID ne {def} {pop pop} ifelse} forall
  /Encoding WinAnsiEncoding def
  currentdict
end
/Helvetica-BoldOblique exch definefont pop
/Times-Roman findfont
dup length dict begin
  {1 index /FID ne {def} {pop pop} ifelse} forall
  /Encoding WinAnsiEncoding def
  currentdict
end
/Times-Roman exch definefont pop
/Times-Italic findfont
dup length dict begin
  {1 index /FID ne {def} {pop pop} ifelse} forall
  /Encoding WinAnsiEncoding def
  currentdict
end
/Times-Italic exch definefont pop
/Times-Bold findfont
dup length dict begin
  {1 index /FID ne {def} {pop pop} ifelse} forall
  /Encoding WinAnsiEncoding def
  currentdict
end
/Times-Bold exch definefont pop
/Times-BoldItalic findfont
dup length dict begin
  {1 index /FID ne {def} {pop pop} ifelse} forall
  /Encoding WinAnsiEncoding def
  currentdict
end
/Times-BoldItalic exch definefont pop
/Courier findfont
dup length dict begin
  {1 index /FID ne {def} {pop pop} ifelse} forall
  /Encoding WinAnsiEncoding def
  currentdict
end
/Courier exch definefont pop
%FOPEndFontReencode
%%EndProlog
%%Page: 1 1
%%PageBoundingBox: 0 0 1400 600
%%BeginPageSetup
[1 0 0 -1 0 600] CT
%%EndPageSetup
GS
1 GC
N
0 0 1400 600 re
f
GR
GS
1 GC
N
0 0 1400 600 re
f
GR
GS
1 GC
N
182 531 M
1267 531 L
1267 45 L
182 45 L
cp
f
GR
GS
0.873 GC
1 LJ
0.5 LW
N
182 531 M
182 45 L
S
GR
GS
0.873 GC
1 LJ
0.5 LW
N
214.55 531 M
214.55 45 L
S
GR
GS
0.873 GC
1 LJ
0.5 LW
N
247.1 531 M
247.1 45 L
S
GR
GS
0.873 GC
1 LJ
0.5 LW
N
312.2 531 M
312.2 45 L
S
GR
GS
0.873 GC
1 LJ
0.5 LW
N
344.75 531 M
344.75 45 L
S
GR
GS
0.873 GC
1 LJ
0.5 LW
N
377.3 531 M
377.3 45 L
S
GR
GS
0.873 GC
1 LJ
0.5 LW
N
480.375 531 M
480.375 45 L
S
GR
GS
0.873 GC
1 LJ
0.5 LW
N
572.6 531 M
572.6 45 L
S
GR
GS
0.873 GC
1 LJ
0.5 LW
N
616 531 M
616 45 L
S
GR
GS
0.873 GC
1 LJ
0.5 LW
N
702.8 531 M
702.8 45 L
S
GR
GS
0.873 GC
1 LJ
0.5 LW
N
751.625 531 M
751.625 45 L
S
GR
GS
0.873 GC
1 LJ
0.5 LW
N
1182.912 531 M
1182.912 45 L
S
GR
GS
0.873 GC
1 LJ
0.5 LW
N
1267 531 M
182 531 L
S
GR
GS
0.873 GC
1 LJ
0.5 LW
N
1267 461.571 M
182 461.571 L
S
GR
GS
0.873 GC
1 LJ
0.5 LW
N
1267 392.143 M
182 392.143 L
S
GR
GS
0.873 GC
1 LJ
0.5 LW
N
1267 322.714 M
182 322.714 L
S
GR
GS
0.873 GC
1 LJ
0.5 LW
N
1267 253.286 M
182 253.286 L
S
GR
GS
0.873 GC
1 LJ
0.5 LW
N
1267 183.857 M
182 183.857 L
S
GR
GS
0.873 GC
1 LJ
0.5 LW
N
1267 114.429 M
182 114.429 L
S
GR
GS
0.873 GC
1 LJ
0.5 LW
N
1267 45 M
182 45 L
S
GR
GS
0.149 GC
2 setlinecap
1 LJ
0.5 LW
N
182 531 M
1267 531 L
S
GR
GS
0.149 GC
2 setlinecap
1 LJ
0.5 LW
N
182 45 M
1267 45 L
S
GR
GS
0.149 GC
2 setlinecap
1 LJ
0.5 LW
N
182 531 M
182 520.15 L
S
GR
GS
0.149 GC
2 setlinecap
1 LJ
0.5 LW
N
214.55 531 M
214.55 520.15 L
S
GR
GS
0.149 GC
2 setlinecap
1 LJ
0.5 LW
N
247.1 531 M
247.1 520.15 L
S
GR
GS
0.149 GC
2 setlinecap
1 LJ
0.5 LW
N
312.2 531 M
312.2 520.15 L
S
GR
GS
0.149 GC
2 setlinecap
1 LJ
0.5 LW
N
344.75 531 M
344.75 520.15 L
S
GR
GS
0.149 GC
2 setlinecap
1 LJ
0.5 LW
N
377.3 531 M
377.3 520.15 L
S
GR
GS
0.149 GC
2 setlinecap
1 LJ
0.5 LW
N
480.375 531 M
480.375 520.15 L
S
GR
GS
0.149 GC
2 setlinecap
1 LJ
0.5 LW
N
572.6 531 M
572.6 520.15 L
S
GR
GS
0.149 GC
2 setlinecap
1 LJ
0.5 LW
N
616 531 M
616 520.15 L
S
GR
GS
0.149 GC
2 setlinecap
1 LJ
0.5 LW
N
702.8 531 M
702.8 520.15 L
S
GR
GS
0.149 GC
2 setlinecap
1 LJ
0.5 LW
N
751.625 531 M
751.625 520.15 L
S
GR
GS
0.149 GC
2 setlinecap
1 LJ
0.5 LW
N
1182.912 531 M
1182.912 520.15 L
S
GR
GS
0.149 GC
2 setlinecap
1 LJ
0.5 LW
N
182 45 M
182 55.85 L
S
GR
GS
0.149 GC
2 setlinecap
1 LJ
0.5 LW
N
214.55 45 M
214.55 55.85 L
S
GR
GS
0.149 GC
2 setlinecap
1 LJ
0.5 LW
N
247.1 45 M
247.1 55.85 L
S
GR
GS
0.149 GC
2 setlinecap
1 LJ
0.5 LW
N
312.2 45 M
312.2 55.85 L
S
GR
GS
0.149 GC
2 setlinecap
1 LJ
0.5 LW
N
344.75 45 M
344.75 55.85 L
S
GR
GS
0.149 GC
2 setlinecap
1 LJ
0.5 LW
N
377.3 45 M
377.3 55.85 L
S
GR
GS
0.149 GC
2 setlinecap
1 LJ
0.5 LW
N
480.375 45 M
480.375 55.85 L
S
GR
GS
0.149 GC
2 setlinecap
1 LJ
0.5 LW
N
572.6 45 M
572.6 55.85 L
S
GR
GS
0.149 GC
2 setlinecap
1 LJ
0.5 LW
N
616 45 M
616 55.85 L
S
GR
GS
0.149 GC
2 setlinecap
1 LJ
0.5 LW
N
702.8 45 M
702.8 55.85 L
S
GR
GS
0.149 GC
2 setlinecap
1 LJ
0.5 LW
N
751.625 45 M
751.625 55.85 L
S
GR
GS
0.149 GC
2 setlinecap
1 LJ
0.5 LW
N
1182.912 45 M
1182.912 55.85 L
S
GR
GS
[1 0 0 1 182 537.79999] CT
0.149 GC
/Helvetica 24 F
GS
[1 0 0 1 0 0] CT
-7 23 moveto 
1 -1 scale
(0) t 
GR
GR
GS
[1 0 0 1 214.55 537.79999] CT
0.149 GC
/Helvetica 24 F
GS
[1 0 0 1 0 0] CT
-13.5 23 moveto 
1 -1 scale
(12) t 
GR
GR
GS
[1 0 0 1 247.10001 537.79999] CT
0.149 GC
/Helvetica 24 F
GS
[1 0 0 1 0 0] CT
-13.5 23 moveto 
1 -1 scale
(24) t 
GR
GR
GS
[1 0 0 1 312.20001 537.79999] CT
0.149 GC
/Helvetica 24 F
GS
[1 0 0 1 0 0] CT
-13.5 23 moveto 
1 -1 scale
(48) t 
GR
GR
GS
[1 0 0 1 344.75 537.79999] CT
0.149 GC
/Helvetica 24 F
GS
[1 0 0 1 0 0] CT
-13.5 23 moveto 
1 -1 scale
(60) t 
GR
GR
GS
[1 0 0 1 377.29999 537.79999] CT
0.149 GC
/Helvetica 24 F
GS
[1 0 0 1 0 0] CT
-13.5 23 moveto 
1 -1 scale
(72) t 
GR
GR
GS
[1 0 0 1 480.375 537.79999] CT
0.149 GC
/Helvetica 24 F
GS
[1 0 0 1 0 0] CT
-20.5 23 moveto 
1 -1 scale
(110) t 
GR
GR
GS
[1 0 0 1 572.59998 537.79999] CT
0.149 GC
/Helvetica 24 F
GS
[1 0 0 1 0 0] CT
-20.5 23 moveto 
1 -1 scale
(144) t 
GR
GR
GS
[1 0 0 1 616 537.79999] CT
0.149 GC
/Helvetica 24 F
GS
[1 0 0 1 0 0] CT
-20.5 23 moveto 
1 -1 scale
(160) t 
GR
GR
GS
[1 0 0 1 702.79999 537.79999] CT
0.149 GC
/Helvetica 24 F
GS
[1 0 0 1 0 0] CT
-20.5 23 moveto 
1 -1 scale
(192) t 
GR
GR
GS
[1 0 0 1 751.625 537.79999] CT
0.149 GC
/Helvetica 24 F
GS
[1 0 0 1 0 0] CT
-20.5 23 moveto 
1 -1 scale
(210) t 
GR
GR
GS
[1 0 0 1 1182.91248 537.79999] CT
0.149 GC
/Helvetica 24 F
GS
[1 0 0 1 0 0] CT
-20.5 23 moveto 
1 -1 scale
(369) t 
GR
GR
GS
[1 0 0 1 724.50049 567.79999] CT
0.149 GC
/Helvetica 26.4 F
GS
[1 0 0 1 0 0] CT
-197.5 26 moveto 
1 -1 scale
(post-mortem time horizon [hours]) t 
GR
GR
GS
0.149 GC
2 setlinecap
1 LJ
0.5 LW
N
182 531 M
182 45 L
S
GR
GS
0.149 GC
2 setlinecap
1 LJ
0.5 LW
N
1267 531 M
1267 45 L
S
GR
GS
0.149 GC
2 setlinecap
1 LJ
0.5 LW
N
182 531 M
192.85 531 L
S
GR
GS
0.149 GC
2 setlinecap
1 LJ
0.5 LW
N
182 461.571 M
192.85 461.571 L
S
GR
GS
0.149 GC
2 setlinecap
1 LJ
0.5 LW
N
182 392.143 M
192.85 392.143 L
S
GR
GS
0.149 GC
2 setlinecap
1 LJ
0.5 LW
N
182 322.714 M
192.85 322.714 L
S
GR
GS
0.149 GC
2 setlinecap
1 LJ
0.5 LW
N
182 253.286 M
192.85 253.286 L
S
GR
GS
0.149 GC
2 setlinecap
1 LJ
0.5 LW
N
182 183.857 M
192.85 183.857 L
S
GR
GS
0.149 GC
2 setlinecap
1 LJ
0.5 LW
N
182 114.429 M
192.85 114.429 L
S
GR
GS
0.149 GC
2 setlinecap
1 LJ
0.5 LW
N
182 45 M
192.85 45 L
S
GR
GS
0.149 GC
2 setlinecap
1 LJ
0.5 LW
N
1267 531 M
1256.15 531 L
S
GR
GS
0.149 GC
2 setlinecap
1 LJ
0.5 LW
N
1267 461.571 M
1256.15 461.571 L
S
GR
GS
0.149 GC
2 setlinecap
1 LJ
0.5 LW
N
1267 392.143 M
1256.15 392.143 L
S
GR
GS
0.149 GC
2 setlinecap
1 LJ
0.5 LW
N
1267 322.714 M
1256.15 322.714 L
S
GR
GS
0.149 GC
2 setlinecap
1 LJ
0.5 LW
N
1267 253.286 M
1256.15 253.286 L
S
GR
GS
0.149 GC
2 setlinecap
1 LJ
0.5 LW
N
1267 183.857 M
1256.15 183.857 L
S
GR
GS
0.149 GC
2 setlinecap
1 LJ
0.5 LW
N
1267 114.429 M
1256.15 114.429 L
S
GR
GS
0.149 GC
2 setlinecap
1 LJ
0.5 LW
N
1267 45 M
1256.15 45 L
S
GR
GS
[1 0 0 1 175.2 531] CT
0.149 GC
/Helvetica 24 F
GS
[1 0 0 1 0 0] CT
-14 8.5 moveto 
1 -1 scale
(0) t 
GR
GR
GS
[1 0 0 1 175.2 461.57144] CT
0.149 GC
/Helvetica 24 F
GS
[1 0 0 1 0 0] CT
-27 8.5 moveto 
1 -1 scale
(10) t 
GR
GR
GS
[1 0 0 1 175.2 392.14285] CT
0.149 GC
/Helvetica 24 F
GS
[1 0 0 1 0 0] CT
-27 8.5 moveto 
1 -1 scale
(20) t 
GR
GR
GS
[1 0 0 1 175.2 322.71429] CT
0.149 GC
/Helvetica 24 F
GS
[1 0 0 1 0 0] CT
-27 8.5 moveto 
1 -1 scale
(30) t 
GR
GR
GS
[1 0 0 1 175.2 253.28572] CT
0.149 GC
/Helvetica 24 F
GS
[1 0 0 1 0 0] CT
-27 8.5 moveto 
1 -1 scale
(40) t 
GR
GR
GS
[1 0 0 1 175.2 183.85715] CT
0.149 GC
/Helvetica 24 F
GS
[1 0 0 1 0 0] CT
-27 8.5 moveto 
1 -1 scale
(50) t 
GR
GR
GS
[1 0 0 1 175.2 114.42857] CT
0.149 GC
/Helvetica 24 F
GS
[1 0 0 1 0 0] CT
-27 8.5 moveto 
1 -1 scale
(60) t 
GR
GR
GS
[1 0 0 1 175.2 45] CT
0.149 GC
/Helvetica 24 F
GS
[1 0 0 1 0 0] CT
-27 8.5 moveto 
1 -1 scale
(70) t 
GR
GR
GS
[0 -1 1 0 145.2 287.99976] CT
0.149 GC
/Helvetica 26.4 F
GS
[1 0 0 1 0 0] CT
-119.5 -6 moveto 
1 -1 scale
(FNMR @ FMR = 1%) t 
GR
GR
GS
[1 0 0 1 724.50073 38.40002] CT
/Helvetica-Bold 26.4 F
GS
[1 0 0 1 0 0] CT
-340 -6 moveto 
1 -1 scale
(False Non-Match Rate dynamics vs time post-mortem) t 
GR
GR
GS
0 0.447 0.741 RC
1 LJ
2 LW
N
214.55 384.436 M
247.1 371.314 L
312.2 338.613 L
344.75 266.824 L
377.3 251.689 L
480.375 233.29 L
572.6 207.463 L
616 180.039 L
702.8 164.556 L
751.625 145.949 L
1182.912 89.226 L
S
GR
GS
0.851 0.325 0.098 RC
1 LJ
2 LW
N
214.55 491.009 M
247.1 484.899 L
312.2 455.045 L
344.75 417.693 L
377.3 400.544 L
480.375 365.76 L
572.6 351.597 L
616 305.635 L
702.8 282.723 L
751.625 256.063 L
1182.912 179.83 L
S
GR
GS
0.929 0.694 0.125 RC
1 LJ
2 LW
N
214.55 525.654 M
247.1 526.279 L
312.2 501.215 L
344.75 449.421 L
377.3 433.661 L
480.375 399.919 L
572.6 369.231 L
616 329.31 L
702.8 306.537 L
751.625 283.834 L
1182.912 207.879 L
S
GR
GS
0.494 0.184 0.557 RC
1 LJ
2 LW
N
214.55 528.362 M
247.1 528.639 L
312.2 506.145 L
344.75 479.137 L
377.3 463.446 L
480.375 439.979 L
572.6 414.568 L
616 376.73 L
702.8 352.36 L
751.625 332.781 L
1182.912 260.09 L
S
GR
GS
1 GC
N
1259 523 M
1259 401 L
745 401 L
745 523 L
cp
f
GR
GS
[1 0 0 1 782 417.5679] CT
/Helvetica 24 F
GS
[1 0 0 1 0 0] CT
0 8.5 moveto 
1 -1 scale
(original OSIRIS) t 
GR
GR
GS
0 0.447 0.741 RC
1 LJ
2 LW
N
749 417.568 M
779 417.568 L
S
GR
GS
[1 0 0 1 782 447.1893] CT
/Helvetica 24 F
GS
[1 0 0 1 0 0] CT
0 8.5 moveto 
1 -1 scale
(IriCore) t 
GR
GR
GS
0.851 0.325 0.098 RC
1 LJ
2 LW
N
749 447.189 M
779 447.189 L
S
GR
GS
[1 0 0 1 782 476.8107] CT
/Helvetica 24 F
GS
[1 0 0 1 0 0] CT
0 8.5 moveto 
1 -1 scale
(OSIRIS with new segmentation) t 
GR
GR
GS
0.929 0.694 0.125 RC
1 LJ
2 LW
N
749 476.811 M
779 476.811 L
S
GR
GS
[1 0 0 1 782 506.4321] CT
/Helvetica 24 F
GS
[1 0 0 1 0 0] CT
0 8.5 moveto 
1 -1 scale
(OSIRIS with new segmentation and filter set) t 
GR
GR
GS
0.494 0.184 0.557 RC
1 LJ
2 LW
N
749 506.432 M
779 506.432 L
S
GR
GS
0.149 GC
10.0 ML
0.5 LW
N
745 523 M
745 401 L
1259 401 L
1259 523 L
cp
S
GR
%%Trailer
%%Pages: 1
%%EOF
