%!PS-Adobe-3.0 EPSF-3.0
%%Creator: (MATLAB, The Mathworks, Inc. Version 9.5.0.1049112 \(R2018b\) Update 3. Operating System: Mac OS X)
%%Title: ./ROCs_postmortem_new_12_closeup.eps
%%CreationDate: 2019-03-12T15:35:41
%%Pages: (atend)
%%BoundingBox:    48     5   927   587
%%LanguageLevel: 3
%%EndComments
%%BeginProlog
%%BeginResource: procset (Apache XML Graphics Std ProcSet) 1.2 0
%%Version: 1.2 0
%%Copyright: (Copyright 2001-2003,2010 The Apache Software Foundation. License terms: http://www.apache.org/licenses/LICENSE-2.0)
/bd{bind def}bind def
/ld{load def}bd
/GR/grestore ld
/GS/gsave ld
/RM/rmoveto ld
/C/curveto ld
/t/show ld
/L/lineto ld
/ML/setmiterlimit ld
/CT/concat ld
/f/fill ld
/N/newpath ld
/S/stroke ld
/CC/setcmykcolor ld
/A/ashow ld
/cp/closepath ld
/RC/setrgbcolor ld
/LJ/setlinejoin ld
/GC/setgray ld
/LW/setlinewidth ld
/M/moveto ld
/re {4 2 roll M
1 index 0 rlineto
0 exch rlineto
neg 0 rlineto
cp } bd
/_ctm matrix def
/_tm matrix def
/BT { _ctm currentmatrix pop matrix _tm copy pop 0 0 moveto } bd
/ET { _ctm setmatrix } bd
/iTm { _ctm setmatrix _tm concat } bd
/Tm { _tm astore pop iTm 0 0 moveto } bd
/ux 0.0 def
/uy 0.0 def
/F {
  /Tp exch def
  /Tf exch def
  Tf findfont Tp scalefont setfont
  /cf Tf def  /cs Tp def
} bd
/ULS {currentpoint /uy exch def /ux exch def} bd
/ULE {
  /Tcx currentpoint pop def
  gsave
  newpath
  cf findfont cs scalefont dup
  /FontMatrix get 0 get /Ts exch def /FontInfo get dup
  /UnderlinePosition get Ts mul /To exch def
  /UnderlineThickness get Ts mul /Tt exch def
  ux uy To add moveto  Tcx uy To add lineto
  Tt setlinewidth stroke
  grestore
} bd
/OLE {
  /Tcx currentpoint pop def
  gsave
  newpath
  cf findfont cs scalefont dup
  /FontMatrix get 0 get /Ts exch def /FontInfo get dup
  /UnderlinePosition get Ts mul /To exch def
  /UnderlineThickness get Ts mul /Tt exch def
  ux uy To add cs add moveto Tcx uy To add cs add lineto
  Tt setlinewidth stroke
  grestore
} bd
/SOE {
  /Tcx currentpoint pop def
  gsave
  newpath
  cf findfont cs scalefont dup
  /FontMatrix get 0 get /Ts exch def /FontInfo get dup
  /UnderlinePosition get Ts mul /To exch def
  /UnderlineThickness get Ts mul /Tt exch def
  ux uy To add cs 10 mul 26 idiv add moveto Tcx uy To add cs 10 mul 26 idiv add lineto
  Tt setlinewidth stroke
  grestore
} bd
/QT {
/Y22 exch store
/X22 exch store
/Y21 exch store
/X21 exch store
currentpoint
/Y21 load 2 mul add 3 div exch
/X21 load 2 mul add 3 div exch
/X21 load 2 mul /X22 load add 3 div
/Y21 load 2 mul /Y22 load add 3 div
/X22 load /Y22 load curveto
} bd
/SSPD {
dup length /d exch dict def
{
/v exch def
/k exch def
currentpagedevice k known {
/cpdv currentpagedevice k get def
v cpdv ne {
/upd false def
/nullv v type /nulltype eq def
/nullcpdv cpdv type /nulltype eq def
nullv nullcpdv or
{
/upd true def
} {
/sametype v type cpdv type eq def
sametype {
v type /arraytype eq {
/vlen v length def
/cpdvlen cpdv length def
vlen cpdvlen eq {
0 1 vlen 1 sub {
/i exch def
/obj v i get def
/cpdobj cpdv i get def
obj cpdobj ne {
/upd true def
exit
} if
} for
} {
/upd true def
} ifelse
} {
v type /dicttype eq {
v {
/dv exch def
/dk exch def
/cpddv cpdv dk get def
dv cpddv ne {
/upd true def
exit
} if
} forall
} {
/upd true def
} ifelse
} ifelse
} if
} ifelse
upd true eq {
d k v put
} if
} if
} if
} forall
d length 0 gt {
d setpagedevice
} if
} bd
/RE { % /NewFontName [NewEncodingArray] /FontName RE -
  findfont dup length dict begin
  {
    1 index /FID ne
    {def} {pop pop} ifelse
  } forall
  /Encoding exch def
  /FontName 1 index def
  currentdict definefont pop
  end
} bind def
%%EndResource
%%BeginResource: procset (Apache XML Graphics EPS ProcSet) 1.0 0
%%Version: 1.0 0
%%Copyright: (Copyright 2002-2003 The Apache Software Foundation. License terms: http://www.apache.org/licenses/LICENSE-2.0)
/BeginEPSF { %def
/b4_Inc_state save def         % Save state for cleanup
/dict_count countdictstack def % Count objects on dict stack
/op_count count 1 sub def      % Count objects on operand stack
userdict begin                 % Push userdict on dict stack
/showpage { } def              % Redefine showpage, { } = null proc
0 setgray 0 setlinecap         % Prepare graphics state
1 setlinewidth 0 setlinejoin
10 setmiterlimit [ ] 0 setdash newpath
/languagelevel where           % If level not equal to 1 then
{pop languagelevel             % set strokeadjust and
1 ne                           % overprint to their defaults.
{false setstrokeadjust false setoverprint
} if
} if
} bd
/EndEPSF { %def
count op_count sub {pop} repeat            % Clean up stacks
countdictstack dict_count sub {end} repeat
b4_Inc_state restore
} bd
%%EndResource
%FOPBeginFontDict
%%IncludeResource: font Courier-Oblique
%%IncludeResource: font Courier-BoldOblique
%%IncludeResource: font Courier-Bold
%%IncludeResource: font ZapfDingbats
%%IncludeResource: font Symbol
%%IncludeResource: font Helvetica
%%IncludeResource: font Helvetica-Oblique
%%IncludeResource: font Helvetica-Bold
%%IncludeResource: font Helvetica-BoldOblique
%%IncludeResource: font Times-Roman
%%IncludeResource: font Times-Italic
%%IncludeResource: font Times-Bold
%%IncludeResource: font Times-BoldItalic
%%IncludeResource: font Courier
%FOPEndFontDict
%%BeginResource: encoding WinAnsiEncoding
/WinAnsiEncoding [
/.notdef /.notdef /.notdef /.notdef /.notdef
/.notdef /.notdef /.notdef /.notdef /.notdef
/.notdef /.notdef /.notdef /.notdef /.notdef
/.notdef /.notdef /.notdef /.notdef /.notdef
/.notdef /.notdef /.notdef /.notdef /.notdef
/.notdef /.notdef /.notdef /.notdef /.notdef
/.notdef /.notdef /space /exclam /quotedbl
/numbersign /dollar /percent /ampersand /quotesingle
/parenleft /parenright /asterisk /plus /comma
/hyphen /period /slash /zero /one
/two /three /four /five /six
/seven /eight /nine /colon /semicolon
/less /equal /greater /question /at
/A /B /C /D /E
/F /G /H /I /J
/K /L /M /N /O
/P /Q /R /S /T
/U /V /W /X /Y
/Z /bracketleft /backslash /bracketright /asciicircum
/underscore /quoteleft /a /b /c
/d /e /f /g /h
/i /j /k /l /m
/n /o /p /q /r
/s /t /u /v /w
/x /y /z /braceleft /bar
/braceright /asciitilde /bullet /Euro /bullet
/quotesinglbase /florin /quotedblbase /ellipsis /dagger
/daggerdbl /circumflex /perthousand /Scaron /guilsinglleft
/OE /bullet /Zcaron /bullet /bullet
/quoteleft /quoteright /quotedblleft /quotedblright /bullet
/endash /emdash /asciitilde /trademark /scaron
/guilsinglright /oe /bullet /zcaron /Ydieresis
/space /exclamdown /cent /sterling /currency
/yen /brokenbar /section /dieresis /copyright
/ordfeminine /guillemotleft /logicalnot /sfthyphen /registered
/macron /degree /plusminus /twosuperior /threesuperior
/acute /mu /paragraph /middot /cedilla
/onesuperior /ordmasculine /guillemotright /onequarter /onehalf
/threequarters /questiondown /Agrave /Aacute /Acircumflex
/Atilde /Adieresis /Aring /AE /Ccedilla
/Egrave /Eacute /Ecircumflex /Edieresis /Igrave
/Iacute /Icircumflex /Idieresis /Eth /Ntilde
/Ograve /Oacute /Ocircumflex /Otilde /Odieresis
/multiply /Oslash /Ugrave /Uacute /Ucircumflex
/Udieresis /Yacute /Thorn /germandbls /agrave
/aacute /acircumflex /atilde /adieresis /aring
/ae /ccedilla /egrave /eacute /ecircumflex
/edieresis /igrave /iacute /icircumflex /idieresis
/eth /ntilde /ograve /oacute /ocircumflex
/otilde /odieresis /divide /oslash /ugrave
/uacute /ucircumflex /udieresis /yacute /thorn
/ydieresis
] def
%%EndResource
%FOPBeginFontReencode
/Courier-Oblique findfont
dup length dict begin
  {1 index /FID ne {def} {pop pop} ifelse} forall
  /Encoding WinAnsiEncoding def
  currentdict
end
/Courier-Oblique exch definefont pop
/Courier-BoldOblique findfont
dup length dict begin
  {1 index /FID ne {def} {pop pop} ifelse} forall
  /Encoding WinAnsiEncoding def
  currentdict
end
/Courier-BoldOblique exch definefont pop
/Courier-Bold findfont
dup length dict begin
  {1 index /FID ne {def} {pop pop} ifelse} forall
  /Encoding WinAnsiEncoding def
  currentdict
end
/Courier-Bold exch definefont pop
/Helvetica findfont
dup length dict begin
  {1 index /FID ne {def} {pop pop} ifelse} forall
  /Encoding WinAnsiEncoding def
  currentdict
end
/Helvetica exch definefont pop
/Helvetica-Oblique findfont
dup length dict begin
  {1 index /FID ne {def} {pop pop} ifelse} forall
  /Encoding WinAnsiEncoding def
  currentdict
end
/Helvetica-Oblique exch definefont pop
/Helvetica-Bold findfont
dup length dict begin
  {1 index /FID ne {def} {pop pop} ifelse} forall
  /Encoding WinAnsiEncoding def
  currentdict
end
/Helvetica-Bold exch definefont pop
/Helvetica-BoldOblique findfont
dup length dict begin
  {1 index /FID ne {def} {pop pop} ifelse} forall
  /Encoding WinAnsiEncoding def
  currentdict
end
/Helvetica-BoldOblique exch definefont pop
/Times-Roman findfont
dup length dict begin
  {1 index /FID ne {def} {pop pop} ifelse} forall
  /Encoding WinAnsiEncoding def
  currentdict
end
/Times-Roman exch definefont pop
/Times-Italic findfont
dup length dict begin
  {1 index /FID ne {def} {pop pop} ifelse} forall
  /Encoding WinAnsiEncoding def
  currentdict
end
/Times-Italic exch definefont pop
/Times-Bold findfont
dup length dict begin
  {1 index /FID ne {def} {pop pop} ifelse} forall
  /Encoding WinAnsiEncoding def
  currentdict
end
/Times-Bold exch definefont pop
/Times-BoldItalic findfont
dup length dict begin
  {1 index /FID ne {def} {pop pop} ifelse} forall
  /Encoding WinAnsiEncoding def
  currentdict
end
/Times-BoldItalic exch definefont pop
/Courier findfont
dup length dict begin
  {1 index /FID ne {def} {pop pop} ifelse} forall
  /Encoding WinAnsiEncoding def
  currentdict
end
/Courier exch definefont pop
%FOPEndFontReencode
%%EndProlog
%%Page: 1 1
%%PageBoundingBox: 0 0 1000 600
%%BeginPageSetup
[1 0 0 -1 0 600] CT
%%EndPageSetup
GS
1 GC
N
0 0 1000 600 re
f
GR
GS
1 GC
N
0 0 1000 600 re
f
GR
GS
1 GC
N
130 531 M
905 531 L
905 45 L
130 45 L
cp
f
GR
GS
0.873 GC
1 LJ
0.5 LW
N
130 531 M
130 45 L
S
GR
GS
0.873 GC
1 LJ
0.5 LW
N
285 531 M
285 45 L
S
GR
GS
0.873 GC
1 LJ
0.5 LW
N
440 531 M
440 45 L
S
GR
GS
0.873 GC
1 LJ
0.5 LW
N
595 531 M
595 45 L
S
GR
GS
0.873 GC
1 LJ
0.5 LW
N
750 531 M
750 45 L
S
GR
GS
0.873 GC
1 LJ
0.5 LW
N
905 531 M
905 45 L
S
GR
GS
0.873 GC
1 LJ
0.5 LW
N
905 531 M
130 531 L
S
GR
GS
0.873 GC
1 LJ
0.5 LW
N
905 450 M
130 450 L
S
GR
GS
0.873 GC
1 LJ
0.5 LW
N
905 369 M
130 369 L
S
GR
GS
0.873 GC
1 LJ
0.5 LW
N
905 288 M
130 288 L
S
GR
GS
0.873 GC
1 LJ
0.5 LW
N
905 207 M
130 207 L
S
GR
GS
0.873 GC
1 LJ
0.5 LW
N
905 126 M
130 126 L
S
GR
GS
0.873 GC
1 LJ
0.5 LW
N
905 45 M
130 45 L
S
GR
GS
0.149 GC
2 setlinecap
1 LJ
0.5 LW
N
130 531 M
905 531 L
S
GR
GS
0.149 GC
2 setlinecap
1 LJ
0.5 LW
N
130 45 M
905 45 L
S
GR
GS
0.149 GC
2 setlinecap
1 LJ
0.5 LW
N
130 531 M
130 523.25 L
S
GR
GS
0.149 GC
2 setlinecap
1 LJ
0.5 LW
N
285 531 M
285 523.25 L
S
GR
GS
0.149 GC
2 setlinecap
1 LJ
0.5 LW
N
440 531 M
440 523.25 L
S
GR
GS
0.149 GC
2 setlinecap
1 LJ
0.5 LW
N
595 531 M
595 523.25 L
S
GR
GS
0.149 GC
2 setlinecap
1 LJ
0.5 LW
N
750 531 M
750 523.25 L
S
GR
GS
0.149 GC
2 setlinecap
1 LJ
0.5 LW
N
905 531 M
905 523.25 L
S
GR
GS
0.149 GC
2 setlinecap
1 LJ
0.5 LW
N
130 45 M
130 52.75 L
S
GR
GS
0.149 GC
2 setlinecap
1 LJ
0.5 LW
N
285 45 M
285 52.75 L
S
GR
GS
0.149 GC
2 setlinecap
1 LJ
0.5 LW
N
440 45 M
440 52.75 L
S
GR
GS
0.149 GC
2 setlinecap
1 LJ
0.5 LW
N
595 45 M
595 52.75 L
S
GR
GS
0.149 GC
2 setlinecap
1 LJ
0.5 LW
N
750 45 M
750 52.75 L
S
GR
GS
0.149 GC
2 setlinecap
1 LJ
0.5 LW
N
905 45 M
905 52.75 L
S
GR
GS
[1 0 0 1 130 537.80005] CT
0.149 GC
/Helvetica 24 F
GS
[1 0 0 1 0 0] CT
-7 23 moveto 
1 -1 scale
(0) t 
GR
GR
GS
[1 0 0 1 285 537.80005] CT
0.149 GC
/Helvetica 24 F
GS
[1 0 0 1 0 0] CT
-23.5 23 moveto 
1 -1 scale
(0.01) t 
GR
GR
GS
[1 0 0 1 440 537.80005] CT
0.149 GC
/Helvetica 24 F
GS
[1 0 0 1 0 0] CT
-23.5 23 moveto 
1 -1 scale
(0.02) t 
GR
GR
GS
[1 0 0 1 595 537.80005] CT
0.149 GC
/Helvetica 24 F
GS
[1 0 0 1 0 0] CT
-23.5 23 moveto 
1 -1 scale
(0.03) t 
GR
GR
GS
[1 0 0 1 750 537.80005] CT
0.149 GC
/Helvetica 24 F
GS
[1 0 0 1 0 0] CT
-23.5 23 moveto 
1 -1 scale
(0.04) t 
GR
GR
GS
[1 0 0 1 905 537.80005] CT
0.149 GC
/Helvetica 24 F
GS
[1 0 0 1 0 0] CT
-23.5 23 moveto 
1 -1 scale
(0.05) t 
GR
GR
GS
[1 0 0 1 517.50037 567.79999] CT
0.149 GC
/Helvetica 26.4 F
GS
[1 0 0 1 0 0] CT
-103.5 26 moveto 
1 -1 scale
(False Match Rate) t 
GR
GR
GS
0.149 GC
2 setlinecap
1 LJ
0.5 LW
N
130 531 M
130 45 L
S
GR
GS
0.149 GC
2 setlinecap
1 LJ
0.5 LW
N
905 531 M
905 45 L
S
GR
GS
0.149 GC
2 setlinecap
1 LJ
0.5 LW
N
130 531 M
137.75 531 L
S
GR
GS
0.149 GC
2 setlinecap
1 LJ
0.5 LW
N
130 450 M
137.75 450 L
S
GR
GS
0.149 GC
2 setlinecap
1 LJ
0.5 LW
N
130 369 M
137.75 369 L
S
GR
GS
0.149 GC
2 setlinecap
1 LJ
0.5 LW
N
130 288 M
137.75 288 L
S
GR
GS
0.149 GC
2 setlinecap
1 LJ
0.5 LW
N
130 207 M
137.75 207 L
S
GR
GS
0.149 GC
2 setlinecap
1 LJ
0.5 LW
N
130 126 M
137.75 126 L
S
GR
GS
0.149 GC
2 setlinecap
1 LJ
0.5 LW
N
130 45 M
137.75 45 L
S
GR
GS
0.149 GC
2 setlinecap
1 LJ
0.5 LW
N
905 531 M
897.25 531 L
S
GR
GS
0.149 GC
2 setlinecap
1 LJ
0.5 LW
N
905 450 M
897.25 450 L
S
GR
GS
0.149 GC
2 setlinecap
1 LJ
0.5 LW
N
905 369 M
897.25 369 L
S
GR
GS
0.149 GC
2 setlinecap
1 LJ
0.5 LW
N
905 288 M
897.25 288 L
S
GR
GS
0.149 GC
2 setlinecap
1 LJ
0.5 LW
N
905 207 M
897.25 207 L
S
GR
GS
0.149 GC
2 setlinecap
1 LJ
0.5 LW
N
905 126 M
897.25 126 L
S
GR
GS
0.149 GC
2 setlinecap
1 LJ
0.5 LW
N
905 45 M
897.25 45 L
S
GR
GS
[1 0 0 1 123.2 531] CT
0.149 GC
/Helvetica 24 F
GS
[1 0 0 1 0 0] CT
-34 8.5 moveto 
1 -1 scale
(0.7) t 
GR
GR
GS
[1 0 0 1 123.2 450] CT
0.149 GC
/Helvetica 24 F
GS
[1 0 0 1 0 0] CT
-47 8.5 moveto 
1 -1 scale
(0.75) t 
GR
GR
GS
[1 0 0 1 123.2 368.99997] CT
0.149 GC
/Helvetica 24 F
GS
[1 0 0 1 0 0] CT
-34 8.5 moveto 
1 -1 scale
(0.8) t 
GR
GR
GS
[1 0 0 1 123.2 287.99997] CT
0.149 GC
/Helvetica 24 F
GS
[1 0 0 1 0 0] CT
-47 8.5 moveto 
1 -1 scale
(0.85) t 
GR
GR
GS
[1 0 0 1 123.2 207.00005] CT
0.149 GC
/Helvetica 24 F
GS
[1 0 0 1 0 0] CT
-34 8.5 moveto 
1 -1 scale
(0.9) t 
GR
GR
GS
[1 0 0 1 123.2 126.00002] CT
0.149 GC
/Helvetica 24 F
GS
[1 0 0 1 0 0] CT
-47 8.5 moveto 
1 -1 scale
(0.95) t 
GR
GR
GS
[1 0 0 1 123.2 45] CT
0.149 GC
/Helvetica 24 F
GS
[1 0 0 1 0 0] CT
-14 8.5 moveto 
1 -1 scale
(1) t 
GR
GR
GS
[0 -1 1 0 73.2 287.99976] CT
0.149 GC
/Helvetica 26.4 F
GS
[1 0 0 1 0 0] CT
-153 -6 moveto 
1 -1 scale
(1 - False Non-Match Rate) t 
GR
GR
GS
[1 0 0 1 517.50049 38.39996] CT
/Helvetica-Bold 26.4 F
GS
[1 0 0 1 0 0] CT
-279.5 -6 moveto 
1 -1 scale
(Data acquired less than 12 hours after death) t 
GR
GR
GS
0 0 1 RC
1 LJ
2 LW
N
130.338 531.058 M
130.338 530.067 L
130.338 530.067 L
130.338 526.958 L
130.338 526.958 L
130.338 526.958 L
130.338 526.958 L
130.338 523.848 L
130.338 520.739 L
130.338 520.739 L
130.338 520.739 L
130.338 517.63 L
130.338 514.52 L
130.338 514.52 L
130.338 514.52 L
130.338 514.52 L
130.338 514.52 L
130.338 511.411 L
130.338 511.411 L
130.338 511.411 L
130.338 511.411 L
130.338 511.411 L
130.338 511.411 L
130.338 508.301 L
130.338 508.301 L
130.338 505.192 L
130.338 495.864 L
130.338 495.864 L
130.676 495.864 L
130.676 492.754 L
130.676 489.645 L
131.014 486.536 L
131.014 486.536 L
131.014 486.536 L
131.014 483.426 L
131.014 480.317 L
131.014 477.207 L
131.014 470.988 L
131.014 470.988 L
131.014 467.879 L
131.014 467.879 L
131.014 467.879 L
131.014 467.879 L
131.014 467.879 L
131.014 467.879 L
131.691 467.879 L
131.691 464.77 L
132.029 464.77 L
132.029 461.66 L
132.029 461.66 L
132.029 458.551 L
132.029 458.551 L
132.029 458.551 L
132.029 458.551 L
132.029 458.551 L
132.367 458.551 L
132.705 455.441 L
132.705 455.441 L
133.381 455.441 L
134.058 455.441 L
134.396 452.332 L
134.396 449.223 L
135.072 446.113 L
135.41 446.113 L
135.748 446.113 L
136.087 446.113 L
136.763 446.113 L
137.101 446.113 L
137.439 439.894 L
138.792 439.894 L
139.13 439.894 L
139.468 436.785 L
139.806 433.676 L
140.482 433.676 L
141.159 433.676 L
141.497 433.676 L
142.173 433.676 L
142.511 433.676 L
144.202 433.676 L
144.878 433.676 L
146.907 433.676 L
147.921 433.676 L
149.612 433.676 L
152.655 433.676 L
154.684 433.676 L
156.037 430.566 L
157.727 430.566 L
160.094 430.566 L
161.447 430.566 L
164.152 430.566 L
168.21 430.566 L
170.239 430.566 L
171.929 424.347 L
175.311 418.129 L
178.354 418.129 L
180.383 415.019 L
181.059 415.019 L
185.455 411.91 L
187.484 411.91 L
189.851 408.8 L
194.923 408.8 L
198.642 405.691 L
204.053 405.691 L
208.787 405.691 L
213.182 399.472 L
216.226 396.363 L
222.65 393.253 L
227.384 393.253 L
234.485 393.253 L
241.924 393.253 L
249.363 390.144 L
259.169 390.144 L
267.285 390.144 L
276.415 387.035 L
284.192 387.035 L
294.336 387.035 L
299.408 383.925 L
307.185 383.925 L
315.301 383.925 L
323.754 383.925 L
338.294 380.816 L
349.453 377.706 L
358.921 377.706 L
371.77 377.706 L
384.619 371.488 L
401.526 371.488 L
416.066 371.488 L
432.635 371.488 L
448.866 368.378 L
467.126 365.269 L
481.666 365.269 L
498.234 365.269 L
512.436 365.269 L
534.077 362.159 L
558.423 362.159 L
581.755 362.159 L
606.777 355.94 L
630.447 355.94 L
662.57 355.94 L
689.622 352.831 L
723.098 349.722 L
746.767 349.722 L
774.157 349.722 L
807.633 349.722 L
836.375 349.722 L
871.879 349.722 L
905.092 349.722 L
S
GR
GS
0 1 0 RC
1 LJ
2 LW
N
130 531.058 M
130 526.958 L
130 523.848 L
130 520.739 L
130 520.739 L
130 514.52 L
130 508.301 L
130 505.192 L
130 495.864 L
130 486.536 L
130 486.536 L
130 486.536 L
130 486.536 L
130 486.536 L
130 483.426 L
130 483.426 L
130 483.426 L
130 477.207 L
130 477.207 L
130 474.098 L
130 474.098 L
130 464.77 L
130 455.441 L
130 455.441 L
130 455.441 L
130 449.223 L
130 443.004 L
130 443.004 L
130 436.785 L
130 436.785 L
130 430.566 L
130 427.457 L
130 421.238 L
130 418.129 L
130 418.129 L
130 418.129 L
130 418.129 L
130 418.129 L
130 411.91 L
130 402.582 L
130 396.363 L
130 390.144 L
130 383.925 L
130 383.925 L
130 380.816 L
130 380.816 L
130 377.706 L
130 374.597 L
130 371.488 L
130 368.378 L
130 365.269 L
130 365.269 L
130 365.269 L
130 359.05 L
130 355.94 L
130 352.831 L
130 352.831 L
130 349.722 L
130 349.722 L
130 346.612 L
130 346.612 L
130 343.503 L
130 340.393 L
130 337.284 L
130 334.175 L
130 331.065 L
130 331.065 L
130 327.956 L
130 327.956 L
130 324.846 L
130 324.846 L
130 321.737 L
130 321.737 L
130 321.737 L
130 321.737 L
130 321.737 L
130 321.737 L
130 318.628 L
130 309.299 L
130 309.299 L
130 306.19 L
130 299.971 L
130 299.971 L
130 299.971 L
130 299.971 L
130 299.971 L
130 299.971 L
130 296.862 L
130 293.752 L
130 290.643 L
130 284.424 L
130 284.424 L
130 278.205 L
130 278.205 L
130 275.096 L
130 275.096 L
130 275.096 L
130 271.987 L
130 271.987 L
130 265.768 L
130 259.549 L
130 256.44 L
130 256.44 L
130 256.44 L
130 256.44 L
130 250.221 L
130 250.221 L
130 250.221 L
130 250.221 L
130 247.111 L
130 247.111 L
130 244.002 L
130 240.893 L
130 240.893 L
130 237.783 L
130 237.783 L
130 237.783 L
130 237.783 L
130 234.674 L
130 231.564 L
130 228.455 L
130 228.455 L
130 222.236 L
130 222.236 L
130 219.127 L
130 219.127 L
130 219.127 L
130 219.127 L
130 219.127 L
130 219.127 L
130 216.017 L
130 216.017 L
130 212.908 L
130 212.908 L
130 212.908 L
130 209.798 L
130 206.689 L
130 200.47 L
130 200.47 L
130 197.361 L
130.338 194.251 L
130.338 194.251 L
130.676 191.142 L
130.676 188.033 L
130.676 184.923 L
130.676 181.814 L
131.014 175.595 L
132.367 175.595 L
132.367 175.595 L
132.705 175.595 L
132.705 175.595 L
133.381 175.595 L
133.381 175.595 L
133.381 175.595 L
133.72 175.595 L
133.72 166.267 L
134.396 166.267 L
134.396 163.157 L
134.396 163.157 L
134.396 163.157 L
134.734 163.157 L
135.748 160.048 L
136.763 160.048 L
137.439 160.048 L
138.792 160.048 L
139.468 160.048 L
141.497 160.048 L
141.835 160.048 L
144.878 160.048 L
145.554 160.048 L
146.231 160.048 L
147.921 160.048 L
148.936 160.048 L
150.965 160.048 L
153.67 160.048 L
155.022 156.939 L
157.389 156.939 L
160.771 153.829 L
165.505 153.829 L
168.886 153.829 L
173.62 147.61 L
178.354 147.61 L
182.75 147.61 L
187.146 147.61 L
193.57 147.61 L
201.348 144.501 L
212.168 144.501 L
219.269 141.392 L
226.708 141.392 L
235.838 141.392 L
243.277 141.392 L
257.141 138.282 L
269.99 138.282 L
277.429 138.282 L
292.645 138.282 L
309.214 138.282 L
323.078 135.173 L
337.28 135.173 L
355.878 135.173 L
375.152 135.173 L
394.087 135.173 L
414.714 135.173 L
428.916 135.173 L
451.571 135.173 L
471.521 135.173 L
494.853 135.173 L
514.465 135.173 L
541.516 135.173 L
567.891 135.173 L
587.165 135.173 L
608.806 135.173 L
634.843 135.173 L
665.276 135.173 L
686.578 132.063 L
712.277 132.063 L
736.961 132.063 L
762.998 132.063 L
788.359 132.063 L
813.381 132.063 L
834.008 132.063 L
853.958 132.063 L
876.951 132.063 L
897.578 132.063 L
905.092 132.063 L
S
GR
GS
1 LJ
2 LW
N
130 531.058 M
130 530.067 L
130 530.067 L
130 520.739 L
130 511.411 L
130 508.301 L
130 505.192 L
130 492.754 L
130 489.645 L
130 489.645 L
130 483.426 L
130 477.207 L
130 477.207 L
130 474.098 L
130 470.988 L
130 464.77 L
130 461.66 L
130 458.551 L
130 452.332 L
130 452.332 L
130 439.894 L
130 436.785 L
130 433.676 L
130 430.566 L
130 427.457 L
130 427.457 L
130 424.347 L
130 418.129 L
130 418.129 L
130 418.129 L
130 411.91 L
130 408.8 L
130 402.582 L
130 399.472 L
130 396.363 L
130 393.253 L
130 390.144 L
130 390.144 L
130 383.925 L
130 377.706 L
130 377.706 L
130 374.597 L
130 374.597 L
130 368.378 L
130 365.269 L
130 362.159 L
130 352.831 L
130 352.831 L
130 346.612 L
130 346.612 L
130 346.612 L
130 346.612 L
130 343.503 L
130 343.503 L
130 343.503 L
130 343.503 L
130 340.393 L
130 340.393 L
130 340.393 L
130 340.393 L
130 337.284 L
130 334.175 L
130 331.065 L
130 327.956 L
130 324.846 L
130 324.846 L
130 321.737 L
130 318.628 L
130 312.409 L
130 312.409 L
130 309.299 L
130 309.299 L
130 303.081 L
130 303.081 L
130 303.081 L
130 303.081 L
130 303.081 L
130 299.971 L
130 296.862 L
130 296.862 L
130 290.643 L
130 290.643 L
130 287.534 L
130 287.534 L
130 284.424 L
130 284.424 L
130 281.315 L
130 275.096 L
130 275.096 L
130 268.877 L
130 268.877 L
130 265.768 L
130 262.658 L
130 259.549 L
130 259.549 L
130 259.549 L
130 259.549 L
130 259.549 L
130 253.33 L
130 250.221 L
130 250.221 L
130 250.221 L
130 250.221 L
130 247.111 L
130 247.111 L
130 247.111 L
130 247.111 L
130 244.002 L
130 244.002 L
130 237.783 L
130 237.783 L
130 234.674 L
130 234.674 L
130 231.564 L
130 225.345 L
130 225.345 L
130 222.236 L
130 219.127 L
130 219.127 L
130 216.017 L
130 216.017 L
130 216.017 L
130 216.017 L
130 216.017 L
130 212.908 L
130 212.908 L
130 212.908 L
130 209.798 L
130 203.58 L
130 200.47 L
130 200.47 L
130 197.361 L
130 197.361 L
130 197.361 L
130 191.142 L
130 188.033 L
130 184.923 L
130 184.923 L
130 184.923 L
130 181.814 L
130 178.704 L
130 178.704 L
130 175.595 L
130 175.595 L
130 175.595 L
130 175.595 L
130 175.595 L
130 175.595 L
130 169.376 L
130 169.376 L
130 166.267 L
130 166.267 L
130 166.267 L
130 163.157 L
130 163.157 L
130 156.939 L
130 156.939 L
130 153.829 L
130 153.829 L
130 150.72 L
130 150.72 L
130 150.72 L
130 150.72 L
130 150.72 L
130 147.61 L
130 147.61 L
130 147.61 L
130 147.61 L
130 141.392 L
130 138.282 L
130 135.173 L
130 135.173 L
130 132.063 L
130 132.063 L
130 132.063 L
130 128.954 L
130 128.954 L
130 125.845 L
130 125.845 L
130 125.845 L
130 122.735 L
130 122.735 L
130 116.516 L
130 116.516 L
130 116.516 L
130 113.407 L
130 110.298 L
130 104.079 L
130 100.969 L
130 100.969 L
130 100.969 L
130 97.86 L
130 97.86 L
130 94.75 L
130 94.75 L
130 94.75 L
130 91.641 L
130 91.641 L
130 91.641 L
130.338 91.641 L
130.338 91.641 L
130.338 91.641 L
130.676 91.641 L
130.676 91.641 L
130.676 91.641 L
130.676 91.641 L
131.014 91.641 L
131.014 91.641 L
131.014 88.532 L
131.353 88.532 L
131.353 88.532 L
131.691 88.532 L
131.691 88.532 L
132.029 88.532 L
132.029 88.532 L
132.705 88.532 L
132.705 88.532 L
132.705 85.422 L
133.043 85.422 L
134.058 85.422 L
134.058 85.422 L
134.058 85.422 L
134.058 85.422 L
134.734 85.422 L
135.072 85.422 L
135.072 85.422 L
135.072 85.422 L
135.748 85.422 L
136.425 85.422 L
137.101 85.422 L
139.13 85.422 L
139.806 82.313 L
140.482 79.203 L
140.82 79.203 L
141.835 76.094 L
143.864 76.094 L
146.231 72.985 L
148.936 72.985 L
150.627 72.985 L
151.641 72.985 L
154.346 72.985 L
155.361 72.985 L
157.727 72.985 L
160.094 72.985 L
163.138 72.985 L
164.152 72.985 L
167.534 72.985 L
169.224 72.985 L
172.606 72.985 L
177.001 66.766 L
180.721 63.656 L
184.441 63.656 L
188.498 63.656 L
192.556 60.547 L
197.29 60.547 L
204.053 60.547 L
208.11 60.547 L
213.182 60.547 L
218.931 60.547 L
226.708 57.438 L
235.838 57.438 L
245.306 57.438 L
252.069 57.438 L
262.213 57.438 L
267.285 57.438 L
277.429 57.438 L
288.588 57.438 L
300.084 57.438 L
311.243 57.438 L
327.812 57.438 L
335.251 54.328 L
347.424 54.328 L
362.302 54.328 L
372.785 54.328 L
393.073 54.328 L
409.98 54.328 L
419.786 54.328 L
433.312 54.328 L
451.571 51.219 L
467.464 51.219 L
485.047 51.219 L
505.674 51.219 L
531.034 51.219 L
535.43 51.219 L
561.805 48.109 L
584.798 48.109 L
611.849 48.109 L
638.224 45 L
665.276 45 L
676.434 45 L
712.615 45 L
747.444 45 L
776.524 45 L
810 45 L
839.756 45 L
862.073 45 L
900.621 45 L
905.092 45 L
S
GR
GS
1 0 0 RC
1 LJ
2 LW
N
130 531.058 M
130 530.067 L
130 530.067 L
130 526.958 L
130 514.52 L
130 502.083 L
130 498.973 L
130 495.864 L
130 495.864 L
130 492.754 L
130 486.536 L
130 480.317 L
130 470.988 L
130 464.77 L
130 464.77 L
130 461.66 L
130 452.332 L
130 452.332 L
130 439.894 L
130 439.894 L
130 439.894 L
130 430.566 L
130 427.457 L
130 424.347 L
130 421.238 L
130 418.129 L
130 415.019 L
130 415.019 L
130 405.691 L
130 405.691 L
130 402.582 L
130 402.582 L
130 402.582 L
130 402.582 L
130 402.582 L
130 396.363 L
130 393.253 L
130 393.253 L
130 393.253 L
130 393.253 L
130 393.253 L
130 390.144 L
130 387.035 L
130 383.925 L
130 383.925 L
130 383.925 L
130 377.706 L
130 374.597 L
130 374.597 L
130 371.488 L
130 371.488 L
130 371.488 L
130 371.488 L
130 362.159 L
130 359.05 L
130 352.831 L
130 349.722 L
130 349.722 L
130 346.612 L
130 343.503 L
130 337.284 L
130 337.284 L
130 337.284 L
130 337.284 L
130 334.175 L
130 327.956 L
130 318.628 L
130 318.628 L
130 315.518 L
130 315.518 L
130 309.299 L
130 309.299 L
130 309.299 L
130 309.299 L
130 309.299 L
130 306.19 L
130 303.081 L
130 293.752 L
130 290.643 L
130 287.534 L
130 284.424 L
130 284.424 L
130 281.315 L
130 278.205 L
130 271.987 L
130 268.877 L
130 268.877 L
130 268.877 L
130 268.877 L
130 268.877 L
130 268.877 L
130 265.768 L
130 259.549 L
130 253.33 L
130 250.221 L
130 244.002 L
130 240.893 L
130 240.893 L
130 240.893 L
130 234.674 L
130 234.674 L
130 234.674 L
130 234.674 L
130 234.674 L
130 234.674 L
130 228.455 L
130 228.455 L
130 225.345 L
130 225.345 L
130 222.236 L
130 222.236 L
130 222.236 L
130 222.236 L
130 219.127 L
130 219.127 L
130 219.127 L
130 219.127 L
130 219.127 L
130 219.127 L
130 212.908 L
130 209.798 L
130 209.798 L
130 209.798 L
130 203.58 L
130 200.47 L
130 197.361 L
130 197.361 L
130 197.361 L
130 194.251 L
130 194.251 L
130 194.251 L
130 194.251 L
130 191.142 L
130 191.142 L
130 191.142 L
130 191.142 L
130 191.142 L
130 188.033 L
130 184.923 L
130 184.923 L
130 175.595 L
130 175.595 L
130 175.595 L
130 175.595 L
130 175.595 L
130 175.595 L
130 172.486 L
130 169.376 L
130 169.376 L
130 169.376 L
130 169.376 L
130 169.376 L
130 166.267 L
130 160.048 L
130 153.829 L
130 153.829 L
130 150.72 L
130 150.72 L
130 147.61 L
130 144.501 L
130 144.501 L
130 138.282 L
130 138.282 L
130 138.282 L
130 138.282 L
130 138.282 L
130 138.282 L
130 138.282 L
130 138.282 L
130 138.282 L
130 135.173 L
130 135.173 L
130 132.063 L
130 128.954 L
130 128.954 L
130 125.845 L
130 125.845 L
130 119.626 L
130 119.626 L
130 116.516 L
130 116.516 L
130 116.516 L
130 113.407 L
130 113.407 L
130 110.298 L
130 110.298 L
130 110.298 L
130 107.188 L
130 107.188 L
130 107.188 L
130 107.188 L
130 107.188 L
130 107.188 L
130 104.079 L
130 104.079 L
130 100.969 L
130 100.969 L
130 100.969 L
130 100.969 L
130 97.86 L
130 94.75 L
130 94.75 L
130 94.75 L
130 94.75 L
130 94.75 L
130 94.75 L
130 91.641 L
130 91.641 L
130 91.641 L
130 91.641 L
130 91.641 L
130.338 91.641 L
130.338 91.641 L
130.338 91.641 L
130.338 91.641 L
130.338 91.641 L
130.338 91.641 L
130.338 91.641 L
130.338 91.641 L
130.338 91.641 L
130.676 91.641 L
130.676 88.532 L
130.676 85.422 L
130.676 82.313 L
130.676 79.203 L
130.676 79.203 L
130.676 79.203 L
130.676 79.203 L
130.676 79.203 L
130.676 79.203 L
130.676 79.203 L
130.676 79.203 L
130.676 76.094 L
130.676 76.094 L
131.353 76.094 L
131.691 76.094 L
132.029 76.094 L
132.705 76.094 L
132.705 76.094 L
132.705 76.094 L
132.705 76.094 L
132.705 72.985 L
132.705 72.985 L
132.705 72.985 L
133.043 72.985 L
133.043 72.985 L
133.72 69.875 L
134.058 69.875 L
134.058 69.875 L
134.058 69.875 L
135.41 66.766 L
135.41 66.766 L
135.41 66.766 L
135.41 66.766 L
135.748 66.766 L
136.087 66.766 L
136.763 66.766 L
137.101 66.766 L
138.115 66.766 L
138.454 66.766 L
139.13 66.766 L
139.13 63.656 L
139.806 63.656 L
141.159 63.656 L
143.187 63.656 L
144.54 63.656 L
145.893 63.656 L
147.583 63.656 L
150.627 63.656 L
152.655 63.656 L
154.346 63.656 L
155.699 63.656 L
157.051 63.656 L
159.418 60.547 L
162.461 60.547 L
164.49 60.547 L
168.21 60.547 L
172.268 60.547 L
174.634 60.547 L
177.678 60.547 L
181.735 57.438 L
183.764 57.438 L
185.455 57.438 L
188.836 57.438 L
193.57 57.438 L
195.937 57.438 L
201.009 57.438 L
205.405 54.328 L
212.168 54.328 L
217.24 54.328 L
225.694 54.328 L
227.722 54.328 L
234.485 54.328 L
240.572 54.328 L
251.054 54.328 L
260.184 54.328 L
268.637 54.328 L
276.076 51.219 L
290.955 51.219 L
303.128 51.219 L
312.934 51.219 L
325.107 51.219 L
333.898 51.219 L
341.676 51.219 L
357.568 51.219 L
370.418 51.219 L
386.986 51.219 L
401.865 51.219 L
423.167 51.219 L
436.693 51.219 L
455.291 51.219 L
474.565 51.219 L
495.191 51.219 L
518.861 51.219 L
551.661 51.219 L
567.891 51.219 L
594.943 51.219 L
625.037 51.219 L
654.793 51.219 L
690.636 51.219 L
725.465 51.219 L
763.336 51.219 L
780.243 51.219 L
813.043 51.219 L
856.663 51.219 L
889.801 51.219 L
905.092 51.219 L
S
GR
GS
[10 6] 0 setdash
2 LJ
0.5 LW
N
905.092 126.01 M
130 45 L
S
GR
%%Trailer
%%Pages: 1
%%EOF
