%!PS-Adobe-3.0 EPSF-3.0
%%Creator: (MATLAB, The Mathworks, Inc. Version 9.5.0.1049112 \(R2018b\) Update 3. Operating System: Mac OS X)
%%Title: ./ROCs_postmortem_new_24.eps
%%CreationDate: 2019-02-28T20:34:29
%%Pages: (atend)
%%BoundingBox:    61     5   907   587
%%LanguageLevel: 3
%%EndComments
%%BeginProlog
%%BeginResource: procset (Apache XML Graphics Std ProcSet) 1.2 0
%%Version: 1.2 0
%%Copyright: (Copyright 2001-2003,2010 The Apache Software Foundation. License terms: http://www.apache.org/licenses/LICENSE-2.0)
/bd{bind def}bind def
/ld{load def}bd
/GR/grestore ld
/GS/gsave ld
/RM/rmoveto ld
/C/curveto ld
/t/show ld
/L/lineto ld
/ML/setmiterlimit ld
/CT/concat ld
/f/fill ld
/N/newpath ld
/S/stroke ld
/CC/setcmykcolor ld
/A/ashow ld
/cp/closepath ld
/RC/setrgbcolor ld
/LJ/setlinejoin ld
/GC/setgray ld
/LW/setlinewidth ld
/M/moveto ld
/re {4 2 roll M
1 index 0 rlineto
0 exch rlineto
neg 0 rlineto
cp } bd
/_ctm matrix def
/_tm matrix def
/BT { _ctm currentmatrix pop matrix _tm copy pop 0 0 moveto } bd
/ET { _ctm setmatrix } bd
/iTm { _ctm setmatrix _tm concat } bd
/Tm { _tm astore pop iTm 0 0 moveto } bd
/ux 0.0 def
/uy 0.0 def
/F {
  /Tp exch def
  /Tf exch def
  Tf findfont Tp scalefont setfont
  /cf Tf def  /cs Tp def
} bd
/ULS {currentpoint /uy exch def /ux exch def} bd
/ULE {
  /Tcx currentpoint pop def
  gsave
  newpath
  cf findfont cs scalefont dup
  /FontMatrix get 0 get /Ts exch def /FontInfo get dup
  /UnderlinePosition get Ts mul /To exch def
  /UnderlineThickness get Ts mul /Tt exch def
  ux uy To add moveto  Tcx uy To add lineto
  Tt setlinewidth stroke
  grestore
} bd
/OLE {
  /Tcx currentpoint pop def
  gsave
  newpath
  cf findfont cs scalefont dup
  /FontMatrix get 0 get /Ts exch def /FontInfo get dup
  /UnderlinePosition get Ts mul /To exch def
  /UnderlineThickness get Ts mul /Tt exch def
  ux uy To add cs add moveto Tcx uy To add cs add lineto
  Tt setlinewidth stroke
  grestore
} bd
/SOE {
  /Tcx currentpoint pop def
  gsave
  newpath
  cf findfont cs scalefont dup
  /FontMatrix get 0 get /Ts exch def /FontInfo get dup
  /UnderlinePosition get Ts mul /To exch def
  /UnderlineThickness get Ts mul /Tt exch def
  ux uy To add cs 10 mul 26 idiv add moveto Tcx uy To add cs 10 mul 26 idiv add lineto
  Tt setlinewidth stroke
  grestore
} bd
/QT {
/Y22 exch store
/X22 exch store
/Y21 exch store
/X21 exch store
currentpoint
/Y21 load 2 mul add 3 div exch
/X21 load 2 mul add 3 div exch
/X21 load 2 mul /X22 load add 3 div
/Y21 load 2 mul /Y22 load add 3 div
/X22 load /Y22 load curveto
} bd
/SSPD {
dup length /d exch dict def
{
/v exch def
/k exch def
currentpagedevice k known {
/cpdv currentpagedevice k get def
v cpdv ne {
/upd false def
/nullv v type /nulltype eq def
/nullcpdv cpdv type /nulltype eq def
nullv nullcpdv or
{
/upd true def
} {
/sametype v type cpdv type eq def
sametype {
v type /arraytype eq {
/vlen v length def
/cpdvlen cpdv length def
vlen cpdvlen eq {
0 1 vlen 1 sub {
/i exch def
/obj v i get def
/cpdobj cpdv i get def
obj cpdobj ne {
/upd true def
exit
} if
} for
} {
/upd true def
} ifelse
} {
v type /dicttype eq {
v {
/dv exch def
/dk exch def
/cpddv cpdv dk get def
dv cpddv ne {
/upd true def
exit
} if
} forall
} {
/upd true def
} ifelse
} ifelse
} if
} ifelse
upd true eq {
d k v put
} if
} if
} if
} forall
d length 0 gt {
d setpagedevice
} if
} bd
/RE { % /NewFontName [NewEncodingArray] /FontName RE -
  findfont dup length dict begin
  {
    1 index /FID ne
    {def} {pop pop} ifelse
  } forall
  /Encoding exch def
  /FontName 1 index def
  currentdict definefont pop
  end
} bind def
%%EndResource
%%BeginResource: procset (Apache XML Graphics EPS ProcSet) 1.0 0
%%Version: 1.0 0
%%Copyright: (Copyright 2002-2003 The Apache Software Foundation. License terms: http://www.apache.org/licenses/LICENSE-2.0)
/BeginEPSF { %def
/b4_Inc_state save def         % Save state for cleanup
/dict_count countdictstack def % Count objects on dict stack
/op_count count 1 sub def      % Count objects on operand stack
userdict begin                 % Push userdict on dict stack
/showpage { } def              % Redefine showpage, { } = null proc
0 setgray 0 setlinecap         % Prepare graphics state
1 setlinewidth 0 setlinejoin
10 setmiterlimit [ ] 0 setdash newpath
/languagelevel where           % If level not equal to 1 then
{pop languagelevel             % set strokeadjust and
1 ne                           % overprint to their defaults.
{false setstrokeadjust false setoverprint
} if
} if
} bd
/EndEPSF { %def
count op_count sub {pop} repeat            % Clean up stacks
countdictstack dict_count sub {end} repeat
b4_Inc_state restore
} bd
%%EndResource
%FOPBeginFontDict
%%IncludeResource: font Courier-Oblique
%%IncludeResource: font Courier-BoldOblique
%%IncludeResource: font Courier-Bold
%%IncludeResource: font ZapfDingbats
%%IncludeResource: font Symbol
%%IncludeResource: font Helvetica
%%IncludeResource: font Helvetica-Oblique
%%IncludeResource: font Helvetica-Bold
%%IncludeResource: font Helvetica-BoldOblique
%%IncludeResource: font Times-Roman
%%IncludeResource: font Times-Italic
%%IncludeResource: font Times-Bold
%%IncludeResource: font Times-BoldItalic
%%IncludeResource: font Courier
%FOPEndFontDict
%%BeginResource: encoding WinAnsiEncoding
/WinAnsiEncoding [
/.notdef /.notdef /.notdef /.notdef /.notdef
/.notdef /.notdef /.notdef /.notdef /.notdef
/.notdef /.notdef /.notdef /.notdef /.notdef
/.notdef /.notdef /.notdef /.notdef /.notdef
/.notdef /.notdef /.notdef /.notdef /.notdef
/.notdef /.notdef /.notdef /.notdef /.notdef
/.notdef /.notdef /space /exclam /quotedbl
/numbersign /dollar /percent /ampersand /quotesingle
/parenleft /parenright /asterisk /plus /comma
/hyphen /period /slash /zero /one
/two /three /four /five /six
/seven /eight /nine /colon /semicolon
/less /equal /greater /question /at
/A /B /C /D /E
/F /G /H /I /J
/K /L /M /N /O
/P /Q /R /S /T
/U /V /W /X /Y
/Z /bracketleft /backslash /bracketright /asciicircum
/underscore /quoteleft /a /b /c
/d /e /f /g /h
/i /j /k /l /m
/n /o /p /q /r
/s /t /u /v /w
/x /y /z /braceleft /bar
/braceright /asciitilde /bullet /Euro /bullet
/quotesinglbase /florin /quotedblbase /ellipsis /dagger
/daggerdbl /circumflex /perthousand /Scaron /guilsinglleft
/OE /bullet /Zcaron /bullet /bullet
/quoteleft /quoteright /quotedblleft /quotedblright /bullet
/endash /emdash /asciitilde /trademark /scaron
/guilsinglright /oe /bullet /zcaron /Ydieresis
/space /exclamdown /cent /sterling /currency
/yen /brokenbar /section /dieresis /copyright
/ordfeminine /guillemotleft /logicalnot /sfthyphen /registered
/macron /degree /plusminus /twosuperior /threesuperior
/acute /mu /paragraph /middot /cedilla
/onesuperior /ordmasculine /guillemotright /onequarter /onehalf
/threequarters /questiondown /Agrave /Aacute /Acircumflex
/Atilde /Adieresis /Aring /AE /Ccedilla
/Egrave /Eacute /Ecircumflex /Edieresis /Igrave
/Iacute /Icircumflex /Idieresis /Eth /Ntilde
/Ograve /Oacute /Ocircumflex /Otilde /Odieresis
/multiply /Oslash /Ugrave /Uacute /Ucircumflex
/Udieresis /Yacute /Thorn /germandbls /agrave
/aacute /acircumflex /atilde /adieresis /aring
/ae /ccedilla /egrave /eacute /ecircumflex
/edieresis /igrave /iacute /icircumflex /idieresis
/eth /ntilde /ograve /oacute /ocircumflex
/otilde /odieresis /divide /oslash /ugrave
/uacute /ucircumflex /udieresis /yacute /thorn
/ydieresis
] def
%%EndResource
%FOPBeginFontReencode
/Courier-Oblique findfont
dup length dict begin
  {1 index /FID ne {def} {pop pop} ifelse} forall
  /Encoding WinAnsiEncoding def
  currentdict
end
/Courier-Oblique exch definefont pop
/Courier-BoldOblique findfont
dup length dict begin
  {1 index /FID ne {def} {pop pop} ifelse} forall
  /Encoding WinAnsiEncoding def
  currentdict
end
/Courier-BoldOblique exch definefont pop
/Courier-Bold findfont
dup length dict begin
  {1 index /FID ne {def} {pop pop} ifelse} forall
  /Encoding WinAnsiEncoding def
  currentdict
end
/Courier-Bold exch definefont pop
/Helvetica findfont
dup length dict begin
  {1 index /FID ne {def} {pop pop} ifelse} forall
  /Encoding WinAnsiEncoding def
  currentdict
end
/Helvetica exch definefont pop
/Helvetica-Oblique findfont
dup length dict begin
  {1 index /FID ne {def} {pop pop} ifelse} forall
  /Encoding WinAnsiEncoding def
  currentdict
end
/Helvetica-Oblique exch definefont pop
/Helvetica-Bold findfont
dup length dict begin
  {1 index /FID ne {def} {pop pop} ifelse} forall
  /Encoding WinAnsiEncoding def
  currentdict
end
/Helvetica-Bold exch definefont pop
/Helvetica-BoldOblique findfont
dup length dict begin
  {1 index /FID ne {def} {pop pop} ifelse} forall
  /Encoding WinAnsiEncoding def
  currentdict
end
/Helvetica-BoldOblique exch definefont pop
/Times-Roman findfont
dup length dict begin
  {1 index /FID ne {def} {pop pop} ifelse} forall
  /Encoding WinAnsiEncoding def
  currentdict
end
/Times-Roman exch definefont pop
/Times-Italic findfont
dup length dict begin
  {1 index /FID ne {def} {pop pop} ifelse} forall
  /Encoding WinAnsiEncoding def
  currentdict
end
/Times-Italic exch definefont pop
/Times-Bold findfont
dup length dict begin
  {1 index /FID ne {def} {pop pop} ifelse} forall
  /Encoding WinAnsiEncoding def
  currentdict
end
/Times-Bold exch definefont pop
/Times-BoldItalic findfont
dup length dict begin
  {1 index /FID ne {def} {pop pop} ifelse} forall
  /Encoding WinAnsiEncoding def
  currentdict
end
/Times-BoldItalic exch definefont pop
/Courier findfont
dup length dict begin
  {1 index /FID ne {def} {pop pop} ifelse} forall
  /Encoding WinAnsiEncoding def
  currentdict
end
/Courier exch definefont pop
%FOPEndFontReencode
%%EndProlog
%%Page: 1 1
%%PageBoundingBox: 0 0 1000 600
%%BeginPageSetup
[1 0 0 -1 0 600] CT
%%EndPageSetup
GS
1 GC
N
0 0 1000 600 re
f
GR
GS
1 GC
N
0 0 1000 600 re
f
GR
GS
1 GC
N
130 531 M
905 531 L
905 45 L
130 45 L
cp
f
GR
GS
0.873 GC
1 LJ
0.5 LW
N
130 531 M
130 45 L
S
GR
GS
0.873 GC
1 LJ
0.5 LW
N
285 531 M
285 45 L
S
GR
GS
0.873 GC
1 LJ
0.5 LW
N
440 531 M
440 45 L
S
GR
GS
0.873 GC
1 LJ
0.5 LW
N
595 531 M
595 45 L
S
GR
GS
0.873 GC
1 LJ
0.5 LW
N
750 531 M
750 45 L
S
GR
GS
0.873 GC
1 LJ
0.5 LW
N
905 531 M
905 45 L
S
GR
GS
0.873 GC
1 LJ
0.5 LW
N
905 531 M
130 531 L
S
GR
GS
0.873 GC
1 LJ
0.5 LW
N
905 433.8 M
130 433.8 L
S
GR
GS
0.873 GC
1 LJ
0.5 LW
N
905 336.6 M
130 336.6 L
S
GR
GS
0.873 GC
1 LJ
0.5 LW
N
905 239.4 M
130 239.4 L
S
GR
GS
0.873 GC
1 LJ
0.5 LW
N
905 142.2 M
130 142.2 L
S
GR
GS
0.873 GC
1 LJ
0.5 LW
N
905 45 M
130 45 L
S
GR
GS
0.149 GC
2 setlinecap
1 LJ
0.5 LW
N
130 531 M
905 531 L
S
GR
GS
0.149 GC
2 setlinecap
1 LJ
0.5 LW
N
130 45 M
905 45 L
S
GR
GS
0.149 GC
2 setlinecap
1 LJ
0.5 LW
N
130 531 M
130 523.25 L
S
GR
GS
0.149 GC
2 setlinecap
1 LJ
0.5 LW
N
285 531 M
285 523.25 L
S
GR
GS
0.149 GC
2 setlinecap
1 LJ
0.5 LW
N
440 531 M
440 523.25 L
S
GR
GS
0.149 GC
2 setlinecap
1 LJ
0.5 LW
N
595 531 M
595 523.25 L
S
GR
GS
0.149 GC
2 setlinecap
1 LJ
0.5 LW
N
750 531 M
750 523.25 L
S
GR
GS
0.149 GC
2 setlinecap
1 LJ
0.5 LW
N
905 531 M
905 523.25 L
S
GR
GS
0.149 GC
2 setlinecap
1 LJ
0.5 LW
N
130 45 M
130 52.75 L
S
GR
GS
0.149 GC
2 setlinecap
1 LJ
0.5 LW
N
285 45 M
285 52.75 L
S
GR
GS
0.149 GC
2 setlinecap
1 LJ
0.5 LW
N
440 45 M
440 52.75 L
S
GR
GS
0.149 GC
2 setlinecap
1 LJ
0.5 LW
N
595 45 M
595 52.75 L
S
GR
GS
0.149 GC
2 setlinecap
1 LJ
0.5 LW
N
750 45 M
750 52.75 L
S
GR
GS
0.149 GC
2 setlinecap
1 LJ
0.5 LW
N
905 45 M
905 52.75 L
S
GR
GS
[1 0 0 1 130 537.79999] CT
0.149 GC
/Helvetica 24 F
GS
[1 0 0 1 0 0] CT
-7 23 moveto 
1 -1 scale
(0) t 
GR
GR
GS
[1 0 0 1 285 537.79999] CT
0.149 GC
/Helvetica 24 F
GS
[1 0 0 1 0 0] CT
-17 23 moveto 
1 -1 scale
(0.2) t 
GR
GR
GS
[1 0 0 1 440 537.79999] CT
0.149 GC
/Helvetica 24 F
GS
[1 0 0 1 0 0] CT
-17 23 moveto 
1 -1 scale
(0.4) t 
GR
GR
GS
[1 0 0 1 595 537.79999] CT
0.149 GC
/Helvetica 24 F
GS
[1 0 0 1 0 0] CT
-17 23 moveto 
1 -1 scale
(0.6) t 
GR
GR
GS
[1 0 0 1 750 537.79999] CT
0.149 GC
/Helvetica 24 F
GS
[1 0 0 1 0 0] CT
-17 23 moveto 
1 -1 scale
(0.8) t 
GR
GR
GS
[1 0 0 1 905 537.79999] CT
0.149 GC
/Helvetica 24 F
GS
[1 0 0 1 0 0] CT
-7 23 moveto 
1 -1 scale
(1) t 
GR
GR
GS
[1 0 0 1 517.50037 567.79999] CT
0.149 GC
/Helvetica 26.4 F
GS
[1 0 0 1 0 0] CT
-103.5 26 moveto 
1 -1 scale
(False Match Rate) t 
GR
GR
GS
0.149 GC
2 setlinecap
1 LJ
0.5 LW
N
130 531 M
130 45 L
S
GR
GS
0.149 GC
2 setlinecap
1 LJ
0.5 LW
N
905 531 M
905 45 L
S
GR
GS
0.149 GC
2 setlinecap
1 LJ
0.5 LW
N
130 531 M
137.75 531 L
S
GR
GS
0.149 GC
2 setlinecap
1 LJ
0.5 LW
N
130 433.8 M
137.75 433.8 L
S
GR
GS
0.149 GC
2 setlinecap
1 LJ
0.5 LW
N
130 336.6 M
137.75 336.6 L
S
GR
GS
0.149 GC
2 setlinecap
1 LJ
0.5 LW
N
130 239.4 M
137.75 239.4 L
S
GR
GS
0.149 GC
2 setlinecap
1 LJ
0.5 LW
N
130 142.2 M
137.75 142.2 L
S
GR
GS
0.149 GC
2 setlinecap
1 LJ
0.5 LW
N
130 45 M
137.75 45 L
S
GR
GS
0.149 GC
2 setlinecap
1 LJ
0.5 LW
N
905 531 M
897.25 531 L
S
GR
GS
0.149 GC
2 setlinecap
1 LJ
0.5 LW
N
905 433.8 M
897.25 433.8 L
S
GR
GS
0.149 GC
2 setlinecap
1 LJ
0.5 LW
N
905 336.6 M
897.25 336.6 L
S
GR
GS
0.149 GC
2 setlinecap
1 LJ
0.5 LW
N
905 239.4 M
897.25 239.4 L
S
GR
GS
0.149 GC
2 setlinecap
1 LJ
0.5 LW
N
905 142.2 M
897.25 142.2 L
S
GR
GS
0.149 GC
2 setlinecap
1 LJ
0.5 LW
N
905 45 M
897.25 45 L
S
GR
GS
[1 0 0 1 123.2 531] CT
0.149 GC
/Helvetica 24 F
GS
[1 0 0 1 0 0] CT
-14 8.5 moveto 
1 -1 scale
(0) t 
GR
GR
GS
[1 0 0 1 123.2 433.79999] CT
0.149 GC
/Helvetica 24 F
GS
[1 0 0 1 0 0] CT
-34 8.5 moveto 
1 -1 scale
(0.2) t 
GR
GR
GS
[1 0 0 1 123.2 336.60001] CT
0.149 GC
/Helvetica 24 F
GS
[1 0 0 1 0 0] CT
-34 8.5 moveto 
1 -1 scale
(0.4) t 
GR
GR
GS
[1 0 0 1 123.2 239.39999] CT
0.149 GC
/Helvetica 24 F
GS
[1 0 0 1 0 0] CT
-34 8.5 moveto 
1 -1 scale
(0.6) t 
GR
GR
GS
[1 0 0 1 123.2 142.2] CT
0.149 GC
/Helvetica 24 F
GS
[1 0 0 1 0 0] CT
-34 8.5 moveto 
1 -1 scale
(0.8) t 
GR
GR
GS
[1 0 0 1 123.2 45] CT
0.149 GC
/Helvetica 24 F
GS
[1 0 0 1 0 0] CT
-14 8.5 moveto 
1 -1 scale
(1) t 
GR
GR
GS
[0 -1 1 0 86.2 287.99976] CT
0.149 GC
/Helvetica 26.4 F
GS
[1 0 0 1 0 0] CT
-153 -6 moveto 
1 -1 scale
(1 - False Non-Match Rate) t 
GR
GR
GS
[1 0 0 1 517.50049 38.40002] CT
/Helvetica-Bold 26.4 F
GS
[1 0 0 1 0 0] CT
-279.5 -6 moveto 
1 -1 scale
(Data acquired less than 24 hours after death) t 
GR
GR
GS
0 0 1 RC
1 LJ
2 LW
N
130 530.172 M
130 530.172 L
130 530.172 L
130 530.172 L
130 530.172 L
130 530.172 L
130 530.172 L
130 530.172 L
130 530.172 L
130 530.172 L
130 530.172 L
130 530.172 L
130 530.172 L
130 530.172 L
130 530.172 L
130 530.172 L
130 530.172 L
130 530.172 L
130 530.172 L
130 530.172 L
130 530.172 L
130 530.172 L
130 530.172 L
130 530.172 L
130 530.172 L
130 530.172 L
130 530.172 L
130 530.172 L
130 530.172 L
130 530.172 L
130 530.172 L
130 530.172 L
130 530.172 L
130 530.172 L
130 530.172 L
130 530.172 L
130 530.172 L
130 530.172 L
130 530.172 L
130 530.172 L
130 530.172 L
130 530.172 L
130 530.172 L
130 530.172 L
130 530.172 L
130 530.172 L
130 530.172 L
130 530.172 L
130 530.172 L
130 530.172 L
130 530.172 L
130 530.172 L
130 530.172 L
130 530.172 L
130 530.172 L
130 530.172 L
130 530.172 L
130 530.172 L
130 530.172 L
130 530.172 L
130 530.172 L
130 530.172 L
130 530.172 L
130 530.172 L
130 530.172 L
130 530.172 L
130 530.172 L
130 530.172 L
130 530.172 L
130 530.172 L
130 530.172 L
130 530.172 L
130 530.172 L
130 530.172 L
130 530.172 L
130 530.172 L
130 530.172 L
130 530.172 L
130 530.172 L
130 530.172 L
130 530.172 L
130 530.172 L
130 530.172 L
130 530.172 L
130 530.172 L
130 530.172 L
130 530.172 L
130 530.172 L
130 530.172 L
130 530.172 L
130 530.172 L
130 530.172 L
130 530.172 L
130 530.172 L
130 530.172 L
130 530.172 L
130 530.172 L
130 530.172 L
130 530.172 L
130 530.172 L
130 530.172 L
130 530.172 L
130 530.172 L
130 530.172 L
130 530.172 L
130 530.172 L
130 530.172 L
130 530.172 L
130 530.172 L
130 530.172 L
130 530.172 L
130 530.172 L
130 530.172 L
130 530.172 L
130 530.172 L
130 530.172 L
130 530.172 L
130 530.172 L
130 530.172 L
130 530.172 L
130 530.172 L
130 530.172 L
130 530.172 L
130 530.172 L
130 530.172 L
130 530.172 L
130 530.172 L
130 530.172 L
130 530.172 L
130 530.172 L
130 530.172 L
130 530.172 L
130 530.172 L
130 530.172 L
130 530.172 L
130 530.172 L
130 530.172 L
130 530.172 L
130 530.172 L
130 530.172 L
130 530.172 L
130 530.172 L
130 530.172 L
130 530.172 L
130 530.172 L
130 530.172 L
130 530.172 L
130 530.172 L
130 530.172 L
130 530.172 L
130 530.172 L
130 530.172 L
130 530.172 L
130 530.172 L
130 530.172 L
130 530.172 L
130 530.172 L
130 530.172 L
130 530.172 L
130 530.172 L
130 530.172 L
130 530.172 L
130 530.172 L
130 530.172 L
130 530.172 L
130 530.172 L
130 530.172 L
130 530.172 L
130 530.172 L
130 530.172 L
130 530.172 L
130 530.172 L
130 530.172 L
130 530.172 L
130 530.172 L
130 530.172 L
130 530.172 L
130 530.172 L
130 530.172 L
130 530.172 L
130 530.172 L
130 530.172 L
130 530.172 L
130 530.172 L
130 530.172 L
130 530.172 L
130 530.172 L
130 530.172 L
130 530.172 L
130 530.172 L
130 530.172 L
130 530.172 L
130 530.172 L
130 530.172 L
130 530.172 L
130 530.172 L
130 530.172 L
130 529.344 L
130 528.516 L
130 528.516 L
130 528.516 L
130 528.516 L
130 528.516 L
130 526.86 L
130 526.86 L
130 526.032 L
130 525.204 L
130 525.204 L
130 525.204 L
130 525.204 L
130 525.204 L
130 525.204 L
130 525.204 L
130 523.549 L
130 522.721 L
130 522.721 L
130 521.893 L
130 521.893 L
130 521.893 L
130 521.893 L
130 521.893 L
130 521.065 L
130 519.409 L
130 517.753 L
130 517.753 L
130 517.753 L
130 517.753 L
130 516.925 L
130 515.269 L
130 514.441 L
130 513.613 L
130 512.785 L
130 512.785 L
130 512.785 L
130 512.785 L
130 512.785 L
130 511.957 L
130 511.129 L
130 510.302 L
130 510.302 L
130 510.302 L
130 508.646 L
130 506.99 L
130 506.162 L
130 504.506 L
130 503.678 L
130 502.85 L
130 498.71 L
130 495.399 L
130 492.915 L
130 490.431 L
130 487.947 L
130 487.119 L
130 487.119 L
130 486.291 L
130 485.463 L
130 485.463 L
130 484.635 L
130 484.635 L
130 482.98 L
130 480.496 L
130 479.668 L
130 478.84 L
130 478.012 L
130 474.7 L
130 473.044 L
130 472.216 L
130 470.56 L
130 470.56 L
130 468.905 L
130 467.249 L
130 465.593 L
130 465.593 L
130 465.593 L
130 464.765 L
130 464.765 L
130 463.937 L
130 463.109 L
130 462.281 L
130 461.453 L
130 460.625 L
130 458.969 L
130 454.83 L
130 453.174 L
130 452.346 L
130 451.518 L
130 449.034 L
130 448.206 L
130 447.378 L
130 446.55 L
130 446.55 L
130 446.55 L
130 445.722 L
130 444.894 L
130 443.238 L
130 443.238 L
130 443.238 L
130 440.755 L
130 440.755 L
130 440.755 L
130 439.099 L
130 438.271 L
130 437.443 L
130 435.787 L
130 434.959 L
130 434.131 L
130 429.991 L
130 429.991 L
130 429.991 L
130 429.164 L
130 428.336 L
130 425.024 L
130 423.368 L
130 421.712 L
130 420.056 L
130 418.4 L
130 416.744 L
130 415.917 L
130 411.777 L
130 409.293 L
130 409.293 L
130 407.637 L
130 406.809 L
130 406.809 L
130 405.153 L
130 405.153 L
130 404.325 L
130 404.325 L
130 401.842 L
130 398.53 L
130 398.53 L
130 396.874 L
130 395.218 L
130 393.562 L
130 391.906 L
130 391.078 L
130 389.422 L
130 387.767 L
130 383.627 L
130 381.143 L
130 379.487 L
130 378.659 L
130 377.831 L
130 377.003 L
130 375.348 L
130 372.864 L
130 368.724 L
130 364.584 L
130 363.756 L
130 363.756 L
130 362.928 L
130 361.273 L
130 360.445 L
130 357.961 L
130 354.649 L
130 353.821 L
130 351.337 L
130 349.681 L
130 348.853 L
130 348.026 L
130 346.37 L
130 344.714 L
130 344.714 L
130 343.886 L
130 343.058 L
130 342.23 L
130 342.23 L
130 341.402 L
130 339.746 L
130 338.918 L
130 338.09 L
130 335.606 L
130 335.606 L
130 335.606 L
130 334.779 L
130 332.295 L
130 331.467 L
130 328.983 L
130 328.155 L
130 324.843 L
130 323.187 L
130 322.359 L
130 322.359 L
130 321.532 L
130 319.876 L
130 319.876 L
130 316.564 L
130 315.736 L
130 314.08 L
130 313.252 L
130 310.768 L
130 305.801 L
130 304.973 L
130 304.145 L
130 301.661 L
130 300.833 L
130 300.005 L
130 300.005 L
130 299.177 L
130 298.349 L
130 298.349 L
130 296.693 L
130 295.037 L
130 295.037 L
130 294.21 L
130 293.382 L
130 290.898 L
130 288.414 L
130 286.758 L
130 285.93 L
130 284.274 L
130 284.274 L
130 282.618 L
130 281.79 L
130 280.135 L
130 280.135 L
130 276.823 L
130 275.995 L
130 275.995 L
130 275.995 L
130 274.339 L
130 273.511 L
130 271.855 L
130 271.027 L
130 270.199 L
130 270.199 L
130 268.543 L
130 267.715 L
130 266.06 L
130 265.232 L
130 265.232 L
130 264.404 L
130 263.576 L
130 262.748 L
130 262.748 L
130 261.92 L
130 260.264 L
130 257.78 L
130 257.78 L
130 255.296 L
130 255.296 L
130 253.641 L
130 253.641 L
130 251.985 L
130 251.985 L
130 251.985 L
130 251.157 L
130 250.329 L
130 250.329 L
130 249.501 L
130 247.845 L
130 246.189 L
130 242.877 L
130 242.877 L
130 242.049 L
130 240.394 L
130 239.566 L
130 239.566 L
130 237.082 L
130 237.082 L
130 236.254 L
130 236.254 L
130 235.426 L
130 235.426 L
130 235.426 L
130 234.598 L
130 234.598 L
130 233.77 L
130 233.77 L
130 233.77 L
130 233.77 L
130 233.77 L
130 233.77 L
130 233.77 L
130 233.77 L
130 232.942 L
130 231.286 L
130 230.458 L
130 229.63 L
130 229.63 L
130 228.802 L
130 228.802 L
130 227.974 L
130 227.146 L
130 227.146 L
130 227.146 L
130 227.146 L
130 227.146 L
130 225.491 L
130 223.835 L
130 223.007 L
130 222.179 L
130 221.351 L
130 221.351 L
130 221.351 L
130 221.351 L
130 220.523 L
130 218.867 L
130 218.867 L
130 218.867 L
130 218.867 L
130 218.867 L
130 218.039 L
130 218.039 L
130 218.039 L
130 218.039 L
130 215.555 L
130 214.727 L
130 214.727 L
130 214.727 L
130 213.899 L
130 213.072 L
130 212.244 L
130 212.244 L
130 210.588 L
130 210.588 L
130 209.76 L
130 209.76 L
130 208.104 L
130 208.104 L
130 208.104 L
130 208.104 L
130 207.276 L
130 207.276 L
130 206.448 L
130 206.448 L
130 206.448 L
130 206.448 L
130 206.448 L
130 206.448 L
130 205.62 L
130 205.62 L
130 205.62 L
130 204.792 L
130 204.792 L
130.013 204.792 L
130.013 203.964 L
130.013 203.964 L
130.013 203.136 L
130.013 203.136 L
130.013 203.136 L
130.013 203.136 L
130.013 202.308 L
130.013 201.48 L
130.013 201.48 L
130.013 199.825 L
130.013 198.997 L
130.013 198.169 L
130.013 198.169 L
130.013 198.169 L
130.013 198.169 L
130.013 198.169 L
130.013 197.341 L
130.013 197.341 L
130.013 197.341 L
130.013 197.341 L
130.013 197.341 L
130.013 197.341 L
130.013 196.513 L
130.013 196.513 L
130.013 195.685 L
130.013 193.201 L
130.025 192.373 L
130.038 192.373 L
130.038 191.545 L
130.038 190.717 L
130.051 189.889 L
130.051 189.889 L
130.064 189.889 L
130.076 189.061 L
130.076 188.233 L
130.076 187.405 L
130.076 185.75 L
130.076 185.75 L
130.076 184.922 L
130.076 184.922 L
130.076 184.922 L
130.089 184.922 L
130.089 184.922 L
130.102 184.922 L
130.127 184.922 L
130.127 184.094 L
130.14 184.094 L
130.14 183.266 L
130.14 183.266 L
130.14 182.438 L
130.14 182.438 L
130.14 181.61 L
130.14 180.782 L
130.14 180.782 L
130.153 180.782 L
130.178 179.954 L
130.191 179.954 L
130.217 179.954 L
130.242 179.954 L
130.255 179.126 L
130.255 178.298 L
130.28 177.47 L
130.293 177.47 L
130.306 177.47 L
130.318 177.47 L
130.369 177.47 L
130.395 176.642 L
130.408 174.986 L
130.459 174.986 L
130.51 174.986 L
130.535 174.158 L
130.548 173.331 L
130.586 173.331 L
130.611 173.331 L
130.624 173.331 L
130.662 173.331 L
130.688 173.331 L
130.777 173.331 L
130.803 173.331 L
130.892 173.331 L
130.955 173.331 L
131.032 173.331 L
131.197 173.331 L
131.287 172.503 L
131.338 171.675 L
131.414 171.675 L
131.529 171.675 L
131.631 171.675 L
131.771 171.675 L
131.962 171.675 L
132.064 170.847 L
132.153 169.191 L
132.306 167.535 L
132.471 166.707 L
132.599 165.879 L
132.688 165.879 L
132.866 165.051 L
133.006 165.051 L
133.172 163.395 L
133.465 163.395 L
133.656 162.567 L
133.924 162.567 L
134.166 162.567 L
134.408 160.911 L
134.586 160.083 L
134.943 159.256 L
135.172 159.256 L
135.49 159.256 L
135.834 159.256 L
136.204 158.428 L
136.675 158.428 L
137.045 158.428 L
137.516 156.772 L
137.873 156.772 L
138.344 156.772 L
138.624 155.944 L
138.981 155.944 L
139.388 155.944 L
139.809 155.944 L
140.548 155.116 L
141.095 154.288 L
141.541 154.288 L
142.166 154.288 L
142.751 152.632 L
143.554 152.632 L
144.318 152.632 L
145.083 152.632 L
145.936 151.804 L
146.892 150.976 L
147.63 150.976 L
148.535 150.976 L
149.337 150.976 L
150.458 150.148 L
151.809 150.148 L
152.993 150.148 L
154.165 148.492 L
155.325 148.492 L
156.904 148.492 L
158.089 147.664 L
159.732 146.836 L
160.981 146.836 L
162.458 146.836 L
164.114 146.836 L
165.516 146.836 L
167.21 146.836 L
169.057 146.836 L
171.121 146.009 L
173.184 146.009 L
175.401 146.009 L
177.541 145.181 L
179.707 145.181 L
182.063 145.181 L
184.56 145.181 L
186.649 144.353 L
189.286 143.525 L
192.318 143.525 L
195.044 142.697 L
197.808 141.869 L
200.853 140.213 L
203.961 140.213 L
207.159 140.213 L
210.267 140.213 L
213.897 140.213 L
217.197 139.385 L
220.636 139.385 L
224.534 139.385 L
228.037 139.385 L
232.203 139.385 L
236.165 139.385 L
240.776 138.557 L
244.814 136.901 L
248.98 136.901 L
253.031 136.073 L
257.566 136.073 L
262.483 136.073 L
267.375 136.073 L
272.266 136.073 L
277.973 136.073 L
282.941 136.073 L
288.661 135.245 L
293.897 135.245 L
299.374 134.417 L
305.018 134.417 L
310.253 132.762 L
316.279 132.762 L
321.973 131.934 L
327.616 131.934 L
334.279 131.106 L
340.011 130.278 L
346.253 129.45 L
352.839 129.45 L
359.82 129.45 L
366.253 129.45 L
372.482 126.966 L
379.259 125.31 L
385.998 125.31 L
393.195 123.654 L
400.558 123.654 L
407.552 121.998 L
413.998 120.342 L
421.756 120.342 L
428.201 120.342 L
436.24 118.687 L
443.577 117.859 L
450.953 117.031 L
458.685 116.203 L
466.112 115.375 L
473.398 115.375 L
480.672 112.891 L
487.806 111.235 L
496.048 111.235 L
503.551 111.235 L
509.627 111.235 L
517.411 111.235 L
524.544 111.235 L
531.181 111.235 L
538.544 110.407 L
545.589 110.407 L
552.557 108.751 L
559.869 108.751 L
566.633 108.751 L
573.525 107.923 L
579.869 107.923 L
586.837 107.095 L
593.945 106.267 L
600.684 106.267 L
607.448 105.44 L
613.372 105.44 L
619.945 105.44 L
625.843 105.44 L
632.06 105.44 L
638.009 105.44 L
643.257 105.44 L
648.62 104.612 L
653.843 104.612 L
659.206 103.784 L
664.072 102.956 L
669.371 102.956 L
674.785 102.128 L
679.868 101.3 L
684.237 101.3 L
688.874 101.3 L
693.04 100.472 L
697.256 100.472 L
701.18 100.472 L
705.333 100.472 L
709.448 100.472 L
713.167 100.472 L
716.81 100.472 L
720.861 100.472 L
724.747 99.644 L
728.008 98.816 L
731.218 98.816 L
734.53 98.816 L
738.071 98.816 L
741.18 98.816 L
744.263 98.816 L
747.447 98.816 L
750.199 97.988 L
752.912 97.988 L
755.256 97.988 L
757.396 97.988 L
759.32 97.16 L
761.664 97.16 L
763.485 97.16 L
764.657 97.16 L
861.969 49.14 L
864.045 49.14 L
865.981 48.312 L
867.446 48.312 L
869.039 48.312 L
870.644 48.312 L
872.172 47.484 L
874.007 47.484 L
875.484 47.484 L
876.796 47.484 L
878.223 47.484 L
879.586 47.484 L
880.822 47.484 L
881.841 47.484 L
882.745 47.484 L
883.803 47.484 L
884.733 47.484 L
885.624 47.484 L
886.312 47.484 L
887.115 47.484 L
888.057 47.484 L
888.758 47.484 L
889.484 47.484 L
890.325 47.484 L
890.949 47.484 L
891.459 47.484 L
892.172 47.484 L
892.694 47.484 L
893.217 47.484 L
893.726 47.484 L
894.108 46.656 L
894.542 46.656 L
895.102 46.656 L
895.599 46.656 L
895.956 46.656 L
896.223 46.656 L
896.58 46.656 L
896.987 46.656 L
897.433 46.656 L
897.892 46.656 L
898.185 46.656 L
898.529 46.656 L
898.771 46.656 L
899.026 46.656 L
899.268 46.656 L
899.459 46.656 L
899.688 46.656 L
899.968 46.656 L
900.223 46.656 L
900.312 46.656 L
900.516 46.656 L
900.682 46.656 L
900.898 46.656 L
901.051 46.656 L
901.102 46.656 L
901.229 46.656 L
901.408 45.828 L
901.599 45.828 L
901.662 45.828 L
901.777 45.828 L
901.968 45.828 L
902.057 45.828 L
902.185 45.828 L
902.223 45.828 L
902.414 45.828 L
902.503 45.828 L
902.618 45.828 L
902.745 45.828 L
902.771 45.828 L
902.834 45.828 L
903.026 45.828 L
903.153 45 L
903.242 45 L
903.331 45 L
903.408 45 L
903.459 45 L
903.535 45 L
903.637 45 L
903.688 45 L
903.739 45 L
903.803 45 L
903.828 45 L
903.892 45 L
903.904 45 L
903.93 45 L
903.943 45 L
903.955 45 L
904.019 45 L
904.045 45 L
904.108 45 L
904.134 45 L
904.159 45 L
904.21 45 L
904.299 45 L
904.312 45 L
904.376 45 L
904.401 45 L
904.44 45 L
904.465 45 L
904.478 45 L
904.503 45 L
904.554 45 L
904.58 45 L
904.592 45 L
904.631 45 L
904.643 45 L
904.643 45 L
904.656 45 L
904.656 45 L
904.682 45 L
904.72 45 L
904.72 45 L
904.732 45 L
904.732 45 L
904.732 45 L
904.745 45 L
904.745 45 L
904.758 45 L
904.758 45 L
904.758 45 L
904.758 45 L
904.771 45 L
904.796 45 L
904.796 45 L
904.796 45 L
904.809 45 L
904.809 45 L
904.822 45 L
904.834 45 L
904.834 45 L
904.834 45 L
904.834 45 L
904.834 45 L
904.834 45 L
904.834 45 L
904.834 45 L
904.847 45 L
904.873 45 L
904.885 45 L
904.885 45 L
904.885 45 L
904.885 45 L
904.885 45 L
904.885 45 L
904.885 45 L
904.885 45 L
904.885 45 L
904.885 45 L
904.898 45 L
904.898 45 L
904.898 45 L
904.898 45 L
904.898 45 L
904.898 45 L
904.898 45 L
904.911 45 L
904.911 45 L
904.911 45 L
904.911 45 L
904.911 45 L
904.924 45 L
904.924 45 L
904.924 45 L
904.924 45 L
904.924 45 L
904.924 45 L
904.924 45 L
904.936 45 L
904.949 45 L
904.949 45 L
904.962 45 L
904.987 45 L
904.987 45 L
904.987 45 L
904.987 45 L
904.987 45 L
904.987 45 L
904.987 45 L
904.987 45 L
904.987 45 L
904.987 45 L
904.987 45 L
904.987 45 L
904.987 45 L
904.987 45 L
904.987 45 L
904.987 45 L
904.987 45 L
904.987 45 L
904.987 45 L
904.987 45 L
904.987 45 L
904.987 45 L
904.987 45 L
904.987 45 L
904.987 45 L
904.987 45 L
904.987 45 L
905 45 L
S
GR
GS
0 1 0 RC
1 LJ
2 LW
N
130 530.172 M
130 530.172 L
130 530.172 L
130 530.172 L
130 530.172 L
130 530.172 L
130 530.172 L
130 530.172 L
130 530.172 L
130 530.172 L
130 530.172 L
130 530.172 L
130 530.172 L
130 530.172 L
130 530.172 L
130 530.172 L
130 530.172 L
130 530.172 L
130 530.172 L
130 530.172 L
130 530.172 L
130 530.172 L
130 530.172 L
130 530.172 L
130 530.172 L
130 530.172 L
130 530.172 L
130 530.172 L
130 530.172 L
130 530.172 L
130 530.172 L
130 530.172 L
130 530.172 L
130 530.172 L
130 530.172 L
130 530.172 L
130 530.172 L
130 530.172 L
130 530.172 L
130 530.172 L
130 530.172 L
130 530.172 L
130 530.172 L
130 530.172 L
130 530.172 L
130 530.172 L
130 530.172 L
130 530.172 L
130 530.172 L
130 530.172 L
130 530.172 L
130 530.172 L
130 530.172 L
130 530.172 L
130 530.172 L
130 530.172 L
130 530.172 L
130 530.172 L
130 530.172 L
130 530.172 L
130 530.172 L
130 530.172 L
130 530.172 L
130 530.172 L
130 530.172 L
130 530.172 L
130 530.172 L
130 530.172 L
130 530.172 L
130 530.172 L
130 530.172 L
130 530.172 L
130 530.172 L
130 530.172 L
130 530.172 L
130 530.172 L
130 530.172 L
130 530.172 L
130 530.172 L
130 530.172 L
130 530.172 L
130 530.172 L
130 530.172 L
130 530.172 L
130 530.172 L
130 530.172 L
130 530.172 L
130 530.172 L
130 530.172 L
130 530.172 L
130 530.172 L
130 530.172 L
130 530.172 L
130 530.172 L
130 530.172 L
130 530.172 L
130 530.172 L
130 530.172 L
130 530.172 L
130 530.172 L
130 530.172 L
130 530.172 L
130 530.172 L
130 530.172 L
130 530.172 L
130 530.172 L
130 530.172 L
130 530.172 L
130 530.172 L
130 530.172 L
130 530.172 L
130 530.172 L
130 530.172 L
130 530.172 L
130 530.172 L
130 530.172 L
130 530.172 L
130 530.172 L
130 530.172 L
130 530.172 L
130 530.172 L
130 530.172 L
130 530.172 L
130 530.172 L
130 530.172 L
130 530.172 L
130 530.172 L
130 530.172 L
130 530.172 L
130 530.172 L
130 530.172 L
130 530.172 L
130 530.172 L
130 530.172 L
130 530.172 L
130 530.172 L
130 530.172 L
130 530.172 L
130 530.172 L
130 530.172 L
130 530.172 L
130 530.172 L
130 530.172 L
130 530.172 L
130 530.172 L
130 530.172 L
130 530.172 L
130 530.172 L
130 530.172 L
130 530.172 L
130 530.172 L
130 530.172 L
130 530.172 L
130 530.172 L
130 530.172 L
130 530.172 L
130 530.172 L
130 530.172 L
130 530.172 L
130 530.172 L
130 530.172 L
130 530.172 L
130 530.172 L
130 530.172 L
130 530.172 L
130 530.172 L
130 530.172 L
130 530.172 L
130 530.172 L
130 529.344 L
130 529.344 L
130 529.344 L
130 529.344 L
130 529.344 L
130 529.344 L
130 529.344 L
130 529.344 L
130 529.344 L
130 529.344 L
130 529.344 L
130 529.344 L
130 529.344 L
130 529.344 L
130 529.344 L
130 529.344 L
130 529.344 L
130 529.344 L
130 529.344 L
130 529.344 L
130 529.344 L
130 528.516 L
130 528.516 L
130 528.516 L
130 528.516 L
130 526.86 L
130 526.86 L
130 526.86 L
130 526.86 L
130 526.86 L
130 526.86 L
130 526.86 L
130 526.86 L
130 526.86 L
130 526.032 L
130 525.204 L
130 524.376 L
130 523.549 L
130 521.893 L
130 521.893 L
130 520.237 L
130 520.237 L
130 520.237 L
130 520.237 L
130 520.237 L
130 520.237 L
130 518.581 L
130 518.581 L
130 517.753 L
130 517.753 L
130 517.753 L
130 516.925 L
130 516.097 L
130 516.097 L
130 515.269 L
130 514.441 L
130 513.613 L
130 513.613 L
130 512.785 L
130 511.129 L
130 511.129 L
130 509.474 L
130 506.99 L
130 504.506 L
130 503.678 L
130 502.85 L
130 502.85 L
130 500.366 L
130 499.538 L
130 497.882 L
130 497.055 L
130 494.571 L
130 492.087 L
130 492.087 L
130 490.431 L
130 488.775 L
130 487.119 L
130 485.463 L
130 485.463 L
130 484.635 L
130 483.807 L
130 483.807 L
130 482.98 L
130 482.98 L
130 481.324 L
130 479.668 L
130 478.012 L
130 474.7 L
130 473.872 L
130 472.216 L
130 469.733 L
130 467.249 L
130 463.937 L
130 460.625 L
130 459.797 L
130 457.313 L
130 457.313 L
130 455.658 L
130 454.002 L
130 451.518 L
130 447.378 L
130 446.55 L
130 444.066 L
130 438.271 L
130 437.443 L
130 434.959 L
130 431.647 L
130 429.991 L
130 429.164 L
130 428.336 L
130 425.852 L
130 423.368 L
130 422.54 L
130 418.4 L
130 415.917 L
130 415.089 L
130 413.433 L
130 412.605 L
130 412.605 L
130 410.949 L
130 408.465 L
130 406.809 L
130 403.497 L
130 401.842 L
130 399.358 L
130 396.874 L
130 395.218 L
130 391.078 L
130 387.767 L
130 386.111 L
130 386.111 L
130 385.283 L
130 384.455 L
130 383.627 L
130 382.799 L
130 378.659 L
130 376.175 L
130 373.692 L
130 371.208 L
130 367.068 L
130 365.412 L
130 363.756 L
130 360.445 L
130 357.961 L
130 357.133 L
130 357.133 L
130 356.305 L
130 353.821 L
130 352.165 L
130 352.165 L
130 351.337 L
130 348.853 L
130 344.714 L
130 343.886 L
130 340.574 L
130 335.606 L
130 333.123 L
130 328.983 L
130 328.155 L
130 328.155 L
130 322.359 L
130 318.22 L
130 315.736 L
130 314.08 L
130 311.596 L
130 310.768 L
130 309.112 L
130 308.284 L
130 304.973 L
130 304.973 L
130 300.833 L
130 295.037 L
130 295.037 L
130 293.382 L
130 291.726 L
130 290.07 L
130 285.93 L
130 285.93 L
130 283.446 L
130 281.79 L
130 280.963 L
130 278.479 L
130 276.823 L
130 275.995 L
130 271.855 L
130 271.855 L
130 270.199 L
130 269.371 L
130 266.06 L
130 266.06 L
130 261.92 L
130 260.264 L
130 259.436 L
130 256.952 L
130 253.641 L
130 252.813 L
130 250.329 L
130 249.501 L
130 248.673 L
130 248.673 L
130 246.189 L
130 242.877 L
130 242.049 L
130 239.566 L
130 239.566 L
130 238.738 L
130 237.082 L
130 236.254 L
130 234.598 L
130 232.114 L
130 229.63 L
130 227.146 L
130 225.491 L
130 223.835 L
130 223.835 L
130 220.523 L
130 218.867 L
130 215.555 L
130 215.555 L
130 214.727 L
130 213.072 L
130 212.244 L
130 210.588 L
130 208.104 L
130 207.276 L
130 205.62 L
130 205.62 L
130 202.308 L
130 201.48 L
130 200.652 L
130 200.652 L
130 198.169 L
130 195.685 L
130 194.857 L
130 192.373 L
130 189.889 L
130 189.889 L
130 189.889 L
130 189.889 L
130 189.889 L
130 189.061 L
130 189.061 L
130 189.061 L
130 187.405 L
130 187.405 L
130 186.577 L
130 185.75 L
130 183.266 L
130 180.782 L
130 180.782 L
130 180.782 L
130 179.126 L
130 177.47 L
130 177.47 L
130 174.986 L
130 174.158 L
130 172.503 L
130 171.675 L
130 170.019 L
130 169.191 L
130 169.191 L
130 169.191 L
130 169.191 L
130 169.191 L
130 167.535 L
130 164.223 L
130 161.739 L
130 160.083 L
130 158.428 L
130 158.428 L
130 157.6 L
130 157.6 L
130 156.772 L
130 155.944 L
130 154.288 L
130 152.632 L
130 151.804 L
130 151.804 L
130 150.148 L
130 148.492 L
130 147.664 L
130 146.836 L
130 146.836 L
130 146.009 L
130 146.009 L
130 145.181 L
130 144.353 L
130 142.697 L
130 141.869 L
130 141.041 L
130 140.213 L
130 139.385 L
130 139.385 L
130 137.729 L
130 137.729 L
130 136.901 L
130 136.901 L
130 136.073 L
130 136.073 L
130 136.073 L
130 136.073 L
130 136.073 L
130 136.073 L
130 135.245 L
130 132.762 L
130 131.934 L
130 131.106 L
130 129.45 L
130 129.45 L
130 129.45 L
130 129.45 L
130 129.45 L
130 129.45 L
130 128.622 L
130 127.794 L
130 126.966 L
130 124.482 L
130 124.482 L
130 122.826 L
130 122.826 L
130 121.998 L
130 121.998 L
130 121.998 L
130 120.342 L
130 120.342 L
130 118.687 L
130 117.031 L
130 116.203 L
130 116.203 L
130 116.203 L
130 116.203 L
130 113.719 L
130 113.719 L
130 112.891 L
130 112.891 L
130 112.063 L
130 112.063 L
130 111.235 L
130 110.407 L
130 108.751 L
130 107.923 L
130 107.923 L
130 107.923 L
130 107.923 L
130 107.095 L
130 106.267 L
130 105.44 L
130 104.612 L
130 102.956 L
130 102.956 L
130 102.128 L
130 102.128 L
130 102.128 L
130 102.128 L
130 102.128 L
130 102.128 L
130 101.3 L
130 101.3 L
130 100.472 L
130 100.472 L
130 100.472 L
130 99.644 L
130 98.816 L
130 96.332 L
130 96.332 L
130 94.676 L
130.013 93.848 L
130.013 93.848 L
130.025 93.02 L
130.025 92.192 L
130.025 91.365 L
130.025 90.537 L
130.038 88.881 L
130.089 88.881 L
130.089 88.881 L
130.102 88.881 L
130.115 88.881 L
130.14 88.881 L
130.14 88.881 L
130.14 88.881 L
130.166 88.053 L
130.166 85.569 L
130.204 85.569 L
130.204 84.741 L
130.204 84.741 L
130.204 84.741 L
130.217 84.741 L
130.255 83.913 L
130.293 83.913 L
130.318 83.913 L
130.369 83.913 L
130.42 83.913 L
130.497 83.913 L
130.51 83.913 L
130.637 83.913 L
130.701 83.913 L
130.726 83.913 L
130.815 83.913 L
130.892 83.913 L
130.981 83.913 L
131.096 83.913 L
131.172 83.085 L
131.376 83.085 L
131.567 81.429 L
131.783 81.429 L
131.962 81.429 L
132.178 79.773 L
132.433 79.773 L
132.662 79.773 L
132.904 79.773 L
133.248 79.773 L
133.631 78.945 L
134.14 78.945 L
134.51 78.118 L
134.904 78.118 L
135.376 78.118 L
135.745 78.118 L
136.408 77.29 L
137.185 77.29 L
137.605 77.29 L
138.357 77.29 L
139.223 77.29 L
139.949 76.462 L
140.764 76.462 L
141.758 76.462 L
142.815 76.462 L
143.783 76.462 L
144.917 76.462 L
145.847 76.462 L
147.108 76.462 L
148.165 76.462 L
149.592 76.462 L
150.688 76.462 L
152.102 76.462 L
153.516 76.462 L
154.764 76.462 L
156 76.462 L
157.401 76.462 L
158.93 76.462 L
160.305 75.634 L
161.707 75.634 L
163.159 75.634 L
164.688 75.634 L
166.051 75.634 L
167.567 75.634 L
168.955 75.634 L
170.178 75.634 L
171.605 75.634 L
172.726 75.634 L
173.91 75.634 L
174.968 75.634 L
175.809 75.634 L
176.751 75.634 L
177.732 75.634 L
178.777 75.634 L
179.426 75.634 L
180.102 75.634 L
180.751 74.806 L
181.592 74.806 L
182.293 74.806 L
182.738 74.806 L
183.286 74.806 L
183.745 74.806 L
184.165 74.806 L
184.573 74.806 L
184.98 74.806 L
185.108 74.806 L
185.401 74.806 L
185.579 73.978 L
185.859 73.978 L
185.987 73.978 L
186.165 73.978 L
186.343 73.978 L
186.42 73.978 L
186.484 73.978 L
186.624 73.978 L
186.751 73.978 L
186.891 73.978 L
186.929 73.978 L
186.968 73.978 L
187.044 73.978 L
187.057 73.978 L
187.082 73.978 L
187.146 73.978 L
187.184 73.978 L
187.184 73.978 L
187.222 73.978 L
187.286 73.978 L
187.299 73.978 L
187.312 73.978 L
187.312 73.978 L
187.312 73.978 L
187.324 73.978 L
187.324 73.978 L
191.07 73.15 L
195.235 73.15 L
200.178 72.322 L
205.286 72.322 L
210.445 72.322 L
215.719 72.322 L
221.643 71.494 L
227.299 71.494 L
233.719 70.666 L
239.439 70.666 L
246.483 69.838 L
253.133 68.182 L
260.241 68.182 L
267.056 68.182 L
274.534 68.182 L
282.406 68.182 L
289.438 68.182 L
296.559 68.182 L
302.814 68.182 L
309.413 68.182 L
315.68 67.354 L
321.4 67.354 L
326.482 67.354 L
330.635 67.354 L
333.986 67.354 L
337.119 67.354 L
339.247 67.354 L
340.954 67.354 L
342.355 67.354 L
343.438 67.354 L
344.126 67.354 L
344.584 67.354 L
344.724 67.354 L
344.89 67.354 L
344.979 67.354 L
345.017 67.354 L
345.017 67.354 L
345.017 67.354 L
345.03 67.354 L
345.03 67.354 L
345.03 67.354 L
345.03 67.354 L
345.03 67.354 L
345.03 67.354 L
345.03 67.354 L
345.03 67.354 L
345.03 67.354 L
345.03 67.354 L
345.03 67.354 L
345.03 67.354 L
345.03 67.354 L
345.03 67.354 L
345.03 67.354 L
345.03 67.354 L
345.03 67.354 L
345.03 67.354 L
345.03 67.354 L
345.03 67.354 L
345.03 67.354 L
345.03 67.354 L
345.03 67.354 L
345.03 67.354 L
345.03 67.354 L
345.03 67.354 L
345.03 67.354 L
345.03 67.354 L
345.03 67.354 L
345.03 67.354 L
345.03 67.354 L
345.03 67.354 L
345.03 67.354 L
345.03 67.354 L
345.03 67.354 L
345.03 67.354 L
345.03 67.354 L
345.03 67.354 L
345.03 67.354 L
345.03 67.354 L
345.03 67.354 L
345.03 67.354 L
345.03 67.354 L
345.03 67.354 L
345.03 67.354 L
345.03 67.354 L
345.03 67.354 L
345.03 67.354 L
345.03 67.354 L
345.03 67.354 L
345.03 67.354 L
345.03 67.354 L
345.03 67.354 L
345.03 67.354 L
345.03 67.354 L
345.03 67.354 L
345.03 67.354 L
345.03 67.354 L
345.03 67.354 L
345.03 67.354 L
345.03 67.354 L
345.03 67.354 L
345.03 67.354 L
345.03 67.354 L
345.03 67.354 L
345.03 67.354 L
345.03 67.354 L
345.03 67.354 L
345.03 67.354 L
345.03 67.354 L
345.03 67.354 L
345.03 67.354 L
345.03 67.354 L
345.03 67.354 L
345.03 67.354 L
345.03 67.354 L
345.03 67.354 L
345.03 67.354 L
345.03 67.354 L
345.03 67.354 L
345.03 67.354 L
345.03 67.354 L
345.03 67.354 L
345.03 67.354 L
345.03 67.354 L
345.03 67.354 L
345.03 67.354 L
345.03 67.354 L
345.03 67.354 L
345.03 67.354 L
345.03 67.354 L
345.03 67.354 L
345.03 67.354 L
345.03 67.354 L
345.03 67.354 L
345.03 67.354 L
345.03 67.354 L
345.03 67.354 L
345.03 67.354 L
345.03 67.354 L
345.03 67.354 L
345.03 67.354 L
345.03 67.354 L
345.03 67.354 L
345.03 67.354 L
345.03 67.354 L
345.03 67.354 L
345.03 67.354 L
345.03 67.354 L
345.03 67.354 L
345.03 67.354 L
345.03 67.354 L
345.03 67.354 L
345.03 67.354 L
345.03 67.354 L
345.03 67.354 L
345.03 67.354 L
345.03 67.354 L
345.03 67.354 L
345.03 67.354 L
345.03 67.354 L
345.03 67.354 L
345.03 67.354 L
345.03 67.354 L
345.03 67.354 L
345.03 67.354 L
345.03 67.354 L
345.03 67.354 L
345.03 67.354 L
345.03 67.354 L
345.03 67.354 L
345.03 67.354 L
345.03 67.354 L
345.03 67.354 L
345.03 67.354 L
345.03 67.354 L
345.03 67.354 L
345.03 67.354 L
345.03 67.354 L
345.03 67.354 L
345.03 67.354 L
345.03 67.354 L
345.03 67.354 L
345.03 67.354 L
345.03 67.354 L
345.03 67.354 L
345.03 67.354 L
345.03 67.354 L
345.03 67.354 L
345.03 67.354 L
345.03 67.354 L
345.03 67.354 L
345.03 67.354 L
345.03 67.354 L
345.03 67.354 L
345.03 67.354 L
345.03 67.354 L
345.03 67.354 L
345.03 67.354 L
345.03 67.354 L
345.03 67.354 L
345.03 67.354 L
345.03 67.354 L
345.03 67.354 L
345.03 67.354 L
345.03 67.354 L
345.03 67.354 L
345.03 67.354 L
345.03 67.354 L
345.03 67.354 L
345.03 67.354 L
345.03 67.354 L
345.03 67.354 L
345.03 67.354 L
345.03 67.354 L
345.03 67.354 L
345.03 67.354 L
345.03 67.354 L
345.03 67.354 L
345.03 67.354 L
345.03 67.354 L
345.03 67.354 L
345.03 67.354 L
345.03 67.354 L
345.03 67.354 L
345.03 67.354 L
345.03 67.354 L
345.03 67.354 L
345.03 67.354 L
345.03 67.354 L
345.03 67.354 L
345.03 67.354 L
345.03 67.354 L
345.03 67.354 L
345.03 67.354 L
345.03 67.354 L
345.03 67.354 L
345.03 67.354 L
345.03 67.354 L
345.03 67.354 L
345.03 67.354 L
345.03 67.354 L
345.03 67.354 L
345.03 67.354 L
345.03 67.354 L
345.03 67.354 L
345.03 67.354 L
345.03 67.354 L
345.03 67.354 L
345.03 67.354 L
345.03 67.354 L
345.03 67.354 L
345.03 67.354 L
345.03 67.354 L
345.03 67.354 L
345.03 67.354 L
345.03 67.354 L
345.03 67.354 L
345.03 67.354 L
345.03 67.354 L
345.03 67.354 L
345.03 67.354 L
345.03 67.354 L
345.03 67.354 L
345.03 67.354 L
345.03 67.354 L
345.03 67.354 L
345.03 67.354 L
345.03 67.354 L
345.03 67.354 L
345.03 67.354 L
345.03 67.354 L
345.03 67.354 L
345.03 67.354 L
345.03 67.354 L
345.03 67.354 L
345.03 67.354 L
345.03 67.354 L
345.03 67.354 L
345.03 67.354 L
345.03 67.354 L
345.03 67.354 L
345.03 67.354 L
345.03 67.354 L
345.03 67.354 L
345.03 67.354 L
345.03 67.354 L
345.03 67.354 L
345.03 67.354 L
345.03 67.354 L
345.03 67.354 L
345.03 67.354 L
345.03 67.354 L
345.03 67.354 L
345.03 67.354 L
345.03 67.354 L
345.03 67.354 L
345.03 67.354 L
345.03 67.354 L
345.03 67.354 L
345.03 67.354 L
345.03 67.354 L
345.03 67.354 L
345.03 67.354 L
345.03 67.354 L
345.03 67.354 L
345.03 67.354 L
345.03 67.354 L
345.03 67.354 L
345.03 67.354 L
345.03 67.354 L
345.03 67.354 L
345.03 67.354 L
345.03 67.354 L
345.03 67.354 L
345.03 67.354 L
345.03 67.354 L
345.03 67.354 L
345.03 67.354 L
345.03 67.354 L
345.03 67.354 L
345.03 67.354 L
345.03 67.354 L
345.03 67.354 L
345.03 67.354 L
345.03 67.354 L
345.03 67.354 L
345.03 67.354 L
345.03 67.354 L
345.03 67.354 L
345.03 67.354 L
345.03 67.354 L
345.03 67.354 L
345.03 67.354 L
345.03 67.354 L
345.03 67.354 L
345.03 67.354 L
345.03 67.354 L
345.03 67.354 L
905 45 L
S
GR
GS
1 LJ
2 LW
N
130 530.172 M
130 530.172 L
130 530.172 L
130 530.172 L
130 530.172 L
130 530.172 L
130 530.172 L
130 530.172 L
130 530.172 L
130 530.172 L
130 530.172 L
130 530.172 L
130 530.172 L
130 530.172 L
130 530.172 L
130 530.172 L
130 530.172 L
130 530.172 L
130 530.172 L
130 530.172 L
130 530.172 L
130 530.172 L
130 530.172 L
130 530.172 L
130 530.172 L
130 530.172 L
130 530.172 L
130 530.172 L
130 530.172 L
130 530.172 L
130 530.172 L
130 530.172 L
130 530.172 L
130 530.172 L
130 530.172 L
130 530.172 L
130 530.172 L
130 530.172 L
130 530.172 L
130 530.172 L
130 530.172 L
130 530.172 L
130 530.172 L
130 530.172 L
130 530.172 L
130 530.172 L
130 530.172 L
130 530.172 L
130 530.172 L
130 530.172 L
130 530.172 L
130 530.172 L
130 530.172 L
130 530.172 L
130 530.172 L
130 530.172 L
130 530.172 L
130 530.172 L
130 530.172 L
130 530.172 L
130 530.172 L
130 530.172 L
130 530.172 L
130 530.172 L
130 530.172 L
130 530.172 L
130 530.172 L
130 530.172 L
130 530.172 L
130 530.172 L
130 530.172 L
130 530.172 L
130 530.172 L
130 530.172 L
130 530.172 L
130 530.172 L
130 530.172 L
130 530.172 L
130 530.172 L
130 530.172 L
130 530.172 L
130 530.172 L
130 530.172 L
130 530.172 L
130 530.172 L
130 530.172 L
130 530.172 L
130 530.172 L
130 530.172 L
130 530.172 L
130 530.172 L
130 530.172 L
130 530.172 L
130 530.172 L
130 530.172 L
130 530.172 L
130 530.172 L
130 530.172 L
130 530.172 L
130 530.172 L
130 530.172 L
130 530.172 L
130 530.172 L
130 530.172 L
130 530.172 L
130 530.172 L
130 530.172 L
130 530.172 L
130 530.172 L
130 530.172 L
130 530.172 L
130 530.172 L
130 530.172 L
130 530.172 L
130 530.172 L
130 530.172 L
130 530.172 L
130 530.172 L
130 530.172 L
130 530.172 L
130 530.172 L
130 530.172 L
130 530.172 L
130 530.172 L
130 530.172 L
130 530.172 L
130 530.172 L
130 530.172 L
130 530.172 L
130 530.172 L
130 530.172 L
130 530.172 L
130 530.172 L
130 530.172 L
130 530.172 L
130 530.172 L
130 530.172 L
130 530.172 L
130 530.172 L
130 530.172 L
130 530.172 L
130 530.172 L
130 530.172 L
130 530.172 L
130 530.172 L
130 530.172 L
130 530.172 L
130 530.172 L
130 530.172 L
130 530.172 L
130 530.172 L
130 530.172 L
130 530.172 L
130 530.172 L
130 530.172 L
130 530.172 L
130 530.172 L
130 530.172 L
130 530.172 L
130 530.172 L
130 530.172 L
130 530.172 L
130 530.172 L
130 530.172 L
130 530.172 L
130 530.172 L
130 530.172 L
130 530.172 L
130 530.172 L
130 530.172 L
130 530.172 L
130 530.172 L
130 530.172 L
130 530.172 L
130 530.172 L
130 530.172 L
130 530.172 L
130 530.172 L
130 530.172 L
130 530.172 L
130 530.172 L
130 530.172 L
130 530.172 L
130 530.172 L
130 530.172 L
130 530.172 L
130 530.172 L
130 529.344 L
130 529.344 L
130 529.344 L
130 529.344 L
130 529.344 L
130 529.344 L
130 529.344 L
130 529.344 L
130 529.344 L
130 529.344 L
130 529.344 L
130 529.344 L
130 529.344 L
130 529.344 L
130 529.344 L
130 529.344 L
130 529.344 L
130 528.516 L
130 528.516 L
130 528.516 L
130 528.516 L
130 528.516 L
130 528.516 L
130 528.516 L
130 528.516 L
130 528.516 L
130 528.516 L
130 528.516 L
130 528.516 L
130 527.688 L
130 527.688 L
130 527.688 L
130 527.688 L
130 527.688 L
130 527.688 L
130 526.86 L
130 526.86 L
130 526.86 L
130 526.86 L
130 525.204 L
130 525.204 L
130 525.204 L
130 523.549 L
130 523.549 L
130 523.549 L
130 523.549 L
130 523.549 L
130 522.721 L
130 522.721 L
130 521.893 L
130 521.065 L
130 520.237 L
130 520.237 L
130 517.753 L
130 516.097 L
130 516.097 L
130 516.097 L
130 516.097 L
130 516.097 L
130 516.097 L
130 515.269 L
130 514.441 L
130 512.785 L
130 511.957 L
130 511.129 L
130 511.129 L
130 511.129 L
130 511.129 L
130 511.129 L
130 511.129 L
130 510.302 L
130 510.302 L
130 509.474 L
130 509.474 L
130 509.474 L
130 509.474 L
130 509.474 L
130 509.474 L
130 507.818 L
130 506.162 L
130 505.334 L
130 504.506 L
130 502.85 L
130 502.85 L
130 502.85 L
130 502.85 L
130 501.194 L
130 499.538 L
130 498.71 L
130 497.882 L
130 497.882 L
130 497.055 L
130 495.399 L
130 494.571 L
130 493.743 L
130 492.087 L
130 491.259 L
130 488.775 L
130 486.291 L
130 484.635 L
130 482.152 L
130 481.324 L
130 481.324 L
130 479.668 L
130 479.668 L
130 477.184 L
130 476.356 L
130 473.872 L
130 473.044 L
130 471.388 L
130 471.388 L
130 471.388 L
130 468.905 L
130 467.249 L
130 466.421 L
130 465.593 L
130 464.765 L
130 462.281 L
130 460.625 L
130 457.313 L
130 454.83 L
130 454.83 L
130 454.002 L
130 452.346 L
130 451.518 L
130 446.55 L
130 446.55 L
130 443.238 L
130 443.238 L
130 440.755 L
130 439.099 L
130 437.443 L
130 436.615 L
130 434.131 L
130 434.131 L
130 431.647 L
130 429.991 L
130 428.336 L
130 428.336 L
130 427.508 L
130 426.68 L
130 424.196 L
130 423.368 L
130 418.4 L
130 416.744 L
130 415.917 L
130 414.261 L
130 413.433 L
130 410.121 L
130 409.293 L
130 409.293 L
130 409.293 L
130 406.809 L
130 405.981 L
130 404.325 L
130 401.842 L
130 401.014 L
130 399.358 L
130 398.53 L
130 398.53 L
130 397.702 L
130 397.702 L
130 396.874 L
130 396.874 L
130 395.218 L
130 395.218 L
130 393.562 L
130 389.422 L
130 386.939 L
130 384.455 L
130 382.799 L
130 381.143 L
130 380.315 L
130 377.003 L
130 375.348 L
130 372.864 L
130 369.552 L
130 367.896 L
130 366.24 L
130 361.273 L
130 359.617 L
130 357.961 L
130 353.821 L
130 352.165 L
130 351.337 L
130 349.681 L
130 347.198 L
130 346.37 L
130 344.714 L
130 344.714 L
130 343.886 L
130 343.058 L
130 341.402 L
130 341.402 L
130 340.574 L
130 338.09 L
130 336.434 L
130 335.606 L
130 334.779 L
130 332.295 L
130 331.467 L
130 328.983 L
130 328.155 L
130 328.155 L
130 327.327 L
130 324.843 L
130 323.187 L
130 323.187 L
130 319.876 L
130 319.876 L
130 316.564 L
130 314.908 L
130 314.08 L
130 313.252 L
130 311.596 L
130 309.94 L
130 309.112 L
130 305.801 L
130 303.317 L
130 298.349 L
130 296.693 L
130 293.382 L
130 293.382 L
130 293.382 L
130 290.898 L
130 289.242 L
130 286.758 L
130 285.102 L
130 284.274 L
130 282.618 L
130 280.963 L
130 280.135 L
130 279.307 L
130 277.651 L
130 277.651 L
130 276.823 L
130 274.339 L
130 271.027 L
130 268.543 L
130 267.715 L
130 266.888 L
130 266.888 L
130 265.232 L
130 261.92 L
130 259.436 L
130 259.436 L
130 256.124 L
130 254.468 L
130 253.641 L
130 252.813 L
130 249.501 L
130 248.673 L
130 247.017 L
130 245.361 L
130 245.361 L
130 243.705 L
130 241.221 L
130 240.394 L
130 237.91 L
130 237.91 L
130 237.91 L
130 237.082 L
130 237.082 L
130 234.598 L
130 233.77 L
130 230.458 L
130 230.458 L
130 227.146 L
130 226.319 L
130 223.007 L
130 218.867 L
130 218.039 L
130 217.211 L
130 214.727 L
130 211.416 L
130 211.416 L
130 211.416 L
130 210.588 L
130 208.932 L
130 208.104 L
130 208.104 L
130 205.62 L
130 203.964 L
130 203.964 L
130 201.48 L
130 201.48 L
130 200.652 L
130 200.652 L
130 199.825 L
130 199.825 L
130 199.825 L
130 198.997 L
130 196.513 L
130 196.513 L
130 194.029 L
130 190.717 L
130 189.061 L
130 188.233 L
130 184.922 L
130 184.094 L
130 184.094 L
130 182.438 L
130 180.782 L
130 180.782 L
130 179.954 L
130 179.126 L
130 176.642 L
130 175.814 L
130 174.986 L
130 173.331 L
130 173.331 L
130 170.019 L
130 169.191 L
130 168.363 L
130 167.535 L
130 166.707 L
130 165.051 L
130 164.223 L
130 162.567 L
130 162.567 L
130 162.567 L
130 160.911 L
130 160.083 L
130 157.6 L
130 156.772 L
130 155.944 L
130 155.116 L
130 154.288 L
130 154.288 L
130 152.632 L
130 150.976 L
130 150.976 L
130 150.148 L
130 150.148 L
130 148.492 L
130 147.664 L
130 146.836 L
130 144.353 L
130 144.353 L
130 142.697 L
130 142.697 L
130 142.697 L
130 142.697 L
130 141.869 L
130 141.869 L
130 141.869 L
130 141.869 L
130 141.041 L
130 140.213 L
130 140.213 L
130 140.213 L
130 139.385 L
130 138.557 L
130 137.729 L
130 136.901 L
130 136.073 L
130 136.073 L
130 134.417 L
130 133.589 L
130 131.934 L
130 131.934 L
130 131.106 L
130 129.45 L
130 127.794 L
130 127.794 L
130 127.794 L
130 126.966 L
130 126.138 L
130 125.31 L
130 124.482 L
130 124.482 L
130 122.826 L
130 122.826 L
130 121.17 L
130 121.17 L
130 120.342 L
130 120.342 L
130 119.514 L
130 117.031 L
130 117.031 L
130 115.375 L
130 115.375 L
130 113.719 L
130 112.891 L
130 112.063 L
130 112.063 L
130 112.063 L
130 112.063 L
130 112.063 L
130 110.407 L
130 109.579 L
130 109.579 L
130 109.579 L
130 109.579 L
130 108.751 L
130 108.751 L
130 107.923 L
130 107.923 L
130 107.095 L
130 106.267 L
130 104.612 L
130 103.784 L
130 102.956 L
130 102.956 L
130 102.128 L
130 100.472 L
130 100.472 L
130 99.644 L
130 98.816 L
130 98.816 L
130 97.988 L
130 97.988 L
130 97.988 L
130 97.988 L
130 97.988 L
130 97.16 L
130 97.16 L
130 97.16 L
130 96.332 L
130 94.676 L
130 93.848 L
130 93.02 L
130 91.365 L
130 91.365 L
130 91.365 L
130 89.709 L
130 88.881 L
130 88.053 L
130 88.053 L
130 88.053 L
130 87.225 L
130 86.397 L
130 86.397 L
130 85.569 L
130 85.569 L
130 85.569 L
130 85.569 L
130 85.569 L
130 85.569 L
130 83.913 L
130 83.913 L
130 83.085 L
130 83.085 L
130 83.085 L
130 82.257 L
130 82.257 L
130 80.601 L
130 80.601 L
130 79.773 L
130 79.773 L
130 78.945 L
130 78.118 L
130 78.118 L
130 77.29 L
130 77.29 L
130 76.462 L
130 75.634 L
130 75.634 L
130 75.634 L
130 73.978 L
130 73.15 L
130 72.322 L
130 72.322 L
130 71.494 L
130 71.494 L
130 71.494 L
130 70.666 L
130 69.838 L
130 69.01 L
130 69.01 L
130 69.01 L
130 68.182 L
130 68.182 L
130 65.698 L
130 65.698 L
130 65.698 L
130 64.871 L
130 64.043 L
130 62.387 L
130 61.559 L
130 61.559 L
130 61.559 L
130 60.731 L
130 60.731 L
130 59.903 L
130 59.903 L
130 59.903 L
130 59.075 L
130 59.075 L
130 59.075 L
130.013 59.075 L
130.013 59.075 L
130.013 59.075 L
130.038 59.075 L
130.038 59.075 L
130.038 59.075 L
130.038 59.075 L
130.051 59.075 L
130.051 59.075 L
130.051 58.247 L
130.064 58.247 L
130.064 58.247 L
130.076 58.247 L
130.076 58.247 L
130.089 58.247 L
130.089 58.247 L
130.115 58.247 L
130.115 58.247 L
130.115 57.419 L
130.127 57.419 L
130.166 57.419 L
130.166 57.419 L
130.166 57.419 L
130.178 57.419 L
130.204 57.419 L
130.217 57.419 L
130.229 57.419 L
130.242 57.419 L
130.293 57.419 L
130.357 57.419 L
130.395 57.419 L
130.471 57.419 L
130.51 56.591 L
130.573 55.763 L
130.586 55.763 L
130.65 54.935 L
130.739 54.935 L
130.854 54.107 L
130.981 54.107 L
131.045 53.279 L
131.083 53.279 L
131.236 53.279 L
131.312 53.279 L
131.427 53.279 L
131.554 53.279 L
131.682 53.279 L
131.745 53.279 L
131.911 53.279 L
132.064 53.279 L
132.217 53.279 L
132.395 51.624 L
132.56 50.796 L
132.726 50.796 L
132.994 50.796 L
133.172 49.14 L
133.427 49.14 L
133.732 49.14 L
133.911 49.14 L
134.217 49.14 L
134.471 49.14 L
134.866 48.312 L
135.299 48.312 L
135.681 48.312 L
135.987 48.312 L
136.471 48.312 L
136.713 48.312 L
137.197 48.312 L
137.732 48.312 L
138.382 48.312 L
138.994 48.312 L
139.732 48.312 L
140.089 47.484 L
140.701 47.484 L
141.439 47.484 L
141.949 47.484 L
142.93 47.484 L
143.771 47.484 L
144.357 47.484 L
145.019 47.484 L
145.885 46.656 L
146.624 46.656 L
147.478 46.656 L
148.599 46.656 L
149.771 46.656 L
150.051 46.656 L
151.337 45.828 L
152.611 45.828 L
153.86 45.828 L
155.07 45 L
156.446 45 L
157.095 45 L
158.815 45 L
160.458 45 L
162 45 L
163.745 45 L
165.312 45 L
166.471 45 L
168.369 45 L
170.344 45 L
172.216 45 L
174.203 45 L
176.382 45 L
178.789 45 L
180.089 45 L
182.344 45 L
185.044 45 L
188.063 45 L
190.84 45 L
193.592 45 L
195.464 45 L
198.573 45 L
201.35 45 L
204.433 45 L
207.197 45 L
210.547 45 L
212.967 45 L
216.611 45 L
220.139 45 L
224.076 45 L
228.279 45 L
231.693 45 L
234.381 45 L
238.674 45 L
242.7 45 L
246.687 45 L
251.413 45 L
256.177 45 L
261.273 45 L
264.317 45 L
269.375 45 L
274.47 45 L
280.75 45 L
286.279 45 L
291.91 45 L
295.68 45 L
302.279 45 L
307.948 45 L
314.814 45 L
320.814 45 L
327.349 45 L
331.527 45 L
338.164 45 L
344.24 45 L
351.094 45 L
357.922 45 L
364.559 45 L
371.514 45 L
375.488 45 L
381.82 45 L
388.902 45 L
396.393 45 L
404.023 45 L
411.399 45 L
416.303 45 L
423.832 45 L
432.227 45 L
439.654 45 L
448.125 45 L
456.239 45 L
461.157 45 L
469.883 45 L
477.539 45 L
485.144 45 L
493.475 45 L
501.882 45 L
507.5 45 L
515.908 45 L
524.685 45 L
532.608 45 L
541.016 45 L
548.965 45 L
556.952 45 L
561.538 45 L
569.64 45 L
578.289 45 L
586.276 45 L
594.264 45 L
602.862 45 L
608.098 45 L
615.257 45 L
623.028 45 L
631.066 45 L
638.646 45 L
646.747 45 L
651.856 45 L
658.684 45 L
666.225 45 L
673.945 45 L
681.116 45 L
688.772 45 L
692.785 45 L
699.83 45 L
707.371 45 L
714.046 45 L
720.148 45 L
727.333 45 L
734.352 45 L
738.441 45 L
744.53 45 L
750.441 45 L
756.109 45 L
761.995 45 L
767.753 45 L
771.651 45 L
776.988 45 L
782.542 45 L
787.638 45 L
792.746 45 L
797.752 45 L
800.988 45 L
805.166 45 L
809.268 45 L
813.714 45 L
818.224 45 L
822.491 45 L
826.262 45 L
828.708 45 L
832.351 45 L
835.943 45 L
839.281 45 L
842.287 45 L
845.485 45 L
847.255 45 L
850.083 45 L
853.115 45 L
855.727 45 L
858.593 45 L
860.886 45 L
862.58 45 L
864.465 45 L
866.491 45 L
868.503 45 L
870.325 45 L
872.554 45 L
873.994 45 L
875.217 45 L
876.618 45 L
878.644 45 L
880.363 45 L
881.421 45 L
882.605 45 L
883.522 45 L
884.936 45 L
886.096 45 L
887.319 45 L
888.121 45 L
889.166 45 L
889.866 45 L
890.694 45 L
891.79 45 L
892.592 45 L
893.497 45 L
894.083 45 L
894.452 45 L
895.14 45 L
895.586 45 L
896.299 45 L
896.771 45 L
897.28 45 L
897.968 45 L
898.325 45 L
898.745 45 L
899.166 45 L
899.51 45 L
899.815 45 L
900.147 45 L
900.338 45 L
900.618 45 L
900.873 45 L
901.293 45 L
901.497 45 L
901.79 45 L
901.968 45 L
902.248 45 L
902.478 45 L
902.643 45 L
902.834 45 L
902.911 45 L
903.038 45 L
903.166 45 L
903.28 45 L
903.42 45 L
903.535 45 L
903.599 45 L
903.713 45 L
903.752 45 L
903.828 45 L
903.994 45 L
904.083 45 L
904.134 45 L
904.185 45 L
904.248 45 L
904.299 45 L
904.35 45 L
904.389 45 L
904.414 45 L
904.478 45 L
904.516 45 L
904.567 45 L
904.605 45 L
904.631 45 L
904.682 45 L
904.72 45 L
904.745 45 L
904.758 45 L
904.783 45 L
904.822 45 L
904.847 45 L
904.847 45 L
904.847 45 L
904.873 45 L
904.873 45 L
904.885 45 L
904.885 45 L
904.885 45 L
904.936 45 L
904.936 45 L
904.949 45 L
904.949 45 L
904.962 45 L
904.962 45 L
904.974 45 L
904.974 45 L
905 45 L
S
GR
GS
1 0 0 RC
1 LJ
2 LW
N
130 530.172 M
130 530.172 L
130 530.172 L
130 530.172 L
130 530.172 L
130 530.172 L
130 530.172 L
130 530.172 L
130 530.172 L
130 530.172 L
130 530.172 L
130 530.172 L
130 530.172 L
130 530.172 L
130 530.172 L
130 530.172 L
130 530.172 L
130 530.172 L
130 530.172 L
130 530.172 L
130 530.172 L
130 530.172 L
130 530.172 L
130 530.172 L
130 530.172 L
130 530.172 L
130 530.172 L
130 530.172 L
130 530.172 L
130 530.172 L
130 530.172 L
130 530.172 L
130 530.172 L
130 530.172 L
130 530.172 L
130 530.172 L
130 530.172 L
130 530.172 L
130 530.172 L
130 530.172 L
130 530.172 L
130 530.172 L
130 530.172 L
130 530.172 L
130 530.172 L
130 530.172 L
130 530.172 L
130 530.172 L
130 530.172 L
130 530.172 L
130 530.172 L
130 530.172 L
130 530.172 L
130 530.172 L
130 530.172 L
130 530.172 L
130 530.172 L
130 530.172 L
130 530.172 L
130 530.172 L
130 530.172 L
130 530.172 L
130 530.172 L
130 530.172 L
130 530.172 L
130 530.172 L
130 530.172 L
130 530.172 L
130 530.172 L
130 530.172 L
130 530.172 L
130 530.172 L
130 530.172 L
130 530.172 L
130 530.172 L
130 530.172 L
130 530.172 L
130 530.172 L
130 530.172 L
130 530.172 L
130 530.172 L
130 530.172 L
130 530.172 L
130 530.172 L
130 530.172 L
130 530.172 L
130 530.172 L
130 530.172 L
130 530.172 L
130 530.172 L
130 530.172 L
130 530.172 L
130 530.172 L
130 530.172 L
130 530.172 L
130 530.172 L
130 530.172 L
130 530.172 L
130 530.172 L
130 530.172 L
130 530.172 L
130 530.172 L
130 530.172 L
130 530.172 L
130 530.172 L
130 530.172 L
130 530.172 L
130 530.172 L
130 530.172 L
130 530.172 L
130 530.172 L
130 530.172 L
130 530.172 L
130 530.172 L
130 530.172 L
130 530.172 L
130 530.172 L
130 530.172 L
130 530.172 L
130 530.172 L
130 530.172 L
130 530.172 L
130 530.172 L
130 530.172 L
130 530.172 L
130 530.172 L
130 530.172 L
130 530.172 L
130 530.172 L
130 530.172 L
130 530.172 L
130 530.172 L
130 530.172 L
130 530.172 L
130 530.172 L
130 530.172 L
130 530.172 L
130 530.172 L
130 530.172 L
130 530.172 L
130 530.172 L
130 530.172 L
130 530.172 L
130 530.172 L
130 530.172 L
130 530.172 L
130 530.172 L
130 530.172 L
130 530.172 L
130 530.172 L
130 530.172 L
130 530.172 L
130 530.172 L
130 530.172 L
130 530.172 L
130 530.172 L
130 530.172 L
130 530.172 L
130 530.172 L
130 530.172 L
130 530.172 L
130 530.172 L
130 530.172 L
130 530.172 L
130 530.172 L
130 530.172 L
130 530.172 L
130 530.172 L
130 529.344 L
130 529.344 L
130 529.344 L
130 529.344 L
130 529.344 L
130 529.344 L
130 529.344 L
130 529.344 L
130 529.344 L
130 529.344 L
130 529.344 L
130 529.344 L
130 529.344 L
130 529.344 L
130 529.344 L
130 528.516 L
130 528.516 L
130 528.516 L
130 528.516 L
130 528.516 L
130 528.516 L
130 528.516 L
130 528.516 L
130 528.516 L
130 528.516 L
130 528.516 L
130 528.516 L
130 527.688 L
130 527.688 L
130 527.688 L
130 526.032 L
130 526.032 L
130 526.032 L
130 525.204 L
130 523.549 L
130 523.549 L
130 523.549 L
130 523.549 L
130 523.549 L
130 521.893 L
130 521.893 L
130 521.893 L
130 521.893 L
130 521.893 L
130 521.065 L
130 520.237 L
130 520.237 L
130 519.409 L
130 519.409 L
130 518.581 L
130 517.753 L
130 517.753 L
130 516.097 L
130 515.269 L
130 513.613 L
130 512.785 L
130 511.957 L
130 511.957 L
130 511.129 L
130 510.302 L
130 510.302 L
130 510.302 L
130 510.302 L
130 509.474 L
130 508.646 L
130 507.818 L
130 506.99 L
130 505.334 L
130 504.506 L
130 502.85 L
130 502.022 L
130 502.022 L
130 502.022 L
130 502.022 L
130 502.022 L
130 501.194 L
130 500.366 L
130 495.399 L
130 495.399 L
130 494.571 L
130 493.743 L
130 493.743 L
130 492.915 L
130 492.087 L
130 492.087 L
130 492.087 L
130 492.087 L
130 490.431 L
130 486.291 L
130 484.635 L
130 481.324 L
130 481.324 L
130 480.496 L
130 479.668 L
130 474.7 L
130 474.7 L
130 473.872 L
130 473.872 L
130 469.733 L
130 468.077 L
130 467.249 L
130 463.109 L
130 460.625 L
130 460.625 L
130 458.969 L
130 457.313 L
130 456.486 L
130 454.83 L
130 452.346 L
130 449.862 L
130 446.55 L
130 444.066 L
130 440.755 L
130 439.099 L
130 437.443 L
130 434.959 L
130 434.959 L
130 434.131 L
130 429.991 L
130 427.508 L
130 426.68 L
130 426.68 L
130 425.852 L
130 425.852 L
130 424.196 L
130 420.884 L
130 416.744 L
130 413.433 L
130 413.433 L
130 413.433 L
130 410.949 L
130 408.465 L
130 405.153 L
130 402.669 L
130 402.669 L
130 401.014 L
130 400.186 L
130 399.358 L
130 396.046 L
130 395.218 L
130 394.39 L
130 393.562 L
130 392.734 L
130 391.078 L
130 387.767 L
130 381.971 L
130 381.143 L
130 379.487 L
130 378.659 L
130 377.003 L
130 372.864 L
130 370.38 L
130 370.38 L
130 370.38 L
130 368.724 L
130 367.896 L
130 364.584 L
130 362.928 L
130 362.928 L
130 362.101 L
130 362.101 L
130 359.617 L
130 359.617 L
130 357.133 L
130 356.305 L
130 354.649 L
130 348.853 L
130 344.714 L
130 343.058 L
130 341.402 L
130 340.574 L
130 339.746 L
130 337.262 L
130 334.779 L
130 333.951 L
130 332.295 L
130 330.639 L
130 330.639 L
130 328.983 L
130 327.327 L
130 324.015 L
130 321.532 L
130 319.876 L
130 319.048 L
130 316.564 L
130 311.596 L
130 310.768 L
130 307.457 L
130 305.801 L
130 305.801 L
130 304.973 L
130 303.317 L
130 300.005 L
130 298.349 L
130 294.21 L
130 291.726 L
130 289.242 L
130 288.414 L
130 287.586 L
130 286.758 L
130 283.446 L
130 283.446 L
130 281.79 L
130 279.307 L
130 279.307 L
130 277.651 L
130 275.167 L
130 273.511 L
130 273.511 L
130 271.855 L
130 271.855 L
130 270.199 L
130 268.543 L
130 266.888 L
130 266.888 L
130 265.232 L
130 262.748 L
130 261.92 L
130 259.436 L
130 258.608 L
130 258.608 L
130 256.952 L
130 255.296 L
130 251.985 L
130 251.157 L
130 249.501 L
130 249.501 L
130 248.673 L
130 247.017 L
130 244.533 L
130 242.877 L
130 240.394 L
130 240.394 L
130 237.91 L
130 236.254 L
130 234.598 L
130 233.77 L
130 232.942 L
130 232.114 L
130 232.114 L
130 232.114 L
130 232.114 L
130 228.802 L
130 227.146 L
130 225.491 L
130 224.663 L
130 224.663 L
130 223.835 L
130 219.695 L
130 216.383 L
130 213.072 L
130 213.072 L
130 211.416 L
130 208.932 L
130 206.448 L
130 203.964 L
130 203.136 L
130 202.308 L
130 201.48 L
130 201.48 L
130 200.652 L
130 198.997 L
130 198.169 L
130 198.169 L
130 197.341 L
130 194.029 L
130 190.717 L
130 189.889 L
130 189.061 L
130 189.061 L
130 188.233 L
130 186.577 L
130 184.922 L
130 181.61 L
130 179.954 L
130 179.954 L
130 179.126 L
130 175.814 L
130 174.986 L
130 170.847 L
130 170.847 L
130 170.847 L
130 168.363 L
130 167.535 L
130 166.707 L
130 165.879 L
130 165.051 L
130 163.395 L
130 163.395 L
130 160.911 L
130 160.911 L
130 160.083 L
130 160.083 L
130 160.083 L
130 160.083 L
130 159.256 L
130 157.6 L
130 156.772 L
130 156.772 L
130 156.772 L
130 155.944 L
130 155.944 L
130 155.116 L
130 154.288 L
130 153.46 L
130 152.632 L
130 152.632 L
130 150.976 L
130 150.148 L
130 150.148 L
130 149.32 L
130 149.32 L
130 149.32 L
130 149.32 L
130 146.836 L
130 146.009 L
130 144.353 L
130 143.525 L
130 143.525 L
130 142.697 L
130 141.869 L
130 139.385 L
130 139.385 L
130 139.385 L
130 139.385 L
130 138.557 L
130 136.901 L
130 134.417 L
130 133.589 L
130 132.762 L
130 132.762 L
130 131.106 L
130 131.106 L
130 131.106 L
130 130.278 L
130 130.278 L
130 129.45 L
130 127.794 L
130 125.31 L
130 123.654 L
130 122.826 L
130 121.998 L
130 121.17 L
130 119.514 L
130 118.687 L
130 117.031 L
130 116.203 L
130 116.203 L
130 116.203 L
130 115.375 L
130 115.375 L
130 115.375 L
130 113.719 L
130 112.063 L
130 109.579 L
130 108.751 L
130 107.095 L
130 106.267 L
130 106.267 L
130 106.267 L
130 104.612 L
130 104.612 L
130 104.612 L
130 104.612 L
130 104.612 L
130 104.612 L
130 102.956 L
130 102.956 L
130 102.128 L
130 102.128 L
130 101.3 L
130 101.3 L
130 101.3 L
130 101.3 L
130 100.472 L
130 100.472 L
130 100.472 L
130 100.472 L
130 100.472 L
130 100.472 L
130 98.816 L
130 97.988 L
130 97.988 L
130 97.988 L
130 95.504 L
130 94.676 L
130 93.848 L
130 93.848 L
130 93.848 L
130 93.02 L
130 93.02 L
130 93.02 L
130 93.02 L
130 92.192 L
130 92.192 L
130 91.365 L
130 91.365 L
130 91.365 L
130 90.537 L
130 89.709 L
130 89.709 L
130 87.225 L
130 87.225 L
130 87.225 L
130 87.225 L
130 87.225 L
130 86.397 L
130 85.569 L
130 84.741 L
130 84.741 L
130 83.913 L
130 83.913 L
130 83.913 L
130 83.085 L
130 81.429 L
130 79.773 L
130 79.773 L
130 78.945 L
130 78.118 L
130 77.29 L
130 76.462 L
130 76.462 L
130 74.806 L
130 74.806 L
130 74.806 L
130 74.806 L
130 74.806 L
130 74.806 L
130 74.806 L
130 74.806 L
130 74.806 L
130 73.978 L
130 73.978 L
130 73.15 L
130 71.494 L
130 71.494 L
130 70.666 L
130 70.666 L
130 69.01 L
130 69.01 L
130 68.182 L
130 68.182 L
130 68.182 L
130 66.526 L
130 66.526 L
130 65.698 L
130 65.698 L
130 65.698 L
130 64.871 L
130 64.871 L
130 64.871 L
130 64.043 L
130 64.043 L
130 64.043 L
130 63.215 L
130 63.215 L
130 62.387 L
130 62.387 L
130 62.387 L
130 62.387 L
130 61.559 L
130 60.731 L
130 60.731 L
130 60.731 L
130 60.731 L
130 60.731 L
130 60.731 L
130 59.903 L
130 59.903 L
130 59.903 L
130 59.903 L
130 59.903 L
130.013 59.903 L
130.013 59.075 L
130.013 59.075 L
130.013 59.075 L
130.013 59.075 L
130.013 59.075 L
130.013 59.075 L
130.013 59.075 L
130.013 59.075 L
130.025 59.075 L
130.025 58.247 L
130.025 57.419 L
130.025 56.591 L
130.025 55.763 L
130.025 55.763 L
130.025 55.763 L
130.025 55.763 L
130.025 55.763 L
130.025 55.763 L
130.025 55.763 L
130.025 55.763 L
130.025 54.935 L
130.025 54.935 L
130.051 54.935 L
130.064 54.935 L
130.076 54.935 L
130.102 54.935 L
130.102 54.935 L
130.115 54.107 L
130.127 54.107 L
130.127 53.279 L
130.127 53.279 L
130.127 53.279 L
130.14 53.279 L
130.14 53.279 L
130.166 52.451 L
130.178 52.451 L
130.191 52.451 L
130.191 52.451 L
130.242 51.624 L
130.242 51.624 L
130.242 51.624 L
130.242 51.624 L
130.268 51.624 L
130.28 51.624 L
130.306 51.624 L
130.318 51.624 L
130.357 51.624 L
130.369 51.624 L
130.395 51.624 L
130.408 50.796 L
130.433 50.796 L
130.484 50.796 L
130.573 50.796 L
130.624 50.796 L
130.675 50.796 L
130.739 50.796 L
130.879 50.796 L
130.968 50.796 L
131.032 50.796 L
131.108 50.796 L
131.172 50.796 L
131.287 49.968 L
131.439 49.968 L
131.516 49.968 L
131.669 49.968 L
131.847 49.968 L
131.962 49.968 L
132.089 49.968 L
132.28 49.14 L
132.369 49.14 L
132.51 49.14 L
132.637 49.14 L
132.841 49.14 L
132.943 49.14 L
133.159 49.14 L
133.35 48.312 L
133.656 48.312 L
133.898 48.312 L
134.293 48.312 L
134.395 48.312 L
134.739 48.312 L
134.994 48.312 L
135.452 48.312 L
135.847 48.312 L
136.204 48.312 L
136.535 46.656 L
137.197 46.656 L
137.707 46.656 L
138.191 46.656 L
138.764 46.656 L
139.172 46.656 L
139.592 46.656 L
140.306 46.656 L
140.943 46.656 L
141.643 46.656 L
142.318 46.656 L
143.35 46.656 L
144.013 46.656 L
144.853 46.656 L
145.745 46.656 L
146.701 46.656 L
147.732 46.656 L
149.134 46.656 L
149.949 46.656 L
151.21 46.656 L
152.649 46.656 L
154.076 46.656 L
155.758 46.656 L
157.325 46.656 L
159.108 46.656 L
160.051 46.656 L
161.605 46.656 L
163.554 46.656 L
165.146 46.656 L
167.312 46.656 L
169.248 46.656 L
170.458 46.656 L
172.866 45 L
174.981 45 L
177.592 45 L
179.91 45 L
182.56 45 L
183.847 45 L
186.611 45 L
189.477 45 L
192.254 45 L
195.91 45 L
199.006 45 L
200.738 45 L
204.331 45 L
207.796 45 L
211.248 45 L
215.069 45 L
219.184 45 L
221.337 45 L
225.999 45 L
229.986 45 L
235.107 45 L
239.171 45 L
244.572 45 L
247.044 45 L
251.706 45 L
256.012 45 L
260.751 45 L
266.368 45 L
271.833 45 L
274.559 45 L
280.101 45 L
286.05 45 L
292.19 45 L
298.636 45 L
304.597 45 L
311.846 45 L
316.011 45 L
322.342 45 L
328.941 45 L
335.476 45 L
341.973 45 L
349.96 45 L
354.304 45 L
362.024 45 L
369.259 45 L
376.673 45 L
384.737 45 L
392.125 45 L
396.546 45 L
404.571 45 L
411.73 45 L
419.666 45 L
427.437 45 L
435.997 45 L
441.068 45 L
449.437 45 L
457.832 45 L
466.8 45 L
474.086 45 L
482.761 45 L
487.628 45 L
496.163 45 L
503.844 45 L
512.825 45 L
521.283 45 L
529.946 45 L
535.665 45 L
544.761 45 L
552.175 45 L
560.684 45 L
569.703 45 L
578.302 45 L
582.722 45 L
591.601 45 L
599.983 45 L
608.608 45 L
615.894 45 L
624.162 45 L
632.2 45 L
637.754 45 L
645.321 45 L
653.422 45 L
661.015 45 L
668.263 45 L
675.741 45 L
680.658 45 L
687.55 45 L
695.014 45 L
701.448 45 L
708.161 45 L
714.581 45 L
719.626 45 L
725.575 45 L
732.403 45 L
738.428 45 L
745.052 45 L
751.549 45 L
755.664 45 L
760.874 45 L
766.428 45 L
772.084 45 L
777.523 45 L
782.606 45 L
786.071 45 L
791.358 45 L
795.867 45 L
800.02 45 L
804.784 45 L
809.243 45 L
812.224 45 L
816.619 45 L
820.593 45 L
824.58 45 L
828.478 45 L
832.16 45 L
834.873 45 L
838.529 45 L
841.816 45 L
844.809 45 L
847.701 45 L
850.72 45 L
853.663 45 L
855.357 45 L
857.688 45 L
859.727 45 L
861.879 45 L
864.325 45 L
866.644 45 L
867.981 45 L
869.675 45 L
871.612 45 L
873.459 45 L
875.446 45 L
877.089 45 L
878.108 45 L
879.688 45 L
881.128 45 L
882.516 45 L
883.675 45 L
884.924 45 L
885.764 45 L
886.924 45 L
887.841 45 L
888.911 45 L
889.917 45 L
890.924 45 L
891.663 45 L
892.414 45 L
893.038 45 L
893.841 45 L
894.542 45 L
895.306 45 L
895.866 45 L
896.325 45 L
897 45 L
897.586 45 L
897.981 45 L
898.49 45 L
898.834 45 L
898.936 45 L
899.51 45 L
900.032 45 L
900.325 45 L
900.745 45 L
901.089 45 L
901.268 45 L
901.548 45 L
901.803 45 L
902.147 45 L
902.363 45 L
902.503 45 L
902.618 45 L
902.732 45 L
902.847 45 L
902.962 45 L
903.14 45 L
903.28 45 L
903.344 45 L
903.459 45 L
903.56 45 L
903.688 45 L
903.854 45 L
903.917 45 L
903.968 45 L
904.019 45 L
904.159 45 L
904.21 45 L
904.236 45 L
904.299 45 L
904.376 45 L
904.427 45 L
904.465 45 L
904.541 45 L
904.567 45 L
904.592 45 L
904.631 45 L
904.643 45 L
904.682 45 L
904.72 45 L
904.732 45 L
904.732 45 L
904.771 45 L
904.783 45 L
904.834 45 L
904.847 45 L
904.885 45 L
904.898 45 L
904.898 45 L
904.911 45 L
904.924 45 L
904.924 45 L
904.936 45 L
904.936 45 L
904.949 45 L
904.962 45 L
904.962 45 L
904.962 45 L
904.962 45 L
904.974 45 L
904.974 45 L
904.974 45 L
904.987 45 L
904.987 45 L
904.987 45 L
904.987 45 L
904.987 45 L
904.987 45 L
904.987 45 L
904.987 45 L
904.987 45 L
904.987 45 L
904.987 45 L
904.987 45 L
904.987 45 L
904.987 45 L
904.987 45 L
904.987 45 L
904.987 45 L
904.987 45 L
904.987 45 L
904.987 45 L
904.987 45 L
905 45 L
S
GR
GS
[1 0 0 1 440 224.82001] CT
/Helvetica 24 F
GS
[1 0 0 1 0 0] CT
0 8.5 moveto 
1 -1 scale
(EER line) t 
GR
GR
GS
[10 6] 0 setdash
2 LJ
0.5 LW
N
905 531 M
130 45 L
S
GR
GS
1 GC
N
897 523 M
897 401 L
226 401 L
226 523 L
cp
f
GR
GS
[1 0 0 1 263 417.5679] CT
/Helvetica 24 F
GS
[1 0 0 1 0 0] CT
0 8.5 moveto 
1 -1 scale
(original OSIRIS, EER = 18.73%) t 
GR
GR
GS
0 0 1 RC
1 LJ
2 LW
N
230 417.568 M
260 417.568 L
S
GR
GS
[1 0 0 1 263 447.1893] CT
/Helvetica 24 F
GS
[1 0 0 1 0 0] CT
0 8.5 moveto 
1 -1 scale
(IriCore, EER = 6.31%) t 
GR
GR
GS
0 1 0 RC
1 LJ
2 LW
N
230 447.189 M
260 447.189 L
S
GR
GS
[1 0 0 1 263 476.8107] CT
/Helvetica 24 F
GS
[1 0 0 1 0 0] CT
0 8.5 moveto 
1 -1 scale
(OSIRIS with new segmentation, EER = 0.68%) t 
GR
GR
GS
1 LJ
2 LW
N
230 476.811 M
260 476.811 L
S
GR
GS
[1 0 0 1 263 506.4321] CT
/Helvetica 24 F
GS
[1 0 0 1 0 0] CT
0 8.5 moveto 
1 -1 scale
(OSIRIS with new segmentation and filter set, EER = 0.69%) t 
GR
GR
GS
1 0 0 RC
1 LJ
2 LW
N
230 506.432 M
260 506.432 L
S
GR
GS
0.149 GC
10.0 ML
0.5 LW
N
226 523 M
226 401 L
897 401 L
897 523 L
cp
S
GR
%%Trailer
%%Pages: 1
%%EOF
