%!PS-Adobe-3.0 EPSF-3.0
%%Creator: (MATLAB, The Mathworks, Inc. Version 9.5.0.1049112 \(R2018b\) Update 3. Operating System: Mac OS X)
%%Title: ./ROCs_postmortem_new_110_closeup.eps
%%CreationDate: 2019-03-12T15:42:01
%%Pages: (atend)
%%BoundingBox:    48     5   927   587
%%LanguageLevel: 3
%%EndComments
%%BeginProlog
%%BeginResource: procset (Apache XML Graphics Std ProcSet) 1.2 0
%%Version: 1.2 0
%%Copyright: (Copyright 2001-2003,2010 The Apache Software Foundation. License terms: http://www.apache.org/licenses/LICENSE-2.0)
/bd{bind def}bind def
/ld{load def}bd
/GR/grestore ld
/GS/gsave ld
/RM/rmoveto ld
/C/curveto ld
/t/show ld
/L/lineto ld
/ML/setmiterlimit ld
/CT/concat ld
/f/fill ld
/N/newpath ld
/S/stroke ld
/CC/setcmykcolor ld
/A/ashow ld
/cp/closepath ld
/RC/setrgbcolor ld
/LJ/setlinejoin ld
/GC/setgray ld
/LW/setlinewidth ld
/M/moveto ld
/re {4 2 roll M
1 index 0 rlineto
0 exch rlineto
neg 0 rlineto
cp } bd
/_ctm matrix def
/_tm matrix def
/BT { _ctm currentmatrix pop matrix _tm copy pop 0 0 moveto } bd
/ET { _ctm setmatrix } bd
/iTm { _ctm setmatrix _tm concat } bd
/Tm { _tm astore pop iTm 0 0 moveto } bd
/ux 0.0 def
/uy 0.0 def
/F {
  /Tp exch def
  /Tf exch def
  Tf findfont Tp scalefont setfont
  /cf Tf def  /cs Tp def
} bd
/ULS {currentpoint /uy exch def /ux exch def} bd
/ULE {
  /Tcx currentpoint pop def
  gsave
  newpath
  cf findfont cs scalefont dup
  /FontMatrix get 0 get /Ts exch def /FontInfo get dup
  /UnderlinePosition get Ts mul /To exch def
  /UnderlineThickness get Ts mul /Tt exch def
  ux uy To add moveto  Tcx uy To add lineto
  Tt setlinewidth stroke
  grestore
} bd
/OLE {
  /Tcx currentpoint pop def
  gsave
  newpath
  cf findfont cs scalefont dup
  /FontMatrix get 0 get /Ts exch def /FontInfo get dup
  /UnderlinePosition get Ts mul /To exch def
  /UnderlineThickness get Ts mul /Tt exch def
  ux uy To add cs add moveto Tcx uy To add cs add lineto
  Tt setlinewidth stroke
  grestore
} bd
/SOE {
  /Tcx currentpoint pop def
  gsave
  newpath
  cf findfont cs scalefont dup
  /FontMatrix get 0 get /Ts exch def /FontInfo get dup
  /UnderlinePosition get Ts mul /To exch def
  /UnderlineThickness get Ts mul /Tt exch def
  ux uy To add cs 10 mul 26 idiv add moveto Tcx uy To add cs 10 mul 26 idiv add lineto
  Tt setlinewidth stroke
  grestore
} bd
/QT {
/Y22 exch store
/X22 exch store
/Y21 exch store
/X21 exch store
currentpoint
/Y21 load 2 mul add 3 div exch
/X21 load 2 mul add 3 div exch
/X21 load 2 mul /X22 load add 3 div
/Y21 load 2 mul /Y22 load add 3 div
/X22 load /Y22 load curveto
} bd
/SSPD {
dup length /d exch dict def
{
/v exch def
/k exch def
currentpagedevice k known {
/cpdv currentpagedevice k get def
v cpdv ne {
/upd false def
/nullv v type /nulltype eq def
/nullcpdv cpdv type /nulltype eq def
nullv nullcpdv or
{
/upd true def
} {
/sametype v type cpdv type eq def
sametype {
v type /arraytype eq {
/vlen v length def
/cpdvlen cpdv length def
vlen cpdvlen eq {
0 1 vlen 1 sub {
/i exch def
/obj v i get def
/cpdobj cpdv i get def
obj cpdobj ne {
/upd true def
exit
} if
} for
} {
/upd true def
} ifelse
} {
v type /dicttype eq {
v {
/dv exch def
/dk exch def
/cpddv cpdv dk get def
dv cpddv ne {
/upd true def
exit
} if
} forall
} {
/upd true def
} ifelse
} ifelse
} if
} ifelse
upd true eq {
d k v put
} if
} if
} if
} forall
d length 0 gt {
d setpagedevice
} if
} bd
/RE { % /NewFontName [NewEncodingArray] /FontName RE -
  findfont dup length dict begin
  {
    1 index /FID ne
    {def} {pop pop} ifelse
  } forall
  /Encoding exch def
  /FontName 1 index def
  currentdict definefont pop
  end
} bind def
%%EndResource
%%BeginResource: procset (Apache XML Graphics EPS ProcSet) 1.0 0
%%Version: 1.0 0
%%Copyright: (Copyright 2002-2003 The Apache Software Foundation. License terms: http://www.apache.org/licenses/LICENSE-2.0)
/BeginEPSF { %def
/b4_Inc_state save def         % Save state for cleanup
/dict_count countdictstack def % Count objects on dict stack
/op_count count 1 sub def      % Count objects on operand stack
userdict begin                 % Push userdict on dict stack
/showpage { } def              % Redefine showpage, { } = null proc
0 setgray 0 setlinecap         % Prepare graphics state
1 setlinewidth 0 setlinejoin
10 setmiterlimit [ ] 0 setdash newpath
/languagelevel where           % If level not equal to 1 then
{pop languagelevel             % set strokeadjust and
1 ne                           % overprint to their defaults.
{false setstrokeadjust false setoverprint
} if
} if
} bd
/EndEPSF { %def
count op_count sub {pop} repeat            % Clean up stacks
countdictstack dict_count sub {end} repeat
b4_Inc_state restore
} bd
%%EndResource
%FOPBeginFontDict
%%IncludeResource: font Courier-Oblique
%%IncludeResource: font Courier-BoldOblique
%%IncludeResource: font Courier-Bold
%%IncludeResource: font ZapfDingbats
%%IncludeResource: font Symbol
%%IncludeResource: font Helvetica
%%IncludeResource: font Helvetica-Oblique
%%IncludeResource: font Helvetica-Bold
%%IncludeResource: font Helvetica-BoldOblique
%%IncludeResource: font Times-Roman
%%IncludeResource: font Times-Italic
%%IncludeResource: font Times-Bold
%%IncludeResource: font Times-BoldItalic
%%IncludeResource: font Courier
%FOPEndFontDict
%%BeginResource: encoding WinAnsiEncoding
/WinAnsiEncoding [
/.notdef /.notdef /.notdef /.notdef /.notdef
/.notdef /.notdef /.notdef /.notdef /.notdef
/.notdef /.notdef /.notdef /.notdef /.notdef
/.notdef /.notdef /.notdef /.notdef /.notdef
/.notdef /.notdef /.notdef /.notdef /.notdef
/.notdef /.notdef /.notdef /.notdef /.notdef
/.notdef /.notdef /space /exclam /quotedbl
/numbersign /dollar /percent /ampersand /quotesingle
/parenleft /parenright /asterisk /plus /comma
/hyphen /period /slash /zero /one
/two /three /four /five /six
/seven /eight /nine /colon /semicolon
/less /equal /greater /question /at
/A /B /C /D /E
/F /G /H /I /J
/K /L /M /N /O
/P /Q /R /S /T
/U /V /W /X /Y
/Z /bracketleft /backslash /bracketright /asciicircum
/underscore /quoteleft /a /b /c
/d /e /f /g /h
/i /j /k /l /m
/n /o /p /q /r
/s /t /u /v /w
/x /y /z /braceleft /bar
/braceright /asciitilde /bullet /Euro /bullet
/quotesinglbase /florin /quotedblbase /ellipsis /dagger
/daggerdbl /circumflex /perthousand /Scaron /guilsinglleft
/OE /bullet /Zcaron /bullet /bullet
/quoteleft /quoteright /quotedblleft /quotedblright /bullet
/endash /emdash /asciitilde /trademark /scaron
/guilsinglright /oe /bullet /zcaron /Ydieresis
/space /exclamdown /cent /sterling /currency
/yen /brokenbar /section /dieresis /copyright
/ordfeminine /guillemotleft /logicalnot /sfthyphen /registered
/macron /degree /plusminus /twosuperior /threesuperior
/acute /mu /paragraph /middot /cedilla
/onesuperior /ordmasculine /guillemotright /onequarter /onehalf
/threequarters /questiondown /Agrave /Aacute /Acircumflex
/Atilde /Adieresis /Aring /AE /Ccedilla
/Egrave /Eacute /Ecircumflex /Edieresis /Igrave
/Iacute /Icircumflex /Idieresis /Eth /Ntilde
/Ograve /Oacute /Ocircumflex /Otilde /Odieresis
/multiply /Oslash /Ugrave /Uacute /Ucircumflex
/Udieresis /Yacute /Thorn /germandbls /agrave
/aacute /acircumflex /atilde /adieresis /aring
/ae /ccedilla /egrave /eacute /ecircumflex
/edieresis /igrave /iacute /icircumflex /idieresis
/eth /ntilde /ograve /oacute /ocircumflex
/otilde /odieresis /divide /oslash /ugrave
/uacute /ucircumflex /udieresis /yacute /thorn
/ydieresis
] def
%%EndResource
%FOPBeginFontReencode
/Courier-Oblique findfont
dup length dict begin
  {1 index /FID ne {def} {pop pop} ifelse} forall
  /Encoding WinAnsiEncoding def
  currentdict
end
/Courier-Oblique exch definefont pop
/Courier-BoldOblique findfont
dup length dict begin
  {1 index /FID ne {def} {pop pop} ifelse} forall
  /Encoding WinAnsiEncoding def
  currentdict
end
/Courier-BoldOblique exch definefont pop
/Courier-Bold findfont
dup length dict begin
  {1 index /FID ne {def} {pop pop} ifelse} forall
  /Encoding WinAnsiEncoding def
  currentdict
end
/Courier-Bold exch definefont pop
/Helvetica findfont
dup length dict begin
  {1 index /FID ne {def} {pop pop} ifelse} forall
  /Encoding WinAnsiEncoding def
  currentdict
end
/Helvetica exch definefont pop
/Helvetica-Oblique findfont
dup length dict begin
  {1 index /FID ne {def} {pop pop} ifelse} forall
  /Encoding WinAnsiEncoding def
  currentdict
end
/Helvetica-Oblique exch definefont pop
/Helvetica-Bold findfont
dup length dict begin
  {1 index /FID ne {def} {pop pop} ifelse} forall
  /Encoding WinAnsiEncoding def
  currentdict
end
/Helvetica-Bold exch definefont pop
/Helvetica-BoldOblique findfont
dup length dict begin
  {1 index /FID ne {def} {pop pop} ifelse} forall
  /Encoding WinAnsiEncoding def
  currentdict
end
/Helvetica-BoldOblique exch definefont pop
/Times-Roman findfont
dup length dict begin
  {1 index /FID ne {def} {pop pop} ifelse} forall
  /Encoding WinAnsiEncoding def
  currentdict
end
/Times-Roman exch definefont pop
/Times-Italic findfont
dup length dict begin
  {1 index /FID ne {def} {pop pop} ifelse} forall
  /Encoding WinAnsiEncoding def
  currentdict
end
/Times-Italic exch definefont pop
/Times-Bold findfont
dup length dict begin
  {1 index /FID ne {def} {pop pop} ifelse} forall
  /Encoding WinAnsiEncoding def
  currentdict
end
/Times-Bold exch definefont pop
/Times-BoldItalic findfont
dup length dict begin
  {1 index /FID ne {def} {pop pop} ifelse} forall
  /Encoding WinAnsiEncoding def
  currentdict
end
/Times-BoldItalic exch definefont pop
/Courier findfont
dup length dict begin
  {1 index /FID ne {def} {pop pop} ifelse} forall
  /Encoding WinAnsiEncoding def
  currentdict
end
/Courier exch definefont pop
%FOPEndFontReencode
%%EndProlog
%%Page: 1 1
%%PageBoundingBox: 0 0 1000 600
%%BeginPageSetup
[1 0 0 -1 0 600] CT
%%EndPageSetup
GS
1 GC
N
0 0 1000 600 re
f
GR
GS
1 GC
N
0 0 1000 600 re
f
GR
GS
1 GC
N
130 531 M
905 531 L
905 45 L
130 45 L
cp
f
GR
GS
0.873 GC
1 LJ
0.5 LW
N
130 531 M
130 45 L
S
GR
GS
0.873 GC
1 LJ
0.5 LW
N
285 531 M
285 45 L
S
GR
GS
0.873 GC
1 LJ
0.5 LW
N
440 531 M
440 45 L
S
GR
GS
0.873 GC
1 LJ
0.5 LW
N
595 531 M
595 45 L
S
GR
GS
0.873 GC
1 LJ
0.5 LW
N
750 531 M
750 45 L
S
GR
GS
0.873 GC
1 LJ
0.5 LW
N
905 531 M
905 45 L
S
GR
GS
0.873 GC
1 LJ
0.5 LW
N
905 531 M
130 531 L
S
GR
GS
0.873 GC
1 LJ
0.5 LW
N
905 470.25 M
130 470.25 L
S
GR
GS
0.873 GC
1 LJ
0.5 LW
N
905 409.5 M
130 409.5 L
S
GR
GS
0.873 GC
1 LJ
0.5 LW
N
905 348.75 M
130 348.75 L
S
GR
GS
0.873 GC
1 LJ
0.5 LW
N
905 288 M
130 288 L
S
GR
GS
0.873 GC
1 LJ
0.5 LW
N
905 227.25 M
130 227.25 L
S
GR
GS
0.873 GC
1 LJ
0.5 LW
N
905 166.5 M
130 166.5 L
S
GR
GS
0.873 GC
1 LJ
0.5 LW
N
905 105.75 M
130 105.75 L
S
GR
GS
0.873 GC
1 LJ
0.5 LW
N
905 45 M
130 45 L
S
GR
GS
0.149 GC
2 setlinecap
1 LJ
0.5 LW
N
130 531 M
905 531 L
S
GR
GS
0.149 GC
2 setlinecap
1 LJ
0.5 LW
N
130 45 M
905 45 L
S
GR
GS
0.149 GC
2 setlinecap
1 LJ
0.5 LW
N
130 531 M
130 523.25 L
S
GR
GS
0.149 GC
2 setlinecap
1 LJ
0.5 LW
N
285 531 M
285 523.25 L
S
GR
GS
0.149 GC
2 setlinecap
1 LJ
0.5 LW
N
440 531 M
440 523.25 L
S
GR
GS
0.149 GC
2 setlinecap
1 LJ
0.5 LW
N
595 531 M
595 523.25 L
S
GR
GS
0.149 GC
2 setlinecap
1 LJ
0.5 LW
N
750 531 M
750 523.25 L
S
GR
GS
0.149 GC
2 setlinecap
1 LJ
0.5 LW
N
905 531 M
905 523.25 L
S
GR
GS
0.149 GC
2 setlinecap
1 LJ
0.5 LW
N
130 45 M
130 52.75 L
S
GR
GS
0.149 GC
2 setlinecap
1 LJ
0.5 LW
N
285 45 M
285 52.75 L
S
GR
GS
0.149 GC
2 setlinecap
1 LJ
0.5 LW
N
440 45 M
440 52.75 L
S
GR
GS
0.149 GC
2 setlinecap
1 LJ
0.5 LW
N
595 45 M
595 52.75 L
S
GR
GS
0.149 GC
2 setlinecap
1 LJ
0.5 LW
N
750 45 M
750 52.75 L
S
GR
GS
0.149 GC
2 setlinecap
1 LJ
0.5 LW
N
905 45 M
905 52.75 L
S
GR
GS
[1 0 0 1 130 537.79999] CT
0.149 GC
/Helvetica 24 F
GS
[1 0 0 1 0 0] CT
-7 23 moveto 
1 -1 scale
(0) t 
GR
GR
GS
[1 0 0 1 285 537.79999] CT
0.149 GC
/Helvetica 24 F
GS
[1 0 0 1 0 0] CT
-23.5 23 moveto 
1 -1 scale
(0.01) t 
GR
GR
GS
[1 0 0 1 440 537.79999] CT
0.149 GC
/Helvetica 24 F
GS
[1 0 0 1 0 0] CT
-23.5 23 moveto 
1 -1 scale
(0.02) t 
GR
GR
GS
[1 0 0 1 595 537.79999] CT
0.149 GC
/Helvetica 24 F
GS
[1 0 0 1 0 0] CT
-23.5 23 moveto 
1 -1 scale
(0.03) t 
GR
GR
GS
[1 0 0 1 750 537.79999] CT
0.149 GC
/Helvetica 24 F
GS
[1 0 0 1 0 0] CT
-23.5 23 moveto 
1 -1 scale
(0.04) t 
GR
GR
GS
[1 0 0 1 905 537.79999] CT
0.149 GC
/Helvetica 24 F
GS
[1 0 0 1 0 0] CT
-23.5 23 moveto 
1 -1 scale
(0.05) t 
GR
GR
GS
[1 0 0 1 517.50037 567.79993] CT
0.149 GC
/Helvetica 26.4 F
GS
[1 0 0 1 0 0] CT
-103.5 26 moveto 
1 -1 scale
(False Match Rate) t 
GR
GR
GS
0.149 GC
2 setlinecap
1 LJ
0.5 LW
N
130 531 M
130 45 L
S
GR
GS
0.149 GC
2 setlinecap
1 LJ
0.5 LW
N
905 531 M
905 45 L
S
GR
GS
0.149 GC
2 setlinecap
1 LJ
0.5 LW
N
130 531 M
137.75 531 L
S
GR
GS
0.149 GC
2 setlinecap
1 LJ
0.5 LW
N
130 470.25 M
137.75 470.25 L
S
GR
GS
0.149 GC
2 setlinecap
1 LJ
0.5 LW
N
130 409.5 M
137.75 409.5 L
S
GR
GS
0.149 GC
2 setlinecap
1 LJ
0.5 LW
N
130 348.75 M
137.75 348.75 L
S
GR
GS
0.149 GC
2 setlinecap
1 LJ
0.5 LW
N
130 288 M
137.75 288 L
S
GR
GS
0.149 GC
2 setlinecap
1 LJ
0.5 LW
N
130 227.25 M
137.75 227.25 L
S
GR
GS
0.149 GC
2 setlinecap
1 LJ
0.5 LW
N
130 166.5 M
137.75 166.5 L
S
GR
GS
0.149 GC
2 setlinecap
1 LJ
0.5 LW
N
130 105.75 M
137.75 105.75 L
S
GR
GS
0.149 GC
2 setlinecap
1 LJ
0.5 LW
N
130 45 M
137.75 45 L
S
GR
GS
0.149 GC
2 setlinecap
1 LJ
0.5 LW
N
905 531 M
897.25 531 L
S
GR
GS
0.149 GC
2 setlinecap
1 LJ
0.5 LW
N
905 470.25 M
897.25 470.25 L
S
GR
GS
0.149 GC
2 setlinecap
1 LJ
0.5 LW
N
905 409.5 M
897.25 409.5 L
S
GR
GS
0.149 GC
2 setlinecap
1 LJ
0.5 LW
N
905 348.75 M
897.25 348.75 L
S
GR
GS
0.149 GC
2 setlinecap
1 LJ
0.5 LW
N
905 288 M
897.25 288 L
S
GR
GS
0.149 GC
2 setlinecap
1 LJ
0.5 LW
N
905 227.25 M
897.25 227.25 L
S
GR
GS
0.149 GC
2 setlinecap
1 LJ
0.5 LW
N
905 166.5 M
897.25 166.5 L
S
GR
GS
0.149 GC
2 setlinecap
1 LJ
0.5 LW
N
905 105.75 M
897.25 105.75 L
S
GR
GS
0.149 GC
2 setlinecap
1 LJ
0.5 LW
N
905 45 M
897.25 45 L
S
GR
GS
[1 0 0 1 123.2 531] CT
0.149 GC
/Helvetica 24 F
GS
[1 0 0 1 0 0] CT
-47 8.5 moveto 
1 -1 scale
(0.55) t 
GR
GR
GS
[1 0 0 1 123.2 470.24997] CT
0.149 GC
/Helvetica 24 F
GS
[1 0 0 1 0 0] CT
-34 8.5 moveto 
1 -1 scale
(0.6) t 
GR
GR
GS
[1 0 0 1 123.2 409.50003] CT
0.149 GC
/Helvetica 24 F
GS
[1 0 0 1 0 0] CT
-47 8.5 moveto 
1 -1 scale
(0.65) t 
GR
GR
GS
[1 0 0 1 123.2 348.75] CT
0.149 GC
/Helvetica 24 F
GS
[1 0 0 1 0 0] CT
-34 8.5 moveto 
1 -1 scale
(0.7) t 
GR
GR
GS
[1 0 0 1 123.2 288] CT
0.149 GC
/Helvetica 24 F
GS
[1 0 0 1 0 0] CT
-47 8.5 moveto 
1 -1 scale
(0.75) t 
GR
GR
GS
[1 0 0 1 123.2 227.24998] CT
0.149 GC
/Helvetica 24 F
GS
[1 0 0 1 0 0] CT
-34 8.5 moveto 
1 -1 scale
(0.8) t 
GR
GR
GS
[1 0 0 1 123.2 166.49997] CT
0.149 GC
/Helvetica 24 F
GS
[1 0 0 1 0 0] CT
-47 8.5 moveto 
1 -1 scale
(0.85) t 
GR
GR
GS
[1 0 0 1 123.2 105.75003] CT
0.149 GC
/Helvetica 24 F
GS
[1 0 0 1 0 0] CT
-34 8.5 moveto 
1 -1 scale
(0.9) t 
GR
GR
GS
[1 0 0 1 123.2 45.00002] CT
0.149 GC
/Helvetica 24 F
GS
[1 0 0 1 0 0] CT
-47 8.5 moveto 
1 -1 scale
(0.95) t 
GR
GR
GS
[0 -1 1 0 73.2 287.99979] CT
0.149 GC
/Helvetica 26.4 F
GS
[1 0 0 1 0 0] CT
-153 -6 moveto 
1 -1 scale
(1 - False Non-Match Rate) t 
GR
GR
GS
[1 0 0 1 517.50049 38.40005] CT
/Helvetica-Bold 26.4 F
GS
[1 0 0 1 0 0] CT
-287 -6 moveto 
1 -1 scale
(Data acquired less than 110 hours after death) t 
GR
GR
GS
0 0 1 RC
1 LJ
2 LW
N
244.694 531.058 M
248.777 527.679 L
254.713 524.995 L
264.466 520.299 L
274.112 511.913 L
283.599 505.204 L
291.867 500.508 L
302.521 495.811 L
315.718 490.78 L
327.75 485.077 L
342.802 476.355 L
357.325 470.317 L
375.663 466.292 L
393.419 460.254 L
413.401 455.557 L
433.223 451.196 L
455.325 443.146 L
479.706 438.785 L
507.426 435.095 L
536.206 433.418 L
568.007 431.405 L
602.67 425.367 L
638.764 421.006 L
680.371 415.303 L
719.062 407.252 L
762.894 403.563 L
807.999 399.537 L
858.085 395.847 L
905.092 392.796 L
S
GR
GS
0 1 0 RC
1 LJ
2 LW
N
130.795 531.058 M
130.795 528.35 L
130.795 522.983 L
130.795 516.609 L
130.795 510.907 L
130.848 504.533 L
130.901 498.159 L
130.954 492.121 L
131.06 485.748 L
131.113 480.716 L
131.272 476.691 L
131.325 473.001 L
131.537 466.627 L
131.802 462.937 L
132.014 455.893 L
132.332 448.848 L
132.438 443.816 L
132.756 438.785 L
132.915 433.418 L
132.968 427.379 L
133.233 422.683 L
133.498 417.316 L
133.922 413.291 L
134.399 407.923 L
134.77 404.569 L
134.982 402.221 L
135.565 396.854 L
136.572 393.499 L
137.314 390.145 L
138.003 385.113 L
138.745 381.758 L
140.282 374.043 L
141.66 370.018 L
142.879 366.328 L
144.575 362.638 L
146.749 356.935 L
148.074 352.91 L
150.088 346.201 L
152.579 341.504 L
155.335 337.479 L
158.621 334.46 L
161.801 331.776 L
165.988 328.757 L
170.334 323.39 L
174.786 319.7 L
179.186 317.016 L
184.91 312.991 L
191.111 307.624 L
197.736 304.605 L
204.786 301.25 L
212.736 299.238 L
222.382 292.864 L
232.876 287.497 L
242.947 284.813 L
254.66 279.781 L
266.533 277.433 L
277.398 273.408 L
291.178 268.712 L
306.867 265.693 L
323.51 262.338 L
339.622 258.984 L
358.279 255.294 L
376.617 250.933 L
397.871 247.914 L
420.026 245.566 L
442.711 243.888 L
466.19 241.876 L
493.168 239.192 L
517.655 236.844 L
547.919 233.825 L
575.003 231.141 L
606.062 228.458 L
636.061 226.445 L
669.346 225.103 L
701.253 223.09 L
731.464 221.413 L
762.258 220.071 L
795.172 217.388 L
828.033 216.046 L
859.411 214.704 L
893.226 213.027 L
905.092 212.362 L
S
GR
GS
1 LJ
2 LW
N
130.318 531.058 M
130.318 529.692 L
130.318 524.995 L
130.371 522.312 L
130.424 516.609 L
130.477 513.255 L
130.477 509.565 L
130.477 506.21 L
130.477 503.527 L
130.477 500.172 L
130.477 495.811 L
130.53 492.121 L
130.583 489.102 L
130.636 486.083 L
130.689 482.393 L
130.742 479.374 L
130.795 476.355 L
130.901 471.323 L
131.007 466.292 L
131.166 461.931 L
131.219 457.905 L
131.484 454.551 L
131.537 449.184 L
131.643 446.5 L
131.802 441.133 L
131.802 436.772 L
131.855 433.082 L
132.173 428.721 L
132.385 424.696 L
132.597 422.012 L
132.915 417.316 L
133.021 415.303 L
133.339 410.607 L
133.71 404.904 L
133.869 400.879 L
134.134 397.189 L
134.24 390.815 L
134.876 385.784 L
135.247 382.765 L
135.565 378.068 L
135.777 376.391 L
135.936 372.03 L
136.201 371.024 L
136.572 366.663 L
137.261 361.967 L
138.427 357.941 L
138.798 354.587 L
139.487 349.555 L
140.335 345.53 L
141.13 340.163 L
142.243 336.137 L
143.197 334.46 L
144.363 330.099 L
145.477 326.074 L
146.908 322.384 L
148.074 320.035 L
149.187 318.023 L
151.201 313.662 L
153.215 310.307 L
154.699 308.295 L
156.077 305.947 L
158.303 301.586 L
160.211 297.56 L
162.755 293.199 L
165.564 286.826 L
168.373 284.478 L
171.288 281.794 L
174.734 277.769 L
177.119 276.092 L
180.723 273.073 L
184.115 270.724 L
187.56 265.357 L
191.376 261.667 L
195.616 256.971 L
199.644 253.616 L
203.937 249.926 L
207.701 247.914 L
212.471 244.224 L
217.4 240.198 L
221.958 236.173 L
230.12 234.16 L
236.269 230.806 L
242.629 228.458 L
250.155 226.109 L
258.317 223.426 L
264.413 219.736 L
272.628 216.381 L
282.91 213.698 L
293.352 210.679 L
303.369 208.331 L
313.651 205.312 L
323.775 203.299 L
335.965 200.951 L
343.809 198.603 L
356.318 196.254 L
370.363 193.906 L
384.939 189.881 L
401.051 186.191 L
416.687 184.178 L
433.806 180.488 L
449.389 179.482 L
467.992 176.463 L
480.978 175.121 L
498.733 171.431 L
517.708 168.412 L
537.902 164.387 L
559.155 161.368 L
581.098 158.349 L
604.419 155.665 L
630.655 152.31 L
639.877 151.304 L
671.148 147.95 L
699.769 146.272 L
729.556 144.595 L
756.11 142.247 L
788.547 139.899 L
822.309 137.551 L
856.177 135.538 L
887.925 134.196 L
905.092 133.943 L
S
GR
GS
1 0 0 RC
1 LJ
2 LW
N
130 531.058 M
130 530.698 L
130 528.014 L
130 523.318 L
130 520.299 L
130 516.274 L
130 511.913 L
130 509.229 L
130 504.868 L
130 500.508 L
130 495.14 L
130 491.115 L
130 487.76 L
130 484.406 L
130 481.722 L
130 480.381 L
130 475.684 L
130 472.33 L
130 466.963 L
130 463.273 L
130 459.247 L
130 455.893 L
130 449.519 L
130 445.494 L
130 442.139 L
130 437.778 L
130.053 431.74 L
130.053 428.721 L
130.053 426.709 L
130.053 421.677 L
130.053 417.316 L
130.053 412.62 L
130.106 408.259 L
130.159 404.569 L
130.159 403.227 L
130.159 397.524 L
130.159 394.841 L
130.159 389.809 L
130.212 388.467 L
130.371 386.119 L
130.583 383.1 L
130.689 380.417 L
130.795 377.397 L
130.848 372.701 L
130.848 365.992 L
130.954 361.631 L
131.007 357.941 L
131.007 356.6 L
131.06 353.916 L
131.166 348.549 L
131.219 344.188 L
131.325 339.156 L
131.484 333.118 L
131.59 330.77 L
131.749 325.738 L
131.802 320.371 L
132.12 316.681 L
132.226 311.649 L
132.332 307.624 L
132.65 305.947 L
132.862 302.927 L
133.233 298.567 L
133.445 295.212 L
133.71 291.858 L
133.763 286.155 L
133.922 283.136 L
134.081 281.794 L
134.24 278.44 L
134.611 275.421 L
135.194 271.731 L
135.724 268.712 L
136.201 264.686 L
136.731 262.338 L
137.155 259.99 L
137.42 258.313 L
137.897 255.965 L
138.268 251.939 L
138.957 248.249 L
139.593 246.236 L
140.282 245.23 L
140.812 242.547 L
141.448 239.528 L
142.349 237.179 L
143.409 233.154 L
144.575 231.141 L
145.106 229.464 L
146.696 226.109 L
148.127 223.09 L
149.346 220.407 L
151.307 217.388 L
152.897 213.698 L
154.54 212.691 L
156.554 209.672 L
158.568 207.66 L
160.794 203.299 L
163.921 200.951 L
166.2 198.267 L
168.744 195.248 L
170.705 194.913 L
174.309 192.564 L
177.437 190.216 L
181.094 187.533 L
185.175 184.178 L
189.945 181.159 L
192.171 179.146 L
196.888 176.798 L
201.87 172.773 L
207.383 170.76 L
212.418 168.412 L
218.831 165.058 L
222.276 163.716 L
229.908 161.703 L
236.375 161.032 L
244.696 158.684 L
252.01 154.994 L
261.285 151.64 L
269.978 147.95 L
274.589 145.937 L
282.645 143.589 L
294.624 143.253 L
305.171 141.241 L
317.255 139.899 L
329.181 136.88 L
336.919 134.532 L
349.957 132.519 L
364.904 130.506 L
381.97 127.152 L
396.493 124.804 L
413.613 122.791 L
424.743 121.785 L
442.816 119.772 L
462.745 117.424 L
482.091 116.082 L
501.383 114.405 L
523.538 112.727 L
548.237 112.056 L
564.085 110.715 L
589.366 108.702 L
620.054 105.683 L
648.622 103.67 L
680.265 102.664 L
712.649 101.322 L
734.008 100.651 L
768.353 98.638 L
803.759 96.626 L
844.729 94.613 L
879.71 92.6 L
905.092 91.982 L
S
GR
GS
[10 6] 0 setdash
2 LJ
0.5 LW
N
905.092 45.007 M
904.261 44.942 L
S
GR
%%Trailer
%%Pages: 1
%%EOF
