%!PS-Adobe-3.0 EPSF-3.0
%%Creator: (MATLAB, The Mathworks, Inc. Version 9.5.0.1049112 \(R2018b\) Update 3. Operating System: Mac OS X)
%%Title: ./ROCs_postmortem_new_72.eps
%%CreationDate: 2019-02-28T20:46:31
%%Pages: (atend)
%%BoundingBox:    61     5   907   587
%%LanguageLevel: 3
%%EndComments
%%BeginProlog
%%BeginResource: procset (Apache XML Graphics Std ProcSet) 1.2 0
%%Version: 1.2 0
%%Copyright: (Copyright 2001-2003,2010 The Apache Software Foundation. License terms: http://www.apache.org/licenses/LICENSE-2.0)
/bd{bind def}bind def
/ld{load def}bd
/GR/grestore ld
/GS/gsave ld
/RM/rmoveto ld
/C/curveto ld
/t/show ld
/L/lineto ld
/ML/setmiterlimit ld
/CT/concat ld
/f/fill ld
/N/newpath ld
/S/stroke ld
/CC/setcmykcolor ld
/A/ashow ld
/cp/closepath ld
/RC/setrgbcolor ld
/LJ/setlinejoin ld
/GC/setgray ld
/LW/setlinewidth ld
/M/moveto ld
/re {4 2 roll M
1 index 0 rlineto
0 exch rlineto
neg 0 rlineto
cp } bd
/_ctm matrix def
/_tm matrix def
/BT { _ctm currentmatrix pop matrix _tm copy pop 0 0 moveto } bd
/ET { _ctm setmatrix } bd
/iTm { _ctm setmatrix _tm concat } bd
/Tm { _tm astore pop iTm 0 0 moveto } bd
/ux 0.0 def
/uy 0.0 def
/F {
  /Tp exch def
  /Tf exch def
  Tf findfont Tp scalefont setfont
  /cf Tf def  /cs Tp def
} bd
/ULS {currentpoint /uy exch def /ux exch def} bd
/ULE {
  /Tcx currentpoint pop def
  gsave
  newpath
  cf findfont cs scalefont dup
  /FontMatrix get 0 get /Ts exch def /FontInfo get dup
  /UnderlinePosition get Ts mul /To exch def
  /UnderlineThickness get Ts mul /Tt exch def
  ux uy To add moveto  Tcx uy To add lineto
  Tt setlinewidth stroke
  grestore
} bd
/OLE {
  /Tcx currentpoint pop def
  gsave
  newpath
  cf findfont cs scalefont dup
  /FontMatrix get 0 get /Ts exch def /FontInfo get dup
  /UnderlinePosition get Ts mul /To exch def
  /UnderlineThickness get Ts mul /Tt exch def
  ux uy To add cs add moveto Tcx uy To add cs add lineto
  Tt setlinewidth stroke
  grestore
} bd
/SOE {
  /Tcx currentpoint pop def
  gsave
  newpath
  cf findfont cs scalefont dup
  /FontMatrix get 0 get /Ts exch def /FontInfo get dup
  /UnderlinePosition get Ts mul /To exch def
  /UnderlineThickness get Ts mul /Tt exch def
  ux uy To add cs 10 mul 26 idiv add moveto Tcx uy To add cs 10 mul 26 idiv add lineto
  Tt setlinewidth stroke
  grestore
} bd
/QT {
/Y22 exch store
/X22 exch store
/Y21 exch store
/X21 exch store
currentpoint
/Y21 load 2 mul add 3 div exch
/X21 load 2 mul add 3 div exch
/X21 load 2 mul /X22 load add 3 div
/Y21 load 2 mul /Y22 load add 3 div
/X22 load /Y22 load curveto
} bd
/SSPD {
dup length /d exch dict def
{
/v exch def
/k exch def
currentpagedevice k known {
/cpdv currentpagedevice k get def
v cpdv ne {
/upd false def
/nullv v type /nulltype eq def
/nullcpdv cpdv type /nulltype eq def
nullv nullcpdv or
{
/upd true def
} {
/sametype v type cpdv type eq def
sametype {
v type /arraytype eq {
/vlen v length def
/cpdvlen cpdv length def
vlen cpdvlen eq {
0 1 vlen 1 sub {
/i exch def
/obj v i get def
/cpdobj cpdv i get def
obj cpdobj ne {
/upd true def
exit
} if
} for
} {
/upd true def
} ifelse
} {
v type /dicttype eq {
v {
/dv exch def
/dk exch def
/cpddv cpdv dk get def
dv cpddv ne {
/upd true def
exit
} if
} forall
} {
/upd true def
} ifelse
} ifelse
} if
} ifelse
upd true eq {
d k v put
} if
} if
} if
} forall
d length 0 gt {
d setpagedevice
} if
} bd
/RE { % /NewFontName [NewEncodingArray] /FontName RE -
  findfont dup length dict begin
  {
    1 index /FID ne
    {def} {pop pop} ifelse
  } forall
  /Encoding exch def
  /FontName 1 index def
  currentdict definefont pop
  end
} bind def
%%EndResource
%%BeginResource: procset (Apache XML Graphics EPS ProcSet) 1.0 0
%%Version: 1.0 0
%%Copyright: (Copyright 2002-2003 The Apache Software Foundation. License terms: http://www.apache.org/licenses/LICENSE-2.0)
/BeginEPSF { %def
/b4_Inc_state save def         % Save state for cleanup
/dict_count countdictstack def % Count objects on dict stack
/op_count count 1 sub def      % Count objects on operand stack
userdict begin                 % Push userdict on dict stack
/showpage { } def              % Redefine showpage, { } = null proc
0 setgray 0 setlinecap         % Prepare graphics state
1 setlinewidth 0 setlinejoin
10 setmiterlimit [ ] 0 setdash newpath
/languagelevel where           % If level not equal to 1 then
{pop languagelevel             % set strokeadjust and
1 ne                           % overprint to their defaults.
{false setstrokeadjust false setoverprint
} if
} if
} bd
/EndEPSF { %def
count op_count sub {pop} repeat            % Clean up stacks
countdictstack dict_count sub {end} repeat
b4_Inc_state restore
} bd
%%EndResource
%FOPBeginFontDict
%%IncludeResource: font Courier-Oblique
%%IncludeResource: font Courier-BoldOblique
%%IncludeResource: font Courier-Bold
%%IncludeResource: font ZapfDingbats
%%IncludeResource: font Symbol
%%IncludeResource: font Helvetica
%%IncludeResource: font Helvetica-Oblique
%%IncludeResource: font Helvetica-Bold
%%IncludeResource: font Helvetica-BoldOblique
%%IncludeResource: font Times-Roman
%%IncludeResource: font Times-Italic
%%IncludeResource: font Times-Bold
%%IncludeResource: font Times-BoldItalic
%%IncludeResource: font Courier
%FOPEndFontDict
%%BeginResource: encoding WinAnsiEncoding
/WinAnsiEncoding [
/.notdef /.notdef /.notdef /.notdef /.notdef
/.notdef /.notdef /.notdef /.notdef /.notdef
/.notdef /.notdef /.notdef /.notdef /.notdef
/.notdef /.notdef /.notdef /.notdef /.notdef
/.notdef /.notdef /.notdef /.notdef /.notdef
/.notdef /.notdef /.notdef /.notdef /.notdef
/.notdef /.notdef /space /exclam /quotedbl
/numbersign /dollar /percent /ampersand /quotesingle
/parenleft /parenright /asterisk /plus /comma
/hyphen /period /slash /zero /one
/two /three /four /five /six
/seven /eight /nine /colon /semicolon
/less /equal /greater /question /at
/A /B /C /D /E
/F /G /H /I /J
/K /L /M /N /O
/P /Q /R /S /T
/U /V /W /X /Y
/Z /bracketleft /backslash /bracketright /asciicircum
/underscore /quoteleft /a /b /c
/d /e /f /g /h
/i /j /k /l /m
/n /o /p /q /r
/s /t /u /v /w
/x /y /z /braceleft /bar
/braceright /asciitilde /bullet /Euro /bullet
/quotesinglbase /florin /quotedblbase /ellipsis /dagger
/daggerdbl /circumflex /perthousand /Scaron /guilsinglleft
/OE /bullet /Zcaron /bullet /bullet
/quoteleft /quoteright /quotedblleft /quotedblright /bullet
/endash /emdash /asciitilde /trademark /scaron
/guilsinglright /oe /bullet /zcaron /Ydieresis
/space /exclamdown /cent /sterling /currency
/yen /brokenbar /section /dieresis /copyright
/ordfeminine /guillemotleft /logicalnot /sfthyphen /registered
/macron /degree /plusminus /twosuperior /threesuperior
/acute /mu /paragraph /middot /cedilla
/onesuperior /ordmasculine /guillemotright /onequarter /onehalf
/threequarters /questiondown /Agrave /Aacute /Acircumflex
/Atilde /Adieresis /Aring /AE /Ccedilla
/Egrave /Eacute /Ecircumflex /Edieresis /Igrave
/Iacute /Icircumflex /Idieresis /Eth /Ntilde
/Ograve /Oacute /Ocircumflex /Otilde /Odieresis
/multiply /Oslash /Ugrave /Uacute /Ucircumflex
/Udieresis /Yacute /Thorn /germandbls /agrave
/aacute /acircumflex /atilde /adieresis /aring
/ae /ccedilla /egrave /eacute /ecircumflex
/edieresis /igrave /iacute /icircumflex /idieresis
/eth /ntilde /ograve /oacute /ocircumflex
/otilde /odieresis /divide /oslash /ugrave
/uacute /ucircumflex /udieresis /yacute /thorn
/ydieresis
] def
%%EndResource
%FOPBeginFontReencode
/Courier-Oblique findfont
dup length dict begin
  {1 index /FID ne {def} {pop pop} ifelse} forall
  /Encoding WinAnsiEncoding def
  currentdict
end
/Courier-Oblique exch definefont pop
/Courier-BoldOblique findfont
dup length dict begin
  {1 index /FID ne {def} {pop pop} ifelse} forall
  /Encoding WinAnsiEncoding def
  currentdict
end
/Courier-BoldOblique exch definefont pop
/Courier-Bold findfont
dup length dict begin
  {1 index /FID ne {def} {pop pop} ifelse} forall
  /Encoding WinAnsiEncoding def
  currentdict
end
/Courier-Bold exch definefont pop
/Helvetica findfont
dup length dict begin
  {1 index /FID ne {def} {pop pop} ifelse} forall
  /Encoding WinAnsiEncoding def
  currentdict
end
/Helvetica exch definefont pop
/Helvetica-Oblique findfont
dup length dict begin
  {1 index /FID ne {def} {pop pop} ifelse} forall
  /Encoding WinAnsiEncoding def
  currentdict
end
/Helvetica-Oblique exch definefont pop
/Helvetica-Bold findfont
dup length dict begin
  {1 index /FID ne {def} {pop pop} ifelse} forall
  /Encoding WinAnsiEncoding def
  currentdict
end
/Helvetica-Bold exch definefont pop
/Helvetica-BoldOblique findfont
dup length dict begin
  {1 index /FID ne {def} {pop pop} ifelse} forall
  /Encoding WinAnsiEncoding def
  currentdict
end
/Helvetica-BoldOblique exch definefont pop
/Times-Roman findfont
dup length dict begin
  {1 index /FID ne {def} {pop pop} ifelse} forall
  /Encoding WinAnsiEncoding def
  currentdict
end
/Times-Roman exch definefont pop
/Times-Italic findfont
dup length dict begin
  {1 index /FID ne {def} {pop pop} ifelse} forall
  /Encoding WinAnsiEncoding def
  currentdict
end
/Times-Italic exch definefont pop
/Times-Bold findfont
dup length dict begin
  {1 index /FID ne {def} {pop pop} ifelse} forall
  /Encoding WinAnsiEncoding def
  currentdict
end
/Times-Bold exch definefont pop
/Times-BoldItalic findfont
dup length dict begin
  {1 index /FID ne {def} {pop pop} ifelse} forall
  /Encoding WinAnsiEncoding def
  currentdict
end
/Times-BoldItalic exch definefont pop
/Courier findfont
dup length dict begin
  {1 index /FID ne {def} {pop pop} ifelse} forall
  /Encoding WinAnsiEncoding def
  currentdict
end
/Courier exch definefont pop
%FOPEndFontReencode
%%EndProlog
%%Page: 1 1
%%PageBoundingBox: 0 0 1000 600
%%BeginPageSetup
[1 0 0 -1 0 600] CT
%%EndPageSetup
GS
1 GC
N
0 0 1000 600 re
f
GR
GS
1 GC
N
0 0 1000 600 re
f
GR
GS
1 GC
N
130 531 M
905 531 L
905 45 L
130 45 L
cp
f
GR
GS
0.873 GC
1 LJ
0.5 LW
N
130 531 M
130 45 L
S
GR
GS
0.873 GC
1 LJ
0.5 LW
N
285 531 M
285 45 L
S
GR
GS
0.873 GC
1 LJ
0.5 LW
N
440 531 M
440 45 L
S
GR
GS
0.873 GC
1 LJ
0.5 LW
N
595 531 M
595 45 L
S
GR
GS
0.873 GC
1 LJ
0.5 LW
N
750 531 M
750 45 L
S
GR
GS
0.873 GC
1 LJ
0.5 LW
N
905 531 M
905 45 L
S
GR
GS
0.873 GC
1 LJ
0.5 LW
N
905 531 M
130 531 L
S
GR
GS
0.873 GC
1 LJ
0.5 LW
N
905 433.8 M
130 433.8 L
S
GR
GS
0.873 GC
1 LJ
0.5 LW
N
905 336.6 M
130 336.6 L
S
GR
GS
0.873 GC
1 LJ
0.5 LW
N
905 239.4 M
130 239.4 L
S
GR
GS
0.873 GC
1 LJ
0.5 LW
N
905 142.2 M
130 142.2 L
S
GR
GS
0.873 GC
1 LJ
0.5 LW
N
905 45 M
130 45 L
S
GR
GS
0.149 GC
2 setlinecap
1 LJ
0.5 LW
N
130 531 M
905 531 L
S
GR
GS
0.149 GC
2 setlinecap
1 LJ
0.5 LW
N
130 45 M
905 45 L
S
GR
GS
0.149 GC
2 setlinecap
1 LJ
0.5 LW
N
130 531 M
130 523.25 L
S
GR
GS
0.149 GC
2 setlinecap
1 LJ
0.5 LW
N
285 531 M
285 523.25 L
S
GR
GS
0.149 GC
2 setlinecap
1 LJ
0.5 LW
N
440 531 M
440 523.25 L
S
GR
GS
0.149 GC
2 setlinecap
1 LJ
0.5 LW
N
595 531 M
595 523.25 L
S
GR
GS
0.149 GC
2 setlinecap
1 LJ
0.5 LW
N
750 531 M
750 523.25 L
S
GR
GS
0.149 GC
2 setlinecap
1 LJ
0.5 LW
N
905 531 M
905 523.25 L
S
GR
GS
0.149 GC
2 setlinecap
1 LJ
0.5 LW
N
130 45 M
130 52.75 L
S
GR
GS
0.149 GC
2 setlinecap
1 LJ
0.5 LW
N
285 45 M
285 52.75 L
S
GR
GS
0.149 GC
2 setlinecap
1 LJ
0.5 LW
N
440 45 M
440 52.75 L
S
GR
GS
0.149 GC
2 setlinecap
1 LJ
0.5 LW
N
595 45 M
595 52.75 L
S
GR
GS
0.149 GC
2 setlinecap
1 LJ
0.5 LW
N
750 45 M
750 52.75 L
S
GR
GS
0.149 GC
2 setlinecap
1 LJ
0.5 LW
N
905 45 M
905 52.75 L
S
GR
GS
[1 0 0 1 130 537.79999] CT
0.149 GC
/Helvetica 24 F
GS
[1 0 0 1 0 0] CT
-7 23 moveto 
1 -1 scale
(0) t 
GR
GR
GS
[1 0 0 1 285 537.79999] CT
0.149 GC
/Helvetica 24 F
GS
[1 0 0 1 0 0] CT
-17 23 moveto 
1 -1 scale
(0.2) t 
GR
GR
GS
[1 0 0 1 440 537.79999] CT
0.149 GC
/Helvetica 24 F
GS
[1 0 0 1 0 0] CT
-17 23 moveto 
1 -1 scale
(0.4) t 
GR
GR
GS
[1 0 0 1 595 537.79999] CT
0.149 GC
/Helvetica 24 F
GS
[1 0 0 1 0 0] CT
-17 23 moveto 
1 -1 scale
(0.6) t 
GR
GR
GS
[1 0 0 1 750 537.79999] CT
0.149 GC
/Helvetica 24 F
GS
[1 0 0 1 0 0] CT
-17 23 moveto 
1 -1 scale
(0.8) t 
GR
GR
GS
[1 0 0 1 905 537.79999] CT
0.149 GC
/Helvetica 24 F
GS
[1 0 0 1 0 0] CT
-7 23 moveto 
1 -1 scale
(1) t 
GR
GR
GS
[1 0 0 1 517.50037 567.79999] CT
0.149 GC
/Helvetica 26.4 F
GS
[1 0 0 1 0 0] CT
-103.5 26 moveto 
1 -1 scale
(False Match Rate) t 
GR
GR
GS
0.149 GC
2 setlinecap
1 LJ
0.5 LW
N
130 531 M
130 45 L
S
GR
GS
0.149 GC
2 setlinecap
1 LJ
0.5 LW
N
905 531 M
905 45 L
S
GR
GS
0.149 GC
2 setlinecap
1 LJ
0.5 LW
N
130 531 M
137.75 531 L
S
GR
GS
0.149 GC
2 setlinecap
1 LJ
0.5 LW
N
130 433.8 M
137.75 433.8 L
S
GR
GS
0.149 GC
2 setlinecap
1 LJ
0.5 LW
N
130 336.6 M
137.75 336.6 L
S
GR
GS
0.149 GC
2 setlinecap
1 LJ
0.5 LW
N
130 239.4 M
137.75 239.4 L
S
GR
GS
0.149 GC
2 setlinecap
1 LJ
0.5 LW
N
130 142.2 M
137.75 142.2 L
S
GR
GS
0.149 GC
2 setlinecap
1 LJ
0.5 LW
N
130 45 M
137.75 45 L
S
GR
GS
0.149 GC
2 setlinecap
1 LJ
0.5 LW
N
905 531 M
897.25 531 L
S
GR
GS
0.149 GC
2 setlinecap
1 LJ
0.5 LW
N
905 433.8 M
897.25 433.8 L
S
GR
GS
0.149 GC
2 setlinecap
1 LJ
0.5 LW
N
905 336.6 M
897.25 336.6 L
S
GR
GS
0.149 GC
2 setlinecap
1 LJ
0.5 LW
N
905 239.4 M
897.25 239.4 L
S
GR
GS
0.149 GC
2 setlinecap
1 LJ
0.5 LW
N
905 142.2 M
897.25 142.2 L
S
GR
GS
0.149 GC
2 setlinecap
1 LJ
0.5 LW
N
905 45 M
897.25 45 L
S
GR
GS
[1 0 0 1 123.2 531] CT
0.149 GC
/Helvetica 24 F
GS
[1 0 0 1 0 0] CT
-14 8.5 moveto 
1 -1 scale
(0) t 
GR
GR
GS
[1 0 0 1 123.2 433.79999] CT
0.149 GC
/Helvetica 24 F
GS
[1 0 0 1 0 0] CT
-34 8.5 moveto 
1 -1 scale
(0.2) t 
GR
GR
GS
[1 0 0 1 123.2 336.60001] CT
0.149 GC
/Helvetica 24 F
GS
[1 0 0 1 0 0] CT
-34 8.5 moveto 
1 -1 scale
(0.4) t 
GR
GR
GS
[1 0 0 1 123.2 239.39999] CT
0.149 GC
/Helvetica 24 F
GS
[1 0 0 1 0 0] CT
-34 8.5 moveto 
1 -1 scale
(0.6) t 
GR
GR
GS
[1 0 0 1 123.2 142.2] CT
0.149 GC
/Helvetica 24 F
GS
[1 0 0 1 0 0] CT
-34 8.5 moveto 
1 -1 scale
(0.8) t 
GR
GR
GS
[1 0 0 1 123.2 45] CT
0.149 GC
/Helvetica 24 F
GS
[1 0 0 1 0 0] CT
-14 8.5 moveto 
1 -1 scale
(1) t 
GR
GR
GS
[0 -1 1 0 86.2 287.99976] CT
0.149 GC
/Helvetica 26.4 F
GS
[1 0 0 1 0 0] CT
-153 -6 moveto 
1 -1 scale
(1 - False Non-Match Rate) t 
GR
GR
GS
[1 0 0 1 517.50049 38.40002] CT
/Helvetica-Bold 26.4 F
GS
[1 0 0 1 0 0] CT
-279.5 -6 moveto 
1 -1 scale
(Data acquired less than 72 hours after death) t 
GR
GR
GS
0 0 1 RC
1 LJ
2 LW
N
130 530.771 M
130 530.771 L
130 530.771 L
130 530.771 L
130 530.771 L
130 530.771 L
130 530.771 L
130 530.771 L
130 530.771 L
130 530.771 L
130 530.771 L
130 530.771 L
130 530.771 L
130 530.771 L
130 530.771 L
130 530.771 L
130 530.771 L
130 530.771 L
130 530.771 L
130 530.771 L
130 530.771 L
130 530.771 L
130 530.771 L
130 530.771 L
130 530.771 L
130 530.771 L
130 530.771 L
130 530.771 L
130 530.771 L
130 530.771 L
130 530.771 L
130 530.771 L
130 530.771 L
130 530.771 L
130 530.771 L
130 530.771 L
130 530.771 L
130 530.771 L
130 530.771 L
130 530.771 L
130 530.771 L
130 530.771 L
130 530.771 L
130 530.771 L
130 530.771 L
130 530.771 L
130 530.771 L
130 530.771 L
130 530.771 L
130 530.771 L
130 530.771 L
130 530.771 L
130 530.771 L
130 530.771 L
130 530.771 L
130 530.771 L
130 530.771 L
130 530.771 L
130 530.771 L
130 530.771 L
130 530.771 L
130 530.771 L
130 530.771 L
130 530.771 L
130 530.771 L
130 530.771 L
130 530.771 L
130 530.771 L
130 530.771 L
130 530.771 L
130 530.771 L
130 530.771 L
130.004 530.771 L
130.004 530.771 L
130.004 530.771 L
130.004 530.771 L
130.004 530.771 L
130.004 530.771 L
130.004 530.771 L
130.004 530.771 L
130.004 530.771 L
130.004 530.771 L
130.004 530.771 L
130.004 530.771 L
130.004 530.771 L
130.004 530.771 L
130.004 530.771 L
130.004 530.771 L
130.004 530.771 L
130.004 530.771 L
130.004 530.771 L
130.004 530.771 L
130.004 530.771 L
130.004 530.771 L
130.004 530.771 L
130.004 530.771 L
130.004 530.771 L
130.004 530.771 L
130.004 530.771 L
130.004 530.771 L
130.008 530.771 L
130.008 530.771 L
130.008 530.771 L
130.008 530.771 L
130.008 530.771 L
130.008 530.771 L
130.008 530.771 L
130.008 530.771 L
130.012 530.771 L
130.012 530.771 L
130.012 530.771 L
130.012 530.771 L
130.017 530.771 L
130.017 530.771 L
130.017 530.771 L
130.017 530.771 L
130.017 530.771 L
130.017 530.771 L
130.017 530.771 L
130.017 530.541 L
130.021 530.541 L
130.021 530.541 L
130.021 530.541 L
130.021 530.312 L
130.021 530.082 L
130.021 530.082 L
130.021 529.853 L
130.021 529.164 L
130.021 528.935 L
130.021 528.705 L
130.021 528.705 L
130.021 528.705 L
130.021 528.705 L
130.021 528.246 L
130.021 528.017 L
130.021 527.329 L
130.021 527.099 L
130.021 527.099 L
130.021 526.87 L
130.021 526.181 L
130.021 525.493 L
130.021 525.493 L
130.021 525.034 L
130.029 524.346 L
130.029 523.887 L
130.029 523.887 L
130.029 523.657 L
130.029 523.428 L
130.029 522.969 L
130.029 522.739 L
130.029 522.28 L
130.029 521.133 L
130.033 520.445 L
130.033 519.756 L
130.033 518.609 L
130.042 516.773 L
130.042 515.626 L
130.042 514.708 L
130.042 514.249 L
130.042 513.79 L
130.042 513.79 L
130.042 513.331 L
130.042 512.643 L
130.042 511.496 L
130.042 511.037 L
130.042 509.431 L
130.042 508.972 L
130.062 508.513 L
130.062 507.824 L
130.062 506.448 L
130.062 506.448 L
130.062 506.218 L
130.062 505.989 L
130.062 504.612 L
130.062 503.924 L
130.062 503.006 L
130.062 501.629 L
130.062 500.711 L
130.062 500.023 L
130.067 498.875 L
130.067 497.499 L
130.067 497.269 L
130.067 497.269 L
130.067 496.351 L
130.067 495.892 L
130.067 494.516 L
130.067 494.057 L
130.067 494.057 L
130.067 492.45 L
130.067 491.533 L
130.067 490.156 L
130.075 488.091 L
130.075 488.091 L
130.079 487.861 L
130.079 486.255 L
130.083 485.337 L
130.083 483.731 L
130.083 482.584 L
130.083 481.207 L
130.083 480.059 L
130.083 479.371 L
130.083 477.765 L
130.083 476.847 L
130.087 476.618 L
130.087 475.7 L
130.087 473.405 L
130.092 472.487 L
130.092 471.11 L
130.092 469.275 L
130.104 467.898 L
130.104 467.21 L
130.104 465.603 L
130.104 463.768 L
130.108 462.62 L
130.108 461.703 L
130.15 460.785 L
130.15 459.178 L
130.154 457.343 L
130.158 456.654 L
130.158 455.507 L
130.158 454.589 L
130.158 453.442 L
130.158 451.606 L
130.162 450.918 L
130.162 450.688 L
130.162 449.541 L
130.162 448.623 L
130.171 447.935 L
130.179 446.558 L
130.179 446.099 L
130.183 445.411 L
130.183 444.722 L
130.183 443.116 L
130.183 442.198 L
130.192 440.822 L
130.192 439.674 L
130.192 437.839 L
130.2 436.232 L
130.2 435.314 L
130.225 434.397 L
130.225 433.249 L
130.233 431.873 L
130.233 430.037 L
130.233 429.578 L
130.237 427.513 L
130.237 426.824 L
130.237 425.448 L
130.237 424.759 L
130.237 424.071 L
130.237 423.153 L
130.275 422.465 L
130.275 421.317 L
130.275 420.629 L
130.275 419.711 L
130.275 418.334 L
130.279 417.646 L
130.279 416.728 L
130.279 416.269 L
130.283 414.892 L
130.283 414.204 L
130.287 412.827 L
130.287 412.598 L
130.337 411.221 L
130.337 410.074 L
130.354 409.156 L
130.354 408.467 L
130.354 407.55 L
130.362 406.861 L
130.362 406.173 L
130.367 405.255 L
130.383 404.337 L
130.392 403.878 L
130.392 403.19 L
130.392 402.272 L
130.433 401.125 L
130.433 400.666 L
130.433 400.207 L
130.433 399.059 L
130.45 398.371 L
130.45 398.142 L
130.45 397.453 L
130.45 396.306 L
130.45 394.47 L
130.45 393.552 L
130.454 392.635 L
130.458 392.405 L
130.516 391.487 L
130.516 390.34 L
130.533 389.422 L
130.537 388.734 L
130.537 388.045 L
130.537 387.586 L
130.55 386.21 L
130.55 386.21 L
130.55 385.292 L
130.554 384.603 L
130.554 383.686 L
130.587 382.309 L
130.679 380.932 L
130.679 380.703 L
130.691 379.326 L
130.691 378.867 L
130.691 377.49 L
130.696 376.572 L
130.721 375.884 L
130.721 374.278 L
130.779 372.442 L
130.779 371.754 L
130.796 370.147 L
130.796 369 L
130.883 366.935 L
130.883 366.017 L
130.883 364.64 L
130.891 363.952 L
130.895 363.034 L
130.95 361.887 L
130.95 359.822 L
130.954 358.674 L
130.954 357.756 L
130.962 355.921 L
130.97 354.773 L
130.987 353.626 L
131.07 352.479 L
131.079 351.79 L
131.091 350.643 L
131.116 349.496 L
131.116 348.119 L
131.12 347.201 L
131.12 345.824 L
131.125 344.907 L
131.125 343.53 L
131.125 341.923 L
131.125 341.006 L
131.125 339.858 L
131.379 338.941 L
131.379 337.793 L
131.387 336.187 L
131.391 335.269 L
131.391 334.122 L
131.391 332.286 L
131.391 329.762 L
131.395 328.615 L
131.399 326.779 L
131.466 326.091 L
131.504 324.714 L
131.524 323.108 L
131.629 321.272 L
131.654 320.125 L
131.666 317.371 L
131.679 315.535 L
131.691 313.47 L
131.695 311.864 L
131.808 310.258 L
131.833 307.963 L
131.837 305.439 L
131.858 303.374 L
131.866 301.309 L
131.887 299.473 L
131.97 297.637 L
131.991 296.031 L
131.991 293.966 L
132.003 292.36 L
132.124 290.754 L
132.145 287.771 L
132.162 286.394 L
132.191 285.935 L
132.207 284.558 L
132.262 282.263 L
132.278 280.887 L
132.299 279.28 L
132.449 278.133 L
132.582 277.215 L
132.636 275.839 L
132.699 274.921 L
132.728 273.314 L
132.816 272.397 L
132.853 270.79 L
132.903 269.414 L
132.974 268.266 L
133.061 267.119 L
133.178 265.972 L
133.345 264.824 L
133.407 263.906 L
133.54 262.759 L
133.674 260.694 L
133.815 259.776 L
133.973 258.399 L
134.136 257.711 L
134.302 255.646 L
134.557 254.728 L
134.802 253.81 L
134.956 252.433 L
135.152 250.598 L
135.564 249.68 L
135.869 247.844 L
136.131 246.926 L
136.456 246.009 L
136.814 245.091 L
137.355 243.255 L
137.809 240.501 L
138.343 238.666 L
138.797 237.289 L
139.317 235.912 L
139.971 234.994 L
140.542 233.388 L
141.308 231.093 L
142.012 229.487 L
142.857 227.881 L
143.703 225.357 L
144.698 223.751 L
145.652 222.144 L
146.76 219.391 L
147.972 218.244 L
149.317 217.096 L
150.725 216.867 L
152.362 215.949 L
154.07 213.654 L
155.752 211.819 L
157.802 209.983 L
159.659 208.147 L
161.858 207 L
164.062 205.164 L
166.523 204.017 L
169.097 203.099 L
171.771 201.952 L
174.753 199.198 L
177.881 197.822 L
181.326 195.986 L
184.924 195.068 L
188.781 193.691 L
192.734 192.314 L
197.103 191.167 L
201.326 189.561 L
205.966 187.725 L
210.927 186.578 L
216.07 185.201 L
221.51 183.595 L
227.258 182.218 L
233.168 180.841 L
239.27 179.465 L
245.913 178.317 L
252.735 176.023 L
259.632 174.646 L
267.08 173.499 L
275.268 172.122 L
283.015 170.974 L
291.416 168.45 L
299.95 165.926 L
308.526 164.32 L
317.143 162.943 L
326.852 161.567 L
336.032 160.878 L
345.715 159.501 L
355.611 158.125 L
366.124 156.977 L
376.137 155.142 L
386.678 153.765 L
397.499 152.388 L
408.707 150.782 L
419.411 148.946 L
430.511 146.881 L
442.032 145.504 L
453.277 143.439 L
465.048 141.833 L
475.889 139.768 L
487.31 139.079 L
498.697 137.473 L
509.859 137.014 L
520.851 136.785 L
531.809 134.72 L
543.059 132.425 L
553.896 129.901 L
564.846 128.065 L
575.079 127.377 L
586.038 126 L
595.988 124.853 L
606.338 123.705 L
615.576 122.329 L
625.839 121.64 L
634.723 120.952 L
643.64 120.263 L
651.691 118.887 L
660.129 118.657 L
668.114 117.739 L
676.094 116.133 L
683.604 116.133 L
690.605 114.986 L
697.602 114.756 L
703.9 113.609 L
710.447 112.921 L
716.357 112.003 L
722.18 110.626 L
727.699 110.167 L
732.772 108.79 L
737.811 107.873 L
742.734 106.725 L
747.199 106.496 L
751.115 106.266 L
755.117 105.807 L
758.349 105.807 L
859.122 50.737 L
861.163 50.507 L
863.849 50.048 L
866.748 49.589 L
869.476 48.442 L
872.063 48.442 L
874.429 48.442 L
876.549 48.212 L
878.673 47.754 L
880.455 47.754 L
882.342 47.754 L
883.887 47.524 L
885.445 47.065 L
886.807 46.836 L
888.14 46.836 L
889.431 46.836 L
890.518 46.836 L
891.73 46.377 L
892.63 46.377 L
893.488 46.147 L
894.288 45.918 L
895.033 45.688 L
895.641 45.688 L
896.32 45.688 L
896.907 45.688 L
897.578 45.688 L
898.061 45.688 L
898.469 45.688 L
898.898 45.688 L
899.265 45.688 L
899.656 45.688 L
899.977 45.688 L
900.289 45.688 L
900.618 45.688 L
900.889 45.688 L
901.127 45.688 L
901.381 45.459 L
901.576 45.459 L
901.868 45.459 L
902.072 45.459 L
902.201 45.459 L
902.397 45.459 L
902.572 45.459 L
902.722 45.459 L
902.897 45.459 L
903.047 45.229 L
903.213 45 L
903.313 45 L
903.442 45 L
903.551 45 L
903.671 45 L
903.738 45 L
903.813 45 L
903.888 45 L
903.93 45 L
903.996 45 L
904.096 45 L
904.146 45 L
904.254 45 L
904.309 45 L
904.388 45 L
904.425 45 L
904.463 45 L
904.488 45 L
904.517 45 L
904.538 45 L
904.571 45 L
904.621 45 L
904.646 45 L
904.675 45 L
904.7 45 L
904.708 45 L
904.721 45 L
904.729 45 L
904.742 45 L
904.746 45 L
904.771 45 L
904.792 45 L
904.8 45 L
904.813 45 L
904.821 45 L
904.829 45 L
904.833 45 L
904.846 45 L
904.858 45 L
904.858 45 L
904.875 45 L
904.883 45 L
904.883 45 L
904.888 45 L
904.896 45 L
904.9 45 L
904.9 45 L
904.908 45 L
904.913 45 L
904.917 45 L
904.921 45 L
904.925 45 L
904.925 45 L
904.925 45 L
904.929 45 L
904.929 45 L
904.929 45 L
904.929 45 L
904.929 45 L
904.938 45 L
904.942 45 L
904.95 45 L
904.958 45 L
904.958 45 L
904.958 45 L
904.958 45 L
904.958 45 L
904.958 45 L
904.958 45 L
904.963 45 L
904.963 45 L
904.963 45 L
904.963 45 L
904.963 45 L
904.963 45 L
904.967 45 L
904.967 45 L
904.967 45 L
904.967 45 L
904.971 45 L
904.971 45 L
904.971 45 L
904.971 45 L
904.971 45 L
904.971 45 L
904.971 45 L
904.971 45 L
904.971 45 L
904.971 45 L
904.971 45 L
904.971 45 L
904.971 45 L
904.971 45 L
904.971 45 L
904.971 45 L
904.971 45 L
904.971 45 L
904.971 45 L
904.971 45 L
904.971 45 L
904.971 45 L
904.971 45 L
904.971 45 L
904.971 45 L
904.971 45 L
904.971 45 L
904.971 45 L
904.971 45 L
904.971 45 L
904.975 45 L
904.975 45 L
904.975 45 L
904.975 45 L
904.975 45 L
904.975 45 L
904.975 45 L
904.975 45 L
904.975 45 L
904.975 45 L
904.975 45 L
904.975 45 L
904.979 45 L
904.979 45 L
904.979 45 L
904.979 45 L
904.979 45 L
904.979 45 L
904.979 45 L
904.979 45 L
904.979 45 L
904.979 45 L
904.979 45 L
904.979 45 L
904.979 45 L
904.979 45 L
904.979 45 L
904.979 45 L
904.979 45 L
904.979 45 L
904.979 45 L
904.979 45 L
904.979 45 L
904.979 45 L
904.979 45 L
904.979 45 L
904.979 45 L
904.979 45 L
904.979 45 L
904.979 45 L
904.979 45 L
904.979 45 L
904.979 45 L
904.979 45 L
904.979 45 L
904.979 45 L
904.979 45 L
904.979 45 L
904.979 45 L
904.979 45 L
904.979 45 L
904.979 45 L
904.979 45 L
904.979 45 L
904.983 45 L
904.983 45 L
904.983 45 L
904.983 45 L
904.983 45 L
904.983 45 L
904.983 45 L
904.983 45 L
904.983 45 L
904.983 45 L
904.983 45 L
904.983 45 L
904.983 45 L
904.983 45 L
904.983 45 L
904.983 45 L
904.983 45 L
904.983 45 L
904.983 45 L
904.983 45 L
904.983 45 L
904.983 45 L
904.983 45 L
904.983 45 L
904.983 45 L
904.983 45 L
904.983 45 L
904.983 45 L
904.983 45 L
904.983 45 L
904.983 45 L
904.983 45 L
904.983 45 L
904.983 45 L
904.983 45 L
904.983 45 L
904.983 45 L
904.983 45 L
904.983 45 L
904.983 45 L
904.983 45 L
904.983 45 L
904.983 45 L
904.983 45 L
904.983 45 L
904.983 45 L
904.983 45 L
904.983 45 L
904.983 45 L
904.983 45 L
904.983 45 L
904.983 45 L
904.983 45 L
904.983 45 L
904.983 45 L
904.983 45 L
904.983 45 L
904.983 45 L
904.983 45 L
904.983 45 L
904.983 45 L
904.983 45 L
904.983 45 L
904.983 45 L
904.983 45 L
904.983 45 L
904.983 45 L
904.983 45 L
904.983 45 L
904.983 45 L
904.983 45 L
904.983 45 L
904.983 45 L
904.983 45 L
904.983 45 L
904.983 45 L
904.983 45 L
904.983 45 L
904.983 45 L
904.983 45 L
904.983 45 L
904.983 45 L
904.983 45 L
904.983 45 L
904.983 45 L
904.983 45 L
904.983 45 L
904.983 45 L
904.983 45 L
904.983 45 L
904.983 45 L
904.983 45 L
904.983 45 L
904.983 45 L
904.983 45 L
904.983 45 L
904.983 45 L
904.983 45 L
904.983 45 L
904.983 45 L
904.983 45 L
904.983 45 L
904.983 45 L
904.983 45 L
904.983 45 L
904.983 45 L
904.983 45 L
904.983 45 L
904.983 45 L
904.983 45 L
904.983 45 L
904.983 45 L
904.983 45 L
904.983 45 L
904.983 45 L
904.983 45 L
904.983 45 L
904.983 45 L
904.983 45 L
904.983 45 L
904.983 45 L
904.983 45 L
904.983 45 L
904.983 45 L
904.983 45 L
904.983 45 L
904.983 45 L
904.983 45 L
904.983 45 L
904.983 45 L
904.983 45 L
904.983 45 L
904.983 45 L
904.983 45 L
904.983 45 L
904.983 45 L
904.983 45 L
904.983 45 L
904.983 45 L
904.983 45 L
904.983 45 L
904.983 45 L
904.983 45 L
904.983 45 L
904.983 45 L
904.983 45 L
904.983 45 L
904.983 45 L
904.983 45 L
904.983 45 L
904.983 45 L
904.983 45 L
904.983 45 L
904.983 45 L
904.983 45 L
904.983 45 L
904.983 45 L
904.983 45 L
904.983 45 L
904.983 45 L
904.983 45 L
904.983 45 L
904.983 45 L
904.983 45 L
904.983 45 L
904.983 45 L
904.983 45 L
904.983 45 L
904.983 45 L
904.983 45 L
904.983 45 L
904.983 45 L
904.983 45 L
904.983 45 L
904.983 45 L
904.983 45 L
904.983 45 L
904.983 45 L
904.983 45 L
904.983 45 L
904.983 45 L
904.983 45 L
904.983 45 L
904.983 45 L
904.983 45 L
904.983 45 L
904.983 45 L
904.983 45 L
904.983 45 L
904.983 45 L
904.983 45 L
904.983 45 L
904.983 45 L
904.983 45 L
904.983 45 L
904.983 45 L
904.983 45 L
904.983 45 L
904.983 45 L
904.983 45 L
904.983 45 L
904.983 45 L
904.983 45 L
904.983 45 L
904.983 45 L
904.983 45 L
904.983 45 L
904.983 45 L
904.983 45 L
904.983 45 L
904.983 45 L
904.983 45 L
904.983 45 L
904.983 45 L
904.983 45 L
904.983 45 L
904.983 45 L
904.983 45 L
904.983 45 L
904.983 45 L
904.983 45 L
904.983 45 L
904.983 45 L
904.983 45 L
904.983 45 L
904.983 45 L
904.983 45 L
904.983 45 L
904.983 45 L
904.983 45 L
904.983 45 L
904.983 45 L
904.983 45 L
904.983 45 L
904.983 45 L
904.983 45 L
904.983 45 L
904.983 45 L
904.983 45 L
904.983 45 L
904.983 45 L
904.983 45 L
904.983 45 L
904.983 45 L
904.983 45 L
904.983 45 L
904.983 45 L
904.983 45 L
904.983 45 L
904.983 45 L
904.983 45 L
904.983 45 L
904.983 45 L
904.983 45 L
904.983 45 L
904.983 45 L
904.983 45 L
904.983 45 L
904.983 45 L
904.983 45 L
904.983 45 L
904.983 45 L
904.983 45 L
904.983 45 L
904.983 45 L
904.983 45 L
904.983 45 L
904.983 45 L
904.983 45 L
904.983 45 L
904.983 45 L
904.983 45 L
904.983 45 L
904.983 45 L
904.983 45 L
904.983 45 L
904.983 45 L
904.983 45 L
904.983 45 L
904.983 45 L
904.983 45 L
904.983 45 L
904.983 45 L
904.983 45 L
904.983 45 L
904.983 45 L
904.983 45 L
904.983 45 L
904.983 45 L
904.983 45 L
904.983 45 L
905 45 L
S
GR
GS
0 1 0 RC
1 LJ
2 LW
N
130 530.771 M
130 530.771 L
130 530.771 L
130 530.771 L
130 530.771 L
130 530.771 L
130 530.771 L
130 530.771 L
130 530.771 L
130 530.771 L
130 530.771 L
130 530.771 L
130 530.771 L
130 530.771 L
130 530.771 L
130 530.771 L
130 530.771 L
130 530.771 L
130 530.771 L
130 530.771 L
130 530.771 L
130 530.771 L
130 530.771 L
130 530.771 L
130 530.771 L
130 530.771 L
130 530.771 L
130 530.771 L
130 530.771 L
130 530.771 L
130 530.771 L
130 530.771 L
130 530.771 L
130 530.771 L
130 530.771 L
130 530.771 L
130 530.771 L
130 530.771 L
130 530.771 L
130 530.771 L
130 530.771 L
130 530.771 L
130 530.771 L
130 530.771 L
130 530.771 L
130 530.771 L
130 530.771 L
130 530.771 L
130 530.771 L
130 530.771 L
130 530.771 L
130 530.771 L
130 530.771 L
130 530.771 L
130 530.771 L
130 530.771 L
130 530.771 L
130 530.771 L
130 530.771 L
130 530.771 L
130 530.771 L
130 530.771 L
130 530.771 L
130 530.771 L
130 530.771 L
130 530.771 L
130 530.771 L
130 530.771 L
130 530.771 L
130 530.771 L
130 530.771 L
130 530.771 L
130 530.771 L
130 530.771 L
130 530.771 L
130 530.771 L
130 530.771 L
130 530.771 L
130 530.771 L
130 530.771 L
130 530.771 L
130 530.771 L
130 530.771 L
130 530.771 L
130 530.771 L
130 530.771 L
130 530.771 L
130 530.771 L
130 530.771 L
130 530.771 L
130 530.771 L
130 530.771 L
130 530.771 L
130 530.771 L
130 530.771 L
130 530.771 L
130 530.771 L
130 530.771 L
130 530.771 L
130 530.771 L
130 530.771 L
130 530.771 L
130 530.771 L
130 530.771 L
130 530.771 L
130 530.771 L
130 530.771 L
130 530.771 L
130 530.771 L
130 530.771 L
130 530.771 L
130 530.771 L
130 530.771 L
130 530.771 L
130 530.771 L
130 530.771 L
130 530.771 L
130 530.771 L
130 530.771 L
130 530.771 L
130 530.771 L
130 530.771 L
130 530.771 L
130 530.771 L
130 530.771 L
130 530.771 L
130 530.771 L
130 530.771 L
130 530.771 L
130 530.771 L
130 530.771 L
130 530.771 L
130 530.771 L
130 530.771 L
130 530.771 L
130 530.771 L
130 530.771 L
130 530.771 L
130 530.771 L
130 530.771 L
130 530.771 L
130 530.771 L
130 530.771 L
130 530.771 L
130 530.771 L
130 530.771 L
130 530.771 L
130 530.771 L
130 530.771 L
130 530.771 L
130 530.771 L
130 530.771 L
130 530.771 L
130 530.771 L
130 530.771 L
130 530.771 L
130 530.771 L
130 530.771 L
130 530.771 L
130 530.771 L
130 530.771 L
130 530.771 L
130 530.771 L
130 530.771 L
130 530.771 L
130 530.771 L
130 530.771 L
130 530.771 L
130 530.771 L
130 530.541 L
130 530.541 L
130 530.541 L
130 530.541 L
130 530.541 L
130 530.541 L
130 530.541 L
130 530.541 L
130 530.541 L
130 530.541 L
130 530.541 L
130 530.541 L
130 530.541 L
130 530.541 L
130 530.541 L
130 530.541 L
130 530.541 L
130 530.541 L
130 530.541 L
130 530.541 L
130 530.541 L
130 530.312 L
130 530.312 L
130 530.312 L
130 530.312 L
130 529.853 L
130 529.853 L
130 529.853 L
130 529.853 L
130 529.853 L
130 529.853 L
130 529.853 L
130 529.853 L
130 529.853 L
130 529.623 L
130 529.394 L
130 528.935 L
130 528.705 L
130 528.246 L
130 528.246 L
130 527.788 L
130 527.788 L
130 527.788 L
130 527.788 L
130 527.558 L
130 527.558 L
130 527.099 L
130 527.099 L
130 526.64 L
130 526.64 L
130 526.64 L
130 526.181 L
130 525.952 L
130 525.722 L
130 525.263 L
130 524.805 L
130 524.575 L
130 524.575 L
130 524.346 L
130 523.887 L
130 523.887 L
130 523.428 L
130 522.051 L
130 521.133 L
130 520.904 L
130 520.445 L
130 520.445 L
130 519.756 L
130 519.527 L
130 518.839 L
130 518.38 L
130 517.691 L
130 517.003 L
130 517.003 L
130 516.314 L
130 515.626 L
130 515.167 L
130 514.708 L
130 514.708 L
130 514.249 L
130 513.79 L
130 513.561 L
130 513.102 L
130 512.872 L
130 512.414 L
130 511.955 L
130 511.266 L
130 509.89 L
130 509.201 L
130 508.742 L
130 507.824 L
130 506.907 L
130 505.759 L
130 504.841 L
130 504.382 L
130 503.465 L
130 503.465 L
130 503.006 L
130 502.547 L
130 501.629 L
130 500.482 L
130 500.023 L
130 498.875 L
130 497.04 L
130 496.81 L
130 495.433 L
130 494.057 L
130 493.368 L
130 492.909 L
130 492.221 L
130 491.074 L
130 490.385 L
130 489.697 L
130 488.55 L
130 487.402 L
130 486.714 L
130 486.025 L
130 485.567 L
130 484.878 L
130 483.96 L
130 483.272 L
130 482.584 L
130 480.748 L
130 480.059 L
130 479.142 L
130 477.994 L
130 476.847 L
130 475.47 L
130 473.405 L
130 472.487 L
130 472.028 L
130 471.569 L
130 470.881 L
130 470.422 L
130 469.963 L
130 468.816 L
130 467.669 L
130 466.062 L
130 463.768 L
130 461.703 L
130 461.014 L
130 460.326 L
130 458.72 L
130 457.343 L
130 456.654 L
130 456.654 L
130 456.195 L
130 455.048 L
130 454.36 L
130 454.36 L
130 453.901 L
130 453.212 L
130 451.836 L
130 451.147 L
130 449.541 L
130 447.705 L
130 446.558 L
130 445.411 L
130 445.181 L
130 444.493 L
130 442.428 L
130 440.822 L
130 440.133 L
130 438.527 L
130 437.38 L
130 436.691 L
130 436.003 L
130 435.314 L
130 433.708 L
130 433.479 L
130 431.643 L
130 429.348 L
130 429.348 L
130 428.66 L
130 427.283 L
130 426.595 L
130 424.989 L
130 424.3 L
130 423.612 L
130 423.153 L
130 422.006 L
130 420.399 L
130 419.941 L
130 419.252 L
130 417.875 L
130 417.416 L
130 416.269 L
130 415.122 L
130 413.745 L
130 413.516 L
130 411.909 L
130 410.992 L
130 409.156 L
130 408.467 L
130 407.32 L
130 406.402 L
130 404.796 L
130 404.337 L
130 403.878 L
130 403.419 L
130 402.501 L
130 400.895 L
130 399.518 L
130 398.371 L
130 397.683 L
130 396.535 L
130 395.847 L
130 394.7 L
130 394.011 L
130 392.864 L
130 391.717 L
130 389.652 L
130 388.045 L
130 386.21 L
130 384.833 L
130 383.456 L
130 382.538 L
130 380.244 L
130 380.014 L
130 378.178 L
130 377.261 L
130 375.654 L
130 374.278 L
130 372.901 L
130 371.754 L
130 371.065 L
130 370.606 L
130 369.459 L
130 367.394 L
130 366.476 L
130 366.017 L
130 364.87 L
130 363.493 L
130 362.805 L
130 360.969 L
130 359.592 L
130 358.215 L
130 357.527 L
130 357.068 L
130 357.068 L
130 355.691 L
130 354.314 L
130 353.626 L
130 352.02 L
130 351.561 L
130 351.102 L
130 350.873 L
130 349.725 L
130 348.807 L
130 348.119 L
130 347.66 L
130 346.742 L
130 345.824 L
130 345.365 L
130 343.989 L
130 343.071 L
130 342.153 L
130 341.465 L
130 340.776 L
130 340.317 L
130 339.399 L
130 338.482 L
130 338.252 L
130 338.252 L
130 337.564 L
130 336.187 L
130 334.122 L
130 332.975 L
130 332.057 L
130 331.139 L
130 330.221 L
130 329.762 L
130 328.385 L
130 328.156 L
130 326.779 L
130 326.091 L
130 324.943 L
130 323.567 L
130 323.108 L
130 322.19 L
130 321.272 L
130 319.895 L
130 319.207 L
130 318.518 L
130 317.601 L
130 316.683 L
130 315.306 L
130 314.159 L
130 312.782 L
130 311.635 L
130 309.799 L
130 308.881 L
130 308.652 L
130 306.586 L
130 306.127 L
130 305.669 L
130 304.98 L
130 304.062 L
130 303.833 L
130 302.686 L
130 301.538 L
130 301.079 L
130 299.703 L
130 298.326 L
130 296.949 L
130 295.343 L
130 294.425 L
130 292.819 L
130 291.212 L
130 290.524 L
130 289.836 L
130 289.147 L
130 288.229 L
130 287.771 L
130 286.164 L
130 285.017 L
130 283.181 L
130 282.034 L
130 281.116 L
130 280.887 L
130 279.28 L
130 278.822 L
130 277.674 L
130 276.527 L
130 276.527 L
130 274.921 L
130 272.397 L
130 270.79 L
130 269.873 L
130 268.725 L
130 267.807 L
130 265.513 L
130 264.136 L
130 263.448 L
130 263.448 L
130 262.53 L
130 261.153 L
130 258.629 L
130 256.334 L
130 253.81 L
130 252.663 L
130 251.286 L
130 249.68 L
130 248.074 L
130 246.697 L
130 244.861 L
130 242.796 L
130 242.108 L
130 240.272 L
130 237.977 L
130 236.83 L
130 235.683 L
130.004 233.618 L
130.004 232.011 L
130.004 230.635 L
130.008 227.881 L
130.008 226.504 L
130.008 224.669 L
130.008 222.144 L
130.008 220.538 L
130.008 218.932 L
130.008 216.637 L
130.008 214.113 L
130.008 211.36 L
130.008 209.295 L
130.008 207.459 L
130.012 205.853 L
130.017 204.017 L
130.021 202.411 L
130.021 200.116 L
130.021 198.28 L
130.021 197.822 L
130.025 195.527 L
130.042 194.15 L
130.05 191.626 L
130.054 189.102 L
130.058 187.725 L
130.079 186.119 L
130.083 184.972 L
130.083 182.448 L
130.096 181.071 L
130.108 179.006 L
130.125 177.629 L
130.137 176.252 L
130.154 176.023 L
130.167 175.334 L
130.192 174.416 L
130.225 173.499 L
130.267 172.351 L
130.287 170.974 L
130.317 169.827 L
130.392 167.303 L
130.437 166.615 L
130.491 165.697 L
130.583 164.32 L
130.65 163.632 L
130.7 162.714 L
130.796 160.419 L
130.891 158.813 L
130.991 158.125 L
131.141 157.436 L
131.27 156.748 L
131.433 156.059 L
131.599 153.765 L
131.791 151.929 L
132.008 151.47 L
132.274 150.093 L
132.536 147.799 L
132.832 146.881 L
133.12 146.652 L
133.49 145.734 L
133.948 143.669 L
134.432 141.603 L
134.919 140.686 L
135.506 139.768 L
136.048 138.62 L
136.522 138.161 L
137.151 137.244 L
137.889 136.326 L
138.588 135.637 L
139.371 134.49 L
140.288 133.113 L
141.125 131.966 L
142.087 131.278 L
143.107 130.36 L
144.186 129.671 L
145.257 128.754 L
146.531 128.065 L
147.647 126.918 L
148.993 126.229 L
150.209 126.229 L
151.671 124.623 L
153.033 124.164 L
154.686 123.705 L
156.165 123.017 L
157.627 122.788 L
158.98 122.558 L
160.546 121.181 L
162.033 120.493 L
163.545 120.034 L
165.086 119.575 L
166.515 118.657 L
168.143 118.428 L
169.543 118.198 L
170.996 117.739 L
172.471 117.051 L
173.929 116.592 L
175.37 115.904 L
176.453 115.674 L
177.752 114.986 L
178.947 114.986 L
180.005 114.297 L
181.042 114.068 L
182.046 113.839 L
183.033 113.609 L
183.966 113.609 L
184.828 113.38 L
185.587 113.15 L
186.361 112.691 L
187.09 112.462 L
187.719 112.462 L
188.381 112.462 L
188.964 112.003 L
189.464 112.003 L
189.922 112.003 L
190.297 111.314 L
190.66 111.085 L
191.039 111.085 L
191.33 110.856 L
191.626 110.626 L
191.859 110.397 L
192.105 110.397 L
192.288 110.397 L
192.413 110.397 L
192.546 110.397 L
192.688 110.397 L
192.863 110.397 L
192.975 110.397 L
193.038 110.397 L
193.109 110.167 L
193.209 109.938 L
193.238 109.938 L
193.263 109.938 L
193.3 109.938 L
193.325 109.938 L
193.35 109.938 L
193.388 109.938 L
193.433 109.938 L
193.446 109.938 L
193.471 109.938 L
193.483 109.938 L
193.492 109.938 L
193.504 109.938 L
193.508 109.938 L
197.669 108.102 L
202.484 107.184 L
207.624 105.807 L
212.926 104.89 L
218.54 103.283 L
224.213 101.907 L
230.323 100.53 L
236.467 100.3 L
243.176 99.153 L
249.845 98.235 L
257.046 97.317 L
263.885 96.629 L
271.17 95.482 L
278.588 94.793 L
286.226 93.187 L
293.99 92.04 L
301.349 91.81 L
308.526 90.663 L
314.869 90.433 L
321.454 89.975 L
327.589 89.286 L
333.304 88.827 L
338.156 88.368 L
342.421 88.139 L
345.807 87.909 L
348.768 87.909 L
351.034 87.909 L
352.979 87.909 L
354.379 87.909 L
355.295 87.909 L
355.945 87.909 L
356.395 87.909 L
356.582 87.909 L
356.732 87.909 L
356.803 87.909 L
356.84 87.909 L
356.853 87.909 L
356.857 87.909 L
356.861 87.909 L
356.861 87.909 L
356.861 87.909 L
356.861 87.909 L
356.861 87.909 L
356.861 87.909 L
356.861 87.909 L
356.861 87.909 L
356.861 87.909 L
356.861 87.909 L
356.861 87.909 L
356.861 87.909 L
356.861 87.909 L
356.861 87.909 L
356.861 87.909 L
356.861 87.909 L
356.861 87.909 L
356.861 87.909 L
356.861 87.909 L
356.861 87.909 L
356.861 87.909 L
356.861 87.909 L
356.861 87.909 L
356.861 87.909 L
356.861 87.909 L
356.861 87.909 L
356.861 87.909 L
356.861 87.909 L
356.861 87.909 L
356.861 87.909 L
356.861 87.909 L
356.861 87.909 L
356.861 87.909 L
356.861 87.909 L
356.861 87.909 L
356.861 87.909 L
356.861 87.909 L
356.861 87.909 L
356.861 87.909 L
356.861 87.909 L
356.861 87.909 L
356.861 87.909 L
356.861 87.909 L
356.861 87.909 L
356.861 87.909 L
356.861 87.909 L
356.861 87.909 L
356.861 87.909 L
356.861 87.909 L
356.861 87.909 L
356.861 87.909 L
356.861 87.909 L
356.861 87.909 L
356.861 87.909 L
356.861 87.909 L
356.861 87.909 L
356.861 87.909 L
356.861 87.909 L
356.861 87.909 L
356.861 87.909 L
356.861 87.909 L
356.861 87.909 L
356.861 87.909 L
356.861 87.909 L
356.861 87.909 L
356.861 87.909 L
356.861 87.909 L
356.861 87.909 L
356.861 87.909 L
356.861 87.909 L
356.861 87.909 L
356.861 87.909 L
356.861 87.909 L
356.861 87.909 L
356.861 87.909 L
356.861 87.909 L
356.861 87.909 L
356.861 87.909 L
356.861 87.909 L
356.861 87.909 L
356.861 87.909 L
356.861 87.909 L
356.861 87.909 L
356.861 87.909 L
356.861 87.909 L
356.861 87.909 L
356.861 87.909 L
356.861 87.909 L
356.861 87.909 L
356.861 87.909 L
356.861 87.909 L
356.861 87.909 L
356.861 87.909 L
356.861 87.909 L
356.861 87.909 L
356.861 87.909 L
356.861 87.909 L
356.861 87.909 L
356.861 87.909 L
356.861 87.909 L
356.861 87.909 L
356.861 87.909 L
356.861 87.909 L
356.861 87.909 L
356.861 87.909 L
356.861 87.909 L
356.861 87.909 L
356.861 87.909 L
356.861 87.909 L
356.861 87.909 L
356.861 87.909 L
356.861 87.909 L
356.861 87.909 L
356.861 87.909 L
356.861 87.909 L
356.861 87.909 L
356.861 87.909 L
356.861 87.909 L
356.861 87.909 L
356.861 87.909 L
356.861 87.909 L
356.861 87.909 L
356.861 87.909 L
356.861 87.909 L
356.861 87.909 L
356.861 87.909 L
356.861 87.909 L
356.861 87.909 L
356.861 87.909 L
356.861 87.909 L
356.861 87.909 L
356.861 87.909 L
356.861 87.909 L
356.861 87.909 L
356.861 87.909 L
356.861 87.909 L
356.861 87.909 L
356.861 87.909 L
356.861 87.909 L
356.861 87.909 L
356.861 87.909 L
356.861 87.909 L
356.861 87.909 L
356.861 87.909 L
356.861 87.909 L
356.861 87.909 L
356.861 87.909 L
356.861 87.909 L
356.861 87.909 L
356.861 87.909 L
356.861 87.909 L
356.861 87.909 L
356.861 87.909 L
356.861 87.909 L
356.861 87.909 L
356.861 87.909 L
356.861 87.909 L
356.861 87.909 L
356.861 87.909 L
356.861 87.909 L
356.861 87.909 L
356.861 87.909 L
356.861 87.909 L
356.861 87.909 L
356.861 87.909 L
356.861 87.909 L
356.861 87.909 L
356.861 87.909 L
356.861 87.909 L
356.861 87.909 L
356.861 87.909 L
356.861 87.909 L
356.861 87.909 L
356.861 87.909 L
356.861 87.909 L
356.861 87.909 L
356.861 87.909 L
356.861 87.909 L
356.861 87.909 L
356.861 87.909 L
356.861 87.909 L
356.861 87.909 L
356.861 87.909 L
356.861 87.909 L
356.861 87.909 L
356.861 87.909 L
356.861 87.909 L
356.861 87.909 L
356.861 87.909 L
356.861 87.909 L
356.861 87.909 L
356.861 87.909 L
356.861 87.909 L
356.861 87.909 L
356.861 87.909 L
356.861 87.909 L
356.861 87.909 L
356.861 87.909 L
356.861 87.909 L
356.861 87.909 L
356.861 87.909 L
356.861 87.909 L
356.861 87.909 L
356.861 87.909 L
356.861 87.909 L
356.861 87.909 L
356.861 87.909 L
356.861 87.909 L
356.861 87.909 L
356.861 87.909 L
356.861 87.909 L
356.861 87.909 L
356.861 87.909 L
356.861 87.909 L
356.861 87.909 L
356.861 87.909 L
356.861 87.909 L
356.861 87.909 L
356.861 87.909 L
356.861 87.909 L
356.861 87.909 L
356.861 87.909 L
356.861 87.909 L
356.861 87.909 L
356.861 87.909 L
356.861 87.909 L
356.861 87.909 L
356.861 87.909 L
356.861 87.909 L
356.861 87.909 L
356.861 87.909 L
356.861 87.909 L
356.861 87.909 L
356.861 87.909 L
356.861 87.909 L
356.861 87.909 L
356.861 87.909 L
356.861 87.909 L
356.861 87.909 L
356.861 87.909 L
356.861 87.909 L
356.861 87.909 L
356.861 87.909 L
356.861 87.909 L
356.861 87.909 L
356.861 87.909 L
356.861 87.909 L
356.861 87.909 L
356.861 87.909 L
356.861 87.909 L
356.861 87.909 L
356.861 87.909 L
356.861 87.909 L
356.861 87.909 L
356.861 87.909 L
356.861 87.909 L
356.861 87.909 L
356.861 87.909 L
356.861 87.909 L
356.861 87.909 L
356.861 87.909 L
356.861 87.909 L
356.861 87.909 L
356.861 87.909 L
356.861 87.909 L
356.861 87.909 L
356.861 87.909 L
356.861 87.909 L
356.861 87.909 L
356.861 87.909 L
356.861 87.909 L
356.861 87.909 L
356.861 87.909 L
356.861 87.909 L
356.861 87.909 L
356.861 87.909 L
356.861 87.909 L
356.861 87.909 L
356.861 87.909 L
356.861 87.909 L
356.861 87.909 L
356.861 87.909 L
356.861 87.909 L
356.861 87.909 L
356.861 87.909 L
356.861 87.909 L
356.861 87.909 L
356.861 87.909 L
356.861 87.909 L
356.861 87.909 L
356.861 87.909 L
356.861 87.909 L
356.861 87.909 L
356.861 87.909 L
356.861 87.909 L
356.861 87.909 L
356.861 87.909 L
356.861 87.909 L
356.861 87.909 L
905 45 L
S
GR
GS
1 LJ
2 LW
N
130 530.771 M
130 530.771 L
130 530.771 L
130 530.771 L
130 530.771 L
130 530.771 L
130 530.771 L
130 530.771 L
130 530.771 L
130 530.771 L
130 530.771 L
130 530.771 L
130 530.771 L
130 530.771 L
130 530.771 L
130 530.771 L
130 530.771 L
130 530.771 L
130 530.771 L
130 530.771 L
130 530.771 L
130 530.771 L
130 530.771 L
130 530.771 L
130 530.771 L
130 530.771 L
130 530.771 L
130 530.771 L
130 530.771 L
130 530.771 L
130 530.771 L
130 530.771 L
130 530.771 L
130 530.771 L
130 530.771 L
130 530.771 L
130 530.771 L
130 530.771 L
130 530.771 L
130 530.771 L
130 530.771 L
130 530.771 L
130 530.771 L
130 530.771 L
130 530.771 L
130 530.771 L
130 530.771 L
130 530.771 L
130 530.771 L
130 530.771 L
130 530.771 L
130 530.771 L
130 530.771 L
130 530.771 L
130 530.771 L
130 530.771 L
130 530.771 L
130 530.771 L
130 530.771 L
130 530.771 L
130 530.771 L
130 530.771 L
130 530.771 L
130 530.771 L
130 530.771 L
130 530.771 L
130 530.771 L
130 530.771 L
130 530.771 L
130 530.771 L
130 530.771 L
130 530.771 L
130 530.771 L
130 530.771 L
130 530.771 L
130 530.771 L
130 530.771 L
130 530.771 L
130 530.771 L
130 530.771 L
130 530.771 L
130 530.771 L
130 530.771 L
130 530.771 L
130 530.771 L
130 530.771 L
130 530.771 L
130 530.771 L
130 530.771 L
130 530.771 L
130 530.771 L
130 530.771 L
130 530.771 L
130 530.771 L
130 530.771 L
130 530.771 L
130 530.771 L
130 530.771 L
130 530.771 L
130 530.771 L
130 530.771 L
130 530.771 L
130 530.771 L
130 530.771 L
130 530.771 L
130 530.771 L
130 530.771 L
130 530.771 L
130 530.771 L
130 530.771 L
130 530.771 L
130 530.771 L
130 530.771 L
130 530.771 L
130 530.771 L
130 530.771 L
130 530.771 L
130 530.771 L
130 530.771 L
130 530.771 L
130 530.771 L
130 530.771 L
130 530.771 L
130 530.771 L
130 530.771 L
130 530.771 L
130 530.771 L
130 530.771 L
130 530.771 L
130 530.771 L
130 530.771 L
130 530.771 L
130 530.771 L
130 530.771 L
130 530.771 L
130 530.771 L
130 530.771 L
130 530.771 L
130 530.771 L
130 530.771 L
130 530.771 L
130 530.771 L
130 530.771 L
130 530.771 L
130 530.771 L
130 530.771 L
130 530.771 L
130 530.771 L
130 530.771 L
130 530.771 L
130 530.771 L
130 530.771 L
130 530.771 L
130 530.771 L
130 530.771 L
130 530.771 L
130 530.771 L
130 530.771 L
130 530.771 L
130 530.771 L
130 530.771 L
130 530.771 L
130 530.771 L
130 530.771 L
130 530.771 L
130 530.771 L
130 530.771 L
130 530.771 L
130 530.771 L
130 530.771 L
130 530.771 L
130 530.771 L
130 530.771 L
130 530.771 L
130 530.771 L
130 530.771 L
130 530.771 L
130 530.771 L
130 530.771 L
130 530.771 L
130 530.771 L
130 530.771 L
130 530.541 L
130 530.541 L
130 530.541 L
130 530.541 L
130 530.541 L
130 530.541 L
130 530.541 L
130 530.541 L
130 530.541 L
130 530.541 L
130 530.541 L
130 530.541 L
130 530.541 L
130 530.541 L
130 530.541 L
130 530.541 L
130 530.312 L
130 530.312 L
130 530.312 L
130 530.312 L
130 530.312 L
130 530.312 L
130 530.312 L
130 530.312 L
130 530.312 L
130 530.312 L
130 530.312 L
130 530.082 L
130 530.082 L
130 530.082 L
130 530.082 L
130 530.082 L
130 529.853 L
130 529.623 L
130 529.623 L
130 529.623 L
130 529.623 L
130 529.623 L
130 529.164 L
130 529.164 L
130 528.935 L
130 528.705 L
130 528.705 L
130 528.705 L
130 528.705 L
130 528.476 L
130 528.476 L
130 528.246 L
130 528.017 L
130 527.788 L
130 527.099 L
130 526.64 L
130 526.64 L
130 526.64 L
130 526.64 L
130 526.411 L
130 526.411 L
130 525.952 L
130 525.493 L
130 525.263 L
130 524.805 L
130 524.116 L
130 524.116 L
130 524.116 L
130 524.116 L
130 524.116 L
130 524.116 L
130 524.116 L
130 523.887 L
130 523.428 L
130 523.428 L
130 523.428 L
130 523.428 L
130 523.428 L
130 523.428 L
130 522.739 L
130 522.28 L
130 521.592 L
130 520.904 L
130 520.445 L
130 520.215 L
130 519.986 L
130 519.297 L
130 519.068 L
130 518.38 L
130 517.691 L
130 517.462 L
130 517.232 L
130 516.085 L
130 516.085 L
130 515.626 L
130 515.397 L
130 514.02 L
130 512.872 L
130 512.184 L
130 511.496 L
130 510.578 L
130 510.348 L
130 509.431 L
130 508.742 L
130 508.283 L
130 507.595 L
130 506.907 L
130 505.759 L
130 505.53 L
130 505.071 L
130 505.071 L
130 505.071 L
130 504.382 L
130 503.465 L
130 502.547 L
130 501.399 L
130 501.399 L
130 500.482 L
130 500.023 L
130 499.105 L
130 498.416 L
130 497.958 L
130 496.81 L
130 496.581 L
130 495.892 L
130 494.286 L
130 494.057 L
130 493.139 L
130 491.992 L
130 491.303 L
130 491.074 L
130 490.844 L
130 489.926 L
130 489.238 L
130 488.55 L
130 487.402 L
130 486.943 L
130 486.943 L
130 486.714 L
130 485.567 L
130 484.878 L
130 484.419 L
130 482.584 L
130 481.666 L
130 480.748 L
130 479.371 L
130 479.142 L
130 478.224 L
130 477.535 L
130 476.847 L
130 476.388 L
130 475.241 L
130 474.093 L
130 473.864 L
130 472.717 L
130 472.258 L
130 471.799 L
130 471.34 L
130 471.11 L
130 470.881 L
130 470.652 L
130 470.422 L
130 469.275 L
130 468.127 L
130 467.669 L
130 466.521 L
130 465.144 L
130 464.456 L
130 463.768 L
130 462.85 L
130 462.161 L
130 461.244 L
130 460.785 L
130 459.637 L
130 458.49 L
130 458.031 L
130 457.572 L
130 455.278 L
130 453.901 L
130 453.212 L
130 452.065 L
130 451.377 L
130 450 L
130 449.771 L
130 448.623 L
130 447.935 L
130 447.246 L
130 446.558 L
130 445.87 L
130 445.181 L
130 444.722 L
130 444.493 L
130 443.575 L
130 443.346 L
130 441.969 L
130 441.51 L
130 440.592 L
130 439.904 L
130 439.674 L
130 438.527 L
130 438.297 L
130 437.609 L
130 436.921 L
130 436.232 L
130 435.773 L
130 434.397 L
130 434.167 L
130 433.249 L
130 432.561 L
130 431.643 L
130 431.184 L
130 430.266 L
130 429.807 L
130 429.578 L
130 427.742 L
130 425.448 L
130 424.53 L
130 424.071 L
130 422.465 L
130 421.317 L
130 420.629 L
130 419.482 L
130 418.564 L
130 417.187 L
130 416.728 L
130 415.81 L
130 415.581 L
130 414.433 L
130 413.975 L
130 413.745 L
130 413.286 L
130 412.139 L
130 411.68 L
130 410.533 L
130 409.156 L
130 408.697 L
130 408.467 L
130 408.009 L
130 407.091 L
130 406.173 L
130 404.567 L
130 404.567 L
130 403.19 L
130 401.584 L
130 401.584 L
130 400.895 L
130 398.83 L
130 397.683 L
130 396.535 L
130 395.847 L
130 394.7 L
130 394.47 L
130 393.093 L
130 392.405 L
130 390.569 L
130 390.11 L
130 389.652 L
130 389.422 L
130 388.504 L
130 388.275 L
130 387.357 L
130 386.21 L
130 385.292 L
130 384.374 L
130 382.768 L
130 381.391 L
130 380.932 L
130 380.703 L
130 378.637 L
130 377.031 L
130 376.572 L
130 375.884 L
130 375.195 L
130 374.048 L
130 373.819 L
130 373.589 L
130 371.983 L
130 371.295 L
130 370.377 L
130 369.459 L
130 368.771 L
130 368.771 L
130 368.082 L
130 367.623 L
130 367.623 L
130 367.394 L
130 366.246 L
130 365.788 L
130 365.329 L
130 364.87 L
130 363.722 L
130 362.346 L
130 361.887 L
130 360.739 L
130 360.28 L
130 359.133 L
130 358.904 L
130 357.986 L
130 357.527 L
130 356.609 L
130 355.232 L
130 354.773 L
130 354.085 L
130 353.397 L
130 353.397 L
130 351.79 L
130 351.331 L
130 350.184 L
130 349.496 L
130 349.266 L
130 348.578 L
130 348.119 L
130 347.66 L
130 346.742 L
130 346.513 L
130 345.365 L
130 345.136 L
130 343.53 L
130 343.071 L
130 342.612 L
130 342.153 L
130 341.923 L
130 340.776 L
130 340.088 L
130 339.629 L
130 339.399 L
130 339.17 L
130 338.941 L
130 337.564 L
130 336.646 L
130 335.958 L
130 335.728 L
130 334.581 L
130 334.122 L
130 333.892 L
130 333.663 L
130 333.204 L
130 332.745 L
130 332.286 L
130 331.598 L
130 330.909 L
130 330.45 L
130 329.992 L
130 329.303 L
130 328.385 L
130 327.238 L
130 326.779 L
130 326.091 L
130 325.173 L
130 324.714 L
130 322.878 L
130 321.731 L
130 320.125 L
130 319.895 L
130 318.06 L
130 316.683 L
130 316.683 L
130 315.535 L
130 314.159 L
130 313.241 L
130 311.864 L
130 310.028 L
130 309.799 L
130 308.652 L
130 308.422 L
130 307.504 L
130 306.816 L
130 305.439 L
130 304.062 L
130 301.997 L
130 299.932 L
130 299.703 L
130 297.408 L
130 296.031 L
130 295.572 L
130 293.966 L
130 292.36 L
130 291.212 L
130 289.606 L
130 289.377 L
130 288.459 L
130 287.082 L
130 285.935 L
130 285.476 L
130 284.788 L
130 284.329 L
130 284.099 L
130 283.411 L
130 282.034 L
130 281.116 L
130 278.363 L
130 276.527 L
130 275.839 L
130 274.691 L
130 274.462 L
130 274.232 L
130 272.397 L
130 271.249 L
130 270.331 L
130 269.184 L
130 268.496 L
130 268.037 L
130 266.201 L
130 264.824 L
130 264.365 L
130 263.218 L
130 262.53 L
130 262.071 L
130 261.153 L
130 260.924 L
130 259.547 L
130 257.941 L
130 256.564 L
130 254.957 L
130 254.499 L
130 253.351 L
130 252.892 L
130 251.975 L
130 249.45 L
130 248.533 L
130 245.779 L
130 244.632 L
130 244.173 L
130 243.484 L
130 242.796 L
130 241.19 L
130 240.042 L
130 238.436 L
130 237.059 L
130 235.453 L
130 234.765 L
130 234.076 L
130 233.618 L
130 232.47 L
130 230.864 L
130 230.176 L
130 228.34 L
130 226.734 L
130 224.898 L
130 223.751 L
130 221.456 L
130 219.391 L
130 218.244 L
130.004 217.326 L
130.004 215.72 L
130.004 215.261 L
130.008 213.884 L
130.008 212.737 L
130.012 210.901 L
130.012 208.836 L
130.012 206.771 L
130.017 206.312 L
130.021 204.705 L
130.021 203.329 L
130.025 202.411 L
130.025 200.575 L
130.025 199.198 L
130.025 198.28 L
130.025 196.904 L
130.025 195.068 L
130.025 194.38 L
130.029 193.462 L
130.033 192.773 L
130.037 191.167 L
130.042 190.02 L
130.042 188.873 L
130.042 186.348 L
130.042 184.513 L
130.046 183.595 L
130.046 183.365 L
130.058 181.989 L
130.062 180.153 L
130.067 179.235 L
130.067 178.088 L
130.067 176.941 L
130.071 176.252 L
130.083 174.875 L
130.1 174.187 L
130.108 173.728 L
130.129 172.351 L
130.137 171.663 L
130.15 169.598 L
130.162 168.909 L
130.175 166.615 L
130.179 165.238 L
130.187 163.632 L
130.204 162.026 L
130.225 160.878 L
130.246 159.501 L
130.246 158.584 L
130.254 156.977 L
130.267 156.518 L
130.292 155.83 L
130.312 154.912 L
130.367 153.994 L
130.387 152.618 L
130.408 151.241 L
130.433 149.635 L
130.458 148.028 L
130.479 146.881 L
130.537 146.193 L
130.575 144.816 L
130.621 144.357 L
130.691 142.98 L
130.729 142.751 L
130.787 142.751 L
130.895 141.833 L
130.95 141.374 L
131.054 140.227 L
131.133 139.538 L
131.212 138.391 L
131.316 137.014 L
131.404 136.096 L
131.554 134.261 L
131.641 133.802 L
131.795 132.195 L
131.916 131.278 L
132.066 129.901 L
132.245 129.901 L
132.378 129.442 L
132.512 128.524 L
132.703 127.836 L
132.807 127.147 L
133.015 125.541 L
133.215 124.623 L
133.44 123.476 L
133.632 122.788 L
133.848 120.952 L
134.019 120.263 L
134.24 119.575 L
134.602 119.575 L
134.869 118.657 L
135.231 118.428 L
135.631 117.739 L
135.993 117.051 L
136.343 115.215 L
136.789 114.297 L
137.11 113.839 L
137.568 113.15 L
138.034 112.462 L
138.476 111.773 L
138.93 111.773 L
139.45 111.314 L
140.104 109.938 L
140.517 109.02 L
141.121 107.873 L
141.795 106.266 L
142.512 104.201 L
143.257 103.513 L
144.069 102.595 L
144.803 102.136 L
145.702 101.448 L
146.323 101.448 L
147.135 100.989 L
148.055 99.841 L
149.043 98.694 L
149.946 98.465 L
151.025 98.006 L
152.187 97.088 L
152.92 96.629 L
153.957 95.711 L
155.428 95.023 L
156.727 94.564 L
157.952 93.875 L
159.368 93.187 L
160.98 92.269 L
162.516 91.81 L
163.491 91.351 L
165.061 90.892 L
166.611 90.663 L
168.306 90.433 L
170.234 89.975 L
172.388 88.827 L
174.433 87.909 L
175.64 87.45 L
177.969 86.762 L
179.98 86.533 L
182.3 86.303 L
184.679 86.303 L
187.219 85.844 L
189.814 84.467 L
192.742 84.467 L
194.529 84.238 L
197.553 83.55 L
200.785 83.091 L
203.792 83.091 L
207.124 82.861 L
210.306 82.632 L
213.48 82.632 L
215.82 81.943 L
219.602 81.484 L
223.268 80.567 L
226.979 80.567 L
231.244 79.419 L
235.4 79.19 L
239.303 78.272 L
243.66 77.125 L
246.392 76.895 L
250.669 76.207 L
255.305 75.748 L
259.866 75.059 L
264.964 74.83 L
270.207 74.601 L
275.16 74.371 L
278.475 73.224 L
283.894 72.765 L
289.908 72.306 L
295.285 71.847 L
301.299 71.159 L
307.564 70.7 L
313.361 69.782 L
319.821 69.093 L
323.891 68.635 L
330.38 68.405 L
336.573 67.028 L
343.162 66.569 L
349.843 65.652 L
356.728 65.652 L
363.596 65.422 L
368.19 65.193 L
375.266 64.504 L
382.009 64.045 L
389.173 64.045 L
396.541 63.586 L
403.738 63.357 L
411.606 62.898 L
419.095 62.21 L
424.001 61.521 L
432.04 60.833 L
439.783 60.833 L
447.55 60.833 L
455.489 60.833 L
463.856 60.144 L
471.837 59.686 L
480.933 58.997 L
485.361 58.309 L
493.091 57.161 L
501.421 56.473 L
509.63 56.244 L
517.91 55.785 L
526.174 55.555 L
534.275 54.867 L
540.064 54.867 L
548.307 54.637 L
555.987 54.178 L
564.084 53.72 L
572.293 53.031 L
580.636 52.802 L
588.945 52.343 L
597.042 51.884 L
602.664 51.654 L
610.187 51.425 L
617.646 51.425 L
625.63 51.425 L
633.448 50.966 L
641.195 50.507 L
648.867 50.278 L
653.84 50.048 L
660.846 49.819 L
668.155 49.589 L
675.619 49.36 L
682.675 49.13 L
689.884 48.901 L
696.848 48.212 L
704.208 47.754 L
708.944 47.754 L
715.224 47.524 L
721.468 47.524 L
727.936 47.295 L
734.708 47.295 L
741.056 46.606 L
747.374 46.377 L
751.369 46.377 L
757.121 46.377 L
762.618 46.377 L
768.054 46.377 L
773.889 46.147 L
779.595 46.147 L
784.843 45.918 L
790.07 45.918 L
793.419 45.918 L
798.175 45.918 L
802.294 45.918 L
806.801 45.918 L
811.287 45.918 L
815.552 45.918 L
819.659 45.918 L
822.324 45.918 L
825.731 45.459 L
829.321 45.459 L
832.92 45.459 L
836.323 45.459 L
839.601 45.459 L
842.824 45.459 L
845.877 45.459 L
847.764 45.459 L
850.313 45.459 L
852.958 45.459 L
855.694 45.459 L
858.081 45.459 L
860.397 45.459 L
863.012 45.459 L
864.349 45.459 L
866.265 45.459 L
868.314 45.459 L
870.593 45.459 L
872.629 45.459 L
874.462 45.229 L
876.461 45.229 L
877.328 45 L
878.265 45 L
879.839 45 L
881.43 45 L
882.796 45 L
884.1 45 L
885.254 45 L
886.282 45 L
886.882 45 L
888.015 45 L
888.994 45 L
890.064 45 L
891.001 45 L
891.884 45 L
892.617 45 L
893.28 45 L
893.875 45 L
894.575 45 L
895.262 45 L
895.87 45 L
896.537 45 L
897.057 45 L
897.578 45 L
897.936 45 L
898.423 45 L
898.919 45 L
899.256 45 L
899.648 45 L
900.014 45 L
900.294 45 L
900.606 45 L
900.906 45 L
901.26 45 L
901.476 45 L
901.726 45 L
901.993 45 L
902.209 45 L
902.397 45 L
902.534 45 L
902.676 45 L
902.826 45 L
902.967 45 L
903.101 45 L
903.217 45 L
903.351 45 L
903.484 45 L
903.559 45 L
903.676 45 L
903.784 45 L
903.888 45 L
903.971 45 L
904.042 45 L
904.125 45 L
904.18 45 L
904.246 45 L
904.3 45 L
904.342 45 L
904.396 45 L
904.438 45 L
904.484 45 L
904.525 45 L
904.55 45 L
904.6 45 L
904.633 45 L
904.654 45 L
904.671 45 L
904.708 45 L
904.733 45 L
904.754 45 L
904.775 45 L
904.792 45 L
904.813 45 L
904.825 45 L
904.838 45 L
904.858 45 L
904.875 45 L
904.879 45 L
904.892 45 L
904.896 45 L
904.908 45 L
904.908 45 L
904.917 45 L
904.917 45 L
904.925 45 L
904.925 45 L
904.933 45 L
904.938 45 L
904.946 45 L
904.954 45 L
904.963 45 L
904.967 45 L
904.967 45 L
904.971 45 L
904.971 45 L
904.975 45 L
904.979 45 L
904.979 45 L
904.979 45 L
904.979 45 L
904.979 45 L
904.979 45 L
904.979 45 L
904.979 45 L
904.988 45 L
904.988 45 L
904.988 45 L
904.992 45 L
904.992 45 L
904.992 45 L
904.992 45 L
904.992 45 L
904.996 45 L
904.996 45 L
905 45 L
S
GR
GS
1 0 0 RC
1 LJ
2 LW
N
130 530.771 M
130 530.771 L
130 530.771 L
130 530.771 L
130 530.771 L
130 530.771 L
130 530.771 L
130 530.771 L
130 530.771 L
130 530.771 L
130 530.771 L
130 530.771 L
130 530.771 L
130 530.771 L
130 530.771 L
130 530.771 L
130 530.771 L
130 530.771 L
130 530.771 L
130 530.771 L
130 530.771 L
130 530.771 L
130 530.771 L
130 530.771 L
130 530.771 L
130 530.771 L
130 530.771 L
130 530.771 L
130 530.771 L
130 530.771 L
130 530.771 L
130 530.771 L
130 530.771 L
130 530.771 L
130 530.771 L
130 530.771 L
130 530.771 L
130 530.771 L
130 530.771 L
130 530.771 L
130 530.771 L
130 530.771 L
130 530.771 L
130 530.771 L
130 530.771 L
130 530.771 L
130 530.771 L
130 530.771 L
130 530.771 L
130 530.771 L
130 530.771 L
130 530.771 L
130 530.771 L
130 530.771 L
130 530.771 L
130 530.771 L
130 530.771 L
130 530.771 L
130 530.771 L
130 530.771 L
130 530.771 L
130 530.771 L
130 530.771 L
130 530.771 L
130 530.771 L
130 530.771 L
130 530.771 L
130 530.771 L
130 530.771 L
130 530.771 L
130 530.771 L
130 530.771 L
130 530.771 L
130 530.771 L
130 530.771 L
130 530.771 L
130 530.771 L
130 530.771 L
130 530.771 L
130 530.771 L
130 530.771 L
130 530.771 L
130 530.771 L
130 530.771 L
130 530.771 L
130 530.771 L
130 530.771 L
130 530.771 L
130 530.771 L
130 530.771 L
130 530.771 L
130 530.771 L
130 530.771 L
130 530.771 L
130 530.771 L
130 530.771 L
130 530.771 L
130 530.771 L
130 530.771 L
130 530.771 L
130 530.771 L
130 530.771 L
130 530.771 L
130 530.771 L
130 530.771 L
130 530.771 L
130 530.771 L
130 530.771 L
130 530.771 L
130 530.771 L
130 530.771 L
130 530.771 L
130 530.771 L
130 530.771 L
130 530.771 L
130 530.771 L
130 530.771 L
130 530.771 L
130 530.771 L
130 530.771 L
130 530.771 L
130 530.771 L
130 530.771 L
130 530.771 L
130 530.771 L
130 530.771 L
130 530.771 L
130 530.771 L
130 530.771 L
130 530.771 L
130 530.771 L
130 530.771 L
130 530.771 L
130 530.771 L
130 530.771 L
130 530.771 L
130 530.771 L
130 530.771 L
130 530.771 L
130 530.771 L
130 530.771 L
130 530.771 L
130 530.771 L
130 530.771 L
130 530.771 L
130 530.771 L
130 530.771 L
130 530.771 L
130 530.771 L
130 530.771 L
130 530.771 L
130 530.771 L
130 530.771 L
130 530.771 L
130 530.771 L
130 530.771 L
130 530.771 L
130 530.771 L
130 530.771 L
130 530.771 L
130 530.771 L
130 530.771 L
130 530.771 L
130 530.771 L
130 530.771 L
130 530.771 L
130 530.771 L
130 530.541 L
130 530.541 L
130 530.541 L
130 530.541 L
130 530.541 L
130 530.541 L
130 530.541 L
130 530.541 L
130 530.541 L
130 530.541 L
130 530.541 L
130 530.541 L
130 530.541 L
130 530.541 L
130 530.541 L
130 530.541 L
130 530.312 L
130 530.312 L
130 530.312 L
130 530.312 L
130 530.312 L
130 530.312 L
130 530.312 L
130 530.312 L
130 530.312 L
130 530.312 L
130 530.312 L
130 530.082 L
130 529.853 L
130 529.853 L
130 529.394 L
130 529.394 L
130 529.394 L
130 529.394 L
130 529.164 L
130 528.705 L
130 528.705 L
130 528.705 L
130 528.705 L
130 528.705 L
130 528.017 L
130 528.017 L
130 528.017 L
130 527.788 L
130 527.558 L
130 527.558 L
130 527.329 L
130 527.329 L
130 526.87 L
130 526.64 L
130 526.411 L
130 526.181 L
130 525.952 L
130 525.493 L
130 525.034 L
130 524.346 L
130 524.346 L
130 524.116 L
130 524.116 L
130 523.657 L
130 523.428 L
130 522.739 L
130 522.739 L
130 522.51 L
130 521.822 L
130 521.592 L
130 520.904 L
130 520.215 L
130 519.986 L
130 519.297 L
130 519.297 L
130 518.839 L
130 518.839 L
130 518.839 L
130 518.609 L
130 518.609 L
130 518.15 L
130 516.773 L
130 515.397 L
130 514.479 L
130 514.249 L
130 513.79 L
130 513.79 L
130 512.872 L
130 512.643 L
130 511.955 L
130 511.725 L
130 511.496 L
130 510.807 L
130 509.89 L
130 509.201 L
130 508.054 L
130 507.595 L
130 507.365 L
130 507.136 L
130 505.759 L
130 505.53 L
130 504.841 L
130 502.547 L
130 501.629 L
130 500.941 L
130 500.711 L
130 499.105 L
130 497.958 L
130 497.269 L
130 496.581 L
130 496.122 L
130 495.892 L
130 495.204 L
130 494.286 L
130 492.909 L
130 491.992 L
130 491.074 L
130 490.844 L
130 489.697 L
130 488.32 L
130 486.943 L
130 486.484 L
130 485.108 L
130 485.108 L
130 484.19 L
130 483.731 L
130 482.813 L
130 482.584 L
130 481.436 L
130 481.207 L
130 480.059 L
130 479.142 L
130 477.994 L
130 477.535 L
130 476.618 L
130 475.241 L
130 474.782 L
130 474.093 L
130 473.176 L
130 472.717 L
130 471.799 L
130 471.569 L
130 471.569 L
130 469.963 L
130 468.816 L
130 468.357 L
130 467.669 L
130 466.98 L
130 466.521 L
130 465.374 L
130 463.538 L
130 462.391 L
130 462.161 L
130 461.473 L
130 461.014 L
130 459.637 L
130 458.72 L
130 458.72 L
130 457.802 L
130 457.343 L
130 456.884 L
130 455.966 L
130 454.819 L
130 454.589 L
130 453.901 L
130 453.212 L
130 452.754 L
130 452.524 L
130 451.377 L
130 450.459 L
130 448.853 L
130 447.246 L
130 447.017 L
130 446.558 L
130 446.329 L
130 444.722 L
130 442.887 L
130 441.739 L
130 440.592 L
130 440.592 L
130 438.756 L
130 437.839 L
130 436.232 L
130 435.085 L
130 433.938 L
130 433.708 L
130 431.873 L
130 431.184 L
130 430.725 L
130 428.89 L
130 427.972 L
130 426.824 L
130 426.824 L
130 426.136 L
130 425.448 L
130 424.53 L
130 423.841 L
130 422.465 L
130 422.006 L
130 419.941 L
130 418.793 L
130 418.334 L
130 417.646 L
130 417.416 L
130 417.187 L
130 415.81 L
130 415.122 L
130 413.975 L
130 413.975 L
130 413.516 L
130 413.286 L
130 412.368 L
130 411.68 L
130 411.221 L
130 410.762 L
130 409.615 L
130 409.156 L
130 408.238 L
130 407.091 L
130 406.402 L
130 405.255 L
130 404.796 L
130 403.878 L
130 403.19 L
130 402.272 L
130 401.354 L
130 400.207 L
130 398.83 L
130 397.224 L
130 396.994 L
130 396.076 L
130 395.618 L
130 394.47 L
130 393.552 L
130 392.635 L
130 391.946 L
130 390.569 L
130 388.734 L
130 387.816 L
130 387.127 L
130 386.439 L
130 386.439 L
130 385.521 L
130 384.603 L
130 384.603 L
130 384.374 L
130 382.997 L
130 382.538 L
130 381.85 L
130 381.391 L
130 380.932 L
130 379.555 L
130 377.949 L
130 376.572 L
130 376.572 L
130 375.195 L
130 374.278 L
130 372.901 L
130 371.524 L
130 370.377 L
130 369.918 L
130 369.229 L
130 368.771 L
130 368.771 L
130 368.082 L
130 367.623 L
130 367.394 L
130 367.164 L
130 366.935 L
130 365.788 L
130 364.64 L
130 363.952 L
130 363.493 L
130 363.034 L
130 362.116 L
130 361.428 L
130 360.28 L
130 358.674 L
130 357.756 L
130 357.527 L
130 357.068 L
130 355.921 L
130 355.003 L
130 354.085 L
130 353.167 L
130 352.938 L
130 352.249 L
130 351.79 L
130 351.561 L
130 351.331 L
130 351.102 L
130 350.643 L
130 350.643 L
130 349.725 L
130 349.037 L
130 348.348 L
130 347.66 L
130 347.201 L
130 346.972 L
130 345.824 L
130 345.365 L
130 344.677 L
130 344.218 L
130 343.989 L
130 343.3 L
130 342.841 L
130 342.153 L
130 341.465 L
130 340.776 L
130 340.088 L
130 340.088 L
130 339.399 L
130 338.482 L
130 338.482 L
130 338.023 L
130 338.023 L
130 338.023 L
130 337.793 L
130 336.646 L
130 336.187 L
130 335.04 L
130 334.81 L
130 334.81 L
130 334.581 L
130 334.122 L
130 333.204 L
130 332.745 L
130 332.516 L
130 332.286 L
130 331.368 L
130 330.45 L
130 329.533 L
130 329.074 L
130 328.156 L
130 328.156 L
130 327.467 L
130 327.008 L
130 326.55 L
130 325.632 L
130 324.943 L
130 324.255 L
130 323.796 L
130 322.878 L
130 321.96 L
130 321.731 L
130 320.584 L
130 319.895 L
130 319.436 L
130 317.83 L
130 316.912 L
130 315.535 L
130 315.076 L
130 313.47 L
130 313.011 L
130 312.323 L
130 311.176 L
130 310.028 L
130 308.422 L
130 306.586 L
130 306.127 L
130 304.292 L
130 302.686 L
130 301.538 L
130 300.391 L
130 298.326 L
130 298.096 L
130 297.408 L
130 296.72 L
130 296.031 L
130 295.343 L
130 293.737 L
130 292.819 L
130 292.36 L
130 291.442 L
130 290.524 L
130 289.836 L
130 288.688 L
130 287.541 L
130 286.853 L
130 286.164 L
130 285.246 L
130 283.87 L
130 283.181 L
130 282.263 L
130 280.887 L
130 280.198 L
130 278.822 L
130 277.445 L
130 276.068 L
130 274.921 L
130 274.462 L
130 274.003 L
130 273.773 L
130 272.626 L
130 271.249 L
130 270.102 L
130 268.266 L
130 267.807 L
130 266.201 L
130 265.283 L
130 264.595 L
130 264.136 L
130 262.759 L
130 262.53 L
130 261.612 L
130 260.235 L
130 259.317 L
130 257.941 L
130 257.252 L
130 256.793 L
130 254.499 L
130 253.581 L
130 251.975 L
130 251.516 L
130 249.909 L
130 248.992 L
130 248.303 L
130 246.697 L
130 245.32 L
130 243.714 L
130 243.025 L
130 241.878 L
130 240.501 L
130 239.584 L
130 238.207 L
130 237.518 L
130 236.371 L
130 234.535 L
130 233.159 L
130 232.47 L
130 231.552 L
130 229.717 L
130 228.34 L
130 227.422 L
130 226.734 L
130 225.127 L
130 223.521 L
130 220.768 L
130 219.161 L
130 217.555 L
130 217.326 L
130 215.949 L
130 214.343 L
130 212.278 L
130 208.836 L
130 205.623 L
130 205.394 L
130 204.705 L
130 203.329 L
130 201.034 L
130 199.657 L
130 197.133 L
130 196.674 L
130 194.609 L
130 192.773 L
130 190.479 L
130 188.414 L
130 187.037 L
130 186.578 L
130 186.119 L
130 184.283 L
130 182.218 L
130 180.841 L
130 179.235 L
130 178.088 L
130 176.711 L
130 174.646 L
130 173.269 L
130 172.351 L
130 170.057 L
130 168.909 L
130 168.68 L
130 167.762 L
130 167.074 L
130 165.697 L
130.004 164.779 L
130.008 163.632 L
130.008 163.173 L
130.008 161.567 L
130.008 160.419 L
130.008 159.501 L
130.008 159.042 L
130.021 158.584 L
130.025 157.895 L
130.033 157.207 L
130.042 156.289 L
130.042 155.601 L
130.042 153.076 L
130.046 152.159 L
130.05 151.011 L
130.05 150.323 L
130.054 150.093 L
130.058 148.258 L
130.058 147.34 L
130.062 145.734 L
130.067 143.898 L
130.067 143.21 L
130.075 141.374 L
130.079 139.997 L
130.1 139.309 L
130.104 137.932 L
130.104 137.014 L
130.121 136.096 L
130.129 135.408 L
130.15 134.031 L
130.162 132.884 L
130.171 131.966 L
130.171 130.819 L
130.183 130.13 L
130.2 129.212 L
130.212 128.295 L
130.229 126.688 L
130.258 126 L
130.271 125.771 L
130.296 124.623 L
130.329 123.017 L
130.354 122.099 L
130.367 122.099 L
130.383 121.64 L
130.404 120.034 L
130.433 118.657 L
130.446 118.428 L
130.487 117.969 L
130.512 117.51 L
130.537 117.051 L
130.583 116.592 L
130.629 115.215 L
130.671 114.756 L
130.716 114.297 L
130.804 113.839 L
130.862 113.609 L
130.933 112.921 L
131.041 112.691 L
131.1 111.544 L
131.22 111.085 L
131.32 110.397 L
131.408 109.708 L
131.533 109.479 L
131.67 109.02 L
131.762 108.102 L
131.887 107.643 L
132.058 107.643 L
132.237 106.725 L
132.399 106.266 L
132.566 105.578 L
132.741 103.972 L
132.857 103.283 L
133.078 102.595 L
133.311 102.365 L
133.569 100.53 L
133.786 99.841 L
134.065 99.382 L
134.198 98.924 L
134.515 97.776 L
134.836 97.317 L
135.198 97.088 L
135.614 96.399 L
135.964 95.711 L
136.202 95.023 L
136.618 93.875 L
137.093 92.728 L
137.493 92.269 L
138.08 91.81 L
138.609 91.122 L
138.98 90.892 L
139.559 89.745 L
140.196 88.598 L
140.842 88.368 L
141.558 87.909 L
142.245 86.991 L
142.853 86.533 L
143.765 86.074 L
144.578 85.385 L
145.498 84.697 L
146.452 84.467 L
147.389 83.55 L
148.426 82.632 L
149.068 82.173 L
150.159 81.943 L
151.475 81.255 L
152.804 80.337 L
154.249 79.649 L
155.777 78.731 L
156.827 78.501 L
158.339 78.043 L
160.055 77.813 L
161.892 77.354 L
163.687 76.436 L
165.69 76.436 L
166.794 75.977 L
168.722 75.518 L
171.046 74.601 L
173.196 73.912 L
175.574 73.453 L
177.931 72.535 L
179.46 72.306 L
182.075 71.618 L
184.924 70.929 L
187.723 70.929 L
190.33 70.47 L
193.683 70.47 L
194.895 70.47 L
198.319 70.241 L
201.78 69.323 L
204.796 68.864 L
208.632 68.176 L
212.413 67.487 L
215.775 67.487 L
218.307 67.028 L
222.326 66.569 L
226.395 65.881 L
230.44 65.422 L
235.042 64.963 L
239.557 64.963 L
242.218 64.734 L
247.092 64.275 L
252.244 64.045 L
256.775 63.816 L
261.823 63.357 L
267.175 63.357 L
270.416 62.669 L
275.739 61.98 L
281.245 61.521 L
286.763 61.292 L
292.794 61.062 L
298.913 61.062 L
302.915 61.062 L
309.525 61.062 L
315.781 60.833 L
322.137 60.603 L
328.626 60.374 L
335.569 59.915 L
342.55 59.686 L
347.106 58.997 L
354.004 58.309 L
361.034 58.079 L
368.702 57.85 L
376.253 57.161 L
384.142 56.244 L
388.469 55.785 L
396.279 55.785 L
403.643 55.555 L
411.639 55.326 L
419.607 54.867 L
427.383 54.867 L
432.256 54.408 L
440.666 54.408 L
448.629 54.408 L
457.521 53.72 L
465.393 53.261 L
474.136 53.261 L
478.955 53.261 L
488.101 53.261 L
495.99 52.572 L
504.978 52.113 L
513.004 51.884 L
521.979 50.737 L
527.752 50.507 L
536.857 50.278 L
545.354 50.048 L
553.834 50.048 L
562.035 50.048 L
570.573 49.819 L
579.09 49.589 L
584.792 49.589 L
592.223 49.13 L
601.073 49.13 L
609.299 49.13 L
617.679 49.13 L
625.472 48.901 L
630.674 48.442 L
638.171 48.442 L
646.297 47.983 L
653.844 47.983 L
661.87 47.983 L
669.488 47.983 L
674.078 47.754 L
681.658 47.754 L
688.989 47.754 L
696.203 47.754 L
703.113 47.065 L
710.131 47.065 L
714.6 47.065 L
721.201 47.065 L
727.536 46.606 L
733.767 46.377 L
740.377 46.377 L
746.641 46.377 L
750.594 46.147 L
756.946 46.147 L
762.439 45.918 L
767.929 45.918 L
773.46 45.688 L
778.841 45.688 L
784.168 45.688 L
787.771 45.688 L
792.807 45.688 L
797.576 45.688 L
802.211 45.688 L
806.518 45.688 L
811.054 45.688 L
814.057 45.688 L
818.18 45.688 L
822.22 45.688 L
825.977 45.688 L
829.917 45.688 L
833.824 45.688 L
836.381 45.459 L
839.73 45.459 L
842.933 45.459 L
845.827 45.459 L
848.664 45.459 L
851.8 45.229 L
853.853 45.229 L
856.444 45.229 L
859.035 45.229 L
861.25 45.229 L
863.641 45 L
865.874 45 L
867.565 45 L
869.614 45 L
871.363 45 L
873.2 45 L
874.953 45 L
876.632 45 L
878.319 45 L
879.439 45 L
880.893 45 L
882.259 45 L
883.492 45 L
884.858 45 L
886.041 45 L
886.811 45 L
887.898 45 L
888.973 45 L
889.91 45 L
890.86 45 L
891.893 45 L
892.43 45 L
893.209 45 L
894.004 45 L
894.7 45 L
895.387 45 L
896.066 45 L
896.649 45 L
897.166 45 L
897.599 45 L
898.24 45 L
898.761 45 L
899.231 45 L
899.677 45 L
899.86 45 L
900.135 45 L
900.66 45 L
900.993 45 L
901.243 45 L
901.526 45 L
901.73 45 L
902.051 45 L
902.318 45 L
902.526 45 L
902.784 45 L
902.938 45 L
903.076 45 L
903.222 45 L
903.338 45 L
903.467 45 L
903.613 45 L
903.705 45 L
903.817 45 L
903.921 45 L
903.98 45 L
904.08 45 L
904.159 45 L
904.234 45 L
904.292 45 L
904.354 45 L
904.396 45 L
904.463 45 L
904.509 45 L
904.525 45 L
904.546 45 L
904.583 45 L
904.613 45 L
904.633 45 L
904.688 45 L
904.708 45 L
904.738 45 L
904.754 45 L
904.767 45 L
904.796 45 L
904.813 45 L
904.825 45 L
904.825 45 L
904.85 45 L
904.871 45 L
904.888 45 L
904.892 45 L
904.908 45 L
904.917 45 L
904.921 45 L
904.925 45 L
904.929 45 L
904.929 45 L
904.946 45 L
904.946 45 L
904.954 45 L
904.963 45 L
904.975 45 L
904.979 45 L
904.979 45 L
904.983 45 L
904.983 45 L
904.983 45 L
904.992 45 L
904.992 45 L
904.992 45 L
904.992 45 L
904.992 45 L
904.992 45 L
904.992 45 L
904.992 45 L
904.992 45 L
904.992 45 L
904.992 45 L
904.992 45 L
904.992 45 L
904.992 45 L
904.992 45 L
904.992 45 L
904.992 45 L
904.992 45 L
904.992 45 L
904.992 45 L
904.992 45 L
904.992 45 L
904.996 45 L
905 45 L
S
GR
GS
[1 0 0 1 440 224.82001] CT
/Helvetica 24 F
GS
[1 0 0 1 0 0] CT
0 8.5 moveto 
1 -1 scale
(EER line) t 
GR
GR
GS
[10 6] 0 setdash
2 LJ
0.5 LW
N
905 531 M
130 45 L
S
GR
GS
1 GC
N
897 523 M
897 401 L
226 401 L
226 523 L
cp
f
GR
GS
[1 0 0 1 263 417.5679] CT
/Helvetica 24 F
GS
[1 0 0 1 0 0] CT
0 8.5 moveto 
1 -1 scale
(original OSIRIS, EER = 24.27%) t 
GR
GR
GS
0 0 1 RC
1 LJ
2 LW
N
230 417.568 M
260 417.568 L
S
GR
GS
[1 0 0 1 263 447.1893] CT
/Helvetica 24 F
GS
[1 0 0 1 0 0] CT
0 8.5 moveto 
1 -1 scale
(IriCore, EER = 11.86%) t 
GR
GR
GS
0 1 0 RC
1 LJ
2 LW
N
230 447.189 M
260 447.189 L
S
GR
GS
[1 0 0 1 263 476.8107] CT
/Helvetica 24 F
GS
[1 0 0 1 0 0] CT
0 8.5 moveto 
1 -1 scale
(OSIRIS with new segmentation, EER = 8.12%) t 
GR
GR
GS
1 LJ
2 LW
N
230 476.811 M
260 476.811 L
S
GR
GS
[1 0 0 1 263 506.4321] CT
/Helvetica 24 F
GS
[1 0 0 1 0 0] CT
0 8.5 moveto 
1 -1 scale
(OSIRIS with new segmentation and filter set, EER = 5.86%) t 
GR
GR
GS
1 0 0 RC
1 LJ
2 LW
N
230 506.432 M
260 506.432 L
S
GR
GS
0.149 GC
10.0 ML
0.5 LW
N
226 523 M
226 401 L
897 401 L
897 523 L
cp
S
GR
%%Trailer
%%Pages: 1
%%EOF
