%!PS-Adobe-3.0 EPSF-3.0
%%Creator: (MATLAB, The Mathworks, Inc. Version 9.5.0.1049112 \(R2018b\) Update 3. Operating System: Mac OS X)
%%Title: ./ROCs_postmortem_new_72_closeup.eps
%%CreationDate: 2019-03-12T15:41:37
%%Pages: (atend)
%%BoundingBox:    48     5   927   587
%%LanguageLevel: 3
%%EndComments
%%BeginProlog
%%BeginResource: procset (Apache XML Graphics Std ProcSet) 1.2 0
%%Version: 1.2 0
%%Copyright: (Copyright 2001-2003,2010 The Apache Software Foundation. License terms: http://www.apache.org/licenses/LICENSE-2.0)
/bd{bind def}bind def
/ld{load def}bd
/GR/grestore ld
/GS/gsave ld
/RM/rmoveto ld
/C/curveto ld
/t/show ld
/L/lineto ld
/ML/setmiterlimit ld
/CT/concat ld
/f/fill ld
/N/newpath ld
/S/stroke ld
/CC/setcmykcolor ld
/A/ashow ld
/cp/closepath ld
/RC/setrgbcolor ld
/LJ/setlinejoin ld
/GC/setgray ld
/LW/setlinewidth ld
/M/moveto ld
/re {4 2 roll M
1 index 0 rlineto
0 exch rlineto
neg 0 rlineto
cp } bd
/_ctm matrix def
/_tm matrix def
/BT { _ctm currentmatrix pop matrix _tm copy pop 0 0 moveto } bd
/ET { _ctm setmatrix } bd
/iTm { _ctm setmatrix _tm concat } bd
/Tm { _tm astore pop iTm 0 0 moveto } bd
/ux 0.0 def
/uy 0.0 def
/F {
  /Tp exch def
  /Tf exch def
  Tf findfont Tp scalefont setfont
  /cf Tf def  /cs Tp def
} bd
/ULS {currentpoint /uy exch def /ux exch def} bd
/ULE {
  /Tcx currentpoint pop def
  gsave
  newpath
  cf findfont cs scalefont dup
  /FontMatrix get 0 get /Ts exch def /FontInfo get dup
  /UnderlinePosition get Ts mul /To exch def
  /UnderlineThickness get Ts mul /Tt exch def
  ux uy To add moveto  Tcx uy To add lineto
  Tt setlinewidth stroke
  grestore
} bd
/OLE {
  /Tcx currentpoint pop def
  gsave
  newpath
  cf findfont cs scalefont dup
  /FontMatrix get 0 get /Ts exch def /FontInfo get dup
  /UnderlinePosition get Ts mul /To exch def
  /UnderlineThickness get Ts mul /Tt exch def
  ux uy To add cs add moveto Tcx uy To add cs add lineto
  Tt setlinewidth stroke
  grestore
} bd
/SOE {
  /Tcx currentpoint pop def
  gsave
  newpath
  cf findfont cs scalefont dup
  /FontMatrix get 0 get /Ts exch def /FontInfo get dup
  /UnderlinePosition get Ts mul /To exch def
  /UnderlineThickness get Ts mul /Tt exch def
  ux uy To add cs 10 mul 26 idiv add moveto Tcx uy To add cs 10 mul 26 idiv add lineto
  Tt setlinewidth stroke
  grestore
} bd
/QT {
/Y22 exch store
/X22 exch store
/Y21 exch store
/X21 exch store
currentpoint
/Y21 load 2 mul add 3 div exch
/X21 load 2 mul add 3 div exch
/X21 load 2 mul /X22 load add 3 div
/Y21 load 2 mul /Y22 load add 3 div
/X22 load /Y22 load curveto
} bd
/SSPD {
dup length /d exch dict def
{
/v exch def
/k exch def
currentpagedevice k known {
/cpdv currentpagedevice k get def
v cpdv ne {
/upd false def
/nullv v type /nulltype eq def
/nullcpdv cpdv type /nulltype eq def
nullv nullcpdv or
{
/upd true def
} {
/sametype v type cpdv type eq def
sametype {
v type /arraytype eq {
/vlen v length def
/cpdvlen cpdv length def
vlen cpdvlen eq {
0 1 vlen 1 sub {
/i exch def
/obj v i get def
/cpdobj cpdv i get def
obj cpdobj ne {
/upd true def
exit
} if
} for
} {
/upd true def
} ifelse
} {
v type /dicttype eq {
v {
/dv exch def
/dk exch def
/cpddv cpdv dk get def
dv cpddv ne {
/upd true def
exit
} if
} forall
} {
/upd true def
} ifelse
} ifelse
} if
} ifelse
upd true eq {
d k v put
} if
} if
} if
} forall
d length 0 gt {
d setpagedevice
} if
} bd
/RE { % /NewFontName [NewEncodingArray] /FontName RE -
  findfont dup length dict begin
  {
    1 index /FID ne
    {def} {pop pop} ifelse
  } forall
  /Encoding exch def
  /FontName 1 index def
  currentdict definefont pop
  end
} bind def
%%EndResource
%%BeginResource: procset (Apache XML Graphics EPS ProcSet) 1.0 0
%%Version: 1.0 0
%%Copyright: (Copyright 2002-2003 The Apache Software Foundation. License terms: http://www.apache.org/licenses/LICENSE-2.0)
/BeginEPSF { %def
/b4_Inc_state save def         % Save state for cleanup
/dict_count countdictstack def % Count objects on dict stack
/op_count count 1 sub def      % Count objects on operand stack
userdict begin                 % Push userdict on dict stack
/showpage { } def              % Redefine showpage, { } = null proc
0 setgray 0 setlinecap         % Prepare graphics state
1 setlinewidth 0 setlinejoin
10 setmiterlimit [ ] 0 setdash newpath
/languagelevel where           % If level not equal to 1 then
{pop languagelevel             % set strokeadjust and
1 ne                           % overprint to their defaults.
{false setstrokeadjust false setoverprint
} if
} if
} bd
/EndEPSF { %def
count op_count sub {pop} repeat            % Clean up stacks
countdictstack dict_count sub {end} repeat
b4_Inc_state restore
} bd
%%EndResource
%FOPBeginFontDict
%%IncludeResource: font Courier-Oblique
%%IncludeResource: font Courier-BoldOblique
%%IncludeResource: font Courier-Bold
%%IncludeResource: font ZapfDingbats
%%IncludeResource: font Symbol
%%IncludeResource: font Helvetica
%%IncludeResource: font Helvetica-Oblique
%%IncludeResource: font Helvetica-Bold
%%IncludeResource: font Helvetica-BoldOblique
%%IncludeResource: font Times-Roman
%%IncludeResource: font Times-Italic
%%IncludeResource: font Times-Bold
%%IncludeResource: font Times-BoldItalic
%%IncludeResource: font Courier
%FOPEndFontDict
%%BeginResource: encoding WinAnsiEncoding
/WinAnsiEncoding [
/.notdef /.notdef /.notdef /.notdef /.notdef
/.notdef /.notdef /.notdef /.notdef /.notdef
/.notdef /.notdef /.notdef /.notdef /.notdef
/.notdef /.notdef /.notdef /.notdef /.notdef
/.notdef /.notdef /.notdef /.notdef /.notdef
/.notdef /.notdef /.notdef /.notdef /.notdef
/.notdef /.notdef /space /exclam /quotedbl
/numbersign /dollar /percent /ampersand /quotesingle
/parenleft /parenright /asterisk /plus /comma
/hyphen /period /slash /zero /one
/two /three /four /five /six
/seven /eight /nine /colon /semicolon
/less /equal /greater /question /at
/A /B /C /D /E
/F /G /H /I /J
/K /L /M /N /O
/P /Q /R /S /T
/U /V /W /X /Y
/Z /bracketleft /backslash /bracketright /asciicircum
/underscore /quoteleft /a /b /c
/d /e /f /g /h
/i /j /k /l /m
/n /o /p /q /r
/s /t /u /v /w
/x /y /z /braceleft /bar
/braceright /asciitilde /bullet /Euro /bullet
/quotesinglbase /florin /quotedblbase /ellipsis /dagger
/daggerdbl /circumflex /perthousand /Scaron /guilsinglleft
/OE /bullet /Zcaron /bullet /bullet
/quoteleft /quoteright /quotedblleft /quotedblright /bullet
/endash /emdash /asciitilde /trademark /scaron
/guilsinglright /oe /bullet /zcaron /Ydieresis
/space /exclamdown /cent /sterling /currency
/yen /brokenbar /section /dieresis /copyright
/ordfeminine /guillemotleft /logicalnot /sfthyphen /registered
/macron /degree /plusminus /twosuperior /threesuperior
/acute /mu /paragraph /middot /cedilla
/onesuperior /ordmasculine /guillemotright /onequarter /onehalf
/threequarters /questiondown /Agrave /Aacute /Acircumflex
/Atilde /Adieresis /Aring /AE /Ccedilla
/Egrave /Eacute /Ecircumflex /Edieresis /Igrave
/Iacute /Icircumflex /Idieresis /Eth /Ntilde
/Ograve /Oacute /Ocircumflex /Otilde /Odieresis
/multiply /Oslash /Ugrave /Uacute /Ucircumflex
/Udieresis /Yacute /Thorn /germandbls /agrave
/aacute /acircumflex /atilde /adieresis /aring
/ae /ccedilla /egrave /eacute /ecircumflex
/edieresis /igrave /iacute /icircumflex /idieresis
/eth /ntilde /ograve /oacute /ocircumflex
/otilde /odieresis /divide /oslash /ugrave
/uacute /ucircumflex /udieresis /yacute /thorn
/ydieresis
] def
%%EndResource
%FOPBeginFontReencode
/Courier-Oblique findfont
dup length dict begin
  {1 index /FID ne {def} {pop pop} ifelse} forall
  /Encoding WinAnsiEncoding def
  currentdict
end
/Courier-Oblique exch definefont pop
/Courier-BoldOblique findfont
dup length dict begin
  {1 index /FID ne {def} {pop pop} ifelse} forall
  /Encoding WinAnsiEncoding def
  currentdict
end
/Courier-BoldOblique exch definefont pop
/Courier-Bold findfont
dup length dict begin
  {1 index /FID ne {def} {pop pop} ifelse} forall
  /Encoding WinAnsiEncoding def
  currentdict
end
/Courier-Bold exch definefont pop
/Helvetica findfont
dup length dict begin
  {1 index /FID ne {def} {pop pop} ifelse} forall
  /Encoding WinAnsiEncoding def
  currentdict
end
/Helvetica exch definefont pop
/Helvetica-Oblique findfont
dup length dict begin
  {1 index /FID ne {def} {pop pop} ifelse} forall
  /Encoding WinAnsiEncoding def
  currentdict
end
/Helvetica-Oblique exch definefont pop
/Helvetica-Bold findfont
dup length dict begin
  {1 index /FID ne {def} {pop pop} ifelse} forall
  /Encoding WinAnsiEncoding def
  currentdict
end
/Helvetica-Bold exch definefont pop
/Helvetica-BoldOblique findfont
dup length dict begin
  {1 index /FID ne {def} {pop pop} ifelse} forall
  /Encoding WinAnsiEncoding def
  currentdict
end
/Helvetica-BoldOblique exch definefont pop
/Times-Roman findfont
dup length dict begin
  {1 index /FID ne {def} {pop pop} ifelse} forall
  /Encoding WinAnsiEncoding def
  currentdict
end
/Times-Roman exch definefont pop
/Times-Italic findfont
dup length dict begin
  {1 index /FID ne {def} {pop pop} ifelse} forall
  /Encoding WinAnsiEncoding def
  currentdict
end
/Times-Italic exch definefont pop
/Times-Bold findfont
dup length dict begin
  {1 index /FID ne {def} {pop pop} ifelse} forall
  /Encoding WinAnsiEncoding def
  currentdict
end
/Times-Bold exch definefont pop
/Times-BoldItalic findfont
dup length dict begin
  {1 index /FID ne {def} {pop pop} ifelse} forall
  /Encoding WinAnsiEncoding def
  currentdict
end
/Times-BoldItalic exch definefont pop
/Courier findfont
dup length dict begin
  {1 index /FID ne {def} {pop pop} ifelse} forall
  /Encoding WinAnsiEncoding def
  currentdict
end
/Courier exch definefont pop
%FOPEndFontReencode
%%EndProlog
%%Page: 1 1
%%PageBoundingBox: 0 0 1000 600
%%BeginPageSetup
[1 0 0 -1 0 600] CT
%%EndPageSetup
GS
1 GC
N
0 0 1000 600 re
f
GR
GS
1 GC
N
0 0 1000 600 re
f
GR
GS
1 GC
N
130 531 M
905 531 L
905 45 L
130 45 L
cp
f
GR
GS
0.873 GC
1 LJ
0.5 LW
N
130 531 M
130 45 L
S
GR
GS
0.873 GC
1 LJ
0.5 LW
N
285 531 M
285 45 L
S
GR
GS
0.873 GC
1 LJ
0.5 LW
N
440 531 M
440 45 L
S
GR
GS
0.873 GC
1 LJ
0.5 LW
N
595 531 M
595 45 L
S
GR
GS
0.873 GC
1 LJ
0.5 LW
N
750 531 M
750 45 L
S
GR
GS
0.873 GC
1 LJ
0.5 LW
N
905 531 M
905 45 L
S
GR
GS
0.873 GC
1 LJ
0.5 LW
N
905 531 M
130 531 L
S
GR
GS
0.873 GC
1 LJ
0.5 LW
N
905 470.25 M
130 470.25 L
S
GR
GS
0.873 GC
1 LJ
0.5 LW
N
905 409.5 M
130 409.5 L
S
GR
GS
0.873 GC
1 LJ
0.5 LW
N
905 348.75 M
130 348.75 L
S
GR
GS
0.873 GC
1 LJ
0.5 LW
N
905 288 M
130 288 L
S
GR
GS
0.873 GC
1 LJ
0.5 LW
N
905 227.25 M
130 227.25 L
S
GR
GS
0.873 GC
1 LJ
0.5 LW
N
905 166.5 M
130 166.5 L
S
GR
GS
0.873 GC
1 LJ
0.5 LW
N
905 105.75 M
130 105.75 L
S
GR
GS
0.873 GC
1 LJ
0.5 LW
N
905 45 M
130 45 L
S
GR
GS
0.149 GC
2 setlinecap
1 LJ
0.5 LW
N
130 531 M
905 531 L
S
GR
GS
0.149 GC
2 setlinecap
1 LJ
0.5 LW
N
130 45 M
905 45 L
S
GR
GS
0.149 GC
2 setlinecap
1 LJ
0.5 LW
N
130 531 M
130 523.25 L
S
GR
GS
0.149 GC
2 setlinecap
1 LJ
0.5 LW
N
285 531 M
285 523.25 L
S
GR
GS
0.149 GC
2 setlinecap
1 LJ
0.5 LW
N
440 531 M
440 523.25 L
S
GR
GS
0.149 GC
2 setlinecap
1 LJ
0.5 LW
N
595 531 M
595 523.25 L
S
GR
GS
0.149 GC
2 setlinecap
1 LJ
0.5 LW
N
750 531 M
750 523.25 L
S
GR
GS
0.149 GC
2 setlinecap
1 LJ
0.5 LW
N
905 531 M
905 523.25 L
S
GR
GS
0.149 GC
2 setlinecap
1 LJ
0.5 LW
N
130 45 M
130 52.75 L
S
GR
GS
0.149 GC
2 setlinecap
1 LJ
0.5 LW
N
285 45 M
285 52.75 L
S
GR
GS
0.149 GC
2 setlinecap
1 LJ
0.5 LW
N
440 45 M
440 52.75 L
S
GR
GS
0.149 GC
2 setlinecap
1 LJ
0.5 LW
N
595 45 M
595 52.75 L
S
GR
GS
0.149 GC
2 setlinecap
1 LJ
0.5 LW
N
750 45 M
750 52.75 L
S
GR
GS
0.149 GC
2 setlinecap
1 LJ
0.5 LW
N
905 45 M
905 52.75 L
S
GR
GS
[1 0 0 1 130 537.79999] CT
0.149 GC
/Helvetica 24 F
GS
[1 0 0 1 0 0] CT
-7 23 moveto 
1 -1 scale
(0) t 
GR
GR
GS
[1 0 0 1 285 537.79999] CT
0.149 GC
/Helvetica 24 F
GS
[1 0 0 1 0 0] CT
-23.5 23 moveto 
1 -1 scale
(0.01) t 
GR
GR
GS
[1 0 0 1 440 537.79999] CT
0.149 GC
/Helvetica 24 F
GS
[1 0 0 1 0 0] CT
-23.5 23 moveto 
1 -1 scale
(0.02) t 
GR
GR
GS
[1 0 0 1 595 537.79999] CT
0.149 GC
/Helvetica 24 F
GS
[1 0 0 1 0 0] CT
-23.5 23 moveto 
1 -1 scale
(0.03) t 
GR
GR
GS
[1 0 0 1 750 537.79999] CT
0.149 GC
/Helvetica 24 F
GS
[1 0 0 1 0 0] CT
-23.5 23 moveto 
1 -1 scale
(0.04) t 
GR
GR
GS
[1 0 0 1 905 537.79999] CT
0.149 GC
/Helvetica 24 F
GS
[1 0 0 1 0 0] CT
-23.5 23 moveto 
1 -1 scale
(0.05) t 
GR
GR
GS
[1 0 0 1 517.50037 567.79993] CT
0.149 GC
/Helvetica 26.4 F
GS
[1 0 0 1 0 0] CT
-103.5 26 moveto 
1 -1 scale
(False Match Rate) t 
GR
GR
GS
0.149 GC
2 setlinecap
1 LJ
0.5 LW
N
130 531 M
130 45 L
S
GR
GS
0.149 GC
2 setlinecap
1 LJ
0.5 LW
N
905 531 M
905 45 L
S
GR
GS
0.149 GC
2 setlinecap
1 LJ
0.5 LW
N
130 531 M
137.75 531 L
S
GR
GS
0.149 GC
2 setlinecap
1 LJ
0.5 LW
N
130 470.25 M
137.75 470.25 L
S
GR
GS
0.149 GC
2 setlinecap
1 LJ
0.5 LW
N
130 409.5 M
137.75 409.5 L
S
GR
GS
0.149 GC
2 setlinecap
1 LJ
0.5 LW
N
130 348.75 M
137.75 348.75 L
S
GR
GS
0.149 GC
2 setlinecap
1 LJ
0.5 LW
N
130 288 M
137.75 288 L
S
GR
GS
0.149 GC
2 setlinecap
1 LJ
0.5 LW
N
130 227.25 M
137.75 227.25 L
S
GR
GS
0.149 GC
2 setlinecap
1 LJ
0.5 LW
N
130 166.5 M
137.75 166.5 L
S
GR
GS
0.149 GC
2 setlinecap
1 LJ
0.5 LW
N
130 105.75 M
137.75 105.75 L
S
GR
GS
0.149 GC
2 setlinecap
1 LJ
0.5 LW
N
130 45 M
137.75 45 L
S
GR
GS
0.149 GC
2 setlinecap
1 LJ
0.5 LW
N
905 531 M
897.25 531 L
S
GR
GS
0.149 GC
2 setlinecap
1 LJ
0.5 LW
N
905 470.25 M
897.25 470.25 L
S
GR
GS
0.149 GC
2 setlinecap
1 LJ
0.5 LW
N
905 409.5 M
897.25 409.5 L
S
GR
GS
0.149 GC
2 setlinecap
1 LJ
0.5 LW
N
905 348.75 M
897.25 348.75 L
S
GR
GS
0.149 GC
2 setlinecap
1 LJ
0.5 LW
N
905 288 M
897.25 288 L
S
GR
GS
0.149 GC
2 setlinecap
1 LJ
0.5 LW
N
905 227.25 M
897.25 227.25 L
S
GR
GS
0.149 GC
2 setlinecap
1 LJ
0.5 LW
N
905 166.5 M
897.25 166.5 L
S
GR
GS
0.149 GC
2 setlinecap
1 LJ
0.5 LW
N
905 105.75 M
897.25 105.75 L
S
GR
GS
0.149 GC
2 setlinecap
1 LJ
0.5 LW
N
905 45 M
897.25 45 L
S
GR
GS
[1 0 0 1 123.2 531] CT
0.149 GC
/Helvetica 24 F
GS
[1 0 0 1 0 0] CT
-47 8.5 moveto 
1 -1 scale
(0.55) t 
GR
GR
GS
[1 0 0 1 123.2 470.24997] CT
0.149 GC
/Helvetica 24 F
GS
[1 0 0 1 0 0] CT
-34 8.5 moveto 
1 -1 scale
(0.6) t 
GR
GR
GS
[1 0 0 1 123.2 409.50003] CT
0.149 GC
/Helvetica 24 F
GS
[1 0 0 1 0 0] CT
-47 8.5 moveto 
1 -1 scale
(0.65) t 
GR
GR
GS
[1 0 0 1 123.2 348.75] CT
0.149 GC
/Helvetica 24 F
GS
[1 0 0 1 0 0] CT
-34 8.5 moveto 
1 -1 scale
(0.7) t 
GR
GR
GS
[1 0 0 1 123.2 288] CT
0.149 GC
/Helvetica 24 F
GS
[1 0 0 1 0 0] CT
-47 8.5 moveto 
1 -1 scale
(0.75) t 
GR
GR
GS
[1 0 0 1 123.2 227.24998] CT
0.149 GC
/Helvetica 24 F
GS
[1 0 0 1 0 0] CT
-34 8.5 moveto 
1 -1 scale
(0.8) t 
GR
GR
GS
[1 0 0 1 123.2 166.49997] CT
0.149 GC
/Helvetica 24 F
GS
[1 0 0 1 0 0] CT
-47 8.5 moveto 
1 -1 scale
(0.85) t 
GR
GR
GS
[1 0 0 1 123.2 105.75003] CT
0.149 GC
/Helvetica 24 F
GS
[1 0 0 1 0 0] CT
-34 8.5 moveto 
1 -1 scale
(0.9) t 
GR
GR
GS
[1 0 0 1 123.2 45.00002] CT
0.149 GC
/Helvetica 24 F
GS
[1 0 0 1 0 0] CT
-47 8.5 moveto 
1 -1 scale
(0.95) t 
GR
GR
GS
[0 -1 1 0 73.2 287.99979] CT
0.149 GC
/Helvetica 26.4 F
GS
[1 0 0 1 0 0] CT
-153 -6 moveto 
1 -1 scale
(1 - False Non-Match Rate) t 
GR
GR
GS
[1 0 0 1 517.50049 38.40005] CT
/Helvetica-Bold 26.4 F
GS
[1 0 0 1 0 0] CT
-279.5 -6 moveto 
1 -1 scale
(Data acquired less than 72 hours after death) t 
GR
GR
GS
0 0 1 RC
1 LJ
2 LW
N
198.566 531.058 M
200.806 528.648 L
203.471 523.485 L
206.303 521.191 L
209.469 517.749 L
212.718 516.028 L
216.05 510.865 L
221.131 508.57 L
226.046 506.275 L
229.128 502.834 L
233.043 498.244 L
241.29 495.95 L
247.371 491.361 L
252.619 489.066 L
259.116 486.771 L
266.28 484.477 L
277.109 479.887 L
286.189 473.004 L
296.851 468.414 L
305.931 464.972 L
316.344 461.53 L
329.422 459.236 L
340.834 455.22 L
356.161 449.484 L
370.239 445.468 L
387.149 441.453 L
404.059 435.142 L
423.968 431.127 L
443.044 427.111 L
465.202 420.227 L
489.442 417.359 L
516.348 414.491 L
544.504 413.917 L
577.241 411.622 L
611.394 405.886 L
645.048 401.297 L
686.032 396.708 L
723.184 392.118 L
767.167 389.25 L
811.233 384.661 L
860.463 381.792 L
905.092 379.803 L
S
GR
GS
0 1 0 RC
1 LJ
2 LW
N
130 531.058 M
130 530.369 L
130 530.369 L
130 528.074 L
130 524.632 L
130 518.322 L
130 512.586 L
130 506.275 L
130 503.407 L
130 499.965 L
130 495.95 L
130 491.934 L
130 488.492 L
130 483.903 L
130 478.74 L
130 477.019 L
130 472.43 L
130 466.693 L
130 463.825 L
130 460.957 L
130.083 455.794 L
130.083 451.778 L
130.083 448.336 L
130.167 441.453 L
130.167 438.011 L
130.167 433.421 L
130.167 427.111 L
130.167 423.096 L
130.167 419.08 L
130.167 413.343 L
130.167 407.033 L
130.167 400.149 L
130.167 394.987 L
130.167 390.397 L
130.25 386.382 L
130.333 381.792 L
130.417 377.777 L
130.417 372.04 L
130.417 367.451 L
130.417 366.304 L
130.5 360.567 L
130.833 357.125 L
131 350.815 L
131.083 344.505 L
131.166 341.063 L
131.583 337.047 L
131.666 334.179 L
131.666 327.869 L
131.916 324.427 L
132.166 319.264 L
132.499 315.822 L
132.749 312.38 L
133.082 311.807 L
133.332 310.086 L
133.832 307.791 L
134.498 305.496 L
135.331 302.628 L
135.748 299.186 L
136.331 296.318 L
137.83 290.008 L
138.747 288.287 L
139.829 285.992 L
141.662 282.55 L
142.995 280.829 L
143.995 278.535 L
145.91 272.798 L
147.826 268.783 L
149.826 267.062 L
152.824 265.341 L
155.407 263.62 L
158.655 261.899 L
161.987 256.162 L
165.819 251.573 L
170.151 250.426 L
175.482 246.984 L
180.73 241.247 L
186.644 238.953 L
192.392 238.379 L
199.806 236.084 L
208.969 230.921 L
218.632 225.758 L
228.378 223.464 L
240.123 221.169 L
250.953 218.301 L
260.449 217.154 L
273.027 214.859 L
287.771 212.564 L
301.766 210.843 L
317.426 207.975 L
335.753 204.533 L
352.496 201.665 L
371.738 199.944 L
392.147 197.649 L
413.722 195.928 L
435.13 193.634 L
460.62 191.913 L
482.945 189.045 L
509.851 187.324 L
534.175 187.324 L
563.413 183.308 L
590.653 182.161 L
623.723 181.013 L
653.295 179.292 L
682.533 178.719 L
709.606 178.145 L
740.927 174.703 L
770.665 172.982 L
800.903 171.835 L
831.725 170.688 L
860.297 168.393 L
892.867 167.819 L
905.092 167.569 L
S
GR
GS
1 LJ
2 LW
N
130 531.058 M
130 529.795 L
130 528.074 L
130 526.927 L
130 524.632 L
130 524.059 L
130 520.617 L
130 516.601 L
130 513.159 L
130 509.144 L
130 507.996 L
130 505.128 L
130 503.981 L
130 501.686 L
130 495.376 L
130 493.081 L
130 486.198 L
130 483.329 L
130 482.182 L
130 480.461 L
130 478.74 L
130 474.724 L
130 471.856 L
130 467.841 L
130 464.399 L
130 460.383 L
130 458.662 L
130 456.941 L
130 455.794 L
130 452.926 L
130 448.91 L
130 447.189 L
130 442.6 L
130 438.584 L
130 433.995 L
130 431.127 L
130 425.39 L
130 420.227 L
130 417.359 L
130.083 415.064 L
130.083 411.049 L
130.083 409.902 L
130.167 406.46 L
130.167 403.591 L
130.25 399.002 L
130.25 393.839 L
130.25 388.676 L
130.333 387.529 L
130.417 383.513 L
130.417 380.072 L
130.5 377.777 L
130.5 373.188 L
130.5 369.746 L
130.5 367.451 L
130.5 364.009 L
130.5 359.42 L
130.5 357.699 L
130.583 355.404 L
130.666 353.683 L
130.75 349.668 L
130.833 346.8 L
130.833 343.931 L
130.833 337.621 L
130.833 333.032 L
130.916 330.737 L
130.916 330.164 L
131.166 326.722 L
131.25 322.132 L
131.333 319.838 L
131.333 316.97 L
131.333 314.101 L
131.416 312.38 L
131.666 308.938 L
131.999 307.217 L
132.166 306.07 L
132.582 302.628 L
132.749 300.907 L
132.999 295.744 L
133.249 294.023 L
133.499 288.287 L
133.582 284.845 L
133.749 280.829 L
134.082 276.814 L
134.498 273.945 L
134.915 270.504 L
134.915 268.209 L
135.081 264.193 L
135.331 263.046 L
135.831 261.325 L
136.248 259.03 L
137.33 256.736 L
137.747 253.294 L
138.163 249.852 L
138.663 245.836 L
139.163 241.821 L
139.58 238.953 L
140.746 237.232 L
141.495 233.79 L
142.412 232.642 L
143.828 229.2 L
144.578 228.627 L
145.744 228.627 L
147.91 226.332 L
148.993 225.185 L
151.075 222.317 L
152.658 220.596 L
154.24 217.727 L
156.323 214.285 L
158.072 211.991 L
161.071 207.402 L
162.82 206.254 L
165.903 202.239 L
168.318 199.944 L
171.317 196.502 L
174.899 196.502 L
177.565 195.355 L
180.23 193.06 L
184.062 191.339 L
186.145 189.618 L
190.31 185.603 L
194.308 183.308 L
198.806 180.44 L
202.638 178.719 L
206.97 174.13 L
210.385 172.409 L
214.8 170.688 L
222.047 170.688 L
227.378 168.393 L
234.626 167.819 L
242.622 166.098 L
249.87 164.378 L
256.867 159.788 L
265.78 157.494 L
272.194 156.346 L
281.357 154.625 L
290.687 152.904 L
299.517 151.183 L
308.597 151.183 L
319.009 150.036 L
332.087 146.594 L
340.334 144.3 L
352.413 141.431 L
365.907 137.416 L
380.235 132.253 L
395.146 130.532 L
411.39 128.237 L
426.05 127.09 L
444.043 125.369 L
456.455 125.369 L
472.699 124.222 L
491.108 121.353 L
510.851 118.485 L
528.927 117.911 L
550.502 116.764 L
573.742 114.47 L
588.403 113.322 L
609.145 111.028 L
638.55 109.307 L
664.54 108.159 L
689.031 106.438 L
717.353 104.717 L
749.59 102.423 L
780.328 101.276 L
799.82 100.128 L
831.225 98.981 L
862.213 98.407 L
896.116 97.834 L
905.092 97.567 L
S
GR
GS
1 0 0 RC
1 LJ
2 LW
N
130 531.058 M
130 528.648 L
130 528.074 L
130 525.78 L
130 522.338 L
130 520.043 L
130 516.601 L
130 514.88 L
130 513.733 L
130 507.996 L
130 505.702 L
130 501.686 L
130 500.539 L
130 496.523 L
130 494.229 L
130 492.508 L
130 488.492 L
130 485.05 L
130 481.035 L
130 479.314 L
130 476.445 L
130 473.004 L
130 470.709 L
130 467.267 L
130 465.546 L
130 462.678 L
130 458.089 L
130 454.647 L
130 452.926 L
130 450.631 L
130 446.042 L
130 442.6 L
130 440.305 L
130 438.584 L
130 434.569 L
130 430.553 L
130 423.669 L
130 419.654 L
130 415.638 L
130 415.064 L
130 411.622 L
130 407.607 L
130 402.444 L
130 393.839 L
130 385.808 L
130 385.234 L
130 383.513 L
130 380.072 L
130 374.335 L
130 370.893 L
130 364.583 L
130 363.436 L
130 358.273 L
130 353.683 L
130 347.947 L
130 342.784 L
130 339.342 L
130 338.195 L
130 337.047 L
130 332.458 L
130 327.295 L
130 323.853 L
130 319.838 L
130 316.97 L
130 313.528 L
130 308.365 L
130 304.923 L
130 302.628 L
130 296.892 L
130 294.023 L
130 293.45 L
130 291.155 L
130 289.434 L
130 285.992 L
130.083 283.698 L
130.167 280.829 L
130.167 279.682 L
130.167 275.666 L
130.167 272.798 L
130.167 270.504 L
130.167 269.356 L
130.417 268.209 L
130.5 266.488 L
130.666 264.767 L
130.833 262.472 L
130.833 260.751 L
130.833 254.441 L
130.916 252.147 L
131 249.278 L
131 247.557 L
131.083 246.984 L
131.166 242.394 L
131.166 240.1 L
131.25 236.084 L
131.333 231.495 L
131.333 229.774 L
131.499 225.185 L
131.583 221.743 L
131.999 220.022 L
132.083 216.58 L
132.083 214.285 L
132.416 211.991 L
132.582 210.27 L
132.999 206.828 L
133.249 203.96 L
133.415 201.665 L
133.415 198.797 L
133.665 197.076 L
133.998 194.781 L
134.248 192.487 L
134.582 188.471 L
135.165 186.75 L
135.415 186.176 L
135.914 183.308 L
136.581 179.292 L
137.081 176.998 L
137.33 176.998 L
137.664 175.851 L
138.08 171.835 L
138.663 168.393 L
138.913 167.819 L
139.746 166.672 L
140.246 165.525 L
140.746 164.378 L
141.662 163.23 L
142.578 159.788 L
143.411 158.641 L
144.328 157.494 L
146.077 156.346 L
147.243 155.773 L
148.659 154.052 L
150.825 153.478 L
151.991 150.61 L
154.407 149.462 L
156.406 147.741 L
158.156 146.021 L
160.655 145.447 L
163.404 144.3 L
165.236 142.005 L
167.735 140.858 L
171.151 140.858 L
174.732 138.563 L
177.981 137.416 L
181.313 135.695 L
184.812 131.679 L
187.144 129.958 L
191.559 128.237 L
196.224 127.664 L
201.389 123.074 L
205.72 121.353 L
211.301 120.206 L
213.967 119.059 L
220.298 116.19 L
226.712 115.043 L
233.959 114.47 L
242.289 112.749 L
249.287 111.028 L
254.035 109.307 L
262.365 106.438 L
271.861 103.57 L
279.858 102.423 L
291.603 101.276 L
302.182 99.555 L
309.596 98.981 L
321.175 96.113 L
333.92 93.244 L
346.832 92.671 L
361.159 91.523 L
374.904 89.229 L
387.066 88.081 L
405.309 86.934 L
421.552 85.213 L
439.962 83.492 L
459.038 82.919 L
477.78 80.624 L
498.522 78.329 L
511.35 77.182 L
533.175 76.608 L
559.498 74.887 L
586.071 72.593 L
614.976 70.872 L
645.548 68.577 L
666.539 68.004 L
696.778 66.856 L
731.097 66.283 L
767.833 65.135 L
803.736 62.841 L
843.803 62.841 L
865.878 61.693 L
904.446 60.546 L
905.092 60.514 L
S
GR
GS
[10 6] 0 setdash
2 LJ
0.5 LW
N
905.092 45.007 M
904.261 44.942 L
S
GR
%%Trailer
%%Pages: 1
%%EOF
