%!PS-Adobe-3.0 EPSF-3.0
%%Creator: (MATLAB, The Mathworks, Inc. Version 9.5.0.1049112 \(R2018b\) Update 3. Operating System: Mac OS X)
%%Title: ./ROCs_postmortem_new_12.eps
%%CreationDate: 2019-02-28T20:27:58
%%Pages: (atend)
%%BoundingBox:    61     5   907   587
%%LanguageLevel: 3
%%EndComments
%%BeginProlog
%%BeginResource: procset (Apache XML Graphics Std ProcSet) 1.2 0
%%Version: 1.2 0
%%Copyright: (Copyright 2001-2003,2010 The Apache Software Foundation. License terms: http://www.apache.org/licenses/LICENSE-2.0)
/bd{bind def}bind def
/ld{load def}bd
/GR/grestore ld
/GS/gsave ld
/RM/rmoveto ld
/C/curveto ld
/t/show ld
/L/lineto ld
/ML/setmiterlimit ld
/CT/concat ld
/f/fill ld
/N/newpath ld
/S/stroke ld
/CC/setcmykcolor ld
/A/ashow ld
/cp/closepath ld
/RC/setrgbcolor ld
/LJ/setlinejoin ld
/GC/setgray ld
/LW/setlinewidth ld
/M/moveto ld
/re {4 2 roll M
1 index 0 rlineto
0 exch rlineto
neg 0 rlineto
cp } bd
/_ctm matrix def
/_tm matrix def
/BT { _ctm currentmatrix pop matrix _tm copy pop 0 0 moveto } bd
/ET { _ctm setmatrix } bd
/iTm { _ctm setmatrix _tm concat } bd
/Tm { _tm astore pop iTm 0 0 moveto } bd
/ux 0.0 def
/uy 0.0 def
/F {
  /Tp exch def
  /Tf exch def
  Tf findfont Tp scalefont setfont
  /cf Tf def  /cs Tp def
} bd
/ULS {currentpoint /uy exch def /ux exch def} bd
/ULE {
  /Tcx currentpoint pop def
  gsave
  newpath
  cf findfont cs scalefont dup
  /FontMatrix get 0 get /Ts exch def /FontInfo get dup
  /UnderlinePosition get Ts mul /To exch def
  /UnderlineThickness get Ts mul /Tt exch def
  ux uy To add moveto  Tcx uy To add lineto
  Tt setlinewidth stroke
  grestore
} bd
/OLE {
  /Tcx currentpoint pop def
  gsave
  newpath
  cf findfont cs scalefont dup
  /FontMatrix get 0 get /Ts exch def /FontInfo get dup
  /UnderlinePosition get Ts mul /To exch def
  /UnderlineThickness get Ts mul /Tt exch def
  ux uy To add cs add moveto Tcx uy To add cs add lineto
  Tt setlinewidth stroke
  grestore
} bd
/SOE {
  /Tcx currentpoint pop def
  gsave
  newpath
  cf findfont cs scalefont dup
  /FontMatrix get 0 get /Ts exch def /FontInfo get dup
  /UnderlinePosition get Ts mul /To exch def
  /UnderlineThickness get Ts mul /Tt exch def
  ux uy To add cs 10 mul 26 idiv add moveto Tcx uy To add cs 10 mul 26 idiv add lineto
  Tt setlinewidth stroke
  grestore
} bd
/QT {
/Y22 exch store
/X22 exch store
/Y21 exch store
/X21 exch store
currentpoint
/Y21 load 2 mul add 3 div exch
/X21 load 2 mul add 3 div exch
/X21 load 2 mul /X22 load add 3 div
/Y21 load 2 mul /Y22 load add 3 div
/X22 load /Y22 load curveto
} bd
/SSPD {
dup length /d exch dict def
{
/v exch def
/k exch def
currentpagedevice k known {
/cpdv currentpagedevice k get def
v cpdv ne {
/upd false def
/nullv v type /nulltype eq def
/nullcpdv cpdv type /nulltype eq def
nullv nullcpdv or
{
/upd true def
} {
/sametype v type cpdv type eq def
sametype {
v type /arraytype eq {
/vlen v length def
/cpdvlen cpdv length def
vlen cpdvlen eq {
0 1 vlen 1 sub {
/i exch def
/obj v i get def
/cpdobj cpdv i get def
obj cpdobj ne {
/upd true def
exit
} if
} for
} {
/upd true def
} ifelse
} {
v type /dicttype eq {
v {
/dv exch def
/dk exch def
/cpddv cpdv dk get def
dv cpddv ne {
/upd true def
exit
} if
} forall
} {
/upd true def
} ifelse
} ifelse
} if
} ifelse
upd true eq {
d k v put
} if
} if
} if
} forall
d length 0 gt {
d setpagedevice
} if
} bd
/RE { % /NewFontName [NewEncodingArray] /FontName RE -
  findfont dup length dict begin
  {
    1 index /FID ne
    {def} {pop pop} ifelse
  } forall
  /Encoding exch def
  /FontName 1 index def
  currentdict definefont pop
  end
} bind def
%%EndResource
%%BeginResource: procset (Apache XML Graphics EPS ProcSet) 1.0 0
%%Version: 1.0 0
%%Copyright: (Copyright 2002-2003 The Apache Software Foundation. License terms: http://www.apache.org/licenses/LICENSE-2.0)
/BeginEPSF { %def
/b4_Inc_state save def         % Save state for cleanup
/dict_count countdictstack def % Count objects on dict stack
/op_count count 1 sub def      % Count objects on operand stack
userdict begin                 % Push userdict on dict stack
/showpage { } def              % Redefine showpage, { } = null proc
0 setgray 0 setlinecap         % Prepare graphics state
1 setlinewidth 0 setlinejoin
10 setmiterlimit [ ] 0 setdash newpath
/languagelevel where           % If level not equal to 1 then
{pop languagelevel             % set strokeadjust and
1 ne                           % overprint to their defaults.
{false setstrokeadjust false setoverprint
} if
} if
} bd
/EndEPSF { %def
count op_count sub {pop} repeat            % Clean up stacks
countdictstack dict_count sub {end} repeat
b4_Inc_state restore
} bd
%%EndResource
%FOPBeginFontDict
%%IncludeResource: font Courier-Oblique
%%IncludeResource: font Courier-BoldOblique
%%IncludeResource: font Courier-Bold
%%IncludeResource: font ZapfDingbats
%%IncludeResource: font Symbol
%%IncludeResource: font Helvetica
%%IncludeResource: font Helvetica-Oblique
%%IncludeResource: font Helvetica-Bold
%%IncludeResource: font Helvetica-BoldOblique
%%IncludeResource: font Times-Roman
%%IncludeResource: font Times-Italic
%%IncludeResource: font Times-Bold
%%IncludeResource: font Times-BoldItalic
%%IncludeResource: font Courier
%FOPEndFontDict
%%BeginResource: encoding WinAnsiEncoding
/WinAnsiEncoding [
/.notdef /.notdef /.notdef /.notdef /.notdef
/.notdef /.notdef /.notdef /.notdef /.notdef
/.notdef /.notdef /.notdef /.notdef /.notdef
/.notdef /.notdef /.notdef /.notdef /.notdef
/.notdef /.notdef /.notdef /.notdef /.notdef
/.notdef /.notdef /.notdef /.notdef /.notdef
/.notdef /.notdef /space /exclam /quotedbl
/numbersign /dollar /percent /ampersand /quotesingle
/parenleft /parenright /asterisk /plus /comma
/hyphen /period /slash /zero /one
/two /three /four /five /six
/seven /eight /nine /colon /semicolon
/less /equal /greater /question /at
/A /B /C /D /E
/F /G /H /I /J
/K /L /M /N /O
/P /Q /R /S /T
/U /V /W /X /Y
/Z /bracketleft /backslash /bracketright /asciicircum
/underscore /quoteleft /a /b /c
/d /e /f /g /h
/i /j /k /l /m
/n /o /p /q /r
/s /t /u /v /w
/x /y /z /braceleft /bar
/braceright /asciitilde /bullet /Euro /bullet
/quotesinglbase /florin /quotedblbase /ellipsis /dagger
/daggerdbl /circumflex /perthousand /Scaron /guilsinglleft
/OE /bullet /Zcaron /bullet /bullet
/quoteleft /quoteright /quotedblleft /quotedblright /bullet
/endash /emdash /asciitilde /trademark /scaron
/guilsinglright /oe /bullet /zcaron /Ydieresis
/space /exclamdown /cent /sterling /currency
/yen /brokenbar /section /dieresis /copyright
/ordfeminine /guillemotleft /logicalnot /sfthyphen /registered
/macron /degree /plusminus /twosuperior /threesuperior
/acute /mu /paragraph /middot /cedilla
/onesuperior /ordmasculine /guillemotright /onequarter /onehalf
/threequarters /questiondown /Agrave /Aacute /Acircumflex
/Atilde /Adieresis /Aring /AE /Ccedilla
/Egrave /Eacute /Ecircumflex /Edieresis /Igrave
/Iacute /Icircumflex /Idieresis /Eth /Ntilde
/Ograve /Oacute /Ocircumflex /Otilde /Odieresis
/multiply /Oslash /Ugrave /Uacute /Ucircumflex
/Udieresis /Yacute /Thorn /germandbls /agrave
/aacute /acircumflex /atilde /adieresis /aring
/ae /ccedilla /egrave /eacute /ecircumflex
/edieresis /igrave /iacute /icircumflex /idieresis
/eth /ntilde /ograve /oacute /ocircumflex
/otilde /odieresis /divide /oslash /ugrave
/uacute /ucircumflex /udieresis /yacute /thorn
/ydieresis
] def
%%EndResource
%FOPBeginFontReencode
/Courier-Oblique findfont
dup length dict begin
  {1 index /FID ne {def} {pop pop} ifelse} forall
  /Encoding WinAnsiEncoding def
  currentdict
end
/Courier-Oblique exch definefont pop
/Courier-BoldOblique findfont
dup length dict begin
  {1 index /FID ne {def} {pop pop} ifelse} forall
  /Encoding WinAnsiEncoding def
  currentdict
end
/Courier-BoldOblique exch definefont pop
/Courier-Bold findfont
dup length dict begin
  {1 index /FID ne {def} {pop pop} ifelse} forall
  /Encoding WinAnsiEncoding def
  currentdict
end
/Courier-Bold exch definefont pop
/Helvetica findfont
dup length dict begin
  {1 index /FID ne {def} {pop pop} ifelse} forall
  /Encoding WinAnsiEncoding def
  currentdict
end
/Helvetica exch definefont pop
/Helvetica-Oblique findfont
dup length dict begin
  {1 index /FID ne {def} {pop pop} ifelse} forall
  /Encoding WinAnsiEncoding def
  currentdict
end
/Helvetica-Oblique exch definefont pop
/Helvetica-Bold findfont
dup length dict begin
  {1 index /FID ne {def} {pop pop} ifelse} forall
  /Encoding WinAnsiEncoding def
  currentdict
end
/Helvetica-Bold exch definefont pop
/Helvetica-BoldOblique findfont
dup length dict begin
  {1 index /FID ne {def} {pop pop} ifelse} forall
  /Encoding WinAnsiEncoding def
  currentdict
end
/Helvetica-BoldOblique exch definefont pop
/Times-Roman findfont
dup length dict begin
  {1 index /FID ne {def} {pop pop} ifelse} forall
  /Encoding WinAnsiEncoding def
  currentdict
end
/Times-Roman exch definefont pop
/Times-Italic findfont
dup length dict begin
  {1 index /FID ne {def} {pop pop} ifelse} forall
  /Encoding WinAnsiEncoding def
  currentdict
end
/Times-Italic exch definefont pop
/Times-Bold findfont
dup length dict begin
  {1 index /FID ne {def} {pop pop} ifelse} forall
  /Encoding WinAnsiEncoding def
  currentdict
end
/Times-Bold exch definefont pop
/Times-BoldItalic findfont
dup length dict begin
  {1 index /FID ne {def} {pop pop} ifelse} forall
  /Encoding WinAnsiEncoding def
  currentdict
end
/Times-BoldItalic exch definefont pop
/Courier findfont
dup length dict begin
  {1 index /FID ne {def} {pop pop} ifelse} forall
  /Encoding WinAnsiEncoding def
  currentdict
end
/Courier exch definefont pop
%FOPEndFontReencode
%%EndProlog
%%Page: 1 1
%%PageBoundingBox: 0 0 1000 600
%%BeginPageSetup
[1 0 0 -1 0 600] CT
%%EndPageSetup
GS
1 GC
N
0 0 1000 600 re
f
GR
GS
1 GC
N
0 0 1000 600 re
f
GR
GS
1 GC
N
130 531 M
905 531 L
905 45 L
130 45 L
cp
f
GR
GS
0.873 GC
1 LJ
0.5 LW
N
130 531 M
130 45 L
S
GR
GS
0.873 GC
1 LJ
0.5 LW
N
285 531 M
285 45 L
S
GR
GS
0.873 GC
1 LJ
0.5 LW
N
440 531 M
440 45 L
S
GR
GS
0.873 GC
1 LJ
0.5 LW
N
595 531 M
595 45 L
S
GR
GS
0.873 GC
1 LJ
0.5 LW
N
750 531 M
750 45 L
S
GR
GS
0.873 GC
1 LJ
0.5 LW
N
905 531 M
905 45 L
S
GR
GS
0.873 GC
1 LJ
0.5 LW
N
905 531 M
130 531 L
S
GR
GS
0.873 GC
1 LJ
0.5 LW
N
905 433.8 M
130 433.8 L
S
GR
GS
0.873 GC
1 LJ
0.5 LW
N
905 336.6 M
130 336.6 L
S
GR
GS
0.873 GC
1 LJ
0.5 LW
N
905 239.4 M
130 239.4 L
S
GR
GS
0.873 GC
1 LJ
0.5 LW
N
905 142.2 M
130 142.2 L
S
GR
GS
0.873 GC
1 LJ
0.5 LW
N
905 45 M
130 45 L
S
GR
GS
0.149 GC
2 setlinecap
1 LJ
0.5 LW
N
130 531 M
905 531 L
S
GR
GS
0.149 GC
2 setlinecap
1 LJ
0.5 LW
N
130 45 M
905 45 L
S
GR
GS
0.149 GC
2 setlinecap
1 LJ
0.5 LW
N
130 531 M
130 523.25 L
S
GR
GS
0.149 GC
2 setlinecap
1 LJ
0.5 LW
N
285 531 M
285 523.25 L
S
GR
GS
0.149 GC
2 setlinecap
1 LJ
0.5 LW
N
440 531 M
440 523.25 L
S
GR
GS
0.149 GC
2 setlinecap
1 LJ
0.5 LW
N
595 531 M
595 523.25 L
S
GR
GS
0.149 GC
2 setlinecap
1 LJ
0.5 LW
N
750 531 M
750 523.25 L
S
GR
GS
0.149 GC
2 setlinecap
1 LJ
0.5 LW
N
905 531 M
905 523.25 L
S
GR
GS
0.149 GC
2 setlinecap
1 LJ
0.5 LW
N
130 45 M
130 52.75 L
S
GR
GS
0.149 GC
2 setlinecap
1 LJ
0.5 LW
N
285 45 M
285 52.75 L
S
GR
GS
0.149 GC
2 setlinecap
1 LJ
0.5 LW
N
440 45 M
440 52.75 L
S
GR
GS
0.149 GC
2 setlinecap
1 LJ
0.5 LW
N
595 45 M
595 52.75 L
S
GR
GS
0.149 GC
2 setlinecap
1 LJ
0.5 LW
N
750 45 M
750 52.75 L
S
GR
GS
0.149 GC
2 setlinecap
1 LJ
0.5 LW
N
905 45 M
905 52.75 L
S
GR
GS
[1 0 0 1 130 537.79999] CT
0.149 GC
/Helvetica 24 F
GS
[1 0 0 1 0 0] CT
-7 23 moveto 
1 -1 scale
(0) t 
GR
GR
GS
[1 0 0 1 285 537.79999] CT
0.149 GC
/Helvetica 24 F
GS
[1 0 0 1 0 0] CT
-17 23 moveto 
1 -1 scale
(0.2) t 
GR
GR
GS
[1 0 0 1 440 537.79999] CT
0.149 GC
/Helvetica 24 F
GS
[1 0 0 1 0 0] CT
-17 23 moveto 
1 -1 scale
(0.4) t 
GR
GR
GS
[1 0 0 1 595 537.79999] CT
0.149 GC
/Helvetica 24 F
GS
[1 0 0 1 0 0] CT
-17 23 moveto 
1 -1 scale
(0.6) t 
GR
GR
GS
[1 0 0 1 750 537.79999] CT
0.149 GC
/Helvetica 24 F
GS
[1 0 0 1 0 0] CT
-17 23 moveto 
1 -1 scale
(0.8) t 
GR
GR
GS
[1 0 0 1 905 537.79999] CT
0.149 GC
/Helvetica 24 F
GS
[1 0 0 1 0 0] CT
-7 23 moveto 
1 -1 scale
(1) t 
GR
GR
GS
[1 0 0 1 517.50037 567.79999] CT
0.149 GC
/Helvetica 26.4 F
GS
[1 0 0 1 0 0] CT
-103.5 26 moveto 
1 -1 scale
(False Match Rate) t 
GR
GR
GS
0.149 GC
2 setlinecap
1 LJ
0.5 LW
N
130 531 M
130 45 L
S
GR
GS
0.149 GC
2 setlinecap
1 LJ
0.5 LW
N
905 531 M
905 45 L
S
GR
GS
0.149 GC
2 setlinecap
1 LJ
0.5 LW
N
130 531 M
137.75 531 L
S
GR
GS
0.149 GC
2 setlinecap
1 LJ
0.5 LW
N
130 433.8 M
137.75 433.8 L
S
GR
GS
0.149 GC
2 setlinecap
1 LJ
0.5 LW
N
130 336.6 M
137.75 336.6 L
S
GR
GS
0.149 GC
2 setlinecap
1 LJ
0.5 LW
N
130 239.4 M
137.75 239.4 L
S
GR
GS
0.149 GC
2 setlinecap
1 LJ
0.5 LW
N
130 142.2 M
137.75 142.2 L
S
GR
GS
0.149 GC
2 setlinecap
1 LJ
0.5 LW
N
130 45 M
137.75 45 L
S
GR
GS
0.149 GC
2 setlinecap
1 LJ
0.5 LW
N
905 531 M
897.25 531 L
S
GR
GS
0.149 GC
2 setlinecap
1 LJ
0.5 LW
N
905 433.8 M
897.25 433.8 L
S
GR
GS
0.149 GC
2 setlinecap
1 LJ
0.5 LW
N
905 336.6 M
897.25 336.6 L
S
GR
GS
0.149 GC
2 setlinecap
1 LJ
0.5 LW
N
905 239.4 M
897.25 239.4 L
S
GR
GS
0.149 GC
2 setlinecap
1 LJ
0.5 LW
N
905 142.2 M
897.25 142.2 L
S
GR
GS
0.149 GC
2 setlinecap
1 LJ
0.5 LW
N
905 45 M
897.25 45 L
S
GR
GS
[1 0 0 1 123.2 531] CT
0.149 GC
/Helvetica 24 F
GS
[1 0 0 1 0 0] CT
-14 8.5 moveto 
1 -1 scale
(0) t 
GR
GR
GS
[1 0 0 1 123.2 433.79999] CT
0.149 GC
/Helvetica 24 F
GS
[1 0 0 1 0 0] CT
-34 8.5 moveto 
1 -1 scale
(0.2) t 
GR
GR
GS
[1 0 0 1 123.2 336.60001] CT
0.149 GC
/Helvetica 24 F
GS
[1 0 0 1 0 0] CT
-34 8.5 moveto 
1 -1 scale
(0.4) t 
GR
GR
GS
[1 0 0 1 123.2 239.39999] CT
0.149 GC
/Helvetica 24 F
GS
[1 0 0 1 0 0] CT
-34 8.5 moveto 
1 -1 scale
(0.6) t 
GR
GR
GS
[1 0 0 1 123.2 142.2] CT
0.149 GC
/Helvetica 24 F
GS
[1 0 0 1 0 0] CT
-34 8.5 moveto 
1 -1 scale
(0.8) t 
GR
GR
GS
[1 0 0 1 123.2 45] CT
0.149 GC
/Helvetica 24 F
GS
[1 0 0 1 0 0] CT
-14 8.5 moveto 
1 -1 scale
(1) t 
GR
GR
GS
[0 -1 1 0 86.2 287.99976] CT
0.149 GC
/Helvetica 26.4 F
GS
[1 0 0 1 0 0] CT
-153 -6 moveto 
1 -1 scale
(1 - False Non-Match Rate) t 
GR
GR
GS
[1 0 0 1 517.50049 38.40002] CT
/Helvetica-Bold 26.4 F
GS
[1 0 0 1 0 0] CT
-279.5 -6 moveto 
1 -1 scale
(Data acquired less than 12 hours after death) t 
GR
GR
GS
0 0 1 RC
1 LJ
2 LW
N
130 530.067 M
130 530.067 L
130 530.067 L
130 530.067 L
130 530.067 L
130 530.067 L
130 530.067 L
130 530.067 L
130 530.067 L
130 530.067 L
130 530.067 L
130 530.067 L
130 530.067 L
130 530.067 L
130 530.067 L
130 530.067 L
130 530.067 L
130 530.067 L
130 530.067 L
130 530.067 L
130 530.067 L
130 530.067 L
130 530.067 L
130 530.067 L
130 530.067 L
130 530.067 L
130 530.067 L
130 530.067 L
130 530.067 L
130 530.067 L
130 530.067 L
130 530.067 L
130 530.067 L
130 530.067 L
130 530.067 L
130 530.067 L
130 530.067 L
130 530.067 L
130 530.067 L
130 530.067 L
130 530.067 L
130 530.067 L
130 530.067 L
130 530.067 L
130 530.067 L
130 530.067 L
130 530.067 L
130 530.067 L
130 530.067 L
130 530.067 L
130 530.067 L
130 530.067 L
130 530.067 L
130 530.067 L
130 530.067 L
130 530.067 L
130 530.067 L
130 530.067 L
130 530.067 L
130 530.067 L
130 530.067 L
130 530.067 L
130 530.067 L
130 530.067 L
130 530.067 L
130 530.067 L
130 530.067 L
130 530.067 L
130 530.067 L
130 530.067 L
130 530.067 L
130 530.067 L
130 530.067 L
130 530.067 L
130 530.067 L
130 530.067 L
130 530.067 L
130 530.067 L
130 530.067 L
130 530.067 L
130 530.067 L
130 530.067 L
130 530.067 L
130 530.067 L
130 530.067 L
130 530.067 L
130 530.067 L
130 530.067 L
130 530.067 L
130 530.067 L
130 530.067 L
130 530.067 L
130 530.067 L
130 530.067 L
130 530.067 L
130 530.067 L
130 530.067 L
130 530.067 L
130 530.067 L
130 530.067 L
130 530.067 L
130 530.067 L
130 530.067 L
130 530.067 L
130 530.067 L
130 530.067 L
130 530.067 L
130 530.067 L
130 530.067 L
130 530.067 L
130 530.067 L
130 530.067 L
130 530.067 L
130 530.067 L
130 530.067 L
130 530.067 L
130 530.067 L
130 530.067 L
130 530.067 L
130 530.067 L
130 530.067 L
130 530.067 L
130 530.067 L
130 530.067 L
130 530.067 L
130 530.067 L
130 530.067 L
130 530.067 L
130 530.067 L
130 530.067 L
130 530.067 L
130 530.067 L
130 530.067 L
130 530.067 L
130 530.067 L
130 530.067 L
130 530.067 L
130 530.067 L
130 530.067 L
130 530.067 L
130 530.067 L
130 530.067 L
130 530.067 L
130 530.067 L
130 530.067 L
130 530.067 L
130 530.067 L
130 530.067 L
130 530.067 L
130 530.067 L
130 530.067 L
130 530.067 L
130 530.067 L
130 530.067 L
130 530.067 L
130 530.067 L
130 530.067 L
130 530.067 L
130 530.067 L
130 530.067 L
130 530.067 L
130 530.067 L
130 530.067 L
130 530.067 L
130 530.067 L
130 530.067 L
130 530.067 L
130 530.067 L
130 530.067 L
130 530.067 L
130 530.067 L
130 530.067 L
130 530.067 L
130 530.067 L
130 530.067 L
130 530.067 L
130 530.067 L
130 530.067 L
130 530.067 L
130 530.067 L
130 530.067 L
130 530.067 L
130 530.067 L
130 530.067 L
130 530.067 L
130 530.067 L
130 530.067 L
130 530.067 L
130 530.067 L
130 530.067 L
130 530.067 L
130 530.067 L
130 530.067 L
130 530.067 L
130 530.067 L
130 530.067 L
130 530.067 L
130 529.134 L
130 528.202 L
130 528.202 L
130 528.202 L
130 528.202 L
130 528.202 L
130 526.336 L
130 526.336 L
130 525.403 L
130 524.47 L
130 524.47 L
130 524.47 L
130 524.47 L
130 524.47 L
130 524.47 L
130 524.47 L
130 522.605 L
130 521.672 L
130 521.672 L
130 520.739 L
130 520.739 L
130 520.739 L
130 520.739 L
130 520.739 L
130 520.739 L
130 518.873 L
130 517.008 L
130 517.008 L
130 517.008 L
130 517.008 L
130 516.075 L
130 514.209 L
130 513.276 L
130 512.344 L
130 511.411 L
130 511.411 L
130 511.411 L
130 511.411 L
130 511.411 L
130 510.478 L
130 509.545 L
130 508.612 L
130 508.612 L
130 508.612 L
130 506.747 L
130 504.881 L
130 503.948 L
130 502.083 L
130 502.083 L
130 501.15 L
130 497.418 L
130 493.687 L
130 490.889 L
130 488.09 L
130 485.292 L
130 484.359 L
130 484.359 L
130 483.426 L
130 482.493 L
130 482.493 L
130 481.56 L
130 481.56 L
130 479.695 L
130 476.896 L
130 475.964 L
130 475.031 L
130 474.098 L
130 470.367 L
130 468.501 L
130 467.568 L
130 465.702 L
130 465.702 L
130 464.77 L
130 462.904 L
130 461.038 L
130 461.038 L
130 461.038 L
130 460.106 L
130 460.106 L
130 459.173 L
130 458.24 L
130 457.307 L
130 457.307 L
130 456.374 L
130 454.509 L
130 449.845 L
130 447.979 L
130 447.046 L
130 446.113 L
130 445.18 L
130 444.248 L
130 443.315 L
130 442.382 L
130 442.382 L
130 442.382 L
130 441.449 L
130 440.516 L
130 439.583 L
130 439.583 L
130 439.583 L
130 436.785 L
130 436.785 L
130 436.785 L
130 434.919 L
130 433.987 L
130 433.054 L
130 431.188 L
130 430.255 L
130 429.322 L
130 426.524 L
130 426.524 L
130 426.524 L
130 425.591 L
130 424.658 L
130 420.927 L
130 419.061 L
130 417.196 L
130 415.33 L
130 413.464 L
130 411.599 L
130 410.666 L
130 406.002 L
130 403.203 L
130 403.203 L
130 401.338 L
130 401.338 L
130 401.338 L
130 399.472 L
130 399.472 L
130 398.539 L
130 398.539 L
130 396.674 L
130 393.875 L
130 393.875 L
130 392.01 L
130 390.144 L
130 388.278 L
130 387.345 L
130 386.413 L
130 384.547 L
130 382.681 L
130 378.017 L
130 375.219 L
130 373.353 L
130 372.42 L
130 371.488 L
130 370.555 L
130 369.622 L
130 366.823 L
130 362.159 L
130 358.428 L
130 357.495 L
130 357.495 L
130 356.562 L
130 354.697 L
130 353.764 L
130 351.898 L
130 348.167 L
130 347.234 L
130 344.436 L
130 342.57 L
130 341.637 L
130 340.704 L
130 338.839 L
130 337.906 L
130 337.906 L
130 336.973 L
130 336.04 L
130 335.107 L
130 335.107 L
130 334.175 L
130 332.309 L
130 331.376 L
130 330.443 L
130 328.578 L
130 328.578 L
130 328.578 L
130 327.645 L
130 324.846 L
130 323.914 L
130 321.115 L
130 320.182 L
130 316.451 L
130 314.585 L
130 313.653 L
130 313.653 L
130 312.72 L
130 310.854 L
130 310.854 L
130 307.123 L
130 306.19 L
130 304.324 L
130 303.392 L
130 300.593 L
130 295.929 L
130 295.929 L
130 294.996 L
130 293.131 L
130 292.198 L
130 291.265 L
130 291.265 L
130 290.332 L
130 289.399 L
130 289.399 L
130 288.466 L
130 286.601 L
130 286.601 L
130 285.668 L
130 284.735 L
130 281.937 L
130 280.071 L
130 278.205 L
130 277.273 L
130 275.407 L
130 275.407 L
130 273.541 L
130 273.541 L
130 271.676 L
130 271.676 L
130 267.944 L
130 267.012 L
130 267.012 L
130 267.012 L
130 265.146 L
130 264.213 L
130 262.347 L
130 261.415 L
130 260.482 L
130 260.482 L
130 258.616 L
130 257.683 L
130 255.818 L
130 255.818 L
130 255.818 L
130 254.885 L
130 253.952 L
130 253.019 L
130 253.019 L
130 252.086 L
130 250.221 L
130 247.422 L
130 247.422 L
130 244.624 L
130 244.624 L
130 242.758 L
130 242.758 L
130 240.893 L
130 240.893 L
130 240.893 L
130 239.96 L
130 239.027 L
130 239.027 L
130 238.094 L
130 238.094 L
130 236.228 L
130 232.497 L
130 232.497 L
130 231.564 L
130 229.699 L
130 228.766 L
130 228.766 L
130 225.967 L
130 225.967 L
130 225.035 L
130 225.035 L
130 225.035 L
130 225.035 L
130 225.035 L
130 224.102 L
130 224.102 L
130 223.169 L
130 223.169 L
130 223.169 L
130 223.169 L
130 223.169 L
130 223.169 L
130 223.169 L
130 223.169 L
130 222.236 L
130 220.37 L
130 219.438 L
130 218.505 L
130 218.505 L
130 217.572 L
130 217.572 L
130 216.639 L
130 215.706 L
130 215.706 L
130 215.706 L
130 215.706 L
130 215.706 L
130 213.841 L
130 211.975 L
130 211.042 L
130 210.109 L
130 209.177 L
130 209.177 L
130 209.177 L
130 209.177 L
130 208.244 L
130 206.378 L
130 206.378 L
130 206.378 L
130 206.378 L
130 206.378 L
130 205.445 L
130 205.445 L
130 205.445 L
130 205.445 L
130 202.647 L
130 201.714 L
130 201.714 L
130 201.714 L
130 200.781 L
130 200.781 L
130 199.848 L
130 199.848 L
130 197.983 L
130 197.983 L
130 197.05 L
130 197.05 L
130 195.184 L
130 195.184 L
130 195.184 L
130 195.184 L
130 194.251 L
130 194.251 L
130 193.319 L
130 193.319 L
130 193.319 L
130 193.319 L
130 193.319 L
130 193.319 L
130 192.386 L
130 192.386 L
130 192.386 L
130 191.453 L
130 191.453 L
130.017 191.453 L
130.017 190.52 L
130.017 190.52 L
130.017 189.587 L
130.017 189.587 L
130.017 189.587 L
130.017 189.587 L
130.017 188.654 L
130.017 187.722 L
130.017 187.722 L
130.017 187.722 L
130.017 186.789 L
130.017 185.856 L
130.017 185.856 L
130.017 185.856 L
130.017 185.856 L
130.017 185.856 L
130.017 184.923 L
130.017 184.923 L
130.017 184.923 L
130.017 184.923 L
130.017 184.923 L
130.017 184.923 L
130.017 183.99 L
130.017 183.99 L
130.017 183.058 L
130.017 180.259 L
130.017 180.259 L
130.034 180.259 L
130.034 179.326 L
130.034 178.393 L
130.051 177.461 L
130.051 177.461 L
130.051 177.461 L
130.051 176.528 L
130.051 175.595 L
130.051 174.662 L
130.051 172.797 L
130.051 172.797 L
130.051 171.864 L
130.051 171.864 L
130.051 171.864 L
130.051 171.864 L
130.051 171.864 L
130.051 171.864 L
130.085 171.864 L
130.085 170.931 L
130.101 170.931 L
130.101 169.998 L
130.101 169.998 L
130.101 169.065 L
130.101 169.065 L
130.101 169.065 L
130.101 169.065 L
130.101 169.065 L
130.118 169.065 L
130.135 168.132 L
130.135 168.132 L
130.169 168.132 L
130.203 168.132 L
130.22 167.2 L
130.22 166.267 L
130.254 165.334 L
130.271 165.334 L
130.287 165.334 L
130.304 165.334 L
130.338 165.334 L
130.355 165.334 L
130.372 163.468 L
130.44 163.468 L
130.456 163.468 L
130.473 162.536 L
130.49 161.603 L
130.524 161.603 L
130.558 161.603 L
130.575 161.603 L
130.609 161.603 L
130.626 161.603 L
130.71 161.603 L
130.744 161.603 L
130.845 161.603 L
130.896 161.603 L
130.981 161.603 L
131.133 161.603 L
131.234 161.603 L
131.302 160.67 L
131.386 160.67 L
131.505 160.67 L
131.572 160.67 L
131.708 160.67 L
131.91 160.67 L
132.012 160.67 L
132.096 158.804 L
132.266 156.939 L
132.418 156.939 L
132.519 156.006 L
132.553 156.006 L
132.773 155.073 L
132.874 155.073 L
132.993 154.14 L
133.246 154.14 L
133.432 153.207 L
133.703 153.207 L
133.939 153.207 L
134.159 151.342 L
134.311 150.409 L
134.633 149.476 L
134.869 149.476 L
135.224 149.476 L
135.596 149.476 L
135.968 148.543 L
136.458 148.543 L
136.864 148.543 L
137.321 147.61 L
137.71 147.61 L
138.217 147.61 L
138.47 146.678 L
138.859 146.678 L
139.265 146.678 L
139.688 146.678 L
140.415 145.745 L
140.973 144.812 L
141.446 144.812 L
142.089 144.812 L
142.731 142.946 L
143.576 142.946 L
144.303 142.946 L
145.132 142.946 L
145.943 142.013 L
146.856 141.081 L
147.583 141.081 L
148.412 141.081 L
149.122 141.081 L
150.204 140.148 L
151.421 140.148 L
152.588 140.148 L
153.839 138.282 L
155.022 138.282 L
156.629 138.282 L
157.981 137.349 L
159.655 136.417 L
160.838 136.417 L
162.208 136.417 L
163.882 136.417 L
165.319 136.417 L
167.094 136.417 L
168.903 136.417 L
170.915 135.484 L
172.978 135.484 L
175.243 135.484 L
177.475 134.551 L
179.673 134.551 L
181.972 134.551 L
184.271 134.551 L
186.436 133.618 L
189.141 132.685 L
192.099 132.685 L
194.754 132.685 L
197.577 131.752 L
200.654 130.82 L
203.748 130.82 L
206.994 130.82 L
210.139 130.82 L
213.774 130.82 L
217.003 129.887 L
220.588 129.887 L
224.409 129.887 L
227.824 129.887 L
231.848 129.887 L
235.703 129.887 L
240.318 128.954 L
244.291 128.021 L
248.417 128.021 L
252.424 127.088 L
257.022 127.088 L
262.094 127.088 L
267.031 127.088 L
271.782 127.088 L
277.598 127.088 L
282.569 127.088 L
288.199 127.088 L
293.169 127.088 L
298.681 126.155 L
304.176 126.155 L
309.248 125.223 L
314.946 125.223 L
320.694 125.223 L
326.24 125.223 L
332.935 124.29 L
338.649 123.357 L
344.803 123.357 L
351.211 123.357 L
358.295 123.357 L
364.449 123.357 L
370.384 122.424 L
376.927 121.491 L
383.673 121.491 L
390.976 119.626 L
398.602 119.626 L
405.466 118.693 L
411.89 117.76 L
419.397 117.76 L
425.636 117.76 L
433.802 115.894 L
441.14 114.962 L
448.562 114.029 L
456.423 113.096 L
463.863 112.163 L
471.335 112.163 L
478.639 110.298 L
485.588 109.365 L
493.872 109.365 L
501.447 109.365 L
507.33 109.365 L
514.989 109.365 L
521.989 109.365 L
528.566 109.365 L
535.683 109.365 L
542.649 109.365 L
549.311 108.432 L
556.428 108.432 L
563.174 108.432 L
570.14 107.499 L
576.7 107.499 L
583.412 106.566 L
590.496 106.566 L
597.225 106.566 L
603.971 105.633 L
609.702 105.633 L
616.448 105.633 L
622.332 105.633 L
628.418 105.633 L
634.285 105.633 L
639.306 105.633 L
644.818 104.701 L
649.924 104.701 L
655.436 103.768 L
660.356 102.835 L
665.394 102.835 L
670.787 101.902 L
675.741 100.969 L
680.12 100.969 L
684.431 100.969 L
688.726 100.036 L
692.986 100.036 L
696.824 100.036 L
701.102 100.036 L
705.261 100.036 L
708.963 100.036 L
712.531 100.036 L
716.538 100.036 L
720.359 99.104 L
723.351 98.171 L
726.53 98.171 L
729.928 98.171 L
733.191 98.171 L
736.217 98.171 L
739.261 98.171 L
742.456 98.171 L
745.229 97.238 L
747.917 97.238 L
750.233 97.238 L
752.211 97.238 L
754.173 97.238 L
756.624 97.238 L
758.45 97.238 L
759.651 97.238 L
861.329 48.731 L
863.358 48.731 L
865.218 48.731 L
866.672 48.731 L
868.16 48.731 L
869.85 48.731 L
871.355 47.798 L
873.215 47.798 L
874.652 47.798 L
876.005 47.798 L
877.425 47.798 L
878.828 47.798 L
879.995 47.798 L
880.958 47.798 L
881.854 47.798 L
882.903 47.798 L
883.714 47.798 L
884.695 47.798 L
885.456 47.798 L
886.267 47.798 L
887.18 47.798 L
887.924 47.798 L
888.651 47.798 L
889.378 47.798 L
889.919 47.798 L
890.494 47.798 L
891.238 47.798 L
891.711 47.798 L
892.337 47.798 L
892.911 47.798 L
893.351 46.866 L
893.774 46.866 L
894.365 46.866 L
894.906 46.866 L
895.295 46.866 L
895.65 46.866 L
896.056 46.866 L
896.496 46.866 L
896.969 46.866 L
897.426 46.866 L
897.713 46.866 L
898 46.866 L
898.237 46.866 L
898.508 46.866 L
898.761 46.866 L
898.981 46.866 L
899.184 46.866 L
899.488 46.866 L
899.776 46.866 L
899.843 46.866 L
900.046 46.866 L
900.249 46.866 L
900.435 46.866 L
900.604 46.866 L
900.672 46.866 L
900.79 46.866 L
900.976 45.933 L
901.162 45.933 L
901.196 45.933 L
901.314 45.933 L
901.534 45.933 L
901.635 45.933 L
901.788 45.933 L
901.838 45.933 L
902.075 45.933 L
902.193 45.933 L
902.312 45.933 L
902.464 45.933 L
902.481 45.933 L
902.532 45.933 L
902.751 45.933 L
902.887 45 L
902.988 45 L
903.073 45 L
903.157 45 L
903.225 45 L
903.309 45 L
903.445 45 L
903.495 45 L
903.563 45 L
903.631 45 L
903.664 45 L
903.715 45 L
903.732 45 L
903.766 45 L
903.783 45 L
903.8 45 L
903.867 45 L
903.901 45 L
903.969 45 L
903.986 45 L
904.019 45 L
904.087 45 L
904.205 45 L
904.222 45 L
904.307 45 L
904.341 45 L
904.374 45 L
904.408 45 L
904.425 45 L
904.459 45 L
904.527 45 L
904.56 45 L
904.56 45 L
904.611 45 L
904.628 45 L
904.628 45 L
904.645 45 L
904.645 45 L
904.662 45 L
904.696 45 L
904.696 45 L
904.713 45 L
904.713 45 L
904.713 45 L
904.729 45 L
904.729 45 L
904.746 45 L
904.746 45 L
904.746 45 L
904.746 45 L
904.763 45 L
904.797 45 L
904.797 45 L
904.797 45 L
904.814 45 L
904.814 45 L
904.831 45 L
904.848 45 L
904.848 45 L
904.848 45 L
904.848 45 L
904.848 45 L
904.848 45 L
904.848 45 L
904.848 45 L
904.865 45 L
904.882 45 L
904.899 45 L
904.899 45 L
904.899 45 L
904.899 45 L
904.899 45 L
904.899 45 L
904.899 45 L
904.899 45 L
904.899 45 L
904.899 45 L
904.915 45 L
904.915 45 L
904.915 45 L
904.915 45 L
904.915 45 L
904.915 45 L
904.915 45 L
904.932 45 L
904.932 45 L
904.932 45 L
904.932 45 L
904.932 45 L
904.949 45 L
904.949 45 L
904.949 45 L
904.949 45 L
904.949 45 L
904.949 45 L
904.949 45 L
904.966 45 L
904.983 45 L
904.983 45 L
904.983 45 L
904.983 45 L
904.983 45 L
904.983 45 L
904.983 45 L
904.983 45 L
904.983 45 L
904.983 45 L
904.983 45 L
904.983 45 L
904.983 45 L
904.983 45 L
904.983 45 L
904.983 45 L
904.983 45 L
904.983 45 L
904.983 45 L
904.983 45 L
904.983 45 L
904.983 45 L
904.983 45 L
904.983 45 L
904.983 45 L
904.983 45 L
904.983 45 L
904.983 45 L
904.983 45 L
904.983 45 L
905 45 L
S
GR
GS
0 1 0 RC
1 LJ
2 LW
N
130 530.067 M
130 530.067 L
130 530.067 L
130 530.067 L
130 530.067 L
130 530.067 L
130 530.067 L
130 530.067 L
130 530.067 L
130 530.067 L
130 530.067 L
130 530.067 L
130 530.067 L
130 530.067 L
130 530.067 L
130 530.067 L
130 530.067 L
130 530.067 L
130 530.067 L
130 530.067 L
130 530.067 L
130 530.067 L
130 530.067 L
130 530.067 L
130 530.067 L
130 530.067 L
130 530.067 L
130 530.067 L
130 530.067 L
130 530.067 L
130 530.067 L
130 530.067 L
130 530.067 L
130 530.067 L
130 530.067 L
130 530.067 L
130 530.067 L
130 530.067 L
130 530.067 L
130 530.067 L
130 530.067 L
130 530.067 L
130 530.067 L
130 530.067 L
130 530.067 L
130 530.067 L
130 530.067 L
130 530.067 L
130 530.067 L
130 530.067 L
130 530.067 L
130 530.067 L
130 530.067 L
130 530.067 L
130 530.067 L
130 530.067 L
130 530.067 L
130 530.067 L
130 530.067 L
130 530.067 L
130 530.067 L
130 530.067 L
130 530.067 L
130 530.067 L
130 530.067 L
130 530.067 L
130 530.067 L
130 530.067 L
130 530.067 L
130 530.067 L
130 530.067 L
130 530.067 L
130 530.067 L
130 530.067 L
130 530.067 L
130 530.067 L
130 530.067 L
130 530.067 L
130 530.067 L
130 530.067 L
130 530.067 L
130 530.067 L
130 530.067 L
130 530.067 L
130 530.067 L
130 530.067 L
130 530.067 L
130 530.067 L
130 530.067 L
130 530.067 L
130 530.067 L
130 530.067 L
130 530.067 L
130 530.067 L
130 530.067 L
130 530.067 L
130 530.067 L
130 530.067 L
130 530.067 L
130 530.067 L
130 530.067 L
130 530.067 L
130 530.067 L
130 530.067 L
130 530.067 L
130 530.067 L
130 530.067 L
130 530.067 L
130 530.067 L
130 530.067 L
130 530.067 L
130 530.067 L
130 530.067 L
130 530.067 L
130 530.067 L
130 530.067 L
130 530.067 L
130 530.067 L
130 530.067 L
130 530.067 L
130 530.067 L
130 530.067 L
130 530.067 L
130 530.067 L
130 530.067 L
130 530.067 L
130 530.067 L
130 530.067 L
130 530.067 L
130 530.067 L
130 530.067 L
130 530.067 L
130 530.067 L
130 530.067 L
130 530.067 L
130 530.067 L
130 530.067 L
130 530.067 L
130 530.067 L
130 530.067 L
130 530.067 L
130 530.067 L
130 530.067 L
130 530.067 L
130 530.067 L
130 530.067 L
130 530.067 L
130 530.067 L
130 530.067 L
130 530.067 L
130 530.067 L
130 530.067 L
130 530.067 L
130 530.067 L
130 530.067 L
130 530.067 L
130 530.067 L
130 530.067 L
130 530.067 L
130 530.067 L
130 530.067 L
130 530.067 L
130 530.067 L
130 530.067 L
130 530.067 L
130 530.067 L
130 530.067 L
130 530.067 L
130 530.067 L
130 529.134 L
130 529.134 L
130 529.134 L
130 529.134 L
130 529.134 L
130 529.134 L
130 529.134 L
130 529.134 L
130 529.134 L
130 529.134 L
130 529.134 L
130 529.134 L
130 529.134 L
130 529.134 L
130 529.134 L
130 529.134 L
130 529.134 L
130 529.134 L
130 529.134 L
130 529.134 L
130 529.134 L
130 528.202 L
130 528.202 L
130 528.202 L
130 528.202 L
130 526.336 L
130 526.336 L
130 526.336 L
130 526.336 L
130 526.336 L
130 526.336 L
130 526.336 L
130 526.336 L
130 526.336 L
130 525.403 L
130 524.47 L
130 523.537 L
130 522.605 L
130 520.739 L
130 520.739 L
130 518.873 L
130 518.873 L
130 518.873 L
130 518.873 L
130 518.873 L
130 518.873 L
130 517.008 L
130 517.008 L
130 516.075 L
130 516.075 L
130 516.075 L
130 515.142 L
130 514.209 L
130 514.209 L
130 513.276 L
130 512.344 L
130 511.411 L
130 511.411 L
130 510.478 L
130 508.612 L
130 508.612 L
130 506.747 L
130 504.881 L
130 502.083 L
130 501.15 L
130 500.217 L
130 500.217 L
130 497.418 L
130 496.486 L
130 494.62 L
130 493.687 L
130 490.889 L
130 488.09 L
130 488.09 L
130 486.225 L
130 484.359 L
130 482.493 L
130 480.628 L
130 480.628 L
130 479.695 L
130 478.762 L
130 478.762 L
130 477.829 L
130 477.829 L
130 475.964 L
130 474.098 L
130 473.165 L
130 469.434 L
130 468.501 L
130 467.568 L
130 464.77 L
130 462.904 L
130 459.173 L
130 456.374 L
130 455.441 L
130 453.576 L
130 453.576 L
130 451.71 L
130 449.845 L
130 447.046 L
130 442.382 L
130 441.449 L
130 438.651 L
130 432.121 L
130 431.188 L
130 428.39 L
130 425.591 L
130 423.726 L
130 422.793 L
130 421.86 L
130 419.061 L
130 416.263 L
130 415.33 L
130 411.599 L
130 409.733 L
130 408.8 L
130 406.935 L
130 406.002 L
130 406.002 L
130 404.136 L
130 401.338 L
130 400.405 L
130 396.674 L
130 395.741 L
130 392.942 L
130 390.144 L
130 388.278 L
130 383.614 L
130 379.883 L
130 378.017 L
130 378.017 L
130 377.084 L
130 376.152 L
130 376.152 L
130 375.219 L
130 370.555 L
130 367.756 L
130 364.958 L
130 363.092 L
130 359.361 L
130 357.495 L
130 355.63 L
130 351.898 L
130 350.033 L
130 350.033 L
130 350.033 L
130 349.1 L
130 346.301 L
130 344.436 L
130 344.436 L
130 344.436 L
130 341.637 L
130 336.973 L
130 336.04 L
130 333.242 L
130 327.645 L
130 324.846 L
130 322.048 L
130 321.115 L
130 321.115 L
130 316.451 L
130 312.72 L
130 309.921 L
130 308.988 L
130 306.19 L
130 305.257 L
130 303.392 L
130 302.459 L
130 299.66 L
130 299.66 L
130 294.996 L
130 288.466 L
130 288.466 L
130 286.601 L
130 284.735 L
130 282.869 L
130 278.205 L
130 278.205 L
130 275.407 L
130 273.541 L
130 272.608 L
130 269.81 L
130 267.944 L
130 267.012 L
130 263.28 L
130 263.28 L
130 261.415 L
130 260.482 L
130 257.683 L
130 257.683 L
130 253.019 L
130 251.154 L
130 250.221 L
130 248.355 L
130 244.624 L
130 243.691 L
130 240.893 L
130 239.96 L
130 239.027 L
130 239.027 L
130 236.228 L
130 233.43 L
130 232.497 L
130 229.699 L
130 229.699 L
130 228.766 L
130 227.833 L
130 226.9 L
130 225.035 L
130 222.236 L
130 219.438 L
130 216.639 L
130 214.774 L
130 212.908 L
130 212.908 L
130 209.177 L
130 207.311 L
130 203.58 L
130 203.58 L
130 202.647 L
130 200.781 L
130 200.781 L
130 198.916 L
130 196.117 L
130 195.184 L
130 193.319 L
130 193.319 L
130 189.587 L
130 188.654 L
130 187.722 L
130 187.722 L
130 185.856 L
130 183.99 L
130 183.058 L
130 180.259 L
130 177.461 L
130 177.461 L
130 177.461 L
130 177.461 L
130 177.461 L
130 176.528 L
130 176.528 L
130 176.528 L
130 174.662 L
130 174.662 L
130 173.729 L
130 173.729 L
130 170.931 L
130 168.132 L
130 168.132 L
130 168.132 L
130 166.267 L
130 164.401 L
130 164.401 L
130 162.536 L
130 162.536 L
130 160.67 L
130 159.737 L
130 157.871 L
130 156.939 L
130 156.939 L
130 156.939 L
130 156.939 L
130 156.939 L
130 155.073 L
130 152.274 L
130 150.409 L
130 148.543 L
130 146.678 L
130 146.678 L
130 145.745 L
130 145.745 L
130 144.812 L
130 143.879 L
130 142.946 L
130 142.013 L
130 141.081 L
130 141.081 L
130 141.081 L
130 139.215 L
130 138.282 L
130 137.349 L
130 137.349 L
130 136.417 L
130 136.417 L
130 135.484 L
130 135.484 L
130 134.551 L
130 133.618 L
130 132.685 L
130 131.752 L
130 130.82 L
130 130.82 L
130 129.887 L
130 129.887 L
130 128.954 L
130 128.954 L
130 128.021 L
130 128.021 L
130 128.021 L
130 128.021 L
130 128.021 L
130 128.021 L
130 127.088 L
130 124.29 L
130 124.29 L
130 123.357 L
130 121.491 L
130 121.491 L
130 121.491 L
130 121.491 L
130 121.491 L
130 121.491 L
130 120.559 L
130 119.626 L
130 118.693 L
130 116.827 L
130 116.827 L
130 114.962 L
130 114.962 L
130 114.029 L
130 114.029 L
130 114.029 L
130 113.096 L
130 113.096 L
130 111.23 L
130 109.365 L
130 108.432 L
130 108.432 L
130 108.432 L
130 108.432 L
130 106.566 L
130 106.566 L
130 106.566 L
130 106.566 L
130 105.633 L
130 105.633 L
130 104.701 L
130 103.768 L
130 103.768 L
130 102.835 L
130 102.835 L
130 102.835 L
130 102.835 L
130 101.902 L
130 100.969 L
130 100.036 L
130 100.036 L
130 98.171 L
130 98.171 L
130 97.238 L
130 97.238 L
130 97.238 L
130 97.238 L
130 97.238 L
130 97.238 L
130 96.305 L
130 96.305 L
130 95.372 L
130 95.372 L
130 95.372 L
130 94.44 L
130 93.507 L
130 91.641 L
130 91.641 L
130 90.708 L
130.017 89.775 L
130.017 89.775 L
130.034 88.843 L
130.034 87.91 L
130.034 86.977 L
130.034 86.044 L
130.051 84.179 L
130.118 84.179 L
130.118 84.179 L
130.135 84.179 L
130.135 84.179 L
130.169 84.179 L
130.169 84.179 L
130.169 84.179 L
130.186 84.179 L
130.186 81.38 L
130.22 81.38 L
130.22 80.447 L
130.22 80.447 L
130.22 80.447 L
130.237 80.447 L
130.287 79.514 L
130.338 79.514 L
130.372 79.514 L
130.44 79.514 L
130.473 79.514 L
130.575 79.514 L
130.592 79.514 L
130.744 79.514 L
130.778 79.514 L
130.812 79.514 L
130.896 79.514 L
130.947 79.514 L
131.048 79.514 L
131.183 79.514 L
131.251 78.582 L
131.369 78.582 L
131.539 77.649 L
131.775 77.649 L
131.944 77.649 L
132.181 75.783 L
132.418 75.783 L
132.637 75.783 L
132.857 75.783 L
133.179 75.783 L
133.567 74.85 L
134.108 74.85 L
134.463 73.917 L
134.835 73.917 L
135.292 73.917 L
135.664 73.917 L
136.357 72.985 L
136.999 72.985 L
137.371 72.985 L
138.132 72.985 L
138.961 72.985 L
139.654 72.052 L
140.364 72.052 L
141.294 72.052 L
142.258 72.052 L
143.204 72.052 L
144.236 72.052 L
144.946 72.052 L
146.079 72.052 L
147.076 72.052 L
148.243 72.052 L
149.223 72.052 L
150.576 72.052 L
151.895 72.052 L
152.858 72.052 L
153.94 72.052 L
155.242 72.052 L
156.764 72.052 L
157.829 71.119 L
159.114 71.119 L
160.348 71.119 L
161.65 71.119 L
162.918 71.119 L
164.169 71.119 L
165.2 71.119 L
166.198 71.119 L
167.348 71.119 L
168.379 71.119 L
169.258 71.119 L
170.087 71.119 L
170.78 71.119 L
171.456 71.119 L
172.132 71.119 L
172.859 71.119 L
173.333 71.119 L
173.806 71.119 L
174.229 70.186 L
174.905 70.186 L
175.378 70.186 L
175.784 70.186 L
176.207 70.186 L
176.528 70.186 L
176.883 70.186 L
177.154 70.186 L
177.407 70.186 L
177.542 70.186 L
177.745 70.186 L
177.83 69.253 L
178.033 69.253 L
178.151 69.253 L
178.236 69.253 L
178.303 69.253 L
178.337 69.253 L
178.354 69.253 L
178.439 69.253 L
178.523 69.253 L
178.658 69.253 L
178.692 69.253 L
178.726 69.253 L
178.76 69.253 L
178.76 69.253 L
178.777 69.253 L
178.794 69.253 L
178.811 69.253 L
178.811 69.253 L
178.827 69.253 L
178.861 69.253 L
178.861 69.253 L
178.861 69.253 L
178.861 69.253 L
178.861 69.253 L
178.861 69.253 L
178.861 69.253 L
182.293 68.321 L
185.911 68.321 L
190.324 68.321 L
195.041 68.321 L
200.08 68.321 L
204.881 68.321 L
210.68 67.388 L
215.82 67.388 L
222.092 66.455 L
227.993 66.455 L
235.178 65.522 L
241.823 63.656 L
248.958 63.656 L
255.805 63.656 L
263.362 63.656 L
271.41 63.656 L
278.579 63.656 L
286.457 63.656 L
292.967 63.656 L
300.017 63.656 L
306.898 62.724 L
312.968 62.724 L
318.344 62.724 L
322.706 62.724 L
326.223 62.724 L
329.587 62.724 L
331.87 62.724 L
333.577 62.724 L
335.048 62.724 L
336.232 62.724 L
336.908 62.724 L
337.28 62.724 L
337.466 62.724 L
337.669 62.724 L
337.753 62.724 L
337.804 62.724 L
337.804 62.724 L
337.804 62.724 L
337.821 62.724 L
337.821 62.724 L
337.821 62.724 L
337.821 62.724 L
337.821 62.724 L
337.821 62.724 L
337.821 62.724 L
337.821 62.724 L
337.821 62.724 L
337.821 62.724 L
337.821 62.724 L
337.821 62.724 L
337.821 62.724 L
337.821 62.724 L
337.821 62.724 L
337.821 62.724 L
337.821 62.724 L
337.821 62.724 L
337.821 62.724 L
337.821 62.724 L
337.821 62.724 L
337.821 62.724 L
337.821 62.724 L
337.821 62.724 L
337.821 62.724 L
337.821 62.724 L
337.821 62.724 L
337.821 62.724 L
337.821 62.724 L
337.821 62.724 L
337.821 62.724 L
337.821 62.724 L
337.821 62.724 L
337.821 62.724 L
337.821 62.724 L
337.821 62.724 L
337.821 62.724 L
337.821 62.724 L
337.821 62.724 L
337.821 62.724 L
337.821 62.724 L
337.821 62.724 L
337.821 62.724 L
337.821 62.724 L
337.821 62.724 L
337.821 62.724 L
337.821 62.724 L
337.821 62.724 L
337.821 62.724 L
337.821 62.724 L
337.821 62.724 L
337.821 62.724 L
337.821 62.724 L
337.821 62.724 L
337.821 62.724 L
337.821 62.724 L
337.821 62.724 L
337.821 62.724 L
337.821 62.724 L
337.821 62.724 L
337.821 62.724 L
337.821 62.724 L
337.821 62.724 L
337.821 62.724 L
337.821 62.724 L
337.821 62.724 L
337.821 62.724 L
337.821 62.724 L
337.821 62.724 L
337.821 62.724 L
337.821 62.724 L
337.821 62.724 L
337.821 62.724 L
337.821 62.724 L
337.821 62.724 L
337.821 62.724 L
337.821 62.724 L
337.821 62.724 L
337.821 62.724 L
337.821 62.724 L
337.821 62.724 L
337.821 62.724 L
337.821 62.724 L
337.821 62.724 L
337.821 62.724 L
337.821 62.724 L
337.821 62.724 L
337.821 62.724 L
337.821 62.724 L
337.821 62.724 L
337.821 62.724 L
337.821 62.724 L
337.821 62.724 L
337.821 62.724 L
337.821 62.724 L
337.821 62.724 L
337.821 62.724 L
337.821 62.724 L
337.821 62.724 L
337.821 62.724 L
337.821 62.724 L
337.821 62.724 L
337.821 62.724 L
337.821 62.724 L
337.821 62.724 L
337.821 62.724 L
337.821 62.724 L
337.821 62.724 L
337.821 62.724 L
337.821 62.724 L
337.821 62.724 L
337.821 62.724 L
337.821 62.724 L
337.821 62.724 L
337.821 62.724 L
337.821 62.724 L
337.821 62.724 L
337.821 62.724 L
337.821 62.724 L
337.821 62.724 L
337.821 62.724 L
337.821 62.724 L
337.821 62.724 L
337.821 62.724 L
337.821 62.724 L
337.821 62.724 L
337.821 62.724 L
337.821 62.724 L
337.821 62.724 L
337.821 62.724 L
337.821 62.724 L
337.821 62.724 L
337.821 62.724 L
337.821 62.724 L
337.821 62.724 L
337.821 62.724 L
337.821 62.724 L
337.821 62.724 L
337.821 62.724 L
337.821 62.724 L
337.821 62.724 L
337.821 62.724 L
337.821 62.724 L
337.821 62.724 L
337.821 62.724 L
337.821 62.724 L
337.821 62.724 L
337.821 62.724 L
337.821 62.724 L
337.821 62.724 L
337.821 62.724 L
337.821 62.724 L
337.821 62.724 L
337.821 62.724 L
337.821 62.724 L
337.821 62.724 L
337.821 62.724 L
337.821 62.724 L
337.821 62.724 L
337.821 62.724 L
337.821 62.724 L
337.821 62.724 L
337.821 62.724 L
337.821 62.724 L
337.821 62.724 L
337.821 62.724 L
337.821 62.724 L
337.821 62.724 L
337.821 62.724 L
337.821 62.724 L
337.821 62.724 L
337.821 62.724 L
337.821 62.724 L
337.821 62.724 L
337.821 62.724 L
337.821 62.724 L
337.821 62.724 L
337.821 62.724 L
337.821 62.724 L
337.821 62.724 L
337.821 62.724 L
337.821 62.724 L
337.821 62.724 L
337.821 62.724 L
337.821 62.724 L
337.821 62.724 L
337.821 62.724 L
337.821 62.724 L
337.821 62.724 L
337.821 62.724 L
337.821 62.724 L
337.821 62.724 L
337.821 62.724 L
337.821 62.724 L
337.821 62.724 L
337.821 62.724 L
337.821 62.724 L
337.821 62.724 L
337.821 62.724 L
337.821 62.724 L
337.821 62.724 L
337.821 62.724 L
337.821 62.724 L
337.821 62.724 L
337.821 62.724 L
337.821 62.724 L
337.821 62.724 L
337.821 62.724 L
337.821 62.724 L
337.821 62.724 L
337.821 62.724 L
337.821 62.724 L
337.821 62.724 L
337.821 62.724 L
337.821 62.724 L
337.821 62.724 L
337.821 62.724 L
337.821 62.724 L
337.821 62.724 L
337.821 62.724 L
337.821 62.724 L
337.821 62.724 L
337.821 62.724 L
337.821 62.724 L
337.821 62.724 L
337.821 62.724 L
337.821 62.724 L
337.821 62.724 L
337.821 62.724 L
337.821 62.724 L
337.821 62.724 L
337.821 62.724 L
337.821 62.724 L
337.821 62.724 L
337.821 62.724 L
337.821 62.724 L
337.821 62.724 L
337.821 62.724 L
337.821 62.724 L
337.821 62.724 L
337.821 62.724 L
337.821 62.724 L
337.821 62.724 L
337.821 62.724 L
337.821 62.724 L
337.821 62.724 L
337.821 62.724 L
337.821 62.724 L
337.821 62.724 L
337.821 62.724 L
337.821 62.724 L
337.821 62.724 L
337.821 62.724 L
337.821 62.724 L
337.821 62.724 L
337.821 62.724 L
337.821 62.724 L
337.821 62.724 L
337.821 62.724 L
337.821 62.724 L
337.821 62.724 L
337.821 62.724 L
337.821 62.724 L
337.821 62.724 L
337.821 62.724 L
337.821 62.724 L
337.821 62.724 L
337.821 62.724 L
337.821 62.724 L
337.821 62.724 L
337.821 62.724 L
337.821 62.724 L
337.821 62.724 L
337.821 62.724 L
337.821 62.724 L
337.821 62.724 L
337.821 62.724 L
337.821 62.724 L
337.821 62.724 L
337.821 62.724 L
337.821 62.724 L
337.821 62.724 L
337.821 62.724 L
337.821 62.724 L
337.821 62.724 L
337.821 62.724 L
337.821 62.724 L
337.821 62.724 L
337.821 62.724 L
337.821 62.724 L
337.821 62.724 L
337.821 62.724 L
337.821 62.724 L
337.821 62.724 L
337.821 62.724 L
337.821 62.724 L
337.821 62.724 L
337.821 62.724 L
337.821 62.724 L
905 45 L
S
GR
GS
1 LJ
2 LW
N
130 530.067 M
130 530.067 L
130 530.067 L
130 530.067 L
130 530.067 L
130 530.067 L
130 530.067 L
130 530.067 L
130 530.067 L
130 530.067 L
130 530.067 L
130 530.067 L
130 530.067 L
130 530.067 L
130 530.067 L
130 530.067 L
130 530.067 L
130 530.067 L
130 530.067 L
130 530.067 L
130 530.067 L
130 530.067 L
130 530.067 L
130 530.067 L
130 530.067 L
130 530.067 L
130 530.067 L
130 530.067 L
130 530.067 L
130 530.067 L
130 530.067 L
130 530.067 L
130 530.067 L
130 530.067 L
130 530.067 L
130 530.067 L
130 530.067 L
130 530.067 L
130 530.067 L
130 530.067 L
130 530.067 L
130 530.067 L
130 530.067 L
130 530.067 L
130 530.067 L
130 530.067 L
130 530.067 L
130 530.067 L
130 530.067 L
130 530.067 L
130 530.067 L
130 530.067 L
130 530.067 L
130 530.067 L
130 530.067 L
130 530.067 L
130 530.067 L
130 530.067 L
130 530.067 L
130 530.067 L
130 530.067 L
130 530.067 L
130 530.067 L
130 530.067 L
130 530.067 L
130 530.067 L
130 530.067 L
130 530.067 L
130 530.067 L
130 530.067 L
130 530.067 L
130 530.067 L
130 530.067 L
130 530.067 L
130 530.067 L
130 530.067 L
130 530.067 L
130 530.067 L
130 530.067 L
130 530.067 L
130 530.067 L
130 530.067 L
130 530.067 L
130 530.067 L
130 530.067 L
130 530.067 L
130 530.067 L
130 530.067 L
130 530.067 L
130 530.067 L
130 530.067 L
130 530.067 L
130 530.067 L
130 530.067 L
130 530.067 L
130 530.067 L
130 530.067 L
130 530.067 L
130 530.067 L
130 530.067 L
130 530.067 L
130 530.067 L
130 530.067 L
130 530.067 L
130 530.067 L
130 530.067 L
130 530.067 L
130 530.067 L
130 530.067 L
130 530.067 L
130 530.067 L
130 530.067 L
130 530.067 L
130 530.067 L
130 530.067 L
130 530.067 L
130 530.067 L
130 530.067 L
130 530.067 L
130 530.067 L
130 530.067 L
130 530.067 L
130 530.067 L
130 530.067 L
130 530.067 L
130 530.067 L
130 530.067 L
130 530.067 L
130 530.067 L
130 530.067 L
130 530.067 L
130 530.067 L
130 530.067 L
130 530.067 L
130 530.067 L
130 530.067 L
130 530.067 L
130 530.067 L
130 530.067 L
130 530.067 L
130 530.067 L
130 530.067 L
130 530.067 L
130 530.067 L
130 530.067 L
130 530.067 L
130 530.067 L
130 530.067 L
130 530.067 L
130 530.067 L
130 530.067 L
130 530.067 L
130 530.067 L
130 530.067 L
130 530.067 L
130 530.067 L
130 530.067 L
130 530.067 L
130 530.067 L
130 530.067 L
130 530.067 L
130 530.067 L
130 530.067 L
130 530.067 L
130 530.067 L
130 530.067 L
130 530.067 L
130 530.067 L
130 530.067 L
130 530.067 L
130 530.067 L
130 530.067 L
130 530.067 L
130 530.067 L
130 530.067 L
130 530.067 L
130 530.067 L
130 530.067 L
130 530.067 L
130 530.067 L
130 530.067 L
130 530.067 L
130 530.067 L
130 530.067 L
130 530.067 L
130 530.067 L
130 530.067 L
130 529.134 L
130 529.134 L
130 529.134 L
130 529.134 L
130 529.134 L
130 529.134 L
130 529.134 L
130 529.134 L
130 529.134 L
130 529.134 L
130 529.134 L
130 529.134 L
130 529.134 L
130 529.134 L
130 529.134 L
130 529.134 L
130 529.134 L
130 528.202 L
130 528.202 L
130 528.202 L
130 528.202 L
130 528.202 L
130 528.202 L
130 528.202 L
130 528.202 L
130 528.202 L
130 528.202 L
130 528.202 L
130 528.202 L
130 527.269 L
130 527.269 L
130 527.269 L
130 527.269 L
130 527.269 L
130 527.269 L
130 526.336 L
130 526.336 L
130 526.336 L
130 526.336 L
130 524.47 L
130 524.47 L
130 524.47 L
130 522.605 L
130 522.605 L
130 522.605 L
130 522.605 L
130 522.605 L
130 521.672 L
130 521.672 L
130 520.739 L
130 519.806 L
130 518.873 L
130 518.873 L
130 516.075 L
130 514.209 L
130 514.209 L
130 514.209 L
130 514.209 L
130 514.209 L
130 514.209 L
130 513.276 L
130 512.344 L
130 510.478 L
130 509.545 L
130 508.612 L
130 508.612 L
130 508.612 L
130 508.612 L
130 508.612 L
130 508.612 L
130 507.679 L
130 507.679 L
130 506.747 L
130 506.747 L
130 506.747 L
130 506.747 L
130 506.747 L
130 506.747 L
130 504.881 L
130 503.948 L
130 503.015 L
130 502.083 L
130 500.217 L
130 500.217 L
130 500.217 L
130 500.217 L
130 498.351 L
130 496.486 L
130 495.553 L
130 494.62 L
130 494.62 L
130 493.687 L
130 491.822 L
130 490.889 L
130 489.956 L
130 488.09 L
130 487.157 L
130 484.359 L
130 481.56 L
130 479.695 L
130 476.896 L
130 475.964 L
130 475.964 L
130 474.098 L
130 474.098 L
130 471.299 L
130 470.367 L
130 467.568 L
130 466.635 L
130 464.77 L
130 464.77 L
130 464.77 L
130 462.904 L
130 461.038 L
130 460.106 L
130 459.173 L
130 458.24 L
130 455.441 L
130 453.576 L
130 449.845 L
130 447.046 L
130 447.046 L
130 446.113 L
130 444.248 L
130 443.315 L
130 437.718 L
130 437.718 L
130 433.987 L
130 433.987 L
130 431.188 L
130 429.322 L
130 427.457 L
130 426.524 L
130 424.658 L
130 424.658 L
130 421.86 L
130 419.994 L
130 418.129 L
130 418.129 L
130 417.196 L
130 416.263 L
130 414.397 L
130 413.464 L
130 407.868 L
130 406.935 L
130 406.002 L
130 404.136 L
130 403.203 L
130 399.472 L
130 398.539 L
130 398.539 L
130 398.539 L
130 395.741 L
130 394.808 L
130 392.942 L
130 390.144 L
130 389.211 L
130 387.345 L
130 386.413 L
130 386.413 L
130 386.413 L
130 386.413 L
130 385.48 L
130 385.48 L
130 383.614 L
130 383.614 L
130 382.681 L
130 378.95 L
130 376.152 L
130 373.353 L
130 371.488 L
130 370.555 L
130 369.622 L
130 365.891 L
130 364.958 L
130 362.159 L
130 358.428 L
130 356.562 L
130 354.697 L
130 350.965 L
130 349.1 L
130 348.167 L
130 343.503 L
130 341.637 L
130 340.704 L
130 338.839 L
130 336.973 L
130 336.04 L
130 335.107 L
130 335.107 L
130 334.175 L
130 333.242 L
130 331.376 L
130 331.376 L
130 330.443 L
130 328.578 L
130 326.712 L
130 325.779 L
130 324.846 L
130 322.048 L
130 321.115 L
130 318.317 L
130 317.384 L
130 317.384 L
130 316.451 L
130 314.585 L
130 312.72 L
130 312.72 L
130 308.988 L
130 308.988 L
130 307.123 L
130 305.257 L
130 304.324 L
130 303.392 L
130 301.526 L
130 299.66 L
130 299.66 L
130 295.929 L
130 294.063 L
130 289.399 L
130 288.466 L
130 284.735 L
130 284.735 L
130 284.735 L
130 281.937 L
130 280.071 L
130 277.273 L
130 275.407 L
130 274.474 L
130 272.608 L
130 270.743 L
130 270.743 L
130 269.81 L
130 267.944 L
130 267.944 L
130 267.012 L
130 265.146 L
130 262.347 L
130 259.549 L
130 258.616 L
130 258.616 L
130 258.616 L
130 256.75 L
130 253.952 L
130 251.154 L
130 251.154 L
130 248.355 L
130 246.489 L
130 245.557 L
130 244.624 L
130 240.893 L
130 239.96 L
130 238.094 L
130 236.228 L
130 236.228 L
130 234.363 L
130 231.564 L
130 230.631 L
130 227.833 L
130 227.833 L
130 227.833 L
130 226.9 L
130 226.9 L
130 225.035 L
130 224.102 L
130 222.236 L
130 222.236 L
130 219.438 L
130 218.505 L
130 214.774 L
130 211.042 L
130 210.109 L
130 209.177 L
130 206.378 L
130 203.58 L
130 203.58 L
130 203.58 L
130 203.58 L
130 202.647 L
130 201.714 L
130 201.714 L
130 200.781 L
130 198.916 L
130 198.916 L
130 196.117 L
130 196.117 L
130 195.184 L
130 195.184 L
130 194.251 L
130 194.251 L
130 194.251 L
130 193.319 L
130 190.52 L
130 190.52 L
130 187.722 L
130 184.923 L
130 183.99 L
130 183.058 L
130 179.326 L
130 178.393 L
130 178.393 L
130 176.528 L
130 174.662 L
130 174.662 L
130 173.729 L
130 172.797 L
130 170.931 L
130 169.998 L
130 169.065 L
130 167.2 L
130 167.2 L
130 163.468 L
130 162.536 L
130 161.603 L
130 160.67 L
130 159.737 L
130 159.737 L
130 158.804 L
130 156.939 L
130 156.939 L
130 156.939 L
130 155.073 L
130 154.14 L
130 152.274 L
130 151.342 L
130 150.409 L
130 149.476 L
130 148.543 L
130 148.543 L
130 146.678 L
130 144.812 L
130 144.812 L
130 143.879 L
130 143.879 L
130 142.013 L
130 141.081 L
130 140.148 L
130 137.349 L
130 137.349 L
130 135.484 L
130 135.484 L
130 135.484 L
130 135.484 L
130 134.551 L
130 134.551 L
130 134.551 L
130 134.551 L
130 133.618 L
130 133.618 L
130 133.618 L
130 133.618 L
130 132.685 L
130 131.752 L
130 130.82 L
130 129.887 L
130 128.954 L
130 128.954 L
130 128.021 L
130 127.088 L
130 125.223 L
130 125.223 L
130 124.29 L
130 124.29 L
130 122.424 L
130 122.424 L
130 122.424 L
130 122.424 L
130 122.424 L
130 121.491 L
130 120.559 L
130 120.559 L
130 118.693 L
130 118.693 L
130 117.76 L
130 117.76 L
130 116.827 L
130 116.827 L
130 115.894 L
130 114.029 L
130 114.029 L
130 112.163 L
130 112.163 L
130 111.23 L
130 110.298 L
130 109.365 L
130 109.365 L
130 109.365 L
130 109.365 L
130 109.365 L
130 107.499 L
130 106.566 L
130 106.566 L
130 106.566 L
130 106.566 L
130 105.633 L
130 105.633 L
130 105.633 L
130 105.633 L
130 104.701 L
130 104.701 L
130 102.835 L
130 102.835 L
130 101.902 L
130 101.902 L
130 100.969 L
130 99.104 L
130 99.104 L
130 98.171 L
130 97.238 L
130 97.238 L
130 96.305 L
130 96.305 L
130 96.305 L
130 96.305 L
130 96.305 L
130 95.372 L
130 95.372 L
130 95.372 L
130 94.44 L
130 92.574 L
130 91.641 L
130 91.641 L
130 90.708 L
130 90.708 L
130 90.708 L
130 88.843 L
130 87.91 L
130 86.977 L
130 86.977 L
130 86.977 L
130 86.044 L
130 85.111 L
130 85.111 L
130 84.179 L
130 84.179 L
130 84.179 L
130 84.179 L
130 84.179 L
130 84.179 L
130 82.313 L
130 82.313 L
130 81.38 L
130 81.38 L
130 81.38 L
130 80.447 L
130 80.447 L
130 78.582 L
130 78.582 L
130 77.649 L
130 77.649 L
130 76.716 L
130 76.716 L
130 76.716 L
130 76.716 L
130 76.716 L
130 75.783 L
130 75.783 L
130 75.783 L
130 75.783 L
130 73.917 L
130 72.985 L
130 72.052 L
130 72.052 L
130 71.119 L
130 71.119 L
130 71.119 L
130 70.186 L
130 70.186 L
130 69.253 L
130 69.253 L
130 69.253 L
130 68.321 L
130 68.321 L
130 66.455 L
130 66.455 L
130 66.455 L
130 65.522 L
130 64.589 L
130 62.724 L
130 61.791 L
130 61.791 L
130 61.791 L
130 60.858 L
130 60.858 L
130 59.925 L
130 59.925 L
130 59.925 L
130 58.992 L
130 58.992 L
130 58.992 L
130.017 58.992 L
130.017 58.992 L
130.017 58.992 L
130.034 58.992 L
130.034 58.992 L
130.034 58.992 L
130.034 58.992 L
130.051 58.992 L
130.051 58.992 L
130.051 58.059 L
130.068 58.059 L
130.068 58.059 L
130.085 58.059 L
130.085 58.059 L
130.101 58.059 L
130.101 58.059 L
130.135 58.059 L
130.135 58.059 L
130.135 57.127 L
130.152 57.127 L
130.203 57.127 L
130.203 57.127 L
130.203 57.127 L
130.203 57.127 L
130.237 57.127 L
130.254 57.127 L
130.254 57.127 L
130.254 57.127 L
130.287 57.127 L
130.321 57.127 L
130.355 57.127 L
130.456 57.127 L
130.49 56.194 L
130.524 55.261 L
130.541 55.261 L
130.592 54.328 L
130.693 54.328 L
130.812 53.395 L
130.947 53.395 L
131.031 53.395 L
131.082 53.395 L
131.217 53.395 L
131.268 53.395 L
131.386 53.395 L
131.505 53.395 L
131.657 53.395 L
131.708 53.395 L
131.877 53.395 L
131.961 53.395 L
132.13 53.395 L
132.35 51.53 L
132.536 50.597 L
132.722 50.597 L
132.925 50.597 L
133.128 49.664 L
133.364 49.664 L
133.703 49.664 L
133.906 49.664 L
134.159 49.664 L
134.447 49.664 L
134.835 48.731 L
135.292 48.731 L
135.765 48.731 L
136.103 48.731 L
136.611 48.731 L
136.864 48.731 L
137.371 48.731 L
137.929 48.731 L
138.504 48.731 L
139.062 48.731 L
139.891 48.731 L
140.263 47.798 L
140.871 47.798 L
141.615 47.798 L
142.139 47.798 L
143.154 47.798 L
143.999 47.798 L
144.489 47.798 L
145.166 47.798 L
146.079 46.866 L
146.873 46.866 L
147.752 46.866 L
148.784 46.866 L
150.052 46.866 L
150.271 46.866 L
151.59 45.933 L
152.74 45.933 L
154.092 45.933 L
155.411 45 L
156.764 45 L
157.322 45 L
159.131 45 L
160.872 45 L
162.326 45 L
164 45 L
165.488 45 L
166.604 45 L
168.531 45 L
170.492 45 L
172.437 45 L
174.516 45 L
176.799 45 L
179.166 45 L
180.4 45 L
182.682 45 L
185.556 45 L
188.65 45 L
191.626 45 L
194.449 45 L
196.377 45 L
199.488 45 L
202.379 45 L
205.405 45 L
208.432 45 L
211.712 45 L
213.656 45 L
217.494 45 L
221.044 45 L
224.984 45 L
229.244 45 L
232.896 45 L
235.533 45 L
239.659 45 L
243.649 45 L
247.605 45 L
252.457 45 L
257.445 45 L
262.534 45 L
265.239 45 L
270.497 45 L
275.603 45 L
281.926 45 L
287.573 45 L
293.677 45 L
296.872 45 L
303.719 45 L
309.569 45 L
316.619 45 L
322.419 45 L
328.843 45 L
332.783 45 L
339.444 45 L
345.497 45 L
352.445 45 L
359.124 45 L
366.106 45 L
372.835 45 L
376.555 45 L
383.098 45 L
390.351 45 L
397.672 45 L
405.55 45 L
412.956 45 L
417.487 45 L
425.112 45 L
433.836 45 L
441.613 45 L
450.692 45 L
458.909 45 L
463.592 45 L
472.333 45 L
480.499 45 L
488.226 45 L
496.611 45 L
504.93 45 L
510.222 45 L
518.776 45 L
527.416 45 L
535.481 45 L
543.934 45 L
552.202 45 L
560.418 45 L
564.628 45 L
572.575 45 L
581.434 45 L
589.498 45 L
597.597 45 L
606.321 45 L
611.647 45 L
619.001 45 L
626.728 45 L
634.556 45 L
642.045 45 L
650.228 45 L
654.945 45 L
661.658 45 L
669.232 45 L
677.009 45 L
684.228 45 L
691.786 45 L
695.827 45 L
702.86 45 L
710.603 45 L
717.4 45 L
723.52 45 L
730.706 45 L
737.739 45 L
741.475 45 L
747.647 45 L
753.31 45 L
759.143 45 L
764.925 45 L
770.589 45 L
774.089 45 L
779.246 45 L
784.842 45 L
789.897 45 L
794.986 45 L
799.94 45 L
803.051 45 L
807.142 45 L
811.268 45 L
815.765 45 L
820.144 45 L
824.607 45 L
828.344 45 L
830.457 45 L
833.838 45 L
837.338 45 L
840.72 45 L
843.594 45 L
846.705 45 L
848.142 45 L
850.83 45 L
853.823 45 L
856.578 45 L
859.385 45 L
861.701 45 L
863.409 45 L
865.404 45 L
867.365 45 L
869.563 45 L
871.473 45 L
873.485 45 L
875.092 45 L
876.224 45 L
877.543 45 L
879.487 45 L
881.246 45 L
882.378 45 L
883.511 45 L
884.39 45 L
885.929 45 L
887.096 45 L
888.347 45 L
889.141 45 L
890.24 45 L
890.883 45 L
891.491 45 L
892.421 45 L
893.182 45 L
894.129 45 L
894.737 45 L
895.092 45 L
895.786 45 L
896.225 45 L
896.868 45 L
897.257 45 L
897.747 45 L
898.423 45 L
898.728 45 L
899.167 45 L
899.505 45 L
899.826 45 L
900.182 45 L
900.486 45 L
900.655 45 L
900.875 45 L
901.162 45 L
901.534 45 L
901.737 45 L
901.974 45 L
902.143 45 L
902.379 45 L
902.616 45 L
902.785 45 L
902.988 45 L
903.022 45 L
903.106 45 L
903.276 45 L
903.411 45 L
903.546 45 L
903.631 45 L
903.681 45 L
903.8 45 L
903.833 45 L
903.867 45 L
904.036 45 L
904.104 45 L
904.155 45 L
904.188 45 L
904.205 45 L
904.273 45 L
904.341 45 L
904.391 45 L
904.425 45 L
904.459 45 L
904.476 45 L
904.544 45 L
904.577 45 L
904.611 45 L
904.662 45 L
904.696 45 L
904.729 45 L
904.729 45 L
904.763 45 L
904.814 45 L
904.848 45 L
904.848 45 L
904.848 45 L
904.882 45 L
904.882 45 L
904.899 45 L
904.899 45 L
904.899 45 L
904.949 45 L
904.949 45 L
904.966 45 L
904.966 45 L
904.983 45 L
904.983 45 L
904.983 45 L
904.983 45 L
905 45 L
S
GR
GS
1 0 0 RC
1 LJ
2 LW
N
130 530.067 M
130 530.067 L
130 530.067 L
130 530.067 L
130 530.067 L
130 530.067 L
130 530.067 L
130 530.067 L
130 530.067 L
130 530.067 L
130 530.067 L
130 530.067 L
130 530.067 L
130 530.067 L
130 530.067 L
130 530.067 L
130 530.067 L
130 530.067 L
130 530.067 L
130 530.067 L
130 530.067 L
130 530.067 L
130 530.067 L
130 530.067 L
130 530.067 L
130 530.067 L
130 530.067 L
130 530.067 L
130 530.067 L
130 530.067 L
130 530.067 L
130 530.067 L
130 530.067 L
130 530.067 L
130 530.067 L
130 530.067 L
130 530.067 L
130 530.067 L
130 530.067 L
130 530.067 L
130 530.067 L
130 530.067 L
130 530.067 L
130 530.067 L
130 530.067 L
130 530.067 L
130 530.067 L
130 530.067 L
130 530.067 L
130 530.067 L
130 530.067 L
130 530.067 L
130 530.067 L
130 530.067 L
130 530.067 L
130 530.067 L
130 530.067 L
130 530.067 L
130 530.067 L
130 530.067 L
130 530.067 L
130 530.067 L
130 530.067 L
130 530.067 L
130 530.067 L
130 530.067 L
130 530.067 L
130 530.067 L
130 530.067 L
130 530.067 L
130 530.067 L
130 530.067 L
130 530.067 L
130 530.067 L
130 530.067 L
130 530.067 L
130 530.067 L
130 530.067 L
130 530.067 L
130 530.067 L
130 530.067 L
130 530.067 L
130 530.067 L
130 530.067 L
130 530.067 L
130 530.067 L
130 530.067 L
130 530.067 L
130 530.067 L
130 530.067 L
130 530.067 L
130 530.067 L
130 530.067 L
130 530.067 L
130 530.067 L
130 530.067 L
130 530.067 L
130 530.067 L
130 530.067 L
130 530.067 L
130 530.067 L
130 530.067 L
130 530.067 L
130 530.067 L
130 530.067 L
130 530.067 L
130 530.067 L
130 530.067 L
130 530.067 L
130 530.067 L
130 530.067 L
130 530.067 L
130 530.067 L
130 530.067 L
130 530.067 L
130 530.067 L
130 530.067 L
130 530.067 L
130 530.067 L
130 530.067 L
130 530.067 L
130 530.067 L
130 530.067 L
130 530.067 L
130 530.067 L
130 530.067 L
130 530.067 L
130 530.067 L
130 530.067 L
130 530.067 L
130 530.067 L
130 530.067 L
130 530.067 L
130 530.067 L
130 530.067 L
130 530.067 L
130 530.067 L
130 530.067 L
130 530.067 L
130 530.067 L
130 530.067 L
130 530.067 L
130 530.067 L
130 530.067 L
130 530.067 L
130 530.067 L
130 530.067 L
130 530.067 L
130 530.067 L
130 530.067 L
130 530.067 L
130 530.067 L
130 530.067 L
130 530.067 L
130 530.067 L
130 530.067 L
130 530.067 L
130 530.067 L
130 530.067 L
130 530.067 L
130 530.067 L
130 530.067 L
130 530.067 L
130 530.067 L
130 530.067 L
130 530.067 L
130 530.067 L
130 530.067 L
130 529.134 L
130 529.134 L
130 529.134 L
130 529.134 L
130 529.134 L
130 529.134 L
130 529.134 L
130 529.134 L
130 529.134 L
130 529.134 L
130 529.134 L
130 529.134 L
130 529.134 L
130 529.134 L
130 529.134 L
130 528.202 L
130 528.202 L
130 528.202 L
130 528.202 L
130 528.202 L
130 528.202 L
130 528.202 L
130 528.202 L
130 528.202 L
130 528.202 L
130 528.202 L
130 528.202 L
130 527.269 L
130 527.269 L
130 527.269 L
130 525.403 L
130 525.403 L
130 525.403 L
130 524.47 L
130 522.605 L
130 522.605 L
130 522.605 L
130 522.605 L
130 522.605 L
130 520.739 L
130 520.739 L
130 520.739 L
130 520.739 L
130 520.739 L
130 519.806 L
130 518.873 L
130 518.873 L
130 517.94 L
130 517.94 L
130 517.008 L
130 516.075 L
130 516.075 L
130 514.209 L
130 513.276 L
130 511.411 L
130 511.411 L
130 510.478 L
130 510.478 L
130 509.545 L
130 508.612 L
130 508.612 L
130 508.612 L
130 508.612 L
130 507.679 L
130 506.747 L
130 505.814 L
130 504.881 L
130 503.015 L
130 502.083 L
130 500.217 L
130 499.284 L
130 499.284 L
130 499.284 L
130 499.284 L
130 499.284 L
130 498.351 L
130 497.418 L
130 491.822 L
130 491.822 L
130 490.889 L
130 489.956 L
130 489.956 L
130 489.023 L
130 488.09 L
130 488.09 L
130 488.09 L
130 488.09 L
130 487.157 L
130 482.493 L
130 480.628 L
130 476.896 L
130 476.896 L
130 475.964 L
130 475.031 L
130 469.434 L
130 469.434 L
130 468.501 L
130 468.501 L
130 463.837 L
130 461.971 L
130 461.038 L
130 457.307 L
130 455.441 L
130 455.441 L
130 453.576 L
130 451.71 L
130 450.777 L
130 448.912 L
130 446.113 L
130 444.248 L
130 440.516 L
130 437.718 L
130 433.987 L
130 432.121 L
130 430.255 L
130 427.457 L
130 427.457 L
130 426.524 L
130 421.86 L
130 419.061 L
130 418.129 L
130 418.129 L
130 417.196 L
130 417.196 L
130 415.33 L
130 411.599 L
130 406.935 L
130 403.203 L
130 403.203 L
130 403.203 L
130 400.405 L
130 397.607 L
130 395.741 L
130 393.875 L
130 393.875 L
130 392.01 L
130 391.077 L
130 390.144 L
130 386.413 L
130 385.48 L
130 384.547 L
130 383.614 L
130 382.681 L
130 380.816 L
130 378.017 L
130 371.488 L
130 370.555 L
130 368.689 L
130 367.756 L
130 365.891 L
130 361.226 L
130 358.428 L
130 358.428 L
130 358.428 L
130 356.562 L
130 355.63 L
130 353.764 L
130 351.898 L
130 351.898 L
130 350.965 L
130 350.965 L
130 348.167 L
130 348.167 L
130 346.301 L
130 345.369 L
130 344.436 L
130 340.704 L
130 336.04 L
130 335.107 L
130 334.175 L
130 333.242 L
130 332.309 L
130 329.511 L
130 326.712 L
130 326.712 L
130 324.846 L
130 322.981 L
130 322.981 L
130 321.115 L
130 320.182 L
130 316.451 L
130 313.653 L
130 313.653 L
130 312.72 L
130 311.787 L
130 307.123 L
130 306.19 L
130 302.459 L
130 300.593 L
130 300.593 L
130 299.66 L
130 297.795 L
130 294.063 L
130 292.198 L
130 289.399 L
130 287.534 L
130 284.735 L
130 283.802 L
130 282.869 L
130 281.937 L
130 278.205 L
130 278.205 L
130 276.34 L
130 273.541 L
130 273.541 L
130 271.676 L
130 269.81 L
130 267.944 L
130 267.944 L
130 266.079 L
130 266.079 L
130 264.213 L
130 262.347 L
130 260.482 L
130 260.482 L
130 258.616 L
130 255.818 L
130 255.818 L
130 253.019 L
130 252.086 L
130 252.086 L
130 250.221 L
130 248.355 L
130 244.624 L
130 244.624 L
130 242.758 L
130 242.758 L
130 241.825 L
130 239.96 L
130 237.161 L
130 236.228 L
130 233.43 L
130 233.43 L
130 231.564 L
130 229.699 L
130 227.833 L
130 226.9 L
130 225.967 L
130 225.035 L
130 225.035 L
130 225.035 L
130 225.035 L
130 221.303 L
130 219.438 L
130 217.572 L
130 216.639 L
130 216.639 L
130 215.706 L
130 211.975 L
130 209.177 L
130 205.445 L
130 205.445 L
130 204.512 L
130 201.714 L
130 198.916 L
130 197.05 L
130 196.117 L
130 195.184 L
130 194.251 L
130 194.251 L
130 193.319 L
130 191.453 L
130 190.52 L
130 190.52 L
130 189.587 L
130 185.856 L
130 182.125 L
130 181.192 L
130 180.259 L
130 180.259 L
130 179.326 L
130 177.461 L
130 175.595 L
130 172.797 L
130 170.931 L
130 170.931 L
130 169.998 L
130 167.2 L
130 167.2 L
130 163.468 L
130 163.468 L
130 163.468 L
130 160.67 L
130 159.737 L
130 158.804 L
130 157.871 L
130 156.939 L
130 156.006 L
130 156.006 L
130 153.207 L
130 153.207 L
130 152.274 L
130 152.274 L
130 152.274 L
130 152.274 L
130 152.274 L
130 150.409 L
130 149.476 L
130 149.476 L
130 149.476 L
130 149.476 L
130 149.476 L
130 148.543 L
130 147.61 L
130 146.678 L
130 146.678 L
130 146.678 L
130 144.812 L
130 143.879 L
130 143.879 L
130 142.946 L
130 142.946 L
130 142.946 L
130 142.946 L
130 140.148 L
130 139.215 L
130 137.349 L
130 136.417 L
130 136.417 L
130 135.484 L
130 134.551 L
130 132.685 L
130 132.685 L
130 132.685 L
130 132.685 L
130 131.752 L
130 129.887 L
130 127.088 L
130 127.088 L
130 126.155 L
130 126.155 L
130 124.29 L
130 124.29 L
130 124.29 L
130 124.29 L
130 124.29 L
130 123.357 L
130 122.424 L
130 119.626 L
130 118.693 L
130 117.76 L
130 116.827 L
130 116.827 L
130 115.894 L
130 114.962 L
130 113.096 L
130 112.163 L
130 112.163 L
130 112.163 L
130 112.163 L
130 112.163 L
130 112.163 L
130 111.23 L
130 109.365 L
130 107.499 L
130 106.566 L
130 104.701 L
130 103.768 L
130 103.768 L
130 103.768 L
130 101.902 L
130 101.902 L
130 101.902 L
130 101.902 L
130 101.902 L
130 101.902 L
130 100.036 L
130 100.036 L
130 99.104 L
130 99.104 L
130 98.171 L
130 98.171 L
130 98.171 L
130 98.171 L
130 97.238 L
130 97.238 L
130 97.238 L
130 97.238 L
130 97.238 L
130 97.238 L
130 95.372 L
130 94.44 L
130 94.44 L
130 94.44 L
130 92.574 L
130 91.641 L
130 90.708 L
130 90.708 L
130 90.708 L
130 89.775 L
130 89.775 L
130 89.775 L
130 89.775 L
130 88.843 L
130 88.843 L
130 88.843 L
130 88.843 L
130 88.843 L
130 87.91 L
130 86.977 L
130 86.977 L
130 84.179 L
130 84.179 L
130 84.179 L
130 84.179 L
130 84.179 L
130 84.179 L
130 83.246 L
130 82.313 L
130 82.313 L
130 82.313 L
130 82.313 L
130 82.313 L
130 81.38 L
130 79.514 L
130 77.649 L
130 77.649 L
130 76.716 L
130 76.716 L
130 75.783 L
130 74.85 L
130 74.85 L
130 72.985 L
130 72.985 L
130 72.985 L
130 72.985 L
130 72.985 L
130 72.985 L
130 72.985 L
130 72.985 L
130 72.985 L
130 72.052 L
130 72.052 L
130 71.119 L
130 70.186 L
130 70.186 L
130 69.253 L
130 69.253 L
130 67.388 L
130 67.388 L
130 66.455 L
130 66.455 L
130 66.455 L
130 65.522 L
130 65.522 L
130 64.589 L
130 64.589 L
130 64.589 L
130 63.656 L
130 63.656 L
130 63.656 L
130 63.656 L
130 63.656 L
130 63.656 L
130 62.724 L
130 62.724 L
130 61.791 L
130 61.791 L
130 61.791 L
130 61.791 L
130 60.858 L
130 59.925 L
130 59.925 L
130 59.925 L
130 59.925 L
130 59.925 L
130 59.925 L
130 58.992 L
130 58.992 L
130 58.992 L
130 58.992 L
130 58.992 L
130.017 58.992 L
130.017 58.992 L
130.017 58.992 L
130.017 58.992 L
130.017 58.992 L
130.017 58.992 L
130.017 58.992 L
130.017 58.992 L
130.017 58.992 L
130.034 58.992 L
130.034 58.059 L
130.034 57.127 L
130.034 56.194 L
130.034 55.261 L
130.034 55.261 L
130.034 55.261 L
130.034 55.261 L
130.034 55.261 L
130.034 55.261 L
130.034 55.261 L
130.034 55.261 L
130.034 54.328 L
130.034 54.328 L
130.068 54.328 L
130.085 54.328 L
130.101 54.328 L
130.135 54.328 L
130.135 54.328 L
130.135 54.328 L
130.135 54.328 L
130.135 53.395 L
130.135 53.395 L
130.135 53.395 L
130.152 53.395 L
130.152 53.395 L
130.186 52.463 L
130.203 52.463 L
130.203 52.463 L
130.203 52.463 L
130.271 51.53 L
130.271 51.53 L
130.271 51.53 L
130.271 51.53 L
130.287 51.53 L
130.304 51.53 L
130.338 51.53 L
130.355 51.53 L
130.406 51.53 L
130.423 51.53 L
130.456 51.53 L
130.456 50.597 L
130.49 50.597 L
130.558 50.597 L
130.659 50.597 L
130.727 50.597 L
130.795 50.597 L
130.879 50.597 L
131.031 50.597 L
131.133 50.597 L
131.217 50.597 L
131.285 50.597 L
131.353 50.597 L
131.471 49.664 L
131.623 49.664 L
131.725 49.664 L
131.91 49.664 L
132.113 49.664 L
132.232 49.664 L
132.384 49.664 L
132.587 48.731 L
132.688 48.731 L
132.773 48.731 L
132.942 48.731 L
133.179 48.731 L
133.297 48.731 L
133.55 48.731 L
133.77 47.798 L
134.108 47.798 L
134.362 47.798 L
134.785 47.798 L
134.886 47.798 L
135.224 47.798 L
135.529 47.798 L
136.053 47.798 L
136.509 47.798 L
136.932 47.798 L
137.304 46.866 L
138.048 46.866 L
138.656 46.866 L
139.147 46.866 L
139.755 46.866 L
140.195 46.866 L
140.584 46.866 L
141.378 46.866 L
142.021 46.866 L
142.849 46.866 L
143.593 46.866 L
144.658 46.866 L
145.335 46.866 L
146.265 46.866 L
147.228 46.866 L
148.26 46.866 L
149.443 46.866 L
151.083 46.866 L
151.895 46.866 L
153.247 46.866 L
154.752 46.866 L
156.24 46.866 L
158.032 46.866 L
159.773 46.866 L
161.667 46.866 L
162.512 46.866 L
164.152 46.866 L
166.333 46.866 L
167.99 46.866 L
170.205 46.866 L
172.335 46.866 L
173.519 46.866 L
176.088 45 L
178.422 45 L
181.093 45 L
183.561 45 L
186.334 45 L
187.822 45 L
190.595 45 L
193.672 45 L
196.478 45 L
200.299 45 L
203.41 45 L
205.169 45 L
208.854 45 L
212.557 45 L
216.344 45 L
220.402 45 L
224.882 45 L
226.962 45 L
231.729 45 L
235.939 45 L
241.535 45 L
246.05 45 L
251.747 45 L
254.097 45 L
258.696 45 L
263.43 45 L
268.502 45 L
274.775 45 L
280.658 45 L
283.144 45 L
289.061 45 L
295.046 45 L
301.623 45 L
308.369 45 L
314.675 45 L
322.283 45 L
326.256 45 L
332.901 45 L
339.765 45 L
346.443 45 L
353.189 45 L
361.863 45 L
365.937 45 L
373.816 45 L
380.951 45 L
388.424 45 L
396.809 45 L
404.181 45 L
408.188 45 L
416.54 45 L
423.708 45 L
431.858 45 L
439.872 45 L
448.646 45 L
452.856 45 L
461.732 45 L
470.101 45 L
479.265 45 L
486.4 45 L
494.853 45 L
499.266 45 L
507.516 45 L
515.429 45 L
524.102 45 L
532.674 45 L
541.33 45 L
546.741 45 L
556.175 45 L
563.377 45 L
572.118 45 L
581.282 45 L
589.465 45 L
593.421 45 L
602.162 45 L
610.412 45 L
619.035 45 L
626.423 45 L
634.623 45 L
642.688 45 L
648.132 45 L
655.436 45 L
663.754 45 L
671.413 45 L
678.277 45 L
685.615 45 L
690.18 45 L
697.027 45 L
704.179 45 L
710.383 45 L
716.774 45 L
723.267 45 L
727.916 45 L
733.698 45 L
740.055 45 L
745.804 45 L
752.364 45 L
758.873 45 L
762.592 45 L
767.732 45 L
773.075 45 L
778.603 45 L
783.743 45 L
788.714 45 L
791.723 45 L
796.744 45 L
801.022 45 L
805.113 45 L
809.814 45 L
814.108 45 L
816.796 45 L
821.107 45 L
824.827 45 L
828.682 45 L
832.198 45 L
835.85 45 L
838.336 45 L
841.92 45 L
845.082 45 L
847.99 45 L
850.796 45 L
853.451 45 L
856.274 45 L
857.863 45 L
860.044 45 L
862.056 45 L
864.187 45 L
866.587 45 L
868.954 45 L
870.087 45 L
871.727 45 L
873.536 45 L
875.345 45 L
877.154 45 L
878.608 45 L
879.369 45 L
880.738 45 L
882.074 45 L
883.46 45 L
884.593 45 L
885.794 45 L
886.487 45 L
887.467 45 L
888.347 45 L
889.395 45 L
890.528 45 L
891.441 45 L
892.015 45 L
892.776 45 L
893.317 45 L
894.095 45 L
894.839 45 L
895.617 45 L
896.107 45 L
896.513 45 L
897.138 45 L
897.764 45 L
898.102 45 L
898.575 45 L
898.93 45 L
899.049 45 L
899.522 45 L
900.08 45 L
900.334 45 L
900.773 45 L
901.111 45 L
901.314 45 L
901.602 45 L
901.906 45 L
902.227 45 L
902.43 45 L
902.515 45 L
902.616 45 L
902.718 45 L
902.87 45 L
902.937 45 L
903.14 45 L
903.292 45 L
903.377 45 L
903.461 45 L
903.546 45 L
903.664 45 L
903.85 45 L
903.935 45 L
903.986 45 L
904.019 45 L
904.138 45 L
904.172 45 L
904.188 45 L
904.239 45 L
904.341 45 L
904.391 45 L
904.442 45 L
904.51 45 L
904.527 45 L
904.56 45 L
904.611 45 L
904.628 45 L
904.645 45 L
904.679 45 L
904.696 45 L
904.696 45 L
904.746 45 L
904.763 45 L
904.814 45 L
904.831 45 L
904.882 45 L
904.899 45 L
904.899 45 L
904.915 45 L
904.915 45 L
904.915 45 L
904.915 45 L
904.915 45 L
904.932 45 L
904.949 45 L
904.949 45 L
904.949 45 L
904.949 45 L
904.966 45 L
904.966 45 L
904.966 45 L
904.983 45 L
904.983 45 L
904.983 45 L
904.983 45 L
904.983 45 L
904.983 45 L
904.983 45 L
904.983 45 L
904.983 45 L
904.983 45 L
904.983 45 L
904.983 45 L
904.983 45 L
904.983 45 L
904.983 45 L
904.983 45 L
904.983 45 L
904.983 45 L
904.983 45 L
904.983 45 L
904.983 45 L
905 45 L
S
GR
GS
[1 0 0 1 440 224.82001] CT
/Helvetica 24 F
GS
[1 0 0 1 0 0] CT
0 8.5 moveto 
1 -1 scale
(EER line) t 
GR
GR
GS
[10 6] 0 setdash
2 LJ
0.5 LW
N
905 531 M
130 45 L
S
GR
GS
1 GC
N
897 523 M
897 401 L
226 401 L
226 523 L
cp
f
GR
GS
[1 0 0 1 263 417.5679] CT
/Helvetica 24 F
GS
[1 0 0 1 0 0] CT
0 8.5 moveto 
1 -1 scale
(original OSIRIS, EER = 16.89%) t 
GR
GR
GS
0 0 1 RC
1 LJ
2 LW
N
230 417.568 M
260 417.568 L
S
GR
GS
[1 0 0 1 263 447.1893] CT
/Helvetica 24 F
GS
[1 0 0 1 0 0] CT
0 8.5 moveto 
1 -1 scale
(IriCore, EER = 5.37%) t 
GR
GR
GS
0 1 0 RC
1 LJ
2 LW
N
230 447.189 M
260 447.189 L
S
GR
GS
[1 0 0 1 263 476.8107] CT
/Helvetica 24 F
GS
[1 0 0 1 0 0] CT
0 8.5 moveto 
1 -1 scale
(OSIRIS with new segmentation, EER = 0.76%) t 
GR
GR
GS
1 LJ
2 LW
N
230 476.811 M
260 476.811 L
S
GR
GS
[1 0 0 1 263 506.4321] CT
/Helvetica 24 F
GS
[1 0 0 1 0 0] CT
0 8.5 moveto 
1 -1 scale
(OSIRIS with new segmentation and filter set, EER = 0.58%) t 
GR
GR
GS
1 0 0 RC
1 LJ
2 LW
N
230 506.432 M
260 506.432 L
S
GR
GS
0.149 GC
10.0 ML
0.5 LW
N
226 523 M
226 401 L
897 401 L
897 523 L
cp
S
GR
%%Trailer
%%Pages: 1
%%EOF
