%!PS-Adobe-3.0 EPSF-3.0
%%Creator: (MATLAB, The Mathworks, Inc. Version 9.5.0.1049112 \(R2018b\) Update 3. Operating System: Mac OS X)
%%Title: ./ROCs_postmortem_new_60_closeup.eps
%%CreationDate: 2019-03-12T15:40:41
%%Pages: (atend)
%%BoundingBox:    48     5   927   587
%%LanguageLevel: 3
%%EndComments
%%BeginProlog
%%BeginResource: procset (Apache XML Graphics Std ProcSet) 1.2 0
%%Version: 1.2 0
%%Copyright: (Copyright 2001-2003,2010 The Apache Software Foundation. License terms: http://www.apache.org/licenses/LICENSE-2.0)
/bd{bind def}bind def
/ld{load def}bd
/GR/grestore ld
/GS/gsave ld
/RM/rmoveto ld
/C/curveto ld
/t/show ld
/L/lineto ld
/ML/setmiterlimit ld
/CT/concat ld
/f/fill ld
/N/newpath ld
/S/stroke ld
/CC/setcmykcolor ld
/A/ashow ld
/cp/closepath ld
/RC/setrgbcolor ld
/LJ/setlinejoin ld
/GC/setgray ld
/LW/setlinewidth ld
/M/moveto ld
/re {4 2 roll M
1 index 0 rlineto
0 exch rlineto
neg 0 rlineto
cp } bd
/_ctm matrix def
/_tm matrix def
/BT { _ctm currentmatrix pop matrix _tm copy pop 0 0 moveto } bd
/ET { _ctm setmatrix } bd
/iTm { _ctm setmatrix _tm concat } bd
/Tm { _tm astore pop iTm 0 0 moveto } bd
/ux 0.0 def
/uy 0.0 def
/F {
  /Tp exch def
  /Tf exch def
  Tf findfont Tp scalefont setfont
  /cf Tf def  /cs Tp def
} bd
/ULS {currentpoint /uy exch def /ux exch def} bd
/ULE {
  /Tcx currentpoint pop def
  gsave
  newpath
  cf findfont cs scalefont dup
  /FontMatrix get 0 get /Ts exch def /FontInfo get dup
  /UnderlinePosition get Ts mul /To exch def
  /UnderlineThickness get Ts mul /Tt exch def
  ux uy To add moveto  Tcx uy To add lineto
  Tt setlinewidth stroke
  grestore
} bd
/OLE {
  /Tcx currentpoint pop def
  gsave
  newpath
  cf findfont cs scalefont dup
  /FontMatrix get 0 get /Ts exch def /FontInfo get dup
  /UnderlinePosition get Ts mul /To exch def
  /UnderlineThickness get Ts mul /Tt exch def
  ux uy To add cs add moveto Tcx uy To add cs add lineto
  Tt setlinewidth stroke
  grestore
} bd
/SOE {
  /Tcx currentpoint pop def
  gsave
  newpath
  cf findfont cs scalefont dup
  /FontMatrix get 0 get /Ts exch def /FontInfo get dup
  /UnderlinePosition get Ts mul /To exch def
  /UnderlineThickness get Ts mul /Tt exch def
  ux uy To add cs 10 mul 26 idiv add moveto Tcx uy To add cs 10 mul 26 idiv add lineto
  Tt setlinewidth stroke
  grestore
} bd
/QT {
/Y22 exch store
/X22 exch store
/Y21 exch store
/X21 exch store
currentpoint
/Y21 load 2 mul add 3 div exch
/X21 load 2 mul add 3 div exch
/X21 load 2 mul /X22 load add 3 div
/Y21 load 2 mul /Y22 load add 3 div
/X22 load /Y22 load curveto
} bd
/SSPD {
dup length /d exch dict def
{
/v exch def
/k exch def
currentpagedevice k known {
/cpdv currentpagedevice k get def
v cpdv ne {
/upd false def
/nullv v type /nulltype eq def
/nullcpdv cpdv type /nulltype eq def
nullv nullcpdv or
{
/upd true def
} {
/sametype v type cpdv type eq def
sametype {
v type /arraytype eq {
/vlen v length def
/cpdvlen cpdv length def
vlen cpdvlen eq {
0 1 vlen 1 sub {
/i exch def
/obj v i get def
/cpdobj cpdv i get def
obj cpdobj ne {
/upd true def
exit
} if
} for
} {
/upd true def
} ifelse
} {
v type /dicttype eq {
v {
/dv exch def
/dk exch def
/cpddv cpdv dk get def
dv cpddv ne {
/upd true def
exit
} if
} forall
} {
/upd true def
} ifelse
} ifelse
} if
} ifelse
upd true eq {
d k v put
} if
} if
} if
} forall
d length 0 gt {
d setpagedevice
} if
} bd
/RE { % /NewFontName [NewEncodingArray] /FontName RE -
  findfont dup length dict begin
  {
    1 index /FID ne
    {def} {pop pop} ifelse
  } forall
  /Encoding exch def
  /FontName 1 index def
  currentdict definefont pop
  end
} bind def
%%EndResource
%%BeginResource: procset (Apache XML Graphics EPS ProcSet) 1.0 0
%%Version: 1.0 0
%%Copyright: (Copyright 2002-2003 The Apache Software Foundation. License terms: http://www.apache.org/licenses/LICENSE-2.0)
/BeginEPSF { %def
/b4_Inc_state save def         % Save state for cleanup
/dict_count countdictstack def % Count objects on dict stack
/op_count count 1 sub def      % Count objects on operand stack
userdict begin                 % Push userdict on dict stack
/showpage { } def              % Redefine showpage, { } = null proc
0 setgray 0 setlinecap         % Prepare graphics state
1 setlinewidth 0 setlinejoin
10 setmiterlimit [ ] 0 setdash newpath
/languagelevel where           % If level not equal to 1 then
{pop languagelevel             % set strokeadjust and
1 ne                           % overprint to their defaults.
{false setstrokeadjust false setoverprint
} if
} if
} bd
/EndEPSF { %def
count op_count sub {pop} repeat            % Clean up stacks
countdictstack dict_count sub {end} repeat
b4_Inc_state restore
} bd
%%EndResource
%FOPBeginFontDict
%%IncludeResource: font Courier-Oblique
%%IncludeResource: font Courier-BoldOblique
%%IncludeResource: font Courier-Bold
%%IncludeResource: font ZapfDingbats
%%IncludeResource: font Symbol
%%IncludeResource: font Helvetica
%%IncludeResource: font Helvetica-Oblique
%%IncludeResource: font Helvetica-Bold
%%IncludeResource: font Helvetica-BoldOblique
%%IncludeResource: font Times-Roman
%%IncludeResource: font Times-Italic
%%IncludeResource: font Times-Bold
%%IncludeResource: font Times-BoldItalic
%%IncludeResource: font Courier
%FOPEndFontDict
%%BeginResource: encoding WinAnsiEncoding
/WinAnsiEncoding [
/.notdef /.notdef /.notdef /.notdef /.notdef
/.notdef /.notdef /.notdef /.notdef /.notdef
/.notdef /.notdef /.notdef /.notdef /.notdef
/.notdef /.notdef /.notdef /.notdef /.notdef
/.notdef /.notdef /.notdef /.notdef /.notdef
/.notdef /.notdef /.notdef /.notdef /.notdef
/.notdef /.notdef /space /exclam /quotedbl
/numbersign /dollar /percent /ampersand /quotesingle
/parenleft /parenright /asterisk /plus /comma
/hyphen /period /slash /zero /one
/two /three /four /five /six
/seven /eight /nine /colon /semicolon
/less /equal /greater /question /at
/A /B /C /D /E
/F /G /H /I /J
/K /L /M /N /O
/P /Q /R /S /T
/U /V /W /X /Y
/Z /bracketleft /backslash /bracketright /asciicircum
/underscore /quoteleft /a /b /c
/d /e /f /g /h
/i /j /k /l /m
/n /o /p /q /r
/s /t /u /v /w
/x /y /z /braceleft /bar
/braceright /asciitilde /bullet /Euro /bullet
/quotesinglbase /florin /quotedblbase /ellipsis /dagger
/daggerdbl /circumflex /perthousand /Scaron /guilsinglleft
/OE /bullet /Zcaron /bullet /bullet
/quoteleft /quoteright /quotedblleft /quotedblright /bullet
/endash /emdash /asciitilde /trademark /scaron
/guilsinglright /oe /bullet /zcaron /Ydieresis
/space /exclamdown /cent /sterling /currency
/yen /brokenbar /section /dieresis /copyright
/ordfeminine /guillemotleft /logicalnot /sfthyphen /registered
/macron /degree /plusminus /twosuperior /threesuperior
/acute /mu /paragraph /middot /cedilla
/onesuperior /ordmasculine /guillemotright /onequarter /onehalf
/threequarters /questiondown /Agrave /Aacute /Acircumflex
/Atilde /Adieresis /Aring /AE /Ccedilla
/Egrave /Eacute /Ecircumflex /Edieresis /Igrave
/Iacute /Icircumflex /Idieresis /Eth /Ntilde
/Ograve /Oacute /Ocircumflex /Otilde /Odieresis
/multiply /Oslash /Ugrave /Uacute /Ucircumflex
/Udieresis /Yacute /Thorn /germandbls /agrave
/aacute /acircumflex /atilde /adieresis /aring
/ae /ccedilla /egrave /eacute /ecircumflex
/edieresis /igrave /iacute /icircumflex /idieresis
/eth /ntilde /ograve /oacute /ocircumflex
/otilde /odieresis /divide /oslash /ugrave
/uacute /ucircumflex /udieresis /yacute /thorn
/ydieresis
] def
%%EndResource
%FOPBeginFontReencode
/Courier-Oblique findfont
dup length dict begin
  {1 index /FID ne {def} {pop pop} ifelse} forall
  /Encoding WinAnsiEncoding def
  currentdict
end
/Courier-Oblique exch definefont pop
/Courier-BoldOblique findfont
dup length dict begin
  {1 index /FID ne {def} {pop pop} ifelse} forall
  /Encoding WinAnsiEncoding def
  currentdict
end
/Courier-BoldOblique exch definefont pop
/Courier-Bold findfont
dup length dict begin
  {1 index /FID ne {def} {pop pop} ifelse} forall
  /Encoding WinAnsiEncoding def
  currentdict
end
/Courier-Bold exch definefont pop
/Helvetica findfont
dup length dict begin
  {1 index /FID ne {def} {pop pop} ifelse} forall
  /Encoding WinAnsiEncoding def
  currentdict
end
/Helvetica exch definefont pop
/Helvetica-Oblique findfont
dup length dict begin
  {1 index /FID ne {def} {pop pop} ifelse} forall
  /Encoding WinAnsiEncoding def
  currentdict
end
/Helvetica-Oblique exch definefont pop
/Helvetica-Bold findfont
dup length dict begin
  {1 index /FID ne {def} {pop pop} ifelse} forall
  /Encoding WinAnsiEncoding def
  currentdict
end
/Helvetica-Bold exch definefont pop
/Helvetica-BoldOblique findfont
dup length dict begin
  {1 index /FID ne {def} {pop pop} ifelse} forall
  /Encoding WinAnsiEncoding def
  currentdict
end
/Helvetica-BoldOblique exch definefont pop
/Times-Roman findfont
dup length dict begin
  {1 index /FID ne {def} {pop pop} ifelse} forall
  /Encoding WinAnsiEncoding def
  currentdict
end
/Times-Roman exch definefont pop
/Times-Italic findfont
dup length dict begin
  {1 index /FID ne {def} {pop pop} ifelse} forall
  /Encoding WinAnsiEncoding def
  currentdict
end
/Times-Italic exch definefont pop
/Times-Bold findfont
dup length dict begin
  {1 index /FID ne {def} {pop pop} ifelse} forall
  /Encoding WinAnsiEncoding def
  currentdict
end
/Times-Bold exch definefont pop
/Times-BoldItalic findfont
dup length dict begin
  {1 index /FID ne {def} {pop pop} ifelse} forall
  /Encoding WinAnsiEncoding def
  currentdict
end
/Times-BoldItalic exch definefont pop
/Courier findfont
dup length dict begin
  {1 index /FID ne {def} {pop pop} ifelse} forall
  /Encoding WinAnsiEncoding def
  currentdict
end
/Courier exch definefont pop
%FOPEndFontReencode
%%EndProlog
%%Page: 1 1
%%PageBoundingBox: 0 0 1000 600
%%BeginPageSetup
[1 0 0 -1 0 600] CT
%%EndPageSetup
GS
1 GC
N
0 0 1000 600 re
f
GR
GS
1 GC
N
0 0 1000 600 re
f
GR
GS
1 GC
N
130 531 M
905 531 L
905 45 L
130 45 L
cp
f
GR
GS
0.873 GC
1 LJ
0.5 LW
N
130 531 M
130 45 L
S
GR
GS
0.873 GC
1 LJ
0.5 LW
N
285 531 M
285 45 L
S
GR
GS
0.873 GC
1 LJ
0.5 LW
N
440 531 M
440 45 L
S
GR
GS
0.873 GC
1 LJ
0.5 LW
N
595 531 M
595 45 L
S
GR
GS
0.873 GC
1 LJ
0.5 LW
N
750 531 M
750 45 L
S
GR
GS
0.873 GC
1 LJ
0.5 LW
N
905 531 M
905 45 L
S
GR
GS
0.873 GC
1 LJ
0.5 LW
N
905 531 M
130 531 L
S
GR
GS
0.873 GC
1 LJ
0.5 LW
N
905 470.25 M
130 470.25 L
S
GR
GS
0.873 GC
1 LJ
0.5 LW
N
905 409.5 M
130 409.5 L
S
GR
GS
0.873 GC
1 LJ
0.5 LW
N
905 348.75 M
130 348.75 L
S
GR
GS
0.873 GC
1 LJ
0.5 LW
N
905 288 M
130 288 L
S
GR
GS
0.873 GC
1 LJ
0.5 LW
N
905 227.25 M
130 227.25 L
S
GR
GS
0.873 GC
1 LJ
0.5 LW
N
905 166.5 M
130 166.5 L
S
GR
GS
0.873 GC
1 LJ
0.5 LW
N
905 105.75 M
130 105.75 L
S
GR
GS
0.873 GC
1 LJ
0.5 LW
N
905 45 M
130 45 L
S
GR
GS
0.149 GC
2 setlinecap
1 LJ
0.5 LW
N
130 531 M
905 531 L
S
GR
GS
0.149 GC
2 setlinecap
1 LJ
0.5 LW
N
130 45 M
905 45 L
S
GR
GS
0.149 GC
2 setlinecap
1 LJ
0.5 LW
N
130 531 M
130 523.25 L
S
GR
GS
0.149 GC
2 setlinecap
1 LJ
0.5 LW
N
285 531 M
285 523.25 L
S
GR
GS
0.149 GC
2 setlinecap
1 LJ
0.5 LW
N
440 531 M
440 523.25 L
S
GR
GS
0.149 GC
2 setlinecap
1 LJ
0.5 LW
N
595 531 M
595 523.25 L
S
GR
GS
0.149 GC
2 setlinecap
1 LJ
0.5 LW
N
750 531 M
750 523.25 L
S
GR
GS
0.149 GC
2 setlinecap
1 LJ
0.5 LW
N
905 531 M
905 523.25 L
S
GR
GS
0.149 GC
2 setlinecap
1 LJ
0.5 LW
N
130 45 M
130 52.75 L
S
GR
GS
0.149 GC
2 setlinecap
1 LJ
0.5 LW
N
285 45 M
285 52.75 L
S
GR
GS
0.149 GC
2 setlinecap
1 LJ
0.5 LW
N
440 45 M
440 52.75 L
S
GR
GS
0.149 GC
2 setlinecap
1 LJ
0.5 LW
N
595 45 M
595 52.75 L
S
GR
GS
0.149 GC
2 setlinecap
1 LJ
0.5 LW
N
750 45 M
750 52.75 L
S
GR
GS
0.149 GC
2 setlinecap
1 LJ
0.5 LW
N
905 45 M
905 52.75 L
S
GR
GS
[1 0 0 1 130 537.79999] CT
0.149 GC
/Helvetica 24 F
GS
[1 0 0 1 0 0] CT
-7 23 moveto 
1 -1 scale
(0) t 
GR
GR
GS
[1 0 0 1 285 537.79999] CT
0.149 GC
/Helvetica 24 F
GS
[1 0 0 1 0 0] CT
-23.5 23 moveto 
1 -1 scale
(0.01) t 
GR
GR
GS
[1 0 0 1 440 537.79999] CT
0.149 GC
/Helvetica 24 F
GS
[1 0 0 1 0 0] CT
-23.5 23 moveto 
1 -1 scale
(0.02) t 
GR
GR
GS
[1 0 0 1 595 537.79999] CT
0.149 GC
/Helvetica 24 F
GS
[1 0 0 1 0 0] CT
-23.5 23 moveto 
1 -1 scale
(0.03) t 
GR
GR
GS
[1 0 0 1 750 537.79999] CT
0.149 GC
/Helvetica 24 F
GS
[1 0 0 1 0 0] CT
-23.5 23 moveto 
1 -1 scale
(0.04) t 
GR
GR
GS
[1 0 0 1 905 537.79999] CT
0.149 GC
/Helvetica 24 F
GS
[1 0 0 1 0 0] CT
-23.5 23 moveto 
1 -1 scale
(0.05) t 
GR
GR
GS
[1 0 0 1 517.50037 567.79993] CT
0.149 GC
/Helvetica 26.4 F
GS
[1 0 0 1 0 0] CT
-103.5 26 moveto 
1 -1 scale
(False Match Rate) t 
GR
GR
GS
0.149 GC
2 setlinecap
1 LJ
0.5 LW
N
130 531 M
130 45 L
S
GR
GS
0.149 GC
2 setlinecap
1 LJ
0.5 LW
N
905 531 M
905 45 L
S
GR
GS
0.149 GC
2 setlinecap
1 LJ
0.5 LW
N
130 531 M
137.75 531 L
S
GR
GS
0.149 GC
2 setlinecap
1 LJ
0.5 LW
N
130 470.25 M
137.75 470.25 L
S
GR
GS
0.149 GC
2 setlinecap
1 LJ
0.5 LW
N
130 409.5 M
137.75 409.5 L
S
GR
GS
0.149 GC
2 setlinecap
1 LJ
0.5 LW
N
130 348.75 M
137.75 348.75 L
S
GR
GS
0.149 GC
2 setlinecap
1 LJ
0.5 LW
N
130 288 M
137.75 288 L
S
GR
GS
0.149 GC
2 setlinecap
1 LJ
0.5 LW
N
130 227.25 M
137.75 227.25 L
S
GR
GS
0.149 GC
2 setlinecap
1 LJ
0.5 LW
N
130 166.5 M
137.75 166.5 L
S
GR
GS
0.149 GC
2 setlinecap
1 LJ
0.5 LW
N
130 105.75 M
137.75 105.75 L
S
GR
GS
0.149 GC
2 setlinecap
1 LJ
0.5 LW
N
130 45 M
137.75 45 L
S
GR
GS
0.149 GC
2 setlinecap
1 LJ
0.5 LW
N
905 531 M
897.25 531 L
S
GR
GS
0.149 GC
2 setlinecap
1 LJ
0.5 LW
N
905 470.25 M
897.25 470.25 L
S
GR
GS
0.149 GC
2 setlinecap
1 LJ
0.5 LW
N
905 409.5 M
897.25 409.5 L
S
GR
GS
0.149 GC
2 setlinecap
1 LJ
0.5 LW
N
905 348.75 M
897.25 348.75 L
S
GR
GS
0.149 GC
2 setlinecap
1 LJ
0.5 LW
N
905 288 M
897.25 288 L
S
GR
GS
0.149 GC
2 setlinecap
1 LJ
0.5 LW
N
905 227.25 M
897.25 227.25 L
S
GR
GS
0.149 GC
2 setlinecap
1 LJ
0.5 LW
N
905 166.5 M
897.25 166.5 L
S
GR
GS
0.149 GC
2 setlinecap
1 LJ
0.5 LW
N
905 105.75 M
897.25 105.75 L
S
GR
GS
0.149 GC
2 setlinecap
1 LJ
0.5 LW
N
905 45 M
897.25 45 L
S
GR
GS
[1 0 0 1 123.2 531] CT
0.149 GC
/Helvetica 24 F
GS
[1 0 0 1 0 0] CT
-34 8.5 moveto 
1 -1 scale
(0.6) t 
GR
GR
GS
[1 0 0 1 123.2 470.25003] CT
0.149 GC
/Helvetica 24 F
GS
[1 0 0 1 0 0] CT
-47 8.5 moveto 
1 -1 scale
(0.65) t 
GR
GR
GS
[1 0 0 1 123.2 409.5] CT
0.149 GC
/Helvetica 24 F
GS
[1 0 0 1 0 0] CT
-34 8.5 moveto 
1 -1 scale
(0.7) t 
GR
GR
GS
[1 0 0 1 123.2 348.75] CT
0.149 GC
/Helvetica 24 F
GS
[1 0 0 1 0 0] CT
-47 8.5 moveto 
1 -1 scale
(0.75) t 
GR
GR
GS
[1 0 0 1 123.2 288] CT
0.149 GC
/Helvetica 24 F
GS
[1 0 0 1 0 0] CT
-34 8.5 moveto 
1 -1 scale
(0.8) t 
GR
GR
GS
[1 0 0 1 123.2 227.24997] CT
0.149 GC
/Helvetica 24 F
GS
[1 0 0 1 0 0] CT
-47 8.5 moveto 
1 -1 scale
(0.85) t 
GR
GR
GS
[1 0 0 1 123.2 166.50003] CT
0.149 GC
/Helvetica 24 F
GS
[1 0 0 1 0 0] CT
-34 8.5 moveto 
1 -1 scale
(0.9) t 
GR
GR
GS
[1 0 0 1 123.2 105.75002] CT
0.149 GC
/Helvetica 24 F
GS
[1 0 0 1 0 0] CT
-47 8.5 moveto 
1 -1 scale
(0.95) t 
GR
GR
GS
[1 0 0 1 123.2 45] CT
0.149 GC
/Helvetica 24 F
GS
[1 0 0 1 0 0] CT
-14 8.5 moveto 
1 -1 scale
(1) t 
GR
GR
GS
[0 -1 1 0 73.2 287.99976] CT
0.149 GC
/Helvetica 26.4 F
GS
[1 0 0 1 0 0] CT
-153 -6 moveto 
1 -1 scale
(1 - False Non-Match Rate) t 
GR
GR
GS
[1 0 0 1 517.50049 38.39996] CT
/Helvetica-Bold 26.4 F
GS
[1 0 0 1 0 0] CT
-279.5 -6 moveto 
1 -1 scale
(Data acquired less than 60 hours after death) t 
GR
GR
GS
0 0 1 RC
1 LJ
2 LW
N
230.996 531.058 M
235.84 530.044 L
239.88 528.85 L
246.205 525.863 L
253.056 521.681 L
259.731 518.097 L
265.089 513.916 L
272.291 511.527 L
278.264 509.735 L
284.764 507.345 L
290.912 504.956 L
298.817 503.761 L
307.425 501.969 L
314.539 499.58 L
323.411 495.398 L
332.018 493.009 L
341.329 490.62 L
349.41 487.633 L
359.95 484.646 L
372.422 482.257 L
383.314 478.673 L
397.016 476.881 L
408.873 472.699 L
421.17 472.102 L
435.399 467.323 L
449.628 463.142 L
465.439 461.947 L
482.83 460.752 L
501.099 458.363 L
520.862 457.765 L
539.834 456.571 L
559.333 455.973 L
582.609 453.584 L
602.108 450 L
626.614 446.416 L
651.91 444.027 L
675.186 441.04 L
699.516 436.261 L
724.901 435.664 L
754.413 433.274 L
779.709 430.288 L
811.505 427.898 L
839.524 426.704 L
873.077 426.106 L
905.092 425.028 L
S
GR
GS
0 1 0 RC
1 LJ
2 LW
N
130 531.058 M
130 526.46 L
130 521.084 L
130 519.292 L
130 514.513 L
130 508.54 L
130 505.553 L
130 502.566 L
130 497.19 L
130 493.009 L
130 489.425 L
130.088 482.257 L
130.088 478.673 L
130.088 473.894 L
130.088 467.323 L
130.088 463.142 L
130.088 458.96 L
130.088 452.987 L
130.088 446.416 L
130.088 439.248 L
130.088 433.872 L
130.088 429.093 L
130.176 424.911 L
130.264 420.133 L
130.351 415.951 L
130.351 409.978 L
130.351 405.199 L
130.351 404.004 L
130.439 398.031 L
130.791 394.447 L
130.878 387.876 L
130.966 381.305 L
131.054 377.721 L
131.318 373.54 L
131.318 370.553 L
131.318 363.982 L
131.581 360.398 L
131.669 355.022 L
131.932 351.438 L
132.108 347.854 L
132.284 347.257 L
132.547 345.465 L
132.899 343.075 L
133.513 340.686 L
134.304 337.699 L
134.743 334.115 L
135.27 331.128 L
136.588 324.557 L
137.466 322.765 L
137.993 320.376 L
139.837 316.792 L
141.067 315 L
141.858 312.611 L
143.175 306.637 L
144.668 302.456 L
146.249 300.664 L
148.621 298.872 L
150.641 297.08 L
153.891 295.288 L
156.789 289.314 L
160.215 284.535 L
163.64 283.341 L
168.208 279.757 L
173.039 273.783 L
177.957 271.991 L
182.7 271.394 L
189.727 269.004 L
198.159 263.628 L
206.679 258.252 L
215.199 255.863 L
225.476 253.473 L
235.752 251.084 L
244.536 249.889 L
256.13 247.5 L
269.92 245.111 L
282.919 243.319 L
297.587 240.332 L
314.891 236.748 L
330.525 233.761 L
348.531 231.969 L
367.328 229.58 L
387.53 227.788 L
406.765 225.398 L
431.008 224.204 L
452.615 221.217 L
477.647 220.022 L
500.484 220.022 L
528.152 215.841 L
553.536 215.243 L
583.575 214.049 L
611.594 212.257 L
638.56 211.659 L
663.241 211.062 L
692.665 209.27 L
719.806 208.075 L
748.264 206.88 L
777.689 205.686 L
803.688 203.894 L
832.761 203.296 L
858.321 202.699 L
885.549 201.504 L
905.092 200.239 L
S
GR
GS
1 LJ
2 LW
N
130 531.058 M
130 529.447 L
130 526.46 L
130 525.266 L
130 523.473 L
130 521.681 L
130 517.5 L
130 514.513 L
130 510.332 L
130 506.748 L
130 502.566 L
130 500.774 L
130 498.982 L
130 497.788 L
130 494.801 L
130 490.62 L
130 488.827 L
130 484.049 L
130 479.867 L
130 475.089 L
130 472.102 L
130 466.128 L
130 460.752 L
130 457.765 L
130.088 455.376 L
130.088 451.195 L
130.088 450 L
130.176 446.416 L
130.176 443.429 L
130.264 438.65 L
130.264 433.274 L
130.264 427.898 L
130.351 426.704 L
130.439 422.522 L
130.439 418.938 L
130.527 416.549 L
130.527 411.77 L
130.527 408.186 L
130.527 405.796 L
130.527 402.212 L
130.527 397.434 L
130.527 395.642 L
130.615 393.252 L
130.703 391.46 L
130.791 387.279 L
130.878 384.292 L
130.878 381.305 L
130.878 374.735 L
130.878 369.956 L
130.966 367.566 L
130.966 366.969 L
131.23 363.385 L
131.318 358.606 L
131.405 356.217 L
131.405 353.23 L
131.405 350.243 L
131.493 348.451 L
131.757 344.867 L
132.108 343.075 L
132.284 341.881 L
132.723 338.296 L
132.899 336.504 L
133.162 331.128 L
133.426 329.336 L
133.689 323.363 L
133.777 319.779 L
133.953 315.597 L
134.304 312.013 L
134.743 309.027 L
135.182 305.442 L
135.182 303.053 L
135.358 299.469 L
135.621 298.274 L
136.148 296.482 L
136.588 294.093 L
137.729 291.704 L
138.169 288.119 L
138.608 284.535 L
139.135 280.951 L
139.662 276.77 L
140.101 273.783 L
141.331 271.991 L
142.121 268.407 L
143.087 267.212 L
144.58 263.628 L
145.371 263.031 L
146.601 263.031 L
148.884 260.642 L
150.026 259.447 L
152.134 256.46 L
153.803 254.668 L
155.472 252.279 L
157.58 248.695 L
159.424 246.305 L
162.499 241.527 L
164.255 240.332 L
167.417 236.15 L
169.965 233.761 L
173.039 230.177 L
176.552 230.177 L
179.275 228.982 L
181.91 226.593 L
185.95 224.801 L
188.146 223.009 L
192.45 218.827 L
196.49 216.438 L
201.146 213.451 L
205.186 211.659 L
209.666 208.075 L
213.267 206.283 L
217.746 204.491 L
225.037 204.491 L
230.658 202.102 L
238.036 201.504 L
246.38 199.712 L
254.022 197.92 L
261.136 193.142 L
270.359 190.752 L
276.683 189.557 L
286.257 187.765 L
295.919 185.973 L
304.966 184.181 L
314.364 184.181 L
324.992 182.987 L
338.255 180 L
346.687 177.611 L
359.247 174.624 L
372.949 171.04 L
387.53 165.664 L
402.461 163.872 L
419.238 161.482 L
434.345 160.288 L
452.263 158.496 L
464.911 158.496 L
481.6 157.898 L
499.957 154.912 L
519.808 151.925 L
537.902 151.327 L
560.299 150.133 L
584.102 147.743 L
598.244 146.549 L
619.5 144.159 L
649.539 142.965 L
675.889 141.77 L
700.395 139.978 L
728.765 138.186 L
761.527 136.394 L
792.708 135.199 L
812.12 134.004 L
843.213 132.81 L
874.833 132.212 L
905.092 131.686 L
S
GR
GS
1 0 0 RC
1 LJ
2 LW
N
130 531.058 M
130 528.252 L
130 524.071 L
130 522.279 L
130 519.292 L
130 515.708 L
130 513.319 L
130 509.735 L
130 507.943 L
130 504.956 L
130 500.177 L
130 496.593 L
130 494.801 L
130 492.412 L
130 487.633 L
130 484.049 L
130 481.659 L
130 479.867 L
130 475.686 L
130 471.504 L
130 464.336 L
130 460.155 L
130 455.973 L
130 455.376 L
130 451.792 L
130 447.611 L
130 442.234 L
130 433.274 L
130 424.911 L
130 424.314 L
130 422.522 L
130 418.938 L
130 412.965 L
130 409.381 L
130 402.81 L
130 401.615 L
130 396.239 L
130 391.46 L
130 385.487 L
130 380.111 L
130 376.527 L
130 375.332 L
130 374.137 L
130 369.358 L
130 363.982 L
130 360.398 L
130 356.814 L
130 353.827 L
130 350.243 L
130 344.867 L
130 341.283 L
130 338.894 L
130 332.92 L
130 329.934 L
130 329.336 L
130 326.947 L
130 325.155 L
130 321.571 L
130.088 319.181 L
130.176 316.195 L
130.176 315 L
130.176 311.416 L
130.176 308.429 L
130.176 306.04 L
130.176 304.845 L
130.439 303.65 L
130.527 301.858 L
130.703 300.066 L
130.878 297.677 L
130.878 295.885 L
130.878 289.911 L
130.966 287.522 L
131.054 284.535 L
131.054 282.743 L
131.142 282.146 L
131.23 277.367 L
131.23 274.978 L
131.318 270.796 L
131.405 266.018 L
131.405 264.226 L
131.581 259.447 L
131.669 255.863 L
132.108 254.071 L
132.196 250.487 L
132.196 248.097 L
132.547 245.708 L
132.723 243.916 L
133.162 240.332 L
133.426 237.345 L
133.601 234.956 L
133.601 231.969 L
133.865 230.177 L
134.216 227.788 L
134.48 225.398 L
134.831 221.814 L
135.446 220.022 L
135.709 219.425 L
136.148 216.438 L
136.851 212.257 L
137.378 209.867 L
137.642 209.867 L
137.993 208.673 L
138.432 204.491 L
139.047 201.504 L
139.31 200.907 L
140.101 199.712 L
140.54 198.518 L
141.067 197.323 L
142.033 196.128 L
142.999 192.544 L
143.878 191.35 L
144.844 190.155 L
146.601 189.557 L
147.742 188.96 L
149.236 187.168 L
151.519 186.571 L
152.573 183.584 L
155.033 182.389 L
156.965 180.597 L
158.634 178.805 L
161.181 178.208 L
164.08 177.013 L
166.012 175.221 L
168.647 174.027 L
172.16 174.027 L
175.937 171.637 L
179.363 170.442 L
182.788 168.65 L
186.126 165.066 L
188.585 163.274 L
193.153 161.482 L
197.808 160.885 L
203.254 156.106 L
207.733 154.314 L
213.355 153.119 L
216.165 151.925 L
222.841 148.938 L
229.34 147.743 L
236.894 147.146 L
245.678 145.951 L
253.056 144.159 L
258.062 142.965 L
266.846 139.978 L
276.507 136.991 L
284.764 135.796 L
296.973 134.602 L
307.776 133.407 L
315.506 132.81 L
327.539 129.823 L
340.802 126.836 L
353.977 126.239 L
368.909 125.044 L
383.05 122.655 L
395.698 121.46 L
414.319 120.266 L
431.271 118.473 L
450.243 117.279 L
469.83 116.681 L
489.242 114.292 L
510.849 111.903 L
524.287 111.305 L
546.949 110.708 L
574.441 108.916 L
601.494 107.124 L
631.094 105.929 L
662.45 103.54 L
683.706 102.942 L
714.887 101.748 L
750.197 101.15 L
788.053 99.956 L
825.295 97.566 L
866.665 97.566 L
889.063 96.372 L
905.092 96.132 L
S
GR
GS
[10 6] 0 setdash
2 LJ
0.5 LW
N
905.092 105.757 M
130 45 L
S
GR
%%Trailer
%%Pages: 1
%%EOF
