%!PS-Adobe-3.0 EPSF-3.0
%%Creator: (MATLAB, The Mathworks, Inc. Version 9.5.0.1049112 \(R2018b\) Update 3. Operating System: Mac OS X)
%%Title: ./ROCs_postmortem_new_160.eps
%%CreationDate: 2019-02-28T21:22:45
%%Pages: (atend)
%%BoundingBox:    61     5   907   587
%%LanguageLevel: 3
%%EndComments
%%BeginProlog
%%BeginResource: procset (Apache XML Graphics Std ProcSet) 1.2 0
%%Version: 1.2 0
%%Copyright: (Copyright 2001-2003,2010 The Apache Software Foundation. License terms: http://www.apache.org/licenses/LICENSE-2.0)
/bd{bind def}bind def
/ld{load def}bd
/GR/grestore ld
/GS/gsave ld
/RM/rmoveto ld
/C/curveto ld
/t/show ld
/L/lineto ld
/ML/setmiterlimit ld
/CT/concat ld
/f/fill ld
/N/newpath ld
/S/stroke ld
/CC/setcmykcolor ld
/A/ashow ld
/cp/closepath ld
/RC/setrgbcolor ld
/LJ/setlinejoin ld
/GC/setgray ld
/LW/setlinewidth ld
/M/moveto ld
/re {4 2 roll M
1 index 0 rlineto
0 exch rlineto
neg 0 rlineto
cp } bd
/_ctm matrix def
/_tm matrix def
/BT { _ctm currentmatrix pop matrix _tm copy pop 0 0 moveto } bd
/ET { _ctm setmatrix } bd
/iTm { _ctm setmatrix _tm concat } bd
/Tm { _tm astore pop iTm 0 0 moveto } bd
/ux 0.0 def
/uy 0.0 def
/F {
  /Tp exch def
  /Tf exch def
  Tf findfont Tp scalefont setfont
  /cf Tf def  /cs Tp def
} bd
/ULS {currentpoint /uy exch def /ux exch def} bd
/ULE {
  /Tcx currentpoint pop def
  gsave
  newpath
  cf findfont cs scalefont dup
  /FontMatrix get 0 get /Ts exch def /FontInfo get dup
  /UnderlinePosition get Ts mul /To exch def
  /UnderlineThickness get Ts mul /Tt exch def
  ux uy To add moveto  Tcx uy To add lineto
  Tt setlinewidth stroke
  grestore
} bd
/OLE {
  /Tcx currentpoint pop def
  gsave
  newpath
  cf findfont cs scalefont dup
  /FontMatrix get 0 get /Ts exch def /FontInfo get dup
  /UnderlinePosition get Ts mul /To exch def
  /UnderlineThickness get Ts mul /Tt exch def
  ux uy To add cs add moveto Tcx uy To add cs add lineto
  Tt setlinewidth stroke
  grestore
} bd
/SOE {
  /Tcx currentpoint pop def
  gsave
  newpath
  cf findfont cs scalefont dup
  /FontMatrix get 0 get /Ts exch def /FontInfo get dup
  /UnderlinePosition get Ts mul /To exch def
  /UnderlineThickness get Ts mul /Tt exch def
  ux uy To add cs 10 mul 26 idiv add moveto Tcx uy To add cs 10 mul 26 idiv add lineto
  Tt setlinewidth stroke
  grestore
} bd
/QT {
/Y22 exch store
/X22 exch store
/Y21 exch store
/X21 exch store
currentpoint
/Y21 load 2 mul add 3 div exch
/X21 load 2 mul add 3 div exch
/X21 load 2 mul /X22 load add 3 div
/Y21 load 2 mul /Y22 load add 3 div
/X22 load /Y22 load curveto
} bd
/SSPD {
dup length /d exch dict def
{
/v exch def
/k exch def
currentpagedevice k known {
/cpdv currentpagedevice k get def
v cpdv ne {
/upd false def
/nullv v type /nulltype eq def
/nullcpdv cpdv type /nulltype eq def
nullv nullcpdv or
{
/upd true def
} {
/sametype v type cpdv type eq def
sametype {
v type /arraytype eq {
/vlen v length def
/cpdvlen cpdv length def
vlen cpdvlen eq {
0 1 vlen 1 sub {
/i exch def
/obj v i get def
/cpdobj cpdv i get def
obj cpdobj ne {
/upd true def
exit
} if
} for
} {
/upd true def
} ifelse
} {
v type /dicttype eq {
v {
/dv exch def
/dk exch def
/cpddv cpdv dk get def
dv cpddv ne {
/upd true def
exit
} if
} forall
} {
/upd true def
} ifelse
} ifelse
} if
} ifelse
upd true eq {
d k v put
} if
} if
} if
} forall
d length 0 gt {
d setpagedevice
} if
} bd
/RE { % /NewFontName [NewEncodingArray] /FontName RE -
  findfont dup length dict begin
  {
    1 index /FID ne
    {def} {pop pop} ifelse
  } forall
  /Encoding exch def
  /FontName 1 index def
  currentdict definefont pop
  end
} bind def
%%EndResource
%%BeginResource: procset (Apache XML Graphics EPS ProcSet) 1.0 0
%%Version: 1.0 0
%%Copyright: (Copyright 2002-2003 The Apache Software Foundation. License terms: http://www.apache.org/licenses/LICENSE-2.0)
/BeginEPSF { %def
/b4_Inc_state save def         % Save state for cleanup
/dict_count countdictstack def % Count objects on dict stack
/op_count count 1 sub def      % Count objects on operand stack
userdict begin                 % Push userdict on dict stack
/showpage { } def              % Redefine showpage, { } = null proc
0 setgray 0 setlinecap         % Prepare graphics state
1 setlinewidth 0 setlinejoin
10 setmiterlimit [ ] 0 setdash newpath
/languagelevel where           % If level not equal to 1 then
{pop languagelevel             % set strokeadjust and
1 ne                           % overprint to their defaults.
{false setstrokeadjust false setoverprint
} if
} if
} bd
/EndEPSF { %def
count op_count sub {pop} repeat            % Clean up stacks
countdictstack dict_count sub {end} repeat
b4_Inc_state restore
} bd
%%EndResource
%FOPBeginFontDict
%%IncludeResource: font Courier-Oblique
%%IncludeResource: font Courier-BoldOblique
%%IncludeResource: font Courier-Bold
%%IncludeResource: font ZapfDingbats
%%IncludeResource: font Symbol
%%IncludeResource: font Helvetica
%%IncludeResource: font Helvetica-Oblique
%%IncludeResource: font Helvetica-Bold
%%IncludeResource: font Helvetica-BoldOblique
%%IncludeResource: font Times-Roman
%%IncludeResource: font Times-Italic
%%IncludeResource: font Times-Bold
%%IncludeResource: font Times-BoldItalic
%%IncludeResource: font Courier
%FOPEndFontDict
%%BeginResource: encoding WinAnsiEncoding
/WinAnsiEncoding [
/.notdef /.notdef /.notdef /.notdef /.notdef
/.notdef /.notdef /.notdef /.notdef /.notdef
/.notdef /.notdef /.notdef /.notdef /.notdef
/.notdef /.notdef /.notdef /.notdef /.notdef
/.notdef /.notdef /.notdef /.notdef /.notdef
/.notdef /.notdef /.notdef /.notdef /.notdef
/.notdef /.notdef /space /exclam /quotedbl
/numbersign /dollar /percent /ampersand /quotesingle
/parenleft /parenright /asterisk /plus /comma
/hyphen /period /slash /zero /one
/two /three /four /five /six
/seven /eight /nine /colon /semicolon
/less /equal /greater /question /at
/A /B /C /D /E
/F /G /H /I /J
/K /L /M /N /O
/P /Q /R /S /T
/U /V /W /X /Y
/Z /bracketleft /backslash /bracketright /asciicircum
/underscore /quoteleft /a /b /c
/d /e /f /g /h
/i /j /k /l /m
/n /o /p /q /r
/s /t /u /v /w
/x /y /z /braceleft /bar
/braceright /asciitilde /bullet /Euro /bullet
/quotesinglbase /florin /quotedblbase /ellipsis /dagger
/daggerdbl /circumflex /perthousand /Scaron /guilsinglleft
/OE /bullet /Zcaron /bullet /bullet
/quoteleft /quoteright /quotedblleft /quotedblright /bullet
/endash /emdash /asciitilde /trademark /scaron
/guilsinglright /oe /bullet /zcaron /Ydieresis
/space /exclamdown /cent /sterling /currency
/yen /brokenbar /section /dieresis /copyright
/ordfeminine /guillemotleft /logicalnot /sfthyphen /registered
/macron /degree /plusminus /twosuperior /threesuperior
/acute /mu /paragraph /middot /cedilla
/onesuperior /ordmasculine /guillemotright /onequarter /onehalf
/threequarters /questiondown /Agrave /Aacute /Acircumflex
/Atilde /Adieresis /Aring /AE /Ccedilla
/Egrave /Eacute /Ecircumflex /Edieresis /Igrave
/Iacute /Icircumflex /Idieresis /Eth /Ntilde
/Ograve /Oacute /Ocircumflex /Otilde /Odieresis
/multiply /Oslash /Ugrave /Uacute /Ucircumflex
/Udieresis /Yacute /Thorn /germandbls /agrave
/aacute /acircumflex /atilde /adieresis /aring
/ae /ccedilla /egrave /eacute /ecircumflex
/edieresis /igrave /iacute /icircumflex /idieresis
/eth /ntilde /ograve /oacute /ocircumflex
/otilde /odieresis /divide /oslash /ugrave
/uacute /ucircumflex /udieresis /yacute /thorn
/ydieresis
] def
%%EndResource
%FOPBeginFontReencode
/Courier-Oblique findfont
dup length dict begin
  {1 index /FID ne {def} {pop pop} ifelse} forall
  /Encoding WinAnsiEncoding def
  currentdict
end
/Courier-Oblique exch definefont pop
/Courier-BoldOblique findfont
dup length dict begin
  {1 index /FID ne {def} {pop pop} ifelse} forall
  /Encoding WinAnsiEncoding def
  currentdict
end
/Courier-BoldOblique exch definefont pop
/Courier-Bold findfont
dup length dict begin
  {1 index /FID ne {def} {pop pop} ifelse} forall
  /Encoding WinAnsiEncoding def
  currentdict
end
/Courier-Bold exch definefont pop
/Helvetica findfont
dup length dict begin
  {1 index /FID ne {def} {pop pop} ifelse} forall
  /Encoding WinAnsiEncoding def
  currentdict
end
/Helvetica exch definefont pop
/Helvetica-Oblique findfont
dup length dict begin
  {1 index /FID ne {def} {pop pop} ifelse} forall
  /Encoding WinAnsiEncoding def
  currentdict
end
/Helvetica-Oblique exch definefont pop
/Helvetica-Bold findfont
dup length dict begin
  {1 index /FID ne {def} {pop pop} ifelse} forall
  /Encoding WinAnsiEncoding def
  currentdict
end
/Helvetica-Bold exch definefont pop
/Helvetica-BoldOblique findfont
dup length dict begin
  {1 index /FID ne {def} {pop pop} ifelse} forall
  /Encoding WinAnsiEncoding def
  currentdict
end
/Helvetica-BoldOblique exch definefont pop
/Times-Roman findfont
dup length dict begin
  {1 index /FID ne {def} {pop pop} ifelse} forall
  /Encoding WinAnsiEncoding def
  currentdict
end
/Times-Roman exch definefont pop
/Times-Italic findfont
dup length dict begin
  {1 index /FID ne {def} {pop pop} ifelse} forall
  /Encoding WinAnsiEncoding def
  currentdict
end
/Times-Italic exch definefont pop
/Times-Bold findfont
dup length dict begin
  {1 index /FID ne {def} {pop pop} ifelse} forall
  /Encoding WinAnsiEncoding def
  currentdict
end
/Times-Bold exch definefont pop
/Times-BoldItalic findfont
dup length dict begin
  {1 index /FID ne {def} {pop pop} ifelse} forall
  /Encoding WinAnsiEncoding def
  currentdict
end
/Times-BoldItalic exch definefont pop
/Courier findfont
dup length dict begin
  {1 index /FID ne {def} {pop pop} ifelse} forall
  /Encoding WinAnsiEncoding def
  currentdict
end
/Courier exch definefont pop
%FOPEndFontReencode
%%EndProlog
%%Page: 1 1
%%PageBoundingBox: 0 0 1000 600
%%BeginPageSetup
[1 0 0 -1 0 600] CT
%%EndPageSetup
GS
1 GC
N
0 0 1000 600 re
f
GR
GS
1 GC
N
0 0 1000 600 re
f
GR
GS
1 GC
N
130 531 M
905 531 L
905 45 L
130 45 L
cp
f
GR
GS
0.873 GC
1 LJ
0.5 LW
N
130 531 M
130 45 L
S
GR
GS
0.873 GC
1 LJ
0.5 LW
N
285 531 M
285 45 L
S
GR
GS
0.873 GC
1 LJ
0.5 LW
N
440 531 M
440 45 L
S
GR
GS
0.873 GC
1 LJ
0.5 LW
N
595 531 M
595 45 L
S
GR
GS
0.873 GC
1 LJ
0.5 LW
N
750 531 M
750 45 L
S
GR
GS
0.873 GC
1 LJ
0.5 LW
N
905 531 M
905 45 L
S
GR
GS
0.873 GC
1 LJ
0.5 LW
N
905 531 M
130 531 L
S
GR
GS
0.873 GC
1 LJ
0.5 LW
N
905 433.8 M
130 433.8 L
S
GR
GS
0.873 GC
1 LJ
0.5 LW
N
905 336.6 M
130 336.6 L
S
GR
GS
0.873 GC
1 LJ
0.5 LW
N
905 239.4 M
130 239.4 L
S
GR
GS
0.873 GC
1 LJ
0.5 LW
N
905 142.2 M
130 142.2 L
S
GR
GS
0.873 GC
1 LJ
0.5 LW
N
905 45 M
130 45 L
S
GR
GS
0.149 GC
2 setlinecap
1 LJ
0.5 LW
N
130 531 M
905 531 L
S
GR
GS
0.149 GC
2 setlinecap
1 LJ
0.5 LW
N
130 45 M
905 45 L
S
GR
GS
0.149 GC
2 setlinecap
1 LJ
0.5 LW
N
130 531 M
130 523.25 L
S
GR
GS
0.149 GC
2 setlinecap
1 LJ
0.5 LW
N
285 531 M
285 523.25 L
S
GR
GS
0.149 GC
2 setlinecap
1 LJ
0.5 LW
N
440 531 M
440 523.25 L
S
GR
GS
0.149 GC
2 setlinecap
1 LJ
0.5 LW
N
595 531 M
595 523.25 L
S
GR
GS
0.149 GC
2 setlinecap
1 LJ
0.5 LW
N
750 531 M
750 523.25 L
S
GR
GS
0.149 GC
2 setlinecap
1 LJ
0.5 LW
N
905 531 M
905 523.25 L
S
GR
GS
0.149 GC
2 setlinecap
1 LJ
0.5 LW
N
130 45 M
130 52.75 L
S
GR
GS
0.149 GC
2 setlinecap
1 LJ
0.5 LW
N
285 45 M
285 52.75 L
S
GR
GS
0.149 GC
2 setlinecap
1 LJ
0.5 LW
N
440 45 M
440 52.75 L
S
GR
GS
0.149 GC
2 setlinecap
1 LJ
0.5 LW
N
595 45 M
595 52.75 L
S
GR
GS
0.149 GC
2 setlinecap
1 LJ
0.5 LW
N
750 45 M
750 52.75 L
S
GR
GS
0.149 GC
2 setlinecap
1 LJ
0.5 LW
N
905 45 M
905 52.75 L
S
GR
GS
[1 0 0 1 130 537.79999] CT
0.149 GC
/Helvetica 24 F
GS
[1 0 0 1 0 0] CT
-7 23 moveto 
1 -1 scale
(0) t 
GR
GR
GS
[1 0 0 1 285 537.79999] CT
0.149 GC
/Helvetica 24 F
GS
[1 0 0 1 0 0] CT
-17 23 moveto 
1 -1 scale
(0.2) t 
GR
GR
GS
[1 0 0 1 440 537.79999] CT
0.149 GC
/Helvetica 24 F
GS
[1 0 0 1 0 0] CT
-17 23 moveto 
1 -1 scale
(0.4) t 
GR
GR
GS
[1 0 0 1 595 537.79999] CT
0.149 GC
/Helvetica 24 F
GS
[1 0 0 1 0 0] CT
-17 23 moveto 
1 -1 scale
(0.6) t 
GR
GR
GS
[1 0 0 1 750 537.79999] CT
0.149 GC
/Helvetica 24 F
GS
[1 0 0 1 0 0] CT
-17 23 moveto 
1 -1 scale
(0.8) t 
GR
GR
GS
[1 0 0 1 905 537.79999] CT
0.149 GC
/Helvetica 24 F
GS
[1 0 0 1 0 0] CT
-7 23 moveto 
1 -1 scale
(1) t 
GR
GR
GS
[1 0 0 1 517.50037 567.79999] CT
0.149 GC
/Helvetica 26.4 F
GS
[1 0 0 1 0 0] CT
-103.5 26 moveto 
1 -1 scale
(False Match Rate) t 
GR
GR
GS
0.149 GC
2 setlinecap
1 LJ
0.5 LW
N
130 531 M
130 45 L
S
GR
GS
0.149 GC
2 setlinecap
1 LJ
0.5 LW
N
905 531 M
905 45 L
S
GR
GS
0.149 GC
2 setlinecap
1 LJ
0.5 LW
N
130 531 M
137.75 531 L
S
GR
GS
0.149 GC
2 setlinecap
1 LJ
0.5 LW
N
130 433.8 M
137.75 433.8 L
S
GR
GS
0.149 GC
2 setlinecap
1 LJ
0.5 LW
N
130 336.6 M
137.75 336.6 L
S
GR
GS
0.149 GC
2 setlinecap
1 LJ
0.5 LW
N
130 239.4 M
137.75 239.4 L
S
GR
GS
0.149 GC
2 setlinecap
1 LJ
0.5 LW
N
130 142.2 M
137.75 142.2 L
S
GR
GS
0.149 GC
2 setlinecap
1 LJ
0.5 LW
N
130 45 M
137.75 45 L
S
GR
GS
0.149 GC
2 setlinecap
1 LJ
0.5 LW
N
905 531 M
897.25 531 L
S
GR
GS
0.149 GC
2 setlinecap
1 LJ
0.5 LW
N
905 433.8 M
897.25 433.8 L
S
GR
GS
0.149 GC
2 setlinecap
1 LJ
0.5 LW
N
905 336.6 M
897.25 336.6 L
S
GR
GS
0.149 GC
2 setlinecap
1 LJ
0.5 LW
N
905 239.4 M
897.25 239.4 L
S
GR
GS
0.149 GC
2 setlinecap
1 LJ
0.5 LW
N
905 142.2 M
897.25 142.2 L
S
GR
GS
0.149 GC
2 setlinecap
1 LJ
0.5 LW
N
905 45 M
897.25 45 L
S
GR
GS
[1 0 0 1 123.2 531] CT
0.149 GC
/Helvetica 24 F
GS
[1 0 0 1 0 0] CT
-14 8.5 moveto 
1 -1 scale
(0) t 
GR
GR
GS
[1 0 0 1 123.2 433.79999] CT
0.149 GC
/Helvetica 24 F
GS
[1 0 0 1 0 0] CT
-34 8.5 moveto 
1 -1 scale
(0.2) t 
GR
GR
GS
[1 0 0 1 123.2 336.60001] CT
0.149 GC
/Helvetica 24 F
GS
[1 0 0 1 0 0] CT
-34 8.5 moveto 
1 -1 scale
(0.4) t 
GR
GR
GS
[1 0 0 1 123.2 239.39999] CT
0.149 GC
/Helvetica 24 F
GS
[1 0 0 1 0 0] CT
-34 8.5 moveto 
1 -1 scale
(0.6) t 
GR
GR
GS
[1 0 0 1 123.2 142.2] CT
0.149 GC
/Helvetica 24 F
GS
[1 0 0 1 0 0] CT
-34 8.5 moveto 
1 -1 scale
(0.8) t 
GR
GR
GS
[1 0 0 1 123.2 45] CT
0.149 GC
/Helvetica 24 F
GS
[1 0 0 1 0 0] CT
-14 8.5 moveto 
1 -1 scale
(1) t 
GR
GR
GS
[0 -1 1 0 86.2 287.99976] CT
0.149 GC
/Helvetica 26.4 F
GS
[1 0 0 1 0 0] CT
-153 -6 moveto 
1 -1 scale
(1 - False Non-Match Rate) t 
GR
GR
GS
[1 0 0 1 517.50049 38.40002] CT
/Helvetica-Bold 26.4 F
GS
[1 0 0 1 0 0] CT
-287 -6 moveto 
1 -1 scale
(Data acquired less than 160 hours after death) t 
GR
GR
GS
0 0 1 RC
1 LJ
2 LW
N
130.002 530.356 M
130.002 530.356 L
130.002 530.356 L
130.002 530.356 L
130.002 530.356 L
130.002 530.356 L
130.002 530.356 L
130.002 530.356 L
130.002 530.356 L
130.002 530.356 L
130.002 530.356 L
130.002 530.356 L
130.002 530.356 L
130.002 530.356 L
130.002 530.356 L
130.002 530.356 L
130.002 530.356 L
130.002 530.356 L
130.002 530.356 L
130.002 530.356 L
130.002 530.356 L
130.002 530.356 L
130.002 530.356 L
130.002 530.356 L
130.002 530.356 L
130.002 530.356 L
130.002 530.356 L
130.002 530.356 L
130.002 530.356 L
130.002 530.356 L
130.002 530.356 L
130.002 530.356 L
130.002 530.356 L
130.002 530.356 L
130.002 530.356 L
130.002 530.356 L
130.002 530.356 L
130.002 530.356 L
130.002 530.356 L
130.002 530.356 L
130.002 530.356 L
130.002 530.356 L
130.002 530.356 L
130.002 530.356 L
130.002 530.356 L
130.002 530.356 L
130.002 530.356 L
130.002 530.356 L
130.002 530.356 L
130.002 530.356 L
130.002 530.356 L
130.002 530.356 L
130.002 530.356 L
130.002 530.356 L
130.002 530.356 L
130.002 530.356 L
130.002 530.356 L
130.002 530.356 L
130.002 530.356 L
130.002 530.356 L
130.002 530.356 L
130.002 530.356 L
130.002 530.356 L
130.002 530.356 L
130.002 530.356 L
130.002 530.356 L
130.002 530.356 L
130.002 530.356 L
130.002 530.356 L
130.002 530.356 L
130.002 530.356 L
130.002 530.356 L
130.004 530.356 L
130.004 530.356 L
130.004 530.356 L
130.004 530.356 L
130.004 530.356 L
130.004 530.356 L
130.004 530.356 L
130.004 530.356 L
130.004 530.356 L
130.004 530.356 L
130.004 530.356 L
130.004 530.356 L
130.006 530.356 L
130.006 530.356 L
130.006 530.356 L
130.006 530.356 L
130.006 530.356 L
130.006 530.356 L
130.006 530.356 L
130.006 530.356 L
130.006 530.356 L
130.006 530.356 L
130.006 530.356 L
130.006 530.356 L
130.006 530.356 L
130.006 530.356 L
130.006 530.356 L
130.006 530.356 L
130.008 530.356 L
130.008 530.356 L
130.008 530.356 L
130.008 530.356 L
130.008 530.356 L
130.008 530.356 L
130.008 530.356 L
130.008 530.356 L
130.01 530.356 L
130.01 530.356 L
130.01 530.356 L
130.01 530.356 L
130.012 530.356 L
130.012 530.356 L
130.012 530.264 L
130.012 530.264 L
130.012 530.172 L
130.012 530.172 L
130.012 530.172 L
130.012 530.08 L
130.015 530.08 L
130.015 530.08 L
130.015 530.08 L
130.015 529.987 L
130.015 529.895 L
130.015 529.895 L
130.015 529.803 L
130.015 529.435 L
130.015 529.343 L
130.015 529.159 L
130.015 529.159 L
130.015 529.067 L
130.015 529.067 L
130.015 528.791 L
130.015 528.699 L
130.015 528.423 L
130.015 528.331 L
130.015 528.331 L
130.015 528.147 L
130.015 527.778 L
130.015 527.41 L
130.015 527.318 L
130.015 526.95 L
130.023 526.674 L
130.023 526.398 L
130.023 526.306 L
130.023 526.03 L
130.023 525.845 L
130.023 525.569 L
130.023 525.385 L
130.023 525.109 L
130.023 524.465 L
130.025 524.005 L
130.025 523.636 L
130.025 523.176 L
130.029 522.44 L
130.029 521.888 L
130.029 521.427 L
130.029 521.059 L
130.029 520.691 L
130.029 520.507 L
130.029 520.047 L
130.029 519.77 L
130.029 519.034 L
130.029 518.85 L
130.029 517.93 L
130.029 517.561 L
130.046 517.285 L
130.046 516.917 L
130.046 516.273 L
130.046 516.089 L
130.046 515.905 L
130.046 515.444 L
130.046 514.892 L
130.046 514.616 L
130.046 514.064 L
130.046 513.235 L
130.046 512.775 L
130.046 512.499 L
130.054 511.947 L
130.054 511.026 L
130.054 510.934 L
130.054 510.566 L
130.054 510.106 L
130.054 509.83 L
130.054 508.725 L
130.054 508.541 L
130.054 508.081 L
130.054 507.068 L
130.054 506.7 L
130.054 505.872 L
130.058 504.767 L
130.058 504.767 L
130.062 504.491 L
130.062 503.202 L
130.064 502.65 L
130.064 501.73 L
130.064 500.993 L
130.064 500.257 L
130.064 499.52 L
130.064 499.06 L
130.064 498.14 L
130.064 497.68 L
130.068 497.403 L
130.068 496.943 L
130.068 495.931 L
130.074 495.47 L
130.074 494.826 L
130.074 493.998 L
130.079 493.445 L
130.079 493.077 L
130.079 492.157 L
130.079 491.236 L
130.083 490.776 L
130.083 490.224 L
130.105 489.672 L
130.105 488.751 L
130.107 487.923 L
130.108 487.37 L
130.108 486.91 L
130.108 486.174 L
130.108 485.53 L
130.108 484.517 L
130.114 484.149 L
130.114 483.781 L
130.114 482.768 L
130.114 482.216 L
130.13 481.94 L
130.134 481.019 L
130.134 480.743 L
130.137 480.283 L
130.139 479.915 L
130.141 479.086 L
130.141 478.534 L
130.149 477.706 L
130.149 477.061 L
130.149 476.141 L
130.153 475.497 L
130.153 474.668 L
130.172 474.3 L
130.172 473.748 L
130.178 473.195 L
130.178 472.183 L
130.178 471.907 L
130.18 470.802 L
130.18 470.066 L
130.182 469.145 L
130.182 468.777 L
130.182 468.317 L
130.182 467.857 L
130.227 467.028 L
130.227 466.292 L
130.227 465.832 L
130.227 465.372 L
130.227 464.543 L
130.23 464.267 L
130.23 463.807 L
130.23 463.623 L
130.232 462.886 L
130.232 462.242 L
130.238 461.598 L
130.24 461.322 L
130.281 460.677 L
130.281 459.941 L
130.294 459.389 L
130.296 459.113 L
130.296 458.192 L
130.3 457.824 L
130.3 457.272 L
130.302 456.627 L
130.312 455.983 L
130.318 455.615 L
130.318 455.247 L
130.32 454.602 L
130.347 453.958 L
130.347 453.59 L
130.347 453.314 L
130.347 452.761 L
130.356 452.209 L
130.356 451.933 L
130.356 451.473 L
130.356 450.736 L
130.356 450 L
130.358 449.448 L
130.362 448.987 L
130.364 448.803 L
130.418 448.159 L
130.418 447.515 L
130.434 447.055 L
130.438 446.502 L
130.438 446.042 L
130.438 445.582 L
130.447 444.845 L
130.447 444.569 L
130.447 444.017 L
130.461 443.557 L
130.461 443.005 L
130.484 442.36 L
130.542 441.624 L
130.542 441.256 L
130.554 440.243 L
130.554 439.783 L
130.554 439.231 L
130.556 438.77 L
130.573 438.126 L
130.573 437.022 L
130.604 436.101 L
130.604 435.641 L
130.62 434.813 L
130.62 434.168 L
130.672 433.34 L
130.672 432.88 L
130.672 431.867 L
130.676 431.315 L
130.678 430.118 L
130.717 429.014 L
130.717 427.817 L
130.722 426.528 L
130.722 425.792 L
130.726 424.688 L
130.734 423.951 L
130.748 422.939 L
130.804 422.018 L
130.81 421.466 L
130.815 420.545 L
130.837 419.625 L
130.837 418.705 L
130.839 417.784 L
130.839 416.772 L
130.841 415.483 L
130.841 414.194 L
130.841 412.906 L
130.842 412.169 L
130.842 411.157 L
131.013 409.776 L
131.013 408.764 L
131.017 407.659 L
131.019 406.647 L
131.019 405.542 L
131.019 404.161 L
131.019 402.413 L
131.021 401.216 L
131.025 399.283 L
131.067 398.362 L
131.088 397.074 L
131.098 395.601 L
131.172 393.76 L
131.191 392.748 L
131.201 390.723 L
131.212 389.434 L
131.222 387.777 L
131.224 386.397 L
131.296 384.832 L
131.311 382.715 L
131.315 380.69 L
131.334 378.849 L
131.342 376.916 L
131.352 375.167 L
131.42 373.326 L
131.435 371.577 L
131.435 369.46 L
131.447 367.895 L
131.522 366.055 L
131.542 363.753 L
131.561 362.281 L
131.582 360.992 L
131.6 359.335 L
131.646 357.034 L
131.666 355.009 L
131.681 353.444 L
131.788 351.788 L
131.871 350.223 L
131.913 348.382 L
131.96 346.817 L
131.993 344.608 L
132.049 342.859 L
132.084 341.11 L
132.148 338.533 L
132.216 336.416 L
132.301 334.943 L
132.411 331.998 L
132.545 330.709 L
132.626 328.96 L
132.74 327.303 L
132.872 324.542 L
132.994 322.517 L
133.153 321.044 L
133.302 318.651 L
133.453 316.166 L
133.707 314.417 L
133.939 312.944 L
134.121 311.195 L
134.358 308.894 L
134.749 307.145 L
135.045 304.752 L
135.33 302.911 L
135.676 301.07 L
136 299.69 L
136.498 298.217 L
136.962 295.272 L
137.474 292.694 L
137.902 290.669 L
138.477 288.736 L
139.102 286.619 L
139.714 284.502 L
140.47 281.557 L
141.192 279.44 L
142.127 277.967 L
143.061 275.85 L
144.07 274.101 L
145.067 272.352 L
146.183 269.499 L
147.387 267.566 L
148.763 265.909 L
150.188 264.712 L
151.76 263.608 L
153.465 261.307 L
155.268 259.558 L
157.303 257.257 L
159.252 254.219 L
161.399 252.286 L
163.63 250.261 L
166.084 248.697 L
168.648 247.04 L
171.364 245.383 L
174.317 242.898 L
177.458 241.149 L
180.869 238.756 L
184.529 236.086 L
188.47 234.43 L
192.44 232.865 L
196.74 231.208 L
201.155 229.183 L
205.848 227.802 L
210.767 225.961 L
215.94 224.12 L
221.388 222.464 L
227.078 220.347 L
233.089 218.137 L
239.105 216.297 L
245.738 213.351 L
252.628 210.866 L
259.529 208.749 L
267.078 206.264 L
275.067 204.055 L
282.804 201.477 L
290.862 198.992 L
299.291 196.415 L
308.008 193.745 L
316.866 191.72 L
326.586 189.603 L
335.733 187.947 L
345.479 185.922 L
355.359 183.436 L
365.727 181.964 L
375.799 179.478 L
386.259 177.361 L
396.957 174.876 L
408.19 172.391 L
418.788 170.274 L
429.765 167.513 L
441.017 165.764 L
452.337 162.91 L
464.15 160.241 L
475.267 157.94 L
486.79 155.823 L
498.213 153.061 L
509.461 151.589 L
520.512 149.932 L
531.529 146.894 L
542.822 144.133 L
553.669 141.188 L
564.799 139.163 L
575.236 137.874 L
586.122 135.757 L
596.358 133.272 L
606.864 131.339 L
616.338 129.222 L
626.539 127.933 L
635.928 126 L
645.086 124.895 L
653.813 123.423 L
662.64 122.134 L
670.881 120.845 L
679.348 118.82 L
687.219 118.084 L
694.553 116.611 L
701.808 115.783 L
708.607 114.402 L
715.409 113.574 L
721.686 112.93 L
727.771 111.733 L
733.476 110.813 L
738.841 109.064 L
744.149 107.959 L
749.163 106.947 L
753.792 106.394 L
757.871 105.842 L
762.174 105.106 L
765.552 104.645 L
859.637 55.217 L
861.804 54.941 L
864.655 54.573 L
867.818 54.02 L
870.556 53.1 L
873.147 52.364 L
875.667 52.272 L
877.912 51.995 L
879.996 51.627 L
881.816 51.443 L
883.726 51.259 L
885.287 50.799 L
886.832 50.247 L
888.275 49.97 L
889.588 49.602 L
890.804 49.234 L
891.925 49.05 L
893.078 48.774 L
893.992 48.406 L
894.807 48.13 L
895.568 47.853 L
896.304 47.485 L
896.926 47.209 L
897.581 46.933 L
898.187 46.565 L
898.801 46.473 L
899.271 46.473 L
899.641 46.381 L
900.048 46.381 L
900.393 46.197 L
900.737 46.197 L
901.055 46.105 L
901.353 46.013 L
901.636 45.92 L
901.886 45.92 L
902.124 45.828 L
902.337 45.736 L
902.511 45.736 L
902.744 45.736 L
902.905 45.644 L
903.03 45.644 L
903.178 45.552 L
903.311 45.552 L
903.425 45.552 L
903.536 45.552 L
903.644 45.46 L
903.751 45.368 L
903.832 45.184 L
903.921 45.184 L
903.999 45.184 L
904.084 45.184 L
904.138 45.184 L
904.187 45.184 L
904.243 45.184 L
904.28 45.184 L
904.328 45.184 L
904.394 45.184 L
904.429 45.092 L
904.498 45 L
904.527 45 L
904.578 45 L
904.607 45 L
904.63 45 L
904.653 45 L
904.68 45 L
904.7 45 L
904.721 45 L
904.75 45 L
904.764 45 L
904.779 45 L
904.799 45 L
904.808 45 L
904.818 45 L
904.828 45 L
904.835 45 L
904.841 45 L
904.857 45 L
904.866 45 L
904.872 45 L
904.878 45 L
904.884 45 L
904.89 45 L
904.893 45 L
904.899 45 L
904.913 45 L
904.915 45 L
904.923 45 L
904.926 45 L
904.928 45 L
904.932 45 L
904.936 45 L
904.942 45 L
904.942 45 L
904.946 45 L
904.948 45 L
904.95 45 L
904.954 45 L
904.955 45 L
904.955 45 L
904.955 45 L
904.957 45 L
904.957 45 L
904.957 45 L
904.959 45 L
904.959 45 L
904.963 45 L
904.965 45 L
904.969 45 L
904.975 45 L
904.975 45 L
904.975 45 L
904.975 45 L
904.975 45 L
904.975 45 L
904.975 45 L
904.977 45 L
904.977 45 L
904.977 45 L
904.977 45 L
904.977 45 L
904.977 45 L
904.979 45 L
904.979 45 L
904.979 45 L
904.979 45 L
904.981 45 L
904.981 45 L
904.981 45 L
904.981 45 L
904.981 45 L
904.981 45 L
904.983 45 L
904.983 45 L
904.983 45 L
904.983 45 L
904.983 45 L
904.983 45 L
904.983 45 L
904.983 45 L
904.983 45 L
904.983 45 L
904.983 45 L
904.983 45 L
904.983 45 L
904.983 45 L
904.983 45 L
904.983 45 L
904.983 45 L
904.983 45 L
904.983 45 L
904.983 45 L
904.983 45 L
904.983 45 L
904.983 45 L
904.983 45 L
904.986 45 L
904.986 45 L
904.986 45 L
904.986 45 L
904.986 45 L
904.986 45 L
904.986 45 L
904.986 45 L
904.986 45 L
904.986 45 L
904.986 45 L
904.986 45 L
904.988 45 L
904.988 45 L
904.988 45 L
904.988 45 L
904.988 45 L
904.988 45 L
904.988 45 L
904.988 45 L
904.988 45 L
904.988 45 L
904.988 45 L
904.988 45 L
904.99 45 L
904.99 45 L
904.99 45 L
904.99 45 L
904.99 45 L
904.99 45 L
904.99 45 L
904.99 45 L
904.99 45 L
904.99 45 L
904.99 45 L
904.99 45 L
904.99 45 L
904.99 45 L
904.99 45 L
904.99 45 L
904.99 45 L
904.99 45 L
904.99 45 L
904.99 45 L
904.99 45 L
904.99 45 L
904.99 45 L
904.99 45 L
904.99 45 L
904.99 45 L
904.99 45 L
904.99 45 L
904.99 45 L
904.99 45 L
904.992 45 L
904.992 45 L
904.992 45 L
904.992 45 L
904.992 45 L
904.992 45 L
904.992 45 L
904.992 45 L
904.992 45 L
904.992 45 L
904.992 45 L
904.992 45 L
904.992 45 L
904.992 45 L
904.992 45 L
904.992 45 L
904.992 45 L
904.992 45 L
904.992 45 L
904.992 45 L
904.992 45 L
904.992 45 L
904.992 45 L
904.992 45 L
904.992 45 L
904.992 45 L
904.992 45 L
904.992 45 L
904.992 45 L
904.992 45 L
904.992 45 L
904.992 45 L
904.992 45 L
904.992 45 L
904.992 45 L
904.992 45 L
904.992 45 L
904.992 45 L
904.992 45 L
904.992 45 L
904.992 45 L
904.992 45 L
904.992 45 L
904.992 45 L
904.992 45 L
904.992 45 L
904.992 45 L
904.992 45 L
904.992 45 L
904.992 45 L
904.992 45 L
904.992 45 L
904.992 45 L
904.992 45 L
904.992 45 L
904.992 45 L
904.992 45 L
904.992 45 L
904.992 45 L
904.992 45 L
904.992 45 L
904.992 45 L
904.992 45 L
904.992 45 L
904.992 45 L
904.992 45 L
904.992 45 L
904.992 45 L
904.992 45 L
904.992 45 L
904.992 45 L
904.992 45 L
904.992 45 L
904.992 45 L
904.992 45 L
904.992 45 L
904.992 45 L
904.992 45 L
904.992 45 L
904.992 45 L
904.992 45 L
904.992 45 L
904.992 45 L
904.992 45 L
904.992 45 L
904.992 45 L
904.992 45 L
904.992 45 L
904.992 45 L
904.992 45 L
904.992 45 L
904.992 45 L
904.992 45 L
904.992 45 L
904.992 45 L
904.992 45 L
904.992 45 L
904.992 45 L
904.992 45 L
904.992 45 L
904.992 45 L
904.992 45 L
904.992 45 L
904.992 45 L
904.992 45 L
904.992 45 L
904.992 45 L
904.992 45 L
904.992 45 L
904.992 45 L
904.992 45 L
904.992 45 L
904.992 45 L
904.992 45 L
904.992 45 L
904.992 45 L
904.992 45 L
904.992 45 L
904.992 45 L
904.992 45 L
904.992 45 L
904.992 45 L
904.992 45 L
904.992 45 L
904.992 45 L
904.992 45 L
904.992 45 L
904.992 45 L
904.992 45 L
904.992 45 L
904.992 45 L
904.992 45 L
904.992 45 L
904.992 45 L
904.992 45 L
904.992 45 L
904.992 45 L
904.992 45 L
904.992 45 L
904.992 45 L
904.992 45 L
904.992 45 L
904.992 45 L
904.992 45 L
904.992 45 L
904.992 45 L
904.992 45 L
904.992 45 L
904.992 45 L
904.992 45 L
904.992 45 L
904.992 45 L
904.992 45 L
904.992 45 L
904.992 45 L
904.992 45 L
904.992 45 L
904.992 45 L
904.992 45 L
904.992 45 L
904.992 45 L
904.992 45 L
904.992 45 L
904.992 45 L
904.992 45 L
904.992 45 L
904.992 45 L
904.992 45 L
904.992 45 L
904.992 45 L
904.992 45 L
904.992 45 L
904.992 45 L
904.992 45 L
904.992 45 L
904.992 45 L
904.992 45 L
904.992 45 L
904.992 45 L
904.992 45 L
904.992 45 L
904.992 45 L
904.992 45 L
904.992 45 L
904.992 45 L
904.992 45 L
904.992 45 L
904.992 45 L
904.992 45 L
904.992 45 L
904.992 45 L
904.992 45 L
904.992 45 L
904.992 45 L
904.992 45 L
904.992 45 L
904.992 45 L
904.992 45 L
904.992 45 L
904.992 45 L
904.992 45 L
904.992 45 L
904.992 45 L
904.992 45 L
904.992 45 L
904.992 45 L
904.992 45 L
904.992 45 L
904.992 45 L
904.992 45 L
904.992 45 L
904.992 45 L
904.992 45 L
904.992 45 L
904.992 45 L
904.992 45 L
904.992 45 L
904.992 45 L
904.992 45 L
904.992 45 L
904.992 45 L
904.992 45 L
904.992 45 L
904.992 45 L
904.992 45 L
904.992 45 L
904.992 45 L
904.992 45 L
904.992 45 L
904.992 45 L
904.992 45 L
904.992 45 L
904.992 45 L
904.992 45 L
904.992 45 L
904.992 45 L
904.992 45 L
904.992 45 L
904.992 45 L
904.992 45 L
904.992 45 L
904.992 45 L
904.992 45 L
904.992 45 L
904.992 45 L
904.992 45 L
904.992 45 L
904.992 45 L
904.992 45 L
904.992 45 L
904.992 45 L
904.992 45 L
904.992 45 L
904.992 45 L
904.992 45 L
904.992 45 L
904.992 45 L
904.992 45 L
904.992 45 L
904.992 45 L
904.992 45 L
904.992 45 L
904.992 45 L
904.992 45 L
904.992 45 L
904.992 45 L
904.992 45 L
904.992 45 L
904.992 45 L
904.992 45 L
904.992 45 L
904.992 45 L
904.992 45 L
904.992 45 L
904.992 45 L
904.992 45 L
904.992 45 L
904.992 45 L
904.992 45 L
904.992 45 L
904.992 45 L
904.992 45 L
904.992 45 L
904.992 45 L
904.992 45 L
904.992 45 L
904.992 45 L
904.992 45 L
904.992 45 L
904.992 45 L
904.992 45 L
905 45 L
S
GR
GS
0 1 0 RC
1 LJ
2 LW
N
130 530.356 M
130 530.356 L
130 530.356 L
130 530.356 L
130 530.356 L
130 530.356 L
130 530.356 L
130 530.356 L
130 530.356 L
130 530.356 L
130 530.356 L
130 530.356 L
130 530.356 L
130 530.356 L
130 530.356 L
130 530.356 L
130 530.356 L
130 530.356 L
130 530.356 L
130 530.356 L
130 530.356 L
130 530.356 L
130 530.356 L
130 530.356 L
130 530.356 L
130 530.356 L
130 530.356 L
130 530.356 L
130 530.356 L
130 530.356 L
130 530.356 L
130 530.356 L
130 530.356 L
130 530.356 L
130 530.356 L
130 530.356 L
130 530.356 L
130 530.356 L
130 530.356 L
130 530.356 L
130 530.356 L
130 530.356 L
130 530.356 L
130 530.356 L
130 530.356 L
130 530.356 L
130 530.356 L
130 530.356 L
130 530.356 L
130 530.356 L
130 530.356 L
130 530.356 L
130 530.356 L
130 530.356 L
130 530.356 L
130 530.356 L
130 530.356 L
130 530.356 L
130 530.356 L
130 530.356 L
130 530.356 L
130 530.356 L
130 530.356 L
130 530.356 L
130 530.356 L
130 530.356 L
130 530.356 L
130 530.356 L
130 530.356 L
130 530.356 L
130 530.356 L
130 530.356 L
130 530.356 L
130 530.356 L
130 530.356 L
130 530.356 L
130 530.356 L
130 530.356 L
130 530.356 L
130 530.356 L
130 530.356 L
130 530.356 L
130 530.356 L
130 530.356 L
130 530.356 L
130 530.356 L
130 530.356 L
130 530.356 L
130 530.356 L
130 530.356 L
130 530.356 L
130 530.356 L
130 530.356 L
130 530.356 L
130 530.356 L
130 530.356 L
130 530.356 L
130 530.356 L
130 530.356 L
130 530.356 L
130 530.356 L
130 530.356 L
130 530.356 L
130 530.356 L
130 530.356 L
130 530.356 L
130 530.356 L
130 530.356 L
130 530.356 L
130 530.356 L
130 530.356 L
130 530.356 L
130 530.356 L
130 530.356 L
130 530.356 L
130 530.356 L
130 530.356 L
130 530.356 L
130 530.356 L
130 530.356 L
130 530.356 L
130 530.356 L
130 530.356 L
130 530.356 L
130 530.356 L
130 530.356 L
130 530.356 L
130 530.356 L
130 530.356 L
130 530.356 L
130 530.356 L
130 530.356 L
130 530.356 L
130 530.356 L
130 530.356 L
130 530.356 L
130 530.356 L
130 530.356 L
130 530.356 L
130 530.356 L
130 530.356 L
130 530.356 L
130 530.356 L
130 530.356 L
130 530.356 L
130 530.356 L
130 530.356 L
130 530.356 L
130 530.356 L
130 530.356 L
130 530.356 L
130 530.356 L
130 530.356 L
130 530.356 L
130 530.356 L
130 530.356 L
130 530.356 L
130 530.356 L
130 530.356 L
130 530.356 L
130 530.356 L
130 530.356 L
130 530.356 L
130 530.356 L
130 530.356 L
130 530.356 L
130 530.356 L
130 530.356 L
130 530.356 L
130 530.264 L
130 530.264 L
130 530.264 L
130 530.264 L
130 530.264 L
130 530.264 L
130 530.264 L
130 530.172 L
130 530.172 L
130 530.172 L
130 530.172 L
130 530.172 L
130 530.172 L
130 530.172 L
130 530.172 L
130 530.172 L
130 530.172 L
130 530.172 L
130 530.172 L
130 530.172 L
130 530.172 L
130 530.08 L
130 529.987 L
130 529.987 L
130 529.895 L
130 529.711 L
130 529.711 L
130 529.711 L
130 529.711 L
130 529.711 L
130 529.711 L
130 529.711 L
130 529.527 L
130 529.527 L
130 529.251 L
130 529.159 L
130 528.883 L
130 528.791 L
130 528.607 L
130 528.607 L
130 528.331 L
130 528.331 L
130 528.331 L
130 528.239 L
130 528.147 L
130 527.963 L
130 527.778 L
130 527.686 L
130 527.41 L
130 527.41 L
130 527.41 L
130 527.226 L
130 527.134 L
130 527.042 L
130 526.858 L
130 526.674 L
130 526.582 L
130 526.582 L
130 526.398 L
130 526.03 L
130 526.03 L
130 525.845 L
130 525.201 L
130 524.741 L
130 524.649 L
130 524.373 L
130 524.281 L
130 523.912 L
130 523.544 L
130 523.084 L
130 522.9 L
130 522.532 L
130 522.072 L
130 521.98 L
130 521.427 L
130 521.151 L
130 520.783 L
130 520.599 L
130 520.599 L
130 520.323 L
130 520.139 L
130 519.77 L
130 519.402 L
130 519.31 L
130 519.126 L
130 518.666 L
130 518.206 L
130 517.653 L
130 517.101 L
130 516.825 L
130 516.365 L
130 515.997 L
130 515.444 L
130 515.076 L
130 514.708 L
130 514.248 L
130 514.156 L
130 513.88 L
130 513.603 L
130 512.959 L
130 512.407 L
130 512.223 L
130 511.67 L
130 510.934 L
130 510.75 L
130 510.014 L
130 509.461 L
130 509.185 L
130 509.001 L
130 508.357 L
130 507.805 L
130 507.436 L
130 506.792 L
130 506.332 L
130 505.595 L
130 505.319 L
130 504.951 L
130 504.767 L
130 504.399 L
130 503.847 L
130 503.478 L
130 503.018 L
130 502.19 L
130 501.822 L
130 501.453 L
130 500.901 L
130 500.349 L
130 499.705 L
130 498.784 L
130 498.232 L
130 497.956 L
130 497.587 L
130 497.311 L
130 496.759 L
130 496.575 L
130 496.115 L
130 495.47 L
130 494.734 L
130 493.722 L
130 492.893 L
130 492.617 L
130 491.973 L
130 491.236 L
130 490.408 L
130 490.132 L
130 489.856 L
130 489.487 L
130 488.843 L
130 488.383 L
130 488.199 L
130 487.831 L
130 487.462 L
130 486.818 L
130 486.358 L
130 485.622 L
130 484.793 L
130 484.241 L
130 483.597 L
130 483.413 L
130 482.86 L
130 481.848 L
130 481.111 L
130 480.651 L
130 480.007 L
130 479.362 L
130 478.442 L
130 477.798 L
130 477.337 L
130 476.693 L
130 476.417 L
130 475.128 L
130 474.024 L
130 473.84 L
130 473.288 L
130 472.735 L
130 472.183 L
130 471.539 L
130 470.986 L
130 470.434 L
130 470.158 L
130 469.422 L
130 468.593 L
130 468.225 L
130 467.581 L
130 466.844 L
130 466.2 L
130 465.648 L
130 465.003 L
130 464.359 L
130 464.083 L
130 463.347 L
130 462.794 L
130 461.874 L
130 461.322 L
130 460.309 L
130 459.757 L
130 459.02 L
130 458.468 L
130 457.824 L
130 457.272 L
130 456.535 L
130 455.707 L
130 454.878 L
130 454.326 L
130 453.406 L
130 452.853 L
130 452.485 L
130 451.933 L
130 451.381 L
130 450.736 L
130 450.184 L
130 449.08 L
130 448.067 L
130 447.147 L
130 446.502 L
130 445.766 L
130 445.398 L
130 444.385 L
130 444.109 L
130 443.189 L
130 442.636 L
130 441.716 L
130 441.164 L
130 440.427 L
130 439.507 L
130 439.139 L
130 438.678 L
130 437.666 L
130 436.745 L
130 436.377 L
130 436.193 L
130 435.641 L
130 434.905 L
130 434.444 L
130 433.708 L
130 432.972 L
130 432.327 L
130 431.959 L
130 431.223 L
130 431.223 L
130 430.486 L
130 429.566 L
130 429.198 L
130 428.185 L
130 427.725 L
130 427.541 L
130 427.173 L
130 426.436 L
130 425.976 L
130 425.424 L
130 424.78 L
130 424.227 L
130 423.767 L
130 423.123 L
130 422.478 L
130 422.018 L
130 421.466 L
130 420.73 L
130 419.993 L
130 419.441 L
130 418.612 L
130 417.968 L
130 417.6 L
130 417.232 L
130 416.68 L
130 415.943 L
130 414.655 L
130 413.918 L
130 413.458 L
130 412.63 L
130 411.985 L
130 411.709 L
130 410.881 L
130 410.789 L
130 410.052 L
130 409.408 L
130 408.58 L
130 408.027 L
130 407.383 L
130 406.739 L
130 406.37 L
130 404.898 L
130 404.161 L
130 403.609 L
130 402.873 L
130 402.32 L
130 400.848 L
130 400.203 L
130 398.915 L
130 398.178 L
130 396.982 L
130 396.245 L
130 395.877 L
130 394.681 L
130 393.944 L
130 393.392 L
130 392.564 L
130 391.827 L
130 391.275 L
130 390.539 L
130 389.986 L
130 389.25 L
130 388.145 L
130 387.133 L
130 386.305 L
130 385.016 L
130.002 384.372 L
130.002 382.991 L
130.002 381.518 L
130.002 380.506 L
130.002 379.493 L
130.002 378.757 L
130.002 378.205 L
130.002 377.192 L
130.002 376.272 L
130.002 375.351 L
130.002 373.97 L
130.006 373.234 L
130.008 372.13 L
130.008 371.485 L
130.008 370.197 L
130.008 368.908 L
130.008 367.803 L
130.008 367.159 L
130.008 366.331 L
130.01 365.41 L
130.012 364.03 L
130.012 362.557 L
130.012 361.268 L
130.012 360.164 L
130.012 359.151 L
130.014 357.678 L
130.014 356.666 L
130.014 355.653 L
130.014 354.549 L
130.014 353.72 L
130.017 351.788 L
130.017 349.855 L
130.021 347.922 L
130.023 346.173 L
130.023 344.792 L
130.027 343.319 L
130.027 341.939 L
130.027 340.742 L
130.031 339.545 L
130.031 338.165 L
130.037 336.14 L
130.041 334.943 L
130.046 333.194 L
130.048 331.906 L
130.048 330.525 L
130.048 329.513 L
130.052 327.58 L
130.052 325.462 L
130.052 324.174 L
130.058 322.057 L
130.058 320.4 L
130.058 318.099 L
130.06 315.522 L
130.066 313.681 L
130.07 312.024 L
130.076 309.723 L
130.077 307.974 L
130.081 305.581 L
130.085 303.648 L
130.089 301.531 L
130.095 298.861 L
130.101 296.744 L
130.118 294.535 L
130.134 292.878 L
130.141 291.038 L
130.151 289.565 L
130.167 287.08 L
130.18 285.607 L
130.19 283.214 L
130.219 280.544 L
130.227 278.427 L
130.256 276.31 L
130.283 274.101 L
130.3 272.26 L
130.32 270.327 L
130.343 268.394 L
130.38 266.553 L
130.411 264.528 L
130.438 262.872 L
130.461 261.675 L
130.507 259.374 L
130.569 257.257 L
130.627 255.784 L
130.674 253.207 L
130.748 251.274 L
130.854 248.605 L
130.955 246.58 L
131.032 244.647 L
131.135 242.622 L
131.276 240.505 L
131.383 238.572 L
131.524 235.902 L
131.681 233.969 L
131.865 232.313 L
132.076 230.564 L
132.293 228.723 L
132.564 226.882 L
132.837 224.673 L
133.11 222.464 L
133.403 220.531 L
133.749 217.953 L
134.104 215.652 L
134.514 213.995 L
134.939 212.615 L
135.419 211.418 L
135.965 208.841 L
136.62 206.908 L
137.239 204.791 L
137.9 202.766 L
138.665 201.201 L
139.368 198.624 L
140.177 196.691 L
141.072 194.85 L
142.085 193.101 L
143.084 191.26 L
144.132 189.235 L
145.203 186.474 L
146.462 184.633 L
147.777 183.897 L
149.096 182.608 L
150.544 181.688 L
152.169 180.307 L
153.682 178.65 L
155.421 177.085 L
157.081 176.165 L
158.917 174.508 L
160.632 173.403 L
162.513 172.207 L
164.484 171.01 L
166.309 169.998 L
168.207 168.893 L
170.109 167.42 L
172.078 166.5 L
173.986 165.764 L
175.946 164.659 L
177.741 163.923 L
179.778 163.555 L
181.686 162.726 L
183.485 161.806 L
185.348 160.885 L
187.186 160.425 L
188.92 159.781 L
190.519 159.136 L
192.202 158.492 L
193.674 157.94 L
195.101 157.387 L
196.525 157.019 L
197.9 156.743 L
199.215 155.915 L
200.377 155.455 L
201.498 155.086 L
202.552 154.994 L
203.603 154.81 L
204.516 154.258 L
205.356 154.258 L
206.168 154.258 L
206.867 153.89 L
207.612 153.706 L
208.31 153.614 L
208.86 153.245 L
209.373 153.153 L
209.834 152.969 L
210.26 152.693 L
210.628 152.417 L
210.963 152.325 L
211.273 152.141 L
211.55 151.957 L
211.728 151.957 L
211.954 151.957 L
212.158 151.957 L
212.369 151.865 L
212.518 151.773 L
212.646 151.773 L
212.758 151.589 L
212.855 151.497 L
212.915 151.497 L
212.971 151.497 L
213.018 151.405 L
213.078 151.405 L
213.12 151.405 L
213.174 151.405 L
213.227 151.405 L
213.242 151.405 L
213.269 151.405 L
213.293 151.405 L
213.306 151.405 L
213.318 151.405 L
213.326 151.405 L
218.289 149.288 L
223.886 147.262 L
229.888 144.501 L
236.258 142.108 L
242.72 139.163 L
249.042 136.861 L
255.783 134.928 L
262.788 132.903 L
270.086 130.878 L
277.486 129.222 L
285.219 126.828 L
292.425 125.724 L
300.166 123.975 L
307.88 122.686 L
315.782 120.293 L
323.493 118.452 L
330.994 117.716 L
337.972 116.427 L
344.289 115.599 L
350.667 114.863 L
356.502 113.85 L
361.915 113.206 L
366.579 112.377 L
370.601 111.549 L
373.721 111.181 L
376.409 111.089 L
378.594 110.997 L
380.255 110.813 L
381.474 110.813 L
382.301 110.813 L
382.862 110.72 L
383.242 110.628 L
383.399 110.628 L
383.523 110.628 L
383.596 110.628 L
383.625 110.628 L
383.635 110.628 L
383.639 110.628 L
383.641 110.628 L
383.641 110.628 L
383.641 110.628 L
383.641 110.628 L
383.641 110.628 L
383.641 110.628 L
383.641 110.628 L
383.641 110.628 L
383.641 110.628 L
383.641 110.628 L
383.641 110.628 L
383.641 110.628 L
383.641 110.628 L
383.641 110.628 L
383.641 110.628 L
383.641 110.628 L
383.641 110.628 L
383.641 110.628 L
383.641 110.628 L
383.641 110.628 L
383.641 110.628 L
383.641 110.628 L
383.641 110.628 L
383.641 110.628 L
383.641 110.628 L
383.641 110.628 L
383.641 110.628 L
383.641 110.628 L
383.641 110.628 L
383.641 110.628 L
383.641 110.628 L
383.641 110.628 L
383.641 110.628 L
383.641 110.628 L
383.641 110.628 L
383.641 110.628 L
383.641 110.628 L
383.641 110.628 L
383.641 110.628 L
383.641 110.628 L
383.641 110.628 L
383.641 110.628 L
383.641 110.628 L
383.641 110.628 L
383.641 110.628 L
383.641 110.628 L
383.641 110.628 L
383.641 110.628 L
383.641 110.628 L
383.641 110.628 L
383.641 110.628 L
383.641 110.628 L
383.641 110.628 L
383.641 110.628 L
383.641 110.628 L
383.641 110.628 L
383.641 110.628 L
383.641 110.628 L
383.641 110.628 L
383.641 110.628 L
383.641 110.628 L
383.641 110.628 L
383.641 110.628 L
383.641 110.628 L
383.641 110.628 L
383.641 110.628 L
383.641 110.628 L
383.641 110.628 L
383.641 110.628 L
383.641 110.628 L
383.641 110.628 L
383.641 110.628 L
383.641 110.628 L
383.641 110.628 L
383.641 110.628 L
383.641 110.628 L
383.641 110.628 L
383.641 110.628 L
383.641 110.628 L
383.641 110.628 L
383.641 110.628 L
383.641 110.628 L
383.641 110.628 L
383.641 110.628 L
383.641 110.628 L
383.641 110.628 L
383.641 110.628 L
383.641 110.628 L
383.641 110.628 L
383.641 110.628 L
383.641 110.628 L
383.641 110.628 L
383.641 110.628 L
383.641 110.628 L
383.641 110.628 L
383.641 110.628 L
383.641 110.628 L
383.641 110.628 L
383.641 110.628 L
383.641 110.628 L
383.641 110.628 L
383.641 110.628 L
383.641 110.628 L
383.641 110.628 L
383.641 110.628 L
383.641 110.628 L
383.641 110.628 L
383.641 110.628 L
383.641 110.628 L
383.641 110.628 L
383.641 110.628 L
383.641 110.628 L
383.641 110.628 L
383.641 110.628 L
383.641 110.628 L
383.641 110.628 L
383.641 110.628 L
383.641 110.628 L
383.641 110.628 L
383.641 110.628 L
383.641 110.628 L
383.641 110.628 L
383.641 110.628 L
383.641 110.628 L
383.641 110.628 L
383.641 110.628 L
383.641 110.628 L
383.641 110.628 L
383.641 110.628 L
383.641 110.628 L
383.641 110.628 L
383.641 110.628 L
383.641 110.628 L
383.641 110.628 L
383.641 110.628 L
383.641 110.628 L
383.641 110.628 L
383.641 110.628 L
383.641 110.628 L
383.641 110.628 L
383.641 110.628 L
383.641 110.628 L
383.641 110.628 L
383.641 110.628 L
383.641 110.628 L
383.641 110.628 L
383.641 110.628 L
383.641 110.628 L
383.641 110.628 L
383.641 110.628 L
383.641 110.628 L
383.641 110.628 L
383.641 110.628 L
383.641 110.628 L
383.641 110.628 L
383.641 110.628 L
383.641 110.628 L
383.641 110.628 L
383.641 110.628 L
383.641 110.628 L
383.641 110.628 L
383.641 110.628 L
383.641 110.628 L
383.641 110.628 L
383.641 110.628 L
383.641 110.628 L
383.641 110.628 L
383.641 110.628 L
383.641 110.628 L
383.641 110.628 L
383.641 110.628 L
383.641 110.628 L
383.641 110.628 L
383.641 110.628 L
383.641 110.628 L
383.641 110.628 L
383.641 110.628 L
383.641 110.628 L
383.641 110.628 L
383.641 110.628 L
383.641 110.628 L
383.641 110.628 L
383.641 110.628 L
383.641 110.628 L
383.641 110.628 L
383.641 110.628 L
383.641 110.628 L
383.641 110.628 L
383.641 110.628 L
383.641 110.628 L
383.641 110.628 L
383.641 110.628 L
383.641 110.628 L
383.641 110.628 L
383.641 110.628 L
383.641 110.628 L
383.641 110.628 L
383.641 110.628 L
383.641 110.628 L
383.641 110.628 L
383.641 110.628 L
383.641 110.628 L
383.641 110.628 L
383.641 110.628 L
383.641 110.628 L
383.641 110.628 L
383.641 110.628 L
383.641 110.628 L
383.641 110.628 L
383.641 110.628 L
383.641 110.628 L
383.641 110.628 L
383.641 110.628 L
383.641 110.628 L
383.641 110.628 L
383.641 110.628 L
383.641 110.628 L
383.641 110.628 L
383.641 110.628 L
383.641 110.628 L
383.641 110.628 L
383.641 110.628 L
383.641 110.628 L
383.641 110.628 L
383.641 110.628 L
383.641 110.628 L
383.641 110.628 L
383.641 110.628 L
383.641 110.628 L
383.641 110.628 L
383.641 110.628 L
383.641 110.628 L
383.641 110.628 L
383.641 110.628 L
383.641 110.628 L
383.641 110.628 L
383.641 110.628 L
383.641 110.628 L
383.641 110.628 L
383.641 110.628 L
383.641 110.628 L
383.641 110.628 L
383.641 110.628 L
383.641 110.628 L
383.641 110.628 L
383.641 110.628 L
383.641 110.628 L
383.641 110.628 L
383.641 110.628 L
383.641 110.628 L
383.641 110.628 L
383.641 110.628 L
383.641 110.628 L
383.641 110.628 L
383.641 110.628 L
383.641 110.628 L
383.641 110.628 L
383.641 110.628 L
383.641 110.628 L
383.641 110.628 L
383.641 110.628 L
383.641 110.628 L
383.641 110.628 L
383.641 110.628 L
383.641 110.628 L
383.641 110.628 L
383.641 110.628 L
383.641 110.628 L
383.641 110.628 L
383.641 110.628 L
383.641 110.628 L
383.641 110.628 L
383.641 110.628 L
383.641 110.628 L
383.641 110.628 L
383.641 110.628 L
383.641 110.628 L
383.641 110.628 L
383.641 110.628 L
383.641 110.628 L
383.641 110.628 L
383.641 110.628 L
383.641 110.628 L
383.641 110.628 L
383.641 110.628 L
383.641 110.628 L
383.641 110.628 L
383.641 110.628 L
383.641 110.628 L
383.641 110.628 L
383.641 110.628 L
383.641 110.628 L
383.641 110.628 L
383.641 110.628 L
383.641 110.628 L
383.641 110.628 L
383.641 110.628 L
383.641 110.628 L
383.641 110.628 L
905 45 L
S
GR
GS
1 LJ
2 LW
N
130 530.356 M
130 530.356 L
130 530.356 L
130 530.356 L
130 530.356 L
130 530.356 L
130 530.356 L
130 530.356 L
130 530.356 L
130 530.356 L
130 530.356 L
130 530.356 L
130 530.356 L
130 530.356 L
130 530.356 L
130 530.356 L
130 530.356 L
130 530.356 L
130 530.356 L
130 530.356 L
130 530.356 L
130 530.356 L
130 530.356 L
130 530.356 L
130 530.356 L
130 530.356 L
130 530.356 L
130 530.356 L
130 530.356 L
130 530.356 L
130 530.356 L
130 530.356 L
130 530.356 L
130 530.356 L
130 530.356 L
130 530.356 L
130 530.356 L
130 530.356 L
130 530.356 L
130 530.356 L
130 530.356 L
130 530.356 L
130 530.356 L
130 530.356 L
130 530.356 L
130 530.356 L
130 530.356 L
130 530.356 L
130 530.356 L
130 530.356 L
130 530.356 L
130 530.356 L
130 530.356 L
130 530.356 L
130 530.356 L
130 530.356 L
130 530.356 L
130 530.356 L
130 530.356 L
130 530.356 L
130 530.356 L
130 530.356 L
130 530.356 L
130 530.356 L
130 530.356 L
130 530.356 L
130 530.356 L
130 530.356 L
130 530.356 L
130 530.356 L
130 530.356 L
130 530.356 L
130 530.356 L
130 530.356 L
130 530.356 L
130 530.356 L
130 530.356 L
130 530.356 L
130 530.356 L
130 530.356 L
130 530.356 L
130 530.356 L
130 530.356 L
130 530.356 L
130 530.356 L
130 530.356 L
130 530.356 L
130 530.356 L
130 530.356 L
130 530.356 L
130 530.356 L
130 530.356 L
130 530.356 L
130 530.356 L
130 530.356 L
130 530.356 L
130 530.356 L
130 530.356 L
130 530.356 L
130 530.356 L
130 530.356 L
130 530.356 L
130 530.356 L
130 530.356 L
130 530.356 L
130 530.356 L
130 530.356 L
130 530.356 L
130 530.356 L
130 530.356 L
130 530.356 L
130 530.356 L
130 530.356 L
130 530.356 L
130 530.356 L
130 530.356 L
130 530.356 L
130 530.356 L
130 530.356 L
130 530.356 L
130 530.356 L
130 530.356 L
130 530.356 L
130 530.356 L
130 530.356 L
130 530.356 L
130 530.356 L
130 530.356 L
130 530.356 L
130 530.356 L
130 530.356 L
130 530.356 L
130 530.356 L
130 530.356 L
130 530.356 L
130 530.356 L
130 530.356 L
130 530.356 L
130 530.356 L
130 530.356 L
130 530.356 L
130 530.356 L
130 530.356 L
130 530.356 L
130 530.356 L
130 530.356 L
130 530.356 L
130 530.356 L
130 530.356 L
130 530.356 L
130 530.356 L
130 530.356 L
130 530.356 L
130 530.356 L
130 530.356 L
130 530.356 L
130 530.356 L
130 530.356 L
130 530.356 L
130 530.356 L
130 530.356 L
130 530.356 L
130 530.356 L
130 530.356 L
130 530.356 L
130 530.356 L
130 530.356 L
130 530.356 L
130 530.356 L
130 530.356 L
130 530.356 L
130 530.356 L
130 530.356 L
130 530.356 L
130 530.356 L
130 530.356 L
130 530.356 L
130 530.356 L
130 530.264 L
130 530.264 L
130 530.264 L
130 530.264 L
130 530.264 L
130 530.264 L
130 530.264 L
130 530.264 L
130 530.264 L
130 530.264 L
130 530.264 L
130 530.264 L
130 530.264 L
130 530.264 L
130 530.264 L
130 530.264 L
130 530.172 L
130 530.172 L
130 530.172 L
130 530.172 L
130 530.172 L
130 530.172 L
130 530.172 L
130 530.08 L
130 529.987 L
130 529.987 L
130 529.895 L
130 529.895 L
130 529.803 L
130 529.803 L
130 529.803 L
130 529.803 L
130 529.619 L
130 529.527 L
130 529.527 L
130 529.527 L
130 529.527 L
130 529.435 L
130 529.251 L
130 529.251 L
130 529.159 L
130 529.067 L
130 529.067 L
130 528.975 L
130 528.975 L
130 528.883 L
130 528.883 L
130 528.699 L
130 528.607 L
130 528.515 L
130 528.239 L
130 527.963 L
130 527.87 L
130 527.87 L
130 527.87 L
130 527.778 L
130 527.778 L
130 527.502 L
130 527.134 L
130 526.95 L
130 526.674 L
130 526.582 L
130 526.582 L
130 526.582 L
130 526.582 L
130 526.582 L
130 526.582 L
130 526.49 L
130 526.122 L
130 526.03 L
130 526.03 L
130 526.03 L
130 526.03 L
130 526.03 L
130 525.753 L
130 525.569 L
130 525.201 L
130 525.017 L
130 524.925 L
130 524.741 L
130 524.557 L
130 524.465 L
130 523.912 L
130 523.636 L
130 523.36 L
130 523.084 L
130 522.808 L
130 522.624 L
130 522.348 L
130 522.072 L
130 521.98 L
130 521.427 L
130 520.875 L
130 520.415 L
130 520.139 L
130 520.047 L
130 519.586 L
130 519.126 L
130 518.85 L
130 518.666 L
130 518.39 L
130 518.114 L
130 517.469 L
130 517.377 L
130 517.193 L
130 517.101 L
130 517.009 L
130 516.641 L
130 516.089 L
130 515.813 L
130 515.26 L
130 514.616 L
130 514.616 L
130 514.432 L
130 513.695 L
130 513.327 L
130 513.051 L
130 512.407 L
130 512.223 L
130 511.302 L
130 511.118 L
130 511.026 L
130 510.474 L
130 510.014 L
130 509.737 L
130 509.369 L
130 509.001 L
130 508.541 L
130 508.357 L
130 507.712 L
130 507.62 L
130 507.436 L
130 507.252 L
130 506.7 L
130 506.332 L
130 506.056 L
130 505.135 L
130 504.491 L
130 504.399 L
130 503.57 L
130 503.11 L
130 502.65 L
130 502.374 L
130 502.006 L
130 501.73 L
130 501.269 L
130 500.441 L
130 500.165 L
130 499.705 L
130 499.428 L
130 499.152 L
130 498.784 L
130 498.416 L
130 497.956 L
130 497.495 L
130 496.851 L
130 496.391 L
130 495.655 L
130 495.47 L
130 494.826 L
130 494.274 L
130 493.722 L
130 493.261 L
130 492.985 L
130 492.893 L
130 492.525 L
130 492.157 L
130 491.328 L
130 490.408 L
130 490.04 L
130 488.935 L
130 488.199 L
130 487.923 L
130 487.278 L
130 486.542 L
130 486.082 L
130 485.622 L
130 484.885 L
130 484.517 L
130 484.057 L
130 483.781 L
130 483.228 L
130 482.86 L
130 482.4 L
130 482.032 L
130 481.756 L
130 481.48 L
130 480.651 L
130 480.283 L
130 480.191 L
130 479.547 L
130 479.27 L
130 478.626 L
130 478.35 L
130 478.074 L
130 477.245 L
130 476.785 L
130 476.417 L
130 476.141 L
130 475.589 L
130 475.036 L
130 474.668 L
130 473.932 L
130 473.748 L
130 473.38 L
130 473.011 L
130 472.735 L
130 471.907 L
130 470.802 L
130 470.25 L
130 469.974 L
130 468.869 L
130 468.133 L
130 467.949 L
130 467.397 L
130 467.028 L
130 466.476 L
130 466.2 L
130 465.648 L
130 465.372 L
130 464.911 L
130 464.543 L
130 464.267 L
130 463.991 L
130 463.255 L
130 462.334 L
130 461.966 L
130 461.138 L
130 460.861 L
130 460.401 L
130 459.941 L
130 459.481 L
130 459.297 L
130 458.284 L
130 457.824 L
130 456.995 L
130 456.535 L
130 455.983 L
130 455.431 L
130 454.786 L
130 454.602 L
130 453.59 L
130 453.222 L
130 452.669 L
130 451.933 L
130 451.381 L
130 450.46 L
130 450.092 L
130 449.724 L
130 449.632 L
130 449.264 L
130 448.895 L
130 448.343 L
130 447.791 L
130 447.331 L
130 446.962 L
130 446.042 L
130 445.306 L
130 444.938 L
130 444.753 L
130 443.925 L
130 443.189 L
130 442.913 L
130 442.636 L
130 442.176 L
130 441.624 L
130 441.256 L
130 441.072 L
130 440.427 L
130 439.967 L
130 439.507 L
130 438.862 L
130 438.402 L
130 438.034 L
130 437.758 L
130 437.482 L
130 437.39 L
130 437.114 L
130 436.285 L
130 436.193 L
130 435.917 L
130 435.365 L
130 434.813 L
130 434.536 L
130 433.984 L
130 433.616 L
130 433.248 L
130 432.327 L
130 431.683 L
130 431.315 L
130 430.855 L
130 430.118 L
130 429.842 L
130 429.382 L
130 429.106 L
130 428.645 L
130 428.093 L
130 427.541 L
130 426.805 L
130 426.252 L
130 425.976 L
130 425.608 L
130 424.964 L
130 424.78 L
130 424.135 L
130 423.951 L
130 423.399 L
130 423.215 L
130 422.11 L
130 421.834 L
130 421.098 L
130 420.914 L
130 420.637 L
130 420.085 L
130 419.533 L
130 418.981 L
130 418.889 L
130 418.705 L
130 418.612 L
130 417.784 L
130 417.14 L
130 416.587 L
130 416.219 L
130 415.483 L
130 415.207 L
130 414.747 L
130 414.655 L
130 414.194 L
130 414.102 L
130 413.55 L
130 412.906 L
130 412.445 L
130 411.525 L
130 411.249 L
130 410.697 L
130 409.868 L
130 409.408 L
130 408.948 L
130 408.211 L
130 407.843 L
130 406.831 L
130 405.818 L
130 404.714 L
130 404.714 L
130 404.161 L
130 403.149 L
130 402.505 L
130 401.952 L
130 401.216 L
130 400.387 L
130 399.651 L
130 399.375 L
130 398.639 L
130 398.178 L
130 397.534 L
130 397.166 L
130 396.061 L
130 395.325 L
130 394.681 L
130 393.484 L
130 392.564 L
130 391.827 L
130 390.631 L
130 389.158 L
130 388.145 L
130 386.949 L
130 386.028 L
130 385.292 L
130 384.832 L
130 384.188 L
130 383.727 L
130 382.347 L
130 381.702 L
130 380.966 L
130 380.045 L
130 379.309 L
130 378.849 L
130 378.205 L
130 377.284 L
130 376.456 L
130 374.983 L
130 373.602 L
130 372.866 L
130 371.945 L
130 371.485 L
130 370.841 L
130 370.105 L
130 369.276 L
130 368.356 L
130 367.343 L
130 366.699 L
130 365.594 L
130 363.845 L
130 363.109 L
130 362.557 L
130 361.728 L
130 360.992 L
130 360.256 L
130 359.059 L
130 357.494 L
130 356.206 L
130 354.825 L
130 353.444 L
130 353.444 L
130 352.524 L
130 351.327 L
130 350.407 L
130 349.302 L
130 348.75 L
130 347.001 L
130 346.081 L
130 345.344 L
130.002 343.964 L
130.004 343.135 L
130.004 341.663 L
130.006 340.466 L
130.006 338.809 L
130.006 337.428 L
130.008 336.324 L
130.008 335.311 L
130.008 334.667 L
130.008 333.378 L
130.008 331.814 L
130.008 330.893 L
130.008 330.157 L
130.008 328.5 L
130.008 326.843 L
130.008 325.278 L
130.012 324.266 L
130.014 322.241 L
130.014 320.676 L
130.014 318.927 L
130.017 317.731 L
130.019 316.626 L
130.019 315.337 L
130.021 314.325 L
130.021 313.036 L
130.023 312.392 L
130.023 310.459 L
130.025 308.986 L
130.027 308.066 L
130.029 305.949 L
130.031 304.384 L
130.031 302.727 L
130.031 301.347 L
130.031 300.15 L
130.033 298.677 L
130.033 297.113 L
130.037 295.732 L
130.041 294.443 L
130.043 292.97 L
130.045 291.682 L
130.048 290.577 L
130.05 289.565 L
130.056 287.724 L
130.06 285.975 L
130.066 284.41 L
130.072 282.845 L
130.085 281.465 L
130.089 279.808 L
130.095 278.519 L
130.101 276.77 L
130.112 275.298 L
130.114 273.917 L
130.132 272.168 L
130.139 270.511 L
130.147 269.591 L
130.159 267.842 L
130.168 267.014 L
130.188 264.897 L
130.207 263.148 L
130.217 261.859 L
130.236 260.663 L
130.246 258.453 L
130.271 256.428 L
130.3 255.324 L
130.314 253.851 L
130.333 253.115 L
130.349 251.642 L
130.36 251.182 L
130.391 249.341 L
130.428 247.316 L
130.48 245.751 L
130.504 244.555 L
130.544 242.622 L
130.587 241.517 L
130.629 239.584 L
130.682 238.111 L
130.719 237.375 L
130.782 236.178 L
130.846 234.338 L
130.908 232.128 L
130.97 231.208 L
131.023 230.195 L
131.112 228.355 L
131.212 227.066 L
131.288 226.33 L
131.363 225.317 L
131.47 223.844 L
131.576 222.095 L
131.704 220.623 L
131.842 218.414 L
131.954 216.757 L
132.094 215.376 L
132.264 213.535 L
132.384 212.891 L
132.554 211.786 L
132.738 210.866 L
132.93 209.025 L
133.126 207.368 L
133.329 205.619 L
133.533 203.963 L
133.753 202.582 L
133.953 201.661 L
134.185 199.82 L
134.449 198.348 L
134.679 196.599 L
135.062 195.402 L
135.384 193.745 L
135.7 192.365 L
136.079 191.352 L
136.478 190.34 L
136.763 189.051 L
137.16 187.394 L
137.683 186.198 L
138.212 184.909 L
138.701 183.62 L
139.25 182.24 L
139.755 181.319 L
140.363 179.755 L
140.76 178.558 L
141.397 177.177 L
142.116 175.889 L
142.842 174.508 L
143.601 172.943 L
144.376 171.563 L
145.207 170.09 L
146.04 168.985 L
146.967 167.697 L
147.662 166.316 L
148.522 165.027 L
149.485 163.831 L
150.502 162.082 L
151.609 160.609 L
152.706 158.768 L
153.868 157.111 L
155.179 155.455 L
155.659 154.718 L
157.232 153.337 L
158.651 152.417 L
160.133 151.589 L
161.457 150.668 L
163.065 149.011 L
164.756 147.907 L
166.437 146.066 L
168.007 145.053 L
169.27 144.685 L
171.16 142.936 L
173.023 141.924 L
175.018 140.635 L
177.253 139.163 L
179.41 137.782 L
181.707 136.861 L
184.082 135.481 L
186.419 134.1 L
188.067 132.627 L
190.74 131.431 L
193.385 130.418 L
196.205 129.682 L
199.137 128.669 L
202.298 127.565 L
205.372 126.828 L
208.579 125.816 L
210.87 124.803 L
214.213 124.343 L
217.578 123.239 L
221.398 121.858 L
224.684 120.753 L
228.538 119.373 L
232.735 118.452 L
236.558 117.716 L
240.811 116.703 L
243.739 115.599 L
247.98 114.586 L
252.34 113.574 L
256.73 112.93 L
261.338 111.733 L
266.383 111.273 L
271.248 110.076 L
276.295 108.788 L
279.918 107.039 L
285.052 105.382 L
290.868 104.461 L
296.078 103.449 L
301.882 102.436 L
308.081 100.872 L
313.289 99.859 L
319.81 98.57 L
325.699 97.466 L
330.192 97.006 L
336.709 95.257 L
342.86 94.244 L
349.375 93.508 L
355.952 92.864 L
362.713 92.311 L
369.763 91.207 L
376.161 89.918 L
381.201 89.366 L
388.506 88.169 L
395.79 87.525 L
402.705 86.973 L
410.024 86.42 L
417.376 85.316 L
424.328 84.488 L
432.178 83.475 L
439.715 83.107 L
445.241 82.278 L
452.827 81.358 L
460.391 80.99 L
468.471 79.977 L
476.078 79.333 L
483.974 78.044 L
492.054 76.94 L
499.855 76.111 L
505.651 74.639 L
513.863 73.81 L
521.706 72.89 L
529.49 72.337 L
537.527 71.785 L
545.483 70.681 L
553.365 70.036 L
561.25 69.3 L
569.769 68.656 L
575.306 67.827 L
582.462 66.815 L
591.125 66.17 L
598.476 65.618 L
606.688 64.79 L
614.313 64.145 L
621.941 63.685 L
629.645 63.133 L
635.385 62.765 L
642.917 62.212 L
649.882 61.66 L
657.024 60.372 L
664.157 59.727 L
671.396 58.991 L
678.442 58.531 L
685.412 57.61 L
692.607 57.15 L
697.506 56.966 L
704.037 56.414 L
710.649 55.861 L
717.177 55.401 L
723.468 54.941 L
729.841 54.481 L
736.017 54.205 L
742.155 53.652 L
746.481 53.192 L
752.202 52.824 L
757.592 52.64 L
763.315 52.456 L
768.749 51.995 L
774.257 51.719 L
779.178 51.443 L
784.546 51.351 L
789.46 51.167 L
793.095 50.891 L
797.439 50.523 L
801.868 50.063 L
806.111 49.694 L
810.221 49.51 L
814.47 49.142 L
818.27 49.05 L
822.325 48.866 L
825.159 48.774 L
828.619 48.59 L
832.02 48.406 L
835.297 48.406 L
838.558 48.222 L
841.8 47.853 L
844.909 47.669 L
847.909 47.577 L
850.605 47.577 L
852.597 47.393 L
854.954 47.025 L
857.294 46.933 L
859.647 46.841 L
861.967 46.749 L
864.332 46.657 L
866.631 46.381 L
868.987 46.289 L
871.286 46.289 L
871.286 46.289 L
873.399 46.013 L
875.237 45.736 L
876.961 45.736 L
878.588 45.736 L
880.029 45.552 L
881.394 45.552 L
882.585 45.552 L
883.505 45.552 L
884.715 45.552 L
885.837 45.552 L
887.037 45.552 L
888.149 45.46 L
889.158 45.46 L
890.029 45.368 L
890.851 45.368 L
891.654 45.184 L
892.346 45.184 L
893.165 45.184 L
893.92 45.184 L
894.708 45.184 L
895.365 45.184 L
895.998 45.184 L
896.591 45.184 L
897.085 45.092 L
897.552 45.092 L
897.951 45.092 L
898.421 45.092 L
898.781 45.092 L
899.198 45.092 L
899.577 45.092 L
899.947 45.092 L
900.274 45.092 L
900.544 45.092 L
900.844 45.092 L
901.165 45.092 L
901.464 45.092 L
901.754 45.092 L
901.967 45.092 L
902.171 45.092 L
902.314 45.092 L
902.477 45 L
902.599 45 L
902.777 45 L
902.937 45 L
903.057 45 L
903.222 45 L
903.367 45 L
903.509 45 L
903.613 45 L
903.71 45 L
903.803 45 L
903.886 45 L
903.962 45 L
904.022 45 L
904.088 45 L
904.165 45 L
904.237 45 L
904.307 45 L
904.341 45 L
904.38 45 L
904.438 45 L
904.475 45 L
904.502 45 L
904.537 45 L
904.572 45 L
904.601 45 L
904.63 45 L
904.655 45 L
904.684 45 L
904.715 45 L
904.731 45 L
904.748 45 L
904.771 45 L
904.791 45 L
904.801 45 L
904.812 45 L
904.826 45 L
904.839 45 L
904.847 45 L
904.859 45 L
904.874 45 L
904.882 45 L
904.892 45 L
904.899 45 L
904.903 45 L
904.911 45 L
904.919 45 L
904.93 45 L
904.936 45 L
904.944 45 L
904.95 45 L
904.954 45 L
904.959 45 L
904.965 45 L
904.967 45 L
904.967 45 L
904.969 45 L
904.971 45 L
904.971 45 L
904.971 45 L
904.977 45 L
904.977 45 L
904.979 45 L
904.981 45 L
904.981 45 L
904.981 45 L
904.983 45 L
904.986 45 L
904.99 45 L
904.99 45 L
904.99 45 L
904.992 45 L
904.992 45 L
904.992 45 L
904.992 45 L
904.992 45 L
904.992 45 L
904.992 45 L
904.992 45 L
904.994 45 L
904.996 45 L
904.996 45 L
904.996 45 L
904.996 45 L
904.996 45 L
904.996 45 L
904.996 45 L
904.996 45 L
905 45 L
S
GR
GS
1 0 0 RC
1 LJ
2 LW
N
130 530.356 M
130 530.356 L
130 530.356 L
130 530.356 L
130 530.356 L
130 530.356 L
130 530.356 L
130 530.356 L
130 530.356 L
130 530.356 L
130 530.356 L
130 530.356 L
130 530.356 L
130 530.356 L
130 530.356 L
130 530.356 L
130 530.356 L
130 530.356 L
130 530.356 L
130 530.356 L
130 530.356 L
130 530.356 L
130 530.356 L
130 530.356 L
130 530.356 L
130 530.356 L
130 530.356 L
130 530.356 L
130 530.356 L
130 530.356 L
130 530.356 L
130 530.356 L
130 530.356 L
130 530.356 L
130 530.356 L
130 530.356 L
130 530.356 L
130 530.356 L
130 530.356 L
130 530.356 L
130 530.356 L
130 530.356 L
130 530.356 L
130 530.356 L
130 530.356 L
130 530.356 L
130 530.356 L
130 530.356 L
130 530.356 L
130 530.356 L
130 530.356 L
130 530.356 L
130 530.356 L
130 530.356 L
130 530.356 L
130 530.356 L
130 530.356 L
130 530.356 L
130 530.356 L
130 530.356 L
130 530.356 L
130 530.356 L
130 530.356 L
130 530.356 L
130 530.356 L
130 530.356 L
130 530.356 L
130 530.356 L
130 530.356 L
130 530.356 L
130 530.356 L
130 530.356 L
130 530.356 L
130 530.356 L
130 530.356 L
130 530.356 L
130 530.356 L
130 530.356 L
130 530.356 L
130 530.356 L
130 530.356 L
130 530.356 L
130 530.356 L
130 530.356 L
130 530.356 L
130 530.356 L
130 530.356 L
130 530.356 L
130 530.356 L
130 530.356 L
130 530.356 L
130 530.356 L
130 530.356 L
130 530.356 L
130 530.356 L
130 530.356 L
130 530.356 L
130 530.356 L
130 530.356 L
130 530.356 L
130 530.356 L
130 530.356 L
130 530.356 L
130 530.356 L
130 530.356 L
130 530.356 L
130 530.356 L
130 530.356 L
130 530.356 L
130 530.356 L
130 530.356 L
130 530.356 L
130 530.356 L
130 530.356 L
130 530.356 L
130 530.356 L
130 530.356 L
130 530.356 L
130 530.356 L
130 530.356 L
130 530.356 L
130 530.356 L
130 530.356 L
130 530.356 L
130 530.356 L
130 530.356 L
130 530.356 L
130 530.356 L
130 530.356 L
130 530.356 L
130 530.356 L
130 530.356 L
130 530.356 L
130 530.356 L
130 530.356 L
130 530.356 L
130 530.356 L
130 530.356 L
130 530.356 L
130 530.356 L
130 530.356 L
130 530.356 L
130 530.356 L
130 530.356 L
130 530.356 L
130 530.356 L
130 530.356 L
130 530.356 L
130 530.356 L
130 530.356 L
130 530.356 L
130 530.356 L
130 530.356 L
130 530.356 L
130 530.356 L
130 530.356 L
130 530.356 L
130 530.356 L
130 530.356 L
130 530.356 L
130 530.356 L
130 530.356 L
130 530.356 L
130 530.356 L
130 530.356 L
130 530.356 L
130 530.356 L
130 530.264 L
130 530.264 L
130 530.264 L
130 530.264 L
130 530.264 L
130 530.264 L
130 530.264 L
130 530.264 L
130 530.264 L
130 530.264 L
130 530.172 L
130 530.172 L
130 530.172 L
130 530.08 L
130 530.08 L
130 529.987 L
130 529.987 L
130 529.987 L
130 529.987 L
130 529.895 L
130 529.895 L
130 529.895 L
130 529.895 L
130 529.803 L
130 529.803 L
130 529.803 L
130 529.711 L
130 529.619 L
130 529.619 L
130 529.343 L
130 529.343 L
130 529.343 L
130 529.343 L
130 529.251 L
130 528.883 L
130 528.883 L
130 528.883 L
130 528.883 L
130 528.883 L
130 528.607 L
130 528.607 L
130 528.607 L
130 528.515 L
130 528.423 L
130 528.423 L
130 528.331 L
130 528.331 L
130 528.147 L
130 527.87 L
130 527.778 L
130 527.686 L
130 527.502 L
130 527.318 L
130 526.95 L
130 526.582 L
130 526.582 L
130 526.49 L
130 526.49 L
130 526.122 L
130 525.938 L
130 525.661 L
130 525.661 L
130 525.201 L
130 525.201 L
130 525.109 L
130 524.649 L
130 524.373 L
130 524.189 L
130 523.728 L
130 523.728 L
130 523.544 L
130 523.452 L
130 523.452 L
130 523.36 L
130 523.176 L
130 522.992 L
130 522.256 L
130 521.611 L
130 521.427 L
130 521.335 L
130 521.151 L
130 520.691 L
130 520.599 L
130 520.415 L
130 520.047 L
130 519.862 L
130 519.586 L
130 518.942 L
130 518.942 L
130 518.666 L
130 518.022 L
130 517.745 L
130 517.193 L
130 516.457 L
130 516.273 L
130 516.181 L
130 515.813 L
130 514.892 L
130 514.34 L
130 514.064 L
130 513.603 L
130 513.235 L
130 512.683 L
130 512.315 L
130 511.855 L
130 511.763 L
130 511.21 L
130 511.118 L
130 510.566 L
130 510.014 L
130 509.553 L
130 509.093 L
130 508.449 L
130 507.897 L
130 507.528 L
130 506.884 L
130 506.608 L
130 505.872 L
130 505.227 L
130 504.491 L
130 504.399 L
130 503.939 L
130 503.847 L
130 503.386 L
130 502.926 L
130 502.374 L
130 502.19 L
130 501.822 L
130 501.638 L
130 500.901 L
130 500.349 L
130 499.612 L
130 498.968 L
130 498.876 L
130 498.692 L
130 498.232 L
130 498.14 L
130 497.311 L
130 496.851 L
130 496.759 L
130 496.115 L
130 495.01 L
130 494.55 L
130 493.722 L
130 492.985 L
130 492.801 L
130 492.065 L
130 491.697 L
130 491.052 L
130 490.132 L
130 489.764 L
130 489.58 L
130 489.395 L
130 488.935 L
130 488.659 L
130 488.015 L
130 487.37 L
130 487.002 L
130 487.002 L
130 486.45 L
130 485.898 L
130 485.714 L
130 485.161 L
130 484.609 L
130 484.241 L
130 483.044 L
130 482.4 L
130 481.94 L
130 481.756 L
130 481.48 L
130 480.375 L
130 480.007 L
130 479.178 L
130 478.902 L
130 477.982 L
130 477.522 L
130 476.601 L
130 476.417 L
130 475.773 L
130 475.313 L
130 474.576 L
130 474.024 L
130 473.748 L
130 473.011 L
130 472.827 L
130 472.275 L
130 471.815 L
130 471.263 L
130 470.894 L
130 470.526 L
130 470.526 L
130 470.158 L
130 469.422 L
130 468.593 L
130 467.673 L
130 467.028 L
130 466.936 L
130 466.2 L
130 465.74 L
130 465.095 L
130 464.727 L
130 464.175 L
130 463.899 L
130 463.899 L
130 463.163 L
130 462.702 L
130 462.15 L
130 461.598 L
130 461.138 L
130 460.769 L
130 459.941 L
130 459.481 L
130 458.836 L
130 458.468 L
130 457.916 L
130 457.916 L
130 457.456 L
130 456.719 L
130 456.351 L
130 455.707 L
130 455.247 L
130 454.694 L
130 454.234 L
130 453.774 L
130 453.038 L
130 452.945 L
130 452.209 L
130 451.841 L
130 451.657 L
130 451.105 L
130 450.368 L
130 449.448 L
130 448.711 L
130 448.067 L
130 447.975 L
130 447.607 L
130 447.055 L
130 446.41 L
130 446.41 L
130 446.134 L
130 445.398 L
130 444.938 L
130 444.569 L
130 444.201 L
130 443.833 L
130 443.189 L
130 442.452 L
130 441.9 L
130 441.624 L
130 441.072 L
130 440.519 L
130 439.875 L
130 439.323 L
130 438.402 L
130 438.126 L
130 437.666 L
130 437.39 L
130 437.39 L
130 437.022 L
130 436.745 L
130 436.469 L
130 436.377 L
130 436.193 L
130 435.549 L
130 434.997 L
130 434.72 L
130 434.26 L
130 433.892 L
130 433.432 L
130 432.972 L
130 432.419 L
130 431.775 L
130 431.315 L
130 431.223 L
130 430.67 L
130 430.026 L
130 429.474 L
130 429.014 L
130 428.369 L
130 428.277 L
130 428.001 L
130 427.449 L
130 427.173 L
130 426.62 L
130 426.252 L
130 425.7 L
130 425.7 L
130 425.332 L
130 424.872 L
130 424.688 L
130 424.135 L
130 423.767 L
130 423.767 L
130 423.215 L
130 422.939 L
130 422.57 L
130 422.294 L
130 422.018 L
130 421.65 L
130 421.374 L
130 420.822 L
130 420.453 L
130 419.993 L
130 419.349 L
130 419.165 L
130 418.889 L
130 418.52 L
130 418.336 L
130 418.152 L
130 418.06 L
130 417.784 L
130 417.6 L
130 417.14 L
130 416.772 L
130 416.127 L
130 415.943 L
130 415.759 L
130 415.299 L
130 414.839 L
130 414.563 L
130 414.378 L
130 414.102 L
130 413.642 L
130 413.274 L
130 412.998 L
130 412.538 L
130 411.801 L
130 411.525 L
130 411.065 L
130 410.605 L
130 410.513 L
130 410.052 L
130 409.132 L
130 408.764 L
130 408.027 L
130 407.659 L
130 407.107 L
130 406.462 L
130 406.186 L
130 405.634 L
130 404.622 L
130 403.977 L
130 403.241 L
130 402.689 L
130 401.768 L
130 400.756 L
130 400.295 L
130 399.559 L
130 398.731 L
130 398.455 L
130 397.35 L
130 396.245 L
130 395.509 L
130 394.589 L
130 393.3 L
130 393.024 L
130 392.011 L
130 390.907 L
130 389.802 L
130 389.618 L
130 388.698 L
130 387.961 L
130 387.777 L
130 387.133 L
130 386.212 L
130 385.292 L
130 384.924 L
130 383.911 L
130 383.727 L
130 383.083 L
130 381.702 L
130 381.058 L
130 380.23 L
130 379.309 L
130 378.112 L
130 377.008 L
130 376.18 L
130 375.167 L
130 374.155 L
130 373.602 L
130 372.13 L
130 371.577 L
130 370.657 L
130 369.552 L
130 369 L
130 368.356 L
130 367.711 L
130 366.791 L
130 365.962 L
130 365.41 L
130 364.03 L
130 362.833 L
130 362.005 L
130 361.084 L
130 360.532 L
130 360.164 L
130 359.335 L
130 358.231 L
130 356.942 L
130 356.022 L
130 355.285 L
130 354.181 L
130 352.984 L
130 351.603 L
130 350.591 L
130 349.21 L
130 348.75 L
130 347.83 L
130 347.001 L
130 345.989 L
130 345.252 L
130 343.964 L
130 342.031 L
130 341.478 L
130 340.374 L
130 339.177 L
130 338.441 L
130 336.876 L
130.002 335.495 L
130.002 334.851 L
130.002 333.378 L
130.002 331.353 L
130.002 329.973 L
130.002 328.408 L
130.002 326.843 L
130.002 325.739 L
130.002 324.726 L
130.002 323.161 L
130.002 322.057 L
130.002 320.584 L
130.002 318.835 L
130.002 317.362 L
130.002 316.534 L
130.002 315.337 L
130.002 314.049 L
130.002 312.3 L
130.002 310.091 L
130.002 308.158 L
130.002 307.237 L
130.002 305.581 L
130.002 304.568 L
130.002 302.819 L
130.002 301.347 L
130.002 300.242 L
130.002 298.677 L
130.002 297.389 L
130.002 295.64 L
130.002 294.259 L
130.002 292.602 L
130.002 291.406 L
130.002 290.301 L
130.002 289.657 L
130.002 288.276 L
130.002 286.619 L
130.004 284.502 L
130.004 283.306 L
130.004 281.833 L
130.006 280.544 L
130.01 278.427 L
130.012 276.862 L
130.012 275.666 L
130.012 274.193 L
130.015 271.984 L
130.015 270.603 L
130.017 269.775 L
130.017 268.026 L
130.017 266.369 L
130.019 264.62 L
130.021 262.964 L
130.023 261.583 L
130.025 260.939 L
130.025 258.914 L
130.025 257.441 L
130.025 255.416 L
130.031 254.864 L
130.041 253.575 L
130.048 252.562 L
130.052 251.642 L
130.058 250.722 L
130.064 248.973 L
130.064 246.764 L
130.068 245.107 L
130.07 243.45 L
130.072 242.99 L
130.079 241.885 L
130.087 240.136 L
130.095 238.295 L
130.101 236.455 L
130.107 234.061 L
130.112 232.773 L
130.12 230.84 L
130.126 228.907 L
130.147 227.526 L
130.159 226.053 L
130.165 224.489 L
130.182 223.844 L
130.198 222.556 L
130.213 220.991 L
130.229 219.426 L
130.244 217.677 L
130.25 215.744 L
130.26 214.548 L
130.275 213.903 L
130.292 212.891 L
130.308 211.326 L
130.337 209.485 L
130.362 207.92 L
130.385 206.448 L
130.416 205.527 L
130.449 204.239 L
130.473 203.41 L
130.504 202.49 L
130.531 201.201 L
130.567 199.728 L
130.6 198.532 L
130.647 197.703 L
130.68 196.139 L
130.728 194.85 L
130.777 193.837 L
130.842 192.457 L
130.904 191.444 L
130.951 190.708 L
131.044 189.143 L
131.127 187.21 L
131.212 185.922 L
131.33 184.173 L
131.412 182.7 L
131.511 182.056 L
131.627 180.675 L
131.757 179.294 L
131.879 177.914 L
132.041 176.533 L
132.169 175.705 L
132.31 174.232 L
132.409 173.956 L
132.616 172.667 L
132.797 171.286 L
132.996 170.458 L
133.219 169.261 L
133.461 167.697 L
133.614 166.96 L
133.897 166.132 L
134.185 164.291 L
134.476 162.91 L
134.772 161.99 L
135.123 160.333 L
135.345 159.412 L
135.736 158.4 L
136.104 157.387 L
136.538 156.007 L
136.958 154.35 L
137.445 152.969 L
137.979 151.497 L
138.279 150.3 L
138.725 149.472 L
139.325 148.919 L
139.912 147.539 L
140.537 146.71 L
141.167 145.422 L
141.62 143.765 L
142.3 142.292 L
143.121 140.727 L
144.008 139.163 L
144.8 137.874 L
145.681 136.861 L
146.297 135.941 L
147.277 135.205 L
148.352 133.732 L
149.404 132.719 L
150.407 131.523 L
151.594 130.602 L
152.855 130.05 L
153.676 129.406 L
155.003 128.485 L
156.596 127.197 L
158.037 126 L
159.672 124.987 L
161.242 123.883 L
162.387 123.607 L
164.093 122.41 L
165.892 121.214 L
167.934 120.109 L
169.77 119.005 L
171.846 118.084 L
174.181 117.072 L
175.446 116.059 L
177.795 114.678 L
180.208 113.942 L
182.716 113.206 L
185.348 111.917 L
188.174 111.273 L
189.745 110.444 L
192.541 109.892 L
195.841 108.695 L
198.434 108.419 L
201.816 107.775 L
205.108 106.855 L
207.076 105.934 L
210.769 105.566 L
214.422 104.369 L
217.983 103.909 L
222.046 102.712 L
226.057 101.792 L
229.987 100.872 L
232.942 99.951 L
237.145 99.031 L
241.833 98.662 L
246.299 98.018 L
251.042 97.466 L
255.365 97.098 L
258.861 96.361 L
263.693 95.625 L
269.022 94.981 L
274.251 94.244 L
279.833 93.232 L
284.797 92.588 L
288.746 91.943 L
294.461 91.575 L
300.548 90.747 L
306.47 90.378 L
312.472 89.918 L
318.896 88.814 L
325.449 88.077 L
330.024 87.249 L
336.525 86.697 L
342.957 85.776 L
349.772 85.04 L
356.806 84.303 L
364.013 84.027 L
368.955 83.567 L
375.78 82.831 L
382.789 81.542 L
390.09 81.174 L
397.718 80.069 L
405.055 79.885 L
410.189 78.781 L
417.837 78.044 L
425.731 76.664 L
433.204 76.111 L
441.346 75.467 L
449.182 74.639 L
457.508 74.178 L
462.76 73.718 L
471.978 72.706 L
479.02 72.337 L
487.22 72.061 L
495.056 70.957 L
503.724 70.312 L
509.378 69.484 L
517.963 69.024 L
525.799 68.103 L
534.163 67.367 L
542.189 66.539 L
550.185 65.71 L
558.618 65.25 L
564.536 64.882 L
572.275 64.606 L
580.163 64.33 L
588.409 63.869 L
596.545 63.501 L
604.492 63.041 L
610.49 62.857 L
618.261 62.028 L
625.578 61.844 L
633.193 61.384 L
640.75 60.648 L
648.239 60.28 L
653.708 60.003 L
661.486 59.543 L
668.493 59.359 L
675.318 59.083 L
682.824 58.347 L
689.785 57.794 L
696.621 57.61 L
701.823 56.874 L
708.418 56.506 L
715.151 55.953 L
721.486 55.585 L
727.947 55.033 L
734.392 54.573 L
738.94 54.113 L
744.982 53.744 L
750.864 53.376 L
756.639 52.548 L
761.982 52.088 L
767.579 51.903 L
771.731 51.627 L
777.102 51.443 L
782.155 51.259 L
787.134 51.167 L
791.919 50.983 L
796.381 50.799 L
801.088 50.431 L
804.653 50.339 L
808.931 50.063 L
813.169 49.97 L
817.119 49.878 L
821.051 49.694 L
825.054 49.234 L
827.899 48.774 L
831.476 48.314 L
835.001 48.13 L
838.061 48.13 L
841.111 48.038 L
844.297 47.577 L
846.789 47.301 L
849.506 47.301 L
852.386 47.117 L
854.794 47.025 L
857.329 46.841 L
859.848 46.565 L
862.161 46.381 L
863.991 46.289 L
866.055 46.197 L
867.996 46.197 L
870.004 46.105 L
871.825 46.105 L
873.612 46.105 L
875.094 45.92 L
876.742 45.828 L
878.194 45.552 L
879.661 45.46 L
881.19 45.46 L
882.473 45.46 L
883.801 45.46 L
884.768 45.46 L
885.943 45.46 L
886.973 45.368 L
888.06 45.368 L
889.106 45.368 L
890.07 45.276 L
890.794 45.184 L
891.674 45.092 L
892.524 45.092 L
893.345 45.092 L
894.11 45.092 L
894.848 45.092 L
895.367 45.092 L
895.921 45.092 L
896.473 45.092 L
897.075 45.092 L
897.641 45.092 L
898.15 45.092 L
898.688 45.092 L
898.688 45.092 L
899.331 45.092 L
899.798 45 L
900.1 45 L
900.429 45 L
900.757 45 L
900.947 45 L
901.256 45 L
901.512 45 L
901.779 45 L
902.027 45 L
902.236 45 L
902.37 45 L
902.548 45 L
902.701 45 L
902.868 45 L
903.034 45 L
903.174 45 L
903.313 45 L
903.433 45 L
903.571 45 L
903.654 45 L
903.759 45 L
903.871 45 L
903.935 45 L
903.989 45 L
904.055 45 L
904.127 45 L
904.189 45 L
904.254 45 L
904.313 45 L
904.349 45 L
904.382 45 L
904.44 45 L
904.487 45 L
904.531 45 L
904.564 45 L
904.611 45 L
904.64 45 L
904.663 45 L
904.688 45 L
904.715 45 L
904.744 45 L
904.77 45 L
904.779 45 L
904.799 45 L
904.81 45 L
904.826 45 L
904.837 45 L
904.847 45 L
904.859 45 L
904.864 45 L
904.886 45 L
904.901 45 L
904.913 45 L
904.926 45 L
904.928 45 L
904.932 45 L
904.94 45 L
904.944 45 L
904.948 45 L
904.955 45 L
904.959 45 L
904.963 45 L
904.963 45 L
904.969 45 L
904.971 45 L
904.973 45 L
904.973 45 L
904.975 45 L
904.977 45 L
904.979 45 L
904.981 45 L
904.983 45 L
904.983 45 L
904.984 45 L
904.984 45 L
904.984 45 L
904.986 45 L
904.986 45 L
904.988 45 L
904.99 45 L
904.992 45 L
904.994 45 L
904.996 45 L
904.998 45 L
904.998 45 L
904.998 45 L
904.998 45 L
905 45 L
S
GR
GS
[1 0 0 1 440 224.82001] CT
/Helvetica 24 F
GS
[1 0 0 1 0 0] CT
0 8.5 moveto 
1 -1 scale
(EER line) t 
GR
GR
GS
[10 6] 0 setdash
2 LJ
0.5 LW
N
905 531 M
130 45 L
S
GR
GS
1 GC
N
897 523 M
897 401 L
213 401 L
213 523 L
cp
f
GR
GS
[1 0 0 1 250 417.5679] CT
/Helvetica 24 F
GS
[1 0 0 1 0 0] CT
0 8.5 moveto 
1 -1 scale
(original OSIRIS, EER = 28.68%) t 
GR
GR
GS
0 0 1 RC
1 LJ
2 LW
N
217 417.568 M
247 417.568 L
S
GR
GS
[1 0 0 1 250 447.1893] CT
/Helvetica 24 F
GS
[1 0 0 1 0 0] CT
0 8.5 moveto 
1 -1 scale
(IriCore, EER = 17.79%) t 
GR
GR
GS
0 1 0 RC
1 LJ
2 LW
N
217 447.189 M
247 447.189 L
S
GR
GS
[1 0 0 1 250 476.8107] CT
/Helvetica 24 F
GS
[1 0 0 1 0 0] CT
0 8.5 moveto 
1 -1 scale
(OSIRIS with new segmentation, EER = 14.59%) t 
GR
GR
GS
1 LJ
2 LW
N
217 476.811 M
247 476.811 L
S
GR
GS
[1 0 0 1 250 506.4321] CT
/Helvetica 24 F
GS
[1 0 0 1 0 0] CT
0 8.5 moveto 
1 -1 scale
(OSIRIS with new segmentation and filter set, EER = 11.88%) t 
GR
GR
GS
1 0 0 RC
1 LJ
2 LW
N
217 506.432 M
247 506.432 L
S
GR
GS
0.149 GC
10.0 ML
0.5 LW
N
213 523 M
213 401 L
897 401 L
897 523 L
cp
S
GR
%%Trailer
%%Pages: 1
%%EOF
