%!PS-Adobe-3.0 EPSF-3.0
%%Creator: (MATLAB, The Mathworks, Inc. Version 9.5.0.1049112 \(R2018b\) Update 3. Operating System: Mac OS X)
%%Title: ./ROCs_postmortem_new_60.eps
%%CreationDate: 2019-02-28T20:42:56
%%Pages: (atend)
%%BoundingBox:    61     5   907   587
%%LanguageLevel: 3
%%EndComments
%%BeginProlog
%%BeginResource: procset (Apache XML Graphics Std ProcSet) 1.2 0
%%Version: 1.2 0
%%Copyright: (Copyright 2001-2003,2010 The Apache Software Foundation. License terms: http://www.apache.org/licenses/LICENSE-2.0)
/bd{bind def}bind def
/ld{load def}bd
/GR/grestore ld
/GS/gsave ld
/RM/rmoveto ld
/C/curveto ld
/t/show ld
/L/lineto ld
/ML/setmiterlimit ld
/CT/concat ld
/f/fill ld
/N/newpath ld
/S/stroke ld
/CC/setcmykcolor ld
/A/ashow ld
/cp/closepath ld
/RC/setrgbcolor ld
/LJ/setlinejoin ld
/GC/setgray ld
/LW/setlinewidth ld
/M/moveto ld
/re {4 2 roll M
1 index 0 rlineto
0 exch rlineto
neg 0 rlineto
cp } bd
/_ctm matrix def
/_tm matrix def
/BT { _ctm currentmatrix pop matrix _tm copy pop 0 0 moveto } bd
/ET { _ctm setmatrix } bd
/iTm { _ctm setmatrix _tm concat } bd
/Tm { _tm astore pop iTm 0 0 moveto } bd
/ux 0.0 def
/uy 0.0 def
/F {
  /Tp exch def
  /Tf exch def
  Tf findfont Tp scalefont setfont
  /cf Tf def  /cs Tp def
} bd
/ULS {currentpoint /uy exch def /ux exch def} bd
/ULE {
  /Tcx currentpoint pop def
  gsave
  newpath
  cf findfont cs scalefont dup
  /FontMatrix get 0 get /Ts exch def /FontInfo get dup
  /UnderlinePosition get Ts mul /To exch def
  /UnderlineThickness get Ts mul /Tt exch def
  ux uy To add moveto  Tcx uy To add lineto
  Tt setlinewidth stroke
  grestore
} bd
/OLE {
  /Tcx currentpoint pop def
  gsave
  newpath
  cf findfont cs scalefont dup
  /FontMatrix get 0 get /Ts exch def /FontInfo get dup
  /UnderlinePosition get Ts mul /To exch def
  /UnderlineThickness get Ts mul /Tt exch def
  ux uy To add cs add moveto Tcx uy To add cs add lineto
  Tt setlinewidth stroke
  grestore
} bd
/SOE {
  /Tcx currentpoint pop def
  gsave
  newpath
  cf findfont cs scalefont dup
  /FontMatrix get 0 get /Ts exch def /FontInfo get dup
  /UnderlinePosition get Ts mul /To exch def
  /UnderlineThickness get Ts mul /Tt exch def
  ux uy To add cs 10 mul 26 idiv add moveto Tcx uy To add cs 10 mul 26 idiv add lineto
  Tt setlinewidth stroke
  grestore
} bd
/QT {
/Y22 exch store
/X22 exch store
/Y21 exch store
/X21 exch store
currentpoint
/Y21 load 2 mul add 3 div exch
/X21 load 2 mul add 3 div exch
/X21 load 2 mul /X22 load add 3 div
/Y21 load 2 mul /Y22 load add 3 div
/X22 load /Y22 load curveto
} bd
/SSPD {
dup length /d exch dict def
{
/v exch def
/k exch def
currentpagedevice k known {
/cpdv currentpagedevice k get def
v cpdv ne {
/upd false def
/nullv v type /nulltype eq def
/nullcpdv cpdv type /nulltype eq def
nullv nullcpdv or
{
/upd true def
} {
/sametype v type cpdv type eq def
sametype {
v type /arraytype eq {
/vlen v length def
/cpdvlen cpdv length def
vlen cpdvlen eq {
0 1 vlen 1 sub {
/i exch def
/obj v i get def
/cpdobj cpdv i get def
obj cpdobj ne {
/upd true def
exit
} if
} for
} {
/upd true def
} ifelse
} {
v type /dicttype eq {
v {
/dv exch def
/dk exch def
/cpddv cpdv dk get def
dv cpddv ne {
/upd true def
exit
} if
} forall
} {
/upd true def
} ifelse
} ifelse
} if
} ifelse
upd true eq {
d k v put
} if
} if
} if
} forall
d length 0 gt {
d setpagedevice
} if
} bd
/RE { % /NewFontName [NewEncodingArray] /FontName RE -
  findfont dup length dict begin
  {
    1 index /FID ne
    {def} {pop pop} ifelse
  } forall
  /Encoding exch def
  /FontName 1 index def
  currentdict definefont pop
  end
} bind def
%%EndResource
%%BeginResource: procset (Apache XML Graphics EPS ProcSet) 1.0 0
%%Version: 1.0 0
%%Copyright: (Copyright 2002-2003 The Apache Software Foundation. License terms: http://www.apache.org/licenses/LICENSE-2.0)
/BeginEPSF { %def
/b4_Inc_state save def         % Save state for cleanup
/dict_count countdictstack def % Count objects on dict stack
/op_count count 1 sub def      % Count objects on operand stack
userdict begin                 % Push userdict on dict stack
/showpage { } def              % Redefine showpage, { } = null proc
0 setgray 0 setlinecap         % Prepare graphics state
1 setlinewidth 0 setlinejoin
10 setmiterlimit [ ] 0 setdash newpath
/languagelevel where           % If level not equal to 1 then
{pop languagelevel             % set strokeadjust and
1 ne                           % overprint to their defaults.
{false setstrokeadjust false setoverprint
} if
} if
} bd
/EndEPSF { %def
count op_count sub {pop} repeat            % Clean up stacks
countdictstack dict_count sub {end} repeat
b4_Inc_state restore
} bd
%%EndResource
%FOPBeginFontDict
%%IncludeResource: font Courier-Oblique
%%IncludeResource: font Courier-BoldOblique
%%IncludeResource: font Courier-Bold
%%IncludeResource: font ZapfDingbats
%%IncludeResource: font Symbol
%%IncludeResource: font Helvetica
%%IncludeResource: font Helvetica-Oblique
%%IncludeResource: font Helvetica-Bold
%%IncludeResource: font Helvetica-BoldOblique
%%IncludeResource: font Times-Roman
%%IncludeResource: font Times-Italic
%%IncludeResource: font Times-Bold
%%IncludeResource: font Times-BoldItalic
%%IncludeResource: font Courier
%FOPEndFontDict
%%BeginResource: encoding WinAnsiEncoding
/WinAnsiEncoding [
/.notdef /.notdef /.notdef /.notdef /.notdef
/.notdef /.notdef /.notdef /.notdef /.notdef
/.notdef /.notdef /.notdef /.notdef /.notdef
/.notdef /.notdef /.notdef /.notdef /.notdef
/.notdef /.notdef /.notdef /.notdef /.notdef
/.notdef /.notdef /.notdef /.notdef /.notdef
/.notdef /.notdef /space /exclam /quotedbl
/numbersign /dollar /percent /ampersand /quotesingle
/parenleft /parenright /asterisk /plus /comma
/hyphen /period /slash /zero /one
/two /three /four /five /six
/seven /eight /nine /colon /semicolon
/less /equal /greater /question /at
/A /B /C /D /E
/F /G /H /I /J
/K /L /M /N /O
/P /Q /R /S /T
/U /V /W /X /Y
/Z /bracketleft /backslash /bracketright /asciicircum
/underscore /quoteleft /a /b /c
/d /e /f /g /h
/i /j /k /l /m
/n /o /p /q /r
/s /t /u /v /w
/x /y /z /braceleft /bar
/braceright /asciitilde /bullet /Euro /bullet
/quotesinglbase /florin /quotedblbase /ellipsis /dagger
/daggerdbl /circumflex /perthousand /Scaron /guilsinglleft
/OE /bullet /Zcaron /bullet /bullet
/quoteleft /quoteright /quotedblleft /quotedblright /bullet
/endash /emdash /asciitilde /trademark /scaron
/guilsinglright /oe /bullet /zcaron /Ydieresis
/space /exclamdown /cent /sterling /currency
/yen /brokenbar /section /dieresis /copyright
/ordfeminine /guillemotleft /logicalnot /sfthyphen /registered
/macron /degree /plusminus /twosuperior /threesuperior
/acute /mu /paragraph /middot /cedilla
/onesuperior /ordmasculine /guillemotright /onequarter /onehalf
/threequarters /questiondown /Agrave /Aacute /Acircumflex
/Atilde /Adieresis /Aring /AE /Ccedilla
/Egrave /Eacute /Ecircumflex /Edieresis /Igrave
/Iacute /Icircumflex /Idieresis /Eth /Ntilde
/Ograve /Oacute /Ocircumflex /Otilde /Odieresis
/multiply /Oslash /Ugrave /Uacute /Ucircumflex
/Udieresis /Yacute /Thorn /germandbls /agrave
/aacute /acircumflex /atilde /adieresis /aring
/ae /ccedilla /egrave /eacute /ecircumflex
/edieresis /igrave /iacute /icircumflex /idieresis
/eth /ntilde /ograve /oacute /ocircumflex
/otilde /odieresis /divide /oslash /ugrave
/uacute /ucircumflex /udieresis /yacute /thorn
/ydieresis
] def
%%EndResource
%FOPBeginFontReencode
/Courier-Oblique findfont
dup length dict begin
  {1 index /FID ne {def} {pop pop} ifelse} forall
  /Encoding WinAnsiEncoding def
  currentdict
end
/Courier-Oblique exch definefont pop
/Courier-BoldOblique findfont
dup length dict begin
  {1 index /FID ne {def} {pop pop} ifelse} forall
  /Encoding WinAnsiEncoding def
  currentdict
end
/Courier-BoldOblique exch definefont pop
/Courier-Bold findfont
dup length dict begin
  {1 index /FID ne {def} {pop pop} ifelse} forall
  /Encoding WinAnsiEncoding def
  currentdict
end
/Courier-Bold exch definefont pop
/Helvetica findfont
dup length dict begin
  {1 index /FID ne {def} {pop pop} ifelse} forall
  /Encoding WinAnsiEncoding def
  currentdict
end
/Helvetica exch definefont pop
/Helvetica-Oblique findfont
dup length dict begin
  {1 index /FID ne {def} {pop pop} ifelse} forall
  /Encoding WinAnsiEncoding def
  currentdict
end
/Helvetica-Oblique exch definefont pop
/Helvetica-Bold findfont
dup length dict begin
  {1 index /FID ne {def} {pop pop} ifelse} forall
  /Encoding WinAnsiEncoding def
  currentdict
end
/Helvetica-Bold exch definefont pop
/Helvetica-BoldOblique findfont
dup length dict begin
  {1 index /FID ne {def} {pop pop} ifelse} forall
  /Encoding WinAnsiEncoding def
  currentdict
end
/Helvetica-BoldOblique exch definefont pop
/Times-Roman findfont
dup length dict begin
  {1 index /FID ne {def} {pop pop} ifelse} forall
  /Encoding WinAnsiEncoding def
  currentdict
end
/Times-Roman exch definefont pop
/Times-Italic findfont
dup length dict begin
  {1 index /FID ne {def} {pop pop} ifelse} forall
  /Encoding WinAnsiEncoding def
  currentdict
end
/Times-Italic exch definefont pop
/Times-Bold findfont
dup length dict begin
  {1 index /FID ne {def} {pop pop} ifelse} forall
  /Encoding WinAnsiEncoding def
  currentdict
end
/Times-Bold exch definefont pop
/Times-BoldItalic findfont
dup length dict begin
  {1 index /FID ne {def} {pop pop} ifelse} forall
  /Encoding WinAnsiEncoding def
  currentdict
end
/Times-BoldItalic exch definefont pop
/Courier findfont
dup length dict begin
  {1 index /FID ne {def} {pop pop} ifelse} forall
  /Encoding WinAnsiEncoding def
  currentdict
end
/Courier exch definefont pop
%FOPEndFontReencode
%%EndProlog
%%Page: 1 1
%%PageBoundingBox: 0 0 1000 600
%%BeginPageSetup
[1 0 0 -1 0 600] CT
%%EndPageSetup
GS
1 GC
N
0 0 1000 600 re
f
GR
GS
1 GC
N
0 0 1000 600 re
f
GR
GS
1 GC
N
130 531 M
905 531 L
905 45 L
130 45 L
cp
f
GR
GS
0.873 GC
1 LJ
0.5 LW
N
130 531 M
130 45 L
S
GR
GS
0.873 GC
1 LJ
0.5 LW
N
285 531 M
285 45 L
S
GR
GS
0.873 GC
1 LJ
0.5 LW
N
440 531 M
440 45 L
S
GR
GS
0.873 GC
1 LJ
0.5 LW
N
595 531 M
595 45 L
S
GR
GS
0.873 GC
1 LJ
0.5 LW
N
750 531 M
750 45 L
S
GR
GS
0.873 GC
1 LJ
0.5 LW
N
905 531 M
905 45 L
S
GR
GS
0.873 GC
1 LJ
0.5 LW
N
905 531 M
130 531 L
S
GR
GS
0.873 GC
1 LJ
0.5 LW
N
905 433.8 M
130 433.8 L
S
GR
GS
0.873 GC
1 LJ
0.5 LW
N
905 336.6 M
130 336.6 L
S
GR
GS
0.873 GC
1 LJ
0.5 LW
N
905 239.4 M
130 239.4 L
S
GR
GS
0.873 GC
1 LJ
0.5 LW
N
905 142.2 M
130 142.2 L
S
GR
GS
0.873 GC
1 LJ
0.5 LW
N
905 45 M
130 45 L
S
GR
GS
0.149 GC
2 setlinecap
1 LJ
0.5 LW
N
130 531 M
905 531 L
S
GR
GS
0.149 GC
2 setlinecap
1 LJ
0.5 LW
N
130 45 M
905 45 L
S
GR
GS
0.149 GC
2 setlinecap
1 LJ
0.5 LW
N
130 531 M
130 523.25 L
S
GR
GS
0.149 GC
2 setlinecap
1 LJ
0.5 LW
N
285 531 M
285 523.25 L
S
GR
GS
0.149 GC
2 setlinecap
1 LJ
0.5 LW
N
440 531 M
440 523.25 L
S
GR
GS
0.149 GC
2 setlinecap
1 LJ
0.5 LW
N
595 531 M
595 523.25 L
S
GR
GS
0.149 GC
2 setlinecap
1 LJ
0.5 LW
N
750 531 M
750 523.25 L
S
GR
GS
0.149 GC
2 setlinecap
1 LJ
0.5 LW
N
905 531 M
905 523.25 L
S
GR
GS
0.149 GC
2 setlinecap
1 LJ
0.5 LW
N
130 45 M
130 52.75 L
S
GR
GS
0.149 GC
2 setlinecap
1 LJ
0.5 LW
N
285 45 M
285 52.75 L
S
GR
GS
0.149 GC
2 setlinecap
1 LJ
0.5 LW
N
440 45 M
440 52.75 L
S
GR
GS
0.149 GC
2 setlinecap
1 LJ
0.5 LW
N
595 45 M
595 52.75 L
S
GR
GS
0.149 GC
2 setlinecap
1 LJ
0.5 LW
N
750 45 M
750 52.75 L
S
GR
GS
0.149 GC
2 setlinecap
1 LJ
0.5 LW
N
905 45 M
905 52.75 L
S
GR
GS
[1 0 0 1 130 537.79999] CT
0.149 GC
/Helvetica 24 F
GS
[1 0 0 1 0 0] CT
-7 23 moveto 
1 -1 scale
(0) t 
GR
GR
GS
[1 0 0 1 285 537.79999] CT
0.149 GC
/Helvetica 24 F
GS
[1 0 0 1 0 0] CT
-17 23 moveto 
1 -1 scale
(0.2) t 
GR
GR
GS
[1 0 0 1 440 537.79999] CT
0.149 GC
/Helvetica 24 F
GS
[1 0 0 1 0 0] CT
-17 23 moveto 
1 -1 scale
(0.4) t 
GR
GR
GS
[1 0 0 1 595 537.79999] CT
0.149 GC
/Helvetica 24 F
GS
[1 0 0 1 0 0] CT
-17 23 moveto 
1 -1 scale
(0.6) t 
GR
GR
GS
[1 0 0 1 750 537.79999] CT
0.149 GC
/Helvetica 24 F
GS
[1 0 0 1 0 0] CT
-17 23 moveto 
1 -1 scale
(0.8) t 
GR
GR
GS
[1 0 0 1 905 537.79999] CT
0.149 GC
/Helvetica 24 F
GS
[1 0 0 1 0 0] CT
-7 23 moveto 
1 -1 scale
(1) t 
GR
GR
GS
[1 0 0 1 517.50037 567.79999] CT
0.149 GC
/Helvetica 26.4 F
GS
[1 0 0 1 0 0] CT
-103.5 26 moveto 
1 -1 scale
(False Match Rate) t 
GR
GR
GS
0.149 GC
2 setlinecap
1 LJ
0.5 LW
N
130 531 M
130 45 L
S
GR
GS
0.149 GC
2 setlinecap
1 LJ
0.5 LW
N
905 531 M
905 45 L
S
GR
GS
0.149 GC
2 setlinecap
1 LJ
0.5 LW
N
130 531 M
137.75 531 L
S
GR
GS
0.149 GC
2 setlinecap
1 LJ
0.5 LW
N
130 433.8 M
137.75 433.8 L
S
GR
GS
0.149 GC
2 setlinecap
1 LJ
0.5 LW
N
130 336.6 M
137.75 336.6 L
S
GR
GS
0.149 GC
2 setlinecap
1 LJ
0.5 LW
N
130 239.4 M
137.75 239.4 L
S
GR
GS
0.149 GC
2 setlinecap
1 LJ
0.5 LW
N
130 142.2 M
137.75 142.2 L
S
GR
GS
0.149 GC
2 setlinecap
1 LJ
0.5 LW
N
130 45 M
137.75 45 L
S
GR
GS
0.149 GC
2 setlinecap
1 LJ
0.5 LW
N
905 531 M
897.25 531 L
S
GR
GS
0.149 GC
2 setlinecap
1 LJ
0.5 LW
N
905 433.8 M
897.25 433.8 L
S
GR
GS
0.149 GC
2 setlinecap
1 LJ
0.5 LW
N
905 336.6 M
897.25 336.6 L
S
GR
GS
0.149 GC
2 setlinecap
1 LJ
0.5 LW
N
905 239.4 M
897.25 239.4 L
S
GR
GS
0.149 GC
2 setlinecap
1 LJ
0.5 LW
N
905 142.2 M
897.25 142.2 L
S
GR
GS
0.149 GC
2 setlinecap
1 LJ
0.5 LW
N
905 45 M
897.25 45 L
S
GR
GS
[1 0 0 1 123.2 531] CT
0.149 GC
/Helvetica 24 F
GS
[1 0 0 1 0 0] CT
-14 8.5 moveto 
1 -1 scale
(0) t 
GR
GR
GS
[1 0 0 1 123.2 433.79999] CT
0.149 GC
/Helvetica 24 F
GS
[1 0 0 1 0 0] CT
-34 8.5 moveto 
1 -1 scale
(0.2) t 
GR
GR
GS
[1 0 0 1 123.2 336.60001] CT
0.149 GC
/Helvetica 24 F
GS
[1 0 0 1 0 0] CT
-34 8.5 moveto 
1 -1 scale
(0.4) t 
GR
GR
GS
[1 0 0 1 123.2 239.39999] CT
0.149 GC
/Helvetica 24 F
GS
[1 0 0 1 0 0] CT
-34 8.5 moveto 
1 -1 scale
(0.6) t 
GR
GR
GS
[1 0 0 1 123.2 142.2] CT
0.149 GC
/Helvetica 24 F
GS
[1 0 0 1 0 0] CT
-34 8.5 moveto 
1 -1 scale
(0.8) t 
GR
GR
GS
[1 0 0 1 123.2 45] CT
0.149 GC
/Helvetica 24 F
GS
[1 0 0 1 0 0] CT
-14 8.5 moveto 
1 -1 scale
(1) t 
GR
GR
GS
[0 -1 1 0 86.2 287.99976] CT
0.149 GC
/Helvetica 26.4 F
GS
[1 0 0 1 0 0] CT
-153 -6 moveto 
1 -1 scale
(1 - False Non-Match Rate) t 
GR
GR
GS
[1 0 0 1 517.50049 38.40002] CT
/Helvetica-Bold 26.4 F
GS
[1 0 0 1 0 0] CT
-279.5 -6 moveto 
1 -1 scale
(Data acquired less than 60 hours after death) t 
GR
GR
GS
0 0 1 RC
1 LJ
2 LW
N
130 530.761 M
130 530.761 L
130 530.761 L
130 530.761 L
130 530.761 L
130 530.761 L
130 530.761 L
130 530.761 L
130 530.761 L
130 530.761 L
130 530.761 L
130 530.761 L
130 530.761 L
130 530.761 L
130 530.761 L
130 530.761 L
130 530.761 L
130 530.761 L
130 530.761 L
130 530.761 L
130 530.761 L
130 530.761 L
130 530.761 L
130 530.761 L
130 530.761 L
130 530.761 L
130 530.761 L
130 530.761 L
130 530.761 L
130 530.761 L
130 530.761 L
130 530.761 L
130 530.761 L
130 530.761 L
130 530.761 L
130 530.761 L
130 530.761 L
130 530.761 L
130 530.761 L
130 530.761 L
130 530.761 L
130 530.761 L
130 530.761 L
130 530.761 L
130 530.761 L
130 530.761 L
130 530.761 L
130 530.761 L
130 530.761 L
130 530.761 L
130 530.761 L
130 530.761 L
130 530.761 L
130 530.761 L
130 530.761 L
130 530.761 L
130 530.761 L
130 530.761 L
130 530.761 L
130 530.761 L
130 530.761 L
130 530.761 L
130 530.761 L
130 530.761 L
130 530.761 L
130 530.761 L
130 530.761 L
130 530.761 L
130 530.761 L
130 530.761 L
130 530.761 L
130 530.761 L
130 530.761 L
130 530.761 L
130 530.761 L
130 530.761 L
130 530.761 L
130 530.761 L
130 530.761 L
130 530.761 L
130 530.761 L
130 530.761 L
130 530.761 L
130 530.761 L
130 530.761 L
130 530.761 L
130 530.761 L
130 530.761 L
130 530.761 L
130 530.761 L
130 530.761 L
130 530.761 L
130 530.761 L
130 530.761 L
130 530.761 L
130 530.761 L
130 530.761 L
130 530.761 L
130 530.761 L
130 530.761 L
130 530.761 L
130 530.761 L
130 530.761 L
130 530.761 L
130 530.761 L
130 530.761 L
130 530.761 L
130 530.761 L
130 530.761 L
130 530.761 L
130 530.761 L
130 530.761 L
130 530.761 L
130 530.761 L
130 530.761 L
130 530.761 L
130 530.761 L
130 530.761 L
130 530.761 L
130 530.761 L
130 530.761 L
130 530.761 L
130 530.761 L
130 530.761 L
130 530.761 L
130 530.761 L
130 530.761 L
130 530.761 L
130 530.761 L
130 530.761 L
130 530.761 L
130 530.761 L
130 530.761 L
130 530.761 L
130 530.761 L
130 530.761 L
130 530.761 L
130 530.761 L
130 530.761 L
130 530.761 L
130 530.761 L
130 530.761 L
130 530.761 L
130 530.761 L
130 530.761 L
130 530.761 L
130 530.761 L
130 530.761 L
130 530.761 L
130 530.761 L
130 530.761 L
130 530.761 L
130 530.761 L
130 530.761 L
130 530.761 L
130 530.761 L
130 530.761 L
130 530.761 L
130 530.761 L
130 530.761 L
130 530.761 L
130 530.761 L
130 530.761 L
130 530.761 L
130 530.761 L
130 530.761 L
130 530.761 L
130 530.761 L
130 530.761 L
130 530.761 L
130 530.761 L
130 530.761 L
130 530.761 L
130 530.761 L
130 530.761 L
130 530.761 L
130 530.761 L
130 530.761 L
130 530.761 L
130 530.761 L
130 530.761 L
130 530.761 L
130 530.761 L
130 530.761 L
130 530.761 L
130 530.761 L
130 530.761 L
130 530.761 L
130 530.761 L
130 530.761 L
130 530.522 L
130 530.522 L
130 530.522 L
130 530.522 L
130 530.522 L
130 530.522 L
130 530.522 L
130 530.283 L
130 530.044 L
130 530.044 L
130 530.044 L
130 530.044 L
130 529.805 L
130 529.327 L
130 529.089 L
130 528.85 L
130 528.611 L
130 528.611 L
130 528.611 L
130 528.611 L
130 528.611 L
130 528.611 L
130 528.611 L
130 528.133 L
130 527.894 L
130 527.416 L
130 527.177 L
130 527.177 L
130 526.938 L
130 526.938 L
130 526.938 L
130 526.699 L
130 526.221 L
130 525.743 L
130 525.504 L
130 525.266 L
130 525.266 L
130 525.027 L
130 524.31 L
130 524.071 L
130 523.832 L
130 523.593 L
130 523.593 L
130 523.354 L
130 523.354 L
130 523.115 L
130 522.876 L
130 522.637 L
130 522.398 L
130 522.398 L
130 521.92 L
130 521.204 L
130 520.726 L
130 520.248 L
130 519.77 L
130 519.531 L
130 519.053 L
130 517.858 L
130 516.903 L
130 516.186 L
130 514.991 L
130 514.035 L
130 513.796 L
130 513.557 L
130 513.319 L
130 513.08 L
130 513.08 L
130 512.841 L
130 512.602 L
130 512.124 L
130 511.407 L
130 510.69 L
130 510.451 L
130 509.735 L
130 508.779 L
130 508.301 L
130 508.062 L
130 507.584 L
130 507.584 L
130 507.106 L
130 506.389 L
130 505.434 L
130 505.434 L
130 505.434 L
130 505.195 L
130 505.195 L
130 504.717 L
130 503.761 L
130 503.283 L
130 502.805 L
130 502.566 L
130 502.089 L
130 500.655 L
130 499.699 L
130 499.46 L
130 499.221 L
130 498.266 L
130 497.549 L
130 497.071 L
130 496.115 L
130 496.115 L
130 496.115 L
130 495.876 L
130 495.159 L
130 494.681 L
130 494.442 L
130 494.204 L
130 493.009 L
130 492.77 L
130 492.77 L
130 492.292 L
130 491.097 L
130 490.619 L
130 490.142 L
130 489.186 L
130 488.708 L
130 486.796 L
130 486.796 L
130 486.796 L
130 486.558 L
130 486.319 L
130 484.885 L
130 484.168 L
130 483.451 L
130 482.735 L
130 482.018 L
130 481.062 L
130 480.106 L
130 478.911 L
130 478.195 L
130 477.956 L
130 477.239 L
130 476.283 L
130 475.566 L
130 474.85 L
130 474.85 L
130 474.372 L
130 473.894 L
130 472.46 L
130 470.788 L
130 470.549 L
130 469.354 L
130 468.637 L
130 467.92 L
130 466.248 L
130 465.77 L
130 465.292 L
130 464.814 L
130 463.619 L
130 462.425 L
130 461.708 L
130 461.23 L
130 460.274 L
130 459.558 L
130 459.08 L
130 458.124 L
130 456.929 L
130 455.496 L
130 454.54 L
130 454.301 L
130 453.584 L
130 453.106 L
130 452.628 L
130 451.911 L
130 450.956 L
130 450.239 L
130 449.283 L
130.004 448.805 L
130.004 448.566 L
130.004 448.327 L
130.004 447.372 L
130.004 446.894 L
130.004 446.177 L
130.004 445.699 L
130.004 445.221 L
130.004 444.504 L
130.004 444.504 L
130.004 444.027 L
130.004 443.31 L
130.004 443.071 L
130.004 442.593 L
130.004 441.637 L
130.004 440.681 L
130.004 440.442 L
130.009 439.487 L
130.009 438.531 L
130.009 438.053 L
130.009 436.858 L
130.009 435.903 L
130.009 434.708 L
130.009 434.23 L
130.009 433.513 L
130.009 433.274 L
130.009 432.319 L
130.009 431.602 L
130.009 431.124 L
130.018 430.168 L
130.018 429.451 L
130.018 428.018 L
130.018 427.779 L
130.018 426.823 L
130.018 425.389 L
130.018 424.911 L
130.018 424.673 L
130.018 423.239 L
130.018 422.761 L
130.018 422.283 L
130.018 422.044 L
130.018 421.327 L
130.018 420.85 L
130.018 420.611 L
130.018 420.133 L
130.018 418.938 L
130.018 418.938 L
130.018 417.982 L
130.018 417.504 L
130.018 416.788 L
130.018 415.832 L
130.018 415.115 L
130.022 414.637 L
130.022 414.159 L
130.022 414.159 L
130.022 413.442 L
130.022 412.487 L
130.022 411.77 L
130.022 411.531 L
130.026 410.575 L
130.026 410.097 L
130.026 409.858 L
130.026 409.381 L
130.026 408.664 L
130.026 408.186 L
130.026 407.23 L
130.026 406.752 L
130.026 406.035 L
130.026 405.796 L
130.026 405.08 L
130.026 404.841 L
130.026 404.363 L
130.026 403.885 L
130.026 403.407 L
130.031 402.69 L
130.031 401.973 L
130.031 401.735 L
130.031 401.735 L
130.031 401.257 L
130.031 400.54 L
130.031 399.823 L
130.031 399.584 L
130.031 398.628 L
130.031 398.628 L
130.031 397.911 L
130.031 397.673 L
130.031 396.717 L
130.031 396.478 L
130.031 396.239 L
130.048 395.761 L
130.048 395.522 L
130.048 395.044 L
130.048 394.805 L
130.048 393.85 L
130.048 393.133 L
130.048 391.699 L
130.048 391.221 L
130.048 390.504 L
130.053 389.788 L
130.057 389.549 L
130.057 389.549 L
130.057 388.832 L
130.057 388.115 L
130.07 387.398 L
130.07 386.92 L
130.07 386.204 L
130.075 385.965 L
130.075 385.726 L
130.075 385.009 L
130.075 384.77 L
130.075 384.053 L
130.075 383.336 L
130.075 383.336 L
130.075 383.097 L
130.075 382.619 L
130.075 381.903 L
130.075 381.664 L
130.075 380.947 L
130.11 379.991 L
130.11 379.274 L
130.11 378.08 L
130.11 377.841 L
130.11 377.841 L
130.11 376.885 L
130.11 376.407 L
130.11 376.168 L
130.11 375.212 L
130.11 374.496 L
130.114 374.018 L
130.114 373.54 L
130.114 373.062 L
130.123 372.345 L
130.123 370.911 L
130.18 370.434 L
130.18 369.478 L
130.18 368.761 L
130.18 367.566 L
130.18 366.85 L
130.18 366.372 L
130.18 364.699 L
130.193 363.743 L
130.193 362.788 L
130.193 362.788 L
130.193 361.354 L
130.198 360.876 L
130.198 360.637 L
130.202 360.159 L
130.202 359.681 L
130.255 358.248 L
130.255 356.814 L
130.255 356.336 L
130.255 355.381 L
130.255 354.903 L
130.259 353.469 L
130.259 352.513 L
130.259 352.035 L
130.259 351.319 L
130.264 350.124 L
130.264 350.124 L
130.268 348.929 L
130.272 348.929 L
130.277 347.973 L
130.29 347.257 L
130.316 346.301 L
130.316 345.823 L
130.316 344.628 L
130.316 343.911 L
130.321 343.434 L
130.321 342.239 L
130.321 341.283 L
130.325 341.044 L
130.325 340.327 L
130.325 339.611 L
130.325 338.655 L
130.325 337.46 L
130.325 337.221 L
130.325 335.788 L
130.325 335.788 L
130.448 335.071 L
130.448 334.115 L
130.448 333.876 L
130.452 332.681 L
130.461 331.487 L
130.461 331.248 L
130.461 330.77 L
130.461 329.336 L
130.461 328.142 L
130.461 326.708 L
130.461 325.752 L
130.466 324.796 L
130.47 324.08 L
130.47 322.646 L
130.54 322.168 L
130.567 321.451 L
130.58 320.973 L
130.597 319.54 L
130.602 318.345 L
130.61 317.628 L
130.628 315.956 L
130.628 315.717 L
130.637 314.522 L
130.641 312.133 L
130.65 310.938 L
130.654 309.743 L
130.659 308.788 L
130.663 307.354 L
130.672 306.876 L
130.782 305.442 L
130.786 303.292 L
130.808 302.097 L
130.812 300.664 L
130.826 299.708 L
130.83 298.035 L
130.839 296.602 L
130.848 295.407 L
130.861 294.451 L
130.865 292.779 L
130.87 291.823 L
130.878 290.628 L
130.878 289.195 L
130.883 288.478 L
130.887 287.283 L
130.997 286.327 L
131.01 285.372 L
131.019 283.46 L
131.032 281.788 L
131.045 280.832 L
131.045 280.115 L
131.076 279.876 L
131.085 279.159 L
131.102 277.487 L
131.137 276.292 L
131.137 275.336 L
131.155 274.858 L
131.173 273.186 L
131.199 272.469 L
131.217 271.991 L
131.348 271.274 L
131.37 271.035 L
131.397 269.841 L
131.44 268.885 L
131.471 268.407 L
131.489 266.973 L
131.515 266.735 L
131.581 266.018 L
131.616 265.54 L
131.629 263.867 L
131.673 263.15 L
131.722 262.195 L
131.752 261.717 L
131.792 260.522 L
131.871 260.283 L
131.959 259.327 L
132.007 258.611 L
132.064 257.894 L
132.112 257.177 L
132.213 256.938 L
132.271 256.221 L
132.358 254.071 L
132.433 253.832 L
132.512 253.115 L
132.635 252.398 L
132.71 251.681 L
132.828 250.965 L
132.912 250.009 L
133.048 248.575 L
133.149 248.575 L
133.377 247.858 L
133.544 246.903 L
133.641 245.947 L
133.751 244.752 L
133.873 243.558 L
134.062 243.319 L
134.273 242.363 L
134.458 241.646 L
134.646 240.929 L
134.857 240.212 L
135.007 239.496 L
135.292 239.018 L
135.494 238.54 L
135.81 237.345 L
136.153 235.673 L
136.487 234.239 L
136.754 232.566 L
137.115 231.611 L
137.413 230.894 L
137.738 229.938 L
138.046 228.982 L
138.441 228.504 L
138.871 227.788 L
139.227 226.832 L
139.671 225.159 L
140.101 224.204 L
140.566 223.248 L
140.97 222.053 L
141.497 220.858 L
142.121 219.903 L
142.666 218.469 L
143.351 217.752 L
143.944 216.08 L
144.559 215.841 L
145.27 213.929 L
145.981 212.257 L
146.772 211.779 L
147.641 211.301 L
148.555 210.345 L
149.543 210.106 L
150.492 209.628 L
151.467 209.389 L
152.63 208.434 L
153.605 207 L
154.831 205.566 L
156.096 204.611 L
157.259 203.416 L
158.476 201.504 L
159.745 201.265 L
161.221 200.31 L
162.485 199.115 L
164.075 198.159 L
165.476 197.681 L
167.154 197.442 L
168.928 196.965 L
170.527 196.248 L
172.318 194.814 L
174.246 193.142 L
176.258 192.186 L
178.309 190.991 L
180.465 190.513 L
182.766 189.319 L
184.993 189.08 L
187.47 188.363 L
190.087 187.885 L
192.516 186.929 L
195.177 185.735 L
197.931 185.496 L
200.702 184.301 L
203.539 183.345 L
206.67 182.15 L
209.644 181.195 L
212.946 180.239 L
216.187 180 L
219.714 179.522 L
222.986 178.327 L
226.565 177.611 L
230.298 176.655 L
234.079 175.938 L
238.097 174.982 L
241.852 174.743 L
246.161 173.788 L
250.377 172.115 L
254.935 171.398 L
259.103 170.442 L
263.495 170.204 L
268.348 169.487 L
273.13 168.292 L
278.238 168.053 L
283.49 167.336 L
288.383 165.425 L
293.92 164.23 L
299.169 163.513 L
304.601 162.08 L
310.315 160.885 L
315.835 160.168 L
321.193 159.69 L
326.915 158.734 L
332.835 158.496 L
338.975 158.018 L
344.719 157.062 L
351.14 156.345 L
357.416 156.106 L
363.902 155.867 L
370.384 154.673 L
376.625 153.717 L
382.804 152.522 L
389.484 152.283 L
396.269 150.85 L
403.169 150.372 L
409.897 149.416 L
416.159 148.221 L
423.528 146.788 L
430.142 145.593 L
437.512 144.876 L
444.683 144.398 L
451.486 143.204 L
458.741 141.531 L
465.908 140.814 L
472.962 139.619 L
479.637 138.664 L
486.725 137.947 L
494.024 137.23 L
501.003 136.274 L
507.23 136.035 L
514.591 135.558 L
521.283 135.558 L
527.88 134.363 L
534.823 132.929 L
541.556 131.735 L
548.411 130.062 L
555.293 128.867 L
561.577 127.912 L
568.398 127.673 L
574.871 126.956 L
581.432 125.761 L
587.708 125.522 L
593.87 125.044 L
600.299 124.089 L
606.219 123.611 L
612.424 122.416 L
618.41 121.938 L
624.677 121.46 L
630.242 121.221 L
635.542 121.221 L
641.067 120.504 L
646.144 120.265 L
651.348 119.071 L
656.451 118.832 L
661.458 118.832 L
666.324 117.876 L
671.234 116.442 L
675.788 116.204 L
680.54 116.204 L
684.765 115.965 L
689.293 115.487 L
693.355 115.487 L
697.417 114.77 L
701.471 114.531 L
705.419 114.053 L
709.042 113.575 L
712.995 112.858 L
716.666 111.903 L
720.039 111.425 L
723.289 111.425 L
726.569 110.947 L
729.929 109.752 L
733.131 109.035 L
736.266 108.558 L
739.354 107.841 L
742.16 107.602 L
744.909 107.363 L
747.325 107.363 L
749.613 107.124 L
751.901 106.646 L
754.189 106.646 L
756.148 106.646 L
757.557 106.646 L
858.492 50.257 L
860.609 50.018 L
862.523 49.54 L
864.276 49.301 L
865.98 49.062 L
867.868 48.345 L
869.44 47.867 L
871.096 47.867 L
872.572 47.867 L
874.008 47.867 L
875.29 47.628 L
876.669 47.628 L
877.995 47.628 L
879.229 47.628 L
880.314 47.628 L
881.469 47.628 L
882.462 47.628 L
883.494 47.389 L
884.412 47.15 L
885.343 46.912 L
886.225 46.912 L
887.064 46.912 L
887.934 46.912 L
888.716 46.912 L
889.471 46.912 L
890.147 46.912 L
890.933 46.673 L
891.561 46.434 L
892.163 46.434 L
892.734 46.434 L
893.261 46.195 L
893.775 45.956 L
894.311 45.717 L
894.759 45.717 L
895.189 45.717 L
895.518 45.717 L
895.962 45.717 L
896.392 45.717 L
896.809 45.717 L
897.214 45.717 L
897.512 45.717 L
897.859 45.717 L
898.109 45.717 L
898.342 45.717 L
898.658 45.717 L
898.939 45.717 L
899.155 45.717 L
899.401 45.717 L
899.66 45.717 L
899.831 45.717 L
900.055 45.717 L
900.261 45.717 L
900.49 45.717 L
900.67 45.717 L
900.802 45.717 L
900.973 45.717 L
901.153 45.478 L
901.293 45.478 L
901.456 45.478 L
901.605 45.478 L
901.772 45.478 L
901.895 45.478 L
902.027 45.478 L
902.115 45.478 L
902.242 45.478 L
902.347 45.478 L
902.448 45.478 L
902.589 45.478 L
902.655 45.478 L
902.769 45.478 L
902.91 45.478 L
903.002 45.239 L
903.09 45 L
903.213 45 L
903.292 45 L
903.327 45 L
903.397 45 L
903.502 45 L
903.564 45 L
903.643 45 L
903.691 45 L
903.744 45 L
903.801 45 L
903.832 45 L
903.893 45 L
903.933 45 L
903.955 45 L
904.012 45 L
904.047 45 L
904.117 45 L
904.157 45 L
904.201 45 L
904.258 45 L
904.319 45 L
904.346 45 L
904.407 45 L
904.425 45 L
904.46 45 L
904.477 45 L
904.504 45 L
904.526 45 L
904.552 45 L
904.561 45 L
904.57 45 L
904.596 45 L
904.614 45 L
904.64 45 L
904.666 45 L
904.684 45 L
904.701 45 L
904.728 45 L
904.732 45 L
904.745 45 L
904.754 45 L
904.758 45 L
904.763 45 L
904.763 45 L
904.776 45 L
904.78 45 L
904.78 45 L
904.785 45 L
904.802 45 L
904.824 45 L
904.829 45 L
904.837 45 L
904.846 45 L
904.855 45 L
904.859 45 L
904.864 45 L
904.868 45 L
904.868 45 L
904.873 45 L
904.881 45 L
904.89 45 L
904.895 45 L
904.895 45 L
904.899 45 L
904.912 45 L
904.917 45 L
904.921 45 L
904.921 45 L
904.921 45 L
904.925 45 L
904.934 45 L
904.934 45 L
904.939 45 L
904.939 45 L
904.939 45 L
904.947 45 L
904.947 45 L
904.952 45 L
904.956 45 L
904.956 45 L
904.956 45 L
904.956 45 L
904.96 45 L
904.96 45 L
904.96 45 L
904.96 45 L
904.96 45 L
904.965 45 L
904.965 45 L
904.965 45 L
904.965 45 L
904.965 45 L
904.965 45 L
904.965 45 L
904.969 45 L
904.974 45 L
904.974 45 L
904.978 45 L
904.987 45 L
904.987 45 L
904.987 45 L
904.987 45 L
904.987 45 L
904.987 45 L
904.987 45 L
904.987 45 L
904.987 45 L
904.987 45 L
904.987 45 L
904.987 45 L
904.991 45 L
904.991 45 L
904.991 45 L
904.991 45 L
904.991 45 L
904.991 45 L
904.991 45 L
904.991 45 L
904.991 45 L
904.991 45 L
904.996 45 L
904.996 45 L
904.996 45 L
904.996 45 L
904.996 45 L
905 45 L
S
GR
GS
0 1 0 RC
1 LJ
2 LW
N
130 530.761 M
130 530.761 L
130 530.761 L
130 530.761 L
130 530.761 L
130 530.761 L
130 530.761 L
130 530.761 L
130 530.761 L
130 530.761 L
130 530.761 L
130 530.761 L
130 530.761 L
130 530.761 L
130 530.761 L
130 530.761 L
130 530.761 L
130 530.761 L
130 530.761 L
130 530.761 L
130 530.761 L
130 530.761 L
130 530.761 L
130 530.761 L
130 530.761 L
130 530.761 L
130 530.761 L
130 530.761 L
130 530.761 L
130 530.761 L
130 530.761 L
130 530.761 L
130 530.761 L
130 530.761 L
130 530.761 L
130 530.761 L
130 530.761 L
130 530.761 L
130 530.761 L
130 530.761 L
130 530.761 L
130 530.761 L
130 530.761 L
130 530.761 L
130 530.761 L
130 530.761 L
130 530.761 L
130 530.761 L
130 530.761 L
130 530.761 L
130 530.761 L
130 530.761 L
130 530.761 L
130 530.761 L
130 530.761 L
130 530.761 L
130 530.761 L
130 530.761 L
130 530.761 L
130 530.761 L
130 530.761 L
130 530.761 L
130 530.761 L
130 530.761 L
130 530.761 L
130 530.761 L
130 530.761 L
130 530.761 L
130 530.761 L
130 530.761 L
130 530.761 L
130 530.761 L
130 530.761 L
130 530.761 L
130 530.761 L
130 530.761 L
130 530.761 L
130 530.761 L
130 530.761 L
130 530.761 L
130 530.761 L
130 530.761 L
130 530.761 L
130 530.761 L
130 530.761 L
130 530.761 L
130 530.761 L
130 530.761 L
130 530.761 L
130 530.761 L
130 530.761 L
130 530.761 L
130 530.761 L
130 530.761 L
130 530.761 L
130 530.761 L
130 530.761 L
130 530.761 L
130 530.761 L
130 530.761 L
130 530.761 L
130 530.761 L
130 530.761 L
130 530.761 L
130 530.761 L
130 530.761 L
130 530.761 L
130 530.761 L
130 530.761 L
130 530.761 L
130 530.761 L
130 530.761 L
130 530.761 L
130 530.761 L
130 530.761 L
130 530.761 L
130 530.761 L
130 530.761 L
130 530.761 L
130 530.761 L
130 530.761 L
130 530.761 L
130 530.761 L
130 530.761 L
130 530.761 L
130 530.761 L
130 530.761 L
130 530.761 L
130 530.761 L
130 530.761 L
130 530.761 L
130 530.761 L
130 530.761 L
130 530.761 L
130 530.761 L
130 530.761 L
130 530.761 L
130 530.761 L
130 530.761 L
130 530.761 L
130 530.761 L
130 530.761 L
130 530.761 L
130 530.761 L
130 530.761 L
130 530.761 L
130 530.761 L
130 530.761 L
130 530.761 L
130 530.761 L
130 530.761 L
130 530.761 L
130 530.761 L
130 530.761 L
130 530.761 L
130 530.761 L
130 530.761 L
130 530.761 L
130 530.761 L
130 530.761 L
130 530.761 L
130 530.761 L
130 530.761 L
130 530.761 L
130 530.761 L
130 530.761 L
130 530.761 L
130 530.761 L
130 530.761 L
130 530.522 L
130 530.522 L
130 530.522 L
130 530.522 L
130 530.522 L
130 530.522 L
130 530.522 L
130 530.522 L
130 530.522 L
130 530.522 L
130 530.522 L
130 530.522 L
130 530.522 L
130 530.522 L
130 530.522 L
130 530.522 L
130 530.522 L
130 530.522 L
130 530.522 L
130 530.522 L
130 530.522 L
130 530.283 L
130 530.283 L
130 530.283 L
130 530.283 L
130 529.805 L
130 529.805 L
130 529.805 L
130 529.805 L
130 529.805 L
130 529.805 L
130 529.805 L
130 529.805 L
130 529.805 L
130 529.566 L
130 529.327 L
130 528.85 L
130 528.611 L
130 528.133 L
130 528.133 L
130 527.655 L
130 527.655 L
130 527.655 L
130 527.655 L
130 527.416 L
130 527.416 L
130 526.938 L
130 526.938 L
130 526.46 L
130 526.46 L
130 526.46 L
130 525.982 L
130 525.743 L
130 525.743 L
130 525.266 L
130 524.788 L
130 524.549 L
130 524.549 L
130 524.31 L
130 523.832 L
130 523.832 L
130 523.354 L
130 521.92 L
130 520.965 L
130 520.726 L
130 520.487 L
130 520.487 L
130 519.77 L
130 519.531 L
130 518.814 L
130 518.336 L
130 517.619 L
130 516.903 L
130 516.903 L
130 516.425 L
130 515.708 L
130 515.23 L
130 514.752 L
130 514.752 L
130 514.274 L
130 513.796 L
130 513.557 L
130 513.08 L
130 512.841 L
130 512.363 L
130 511.885 L
130 511.168 L
130 509.735 L
130 509.018 L
130 508.54 L
130 507.584 L
130 506.628 L
130 505.434 L
130 504.478 L
130 504 L
130 503.044 L
130 503.044 L
130 502.566 L
130 502.089 L
130 501.133 L
130 499.938 L
130 499.46 L
130 498.266 L
130 496.354 L
130 496.115 L
130 494.681 L
130 493.248 L
130 492.531 L
130 492.053 L
130 491.336 L
130 490.142 L
130 489.425 L
130 488.708 L
130 487.513 L
130 486.558 L
130 485.841 L
130 485.124 L
130 484.646 L
130 483.929 L
130 482.973 L
130 482.257 L
130 481.54 L
130 479.628 L
130 478.911 L
130 477.956 L
130 476.761 L
130 475.566 L
130 474.133 L
130 471.982 L
130 471.265 L
130 471.027 L
130 470.549 L
130 469.832 L
130 469.354 L
130 468.876 L
130 467.681 L
130 466.487 L
130 464.814 L
130 462.903 L
130 460.752 L
130 460.035 L
130 459.319 L
130 457.646 L
130 456.212 L
130 455.496 L
130 455.496 L
130 455.018 L
130 453.823 L
130 453.106 L
130 453.106 L
130 452.628 L
130 451.911 L
130 450.478 L
130 449.761 L
130 448.089 L
130 446.177 L
130 444.982 L
130 443.788 L
130 443.549 L
130 442.832 L
130 440.681 L
130 439.009 L
130 438.292 L
130 436.619 L
130 435.425 L
130 434.708 L
130 433.991 L
130 433.274 L
130 431.602 L
130 431.363 L
130 429.451 L
130 427.062 L
130 427.062 L
130 426.345 L
130 424.911 L
130 424.195 L
130 422.522 L
130 421.805 L
130 421.089 L
130 420.611 L
130 419.416 L
130 417.743 L
130 417.265 L
130 416.549 L
130 415.115 L
130 414.637 L
130 413.442 L
130 412.487 L
130 411.053 L
130 410.814 L
130 409.381 L
130 408.425 L
130 406.513 L
130 405.796 L
130 404.602 L
130 403.646 L
130 401.973 L
130 401.496 L
130 401.018 L
130 400.54 L
130 399.584 L
130 397.911 L
130 396.478 L
130 395.283 L
130 394.566 L
130 393.372 L
130 392.894 L
130 391.699 L
130 390.982 L
130 389.788 L
130 388.593 L
130 386.442 L
130 385.009 L
130 383.336 L
130 381.903 L
130 380.469 L
130 379.513 L
130 377.124 L
130 376.885 L
130 374.973 L
130 374.018 L
130 372.823 L
130 371.389 L
130 369.956 L
130 368.761 L
130 368.044 L
130 367.566 L
130 366.372 L
130 364.221 L
130 363.266 L
130 362.788 L
130 361.593 L
130 360.159 L
130 359.442 L
130 357.531 L
130 356.097 L
130 354.664 L
130 353.947 L
130 353.469 L
130 353.469 L
130 352.035 L
130 350.602 L
130 349.885 L
130 348.212 L
130 347.735 L
130 347.257 L
130 347.018 L
130 345.823 L
130 344.867 L
130 344.15 L
130 343.673 L
130 342.717 L
130 341.761 L
130 341.283 L
130 339.85 L
130 338.894 L
130 337.938 L
130 337.221 L
130 336.504 L
130 336.027 L
130 335.31 L
130 334.354 L
130 334.115 L
130 334.115 L
130 333.398 L
130 331.965 L
130 329.814 L
130 328.858 L
130 327.903 L
130 326.947 L
130 325.991 L
130 325.513 L
130 324.08 L
130 323.841 L
130 322.407 L
130 321.69 L
130 320.496 L
130 319.062 L
130 318.584 L
130 317.628 L
130 316.673 L
130 315.239 L
130 314.522 L
130 313.805 L
130 312.85 L
130 311.894 L
130 310.699 L
130 309.504 L
130 308.071 L
130 306.876 L
130 305.204 L
130 304.248 L
130 304.009 L
130 301.858 L
130 301.381 L
130 300.903 L
130 300.186 L
130 299.23 L
130 298.991 L
130 297.796 L
130 296.602 L
130 296.124 L
130 294.69 L
130 293.257 L
130 291.823 L
130 290.15 L
130 289.195 L
130 287.522 L
130 285.85 L
130 285.133 L
130 284.416 L
130 283.699 L
130 282.743 L
130 282.266 L
130 280.593 L
130 279.398 L
130 277.487 L
130 276.292 L
130 275.336 L
130 275.097 L
130 273.425 L
130 272.947 L
130 271.752 L
130 270.558 L
130 270.558 L
130 268.885 L
130 266.257 L
130 264.584 L
130 263.628 L
130 262.434 L
130 261.478 L
130 259.088 L
130 257.655 L
130 256.938 L
130 256.938 L
130 255.982 L
130 254.549 L
130 251.92 L
130 249.531 L
130 246.903 L
130 245.708 L
130 244.274 L
130 242.602 L
130 240.929 L
130 239.496 L
130 237.584 L
130 235.434 L
130 234.717 L
130 232.805 L
130 230.416 L
130 229.221 L
130 228.027 L
130 225.876 L
130 224.204 L
130 222.77 L
130.004 219.903 L
130.004 218.469 L
130.004 216.558 L
130.004 213.929 L
130.004 212.257 L
130.004 210.584 L
130.004 208.195 L
130.004 205.566 L
130.004 202.699 L
130.004 200.549 L
130.004 198.637 L
130.009 196.965 L
130.013 195.053 L
130.018 193.381 L
130.018 190.991 L
130.018 189.08 L
130.018 188.602 L
130.022 186.212 L
130.04 184.779 L
130.044 182.15 L
130.048 179.522 L
130.053 178.089 L
130.066 176.416 L
130.066 175.221 L
130.066 172.593 L
130.079 171.159 L
130.083 169.009 L
130.097 167.575 L
130.105 166.142 L
130.114 165.903 L
130.127 165.186 L
130.145 164.23 L
130.176 163.274 L
130.215 162.08 L
130.237 160.646 L
130.264 159.451 L
130.329 156.823 L
130.373 156.106 L
130.4 155.15 L
130.492 153.717 L
130.553 153 L
130.593 152.044 L
130.659 149.655 L
130.733 147.982 L
130.812 147.265 L
130.931 146.549 L
131.032 145.832 L
131.195 145.115 L
131.339 142.726 L
131.511 140.814 L
131.682 140.336 L
131.91 138.903 L
132.152 136.513 L
132.398 135.796 L
132.635 135.558 L
132.986 134.602 L
133.408 132.451 L
133.834 130.301 L
134.26 129.345 L
134.774 128.389 L
135.288 127.434 L
135.727 126.956 L
136.306 126 L
136.996 125.044 L
137.646 124.327 L
138.379 123.133 L
139.245 121.699 L
140.026 120.504 L
140.927 119.788 L
141.866 118.832 L
142.876 118.115 L
143.838 117.159 L
145.05 116.681 L
146.131 115.487 L
147.382 115.009 L
148.524 115.009 L
149.908 113.336 L
151.177 113.097 L
152.679 112.619 L
154.08 111.903 L
155.428 111.664 L
156.662 111.425 L
158.133 110.708 L
159.49 110.23 L
160.913 109.752 L
162.384 109.274 L
163.684 108.558 L
165.138 108.319 L
166.416 108.08 L
167.777 107.602 L
169.161 106.885 L
170.505 106.646 L
171.849 106.168 L
172.819 105.929 L
173.939 105.212 L
174.993 105.212 L
175.88 104.735 L
176.798 104.496 L
177.716 104.257 L
178.607 104.018 L
179.407 104.018 L
180.136 104.018 L
180.816 103.779 L
181.528 103.54 L
182.195 103.54 L
182.727 103.54 L
183.267 103.54 L
183.781 103.062 L
184.194 103.062 L
184.593 103.062 L
184.931 102.823 L
185.208 102.584 L
185.524 102.584 L
185.775 102.345 L
186.016 102.345 L
186.218 102.106 L
186.442 102.106 L
186.609 102.106 L
186.723 102.106 L
186.837 102.106 L
186.956 102.106 L
187.101 102.106 L
187.206 102.106 L
187.268 102.106 L
187.321 102.106 L
187.4 102.106 L
187.426 102.106 L
187.452 102.106 L
187.492 102.106 L
187.518 102.106 L
187.536 102.106 L
187.566 102.106 L
187.61 102.106 L
187.624 102.106 L
187.646 102.106 L
187.654 102.106 L
187.663 102.106 L
187.676 102.106 L
187.676 102.106 L
191.567 100.434 L
196.126 99.478 L
201.058 98.044 L
206.099 97.327 L
211.343 95.894 L
216.732 94.46 L
222.524 93.027 L
228.387 92.788 L
234.812 92.071 L
241.281 91.354 L
248.277 90.637 L
255.006 89.92 L
262.177 89.442 L
269.45 89.204 L
276.999 87.77 L
284.667 87.292 L
291.927 87.292 L
299.103 86.336 L
305.51 86.097 L
312.146 85.619 L
318.391 84.903 L
324.219 84.664 L
329.142 84.186 L
333.516 83.947 L
336.959 83.708 L
340.011 83.708 L
342.348 83.708 L
344.355 83.708 L
345.813 83.708 L
346.748 83.708 L
347.42 83.708 L
347.89 83.708 L
348.083 83.708 L
348.233 83.708 L
348.303 83.708 L
348.342 83.708 L
348.356 83.708 L
348.36 83.708 L
348.364 83.708 L
348.364 83.708 L
348.364 83.708 L
348.364 83.708 L
348.364 83.708 L
348.364 83.708 L
348.364 83.708 L
348.364 83.708 L
348.364 83.708 L
348.364 83.708 L
348.364 83.708 L
348.364 83.708 L
348.364 83.708 L
348.364 83.708 L
348.364 83.708 L
348.364 83.708 L
348.364 83.708 L
348.364 83.708 L
348.364 83.708 L
348.364 83.708 L
348.364 83.708 L
348.364 83.708 L
348.364 83.708 L
348.364 83.708 L
348.364 83.708 L
348.364 83.708 L
348.364 83.708 L
348.364 83.708 L
348.364 83.708 L
348.364 83.708 L
348.364 83.708 L
348.364 83.708 L
348.364 83.708 L
348.364 83.708 L
348.364 83.708 L
348.364 83.708 L
348.364 83.708 L
348.364 83.708 L
348.364 83.708 L
348.364 83.708 L
348.364 83.708 L
348.364 83.708 L
348.364 83.708 L
348.364 83.708 L
348.364 83.708 L
348.364 83.708 L
348.364 83.708 L
348.364 83.708 L
348.364 83.708 L
348.364 83.708 L
348.364 83.708 L
348.364 83.708 L
348.364 83.708 L
348.364 83.708 L
348.364 83.708 L
348.364 83.708 L
348.364 83.708 L
348.364 83.708 L
348.364 83.708 L
348.364 83.708 L
348.364 83.708 L
348.364 83.708 L
348.364 83.708 L
348.364 83.708 L
348.364 83.708 L
348.364 83.708 L
348.364 83.708 L
348.364 83.708 L
348.364 83.708 L
348.364 83.708 L
348.364 83.708 L
348.364 83.708 L
348.364 83.708 L
348.364 83.708 L
348.364 83.708 L
348.364 83.708 L
348.364 83.708 L
348.364 83.708 L
348.364 83.708 L
348.364 83.708 L
348.364 83.708 L
348.364 83.708 L
348.364 83.708 L
348.364 83.708 L
348.364 83.708 L
348.364 83.708 L
348.364 83.708 L
348.364 83.708 L
348.364 83.708 L
348.364 83.708 L
348.364 83.708 L
348.364 83.708 L
348.364 83.708 L
348.364 83.708 L
348.364 83.708 L
348.364 83.708 L
348.364 83.708 L
348.364 83.708 L
348.364 83.708 L
348.364 83.708 L
348.364 83.708 L
348.364 83.708 L
348.364 83.708 L
348.364 83.708 L
348.364 83.708 L
348.364 83.708 L
348.364 83.708 L
348.364 83.708 L
348.364 83.708 L
348.364 83.708 L
348.364 83.708 L
348.364 83.708 L
348.364 83.708 L
348.364 83.708 L
348.364 83.708 L
348.364 83.708 L
348.364 83.708 L
348.364 83.708 L
348.364 83.708 L
348.364 83.708 L
348.364 83.708 L
348.364 83.708 L
348.364 83.708 L
348.364 83.708 L
348.364 83.708 L
348.364 83.708 L
348.364 83.708 L
348.364 83.708 L
348.364 83.708 L
348.364 83.708 L
348.364 83.708 L
348.364 83.708 L
348.364 83.708 L
348.364 83.708 L
348.364 83.708 L
348.364 83.708 L
348.364 83.708 L
348.364 83.708 L
348.364 83.708 L
348.364 83.708 L
348.364 83.708 L
348.364 83.708 L
348.364 83.708 L
348.364 83.708 L
348.364 83.708 L
348.364 83.708 L
348.364 83.708 L
348.364 83.708 L
348.364 83.708 L
348.364 83.708 L
348.364 83.708 L
348.364 83.708 L
348.364 83.708 L
348.364 83.708 L
348.364 83.708 L
348.364 83.708 L
348.364 83.708 L
348.364 83.708 L
348.364 83.708 L
348.364 83.708 L
348.364 83.708 L
348.364 83.708 L
348.364 83.708 L
348.364 83.708 L
348.364 83.708 L
348.364 83.708 L
348.364 83.708 L
348.364 83.708 L
348.364 83.708 L
348.364 83.708 L
348.364 83.708 L
348.364 83.708 L
348.364 83.708 L
348.364 83.708 L
348.364 83.708 L
348.364 83.708 L
348.364 83.708 L
348.364 83.708 L
348.364 83.708 L
348.364 83.708 L
348.364 83.708 L
348.364 83.708 L
348.364 83.708 L
348.364 83.708 L
348.364 83.708 L
348.364 83.708 L
348.364 83.708 L
348.364 83.708 L
348.364 83.708 L
348.364 83.708 L
348.364 83.708 L
348.364 83.708 L
348.364 83.708 L
348.364 83.708 L
348.364 83.708 L
348.364 83.708 L
348.364 83.708 L
348.364 83.708 L
348.364 83.708 L
348.364 83.708 L
348.364 83.708 L
348.364 83.708 L
348.364 83.708 L
348.364 83.708 L
348.364 83.708 L
348.364 83.708 L
348.364 83.708 L
348.364 83.708 L
348.364 83.708 L
348.364 83.708 L
348.364 83.708 L
348.364 83.708 L
348.364 83.708 L
348.364 83.708 L
348.364 83.708 L
348.364 83.708 L
348.364 83.708 L
348.364 83.708 L
348.364 83.708 L
348.364 83.708 L
348.364 83.708 L
348.364 83.708 L
348.364 83.708 L
348.364 83.708 L
348.364 83.708 L
348.364 83.708 L
348.364 83.708 L
348.364 83.708 L
348.364 83.708 L
348.364 83.708 L
348.364 83.708 L
348.364 83.708 L
348.364 83.708 L
348.364 83.708 L
348.364 83.708 L
348.364 83.708 L
348.364 83.708 L
348.364 83.708 L
348.364 83.708 L
348.364 83.708 L
348.364 83.708 L
348.364 83.708 L
348.364 83.708 L
348.364 83.708 L
348.364 83.708 L
348.364 83.708 L
348.364 83.708 L
348.364 83.708 L
348.364 83.708 L
348.364 83.708 L
348.364 83.708 L
348.364 83.708 L
348.364 83.708 L
348.364 83.708 L
348.364 83.708 L
348.364 83.708 L
348.364 83.708 L
348.364 83.708 L
348.364 83.708 L
348.364 83.708 L
348.364 83.708 L
348.364 83.708 L
348.364 83.708 L
348.364 83.708 L
348.364 83.708 L
348.364 83.708 L
348.364 83.708 L
348.364 83.708 L
348.364 83.708 L
348.364 83.708 L
348.364 83.708 L
348.364 83.708 L
348.364 83.708 L
348.364 83.708 L
348.364 83.708 L
348.364 83.708 L
348.364 83.708 L
348.364 83.708 L
348.364 83.708 L
348.364 83.708 L
348.364 83.708 L
348.364 83.708 L
348.364 83.708 L
348.364 83.708 L
348.364 83.708 L
348.364 83.708 L
348.364 83.708 L
348.364 83.708 L
348.364 83.708 L
348.364 83.708 L
348.364 83.708 L
348.364 83.708 L
348.364 83.708 L
348.364 83.708 L
348.364 83.708 L
348.364 83.708 L
348.364 83.708 L
348.364 83.708 L
348.364 83.708 L
905 45 L
S
GR
GS
1 LJ
2 LW
N
130 530.761 M
130 530.761 L
130 530.761 L
130 530.761 L
130 530.761 L
130 530.761 L
130 530.761 L
130 530.761 L
130 530.761 L
130 530.761 L
130 530.761 L
130 530.761 L
130 530.761 L
130 530.761 L
130 530.761 L
130 530.761 L
130 530.761 L
130 530.761 L
130 530.761 L
130 530.761 L
130 530.761 L
130 530.761 L
130 530.761 L
130 530.761 L
130 530.761 L
130 530.761 L
130 530.761 L
130 530.761 L
130 530.761 L
130 530.761 L
130 530.761 L
130 530.761 L
130 530.761 L
130 530.761 L
130 530.761 L
130 530.761 L
130 530.761 L
130 530.761 L
130 530.761 L
130 530.761 L
130 530.761 L
130 530.761 L
130 530.761 L
130 530.761 L
130 530.761 L
130 530.761 L
130 530.761 L
130 530.761 L
130 530.761 L
130 530.761 L
130 530.761 L
130 530.761 L
130 530.761 L
130 530.761 L
130 530.761 L
130 530.761 L
130 530.761 L
130 530.761 L
130 530.761 L
130 530.761 L
130 530.761 L
130 530.761 L
130 530.761 L
130 530.761 L
130 530.761 L
130 530.761 L
130 530.761 L
130 530.761 L
130 530.761 L
130 530.761 L
130 530.761 L
130 530.761 L
130 530.761 L
130 530.761 L
130 530.761 L
130 530.761 L
130 530.761 L
130 530.761 L
130 530.761 L
130 530.761 L
130 530.761 L
130 530.761 L
130 530.761 L
130 530.761 L
130 530.761 L
130 530.761 L
130 530.761 L
130 530.761 L
130 530.761 L
130 530.761 L
130 530.761 L
130 530.761 L
130 530.761 L
130 530.761 L
130 530.761 L
130 530.761 L
130 530.761 L
130 530.761 L
130 530.761 L
130 530.761 L
130 530.761 L
130 530.761 L
130 530.761 L
130 530.761 L
130 530.761 L
130 530.761 L
130 530.761 L
130 530.761 L
130 530.761 L
130 530.761 L
130 530.761 L
130 530.761 L
130 530.761 L
130 530.761 L
130 530.761 L
130 530.761 L
130 530.761 L
130 530.761 L
130 530.761 L
130 530.761 L
130 530.761 L
130 530.761 L
130 530.761 L
130 530.761 L
130 530.761 L
130 530.761 L
130 530.761 L
130 530.761 L
130 530.761 L
130 530.761 L
130 530.761 L
130 530.761 L
130 530.761 L
130 530.761 L
130 530.761 L
130 530.761 L
130 530.761 L
130 530.761 L
130 530.761 L
130 530.761 L
130 530.761 L
130 530.761 L
130 530.761 L
130 530.761 L
130 530.761 L
130 530.761 L
130 530.761 L
130 530.761 L
130 530.761 L
130 530.761 L
130 530.761 L
130 530.761 L
130 530.761 L
130 530.761 L
130 530.761 L
130 530.761 L
130 530.761 L
130 530.761 L
130 530.761 L
130 530.761 L
130 530.761 L
130 530.761 L
130 530.761 L
130 530.761 L
130 530.761 L
130 530.761 L
130 530.761 L
130 530.761 L
130 530.761 L
130 530.761 L
130 530.761 L
130 530.761 L
130 530.761 L
130 530.761 L
130 530.761 L
130 530.761 L
130 530.761 L
130 530.761 L
130 530.761 L
130 530.761 L
130 530.761 L
130 530.761 L
130 530.522 L
130 530.522 L
130 530.522 L
130 530.522 L
130 530.522 L
130 530.522 L
130 530.522 L
130 530.522 L
130 530.522 L
130 530.522 L
130 530.522 L
130 530.522 L
130 530.522 L
130 530.522 L
130 530.522 L
130 530.522 L
130 530.283 L
130 530.283 L
130 530.283 L
130 530.283 L
130 530.283 L
130 530.283 L
130 530.283 L
130 530.283 L
130 530.283 L
130 530.283 L
130 530.283 L
130 530.044 L
130 530.044 L
130 530.044 L
130 530.044 L
130 530.044 L
130 529.805 L
130 529.566 L
130 529.566 L
130 529.566 L
130 529.566 L
130 529.566 L
130 529.089 L
130 529.089 L
130 528.85 L
130 528.611 L
130 528.611 L
130 528.611 L
130 528.611 L
130 528.372 L
130 528.372 L
130 528.133 L
130 527.894 L
130 527.655 L
130 526.938 L
130 526.46 L
130 526.46 L
130 526.46 L
130 526.46 L
130 526.221 L
130 526.221 L
130 525.743 L
130 525.266 L
130 525.027 L
130 524.549 L
130 523.832 L
130 523.832 L
130 523.832 L
130 523.832 L
130 523.832 L
130 523.832 L
130 523.832 L
130 523.593 L
130 523.354 L
130 523.354 L
130 523.354 L
130 523.354 L
130 523.354 L
130 523.354 L
130 522.637 L
130 522.159 L
130 521.443 L
130 520.726 L
130 520.248 L
130 520.009 L
130 519.77 L
130 519.053 L
130 518.814 L
130 518.097 L
130 517.619 L
130 517.381 L
130 517.142 L
130 515.947 L
130 515.947 L
130 515.469 L
130 515.23 L
130 513.796 L
130 512.841 L
130 512.124 L
130 511.407 L
130 510.451 L
130 510.212 L
130 509.496 L
130 508.779 L
130 508.301 L
130 507.584 L
130 506.867 L
130 505.673 L
130 505.434 L
130 504.956 L
130 504.956 L
130 504.956 L
130 504.239 L
130 503.283 L
130 502.327 L
130 501.133 L
130 501.133 L
130 500.177 L
130 499.699 L
130 498.743 L
130 498.027 L
130 497.549 L
130 496.354 L
130 496.115 L
130 495.398 L
130 493.726 L
130 493.487 L
130 492.531 L
130 491.336 L
130 490.619 L
130 490.381 L
130 490.142 L
130 489.186 L
130 488.469 L
130 487.991 L
130 486.796 L
130 486.319 L
130 486.319 L
130 486.08 L
130 484.885 L
130 484.168 L
130 483.69 L
130 481.779 L
130 480.823 L
130 479.867 L
130 478.673 L
130 478.434 L
130 477.478 L
130 476.761 L
130 476.044 L
130 475.805 L
130 474.611 L
130 473.416 L
130 473.177 L
130 472.221 L
130 471.743 L
130 471.265 L
130 470.788 L
130 470.549 L
130 470.31 L
130 470.071 L
130 469.832 L
130 468.876 L
130 467.681 L
130 467.204 L
130 466.009 L
130 464.575 L
130 463.858 L
130 463.142 L
130 462.186 L
130 461.469 L
130 460.513 L
130 460.035 L
130 458.841 L
130 457.646 L
130 457.168 L
130 456.69 L
130 454.54 L
130 453.106 L
130 452.389 L
130 451.195 L
130 450.478 L
130 449.044 L
130 448.805 L
130 447.611 L
130 446.894 L
130 446.177 L
130 445.46 L
130 444.743 L
130 444.027 L
130 443.549 L
130 443.31 L
130 442.354 L
130 442.115 L
130 440.681 L
130 440.204 L
130 439.248 L
130 438.531 L
130 438.292 L
130 437.097 L
130 436.858 L
130 436.142 L
130 435.425 L
130 434.708 L
130 434.23 L
130 432.796 L
130 432.558 L
130 431.602 L
130 430.885 L
130 429.929 L
130 429.451 L
130 428.496 L
130 428.018 L
130 427.779 L
130 426.106 L
130 423.717 L
130 422.761 L
130 422.283 L
130 420.611 L
130 419.416 L
130 418.699 L
130 417.743 L
130 417.027 L
130 415.593 L
130 415.115 L
130 414.159 L
130 413.92 L
130 412.726 L
130 412.248 L
130 412.009 L
130 411.531 L
130 410.336 L
130 409.858 L
130 408.664 L
130 407.23 L
130 406.752 L
130 406.513 L
130 406.035 L
130 405.08 L
130 404.124 L
130 402.451 L
130 402.451 L
130 401.018 L
130 399.345 L
130 399.345 L
130 398.628 L
130 396.478 L
130 395.283 L
130 394.089 L
130 393.372 L
130 392.177 L
130 391.938 L
130 390.504 L
130 389.788 L
130 387.876 L
130 387.398 L
130 386.92 L
130 386.681 L
130 385.726 L
130 385.487 L
130 384.531 L
130 383.336 L
130 382.381 L
130 381.425 L
130 379.752 L
130 378.319 L
130 377.841 L
130 377.602 L
130 375.451 L
130 373.779 L
130 373.301 L
130 372.584 L
130 371.867 L
130 370.673 L
130 370.673 L
130 370.434 L
130 368.761 L
130 368.283 L
130 367.327 L
130 366.372 L
130 365.655 L
130 365.655 L
130 364.938 L
130 364.46 L
130 364.46 L
130 364.221 L
130 363.027 L
130 362.549 L
130 362.071 L
130 361.593 L
130 360.398 L
130 358.965 L
130 358.487 L
130 357.292 L
130 356.814 L
130 355.619 L
130 355.381 L
130 354.425 L
130 353.947 L
130 352.991 L
130 351.558 L
130 351.08 L
130 350.602 L
130 349.885 L
130 349.885 L
130 348.212 L
130 347.735 L
130 346.54 L
130 345.823 L
130 345.584 L
130 344.867 L
130 344.628 L
130 344.15 L
130 343.195 L
130 342.956 L
130 341.761 L
130 341.522 L
130 339.85 L
130 339.372 L
130 338.894 L
130 338.416 L
130 338.177 L
130 336.982 L
130 336.266 L
130 335.788 L
130 335.549 L
130 335.31 L
130 335.071 L
130 333.637 L
130 332.681 L
130 331.965 L
130 331.726 L
130 330.531 L
130 330.053 L
130 329.814 L
130 329.575 L
130 329.097 L
130 328.619 L
130 328.142 L
130 327.425 L
130 326.947 L
130 326.469 L
130 325.991 L
130 325.274 L
130 324.319 L
130 323.124 L
130 322.646 L
130 321.929 L
130 320.973 L
130 320.496 L
130 318.584 L
130 317.389 L
130 315.717 L
130 315.478 L
130 313.566 L
130 312.133 L
130 312.133 L
130 310.938 L
130 309.504 L
130 308.549 L
130 307.115 L
130 305.204 L
130 304.965 L
130 303.77 L
130 303.531 L
130 302.575 L
130 301.858 L
130 300.425 L
130 298.991 L
130 297.08 L
130 294.929 L
130 294.69 L
130 292.301 L
130 290.867 L
130 290.389 L
130 288.717 L
130 287.044 L
130 285.85 L
130 284.177 L
130 283.938 L
130 282.982 L
130 281.549 L
130 280.354 L
130 279.876 L
130 279.159 L
130 278.681 L
130 278.443 L
130 277.726 L
130 276.292 L
130 275.336 L
130 272.708 L
130 270.796 L
130 270.08 L
130 268.885 L
130 268.646 L
130 268.407 L
130 266.496 L
130 265.301 L
130 264.345 L
130 263.15 L
130 262.434 L
130 261.956 L
130 260.044 L
130 258.611 L
130 258.133 L
130 256.938 L
130 256.221 L
130 255.743 L
130 254.788 L
130 254.549 L
130 253.115 L
130 251.442 L
130 250.009 L
130 248.336 L
130 247.858 L
130 246.664 L
130 246.186 L
130 245.23 L
130 242.602 L
130 241.646 L
130 238.779 L
130 237.584 L
130 237.106 L
130 236.389 L
130 235.673 L
130 234 L
130 232.805 L
130 231.133 L
130 229.699 L
130 228.027 L
130 227.31 L
130 226.593 L
130 226.115 L
130 224.92 L
130 223.248 L
130 222.531 L
130 220.619 L
130 218.947 L
130 217.035 L
130 215.841 L
130 213.451 L
130 211.301 L
130 210.106 L
130.004 209.15 L
130.004 207.478 L
130.004 207 L
130.009 205.566 L
130.009 204.372 L
130.013 202.46 L
130.013 200.31 L
130.013 198.159 L
130.018 197.681 L
130.022 196.009 L
130.022 194.575 L
130.026 193.619 L
130.026 191.708 L
130.026 190.274 L
130.026 189.319 L
130.026 187.885 L
130.026 185.973 L
130.026 185.257 L
130.031 184.301 L
130.035 183.584 L
130.04 181.912 L
130.044 180.717 L
130.044 179.522 L
130.044 176.894 L
130.044 174.982 L
130.048 174.027 L
130.048 173.788 L
130.061 172.354 L
130.066 170.442 L
130.07 169.487 L
130.07 168.292 L
130.07 167.097 L
130.075 166.381 L
130.088 164.947 L
130.105 164.23 L
130.114 163.752 L
130.136 162.319 L
130.145 161.602 L
130.158 159.451 L
130.171 158.734 L
130.184 156.345 L
130.189 154.911 L
130.198 153.239 L
130.215 151.805 L
130.237 150.611 L
130.259 149.177 L
130.259 148.221 L
130.268 146.788 L
130.281 146.31 L
130.307 145.593 L
130.329 144.637 L
130.386 143.681 L
130.408 142.248 L
130.43 140.814 L
130.457 139.381 L
130.483 137.708 L
130.505 136.513 L
130.567 135.796 L
130.606 134.363 L
130.654 133.885 L
130.729 132.451 L
130.769 132.212 L
130.83 132.212 L
130.944 131.257 L
131.001 130.779 L
131.107 129.584 L
131.19 128.867 L
131.274 127.912 L
131.379 126.478 L
131.471 125.522 L
131.625 123.611 L
131.713 123.133 L
131.871 121.46 L
131.998 120.504 L
132.152 119.071 L
132.328 119.071 L
132.464 118.593 L
132.596 117.637 L
132.798 116.92 L
132.907 116.204 L
133.122 114.531 L
133.325 113.575 L
133.557 112.381 L
133.759 111.664 L
133.983 110.23 L
134.163 109.513 L
134.387 108.796 L
134.752 108.796 L
135.033 107.841 L
135.402 107.602 L
135.819 106.885 L
136.201 106.168 L
136.557 104.257 L
137.018 103.301 L
137.334 102.823 L
137.813 102.106 L
138.296 101.389 L
138.748 100.673 L
139.218 100.673 L
139.75 100.195 L
140.413 99 L
140.834 98.044 L
141.462 96.85 L
142.147 95.416 L
142.876 93.265 L
143.623 92.549 L
144.462 91.593 L
145.217 91.115 L
146.113 90.398 L
146.746 90.398 L
147.58 90.159 L
148.498 88.965 L
149.49 87.77 L
150.395 87.531 L
151.515 87.053 L
152.705 86.097 L
153.412 85.619 L
154.475 84.664 L
155.977 84.186 L
157.294 83.708 L
158.52 82.991 L
159.938 82.274 L
161.576 81.558 L
163.135 81.08 L
164.106 80.602 L
165.661 80.124 L
167.242 79.885 L
168.959 79.646 L
170.909 79.168 L
173.083 77.973 L
175.125 77.018 L
176.319 76.779 L
178.695 76.062 L
180.715 76.062 L
183.074 75.823 L
185.489 75.823 L
188.054 75.584 L
190.658 74.389 L
193.627 74.389 L
195.371 74.15 L
198.396 73.673 L
201.712 73.434 L
204.738 73.434 L
208.106 73.434 L
211.295 73.195 L
214.523 73.195 L
216.828 72.478 L
220.658 72.478 L
224.312 71.522 L
228.014 71.522 L
232.34 71.044 L
236.512 70.805 L
240.364 69.85 L
244.76 68.655 L
247.465 68.655 L
251.826 68.177 L
256.446 67.699 L
261.075 67.46 L
266.182 67.46 L
271.409 67.46 L
276.441 67.221 L
279.595 66.265 L
284.996 65.788 L
291.079 65.31 L
296.384 65.071 L
302.357 64.593 L
308.703 64.354 L
314.583 63.876 L
321.052 63.159 L
324.987 62.681 L
331.478 62.442 L
337.662 61.487 L
344.306 61.248 L
351.039 60.531 L
357.899 60.531 L
364.842 60.292 L
369.344 60.292 L
376.506 59.814 L
383.305 59.575 L
390.485 59.575 L
397.956 59.097 L
405.123 58.858 L
413.015 58.381 L
420.573 57.664 L
425.43 56.947 L
433.441 56.23 L
441.205 56.23 L
449.044 56.23 L
457.033 56.23 L
465.452 55.752 L
473.409 55.513 L
482.557 55.035 L
486.945 54.558 L
494.604 54.08 L
503.023 53.602 L
511.156 53.363 L
519.496 53.124 L
527.722 52.885 L
535.842 52.407 L
541.437 52.407 L
549.724 52.168 L
557.392 51.929 L
565.504 51.69 L
573.624 51.212 L
581.898 51.212 L
590.088 50.973 L
598.283 50.496 L
603.755 50.257 L
611.309 50.257 L
618.718 50.257 L
626.803 50.257 L
634.625 50.018 L
642.35 49.54 L
650.044 49.301 L
654.932 49.062 L
661.91 48.823 L
669.236 48.584 L
676.666 48.584 L
683.649 48.584 L
690.83 48.345 L
697.773 47.867 L
705.147 47.389 L
709.727 47.389 L
716.069 47.15 L
722.353 47.15 L
728.73 46.912 L
735.458 46.912 L
741.804 46.434 L
748.133 46.195 L
751.958 46.195 L
757.636 46.195 L
763.126 46.195 L
768.655 46.195 L
774.395 45.956 L
780.139 45.956 L
785.352 45.717 L
790.64 45.717 L
793.784 45.717 L
798.58 45.717 L
802.612 45.717 L
807.179 45.717 L
811.61 45.717 L
815.927 45.717 L
819.999 45.717 L
822.572 45.717 L
825.94 45.478 L
829.577 45.478 L
833.077 45.478 L
836.476 45.478 L
839.77 45.478 L
842.963 45.478 L
846.041 45.478 L
847.89 45.478 L
850.42 45.478 L
853.099 45.478 L
855.852 45.478 L
858.25 45.478 L
860.573 45.478 L
863.195 45.478 L
864.504 45.478 L
866.406 45.478 L
868.435 45.478 L
870.727 45.478 L
872.739 45.478 L
874.596 45.239 L
876.546 45.239 L
877.46 45 L
878.334 45 L
879.906 45 L
881.469 45 L
882.857 45 L
884.139 45 L
885.308 45 L
886.313 45 L
886.906 45 L
888.03 45 L
889.023 45 L
890.086 45 L
891.039 45 L
891.935 45 L
892.659 45 L
893.305 45 L
893.893 45 L
894.578 45 L
895.264 45 L
895.874 45 L
896.542 45 L
897.073 45 L
897.565 45 L
897.907 45 L
898.391 45 L
898.891 45 L
899.225 45 L
899.62 45 L
899.993 45 L
900.261 45 L
900.573 45 L
900.885 45 L
901.223 45 L
901.447 45 L
901.697 45 L
901.974 45 L
902.198 45 L
902.374 45 L
902.519 45 L
902.664 45 L
902.809 45 L
902.945 45 L
903.076 45 L
903.199 45 L
903.314 45 L
903.445 45 L
903.524 45 L
903.647 45 L
903.757 45 L
903.854 45 L
903.937 45 L
904.008 45 L
904.095 45 L
904.152 45 L
904.223 45 L
904.28 45 L
904.324 45 L
904.376 45 L
904.42 45 L
904.469 45 L
904.513 45 L
904.534 45 L
904.587 45 L
904.622 45 L
904.644 45 L
904.662 45 L
904.701 45 L
904.728 45 L
904.75 45 L
904.767 45 L
904.78 45 L
904.802 45 L
904.816 45 L
904.829 45 L
904.851 45 L
904.868 45 L
904.873 45 L
904.886 45 L
904.89 45 L
904.903 45 L
904.903 45 L
904.912 45 L
904.912 45 L
904.921 45 L
904.921 45 L
904.93 45 L
904.934 45 L
904.943 45 L
904.952 45 L
904.96 45 L
904.965 45 L
904.965 45 L
904.969 45 L
904.969 45 L
904.974 45 L
904.978 45 L
904.978 45 L
904.978 45 L
904.978 45 L
904.978 45 L
904.978 45 L
904.978 45 L
904.978 45 L
904.987 45 L
904.987 45 L
904.987 45 L
904.991 45 L
904.991 45 L
904.991 45 L
904.991 45 L
904.991 45 L
904.996 45 L
904.996 45 L
905 45 L
S
GR
GS
1 0 0 RC
1 LJ
2 LW
N
130 530.761 M
130 530.761 L
130 530.761 L
130 530.761 L
130 530.761 L
130 530.761 L
130 530.761 L
130 530.761 L
130 530.761 L
130 530.761 L
130 530.761 L
130 530.761 L
130 530.761 L
130 530.761 L
130 530.761 L
130 530.761 L
130 530.761 L
130 530.761 L
130 530.761 L
130 530.761 L
130 530.761 L
130 530.761 L
130 530.761 L
130 530.761 L
130 530.761 L
130 530.761 L
130 530.761 L
130 530.761 L
130 530.761 L
130 530.761 L
130 530.761 L
130 530.761 L
130 530.761 L
130 530.761 L
130 530.761 L
130 530.761 L
130 530.761 L
130 530.761 L
130 530.761 L
130 530.761 L
130 530.761 L
130 530.761 L
130 530.761 L
130 530.761 L
130 530.761 L
130 530.761 L
130 530.761 L
130 530.761 L
130 530.761 L
130 530.761 L
130 530.761 L
130 530.761 L
130 530.761 L
130 530.761 L
130 530.761 L
130 530.761 L
130 530.761 L
130 530.761 L
130 530.761 L
130 530.761 L
130 530.761 L
130 530.761 L
130 530.761 L
130 530.761 L
130 530.761 L
130 530.761 L
130 530.761 L
130 530.761 L
130 530.761 L
130 530.761 L
130 530.761 L
130 530.761 L
130 530.761 L
130 530.761 L
130 530.761 L
130 530.761 L
130 530.761 L
130 530.761 L
130 530.761 L
130 530.761 L
130 530.761 L
130 530.761 L
130 530.761 L
130 530.761 L
130 530.761 L
130 530.761 L
130 530.761 L
130 530.761 L
130 530.761 L
130 530.761 L
130 530.761 L
130 530.761 L
130 530.761 L
130 530.761 L
130 530.761 L
130 530.761 L
130 530.761 L
130 530.761 L
130 530.761 L
130 530.761 L
130 530.761 L
130 530.761 L
130 530.761 L
130 530.761 L
130 530.761 L
130 530.761 L
130 530.761 L
130 530.761 L
130 530.761 L
130 530.761 L
130 530.761 L
130 530.761 L
130 530.761 L
130 530.761 L
130 530.761 L
130 530.761 L
130 530.761 L
130 530.761 L
130 530.761 L
130 530.761 L
130 530.761 L
130 530.761 L
130 530.761 L
130 530.761 L
130 530.761 L
130 530.761 L
130 530.761 L
130 530.761 L
130 530.761 L
130 530.761 L
130 530.761 L
130 530.761 L
130 530.761 L
130 530.761 L
130 530.761 L
130 530.761 L
130 530.761 L
130 530.761 L
130 530.761 L
130 530.761 L
130 530.761 L
130 530.761 L
130 530.761 L
130 530.761 L
130 530.761 L
130 530.761 L
130 530.761 L
130 530.761 L
130 530.761 L
130 530.761 L
130 530.761 L
130 530.761 L
130 530.761 L
130 530.761 L
130 530.761 L
130 530.761 L
130 530.761 L
130 530.761 L
130 530.761 L
130 530.761 L
130 530.761 L
130 530.761 L
130 530.761 L
130 530.761 L
130 530.761 L
130 530.761 L
130 530.761 L
130 530.522 L
130 530.522 L
130 530.522 L
130 530.522 L
130 530.522 L
130 530.522 L
130 530.522 L
130 530.522 L
130 530.522 L
130 530.522 L
130 530.522 L
130 530.522 L
130 530.522 L
130 530.522 L
130 530.522 L
130 530.522 L
130 530.283 L
130 530.283 L
130 530.283 L
130 530.283 L
130 530.283 L
130 530.283 L
130 530.283 L
130 530.283 L
130 530.283 L
130 530.283 L
130 530.283 L
130 530.044 L
130 529.805 L
130 529.805 L
130 529.327 L
130 529.327 L
130 529.327 L
130 529.327 L
130 529.089 L
130 528.611 L
130 528.611 L
130 528.611 L
130 528.611 L
130 528.611 L
130 527.894 L
130 527.894 L
130 527.894 L
130 527.894 L
130 527.655 L
130 527.655 L
130 527.416 L
130 527.416 L
130 526.938 L
130 526.699 L
130 526.46 L
130 526.221 L
130 525.982 L
130 525.504 L
130 525.027 L
130 524.31 L
130 524.31 L
130 524.071 L
130 524.071 L
130 523.593 L
130 523.354 L
130 522.876 L
130 522.876 L
130 522.637 L
130 521.92 L
130 521.681 L
130 520.965 L
130 520.248 L
130 520.009 L
130 519.292 L
130 519.292 L
130 518.814 L
130 518.814 L
130 518.814 L
130 518.575 L
130 518.575 L
130 518.336 L
130 516.903 L
130 515.469 L
130 514.513 L
130 514.274 L
130 513.796 L
130 513.796 L
130 512.841 L
130 512.602 L
130 511.885 L
130 511.646 L
130 511.407 L
130 510.69 L
130 509.735 L
130 509.018 L
130 507.823 L
130 507.345 L
130 507.106 L
130 506.867 L
130 505.434 L
130 505.195 L
130 504.478 L
130 502.089 L
130 501.133 L
130 500.416 L
130 500.177 L
130 498.504 L
130 497.31 L
130 496.593 L
130 495.876 L
130 495.398 L
130 495.159 L
130 494.442 L
130 493.487 L
130 492.053 L
130 491.097 L
130 490.381 L
130 490.142 L
130 488.947 L
130 487.752 L
130 486.319 L
130 485.841 L
130 484.407 L
130 484.407 L
130 483.451 L
130 482.973 L
130 482.018 L
130 481.779 L
130 480.823 L
130 480.584 L
130 479.628 L
130 478.673 L
130 477.478 L
130 477 L
130 476.044 L
130 474.611 L
130 474.133 L
130 473.416 L
130 472.46 L
130 471.982 L
130 471.027 L
130 470.788 L
130 470.788 L
130 469.115 L
130 467.92 L
130 467.442 L
130 466.726 L
130 466.009 L
130 465.531 L
130 464.336 L
130 462.425 L
130 461.23 L
130 460.991 L
130 460.513 L
130 460.035 L
130 458.602 L
130 457.646 L
130 457.646 L
130 456.69 L
130 456.212 L
130 455.734 L
130 454.779 L
130 453.584 L
130 453.345 L
130 452.867 L
130 452.15 L
130 451.673 L
130 451.434 L
130 450.478 L
130 449.522 L
130 447.85 L
130 446.177 L
130 445.938 L
130 445.46 L
130 445.221 L
130 443.549 L
130 441.637 L
130 440.442 L
130 439.248 L
130 439.248 L
130 437.336 L
130 436.381 L
130 434.708 L
130 433.513 L
130 432.319 L
130 432.08 L
130 430.168 L
130 429.451 L
130 428.973 L
130 427.062 L
130 426.106 L
130 424.911 L
130 424.911 L
130 424.195 L
130 423.478 L
130 422.522 L
130 421.805 L
130 420.372 L
130 419.894 L
130 417.743 L
130 416.549 L
130 416.071 L
130 415.354 L
130 415.115 L
130 414.876 L
130 413.442 L
130 412.726 L
130 411.531 L
130 411.531 L
130 411.053 L
130 410.814 L
130 409.858 L
130 409.142 L
130 408.664 L
130 408.186 L
130 407.23 L
130 406.752 L
130 406.035 L
130 404.841 L
130 404.124 L
130 402.929 L
130 402.451 L
130 401.496 L
130 400.779 L
130 399.823 L
130 398.867 L
130 397.673 L
130 396.239 L
130 394.566 L
130 394.327 L
130 393.372 L
130 392.894 L
130 391.699 L
130 390.743 L
130 389.788 L
130 389.071 L
130 387.637 L
130 385.726 L
130 384.77 L
130 384.053 L
130 383.336 L
130 383.336 L
130 382.381 L
130 381.425 L
130 381.425 L
130 381.186 L
130 379.752 L
130 379.274 L
130 378.558 L
130 378.08 L
130 377.602 L
130 376.407 L
130 374.735 L
130 373.301 L
130 373.301 L
130 371.867 L
130 370.911 L
130 369.478 L
130 368.044 L
130 366.85 L
130 366.611 L
130 365.894 L
130 365.416 L
130 365.416 L
130 364.699 L
130 364.221 L
130 364.221 L
130 363.982 L
130 363.743 L
130 362.549 L
130 361.354 L
130 360.876 L
130 360.398 L
130 359.92 L
130 358.965 L
130 358.248 L
130 357.292 L
130 355.619 L
130 354.664 L
130 354.425 L
130 353.947 L
130 352.752 L
130 351.796 L
130 350.841 L
130 349.885 L
130 349.646 L
130 348.929 L
130 348.451 L
130 348.212 L
130 347.973 L
130 347.735 L
130 347.257 L
130 347.257 L
130 346.301 L
130 345.584 L
130 344.867 L
130 344.15 L
130 343.673 L
130 343.434 L
130 342.239 L
130 341.761 L
130 341.044 L
130 340.566 L
130 340.327 L
130 339.611 L
130 339.133 L
130 338.416 L
130 337.699 L
130 336.982 L
130 336.266 L
130 336.266 L
130 335.549 L
130 334.593 L
130 334.593 L
130 334.115 L
130 334.115 L
130 334.115 L
130 333.876 L
130 332.681 L
130 332.442 L
130 331.248 L
130 331.009 L
130 331.009 L
130 330.77 L
130 330.292 L
130 329.336 L
130 328.858 L
130 328.619 L
130 328.381 L
130 327.425 L
130 326.469 L
130 325.513 L
130 325.035 L
130 324.08 L
130 324.08 L
130 323.363 L
130 322.885 L
130 322.407 L
130 321.451 L
130 320.735 L
130 320.018 L
130 319.54 L
130 318.584 L
130 317.628 L
130 317.389 L
130 316.195 L
130 315.478 L
130 315 L
130 313.327 L
130 312.372 L
130 310.938 L
130 310.46 L
130 308.788 L
130 308.31 L
130 307.593 L
130 306.398 L
130 305.204 L
130 303.531 L
130 301.619 L
130 301.142 L
130 299.23 L
130 297.558 L
130 296.602 L
130 295.407 L
130 293.257 L
130 293.018 L
130 292.301 L
130 291.584 L
130 290.867 L
130 290.15 L
130 288.478 L
130 287.522 L
130 287.044 L
130 286.089 L
130 285.133 L
130 284.416 L
130 283.221 L
130 282.027 L
130 281.31 L
130 280.593 L
130 279.637 L
130 278.204 L
130 277.487 L
130 276.531 L
130 275.336 L
130 274.619 L
130 273.186 L
130 271.752 L
130 270.319 L
130 269.124 L
130 268.646 L
130 268.168 L
130 267.929 L
130 266.735 L
130 265.301 L
130 264.106 L
130 262.195 L
130 261.717 L
130 260.044 L
130 259.088 L
130 258.372 L
130 257.894 L
130 256.46 L
130 256.221 L
130 255.265 L
130 253.832 L
130 252.876 L
130 251.442 L
130 250.726 L
130 250.248 L
130 247.858 L
130 246.903 L
130 245.23 L
130 244.752 L
130 243.08 L
130 242.124 L
130 241.407 L
130 239.735 L
130 238.301 L
130 236.628 L
130 235.911 L
130 234.717 L
130 233.283 L
130 232.327 L
130 230.894 L
130 230.177 L
130 228.982 L
130 227.071 L
130 225.637 L
130 224.92 L
130 223.965 L
130 222.053 L
130 220.619 L
130 219.664 L
130 218.947 L
130 217.274 L
130 215.602 L
130 212.735 L
130 211.062 L
130 209.389 L
130 209.15 L
130 207.717 L
130 206.044 L
130 203.894 L
130 200.31 L
130 196.965 L
130 196.726 L
130 196.009 L
130 194.575 L
130 192.186 L
130 190.752 L
130 188.124 L
130 187.646 L
130 185.496 L
130 183.584 L
130 181.195 L
130 179.044 L
130 177.611 L
130 177.133 L
130 176.655 L
130 174.743 L
130 172.593 L
130 171.159 L
130 169.726 L
130 168.531 L
130 167.097 L
130 164.947 L
130 163.513 L
130 162.558 L
130 160.168 L
130 158.973 L
130 158.734 L
130 157.779 L
130 157.062 L
130 155.628 L
130.004 154.673 L
130.009 153.478 L
130.009 153 L
130.009 151.566 L
130.009 150.372 L
130.009 149.416 L
130.009 148.938 L
130.022 148.46 L
130.026 147.743 L
130.035 147.027 L
130.044 146.071 L
130.044 145.354 L
130.044 142.965 L
130.048 142.009 L
130.053 140.814 L
130.053 140.097 L
130.057 139.858 L
130.061 137.947 L
130.061 136.991 L
130.066 135.319 L
130.07 133.407 L
130.07 132.69 L
130.079 130.779 L
130.083 129.345 L
130.105 128.628 L
130.11 127.195 L
130.11 126.239 L
130.127 125.283 L
130.136 124.566 L
130.158 123.133 L
130.171 121.938 L
130.18 120.982 L
130.18 119.788 L
130.193 119.071 L
130.211 118.115 L
130.224 117.159 L
130.242 115.726 L
130.272 115.009 L
130.285 114.77 L
130.307 113.575 L
130.343 111.903 L
130.369 110.947 L
130.382 110.947 L
130.4 110.469 L
130.422 108.796 L
130.452 107.602 L
130.466 107.363 L
130.505 106.885 L
130.527 106.407 L
130.553 105.929 L
130.602 105.451 L
130.65 104.018 L
130.694 103.54 L
130.742 103.062 L
130.83 102.823 L
130.887 102.584 L
130.962 101.867 L
131.076 101.628 L
131.129 100.434 L
131.252 99.956 L
131.348 99.239 L
131.432 98.522 L
131.559 98.283 L
131.704 97.805 L
131.801 97.088 L
131.932 96.611 L
132.108 96.611 L
132.297 95.655 L
132.468 95.177 L
132.639 94.46 L
132.806 93.027 L
132.929 92.31 L
133.158 91.593 L
133.39 91.354 L
133.663 89.442 L
133.887 88.726 L
134.168 88.248 L
134.308 87.77 L
134.642 86.575 L
134.967 86.097 L
135.345 85.858 L
135.784 85.381 L
136.153 84.664 L
136.403 84.186 L
136.842 82.991 L
137.325 81.796 L
137.738 81.319 L
138.349 80.841 L
138.889 80.363 L
139.275 80.124 L
139.877 78.929 L
140.54 77.735 L
141.199 77.496 L
141.945 77.018 L
142.653 76.062 L
143.285 75.584 L
144.216 75.106 L
145.064 74.389 L
146.012 73.912 L
146.992 73.673 L
147.962 72.717 L
149.042 71.761 L
149.714 71.522 L
150.847 71.283 L
152.222 70.566 L
153.575 69.85 L
155.055 69.372 L
156.623 68.416 L
157.685 68.177 L
159.244 67.699 L
161.01 67.46 L
162.903 66.982 L
164.765 66.027 L
166.833 66.027 L
167.953 65.549 L
169.951 65.31 L
172.332 64.354 L
174.514 64.115 L
176.965 63.876 L
179.407 62.92 L
180.953 62.681 L
183.596 61.965 L
186.552 61.248 L
189.437 61.248 L
192.134 60.77 L
195.586 60.77 L
196.807 60.77 L
200.355 60.77 L
203.908 59.814 L
206.987 59.336 L
210.922 58.858 L
214.799 58.142 L
218.278 58.142 L
220.851 57.664 L
224.971 57.425 L
229.143 56.947 L
233.306 56.708 L
238.049 56.23 L
242.691 56.23 L
245.331 56.23 L
250.363 55.991 L
255.629 55.752 L
260.293 55.752 L
265.44 55.274 L
270.947 55.274 L
274.189 54.796 L
279.612 54.558 L
285.256 54.319 L
290.859 54.08 L
297.047 54.08 L
303.165 54.08 L
307.236 54.08 L
314.004 54.08 L
320.464 53.841 L
326.964 53.602 L
333.621 53.363 L
340.661 52.885 L
347.728 52.646 L
352.326 52.407 L
359.418 51.929 L
366.559 51.929 L
374.372 51.69 L
381.965 51.451 L
389.985 50.735 L
394.17 50.496 L
402.154 50.496 L
409.62 50.496 L
417.661 50.257 L
425.672 49.779 L
433.691 49.779 L
438.451 49.54 L
446.906 49.54 L
454.951 49.54 L
463.959 49.062 L
471.947 48.823 L
480.805 48.823 L
485.447 48.823 L
494.696 48.823 L
502.518 48.584 L
511.56 48.106 L
519.755 47.867 L
528.732 47.389 L
534.344 47.15 L
543.558 46.912 L
552.1 46.673 L
560.708 46.673 L
568.854 46.673 L
577.418 46.434 L
586.004 46.195 L
591.577 46.195 L
599.052 46.195 L
607.963 46.195 L
616.078 46.195 L
624.502 46.195 L
632.31 45.956 L
637.22 45.956 L
644.717 45.956 L
652.841 45.956 L
660.294 45.956 L
668.349 45.956 L
675.876 45.956 L
680.404 45.956 L
687.857 45.956 L
695.151 45.956 L
702.27 45.956 L
709.147 45.717 L
716.091 45.717 L
720.351 45.717 L
726.855 45.717 L
733.038 45.717 L
739.231 45.478 L
745.678 45.478 L
751.901 45.478 L
755.599 45.239 L
761.966 45.239 L
767.272 45.239 L
772.669 45.239 L
778.062 45.239 L
783.385 45.239 L
788.686 45.239 L
791.997 45.239 L
796.929 45.239 L
801.624 45.239 L
806.108 45.239 L
810.201 45.239 L
814.584 45.239 L
817.451 45.239 L
821.509 45.239 L
825.396 45.239 L
828.966 45.239 L
832.84 45.239 L
836.612 45.239 L
839.037 45.239 L
842.229 45.239 L
845.334 45.239 L
848.154 45.239 L
850.907 45.239 L
853.924 45 L
855.835 45 L
858.356 45 L
860.868 45 L
862.963 45 L
865.259 45 L
867.42 45 L
869.045 45 L
870.995 45 L
872.699 45 L
874.456 45 L
876.155 45 L
877.776 45 L
879.392 45 L
880.455 45 L
881.838 45 L
883.116 45 L
884.297 45 L
885.615 45 L
886.687 45 L
887.376 45 L
888.391 45 L
889.405 45 L
890.345 45 L
891.289 45 L
892.255 45 L
892.76 45 L
893.538 45 L
894.297 45 L
894.969 45 L
895.646 45 L
896.287 45 L
896.871 45 L
897.376 45 L
897.798 45 L
898.421 45 L
898.917 45 L
899.37 45 L
899.809 45 L
899.971 45 L
900.253 45 L
900.74 45 L
901.074 45 L
901.311 45 L
901.592 45 L
901.768 45 L
902.088 45 L
902.361 45 L
902.576 45 L
902.826 45 L
902.984 45 L
903.103 45 L
903.252 45 L
903.362 45 L
903.48 45 L
903.621 45 L
903.713 45 L
903.81 45 L
903.911 45 L
903.968 45 L
904.06 45 L
904.139 45 L
904.218 45 L
904.28 45 L
904.346 45 L
904.385 45 L
904.451 45 L
904.499 45 L
904.517 45 L
904.539 45 L
904.578 45 L
904.609 45 L
904.627 45 L
904.684 45 L
904.706 45 L
904.732 45 L
904.75 45 L
904.763 45 L
904.789 45 L
904.807 45 L
904.82 45 L
904.82 45 L
904.846 45 L
904.868 45 L
904.886 45 L
904.89 45 L
904.908 45 L
904.917 45 L
904.921 45 L
904.925 45 L
904.93 45 L
904.93 45 L
904.943 45 L
904.943 45 L
904.952 45 L
904.96 45 L
904.974 45 L
904.978 45 L
904.978 45 L
904.982 45 L
904.982 45 L
904.982 45 L
904.991 45 L
904.991 45 L
904.991 45 L
904.991 45 L
904.991 45 L
904.991 45 L
904.991 45 L
904.991 45 L
904.991 45 L
904.991 45 L
904.991 45 L
904.991 45 L
904.991 45 L
904.991 45 L
904.991 45 L
904.991 45 L
904.991 45 L
904.991 45 L
904.991 45 L
904.991 45 L
904.991 45 L
904.991 45 L
904.996 45 L
905 45 L
S
GR
GS
[1 0 0 1 440 224.82001] CT
/Helvetica 24 F
GS
[1 0 0 1 0 0] CT
0 8.5 moveto 
1 -1 scale
(EER line) t 
GR
GR
GS
[10 6] 0 setdash
2 LJ
0.5 LW
N
905 531 M
130 45 L
S
GR
GS
1 GC
N
897 523 M
897 401 L
226 401 L
226 523 L
cp
f
GR
GS
[1 0 0 1 263 417.5679] CT
/Helvetica 24 F
GS
[1 0 0 1 0 0] CT
0 8.5 moveto 
1 -1 scale
(original OSIRIS, EER = 23.69%) t 
GR
GR
GS
0 0 1 RC
1 LJ
2 LW
N
230 417.568 M
260 417.568 L
S
GR
GS
[1 0 0 1 263 447.1893] CT
/Helvetica 24 F
GS
[1 0 0 1 0 0] CT
0 8.5 moveto 
1 -1 scale
(IriCore, EER = 10.46%) t 
GR
GR
GS
0 1 0 RC
1 LJ
2 LW
N
230 447.189 M
260 447.189 L
S
GR
GS
[1 0 0 1 263 476.8107] CT
/Helvetica 24 F
GS
[1 0 0 1 0 0] CT
0 8.5 moveto 
1 -1 scale
(OSIRIS with new segmentation, EER = 6.40%) t 
GR
GR
GS
1 LJ
2 LW
N
230 476.811 M
260 476.811 L
S
GR
GS
[1 0 0 1 263 506.4321] CT
/Helvetica 24 F
GS
[1 0 0 1 0 0] CT
0 8.5 moveto 
1 -1 scale
(OSIRIS with new segmentation and filter set, EER = 4.39%) t 
GR
GR
GS
1 0 0 RC
1 LJ
2 LW
N
230 506.432 M
260 506.432 L
S
GR
GS
0.149 GC
10.0 ML
0.5 LW
N
226 523 M
226 401 L
897 401 L
897 523 L
cp
S
GR
%%Trailer
%%Pages: 1
%%EOF
