%!PS-Adobe-3.0 EPSF-3.0
%%Creator: (MATLAB, The Mathworks, Inc. Version 9.5.0.1049112 \(R2018b\) Update 3. Operating System: Mac OS X)
%%Title: ./ROCs_postmortem_new_48_closeup.eps
%%CreationDate: 2019-03-12T15:39:47
%%Pages: (atend)
%%BoundingBox:    48     5   927   587
%%LanguageLevel: 3
%%EndComments
%%BeginProlog
%%BeginResource: procset (Apache XML Graphics Std ProcSet) 1.2 0
%%Version: 1.2 0
%%Copyright: (Copyright 2001-2003,2010 The Apache Software Foundation. License terms: http://www.apache.org/licenses/LICENSE-2.0)
/bd{bind def}bind def
/ld{load def}bd
/GR/grestore ld
/GS/gsave ld
/RM/rmoveto ld
/C/curveto ld
/t/show ld
/L/lineto ld
/ML/setmiterlimit ld
/CT/concat ld
/f/fill ld
/N/newpath ld
/S/stroke ld
/CC/setcmykcolor ld
/A/ashow ld
/cp/closepath ld
/RC/setrgbcolor ld
/LJ/setlinejoin ld
/GC/setgray ld
/LW/setlinewidth ld
/M/moveto ld
/re {4 2 roll M
1 index 0 rlineto
0 exch rlineto
neg 0 rlineto
cp } bd
/_ctm matrix def
/_tm matrix def
/BT { _ctm currentmatrix pop matrix _tm copy pop 0 0 moveto } bd
/ET { _ctm setmatrix } bd
/iTm { _ctm setmatrix _tm concat } bd
/Tm { _tm astore pop iTm 0 0 moveto } bd
/ux 0.0 def
/uy 0.0 def
/F {
  /Tp exch def
  /Tf exch def
  Tf findfont Tp scalefont setfont
  /cf Tf def  /cs Tp def
} bd
/ULS {currentpoint /uy exch def /ux exch def} bd
/ULE {
  /Tcx currentpoint pop def
  gsave
  newpath
  cf findfont cs scalefont dup
  /FontMatrix get 0 get /Ts exch def /FontInfo get dup
  /UnderlinePosition get Ts mul /To exch def
  /UnderlineThickness get Ts mul /Tt exch def
  ux uy To add moveto  Tcx uy To add lineto
  Tt setlinewidth stroke
  grestore
} bd
/OLE {
  /Tcx currentpoint pop def
  gsave
  newpath
  cf findfont cs scalefont dup
  /FontMatrix get 0 get /Ts exch def /FontInfo get dup
  /UnderlinePosition get Ts mul /To exch def
  /UnderlineThickness get Ts mul /Tt exch def
  ux uy To add cs add moveto Tcx uy To add cs add lineto
  Tt setlinewidth stroke
  grestore
} bd
/SOE {
  /Tcx currentpoint pop def
  gsave
  newpath
  cf findfont cs scalefont dup
  /FontMatrix get 0 get /Ts exch def /FontInfo get dup
  /UnderlinePosition get Ts mul /To exch def
  /UnderlineThickness get Ts mul /Tt exch def
  ux uy To add cs 10 mul 26 idiv add moveto Tcx uy To add cs 10 mul 26 idiv add lineto
  Tt setlinewidth stroke
  grestore
} bd
/QT {
/Y22 exch store
/X22 exch store
/Y21 exch store
/X21 exch store
currentpoint
/Y21 load 2 mul add 3 div exch
/X21 load 2 mul add 3 div exch
/X21 load 2 mul /X22 load add 3 div
/Y21 load 2 mul /Y22 load add 3 div
/X22 load /Y22 load curveto
} bd
/SSPD {
dup length /d exch dict def
{
/v exch def
/k exch def
currentpagedevice k known {
/cpdv currentpagedevice k get def
v cpdv ne {
/upd false def
/nullv v type /nulltype eq def
/nullcpdv cpdv type /nulltype eq def
nullv nullcpdv or
{
/upd true def
} {
/sametype v type cpdv type eq def
sametype {
v type /arraytype eq {
/vlen v length def
/cpdvlen cpdv length def
vlen cpdvlen eq {
0 1 vlen 1 sub {
/i exch def
/obj v i get def
/cpdobj cpdv i get def
obj cpdobj ne {
/upd true def
exit
} if
} for
} {
/upd true def
} ifelse
} {
v type /dicttype eq {
v {
/dv exch def
/dk exch def
/cpddv cpdv dk get def
dv cpddv ne {
/upd true def
exit
} if
} forall
} {
/upd true def
} ifelse
} ifelse
} if
} ifelse
upd true eq {
d k v put
} if
} if
} if
} forall
d length 0 gt {
d setpagedevice
} if
} bd
/RE { % /NewFontName [NewEncodingArray] /FontName RE -
  findfont dup length dict begin
  {
    1 index /FID ne
    {def} {pop pop} ifelse
  } forall
  /Encoding exch def
  /FontName 1 index def
  currentdict definefont pop
  end
} bind def
%%EndResource
%%BeginResource: procset (Apache XML Graphics EPS ProcSet) 1.0 0
%%Version: 1.0 0
%%Copyright: (Copyright 2002-2003 The Apache Software Foundation. License terms: http://www.apache.org/licenses/LICENSE-2.0)
/BeginEPSF { %def
/b4_Inc_state save def         % Save state for cleanup
/dict_count countdictstack def % Count objects on dict stack
/op_count count 1 sub def      % Count objects on operand stack
userdict begin                 % Push userdict on dict stack
/showpage { } def              % Redefine showpage, { } = null proc
0 setgray 0 setlinecap         % Prepare graphics state
1 setlinewidth 0 setlinejoin
10 setmiterlimit [ ] 0 setdash newpath
/languagelevel where           % If level not equal to 1 then
{pop languagelevel             % set strokeadjust and
1 ne                           % overprint to their defaults.
{false setstrokeadjust false setoverprint
} if
} if
} bd
/EndEPSF { %def
count op_count sub {pop} repeat            % Clean up stacks
countdictstack dict_count sub {end} repeat
b4_Inc_state restore
} bd
%%EndResource
%FOPBeginFontDict
%%IncludeResource: font Courier-Oblique
%%IncludeResource: font Courier-BoldOblique
%%IncludeResource: font Courier-Bold
%%IncludeResource: font ZapfDingbats
%%IncludeResource: font Symbol
%%IncludeResource: font Helvetica
%%IncludeResource: font Helvetica-Oblique
%%IncludeResource: font Helvetica-Bold
%%IncludeResource: font Helvetica-BoldOblique
%%IncludeResource: font Times-Roman
%%IncludeResource: font Times-Italic
%%IncludeResource: font Times-Bold
%%IncludeResource: font Times-BoldItalic
%%IncludeResource: font Courier
%FOPEndFontDict
%%BeginResource: encoding WinAnsiEncoding
/WinAnsiEncoding [
/.notdef /.notdef /.notdef /.notdef /.notdef
/.notdef /.notdef /.notdef /.notdef /.notdef
/.notdef /.notdef /.notdef /.notdef /.notdef
/.notdef /.notdef /.notdef /.notdef /.notdef
/.notdef /.notdef /.notdef /.notdef /.notdef
/.notdef /.notdef /.notdef /.notdef /.notdef
/.notdef /.notdef /space /exclam /quotedbl
/numbersign /dollar /percent /ampersand /quotesingle
/parenleft /parenright /asterisk /plus /comma
/hyphen /period /slash /zero /one
/two /three /four /five /six
/seven /eight /nine /colon /semicolon
/less /equal /greater /question /at
/A /B /C /D /E
/F /G /H /I /J
/K /L /M /N /O
/P /Q /R /S /T
/U /V /W /X /Y
/Z /bracketleft /backslash /bracketright /asciicircum
/underscore /quoteleft /a /b /c
/d /e /f /g /h
/i /j /k /l /m
/n /o /p /q /r
/s /t /u /v /w
/x /y /z /braceleft /bar
/braceright /asciitilde /bullet /Euro /bullet
/quotesinglbase /florin /quotedblbase /ellipsis /dagger
/daggerdbl /circumflex /perthousand /Scaron /guilsinglleft
/OE /bullet /Zcaron /bullet /bullet
/quoteleft /quoteright /quotedblleft /quotedblright /bullet
/endash /emdash /asciitilde /trademark /scaron
/guilsinglright /oe /bullet /zcaron /Ydieresis
/space /exclamdown /cent /sterling /currency
/yen /brokenbar /section /dieresis /copyright
/ordfeminine /guillemotleft /logicalnot /sfthyphen /registered
/macron /degree /plusminus /twosuperior /threesuperior
/acute /mu /paragraph /middot /cedilla
/onesuperior /ordmasculine /guillemotright /onequarter /onehalf
/threequarters /questiondown /Agrave /Aacute /Acircumflex
/Atilde /Adieresis /Aring /AE /Ccedilla
/Egrave /Eacute /Ecircumflex /Edieresis /Igrave
/Iacute /Icircumflex /Idieresis /Eth /Ntilde
/Ograve /Oacute /Ocircumflex /Otilde /Odieresis
/multiply /Oslash /Ugrave /Uacute /Ucircumflex
/Udieresis /Yacute /Thorn /germandbls /agrave
/aacute /acircumflex /atilde /adieresis /aring
/ae /ccedilla /egrave /eacute /ecircumflex
/edieresis /igrave /iacute /icircumflex /idieresis
/eth /ntilde /ograve /oacute /ocircumflex
/otilde /odieresis /divide /oslash /ugrave
/uacute /ucircumflex /udieresis /yacute /thorn
/ydieresis
] def
%%EndResource
%FOPBeginFontReencode
/Courier-Oblique findfont
dup length dict begin
  {1 index /FID ne {def} {pop pop} ifelse} forall
  /Encoding WinAnsiEncoding def
  currentdict
end
/Courier-Oblique exch definefont pop
/Courier-BoldOblique findfont
dup length dict begin
  {1 index /FID ne {def} {pop pop} ifelse} forall
  /Encoding WinAnsiEncoding def
  currentdict
end
/Courier-BoldOblique exch definefont pop
/Courier-Bold findfont
dup length dict begin
  {1 index /FID ne {def} {pop pop} ifelse} forall
  /Encoding WinAnsiEncoding def
  currentdict
end
/Courier-Bold exch definefont pop
/Helvetica findfont
dup length dict begin
  {1 index /FID ne {def} {pop pop} ifelse} forall
  /Encoding WinAnsiEncoding def
  currentdict
end
/Helvetica exch definefont pop
/Helvetica-Oblique findfont
dup length dict begin
  {1 index /FID ne {def} {pop pop} ifelse} forall
  /Encoding WinAnsiEncoding def
  currentdict
end
/Helvetica-Oblique exch definefont pop
/Helvetica-Bold findfont
dup length dict begin
  {1 index /FID ne {def} {pop pop} ifelse} forall
  /Encoding WinAnsiEncoding def
  currentdict
end
/Helvetica-Bold exch definefont pop
/Helvetica-BoldOblique findfont
dup length dict begin
  {1 index /FID ne {def} {pop pop} ifelse} forall
  /Encoding WinAnsiEncoding def
  currentdict
end
/Helvetica-BoldOblique exch definefont pop
/Times-Roman findfont
dup length dict begin
  {1 index /FID ne {def} {pop pop} ifelse} forall
  /Encoding WinAnsiEncoding def
  currentdict
end
/Times-Roman exch definefont pop
/Times-Italic findfont
dup length dict begin
  {1 index /FID ne {def} {pop pop} ifelse} forall
  /Encoding WinAnsiEncoding def
  currentdict
end
/Times-Italic exch definefont pop
/Times-Bold findfont
dup length dict begin
  {1 index /FID ne {def} {pop pop} ifelse} forall
  /Encoding WinAnsiEncoding def
  currentdict
end
/Times-Bold exch definefont pop
/Times-BoldItalic findfont
dup length dict begin
  {1 index /FID ne {def} {pop pop} ifelse} forall
  /Encoding WinAnsiEncoding def
  currentdict
end
/Times-BoldItalic exch definefont pop
/Courier findfont
dup length dict begin
  {1 index /FID ne {def} {pop pop} ifelse} forall
  /Encoding WinAnsiEncoding def
  currentdict
end
/Courier exch definefont pop
%FOPEndFontReencode
%%EndProlog
%%Page: 1 1
%%PageBoundingBox: 0 0 1000 600
%%BeginPageSetup
[1 0 0 -1 0 600] CT
%%EndPageSetup
GS
1 GC
N
0 0 1000 600 re
f
GR
GS
1 GC
N
0 0 1000 600 re
f
GR
GS
1 GC
N
130 531 M
905 531 L
905 45 L
130 45 L
cp
f
GR
GS
0.873 GC
1 LJ
0.5 LW
N
130 531 M
130 45 L
S
GR
GS
0.873 GC
1 LJ
0.5 LW
N
285 531 M
285 45 L
S
GR
GS
0.873 GC
1 LJ
0.5 LW
N
440 531 M
440 45 L
S
GR
GS
0.873 GC
1 LJ
0.5 LW
N
595 531 M
595 45 L
S
GR
GS
0.873 GC
1 LJ
0.5 LW
N
750 531 M
750 45 L
S
GR
GS
0.873 GC
1 LJ
0.5 LW
N
905 531 M
905 45 L
S
GR
GS
0.873 GC
1 LJ
0.5 LW
N
905 531 M
130 531 L
S
GR
GS
0.873 GC
1 LJ
0.5 LW
N
905 450 M
130 450 L
S
GR
GS
0.873 GC
1 LJ
0.5 LW
N
905 369 M
130 369 L
S
GR
GS
0.873 GC
1 LJ
0.5 LW
N
905 288 M
130 288 L
S
GR
GS
0.873 GC
1 LJ
0.5 LW
N
905 207 M
130 207 L
S
GR
GS
0.873 GC
1 LJ
0.5 LW
N
905 126 M
130 126 L
S
GR
GS
0.873 GC
1 LJ
0.5 LW
N
905 45 M
130 45 L
S
GR
GS
0.149 GC
2 setlinecap
1 LJ
0.5 LW
N
130 531 M
905 531 L
S
GR
GS
0.149 GC
2 setlinecap
1 LJ
0.5 LW
N
130 45 M
905 45 L
S
GR
GS
0.149 GC
2 setlinecap
1 LJ
0.5 LW
N
130 531 M
130 523.25 L
S
GR
GS
0.149 GC
2 setlinecap
1 LJ
0.5 LW
N
285 531 M
285 523.25 L
S
GR
GS
0.149 GC
2 setlinecap
1 LJ
0.5 LW
N
440 531 M
440 523.25 L
S
GR
GS
0.149 GC
2 setlinecap
1 LJ
0.5 LW
N
595 531 M
595 523.25 L
S
GR
GS
0.149 GC
2 setlinecap
1 LJ
0.5 LW
N
750 531 M
750 523.25 L
S
GR
GS
0.149 GC
2 setlinecap
1 LJ
0.5 LW
N
905 531 M
905 523.25 L
S
GR
GS
0.149 GC
2 setlinecap
1 LJ
0.5 LW
N
130 45 M
130 52.75 L
S
GR
GS
0.149 GC
2 setlinecap
1 LJ
0.5 LW
N
285 45 M
285 52.75 L
S
GR
GS
0.149 GC
2 setlinecap
1 LJ
0.5 LW
N
440 45 M
440 52.75 L
S
GR
GS
0.149 GC
2 setlinecap
1 LJ
0.5 LW
N
595 45 M
595 52.75 L
S
GR
GS
0.149 GC
2 setlinecap
1 LJ
0.5 LW
N
750 45 M
750 52.75 L
S
GR
GS
0.149 GC
2 setlinecap
1 LJ
0.5 LW
N
905 45 M
905 52.75 L
S
GR
GS
[1 0 0 1 130 537.80005] CT
0.149 GC
/Helvetica 24 F
GS
[1 0 0 1 0 0] CT
-7 23 moveto 
1 -1 scale
(0) t 
GR
GR
GS
[1 0 0 1 285 537.80005] CT
0.149 GC
/Helvetica 24 F
GS
[1 0 0 1 0 0] CT
-23.5 23 moveto 
1 -1 scale
(0.01) t 
GR
GR
GS
[1 0 0 1 440 537.80005] CT
0.149 GC
/Helvetica 24 F
GS
[1 0 0 1 0 0] CT
-23.5 23 moveto 
1 -1 scale
(0.02) t 
GR
GR
GS
[1 0 0 1 595 537.80005] CT
0.149 GC
/Helvetica 24 F
GS
[1 0 0 1 0 0] CT
-23.5 23 moveto 
1 -1 scale
(0.03) t 
GR
GR
GS
[1 0 0 1 750 537.80005] CT
0.149 GC
/Helvetica 24 F
GS
[1 0 0 1 0 0] CT
-23.5 23 moveto 
1 -1 scale
(0.04) t 
GR
GR
GS
[1 0 0 1 905 537.80005] CT
0.149 GC
/Helvetica 24 F
GS
[1 0 0 1 0 0] CT
-23.5 23 moveto 
1 -1 scale
(0.05) t 
GR
GR
GS
[1 0 0 1 517.50037 567.79999] CT
0.149 GC
/Helvetica 26.4 F
GS
[1 0 0 1 0 0] CT
-103.5 26 moveto 
1 -1 scale
(False Match Rate) t 
GR
GR
GS
0.149 GC
2 setlinecap
1 LJ
0.5 LW
N
130 531 M
130 45 L
S
GR
GS
0.149 GC
2 setlinecap
1 LJ
0.5 LW
N
905 531 M
905 45 L
S
GR
GS
0.149 GC
2 setlinecap
1 LJ
0.5 LW
N
130 531 M
137.75 531 L
S
GR
GS
0.149 GC
2 setlinecap
1 LJ
0.5 LW
N
130 450 M
137.75 450 L
S
GR
GS
0.149 GC
2 setlinecap
1 LJ
0.5 LW
N
130 369 M
137.75 369 L
S
GR
GS
0.149 GC
2 setlinecap
1 LJ
0.5 LW
N
130 288 M
137.75 288 L
S
GR
GS
0.149 GC
2 setlinecap
1 LJ
0.5 LW
N
130 207 M
137.75 207 L
S
GR
GS
0.149 GC
2 setlinecap
1 LJ
0.5 LW
N
130 126 M
137.75 126 L
S
GR
GS
0.149 GC
2 setlinecap
1 LJ
0.5 LW
N
130 45 M
137.75 45 L
S
GR
GS
0.149 GC
2 setlinecap
1 LJ
0.5 LW
N
905 531 M
897.25 531 L
S
GR
GS
0.149 GC
2 setlinecap
1 LJ
0.5 LW
N
905 450 M
897.25 450 L
S
GR
GS
0.149 GC
2 setlinecap
1 LJ
0.5 LW
N
905 369 M
897.25 369 L
S
GR
GS
0.149 GC
2 setlinecap
1 LJ
0.5 LW
N
905 288 M
897.25 288 L
S
GR
GS
0.149 GC
2 setlinecap
1 LJ
0.5 LW
N
905 207 M
897.25 207 L
S
GR
GS
0.149 GC
2 setlinecap
1 LJ
0.5 LW
N
905 126 M
897.25 126 L
S
GR
GS
0.149 GC
2 setlinecap
1 LJ
0.5 LW
N
905 45 M
897.25 45 L
S
GR
GS
[1 0 0 1 123.2 531] CT
0.149 GC
/Helvetica 24 F
GS
[1 0 0 1 0 0] CT
-34 8.5 moveto 
1 -1 scale
(0.7) t 
GR
GR
GS
[1 0 0 1 123.2 450] CT
0.149 GC
/Helvetica 24 F
GS
[1 0 0 1 0 0] CT
-47 8.5 moveto 
1 -1 scale
(0.75) t 
GR
GR
GS
[1 0 0 1 123.2 368.99997] CT
0.149 GC
/Helvetica 24 F
GS
[1 0 0 1 0 0] CT
-34 8.5 moveto 
1 -1 scale
(0.8) t 
GR
GR
GS
[1 0 0 1 123.2 287.99997] CT
0.149 GC
/Helvetica 24 F
GS
[1 0 0 1 0 0] CT
-47 8.5 moveto 
1 -1 scale
(0.85) t 
GR
GR
GS
[1 0 0 1 123.2 207.00005] CT
0.149 GC
/Helvetica 24 F
GS
[1 0 0 1 0 0] CT
-34 8.5 moveto 
1 -1 scale
(0.9) t 
GR
GR
GS
[1 0 0 1 123.2 126.00002] CT
0.149 GC
/Helvetica 24 F
GS
[1 0 0 1 0 0] CT
-47 8.5 moveto 
1 -1 scale
(0.95) t 
GR
GR
GS
[1 0 0 1 123.2 45] CT
0.149 GC
/Helvetica 24 F
GS
[1 0 0 1 0 0] CT
-14 8.5 moveto 
1 -1 scale
(1) t 
GR
GR
GS
[0 -1 1 0 73.2 287.99976] CT
0.149 GC
/Helvetica 26.4 F
GS
[1 0 0 1 0 0] CT
-153 -6 moveto 
1 -1 scale
(1 - False Non-Match Rate) t 
GR
GR
GS
[1 0 0 1 517.50049 38.39996] CT
/Helvetica-Bold 26.4 F
GS
[1 0 0 1 0 0] CT
-279.5 -6 moveto 
1 -1 scale
(Data acquired less than 48 hours after death) t 
GR
GR
GS
0 0 1 RC
1 LJ
2 LW
N
185.683 531.058 M
186.987 530.337 L
189.987 527.025 L
195.103 525.368 L
198.808 523.712 L
204.63 520.399 L
209.923 517.086 L
215.216 513.773 L
218.745 510.46 L
225.273 507.147 L
229.86 507.147 L
235.859 505.491 L
242.21 505.491 L
248.738 503.834 L
257.03 500.521 L
264.264 498.865 L
273.438 493.896 L
281.025 493.896 L
290.552 493.896 L
296.904 492.239 L
304.667 490.583 L
313.665 490.583 L
322.663 490.583 L
337.659 488.926 L
349.127 485.613 L
359.008 483.957 L
371.711 483.957 L
385.119 478.988 L
400.822 478.988 L
414.936 478.988 L
430.991 478.988 L
448.987 477.331 L
467.866 475.675 L
483.921 475.675 L
505.445 474.018 L
521.853 472.362 L
545.848 470.706 L
570.019 469.049 L
593.308 465.736 L
615.009 462.423 L
639.18 462.423 L
669.35 459.11 L
694.05 454.141 L
723.338 452.485 L
749.802 452.485 L
779.266 452.485 L
812.788 450.828 L
842.429 449.172 L
877.009 447.515 L
905.092 445.182 L
S
GR
GS
0 1 0 RC
1 LJ
2 LW
N
130 531.058 M
130 530.337 L
130 527.025 L
130 525.368 L
130 523.712 L
130 515.429 L
130 512.117 L
130 510.46 L
130 510.46 L
130 508.804 L
130 503.834 L
130 497.209 L
130 492.239 L
130 483.957 L
130 482.301 L
130 480.644 L
130 478.988 L
130 474.018 L
130 472.362 L
130 470.706 L
130 465.736 L
130 464.08 L
130 460.767 L
130 459.11 L
130 457.454 L
130 457.454 L
130 455.798 L
130 452.485 L
130 452.485 L
130.176 452.485 L
130.176 450.828 L
130.176 449.172 L
130.176 444.202 L
130.176 440.89 L
130.176 439.233 L
130.176 432.607 L
130.176 427.638 L
130.176 419.356 L
130.176 417.699 L
130.176 412.73 L
130.353 409.417 L
130.529 404.448 L
130.706 397.822 L
130.706 392.853 L
130.706 386.227 L
130.706 384.571 L
130.882 374.632 L
131.588 369.663 L
131.764 361.38 L
131.941 356.411 L
132.117 354.755 L
132.47 353.098 L
132.47 353.098 L
132.47 348.129 L
132.999 343.159 L
133.176 333.221 L
133.705 326.595 L
133.705 323.282 L
134.058 321.626 L
134.411 319.969 L
134.764 319.969 L
135.469 315 L
136.352 311.687 L
136.881 306.718 L
137.763 305.061 L
138.822 295.123 L
140.409 293.466 L
140.762 290.153 L
143.585 288.497 L
145.35 286.84 L
146.055 286.84 L
147.82 283.528 L
149.231 278.558 L
151.172 275.245 L
153.289 273.589 L
155.053 271.933 L
158.935 271.933 L
163.169 266.963 L
166.874 263.65 L
171.285 263.65 L
176.049 257.025 L
182.047 248.742 L
187.34 245.429 L
191.927 245.429 L
199.69 243.773 L
209.394 240.46 L
219.098 235.491 L
228.625 232.178 L
238.329 228.865 L
249.444 228.865 L
257.913 227.209 L
269.91 225.552 L
285.612 222.239 L
297.433 218.926 L
313.665 213.957 L
332.014 210.644 L
348.422 208.988 L
366.594 205.675 L
387.942 204.018 L
409.467 204.018 L
430.109 200.706 L
454.81 200.706 L
475.805 200.706 L
500.505 200.706 L
522.383 200.706 L
552.552 199.049 L
576.018 199.049 L
609.54 197.393 L
640.768 195.736 L
666.527 194.08 L
692.639 194.08 L
720.515 192.423 L
752.449 192.423 L
782.089 190.767 L
813.318 189.11 L
842.605 187.454 L
872.951 187.454 L
900.651 187.454 L
905.092 187.454 L
S
GR
GS
1 LJ
2 LW
N
130 531.058 M
130 530.337 L
130 523.712 L
130 520.399 L
130 513.773 L
130 513.773 L
130 510.46 L
130 510.46 L
130 505.491 L
130 502.178 L
130 500.521 L
130 497.209 L
130 495.552 L
130 495.552 L
130 492.239 L
130 488.926 L
130 488.926 L
130 488.926 L
130 485.613 L
130 483.957 L
130 483.957 L
130 482.301 L
130 478.988 L
130 472.362 L
130 472.362 L
130 465.736 L
130 457.454 L
130 457.454 L
130 452.485 L
130 450.828 L
130 445.859 L
130 444.202 L
130 439.233 L
130 432.607 L
130 429.294 L
130 429.294 L
130 427.638 L
130 424.325 L
130 422.669 L
130 421.012 L
130 417.699 L
130 414.387 L
130 407.761 L
130 404.448 L
130 402.791 L
130 402.791 L
130 401.135 L
130 397.822 L
130 397.822 L
130 387.883 L
130 384.571 L
130 377.945 L
130 372.975 L
130 369.663 L
130 364.693 L
130 359.724 L
130 354.755 L
130 353.098 L
130 351.442 L
130 344.816 L
130 341.503 L
130 336.534 L
130 329.908 L
130 326.595 L
130 326.595 L
130 319.969 L
130 318.313 L
130 315 L
130 310.031 L
130 308.374 L
130 303.405 L
130 298.436 L
130 298.436 L
130 296.779 L
130 291.81 L
130 288.497 L
130 283.528 L
130 281.871 L
130 278.558 L
130 271.933 L
130 261.994 L
130 260.337 L
130 258.681 L
130 257.025 L
130 250.399 L
130 248.742 L
130 245.429 L
130 242.117 L
130 242.117 L
130 238.804 L
130 237.147 L
130.353 237.147 L
130.529 235.491 L
130.529 235.491 L
130.882 233.834 L
131.235 233.834 L
131.235 225.552 L
131.235 225.552 L
131.411 223.896 L
131.411 222.239 L
131.411 217.27 L
131.764 217.27 L
131.764 212.301 L
131.764 212.301 L
131.941 210.644 L
131.941 210.644 L
132.294 207.331 L
132.646 207.331 L
132.999 204.018 L
133.176 200.706 L
133.352 199.049 L
133.529 195.736 L
134.234 194.08 L
134.764 192.423 L
135.117 189.11 L
135.469 187.454 L
135.822 185.798 L
136.528 185.798 L
137.057 185.798 L
137.939 185.798 L
139.527 184.141 L
140.233 180.828 L
141.115 179.172 L
142.35 175.859 L
143.232 174.202 L
143.938 170.89 L
145.173 169.233 L
146.937 165.92 L
149.055 164.264 L
151.348 162.607 L
153.642 159.295 L
154.7 159.295 L
157.523 159.295 L
158.582 157.638 L
161.052 157.638 L
163.698 157.638 L
165.816 155.982 L
167.756 152.669 L
170.05 151.012 L
173.402 149.356 L
176.049 146.043 L
180.106 142.73 L
183.282 139.417 L
188.752 139.417 L
193.868 139.417 L
198.455 136.104 L
202.69 134.448 L
208.865 132.791 L
214.158 131.135 L
221.038 131.135 L
227.743 126.166 L
236.212 124.509 L
245.033 124.509 L
247.503 121.196 L
255.619 121.196 L
264.793 121.196 L
274.144 117.883 L
286.142 114.571 L
298.315 112.914 L
311.9 111.258 L
319.487 109.601 L
329.72 104.632 L
342.423 102.975 L
358.478 98.006 L
369.77 98.006 L
386.707 98.006 L
403.292 98.006 L
411.937 98.006 L
427.816 96.35 L
444.929 93.037 L
460.808 93.037 L
478.628 93.037 L
501.917 91.38 L
524.853 89.724 L
529.793 86.411 L
555.728 84.755 L
583.251 83.098 L
606.717 81.442 L
631.417 78.129 L
661.234 76.472 L
694.756 76.472 L
708.165 76.472 L
741.687 76.472 L
770.798 76.472 L
805.731 76.472 L
843.84 76.472 L
882.126 71.503 L
905.092 70.451 L
S
GR
GS
1 0 0 RC
1 LJ
2 LW
N
130 531.058 M
130 530.337 L
130 528.681 L
130 527.025 L
130 525.368 L
130 522.055 L
130 517.086 L
130 517.086 L
130 515.429 L
130 510.46 L
130 508.804 L
130 508.804 L
130 507.147 L
130 498.865 L
130 495.552 L
130 493.896 L
130 490.583 L
130 490.583 L
130 487.27 L
130 482.301 L
130 480.644 L
130 480.644 L
130 477.331 L
130 477.331 L
130 475.675 L
130 474.018 L
130 474.018 L
130 472.362 L
130 470.706 L
130 470.706 L
130 464.08 L
130 462.423 L
130 459.11 L
130 459.11 L
130 455.798 L
130 450.828 L
130 445.859 L
130 439.233 L
130 439.233 L
130 435.92 L
130 434.264 L
130 434.264 L
130 432.607 L
130 429.294 L
130 424.325 L
130 421.012 L
130 417.699 L
130 412.73 L
130 411.074 L
130 406.104 L
130 404.448 L
130 399.479 L
130 397.822 L
130 391.196 L
130 389.54 L
130 387.883 L
130 382.914 L
130 379.601 L
130 379.601 L
130 377.945 L
130 376.288 L
130 371.319 L
130 368.006 L
130 363.037 L
130 363.037 L
130 361.38 L
130 359.724 L
130 353.098 L
130 349.785 L
130 343.159 L
130 343.159 L
130 338.19 L
130 333.221 L
130 331.564 L
130 328.252 L
130 324.939 L
130 321.626 L
130 315 L
130 311.687 L
130 303.405 L
130 300.092 L
130 296.779 L
130 296.779 L
130 291.81 L
130 290.153 L
130 285.184 L
130 281.871 L
130 280.215 L
130 278.558 L
130 276.902 L
130 275.245 L
130 270.276 L
130 268.62 L
130 268.62 L
130 266.963 L
130 266.963 L
130 265.307 L
130 261.994 L
130 261.994 L
130 260.337 L
130 258.681 L
130.176 257.025 L
130.176 250.399 L
130.176 245.429 L
130.176 243.773 L
130.176 242.117 L
130.176 240.46 L
130.176 240.46 L
130.176 240.46 L
130.353 240.46 L
130.529 237.147 L
130.529 235.491 L
130.529 230.521 L
130.529 227.209 L
130.529 223.896 L
130.529 222.239 L
130.529 222.239 L
130.529 222.239 L
130.529 217.27 L
130.529 217.27 L
130.529 213.957 L
130.529 210.644 L
130.706 205.675 L
130.706 205.675 L
131.059 204.018 L
131.235 204.018 L
131.411 200.706 L
131.764 199.049 L
131.764 197.393 L
131.941 194.08 L
132.294 192.423 L
132.294 190.767 L
132.294 187.454 L
132.294 187.454 L
132.47 184.141 L
132.47 184.141 L
132.823 182.485 L
132.999 180.828 L
133.529 180.828 L
133.529 179.172 L
134.94 174.202 L
134.94 169.233 L
134.94 167.577 L
134.94 167.577 L
135.293 167.577 L
135.646 167.577 L
135.999 165.92 L
136.352 165.92 L
136.881 164.264 L
137.057 164.264 L
137.41 164.264 L
137.587 162.607 L
138.292 160.951 L
139.351 157.638 L
140.762 155.982 L
141.468 154.325 L
142.35 152.669 L
143.585 149.356 L
145.702 147.699 L
147.467 147.699 L
148.525 146.043 L
149.76 144.387 L
151.172 144.387 L
152.936 141.074 L
156.112 141.074 L
157.876 141.074 L
160.346 141.074 L
163.522 139.417 L
165.286 139.417 L
167.58 139.417 L
171.638 134.448 L
173.578 132.791 L
176.931 127.822 L
180.283 126.166 L
183.811 124.509 L
185.752 122.853 L
189.281 122.853 L
192.809 119.54 L
198.279 117.883 L
202.866 114.571 L
209.394 114.571 L
211.864 114.571 L
218.921 111.258 L
224.214 111.258 L
233.389 109.601 L
240.975 109.601 L
247.856 109.601 L
252.62 106.288 L
265.499 106.288 L
274.321 104.632 L
284.906 102.975 L
296.022 99.663 L
305.549 99.663 L
313.135 99.663 L
327.074 99.663 L
341.364 96.35 L
354.95 94.693 L
367.476 94.693 L
385.825 93.037 L
397.293 91.38 L
414.054 88.067 L
429.933 88.067 L
448.987 86.411 L
469.453 84.755 L
493.977 84.755 L
508.974 84.755 L
533.498 84.755 L
561.021 79.785 L
589.603 79.785 L
621.008 78.129 L
652.236 78.129 L
686.287 78.129 L
703.401 78.129 L
733.218 76.472 L
770.445 74.816 L
802.026 73.159 L
844.899 73.159 L
883.89 73.159 L
905.092 73.159 L
S
GR
GS
[10 6] 0 setdash
2 LJ
0.5 LW
N
905.092 126.01 M
130 45 L
S
GR
%%Trailer
%%Pages: 1
%%EOF
