%!PS-Adobe-3.0 EPSF-3.0
%%Creator: (MATLAB, The Mathworks, Inc. Version 9.5.0.1049112 \(R2018b\) Update 3. Operating System: Mac OS X)
%%Title: ./ROCs_postmortem_new_370.eps
%%CreationDate: 2019-02-28T21:29:17
%%Pages: (atend)
%%BoundingBox:    61     5   907   587
%%LanguageLevel: 3
%%EndComments
%%BeginProlog
%%BeginResource: procset (Apache XML Graphics Std ProcSet) 1.2 0
%%Version: 1.2 0
%%Copyright: (Copyright 2001-2003,2010 The Apache Software Foundation. License terms: http://www.apache.org/licenses/LICENSE-2.0)
/bd{bind def}bind def
/ld{load def}bd
/GR/grestore ld
/GS/gsave ld
/RM/rmoveto ld
/C/curveto ld
/t/show ld
/L/lineto ld
/ML/setmiterlimit ld
/CT/concat ld
/f/fill ld
/N/newpath ld
/S/stroke ld
/CC/setcmykcolor ld
/A/ashow ld
/cp/closepath ld
/RC/setrgbcolor ld
/LJ/setlinejoin ld
/GC/setgray ld
/LW/setlinewidth ld
/M/moveto ld
/re {4 2 roll M
1 index 0 rlineto
0 exch rlineto
neg 0 rlineto
cp } bd
/_ctm matrix def
/_tm matrix def
/BT { _ctm currentmatrix pop matrix _tm copy pop 0 0 moveto } bd
/ET { _ctm setmatrix } bd
/iTm { _ctm setmatrix _tm concat } bd
/Tm { _tm astore pop iTm 0 0 moveto } bd
/ux 0.0 def
/uy 0.0 def
/F {
  /Tp exch def
  /Tf exch def
  Tf findfont Tp scalefont setfont
  /cf Tf def  /cs Tp def
} bd
/ULS {currentpoint /uy exch def /ux exch def} bd
/ULE {
  /Tcx currentpoint pop def
  gsave
  newpath
  cf findfont cs scalefont dup
  /FontMatrix get 0 get /Ts exch def /FontInfo get dup
  /UnderlinePosition get Ts mul /To exch def
  /UnderlineThickness get Ts mul /Tt exch def
  ux uy To add moveto  Tcx uy To add lineto
  Tt setlinewidth stroke
  grestore
} bd
/OLE {
  /Tcx currentpoint pop def
  gsave
  newpath
  cf findfont cs scalefont dup
  /FontMatrix get 0 get /Ts exch def /FontInfo get dup
  /UnderlinePosition get Ts mul /To exch def
  /UnderlineThickness get Ts mul /Tt exch def
  ux uy To add cs add moveto Tcx uy To add cs add lineto
  Tt setlinewidth stroke
  grestore
} bd
/SOE {
  /Tcx currentpoint pop def
  gsave
  newpath
  cf findfont cs scalefont dup
  /FontMatrix get 0 get /Ts exch def /FontInfo get dup
  /UnderlinePosition get Ts mul /To exch def
  /UnderlineThickness get Ts mul /Tt exch def
  ux uy To add cs 10 mul 26 idiv add moveto Tcx uy To add cs 10 mul 26 idiv add lineto
  Tt setlinewidth stroke
  grestore
} bd
/QT {
/Y22 exch store
/X22 exch store
/Y21 exch store
/X21 exch store
currentpoint
/Y21 load 2 mul add 3 div exch
/X21 load 2 mul add 3 div exch
/X21 load 2 mul /X22 load add 3 div
/Y21 load 2 mul /Y22 load add 3 div
/X22 load /Y22 load curveto
} bd
/SSPD {
dup length /d exch dict def
{
/v exch def
/k exch def
currentpagedevice k known {
/cpdv currentpagedevice k get def
v cpdv ne {
/upd false def
/nullv v type /nulltype eq def
/nullcpdv cpdv type /nulltype eq def
nullv nullcpdv or
{
/upd true def
} {
/sametype v type cpdv type eq def
sametype {
v type /arraytype eq {
/vlen v length def
/cpdvlen cpdv length def
vlen cpdvlen eq {
0 1 vlen 1 sub {
/i exch def
/obj v i get def
/cpdobj cpdv i get def
obj cpdobj ne {
/upd true def
exit
} if
} for
} {
/upd true def
} ifelse
} {
v type /dicttype eq {
v {
/dv exch def
/dk exch def
/cpddv cpdv dk get def
dv cpddv ne {
/upd true def
exit
} if
} forall
} {
/upd true def
} ifelse
} ifelse
} if
} ifelse
upd true eq {
d k v put
} if
} if
} if
} forall
d length 0 gt {
d setpagedevice
} if
} bd
/RE { % /NewFontName [NewEncodingArray] /FontName RE -
  findfont dup length dict begin
  {
    1 index /FID ne
    {def} {pop pop} ifelse
  } forall
  /Encoding exch def
  /FontName 1 index def
  currentdict definefont pop
  end
} bind def
%%EndResource
%%BeginResource: procset (Apache XML Graphics EPS ProcSet) 1.0 0
%%Version: 1.0 0
%%Copyright: (Copyright 2002-2003 The Apache Software Foundation. License terms: http://www.apache.org/licenses/LICENSE-2.0)
/BeginEPSF { %def
/b4_Inc_state save def         % Save state for cleanup
/dict_count countdictstack def % Count objects on dict stack
/op_count count 1 sub def      % Count objects on operand stack
userdict begin                 % Push userdict on dict stack
/showpage { } def              % Redefine showpage, { } = null proc
0 setgray 0 setlinecap         % Prepare graphics state
1 setlinewidth 0 setlinejoin
10 setmiterlimit [ ] 0 setdash newpath
/languagelevel where           % If level not equal to 1 then
{pop languagelevel             % set strokeadjust and
1 ne                           % overprint to their defaults.
{false setstrokeadjust false setoverprint
} if
} if
} bd
/EndEPSF { %def
count op_count sub {pop} repeat            % Clean up stacks
countdictstack dict_count sub {end} repeat
b4_Inc_state restore
} bd
%%EndResource
%FOPBeginFontDict
%%IncludeResource: font Courier-Oblique
%%IncludeResource: font Courier-BoldOblique
%%IncludeResource: font Courier-Bold
%%IncludeResource: font ZapfDingbats
%%IncludeResource: font Symbol
%%IncludeResource: font Helvetica
%%IncludeResource: font Helvetica-Oblique
%%IncludeResource: font Helvetica-Bold
%%IncludeResource: font Helvetica-BoldOblique
%%IncludeResource: font Times-Roman
%%IncludeResource: font Times-Italic
%%IncludeResource: font Times-Bold
%%IncludeResource: font Times-BoldItalic
%%IncludeResource: font Courier
%FOPEndFontDict
%%BeginResource: encoding WinAnsiEncoding
/WinAnsiEncoding [
/.notdef /.notdef /.notdef /.notdef /.notdef
/.notdef /.notdef /.notdef /.notdef /.notdef
/.notdef /.notdef /.notdef /.notdef /.notdef
/.notdef /.notdef /.notdef /.notdef /.notdef
/.notdef /.notdef /.notdef /.notdef /.notdef
/.notdef /.notdef /.notdef /.notdef /.notdef
/.notdef /.notdef /space /exclam /quotedbl
/numbersign /dollar /percent /ampersand /quotesingle
/parenleft /parenright /asterisk /plus /comma
/hyphen /period /slash /zero /one
/two /three /four /five /six
/seven /eight /nine /colon /semicolon
/less /equal /greater /question /at
/A /B /C /D /E
/F /G /H /I /J
/K /L /M /N /O
/P /Q /R /S /T
/U /V /W /X /Y
/Z /bracketleft /backslash /bracketright /asciicircum
/underscore /quoteleft /a /b /c
/d /e /f /g /h
/i /j /k /l /m
/n /o /p /q /r
/s /t /u /v /w
/x /y /z /braceleft /bar
/braceright /asciitilde /bullet /Euro /bullet
/quotesinglbase /florin /quotedblbase /ellipsis /dagger
/daggerdbl /circumflex /perthousand /Scaron /guilsinglleft
/OE /bullet /Zcaron /bullet /bullet
/quoteleft /quoteright /quotedblleft /quotedblright /bullet
/endash /emdash /asciitilde /trademark /scaron
/guilsinglright /oe /bullet /zcaron /Ydieresis
/space /exclamdown /cent /sterling /currency
/yen /brokenbar /section /dieresis /copyright
/ordfeminine /guillemotleft /logicalnot /sfthyphen /registered
/macron /degree /plusminus /twosuperior /threesuperior
/acute /mu /paragraph /middot /cedilla
/onesuperior /ordmasculine /guillemotright /onequarter /onehalf
/threequarters /questiondown /Agrave /Aacute /Acircumflex
/Atilde /Adieresis /Aring /AE /Ccedilla
/Egrave /Eacute /Ecircumflex /Edieresis /Igrave
/Iacute /Icircumflex /Idieresis /Eth /Ntilde
/Ograve /Oacute /Ocircumflex /Otilde /Odieresis
/multiply /Oslash /Ugrave /Uacute /Ucircumflex
/Udieresis /Yacute /Thorn /germandbls /agrave
/aacute /acircumflex /atilde /adieresis /aring
/ae /ccedilla /egrave /eacute /ecircumflex
/edieresis /igrave /iacute /icircumflex /idieresis
/eth /ntilde /ograve /oacute /ocircumflex
/otilde /odieresis /divide /oslash /ugrave
/uacute /ucircumflex /udieresis /yacute /thorn
/ydieresis
] def
%%EndResource
%FOPBeginFontReencode
/Courier-Oblique findfont
dup length dict begin
  {1 index /FID ne {def} {pop pop} ifelse} forall
  /Encoding WinAnsiEncoding def
  currentdict
end
/Courier-Oblique exch definefont pop
/Courier-BoldOblique findfont
dup length dict begin
  {1 index /FID ne {def} {pop pop} ifelse} forall
  /Encoding WinAnsiEncoding def
  currentdict
end
/Courier-BoldOblique exch definefont pop
/Courier-Bold findfont
dup length dict begin
  {1 index /FID ne {def} {pop pop} ifelse} forall
  /Encoding WinAnsiEncoding def
  currentdict
end
/Courier-Bold exch definefont pop
/Helvetica findfont
dup length dict begin
  {1 index /FID ne {def} {pop pop} ifelse} forall
  /Encoding WinAnsiEncoding def
  currentdict
end
/Helvetica exch definefont pop
/Helvetica-Oblique findfont
dup length dict begin
  {1 index /FID ne {def} {pop pop} ifelse} forall
  /Encoding WinAnsiEncoding def
  currentdict
end
/Helvetica-Oblique exch definefont pop
/Helvetica-Bold findfont
dup length dict begin
  {1 index /FID ne {def} {pop pop} ifelse} forall
  /Encoding WinAnsiEncoding def
  currentdict
end
/Helvetica-Bold exch definefont pop
/Helvetica-BoldOblique findfont
dup length dict begin
  {1 index /FID ne {def} {pop pop} ifelse} forall
  /Encoding WinAnsiEncoding def
  currentdict
end
/Helvetica-BoldOblique exch definefont pop
/Times-Roman findfont
dup length dict begin
  {1 index /FID ne {def} {pop pop} ifelse} forall
  /Encoding WinAnsiEncoding def
  currentdict
end
/Times-Roman exch definefont pop
/Times-Italic findfont
dup length dict begin
  {1 index /FID ne {def} {pop pop} ifelse} forall
  /Encoding WinAnsiEncoding def
  currentdict
end
/Times-Italic exch definefont pop
/Times-Bold findfont
dup length dict begin
  {1 index /FID ne {def} {pop pop} ifelse} forall
  /Encoding WinAnsiEncoding def
  currentdict
end
/Times-Bold exch definefont pop
/Times-BoldItalic findfont
dup length dict begin
  {1 index /FID ne {def} {pop pop} ifelse} forall
  /Encoding WinAnsiEncoding def
  currentdict
end
/Times-BoldItalic exch definefont pop
/Courier findfont
dup length dict begin
  {1 index /FID ne {def} {pop pop} ifelse} forall
  /Encoding WinAnsiEncoding def
  currentdict
end
/Courier exch definefont pop
%FOPEndFontReencode
%%EndProlog
%%Page: 1 1
%%PageBoundingBox: 0 0 1000 600
%%BeginPageSetup
[1 0 0 -1 0 600] CT
%%EndPageSetup
GS
1 GC
N
0 0 1000 600 re
f
GR
GS
1 GC
N
0 0 1000 600 re
f
GR
GS
1 GC
N
130 531 M
905 531 L
905 45 L
130 45 L
cp
f
GR
GS
0.873 GC
1 LJ
0.5 LW
N
130 531 M
130 45 L
S
GR
GS
0.873 GC
1 LJ
0.5 LW
N
285 531 M
285 45 L
S
GR
GS
0.873 GC
1 LJ
0.5 LW
N
440 531 M
440 45 L
S
GR
GS
0.873 GC
1 LJ
0.5 LW
N
595 531 M
595 45 L
S
GR
GS
0.873 GC
1 LJ
0.5 LW
N
750 531 M
750 45 L
S
GR
GS
0.873 GC
1 LJ
0.5 LW
N
905 531 M
905 45 L
S
GR
GS
0.873 GC
1 LJ
0.5 LW
N
905 531 M
130 531 L
S
GR
GS
0.873 GC
1 LJ
0.5 LW
N
905 433.8 M
130 433.8 L
S
GR
GS
0.873 GC
1 LJ
0.5 LW
N
905 336.6 M
130 336.6 L
S
GR
GS
0.873 GC
1 LJ
0.5 LW
N
905 239.4 M
130 239.4 L
S
GR
GS
0.873 GC
1 LJ
0.5 LW
N
905 142.2 M
130 142.2 L
S
GR
GS
0.873 GC
1 LJ
0.5 LW
N
905 45 M
130 45 L
S
GR
GS
0.149 GC
2 setlinecap
1 LJ
0.5 LW
N
130 531 M
905 531 L
S
GR
GS
0.149 GC
2 setlinecap
1 LJ
0.5 LW
N
130 45 M
905 45 L
S
GR
GS
0.149 GC
2 setlinecap
1 LJ
0.5 LW
N
130 531 M
130 523.25 L
S
GR
GS
0.149 GC
2 setlinecap
1 LJ
0.5 LW
N
285 531 M
285 523.25 L
S
GR
GS
0.149 GC
2 setlinecap
1 LJ
0.5 LW
N
440 531 M
440 523.25 L
S
GR
GS
0.149 GC
2 setlinecap
1 LJ
0.5 LW
N
595 531 M
595 523.25 L
S
GR
GS
0.149 GC
2 setlinecap
1 LJ
0.5 LW
N
750 531 M
750 523.25 L
S
GR
GS
0.149 GC
2 setlinecap
1 LJ
0.5 LW
N
905 531 M
905 523.25 L
S
GR
GS
0.149 GC
2 setlinecap
1 LJ
0.5 LW
N
130 45 M
130 52.75 L
S
GR
GS
0.149 GC
2 setlinecap
1 LJ
0.5 LW
N
285 45 M
285 52.75 L
S
GR
GS
0.149 GC
2 setlinecap
1 LJ
0.5 LW
N
440 45 M
440 52.75 L
S
GR
GS
0.149 GC
2 setlinecap
1 LJ
0.5 LW
N
595 45 M
595 52.75 L
S
GR
GS
0.149 GC
2 setlinecap
1 LJ
0.5 LW
N
750 45 M
750 52.75 L
S
GR
GS
0.149 GC
2 setlinecap
1 LJ
0.5 LW
N
905 45 M
905 52.75 L
S
GR
GS
[1 0 0 1 130 537.79999] CT
0.149 GC
/Helvetica 24 F
GS
[1 0 0 1 0 0] CT
-7 23 moveto 
1 -1 scale
(0) t 
GR
GR
GS
[1 0 0 1 285 537.79999] CT
0.149 GC
/Helvetica 24 F
GS
[1 0 0 1 0 0] CT
-17 23 moveto 
1 -1 scale
(0.2) t 
GR
GR
GS
[1 0 0 1 440 537.79999] CT
0.149 GC
/Helvetica 24 F
GS
[1 0 0 1 0 0] CT
-17 23 moveto 
1 -1 scale
(0.4) t 
GR
GR
GS
[1 0 0 1 595 537.79999] CT
0.149 GC
/Helvetica 24 F
GS
[1 0 0 1 0 0] CT
-17 23 moveto 
1 -1 scale
(0.6) t 
GR
GR
GS
[1 0 0 1 750 537.79999] CT
0.149 GC
/Helvetica 24 F
GS
[1 0 0 1 0 0] CT
-17 23 moveto 
1 -1 scale
(0.8) t 
GR
GR
GS
[1 0 0 1 905 537.79999] CT
0.149 GC
/Helvetica 24 F
GS
[1 0 0 1 0 0] CT
-7 23 moveto 
1 -1 scale
(1) t 
GR
GR
GS
[1 0 0 1 517.50037 567.79999] CT
0.149 GC
/Helvetica 26.4 F
GS
[1 0 0 1 0 0] CT
-103.5 26 moveto 
1 -1 scale
(False Match Rate) t 
GR
GR
GS
0.149 GC
2 setlinecap
1 LJ
0.5 LW
N
130 531 M
130 45 L
S
GR
GS
0.149 GC
2 setlinecap
1 LJ
0.5 LW
N
905 531 M
905 45 L
S
GR
GS
0.149 GC
2 setlinecap
1 LJ
0.5 LW
N
130 531 M
137.75 531 L
S
GR
GS
0.149 GC
2 setlinecap
1 LJ
0.5 LW
N
130 433.8 M
137.75 433.8 L
S
GR
GS
0.149 GC
2 setlinecap
1 LJ
0.5 LW
N
130 336.6 M
137.75 336.6 L
S
GR
GS
0.149 GC
2 setlinecap
1 LJ
0.5 LW
N
130 239.4 M
137.75 239.4 L
S
GR
GS
0.149 GC
2 setlinecap
1 LJ
0.5 LW
N
130 142.2 M
137.75 142.2 L
S
GR
GS
0.149 GC
2 setlinecap
1 LJ
0.5 LW
N
130 45 M
137.75 45 L
S
GR
GS
0.149 GC
2 setlinecap
1 LJ
0.5 LW
N
905 531 M
897.25 531 L
S
GR
GS
0.149 GC
2 setlinecap
1 LJ
0.5 LW
N
905 433.8 M
897.25 433.8 L
S
GR
GS
0.149 GC
2 setlinecap
1 LJ
0.5 LW
N
905 336.6 M
897.25 336.6 L
S
GR
GS
0.149 GC
2 setlinecap
1 LJ
0.5 LW
N
905 239.4 M
897.25 239.4 L
S
GR
GS
0.149 GC
2 setlinecap
1 LJ
0.5 LW
N
905 142.2 M
897.25 142.2 L
S
GR
GS
0.149 GC
2 setlinecap
1 LJ
0.5 LW
N
905 45 M
897.25 45 L
S
GR
GS
[1 0 0 1 123.2 531] CT
0.149 GC
/Helvetica 24 F
GS
[1 0 0 1 0 0] CT
-14 8.5 moveto 
1 -1 scale
(0) t 
GR
GR
GS
[1 0 0 1 123.2 433.79999] CT
0.149 GC
/Helvetica 24 F
GS
[1 0 0 1 0 0] CT
-34 8.5 moveto 
1 -1 scale
(0.2) t 
GR
GR
GS
[1 0 0 1 123.2 336.60001] CT
0.149 GC
/Helvetica 24 F
GS
[1 0 0 1 0 0] CT
-34 8.5 moveto 
1 -1 scale
(0.4) t 
GR
GR
GS
[1 0 0 1 123.2 239.39999] CT
0.149 GC
/Helvetica 24 F
GS
[1 0 0 1 0 0] CT
-34 8.5 moveto 
1 -1 scale
(0.6) t 
GR
GR
GS
[1 0 0 1 123.2 142.2] CT
0.149 GC
/Helvetica 24 F
GS
[1 0 0 1 0 0] CT
-34 8.5 moveto 
1 -1 scale
(0.8) t 
GR
GR
GS
[1 0 0 1 123.2 45] CT
0.149 GC
/Helvetica 24 F
GS
[1 0 0 1 0 0] CT
-14 8.5 moveto 
1 -1 scale
(1) t 
GR
GR
GS
[0 -1 1 0 86.2 287.99976] CT
0.149 GC
/Helvetica 26.4 F
GS
[1 0 0 1 0 0] CT
-153 -6 moveto 
1 -1 scale
(1 - False Non-Match Rate) t 
GR
GR
GS
[1 0 0 1 517.50049 38.40002] CT
/Helvetica-Bold 26.4 F
GS
[1 0 0 1 0 0] CT
-287 -6 moveto 
1 -1 scale
(Data acquired less than 370 hours after death) t 
GR
GR
GS
0 0 1 RC
1 LJ
2 LW
N
130.001 530.564 M
130.001 530.564 L
130.001 530.564 L
130.001 530.564 L
130.001 530.564 L
130.001 530.564 L
130.001 530.564 L
130.001 530.564 L
130.001 530.564 L
130.001 530.564 L
130.001 530.564 L
130.001 530.564 L
130.001 530.564 L
130.001 530.564 L
130.001 530.564 L
130.001 530.564 L
130.001 530.564 L
130.001 530.564 L
130.001 530.564 L
130.001 530.564 L
130.001 530.564 L
130.003 530.564 L
130.003 530.564 L
130.003 530.564 L
130.003 530.564 L
130.003 530.564 L
130.003 530.564 L
130.003 530.564 L
130.003 530.564 L
130.003 530.564 L
130.003 530.564 L
130.003 530.564 L
130.003 530.564 L
130.003 530.564 L
130.003 530.564 L
130.003 530.564 L
130.003 530.564 L
130.003 530.564 L
130.003 530.564 L
130.003 530.564 L
130.003 530.564 L
130.003 530.564 L
130.003 530.564 L
130.003 530.564 L
130.003 530.564 L
130.003 530.564 L
130.003 530.564 L
130.003 530.564 L
130.004 530.564 L
130.004 530.564 L
130.004 530.564 L
130.004 530.564 L
130.004 530.564 L
130.004 530.564 L
130.004 530.564 L
130.004 530.564 L
130.004 530.564 L
130.004 530.564 L
130.004 530.564 L
130.004 530.564 L
130.004 530.564 L
130.004 530.564 L
130.004 530.564 L
130.004 530.564 L
130.004 530.564 L
130.004 530.564 L
130.004 530.564 L
130.004 530.564 L
130.004 530.564 L
130.004 530.564 L
130.004 530.564 L
130.004 530.564 L
130.005 530.564 L
130.005 530.564 L
130.005 530.564 L
130.005 530.564 L
130.005 530.564 L
130.005 530.564 L
130.005 530.564 L
130.005 530.564 L
130.005 530.564 L
130.005 530.564 L
130.005 530.564 L
130.005 530.564 L
130.007 530.564 L
130.007 530.564 L
130.007 530.564 L
130.007 530.564 L
130.007 530.564 L
130.007 530.564 L
130.007 530.564 L
130.007 530.564 L
130.007 530.564 L
130.007 530.564 L
130.007 530.564 L
130.007 530.564 L
130.007 530.564 L
130.007 530.564 L
130.007 530.564 L
130.007 530.564 L
130.008 530.564 L
130.008 530.564 L
130.008 530.564 L
130.008 530.564 L
130.008 530.564 L
130.008 530.564 L
130.008 530.564 L
130.008 530.564 L
130.009 530.564 L
130.009 530.564 L
130.009 530.564 L
130.009 530.564 L
130.012 530.564 L
130.012 530.564 L
130.012 530.51 L
130.012 530.51 L
130.012 530.455 L
130.012 530.455 L
130.012 530.455 L
130.012 530.401 L
130.014 530.401 L
130.014 530.401 L
130.014 530.401 L
130.014 530.346 L
130.014 530.292 L
130.014 530.292 L
130.014 530.238 L
130.014 529.965 L
130.014 529.911 L
130.014 529.802 L
130.014 529.802 L
130.014 529.747 L
130.014 529.747 L
130.014 529.584 L
130.016 529.53 L
130.016 529.366 L
130.016 529.257 L
130.016 529.257 L
130.016 529.148 L
130.016 528.931 L
130.016 528.713 L
130.016 528.658 L
130.016 528.44 L
130.022 528.277 L
130.022 528.114 L
130.022 528.059 L
130.022 527.896 L
130.022 527.787 L
130.022 527.623 L
130.022 527.515 L
130.022 527.351 L
130.022 526.97 L
130.024 526.698 L
130.025 526.371 L
130.025 526.099 L
130.03 525.554 L
130.03 525.227 L
130.03 524.955 L
130.03 524.737 L
130.03 524.519 L
130.03 524.41 L
130.03 524.138 L
130.03 523.975 L
130.03 523.485 L
130.03 523.212 L
130.03 522.613 L
130.03 522.341 L
130.046 522.177 L
130.046 521.905 L
130.046 521.524 L
130.046 521.415 L
130.046 521.306 L
130.046 520.979 L
130.046 520.653 L
130.046 520.489 L
130.046 520.162 L
130.046 519.618 L
130.046 519.346 L
130.047 519.182 L
130.055 518.855 L
130.055 518.256 L
130.055 518.202 L
130.055 517.93 L
130.055 517.657 L
130.055 517.44 L
130.055 516.732 L
130.055 516.514 L
130.055 516.241 L
130.057 515.642 L
130.057 515.424 L
130.057 514.88 L
130.063 514.226 L
130.063 514.117 L
130.067 513.9 L
130.067 513.137 L
130.07 512.756 L
130.07 512.211 L
130.07 511.667 L
130.07 511.231 L
130.07 510.795 L
130.07 510.523 L
130.07 509.924 L
130.07 509.652 L
130.074 509.379 L
130.074 508.998 L
130.074 508.29 L
130.079 508.018 L
130.079 507.637 L
130.079 507.147 L
130.083 506.765 L
130.083 506.548 L
130.084 505.894 L
130.084 505.295 L
130.089 505.023 L
130.089 504.641 L
130.104 504.097 L
130.104 503.334 L
130.105 502.844 L
130.107 502.3 L
130.107 501.973 L
130.107 501.483 L
130.107 501.047 L
130.107 500.394 L
130.112 500.176 L
130.112 499.903 L
130.112 499.141 L
130.112 498.76 L
130.125 498.487 L
130.128 497.943 L
130.128 497.779 L
130.13 497.507 L
130.132 497.289 L
130.133 496.799 L
130.133 496.472 L
130.138 495.982 L
130.138 495.601 L
130.138 495.056 L
130.141 494.621 L
130.141 493.967 L
130.158 493.749 L
130.159 493.314 L
130.163 492.987 L
130.163 492.279 L
130.164 492.061 L
130.166 491.299 L
130.166 490.863 L
130.167 490.318 L
130.167 489.992 L
130.167 489.665 L
130.167 489.338 L
130.208 488.794 L
130.208 488.358 L
130.208 487.977 L
130.208 487.704 L
130.209 487.214 L
130.212 486.942 L
130.213 486.615 L
130.213 486.506 L
130.216 485.962 L
130.218 485.58 L
130.222 485.145 L
130.224 484.927 L
130.257 484.382 L
130.257 483.729 L
130.268 483.348 L
130.27 483.13 L
130.27 482.531 L
130.275 482.258 L
130.276 481.932 L
130.278 481.55 L
130.284 481.115 L
130.288 480.734 L
130.288 480.407 L
130.291 479.971 L
130.311 479.481 L
130.312 479.154 L
130.312 478.991 L
130.314 478.61 L
130.322 478.174 L
130.322 477.902 L
130.324 477.629 L
130.326 477.139 L
130.329 476.649 L
130.333 476.268 L
130.336 475.996 L
130.337 475.832 L
130.376 475.451 L
130.376 475.07 L
130.391 474.797 L
130.395 474.198 L
130.397 473.817 L
130.397 473.436 L
130.404 472.891 L
130.404 472.673 L
130.408 472.347 L
130.418 471.965 L
130.418 471.53 L
130.436 471.149 L
130.479 470.713 L
130.48 470.495 L
130.488 469.842 L
130.49 469.515 L
130.491 469.134 L
130.495 468.752 L
130.511 468.317 L
130.511 467.554 L
130.538 466.955 L
130.538 466.628 L
130.555 465.975 L
130.555 465.594 L
130.595 464.94 L
130.595 464.613 L
130.599 463.96 L
130.601 463.579 L
130.603 462.653 L
130.633 461.89 L
130.634 461.128 L
130.64 460.311 L
130.643 459.821 L
130.647 459.167 L
130.655 458.732 L
130.672 458.078 L
130.713 457.479 L
130.718 456.989 L
130.724 456.444 L
130.747 455.682 L
130.747 455.028 L
130.751 454.266 L
130.751 453.667 L
130.757 452.741 L
130.758 451.815 L
130.758 451.053 L
130.761 450.563 L
130.761 449.855 L
130.907 448.766 L
130.907 448.167 L
130.911 447.132 L
130.915 446.369 L
130.92 445.661 L
130.924 444.572 L
130.925 443.483 L
130.929 442.557 L
130.934 441.359 L
130.984 440.76 L
131.003 439.671 L
131.012 438.582 L
131.072 437.275 L
131.1 436.512 L
131.111 435.151 L
131.124 434.225 L
131.136 433.081 L
131.144 432.264 L
131.199 431.012 L
131.216 429.705 L
131.221 428.452 L
131.238 427.036 L
131.255 425.62 L
131.272 424.313 L
131.333 422.952 L
131.351 421.699 L
131.362 420.229 L
131.372 419.085 L
131.438 417.669 L
131.462 416.09 L
131.487 414.892 L
131.52 413.966 L
131.54 412.931 L
131.582 411.297 L
131.605 409.772 L
131.644 408.138 L
131.74 406.94 L
131.817 405.742 L
131.858 404.326 L
131.915 403.128 L
131.961 401.44 L
132.029 400.078 L
132.071 398.88 L
132.132 397.029 L
132.208 395.558 L
132.298 394.142 L
132.413 391.801 L
132.542 390.003 L
132.638 388.424 L
132.763 387.008 L
132.892 384.939 L
133.019 383.033 L
133.174 381.508 L
133.316 379.547 L
133.454 377.641 L
133.703 376.225 L
133.908 374.863 L
134.099 373.23 L
134.335 371.433 L
134.668 369.635 L
134.936 367.457 L
135.228 365.769 L
135.56 364.026 L
135.873 362.61 L
136.323 361.085 L
136.764 358.471 L
137.272 355.857 L
137.665 354.223 L
138.201 351.664 L
138.796 349.758 L
139.406 347.525 L
140.071 345.02 L
140.74 342.623 L
141.612 340.445 L
142.481 338.212 L
143.383 336.306 L
144.321 333.964 L
145.401 331.568 L
146.533 329.335 L
147.781 327.375 L
149.116 325.414 L
150.57 323.562 L
152.143 320.839 L
153.827 318.715 L
155.702 316.265 L
157.533 313.269 L
159.54 311.309 L
161.655 308.913 L
163.924 306.734 L
166.324 304.556 L
168.902 302.105 L
171.721 299.491 L
174.62 297.313 L
177.812 294.699 L
181.248 292.139 L
184.93 290.124 L
188.672 287.946 L
192.645 285.604 L
196.806 282.935 L
201.16 280.648 L
205.867 278.47 L
210.774 275.692 L
215.855 272.152 L
221.315 269.32 L
226.981 266.216 L
232.742 263.711 L
239.043 260.933 L
245.5 257.829 L
252.202 254.888 L
259.337 251.893 L
266.96 248.571 L
274.351 245.739 L
282.016 242.962 L
290.199 239.476 L
298.556 236.263 L
307.132 233.05 L
316.514 229.728 L
325.257 227.332 L
334.647 224.336 L
344.193 221.069 L
354.148 218.89 L
364.011 216.167 L
374.105 213.39 L
384.477 210.122 L
395.428 206.855 L
405.789 204.404 L
416.628 200.755 L
427.552 198.196 L
438.695 194.71 L
450.089 191.497 L
461.118 188.284 L
472.499 185.507 L
483.784 182.457 L
494.82 180.115 L
505.755 177.773 L
516.618 173.961 L
527.691 170.802 L
538.313 167.97 L
549.318 165.247 L
559.566 163.178 L
570.513 160.618 L
580.822 157.351 L
591.305 154.41 L
600.72 151.796 L
610.846 149.454 L
620.374 146.949 L
629.571 145.152 L
638.354 143.355 L
647.082 140.904 L
655.432 138.725 L
663.801 136.602 L
671.737 135.022 L
679.156 133.443 L
686.47 132.245 L
693.34 130.339 L
700.128 129.249 L
706.558 128.433 L
712.842 127.017 L
718.675 125.71 L
724.18 124.13 L
729.536 122.605 L
734.51 121.298 L
739.3 120.155 L
743.512 119.174 L
747.94 118.14 L
751.43 117.432 L
855.843 58.016 L
857.993 57.689 L
860.896 57.09 L
864.166 56.164 L
866.999 55.511 L
869.824 54.694 L
872.342 54.149 L
874.67 53.659 L
876.784 53.332 L
878.732 52.951 L
880.743 52.352 L
882.361 51.807 L
884.002 51.208 L
885.49 50.936 L
886.915 50.609 L
888.204 50.283 L
889.385 50.01 L
890.596 49.629 L
891.613 49.248 L
892.483 49.03 L
893.337 48.649 L
894.125 48.431 L
894.857 48.104 L
895.572 47.723 L
896.231 47.451 L
896.902 47.342 L
897.436 47.069 L
897.903 46.961 L
898.364 46.961 L
898.765 46.688 L
899.151 46.688 L
899.519 46.525 L
899.844 46.416 L
900.161 46.361 L
900.45 46.307 L
900.73 46.253 L
901.021 46.089 L
901.248 46.035 L
901.526 45.926 L
901.717 45.871 L
901.901 45.817 L
902.084 45.708 L
902.247 45.708 L
902.405 45.654 L
902.571 45.599 L
902.7 45.49 L
902.83 45.436 L
902.934 45.163 L
903.054 45.163 L
903.168 45.163 L
903.271 45.109 L
903.371 45.109 L
903.449 45.109 L
903.526 45.109 L
903.592 45.109 L
903.66 45.109 L
903.738 45.109 L
903.796 45.054 L
903.901 45 L
903.943 45 L
904.016 45 L
904.06 45 L
904.108 45 L
904.143 45 L
904.189 45 L
904.224 45 L
904.276 45 L
904.317 45 L
904.357 45 L
904.392 45 L
904.413 45 L
904.446 45 L
904.464 45 L
904.493 45 L
904.505 45 L
904.537 45 L
904.56 45 L
904.582 45 L
904.6 45 L
904.629 45 L
904.638 45 L
904.646 45 L
904.659 45 L
904.666 45 L
904.703 45 L
904.712 45 L
904.733 45 L
904.737 45 L
904.75 45 L
904.759 45 L
904.779 45 L
904.784 45 L
904.786 45 L
904.801 45 L
904.807 45 L
904.817 45 L
904.832 45 L
904.843 45 L
904.843 45 L
904.847 45 L
904.85 45 L
904.858 45 L
904.859 45 L
904.863 45 L
904.872 45 L
904.878 45 L
904.884 45 L
904.888 45 L
904.897 45 L
904.899 45 L
904.905 45 L
904.905 45 L
904.914 45 L
904.918 45 L
904.918 45 L
904.925 45 L
904.925 45 L
904.925 45 L
904.926 45 L
904.93 45 L
904.93 45 L
904.933 45 L
904.934 45 L
904.935 45 L
904.937 45 L
904.941 45 L
904.941 45 L
904.942 45 L
904.945 45 L
904.945 45 L
904.945 45 L
904.946 45 L
904.951 45 L
904.951 45 L
904.953 45 L
904.954 45 L
904.955 45 L
904.957 45 L
904.957 45 L
904.958 45 L
904.959 45 L
904.962 45 L
904.963 45 L
904.963 45 L
904.964 45 L
904.964 45 L
904.966 45 L
904.966 45 L
904.966 45 L
904.966 45 L
904.966 45 L
904.966 45 L
904.966 45 L
904.966 45 L
904.966 45 L
904.968 45 L
904.968 45 L
904.968 45 L
904.968 45 L
904.968 45 L
904.968 45 L
904.968 45 L
904.968 45 L
904.968 45 L
904.968 45 L
904.97 45 L
904.97 45 L
904.974 45 L
904.974 45 L
904.974 45 L
904.974 45 L
904.974 45 L
904.975 45 L
904.975 45 L
904.976 45 L
904.976 45 L
904.976 45 L
904.976 45 L
904.976 45 L
904.979 45 L
904.979 45 L
904.979 45 L
904.98 45 L
904.98 45 L
904.98 45 L
904.98 45 L
904.98 45 L
904.98 45 L
904.98 45 L
904.98 45 L
904.98 45 L
904.98 45 L
904.98 45 L
904.98 45 L
904.98 45 L
904.98 45 L
904.98 45 L
904.98 45 L
904.98 45 L
904.98 45 L
904.98 45 L
904.98 45 L
904.98 45 L
904.98 45 L
904.98 45 L
904.98 45 L
904.98 45 L
904.98 45 L
904.98 45 L
904.982 45 L
904.982 45 L
904.982 45 L
904.982 45 L
904.982 45 L
904.982 45 L
904.982 45 L
904.982 45 L
904.982 45 L
904.982 45 L
904.982 45 L
904.982 45 L
904.982 45 L
904.982 45 L
904.982 45 L
904.982 45 L
904.982 45 L
904.982 45 L
904.982 45 L
904.982 45 L
904.982 45 L
904.982 45 L
904.982 45 L
904.982 45 L
904.982 45 L
904.982 45 L
904.982 45 L
904.982 45 L
904.982 45 L
904.982 45 L
904.982 45 L
904.982 45 L
904.982 45 L
904.982 45 L
904.982 45 L
904.982 45 L
904.982 45 L
904.982 45 L
904.982 45 L
904.982 45 L
904.982 45 L
904.982 45 L
904.982 45 L
904.982 45 L
904.982 45 L
904.982 45 L
904.982 45 L
904.982 45 L
904.982 45 L
904.982 45 L
904.982 45 L
904.982 45 L
904.982 45 L
904.982 45 L
904.982 45 L
904.982 45 L
904.982 45 L
904.982 45 L
904.982 45 L
904.982 45 L
904.982 45 L
904.982 45 L
904.982 45 L
904.982 45 L
904.982 45 L
904.982 45 L
904.982 45 L
904.982 45 L
904.982 45 L
904.982 45 L
904.982 45 L
904.982 45 L
904.982 45 L
904.982 45 L
904.982 45 L
904.982 45 L
904.982 45 L
904.982 45 L
904.982 45 L
904.982 45 L
904.982 45 L
904.982 45 L
904.982 45 L
904.982 45 L
904.982 45 L
904.982 45 L
904.982 45 L
904.982 45 L
904.982 45 L
904.982 45 L
904.982 45 L
904.982 45 L
904.982 45 L
904.982 45 L
904.982 45 L
904.982 45 L
904.982 45 L
904.982 45 L
904.982 45 L
904.982 45 L
904.982 45 L
904.982 45 L
904.982 45 L
904.982 45 L
904.982 45 L
904.982 45 L
904.982 45 L
904.982 45 L
904.982 45 L
904.982 45 L
904.982 45 L
904.982 45 L
904.982 45 L
904.982 45 L
904.982 45 L
904.982 45 L
904.982 45 L
904.982 45 L
904.982 45 L
904.982 45 L
904.982 45 L
904.982 45 L
904.982 45 L
904.982 45 L
904.982 45 L
904.982 45 L
904.982 45 L
904.982 45 L
904.982 45 L
904.982 45 L
904.982 45 L
904.982 45 L
904.982 45 L
904.982 45 L
904.982 45 L
904.982 45 L
904.982 45 L
904.982 45 L
904.982 45 L
904.982 45 L
904.982 45 L
904.982 45 L
904.982 45 L
904.982 45 L
904.982 45 L
904.982 45 L
904.982 45 L
904.982 45 L
904.982 45 L
904.982 45 L
904.982 45 L
904.982 45 L
904.982 45 L
904.982 45 L
904.982 45 L
904.982 45 L
904.982 45 L
904.982 45 L
904.982 45 L
904.982 45 L
904.982 45 L
904.982 45 L
904.982 45 L
904.982 45 L
904.982 45 L
904.982 45 L
904.982 45 L
904.982 45 L
904.982 45 L
904.982 45 L
904.982 45 L
904.982 45 L
904.982 45 L
904.982 45 L
904.982 45 L
904.982 45 L
904.982 45 L
904.982 45 L
904.982 45 L
904.982 45 L
904.982 45 L
904.982 45 L
904.982 45 L
904.982 45 L
904.982 45 L
904.982 45 L
904.982 45 L
904.982 45 L
904.982 45 L
904.982 45 L
904.982 45 L
904.982 45 L
904.982 45 L
904.982 45 L
904.982 45 L
904.982 45 L
904.982 45 L
904.982 45 L
904.982 45 L
904.982 45 L
904.982 45 L
904.982 45 L
904.982 45 L
904.982 45 L
904.982 45 L
904.982 45 L
904.982 45 L
904.982 45 L
904.982 45 L
904.982 45 L
904.982 45 L
904.982 45 L
904.982 45 L
904.982 45 L
904.982 45 L
904.982 45 L
904.982 45 L
904.982 45 L
904.982 45 L
904.982 45 L
904.982 45 L
904.982 45 L
904.982 45 L
904.982 45 L
904.982 45 L
904.982 45 L
904.982 45 L
904.982 45 L
904.982 45 L
904.982 45 L
904.982 45 L
904.982 45 L
904.982 45 L
904.982 45 L
904.982 45 L
904.982 45 L
904.982 45 L
904.982 45 L
904.982 45 L
904.982 45 L
904.982 45 L
904.982 45 L
904.982 45 L
904.982 45 L
904.982 45 L
904.982 45 L
904.982 45 L
904.982 45 L
904.982 45 L
904.982 45 L
904.982 45 L
904.982 45 L
904.982 45 L
904.982 45 L
904.982 45 L
904.982 45 L
904.982 45 L
904.982 45 L
904.982 45 L
904.982 45 L
904.982 45 L
904.982 45 L
904.982 45 L
904.982 45 L
904.982 45 L
904.982 45 L
904.982 45 L
904.982 45 L
904.982 45 L
904.982 45 L
904.982 45 L
904.982 45 L
904.982 45 L
904.982 45 L
904.982 45 L
904.982 45 L
904.982 45 L
904.982 45 L
904.982 45 L
904.982 45 L
904.982 45 L
904.982 45 L
904.982 45 L
904.982 45 L
904.982 45 L
904.982 45 L
904.982 45 L
904.982 45 L
904.982 45 L
904.982 45 L
904.982 45 L
905 45 L
S
GR
GS
0 1 0 RC
1 LJ
2 LW
N
130 530.619 M
130 530.564 L
130 530.564 L
130 530.564 L
130 530.564 L
130 530.564 L
130 530.564 L
130 530.564 L
130 530.564 L
130 530.564 L
130 530.564 L
130 530.564 L
130 530.564 L
130 530.564 L
130 530.564 L
130 530.564 L
130 530.564 L
130 530.564 L
130 530.564 L
130 530.564 L
130 530.564 L
130 530.564 L
130 530.564 L
130 530.564 L
130 530.564 L
130 530.564 L
130 530.564 L
130 530.564 L
130 530.564 L
130 530.564 L
130 530.564 L
130 530.564 L
130 530.564 L
130 530.564 L
130 530.564 L
130 530.564 L
130 530.564 L
130 530.564 L
130 530.564 L
130 530.564 L
130 530.564 L
130 530.564 L
130 530.564 L
130 530.564 L
130 530.564 L
130 530.564 L
130 530.564 L
130 530.564 L
130 530.564 L
130 530.564 L
130 530.564 L
130 530.564 L
130 530.564 L
130 530.564 L
130 530.564 L
130 530.564 L
130 530.564 L
130 530.564 L
130 530.564 L
130 530.564 L
130 530.564 L
130 530.564 L
130 530.564 L
130 530.564 L
130 530.564 L
130 530.564 L
130 530.564 L
130 530.564 L
130 530.564 L
130 530.564 L
130 530.564 L
130 530.564 L
130 530.564 L
130 530.564 L
130 530.564 L
130 530.564 L
130 530.564 L
130 530.564 L
130 530.564 L
130 530.564 L
130 530.564 L
130 530.564 L
130 530.564 L
130 530.564 L
130 530.564 L
130 530.564 L
130 530.564 L
130 530.564 L
130 530.564 L
130 530.564 L
130 530.564 L
130 530.564 L
130 530.564 L
130 530.564 L
130 530.564 L
130 530.564 L
130 530.564 L
130 530.564 L
130 530.564 L
130 530.564 L
130 530.564 L
130 530.564 L
130 530.564 L
130 530.564 L
130 530.564 L
130 530.564 L
130 530.564 L
130 530.564 L
130 530.564 L
130 530.564 L
130 530.564 L
130 530.564 L
130 530.564 L
130 530.564 L
130 530.564 L
130 530.564 L
130 530.564 L
130 530.564 L
130 530.564 L
130 530.564 L
130 530.564 L
130 530.564 L
130 530.564 L
130 530.564 L
130 530.564 L
130 530.564 L
130 530.564 L
130 530.564 L
130 530.564 L
130 530.564 L
130 530.564 L
130 530.564 L
130 530.564 L
130 530.564 L
130 530.564 L
130 530.564 L
130 530.564 L
130 530.564 L
130 530.564 L
130 530.564 L
130 530.564 L
130 530.564 L
130 530.564 L
130 530.564 L
130 530.564 L
130 530.564 L
130 530.564 L
130 530.564 L
130 530.564 L
130 530.564 L
130 530.564 L
130 530.564 L
130 530.564 L
130 530.564 L
130 530.564 L
130 530.564 L
130 530.564 L
130 530.564 L
130 530.564 L
130 530.564 L
130 530.564 L
130 530.564 L
130 530.564 L
130 530.564 L
130 530.564 L
130 530.564 L
130 530.564 L
130 530.564 L
130 530.564 L
130 530.51 L
130 530.51 L
130 530.51 L
130 530.51 L
130 530.51 L
130 530.51 L
130 530.51 L
130 530.455 L
130 530.455 L
130 530.455 L
130 530.455 L
130 530.455 L
130 530.455 L
130 530.455 L
130 530.455 L
130 530.455 L
130 530.455 L
130 530.455 L
130 530.455 L
130 530.401 L
130 530.401 L
130 530.346 L
130 530.292 L
130 530.292 L
130 530.238 L
130 530.129 L
130 530.074 L
130 530.074 L
130 530.074 L
130 530.074 L
130 530.074 L
130 530.074 L
130 529.965 L
130 529.965 L
130 529.802 L
130 529.747 L
130 529.584 L
130 529.53 L
130 529.421 L
130 529.421 L
130 529.257 L
130 529.257 L
130 529.257 L
130 529.203 L
130 529.148 L
130 529.039 L
130 528.931 L
130 528.876 L
130 528.713 L
130 528.713 L
130 528.713 L
130 528.604 L
130 528.549 L
130 528.44 L
130 528.331 L
130 528.223 L
130 528.114 L
130 528.114 L
130 527.95 L
130 527.732 L
130 527.732 L
130 527.569 L
130 527.188 L
130 526.916 L
130 526.861 L
130 526.698 L
130 526.643 L
130 526.425 L
130 526.208 L
130 525.881 L
130 525.772 L
130 525.445 L
130 525.173 L
130 525.118 L
130 524.792 L
130 524.628 L
130 524.41 L
130 524.247 L
130 524.247 L
130 524.084 L
130 523.975 L
130 523.702 L
130 523.485 L
130 523.376 L
130 523.103 L
130 522.722 L
130 522.395 L
130 522.014 L
130 521.633 L
130 521.47 L
130 521.197 L
130 520.979 L
130 520.653 L
130 520.435 L
130 520.217 L
130 519.945 L
130 519.89 L
130 519.727 L
130 519.563 L
130 519.128 L
130 518.747 L
130 518.583 L
130 518.202 L
130 517.766 L
130 517.657 L
130 517.113 L
130 516.732 L
130 516.459 L
130 516.241 L
130 515.806 L
130 515.424 L
130 515.152 L
130 514.716 L
130 514.444 L
130 513.845 L
130 513.682 L
130 513.464 L
130 513.355 L
130 513.083 L
130 512.756 L
130 512.429 L
130 511.993 L
130 511.394 L
130 511.177 L
130 510.959 L
130 510.523 L
130 510.196 L
130 509.815 L
130 509.216 L
130 508.889 L
130 508.671 L
130 508.399 L
130 508.236 L
130 507.8 L
130 507.637 L
130 507.364 L
130 506.983 L
130 506.548 L
130 505.948 L
130 505.404 L
130 505.077 L
130 504.696 L
130 504.151 L
130 503.607 L
130 503.334 L
130 503.062 L
130 502.844 L
130 502.354 L
130 502.027 L
130 501.918 L
130 501.592 L
130 501.374 L
130 500.938 L
130 500.557 L
130 500.121 L
130 499.577 L
130 499.141 L
130 498.705 L
130 498.542 L
130 498.106 L
130 497.507 L
130 497.072 L
130 496.636 L
130 496.2 L
130 495.656 L
130 495.111 L
130 494.675 L
130 494.403 L
130 493.913 L
130 493.749 L
130 492.933 L
130 492.17 L
130 492.007 L
130 491.68 L
130 491.19 L
130 490.863 L
130 490.482 L
130 490.101 L
130 489.774 L
130 489.556 L
130 489.011 L
130 488.521 L
130 488.249 L
130 487.813 L
130 487.378 L
130 486.996 L
130 486.561 L
130 486.18 L
130 485.798 L
130 485.58 L
130 485.09 L
130 484.709 L
130 484.001 L
130 483.674 L
130 482.966 L
130 482.585 L
130 482.095 L
130 481.714 L
130 481.333 L
130 480.897 L
130 480.407 L
130 479.917 L
130 479.372 L
130 479.045 L
130 478.337 L
130 477.956 L
130 477.575 L
130 477.248 L
130 476.867 L
130 476.486 L
130 476.159 L
130 475.505 L
130 474.852 L
130 474.198 L
130 473.817 L
130 473.273 L
130 473.055 L
130 472.401 L
130 472.129 L
130 471.53 L
130 471.203 L
130 470.658 L
130 470.332 L
130 469.733 L
130 469.134 L
130 468.861 L
130 468.589 L
130 467.99 L
130 467.445 L
130 467.227 L
130 467.119 L
130 466.737 L
130 466.302 L
130 465.975 L
130 465.376 L
130 464.886 L
130 464.45 L
130 464.178 L
130 463.742 L
130 463.742 L
130 463.197 L
130 462.544 L
130 462.272 L
130 461.618 L
130 461.346 L
130 461.182 L
130 460.801 L
130 460.311 L
130 459.875 L
130 459.385 L
130 459.004 L
130 458.623 L
130 458.351 L
130 457.915 L
130 457.534 L
130 457.207 L
130 456.88 L
130 456.39 L
130 455.845 L
130 455.519 L
130 454.92 L
130 454.538 L
130 454.266 L
130 454.048 L
130 453.721 L
130 453.177 L
130 452.414 L
130 451.87 L
130 451.489 L
130 450.835 L
130 450.182 L
130 449.909 L
130 449.31 L
130 449.256 L
130 448.602 L
130 448.167 L
130 447.622 L
130 447.295 L
130 446.751 L
130 446.206 L
130 445.825 L
130 444.899 L
130 444.136 L
130 443.537 L
130 443.102 L
130 442.503 L
130 441.631 L
130 441.141 L
130 440.324 L
130 439.78 L
130 438.963 L
130 438.418 L
130 438.2 L
130 437.492 L
130 437.057 L
130 436.675 L
130 436.131 L
130 435.641 L
130 434.987 L
130 434.443 L
130 434.061 L
130 433.571 L
130 432.863 L
130 432.101 L
130 431.447 L
130 430.63 L
130.001 430.195 L
130.001 429.323 L
130.001 428.398 L
130.001 427.69 L
130.001 426.982 L
130.001 426.383 L
130.001 426.056 L
130.001 425.402 L
130.001 424.694 L
130.001 424.095 L
130.001 423.115 L
130.004 422.679 L
130.005 421.971 L
130.005 421.481 L
130.005 420.664 L
130.005 419.738 L
130.005 419.03 L
130.005 418.595 L
130.005 417.832 L
130.008 417.288 L
130.009 416.362 L
130.009 415.436 L
130.009 414.565 L
130.009 413.911 L
130.011 413.094 L
130.012 412.169 L
130.012 411.352 L
130.012 410.535 L
130.012 409.718 L
130.012 409.173 L
130.014 407.921 L
130.016 406.668 L
130.018 405.361 L
130.02 404.217 L
130.02 403.183 L
130.025 401.985 L
130.026 400.895 L
130.026 399.915 L
130.029 398.826 L
130.03 397.791 L
130.036 396.103 L
130.038 395.286 L
130.042 394.033 L
130.043 392.89 L
130.043 391.964 L
130.046 391.256 L
130.05 390.003 L
130.053 388.587 L
130.057 387.389 L
130.062 386.028 L
130.063 384.884 L
130.064 383.25 L
130.075 381.453 L
130.08 380.255 L
130.084 379.057 L
130.095 377.478 L
130.099 376.279 L
130.109 374.537 L
130.118 373.175 L
130.124 371.705 L
130.13 369.799 L
130.139 368.492 L
130.157 366.912 L
130.172 365.279 L
130.183 363.972 L
130.196 362.719 L
130.211 361.085 L
130.228 359.887 L
130.241 358.253 L
130.275 356.184 L
130.292 354.604 L
130.33 352.916 L
130.37 351.228 L
130.403 349.703 L
130.442 348.287 L
130.478 346.653 L
130.526 345.183 L
130.575 343.604 L
130.615 342.351 L
130.666 341.316 L
130.721 339.41 L
130.801 337.776 L
130.874 336.306 L
130.945 334.454 L
131.038 332.548 L
131.153 330.315 L
131.265 328.682 L
131.37 326.775 L
131.509 324.924 L
131.692 323.018 L
131.837 321.438 L
132.021 319.369 L
132.219 317.626 L
132.449 315.775 L
132.703 313.923 L
132.959 312.126 L
133.262 310.165 L
133.603 307.932 L
133.95 305.972 L
134.317 303.848 L
134.728 301.561 L
135.147 299.491 L
135.645 296.986 L
136.147 295.352 L
136.727 293.718 L
137.389 290.832 L
138.092 288.708 L
138.828 286.257 L
139.639 284.024 L
140.498 282.009 L
141.409 279.831 L
142.387 277.38 L
143.493 275.256 L
144.645 273.078 L
145.815 270.954 L
147.116 268.449 L
148.458 265.835 L
149.96 263.82 L
151.527 261.805 L
153.155 259.735 L
154.875 258.483 L
156.787 256.686 L
158.562 254.671 L
160.591 252.819 L
162.645 251.131 L
164.824 248.19 L
166.959 246.665 L
169.235 244.595 L
171.481 242.744 L
173.733 241.056 L
176.063 239.041 L
178.466 237.134 L
180.905 235.555 L
183.28 234.139 L
185.746 232.669 L
188.072 231.198 L
190.582 229.837 L
192.998 228.475 L
195.409 227.005 L
197.761 225.97 L
200.044 224.718 L
202.33 223.465 L
204.405 222.267 L
206.567 220.797 L
208.577 219.816 L
210.43 218.673 L
212.382 217.801 L
214.229 217.474 L
215.954 216.222 L
217.571 215.514 L
219.075 214.915 L
220.566 214.479 L
222.075 213.989 L
223.362 213.063 L
224.534 212.736 L
225.653 212.41 L
226.69 212.028 L
227.714 211.647 L
228.65 211.32 L
229.466 211.048 L
230.189 210.721 L
230.843 210.395 L
231.47 210.068 L
232.025 209.632 L
232.554 209.469 L
233.042 209.305 L
233.436 209.197 L
233.734 209.142 L
234.05 209.088 L
234.332 209.088 L
234.617 209.033 L
234.85 208.924 L
235.024 208.761 L
235.211 208.597 L
235.363 208.489 L
235.474 208.434 L
235.571 208.38 L
235.657 208.325 L
235.738 208.271 L
235.804 208.271 L
235.874 208.216 L
235.942 208.162 L
235.982 208.107 L
236.027 208.107 L
236.061 208.053 L
236.082 208.053 L
236.1 208.053 L
236.123 208.053 L
241.781 205.112 L
248.213 201.899 L
254.874 197.814 L
261.9 193.839 L
268.93 190.353 L
275.842 186.922 L
283.126 184.145 L
290.574 180.714 L
298.197 177.719 L
305.782 174.832 L
313.645 172.109 L
321.017 170.258 L
328.755 167.698 L
336.425 165.411 L
344.105 162.307 L
351.525 159.965 L
358.623 157.95 L
365.297 156.316 L
371.27 155.172 L
377.08 153.974 L
382.321 152.885 L
387.134 151.741 L
391.27 150.816 L
394.769 150.162 L
397.483 149.781 L
399.822 149.563 L
401.702 149.291 L
403.115 149.127 L
404.129 149.127 L
404.804 149.127 L
405.272 149.073 L
405.587 149.018 L
405.724 149.018 L
405.814 149.018 L
405.875 149.018 L
405.901 149.018 L
405.908 149.018 L
405.91 149.018 L
405.912 149.018 L
405.912 149.018 L
405.912 149.018 L
405.912 149.018 L
405.912 149.018 L
405.912 149.018 L
405.912 149.018 L
405.912 149.018 L
405.912 149.018 L
405.912 149.018 L
405.912 149.018 L
405.912 149.018 L
405.912 149.018 L
405.912 149.018 L
405.912 149.018 L
405.912 149.018 L
405.912 149.018 L
405.912 149.018 L
405.912 149.018 L
405.912 149.018 L
405.912 149.018 L
405.912 149.018 L
405.912 149.018 L
405.912 149.018 L
405.912 149.018 L
405.912 149.018 L
405.912 149.018 L
405.912 149.018 L
405.912 149.018 L
405.912 149.018 L
405.912 149.018 L
405.912 149.018 L
405.912 149.018 L
405.912 149.018 L
405.912 149.018 L
405.912 149.018 L
405.912 149.018 L
405.912 149.018 L
405.912 149.018 L
405.912 149.018 L
405.912 149.018 L
405.912 149.018 L
405.912 149.018 L
405.912 149.018 L
405.912 149.018 L
405.912 149.018 L
405.912 149.018 L
405.912 149.018 L
405.912 149.018 L
405.912 149.018 L
405.912 149.018 L
405.912 149.018 L
405.912 149.018 L
405.912 149.018 L
405.912 149.018 L
405.912 149.018 L
405.912 149.018 L
405.912 149.018 L
405.912 149.018 L
405.912 149.018 L
405.912 149.018 L
405.912 149.018 L
405.912 149.018 L
405.912 149.018 L
405.912 149.018 L
405.912 149.018 L
405.912 149.018 L
405.912 149.018 L
405.912 149.018 L
405.912 149.018 L
405.912 149.018 L
405.912 149.018 L
405.912 149.018 L
405.912 149.018 L
405.912 149.018 L
405.912 149.018 L
405.912 149.018 L
405.912 149.018 L
405.912 149.018 L
405.912 149.018 L
405.912 149.018 L
405.912 149.018 L
405.912 149.018 L
405.912 149.018 L
405.912 149.018 L
405.912 149.018 L
405.912 149.018 L
405.912 149.018 L
405.912 149.018 L
405.912 149.018 L
405.912 149.018 L
405.912 149.018 L
405.912 149.018 L
405.912 149.018 L
405.912 149.018 L
405.912 149.018 L
405.912 149.018 L
405.912 149.018 L
405.912 149.018 L
405.912 149.018 L
405.912 149.018 L
405.912 149.018 L
405.912 149.018 L
405.912 149.018 L
405.912 149.018 L
405.912 149.018 L
405.912 149.018 L
405.912 149.018 L
405.912 149.018 L
405.912 149.018 L
405.912 149.018 L
405.912 149.018 L
405.912 149.018 L
405.912 149.018 L
405.912 149.018 L
405.912 149.018 L
405.912 149.018 L
405.912 149.018 L
405.912 149.018 L
405.912 149.018 L
405.912 149.018 L
405.912 149.018 L
405.912 149.018 L
405.912 149.018 L
405.912 149.018 L
405.912 149.018 L
405.912 149.018 L
405.912 149.018 L
405.912 149.018 L
405.912 149.018 L
405.912 149.018 L
405.912 149.018 L
405.912 149.018 L
405.912 149.018 L
405.912 149.018 L
405.912 149.018 L
405.912 149.018 L
405.912 149.018 L
405.912 149.018 L
405.912 149.018 L
405.912 149.018 L
405.912 149.018 L
405.912 149.018 L
405.912 149.018 L
405.912 149.018 L
405.912 149.018 L
405.912 149.018 L
405.912 149.018 L
405.912 149.018 L
405.912 149.018 L
405.912 149.018 L
405.912 149.018 L
405.912 149.018 L
405.912 149.018 L
405.912 149.018 L
405.912 149.018 L
405.912 149.018 L
405.912 149.018 L
405.912 149.018 L
405.912 149.018 L
405.912 149.018 L
405.912 149.018 L
405.912 149.018 L
405.912 149.018 L
405.912 149.018 L
405.912 149.018 L
405.912 149.018 L
405.912 149.018 L
405.912 149.018 L
405.912 149.018 L
405.912 149.018 L
405.912 149.018 L
405.912 149.018 L
405.912 149.018 L
405.912 149.018 L
405.912 149.018 L
405.912 149.018 L
405.912 149.018 L
405.912 149.018 L
405.912 149.018 L
405.912 149.018 L
405.912 149.018 L
405.912 149.018 L
405.912 149.018 L
405.912 149.018 L
405.912 149.018 L
405.912 149.018 L
405.912 149.018 L
405.912 149.018 L
405.912 149.018 L
405.912 149.018 L
405.912 149.018 L
405.912 149.018 L
405.912 149.018 L
405.912 149.018 L
405.912 149.018 L
405.912 149.018 L
405.912 149.018 L
405.912 149.018 L
405.912 149.018 L
405.912 149.018 L
405.912 149.018 L
405.912 149.018 L
405.912 149.018 L
405.912 149.018 L
405.912 149.018 L
405.912 149.018 L
405.912 149.018 L
405.912 149.018 L
405.912 149.018 L
405.912 149.018 L
405.912 149.018 L
405.912 149.018 L
405.912 149.018 L
405.912 149.018 L
405.912 149.018 L
405.912 149.018 L
405.912 149.018 L
405.912 149.018 L
405.912 149.018 L
405.912 149.018 L
405.912 149.018 L
405.912 149.018 L
405.912 149.018 L
405.912 149.018 L
405.912 149.018 L
405.912 149.018 L
405.912 149.018 L
405.912 149.018 L
405.912 149.018 L
405.912 149.018 L
405.912 149.018 L
405.912 149.018 L
405.912 149.018 L
405.912 149.018 L
405.912 149.018 L
405.912 149.018 L
405.912 149.018 L
405.912 149.018 L
405.912 149.018 L
405.912 149.018 L
405.912 149.018 L
405.912 149.018 L
405.912 149.018 L
405.912 149.018 L
405.912 149.018 L
405.912 149.018 L
405.912 149.018 L
405.912 149.018 L
405.912 149.018 L
405.912 149.018 L
405.912 149.018 L
405.912 149.018 L
405.912 149.018 L
405.912 149.018 L
405.912 149.018 L
405.912 149.018 L
405.912 149.018 L
405.912 149.018 L
405.912 149.018 L
405.912 149.018 L
405.912 149.018 L
405.912 149.018 L
405.912 149.018 L
405.912 149.018 L
405.912 149.018 L
405.912 149.018 L
405.912 149.018 L
405.912 149.018 L
405.912 149.018 L
405.912 149.018 L
405.912 149.018 L
405.912 149.018 L
405.912 149.018 L
405.912 149.018 L
405.912 149.018 L
405.912 149.018 L
405.912 149.018 L
405.912 149.018 L
405.912 149.018 L
405.912 149.018 L
405.912 149.018 L
405.912 149.018 L
405.912 149.018 L
405.912 149.018 L
405.912 149.018 L
405.912 149.018 L
405.912 149.018 L
405.912 149.018 L
405.912 149.018 L
405.912 149.018 L
405.912 149.018 L
405.912 149.018 L
405.912 149.018 L
405.912 149.018 L
405.912 149.018 L
405.912 149.018 L
405.912 149.018 L
405.912 149.018 L
905 45 L
S
GR
GS
1 LJ
2 LW
N
130 530.564 M
130 530.564 L
130 530.564 L
130 530.564 L
130 530.564 L
130 530.564 L
130 530.564 L
130 530.564 L
130 530.564 L
130 530.564 L
130 530.564 L
130 530.564 L
130 530.564 L
130 530.564 L
130 530.564 L
130 530.564 L
130 530.564 L
130 530.564 L
130 530.564 L
130 530.564 L
130 530.564 L
130 530.564 L
130 530.564 L
130 530.564 L
130 530.564 L
130 530.564 L
130 530.564 L
130 530.564 L
130 530.564 L
130 530.564 L
130 530.564 L
130 530.564 L
130 530.564 L
130 530.564 L
130 530.564 L
130 530.564 L
130 530.564 L
130 530.564 L
130 530.564 L
130 530.564 L
130 530.564 L
130 530.564 L
130 530.564 L
130 530.564 L
130 530.564 L
130 530.564 L
130 530.564 L
130 530.564 L
130 530.564 L
130 530.564 L
130 530.564 L
130 530.564 L
130 530.564 L
130 530.564 L
130 530.564 L
130 530.564 L
130 530.564 L
130 530.564 L
130 530.564 L
130 530.564 L
130 530.564 L
130 530.564 L
130 530.564 L
130 530.564 L
130 530.564 L
130 530.564 L
130 530.564 L
130 530.564 L
130 530.564 L
130 530.564 L
130 530.564 L
130 530.564 L
130 530.564 L
130 530.564 L
130 530.564 L
130 530.564 L
130 530.564 L
130 530.564 L
130 530.564 L
130 530.564 L
130 530.564 L
130 530.564 L
130 530.564 L
130 530.564 L
130 530.564 L
130 530.564 L
130 530.564 L
130 530.564 L
130 530.564 L
130 530.564 L
130 530.564 L
130 530.564 L
130 530.564 L
130 530.564 L
130 530.564 L
130 530.564 L
130 530.564 L
130 530.564 L
130 530.564 L
130 530.564 L
130 530.564 L
130 530.564 L
130 530.564 L
130 530.564 L
130 530.564 L
130 530.564 L
130 530.564 L
130 530.564 L
130 530.564 L
130 530.564 L
130 530.564 L
130 530.564 L
130 530.564 L
130 530.564 L
130 530.564 L
130 530.564 L
130 530.564 L
130 530.564 L
130 530.564 L
130 530.564 L
130 530.564 L
130 530.564 L
130 530.564 L
130 530.564 L
130 530.564 L
130 530.564 L
130 530.564 L
130 530.564 L
130 530.564 L
130 530.564 L
130 530.564 L
130 530.564 L
130 530.564 L
130 530.564 L
130 530.564 L
130 530.564 L
130 530.564 L
130 530.564 L
130 530.564 L
130 530.564 L
130 530.564 L
130 530.564 L
130 530.564 L
130 530.564 L
130 530.564 L
130 530.564 L
130 530.564 L
130 530.564 L
130 530.564 L
130 530.564 L
130 530.564 L
130 530.564 L
130 530.564 L
130 530.564 L
130 530.564 L
130 530.564 L
130 530.564 L
130 530.564 L
130 530.564 L
130 530.564 L
130 530.564 L
130 530.564 L
130 530.564 L
130 530.564 L
130 530.564 L
130 530.564 L
130 530.564 L
130 530.564 L
130 530.564 L
130 530.564 L
130 530.564 L
130 530.564 L
130 530.564 L
130 530.564 L
130 530.564 L
130 530.564 L
130 530.564 L
130 530.51 L
130 530.455 L
130 530.455 L
130 530.455 L
130 530.455 L
130 530.455 L
130 530.455 L
130 530.455 L
130 530.455 L
130 530.455 L
130 530.455 L
130 530.455 L
130 530.455 L
130 530.455 L
130 530.455 L
130 530.455 L
130 530.455 L
130 530.401 L
130 530.401 L
130 530.401 L
130 530.401 L
130 530.401 L
130 530.401 L
130 530.401 L
130 530.346 L
130 530.292 L
130 530.292 L
130 530.238 L
130 530.238 L
130 530.183 L
130 530.183 L
130 530.183 L
130 530.183 L
130 530.074 L
130 530.02 L
130 530.02 L
130 530.02 L
130 530.02 L
130 529.965 L
130 529.856 L
130 529.856 L
130 529.802 L
130 529.747 L
130 529.747 L
130 529.693 L
130 529.693 L
130 529.638 L
130 529.638 L
130 529.53 L
130 529.475 L
130 529.421 L
130 529.257 L
130 529.094 L
130 529.039 L
130 528.985 L
130 528.985 L
130 528.931 L
130 528.931 L
130 528.767 L
130 528.549 L
130 528.44 L
130 528.277 L
130 528.168 L
130 528.168 L
130 528.168 L
130 528.168 L
130 528.168 L
130 528.114 L
130 528.059 L
130 527.841 L
130 527.787 L
130 527.732 L
130 527.732 L
130 527.732 L
130 527.732 L
130 527.569 L
130 527.46 L
130 527.242 L
130 527.133 L
130 527.079 L
130 526.916 L
130 526.807 L
130 526.752 L
130 526.371 L
130 526.153 L
130 525.99 L
130 525.826 L
130 525.663 L
130 525.5 L
130 525.336 L
130 525.173 L
130 525.118 L
130 524.792 L
130 524.465 L
130 524.193 L
130 524.029 L
130 523.92 L
130 523.648 L
130 523.376 L
130 523.158 L
130 523.049 L
130 522.777 L
130 522.613 L
130 522.232 L
130 522.177 L
130 522.014 L
130 521.96 L
130 521.905 L
130 521.633 L
130 521.306 L
130 521.143 L
130 520.816 L
130 520.435 L
130 520.435 L
130.001 520.271 L
130.001 519.781 L
130.001 519.509 L
130.001 519.346 L
130.001 518.91 L
130.001 518.747 L
130.001 518.147 L
130.001 518.039 L
130.001 517.93 L
130.001 517.603 L
130.001 517.167 L
130.001 517.004 L
130.001 516.786 L
130.001 516.568 L
130.001 516.241 L
130.001 516.132 L
130.001 515.751 L
130.001 515.642 L
130.001 515.533 L
130.001 515.37 L
130.001 515.043 L
130.001 514.825 L
130.001 514.608 L
130.001 514.063 L
130.001 513.682 L
130.001 513.518 L
130.001 513.028 L
130.001 512.756 L
130.001 512.429 L
130.001 512.157 L
130.001 511.939 L
130.001 511.721 L
130.001 511.34 L
130.001 510.85 L
130.001 510.686 L
130.001 510.414 L
130.001 510.196 L
130.001 510.033 L
130.001 509.815 L
130.001 509.488 L
130.001 509.162 L
130.001 508.889 L
130.001 508.508 L
130.001 508.181 L
130.001 507.691 L
130.001 507.528 L
130.001 507.147 L
130.001 506.711 L
130.001 506.384 L
130.001 506.003 L
130.001 505.785 L
130.001 505.731 L
130.001 505.458 L
130.001 505.132 L
130.001 504.641 L
130.001 504.097 L
130.001 503.879 L
130.001 503.171 L
130.001 502.572 L
130.001 502.409 L
130.001 501.918 L
130.001 501.319 L
130.001 501.047 L
130.001 500.775 L
130.001 500.339 L
130.001 500.012 L
130.001 499.686 L
130.001 499.468 L
130.001 499.087 L
130.001 498.705 L
130.001 498.379 L
130.001 498.161 L
130.001 497.997 L
130.001 497.834 L
130.001 497.289 L
130.001 497.072 L
130.001 496.963 L
130.001 496.581 L
130.001 496.364 L
130.001 495.928 L
130.001 495.656 L
130.001 495.438 L
130.001 494.893 L
130.001 494.566 L
130.001 494.185 L
130.001 493.967 L
130.001 493.641 L
130.001 493.15 L
130.001 492.933 L
130.001 492.497 L
130.001 492.333 L
130.001 492.116 L
130.001 491.843 L
130.001 491.571 L
130.001 491.081 L
130.001 490.373 L
130.001 489.992 L
130.001 489.828 L
130.001 489.175 L
130.001 488.685 L
130.001 488.412 L
130.001 488.031 L
130.001 487.759 L
130.001 487.269 L
130.001 487.105 L
130.001 486.779 L
130.001 486.615 L
130.001 486.234 L
130.001 485.962 L
130.001 485.798 L
130.001 485.58 L
130.001 485.09 L
130.001 484.546 L
130.001 484.164 L
130.001 483.674 L
130.001 483.457 L
130.001 483.13 L
130.001 482.749 L
130.001 482.367 L
130.001 482.204 L
130.001 481.496 L
130.001 481.06 L
130.001 480.516 L
130.001 480.243 L
130.001 479.862 L
130.001 479.318 L
130.001 478.882 L
130.001 478.664 L
130.001 478.065 L
130.001 477.793 L
130.001 477.466 L
130.001 476.976 L
130.001 476.649 L
130.001 476.05 L
130.001 475.723 L
130.001 475.451 L
130.001 475.396 L
130.001 475.124 L
130.001 474.906 L
130.001 474.58 L
130.001 474.198 L
130.001 473.926 L
130.001 473.708 L
130.001 473.164 L
130.001 472.673 L
130.001 472.401 L
130.001 472.292 L
130.001 471.748 L
130.001 471.258 L
130.001 470.985 L
130.001 470.658 L
130.001 470.386 L
130.001 469.95 L
130.001 469.733 L
130.001 469.515 L
130.001 469.134 L
130.001 468.752 L
130.001 468.48 L
130.001 467.935 L
130.003 467.609 L
130.003 467.336 L
130.003 467.119 L
130.003 466.901 L
130.003 466.792 L
130.003 466.628 L
130.003 466.138 L
130.003 466.084 L
130.003 465.812 L
130.004 465.321 L
130.004 464.94 L
130.004 464.722 L
130.004 464.396 L
130.004 464.178 L
130.004 463.96 L
130.004 463.361 L
130.004 462.925 L
130.004 462.653 L
130.004 462.326 L
130.004 461.89 L
130.004 461.618 L
130.004 461.237 L
130.004 461.019 L
130.004 460.692 L
130.004 460.202 L
130.004 459.821 L
130.004 459.167 L
130.004 458.786 L
130.004 458.623 L
130.004 458.351 L
130.005 457.969 L
130.005 457.806 L
130.005 457.425 L
130.005 457.316 L
130.007 456.989 L
130.007 456.826 L
130.007 456.118 L
130.007 455.954 L
130.007 455.519 L
130.007 455.355 L
130.007 455.192 L
130.007 454.811 L
130.007 454.266 L
130.007 453.939 L
130.007 453.83 L
130.007 453.721 L
130.008 453.504 L
130.008 452.959 L
130.008 452.523 L
130.008 452.088 L
130.008 451.706 L
130.008 451.162 L
130.008 450.998 L
130.008 450.454 L
130.008 450.236 L
130.008 449.964 L
130.008 449.909 L
130.008 449.582 L
130.013 449.201 L
130.013 448.82 L
130.013 448.167 L
130.013 448.003 L
130.013 447.622 L
130.013 447.132 L
130.013 446.859 L
130.013 446.478 L
130.014 445.879 L
130.014 445.607 L
130.014 444.953 L
130.014 444.3 L
130.014 443.592 L
130.014 443.537 L
130.014 443.156 L
130.014 442.503 L
130.022 442.121 L
130.022 441.686 L
130.022 441.032 L
130.022 440.542 L
130.022 439.943 L
130.022 439.671 L
130.022 439.181 L
130.022 438.854 L
130.022 438.309 L
130.022 438.091 L
130.022 437.438 L
130.022 436.784 L
130.022 436.294 L
130.022 435.477 L
130.022 434.933 L
130.024 434.443 L
130.024 433.735 L
130.024 432.754 L
130.025 432.101 L
130.028 431.338 L
130.028 430.685 L
130.028 430.249 L
130.028 429.922 L
130.028 429.487 L
130.028 429.214 L
130.029 428.18 L
130.03 427.799 L
130.03 427.308 L
130.037 426.6 L
130.037 426.165 L
130.038 425.892 L
130.038 425.511 L
130.038 424.912 L
130.038 424.204 L
130.038 423.278 L
130.038 422.407 L
130.039 421.862 L
130.041 421.209 L
130.051 420.882 L
130.051 420.501 L
130.051 420.011 L
130.051 419.412 L
130.051 418.813 L
130.053 418.159 L
130.053 417.778 L
130.053 416.961 L
130.055 415.708 L
130.059 415.273 L
130.059 414.728 L
130.059 414.129 L
130.059 413.585 L
130.059 413.04 L
130.061 412.277 L
130.061 411.297 L
130.061 410.48 L
130.061 409.446 L
130.072 408.465 L
130.072 408.465 L
130.072 407.757 L
130.072 406.995 L
130.072 406.287 L
130.074 405.361 L
130.075 404.708 L
130.075 403.618 L
130.076 402.965 L
130.076 402.257 L
130.087 401.385 L
130.089 400.732 L
130.092 399.806 L
130.095 398.989 L
130.095 397.9 L
130.095 396.865 L
130.096 396.103 L
130.096 395.449 L
130.096 394.959 L
130.107 394.088 L
130.109 393.053 L
130.112 392.345 L
130.114 391.746 L
130.12 390.493 L
130.121 389.295 L
130.124 388.315 L
130.126 387.662 L
130.128 386.3 L
130.128 385.156 L
130.153 383.958 L
130.155 383.087 L
130.157 381.998 L
130.158 381.235 L
130.161 380.473 L
130.162 379.602 L
130.164 379.166 L
130.164 377.968 L
130.166 376.933 L
130.18 376.225 L
130.184 374.809 L
130.188 373.665 L
130.189 372.631 L
130.191 371.541 L
130.195 370.561 L
130.199 369.69 L
130.2 368.601 L
130.208 367.784 L
130.232 366.858 L
130.234 365.714 L
130.24 364.734 L
130.247 363.808 L
130.253 362.991 L
130.262 361.684 L
130.267 360.377 L
130.272 359.179 L
130.278 357.926 L
130.291 356.674 L
130.32 355.53 L
130.326 354.55 L
130.338 353.352 L
130.346 352.154 L
130.353 351.119 L
130.374 349.758 L
130.384 348.505 L
130.393 347.851 L
130.407 346.435 L
130.455 345.782 L
130.474 344.42 L
130.491 342.896 L
130.505 341.806 L
130.529 340.663 L
130.542 338.974 L
130.568 337.395 L
130.599 336.415 L
130.612 335.217 L
130.661 334.345 L
130.678 332.929 L
130.695 332.112 L
130.73 330.751 L
130.766 329.063 L
130.817 327.919 L
130.845 326.939 L
130.88 325.577 L
130.924 324.543 L
130.961 323.127 L
131.053 321.874 L
131.092 321.057 L
131.151 320.077 L
131.213 318.824 L
131.276 317.027 L
131.341 315.992 L
131.397 314.958 L
131.479 313.433 L
131.575 312.017 L
131.719 311.2 L
131.787 310.111 L
131.895 308.749 L
131.994 306.952 L
132.116 305.536 L
132.246 303.902 L
132.362 302.432 L
132.494 301.179 L
132.658 299.491 L
132.823 298.62 L
133 297.149 L
133.152 296.006 L
133.331 294.753 L
133.532 293.01 L
133.744 291.322 L
133.939 289.797 L
134.161 288.054 L
134.365 286.475 L
134.593 284.406 L
134.899 282.826 L
135.143 281.193 L
135.503 279.94 L
135.844 278.088 L
136.116 276.836 L
136.477 275.583 L
136.866 274.167 L
137.156 273.024 L
137.526 271.172 L
138.055 269.429 L
138.553 267.904 L
139.006 266.107 L
139.528 264.419 L
140.011 263.003 L
140.584 261.097 L
141.034 259.681 L
141.608 257.72 L
142.283 256.032 L
143.018 254.235 L
143.73 252.056 L
144.458 250.641 L
145.232 249.007 L
146.03 247.427 L
146.878 246.066 L
147.592 244.051 L
148.44 242.472 L
149.353 240.674 L
150.339 238.714 L
151.481 236.808 L
152.523 234.847 L
153.709 232.778 L
154.93 230.763 L
155.448 229.673 L
157.045 227.386 L
158.41 225.589 L
159.83 224.01 L
161.113 222.539 L
162.731 220.361 L
164.336 218.509 L
165.976 216.93 L
167.522 215.677 L
168.878 214.751 L
170.701 213.009 L
172.563 211.375 L
174.525 209.741 L
176.595 207.781 L
178.673 205.766 L
180.936 203.859 L
183.238 201.79 L
185.514 199.829 L
187.337 198.087 L
189.941 196.072 L
192.579 194.111 L
195.318 192.532 L
198.128 190.844 L
201.175 189.373 L
204.17 187.794 L
207.328 185.997 L
209.809 184.363 L
213.08 182.783 L
216.346 181.15 L
220.155 179.353 L
223.345 178.1 L
226.964 176.03 L
231.095 174.615 L
234.853 173.416 L
238.968 171.783 L
242.101 170.312 L
246.307 168.515 L
250.606 166.772 L
254.982 164.975 L
259.551 162.906 L
264.406 161.326 L
269.23 159.42 L
274.16 158.059 L
278.234 155.336 L
283.27 152.885 L
288.917 151.197 L
294.065 149.345 L
299.721 147.711 L
305.77 145.587 L
310.969 144.008 L
317.18 142.048 L
322.809 140.74 L
327.848 138.671 L
334.159 136.547 L
340.297 135.186 L
346.752 134.151 L
353.179 132.735 L
359.844 131.428 L
366.919 129.413 L
373.225 127.561 L
378.717 126.472 L
385.773 125.002 L
392.834 123.15 L
399.562 121.788 L
406.804 120.318 L
414.193 118.085 L
421.149 116.615 L
428.793 114.981 L
436.25 114.055 L
442.222 112.312 L
449.65 110.352 L
457.229 109.154 L
465.038 107.574 L
472.745 106.594 L
480.521 104.634 L
488.44 103.163 L
496.126 101.911 L
502.293 99.732 L
510.408 98.316 L
518.344 97.009 L
526.086 95.757 L
534.065 94.504 L
541.916 92.979 L
549.701 91.563 L
557.561 89.494 L
565.794 88.078 L
571.965 86.444 L
578.927 85.082 L
587.777 83.558 L
595.129 82.632 L
603.29 81.434 L
610.86 80.453 L
618.34 79.473 L
626.043 78.275 L
632.328 77.131 L
639.717 76.206 L
646.806 75.389 L
653.91 74.299 L
660.835 73.156 L
668.11 71.74 L
675.195 70.868 L
682.21 69.67 L
689.341 68.908 L
694.728 67.982 L
701.308 67.165 L
707.853 66.239 L
714.382 65.477 L
720.553 64.823 L
726.943 64.061 L
733.01 63.68 L
739.08 62.972 L
743.747 62.373 L
749.441 61.447 L
754.9 61.011 L
760.477 60.358 L
765.823 59.704 L
771.352 59.16 L
776.215 58.778 L
781.507 58.506 L
786.542 57.907 L
790.524 57.199 L
794.986 56.763 L
799.422 56.055 L
803.712 55.238 L
807.848 54.966 L
812.171 54.149 L
816.05 53.986 L
820.158 53.877 L
823.224 53.768 L
826.822 53.278 L
830.243 52.624 L
833.537 52.407 L
836.889 52.08 L
840.065 51.59 L
843.188 51.208 L
846.192 50.991 L
848.965 50.718 L
851.212 50.337 L
853.572 49.792 L
856.03 49.575 L
858.422 49.193 L
860.824 49.03 L
863.165 48.54 L
865.49 48.268 L
867.902 47.832 L
870.418 47.56 L
870.418 47.56 L
872.593 47.124 L
874.454 46.797 L
876.186 46.525 L
877.861 46.361 L
879.312 46.198 L
880.728 46.198 L
881.926 46.089 L
882.939 46.089 L
884.181 46.089 L
885.328 45.98 L
886.535 45.817 L
887.648 45.762 L
888.672 45.654 L
889.576 45.545 L
890.429 45.49 L
891.297 45.381 L
891.994 45.381 L
892.834 45.327 L
893.587 45.272 L
894.335 45.272 L
894.978 45.218 L
895.612 45.218 L
896.214 45.218 L
896.727 45.163 L
897.205 45.163 L
897.635 45.109 L
898.085 45.109 L
898.463 45.109 L
898.884 45.109 L
899.276 45.109 L
899.648 45.109 L
899.972 45.109 L
900.29 45.109 L
900.602 45.109 L
900.931 45.054 L
901.219 45.054 L
901.517 45.054 L
901.731 45.054 L
901.959 45.054 L
902.135 45.054 L
902.316 45 L
902.464 45 L
902.652 45 L
902.82 45 L
902.943 45 L
903.11 45 L
903.259 45 L
903.4 45 L
903.521 45 L
903.63 45 L
903.735 45 L
903.822 45 L
903.905 45 L
903.971 45 L
904.029 45 L
904.105 45 L
904.195 45 L
904.257 45 L
904.292 45 L
904.341 45 L
904.395 45 L
904.428 45 L
904.459 45 L
904.496 45 L
904.532 45 L
904.571 45 L
904.608 45 L
904.635 45 L
904.664 45 L
904.693 45 L
904.714 45 L
904.735 45 L
904.76 45 L
904.782 45 L
904.795 45 L
904.805 45 L
904.82 45 L
904.832 45 L
904.842 45 L
904.855 45 L
904.871 45 L
904.88 45 L
904.889 45 L
904.897 45 L
904.904 45 L
904.911 45 L
904.917 45 L
904.925 45 L
904.93 45 L
904.94 45 L
904.946 45 L
904.95 45 L
904.958 45 L
904.962 45 L
904.966 45 L
904.967 45 L
904.97 45 L
904.971 45 L
904.972 45 L
904.972 45 L
904.976 45 L
904.979 45 L
904.98 45 L
904.982 45 L
904.983 45 L
904.983 45 L
904.984 45 L
904.987 45 L
904.989 45 L
904.989 45 L
904.989 45 L
904.991 45 L
904.992 45 L
904.992 45 L
904.992 45 L
904.992 45 L
904.992 45 L
904.992 45 L
904.995 45 L
904.996 45 L
904.997 45 L
904.997 45 L
904.997 45 L
904.997 45 L
904.997 45 L
904.997 45 L
904.997 45 L
904.997 45 L
905 45 L
S
GR
GS
1 0 0 RC
1 LJ
2 LW
N
130 530.564 M
130 530.564 L
130 530.564 L
130 530.564 L
130 530.564 L
130 530.564 L
130 530.564 L
130 530.564 L
130 530.564 L
130 530.564 L
130 530.564 L
130 530.564 L
130 530.564 L
130 530.564 L
130 530.564 L
130 530.564 L
130 530.564 L
130 530.564 L
130 530.564 L
130 530.564 L
130 530.564 L
130 530.564 L
130 530.564 L
130 530.564 L
130 530.564 L
130 530.564 L
130 530.564 L
130 530.564 L
130 530.564 L
130 530.564 L
130 530.564 L
130 530.564 L
130 530.564 L
130 530.564 L
130 530.564 L
130 530.564 L
130 530.564 L
130 530.564 L
130 530.564 L
130 530.564 L
130 530.564 L
130 530.564 L
130 530.564 L
130 530.564 L
130 530.564 L
130 530.564 L
130 530.564 L
130 530.564 L
130 530.564 L
130 530.564 L
130 530.564 L
130 530.564 L
130 530.564 L
130 530.564 L
130 530.564 L
130 530.564 L
130 530.564 L
130 530.564 L
130 530.564 L
130 530.564 L
130 530.564 L
130 530.564 L
130 530.564 L
130 530.564 L
130 530.564 L
130 530.564 L
130 530.564 L
130 530.564 L
130 530.564 L
130 530.564 L
130 530.564 L
130 530.564 L
130 530.564 L
130 530.564 L
130 530.564 L
130 530.564 L
130 530.564 L
130 530.564 L
130 530.564 L
130 530.564 L
130 530.564 L
130 530.564 L
130 530.564 L
130 530.564 L
130 530.564 L
130 530.564 L
130 530.564 L
130 530.564 L
130 530.564 L
130 530.564 L
130 530.564 L
130 530.564 L
130 530.564 L
130 530.564 L
130 530.564 L
130 530.564 L
130 530.564 L
130 530.564 L
130 530.564 L
130 530.564 L
130 530.564 L
130 530.564 L
130 530.564 L
130 530.564 L
130 530.564 L
130 530.564 L
130 530.564 L
130 530.564 L
130 530.564 L
130 530.564 L
130 530.564 L
130 530.564 L
130 530.564 L
130 530.564 L
130 530.564 L
130 530.564 L
130 530.564 L
130 530.564 L
130 530.564 L
130 530.564 L
130 530.564 L
130 530.564 L
130 530.564 L
130 530.564 L
130 530.564 L
130 530.564 L
130 530.564 L
130 530.564 L
130 530.564 L
130 530.564 L
130 530.564 L
130 530.564 L
130 530.564 L
130 530.564 L
130 530.564 L
130 530.564 L
130 530.564 L
130 530.564 L
130 530.564 L
130 530.564 L
130 530.564 L
130 530.564 L
130 530.564 L
130 530.564 L
130 530.564 L
130 530.564 L
130 530.564 L
130 530.564 L
130 530.564 L
130 530.564 L
130 530.564 L
130 530.564 L
130 530.564 L
130 530.564 L
130 530.564 L
130 530.564 L
130 530.564 L
130 530.564 L
130 530.564 L
130 530.564 L
130 530.564 L
130 530.564 L
130 530.564 L
130 530.564 L
130 530.564 L
130 530.564 L
130 530.51 L
130 530.51 L
130 530.51 L
130 530.51 L
130 530.51 L
130 530.51 L
130 530.51 L
130 530.51 L
130 530.51 L
130 530.51 L
130 530.455 L
130 530.455 L
130 530.455 L
130 530.401 L
130 530.401 L
130 530.346 L
130 530.346 L
130 530.346 L
130 530.346 L
130 530.238 L
130 530.238 L
130 530.238 L
130 530.238 L
130 530.183 L
130 530.183 L
130 530.183 L
130 530.129 L
130 530.074 L
130 530.074 L
130 529.911 L
130 529.911 L
130 529.911 L
130 529.911 L
130 529.856 L
130 529.638 L
130 529.638 L
130 529.638 L
130 529.638 L
130 529.638 L
130 529.475 L
130 529.475 L
130 529.421 L
130 529.366 L
130 529.312 L
130 529.257 L
130 529.203 L
130 529.148 L
130 529.039 L
130 528.876 L
130 528.767 L
130 528.713 L
130 528.604 L
130 528.495 L
130 528.277 L
130 528.059 L
130 528.059 L
130 528.005 L
130 527.95 L
130 527.732 L
130 527.623 L
130 527.46 L
130 527.46 L
130 527.188 L
130 527.188 L
130 527.133 L
130 526.861 L
130 526.698 L
130 526.589 L
130 526.316 L
130 526.316 L
130 526.208 L
130 526.153 L
130 526.153 L
130 526.099 L
130 525.99 L
130 525.717 L
130 525.445 L
130 525.064 L
130 524.901 L
130 524.846 L
130 524.737 L
130 524.41 L
130 524.301 L
130 524.193 L
130 523.866 L
130 523.757 L
130 523.539 L
130 523.212 L
130 523.103 L
130 522.94 L
130 522.559 L
130 522.341 L
130 521.96 L
130 521.415 L
130 521.306 L
130 521.143 L
130 521.034 L
130 520.489 L
130 520.217 L
130 520.054 L
130 519.727 L
130 519.182 L
130 519.128 L
130 518.964 L
130 518.638 L
130 518.583 L
130 518.256 L
130 517.984 L
130 517.603 L
130 517.494 L
130 517.167 L
130 516.895 L
130 516.514 L
130 516.024 L
130 515.642 L
130 515.479 L
130 515.098 L
130 514.716 L
130 514.335 L
130 513.845 L
130 513.518 L
130 513.464 L
130 513.409 L
130 513.137 L
130 512.865 L
130 512.538 L
130 512.102 L
130 511.993 L
130 511.776 L
130 511.394 L
130 511.068 L
130 510.686 L
130 510.305 L
130 510.142 L
130 509.815 L
130 509.815 L
130 509.761 L
130 508.998 L
130 508.671 L
130 508.29 L
130 507.691 L
130 507.528 L
130 507.038 L
130 506.656 L
130 506.112 L
130 505.513 L
130 505.186 L
130 504.968 L
130 504.587 L
130 503.988 L
130 503.661 L
130 503.443 L
130 503.062 L
130 502.844 L
130 502.681 L
130 502.354 L
130 501.864 L
130 501.81 L
130 501.483 L
130 501.21 L
130 501.047 L
130 500.884 L
130 500.448 L
130 500.067 L
130 499.359 L
130 498.814 L
130 498.379 L
130 498.27 L
130 498.161 L
130 497.671 L
130 497.126 L
130 496.69 L
130 496.364 L
130 496.091 L
130 495.764 L
130 495.383 L
130 494.621 L
130 494.294 L
130 493.967 L
130 493.586 L
130 493.314 L
130 493.15 L
130 492.769 L
130 492.388 L
130 491.898 L
130 491.462 L
130 491.19 L
130 491.135 L
130 490.863 L
130 490.645 L
130 490.427 L
130 490.101 L
130 489.447 L
130 488.794 L
130 488.576 L
130 487.977 L
130 487.541 L
130 487.378 L
130 486.942 L
130 486.615 L
130 486.506 L
130 486.125 L
130 486.016 L
130 485.744 L
130 485.254 L
130 484.818 L
130 484.655 L
130 484.273 L
130 483.892 L
130 483.348 L
130 482.912 L
130 482.531 L
130 482.204 L
130 482.041 L
130 481.714 L
130 481.387 L
130 480.842 L
130 480.516 L
130 480.026 L
130 479.699 L
130 479.59 L
130 479.045 L
130 478.827 L
130 478.174 L
130 478.065 L
130 477.629 L
130 477.575 L
130 477.194 L
130 476.867 L
130 476.431 L
130 475.832 L
130 475.505 L
130 474.906 L
130 474.797 L
130 474.58 L
130 474.035 L
130 473.436 L
130 473.436 L
130 472.946 L
130 472.728 L
130 472.129 L
130 471.965 L
130 471.639 L
130 471.258 L
130 470.822 L
130 470.277 L
130 469.95 L
130 469.624 L
130 469.079 L
130 468.698 L
130 468.317 L
130 467.99 L
130 467.718 L
130 467.227 L
130 466.792 L
130 466.574 L
130 466.52 L
130 466.356 L
130 466.138 L
130 465.92 L
130 465.812 L
130 465.703 L
130 465.267 L
130 464.94 L
130 464.722 L
130 464.45 L
130 464.178 L
130 463.905 L
130 463.47 L
130 463.143 L
130 462.707 L
130 462.435 L
130 462.272 L
130 461.945 L
130 461.564 L
130 461.182 L
130 460.801 L
130 460.474 L
130.001 460.257 L
130.001 460.093 L
130.001 459.766 L
130.001 459.494 L
130.001 459.222 L
130.001 459.004 L
130.001 458.623 L
130.001 458.459 L
130.001 458.242 L
130.001 457.969 L
130.003 457.86 L
130.003 457.479 L
130.003 457.152 L
130.003 457.152 L
130.003 456.826 L
130.003 456.608 L
130.003 456.444 L
130.003 456.227 L
130.003 456.009 L
130.003 455.682 L
130.003 455.464 L
130.003 454.974 L
130.003 454.756 L
130.003 454.429 L
130.003 453.994 L
130.003 453.885 L
130.003 453.776 L
130.003 453.504 L
130.003 453.395 L
130.003 453.286 L
130.003 453.122 L
130.003 452.85 L
130.003 452.578 L
130.003 452.414 L
130.003 452.033 L
130.003 451.597 L
130.003 451.38 L
130.003 451.216 L
130.003 450.89 L
130.003 450.617 L
130.003 450.454 L
130.003 450.073 L
130.003 449.964 L
130.003 449.582 L
130.003 449.365 L
130.003 449.038 L
130.003 448.874 L
130.003 448.384 L
130.004 448.167 L
130.004 447.785 L
130.004 447.295 L
130.004 446.968 L
130.004 446.859 L
130.004 446.26 L
130.005 445.988 L
130.005 445.444 L
130.005 445.062 L
130.005 444.572 L
130.005 444.191 L
130.005 444.082 L
130.005 443.592 L
130.005 443.156 L
130.005 442.557 L
130.005 442.067 L
130.005 441.413 L
130.005 441.087 L
130.005 440.542 L
130.005 439.998 L
130.007 439.616 L
130.007 438.908 L
130.007 438.309 L
130.007 437.656 L
130.007 437.057 L
130.007 436.621 L
130.007 435.75 L
130.007 435.26 L
130.007 434.715 L
130.007 433.952 L
130.007 433.299 L
130.009 433.081 L
130.011 432.918 L
130.011 432.428 L
130.011 431.883 L
130.013 431.447 L
130.013 430.739 L
130.013 430.63 L
130.013 430.031 L
130.013 429.541 L
130.013 428.942 L
130.014 428.615 L
130.014 427.853 L
130.014 427.363 L
130.014 426.873 L
130.016 426.328 L
130.016 425.566 L
130.016 424.803 L
130.016 424.15 L
130.016 423.496 L
130.016 422.734 L
130.016 422.189 L
130.016 421.699 L
130.016 420.937 L
130.016 420.12 L
130.017 419.575 L
130.017 419.139 L
130.018 418.704 L
130.018 418.268 L
130.018 417.56 L
130.018 416.798 L
130.021 416.253 L
130.021 415.436 L
130.021 415.218 L
130.022 414.292 L
130.024 413.693 L
130.024 413.149 L
130.024 412.768 L
130.024 412.223 L
130.024 411.733 L
130.025 411.079 L
130.025 410.154 L
130.025 409.663 L
130.025 408.792 L
130.028 408.03 L
130.028 407.158 L
130.028 406.559 L
130.028 405.96 L
130.028 405.198 L
130.028 404.708 L
130.028 403.836 L
130.028 403.183 L
130.028 402.638 L
130.03 401.876 L
130.037 400.732 L
130.037 400.024 L
130.037 399.316 L
130.037 398.608 L
130.038 398.009 L
130.038 397.464 L
130.038 396.321 L
130.039 395.558 L
130.042 394.687 L
130.045 393.271 L
130.051 392.073 L
130.053 391.31 L
130.053 390.439 L
130.053 389.404 L
130.053 388.533 L
130.053 387.607 L
130.053 386.899 L
130.053 385.755 L
130.054 384.721 L
130.059 384.122 L
130.059 382.924 L
130.059 381.998 L
130.059 381.072 L
130.059 379.928 L
130.059 378.403 L
130.062 377.75 L
130.062 376.661 L
130.062 375.299 L
130.062 374.373 L
130.079 373.121 L
130.079 372.249 L
130.079 371.923 L
130.079 370.888 L
130.079 369.472 L
130.079 368.219 L
130.082 367.13 L
130.082 366.095 L
130.082 365.17 L
130.082 364.462 L
130.097 363.699 L
130.097 362.61 L
130.099 361.357 L
130.101 359.833 L
130.105 358.743 L
130.105 358.362 L
130.107 357.001 L
130.109 355.53 L
130.111 354.496 L
130.111 353.515 L
130.132 352.535 L
130.136 351.01 L
130.137 350.465 L
130.145 349.322 L
130.145 348.124 L
130.15 347.089 L
130.153 346 L
130.154 344.747 L
130.158 343.604 L
130.176 343.004 L
130.179 341.589 L
130.179 340.499 L
130.179 339.192 L
130.186 338.702 L
130.192 337.831 L
130.197 336.796 L
130.203 335.979 L
130.209 335.053 L
130.214 333.801 L
130.243 332.058 L
130.249 330.697 L
130.25 329.662 L
130.257 329.117 L
130.261 328.246 L
130.268 326.884 L
130.275 325.251 L
130.282 323.726 L
130.291 321.928 L
130.299 320.894 L
130.341 319.478 L
130.349 318.116 L
130.376 317.136 L
130.388 315.72 L
130.396 314.25 L
130.42 313.16 L
130.43 312.18 L
130.445 310.982 L
130.459 309.838 L
130.484 308.531 L
130.517 306.789 L
130.529 305.482 L
130.558 304.665 L
130.575 303.358 L
130.6 302.268 L
130.632 300.362 L
130.654 299.219 L
130.676 297.857 L
130.708 296.169 L
130.78 295.189 L
130.808 294.099 L
130.841 293.174 L
130.876 291.649 L
130.919 290.069 L
130.95 288.926 L
130.987 287.51 L
131.024 285.822 L
131.074 284.732 L
131.129 283.425 L
131.22 281.737 L
131.284 280.103 L
131.34 279.177 L
131.413 277.979 L
131.476 276.4 L
131.563 275.256 L
131.679 273.514 L
131.769 271.716 L
131.88 270.409 L
131.969 269.211 L
132.115 267.578 L
132.233 266.325 L
132.4 264.473 L
132.53 263.33 L
132.678 261.533 L
132.84 260.389 L
132.995 259.136 L
133.17 257.72 L
133.391 256.304 L
133.607 255.052 L
133.86 253.364 L
134.083 252.329 L
134.282 250.913 L
134.561 248.734 L
134.824 246.937 L
135.119 245.467 L
135.437 243.724 L
135.787 242.254 L
136.172 241.382 L
136.528 239.694 L
136.932 238.006 L
137.334 235.991 L
137.764 234.629 L
138.235 232.832 L
138.728 231.362 L
139.022 230.218 L
139.575 228.693 L
140.161 227.223 L
140.755 225.698 L
141.443 223.901 L
142.03 222.376 L
142.758 219.871 L
143.281 218.291 L
144.122 216.766 L
144.908 214.969 L
145.796 213.444 L
146.663 212.028 L
147.603 210.613 L
148.315 209.033 L
149.399 206.909 L
150.429 205.657 L
151.549 204.404 L
152.765 203.26 L
153.963 201.681 L
155.335 199.938 L
156.326 198.359 L
157.668 196.943 L
159.275 195.146 L
160.84 193.839 L
162.483 192.314 L
164.193 190.462 L
165.452 188.937 L
167.251 187.848 L
169.232 185.942 L
171.176 184.472 L
173.196 183.001 L
175.247 181.368 L
177.441 179.516 L
179.174 177.991 L
181.58 176.63 L
184.177 175.05 L
186.692 174.015 L
189.082 172.491 L
192.339 170.203 L
194.506 169.277 L
196.834 168.406 L
199.902 166.936 L
202.976 165.356 L
206.259 163.995 L
209.668 162.524 L
213.002 161.163 L
215.741 159.529 L
219.551 157.786 L
223.461 156.37 L
227.096 154.846 L
231.345 152.885 L
235.524 151.578 L
239.655 150.598 L
243.169 149.4 L
247.643 147.984 L
251.936 146.677 L
256.701 145.206 L
261.661 143.79 L
266.49 142.048 L
270.377 140.74 L
275.695 139.488 L
280.883 138.344 L
286.106 137.201 L
291.563 135.894 L
297.874 134.804 L
303.514 134.096 L
308.036 132.68 L
314.188 130.938 L
319.657 129.358 L
326.312 127.779 L
333.117 126.254 L
339.585 124.511 L
344.669 123.368 L
351.327 122.387 L
358.052 121.189 L
364.624 119.773 L
371.718 118.14 L
378.718 116.615 L
385.757 115.253 L
391.018 114.327 L
398.607 112.639 L
405.414 111.223 L
413.337 109.372 L
420.906 107.901 L
428.439 106.703 L
434.326 105.723 L
442.258 104.361 L
450.184 102.945 L
457.927 101.693 L
465.576 100.113 L
473.797 98.752 L
481.541 97.499 L
488.205 96.192 L
495.882 94.831 L
504.235 93.36 L
512.186 91.944 L
520.388 90.583 L
528.291 89.712 L
534.476 89.004 L
542.861 87.152 L
550.615 86.498 L
558.635 85.627 L
566.504 84.974 L
574.965 84.102 L
582.701 83.176 L
589.126 81.869 L
596.893 81.107 L
604.595 80.018 L
611.976 79.146 L
619.628 78.329 L
627.162 77.186 L
633.508 76.097 L
641.105 74.79 L
648.199 73.809 L
655.762 73.319 L
663.216 72.448 L
670.183 71.631 L
677.632 70.596 L
683.226 70.378 L
689.895 69.289 L
696.95 68.472 L
703.537 67.71 L
710.09 66.893 L
716.963 66.022 L
722.12 65.096 L
728.371 64.224 L
734.532 63.299 L
740.483 62.699 L
746.263 61.828 L
751.757 61.066 L
757.674 60.14 L
762.236 59.541 L
767.56 59.214 L
772.926 58.615 L
777.689 58.125 L
783.068 57.689 L
787.818 57.145 L
791.873 56.491 L
796.721 55.946 L
801.05 55.565 L
805.473 54.966 L
809.727 54.585 L
813.835 54.149 L
818.03 53.605 L
821.337 53.115 L
825.14 52.515 L
828.872 52.025 L
832.195 51.916 L
835.485 51.535 L
838.811 51.1 L
841.594 50.555 L
844.5 50.283 L
847.542 49.847 L
850.35 49.466 L
852.947 49.248 L
855.697 48.867 L
858.126 48.594 L
860.233 48.485 L
862.533 48.213 L
864.646 48.213 L
866.795 47.995 L
868.769 47.941 L
870.768 47.669 L
872.737 47.505 L
874.32 47.287 L
875.967 46.906 L
877.638 46.797 L
879.152 46.743 L
880.569 46.688 L
881.94 46.634 L
883.107 46.579 L
884.327 46.416 L
885.502 46.307 L
886.625 46.198 L
887.704 46.089 L
888.785 45.926 L
889.817 45.817 L
890.642 45.762 L
891.517 45.762 L
892.405 45.708 L
893.221 45.708 L
894.017 45.545 L
894.753 45.545 L
895.34 45.436 L
895.857 45.381 L
896.457 45.381 L
897.081 45.381 L
897.588 45.381 L
898.185 45.327 L
898.909 45.218 L
898.909 45.218 L
899.431 45.163 L
899.785 45.163 L
900.146 45.109 L
900.485 45.109 L
900.735 45.054 L
901 45.054 L
901.304 45 L
901.587 45 L
901.864 45 L
902.092 45 L
902.252 45 L
902.448 45 L
902.591 45 L
902.772 45 L
902.952 45 L
903.105 45 L
903.229 45 L
903.366 45 L
903.472 45 L
903.584 45 L
903.701 45 L
903.797 45 L
903.889 45 L
903.97 45 L
904.034 45 L
904.096 45 L
904.18 45 L
904.239 45 L
904.297 45 L
904.339 45 L
904.396 45 L
904.439 45 L
904.475 45 L
904.513 45 L
904.554 45 L
904.603 45 L
904.635 45 L
904.67 45 L
904.685 45 L
904.717 45 L
904.746 45 L
904.766 45 L
904.782 45 L
904.797 45 L
904.813 45 L
904.829 45 L
904.842 45 L
904.851 45 L
904.864 45 L
904.878 45 L
904.889 45 L
904.904 45 L
904.912 45 L
904.922 45 L
904.925 45 L
904.932 45 L
904.937 45 L
904.94 45 L
904.943 45 L
904.949 45 L
904.953 45 L
904.954 45 L
904.955 45 L
904.961 45 L
904.961 45 L
904.962 45 L
904.963 45 L
904.966 45 L
904.967 45 L
904.967 45 L
904.97 45 L
904.972 45 L
904.975 45 L
904.976 45 L
904.978 45 L
904.979 45 L
904.98 45 L
904.983 45 L
904.984 45 L
904.989 45 L
904.991 45 L
904.993 45 L
904.995 45 L
904.995 45 L
904.995 45 L
904.996 45 L
904.996 45 L
904.997 45 L
904.999 45 L
904.999 45 L
904.999 45 L
905 45 L
S
GR
GS
[1 0 0 1 440 224.82001] CT
/Helvetica 24 F
GS
[1 0 0 1 0 0] CT
0 8.5 moveto 
1 -1 scale
(EER line) t 
GR
GR
GS
[10 6] 0 setdash
2 LJ
0.5 LW
N
905 531 M
130 45 L
S
GR
GS
1 GC
N
897 523 M
897 401 L
213 401 L
213 523 L
cp
f
GR
GS
[1 0 0 1 250 417.5679] CT
/Helvetica 24 F
GS
[1 0 0 1 0 0] CT
0 8.5 moveto 
1 -1 scale
(original OSIRIS, EER = 33.59%) t 
GR
GR
GS
0 0 1 RC
1 LJ
2 LW
N
217 417.568 M
247 417.568 L
S
GR
GS
[1 0 0 1 250 447.1893] CT
/Helvetica 24 F
GS
[1 0 0 1 0 0] CT
0 8.5 moveto 
1 -1 scale
(IriCore, EER = 25.38%) t 
GR
GR
GS
0 1 0 RC
1 LJ
2 LW
N
217 447.189 M
247 447.189 L
S
GR
GS
[1 0 0 1 250 476.8107] CT
/Helvetica 24 F
GS
[1 0 0 1 0 0] CT
0 8.5 moveto 
1 -1 scale
(OSIRIS with new segmentation, EER = 21.36%) t 
GR
GR
GS
1 LJ
2 LW
N
217 476.811 M
247 476.811 L
S
GR
GS
[1 0 0 1 250 506.4321] CT
/Helvetica 24 F
GS
[1 0 0 1 0 0] CT
0 8.5 moveto 
1 -1 scale
(OSIRIS with new segmentation and filter set, EER = 19.27%) t 
GR
GR
GS
1 0 0 RC
1 LJ
2 LW
N
217 506.432 M
247 506.432 L
S
GR
GS
0.149 GC
10.0 ML
0.5 LW
N
213 523 M
213 401 L
897 401 L
897 523 L
cp
S
GR
%%Trailer
%%Pages: 1
%%EOF
