%!PS-Adobe-3.0 EPSF-3.0
%%Creator: (MATLAB, The Mathworks, Inc. Version 9.5.0.1049112 \(R2018b\) Update 3. Operating System: Mac OS X)
%%Title: ./ROCs_postmortem_new_370_closeup.eps
%%CreationDate: 2019-03-12T15:43:55
%%Pages: (atend)
%%BoundingBox:    61     5   927   587
%%LanguageLevel: 3
%%EndComments
%%BeginProlog
%%BeginResource: procset (Apache XML Graphics Std ProcSet) 1.2 0
%%Version: 1.2 0
%%Copyright: (Copyright 2001-2003,2010 The Apache Software Foundation. License terms: http://www.apache.org/licenses/LICENSE-2.0)
/bd{bind def}bind def
/ld{load def}bd
/GR/grestore ld
/GS/gsave ld
/RM/rmoveto ld
/C/curveto ld
/t/show ld
/L/lineto ld
/ML/setmiterlimit ld
/CT/concat ld
/f/fill ld
/N/newpath ld
/S/stroke ld
/CC/setcmykcolor ld
/A/ashow ld
/cp/closepath ld
/RC/setrgbcolor ld
/LJ/setlinejoin ld
/GC/setgray ld
/LW/setlinewidth ld
/M/moveto ld
/re {4 2 roll M
1 index 0 rlineto
0 exch rlineto
neg 0 rlineto
cp } bd
/_ctm matrix def
/_tm matrix def
/BT { _ctm currentmatrix pop matrix _tm copy pop 0 0 moveto } bd
/ET { _ctm setmatrix } bd
/iTm { _ctm setmatrix _tm concat } bd
/Tm { _tm astore pop iTm 0 0 moveto } bd
/ux 0.0 def
/uy 0.0 def
/F {
  /Tp exch def
  /Tf exch def
  Tf findfont Tp scalefont setfont
  /cf Tf def  /cs Tp def
} bd
/ULS {currentpoint /uy exch def /ux exch def} bd
/ULE {
  /Tcx currentpoint pop def
  gsave
  newpath
  cf findfont cs scalefont dup
  /FontMatrix get 0 get /Ts exch def /FontInfo get dup
  /UnderlinePosition get Ts mul /To exch def
  /UnderlineThickness get Ts mul /Tt exch def
  ux uy To add moveto  Tcx uy To add lineto
  Tt setlinewidth stroke
  grestore
} bd
/OLE {
  /Tcx currentpoint pop def
  gsave
  newpath
  cf findfont cs scalefont dup
  /FontMatrix get 0 get /Ts exch def /FontInfo get dup
  /UnderlinePosition get Ts mul /To exch def
  /UnderlineThickness get Ts mul /Tt exch def
  ux uy To add cs add moveto Tcx uy To add cs add lineto
  Tt setlinewidth stroke
  grestore
} bd
/SOE {
  /Tcx currentpoint pop def
  gsave
  newpath
  cf findfont cs scalefont dup
  /FontMatrix get 0 get /Ts exch def /FontInfo get dup
  /UnderlinePosition get Ts mul /To exch def
  /UnderlineThickness get Ts mul /Tt exch def
  ux uy To add cs 10 mul 26 idiv add moveto Tcx uy To add cs 10 mul 26 idiv add lineto
  Tt setlinewidth stroke
  grestore
} bd
/QT {
/Y22 exch store
/X22 exch store
/Y21 exch store
/X21 exch store
currentpoint
/Y21 load 2 mul add 3 div exch
/X21 load 2 mul add 3 div exch
/X21 load 2 mul /X22 load add 3 div
/Y21 load 2 mul /Y22 load add 3 div
/X22 load /Y22 load curveto
} bd
/SSPD {
dup length /d exch dict def
{
/v exch def
/k exch def
currentpagedevice k known {
/cpdv currentpagedevice k get def
v cpdv ne {
/upd false def
/nullv v type /nulltype eq def
/nullcpdv cpdv type /nulltype eq def
nullv nullcpdv or
{
/upd true def
} {
/sametype v type cpdv type eq def
sametype {
v type /arraytype eq {
/vlen v length def
/cpdvlen cpdv length def
vlen cpdvlen eq {
0 1 vlen 1 sub {
/i exch def
/obj v i get def
/cpdobj cpdv i get def
obj cpdobj ne {
/upd true def
exit
} if
} for
} {
/upd true def
} ifelse
} {
v type /dicttype eq {
v {
/dv exch def
/dk exch def
/cpddv cpdv dk get def
dv cpddv ne {
/upd true def
exit
} if
} forall
} {
/upd true def
} ifelse
} ifelse
} if
} ifelse
upd true eq {
d k v put
} if
} if
} if
} forall
d length 0 gt {
d setpagedevice
} if
} bd
/RE { % /NewFontName [NewEncodingArray] /FontName RE -
  findfont dup length dict begin
  {
    1 index /FID ne
    {def} {pop pop} ifelse
  } forall
  /Encoding exch def
  /FontName 1 index def
  currentdict definefont pop
  end
} bind def
%%EndResource
%%BeginResource: procset (Apache XML Graphics EPS ProcSet) 1.0 0
%%Version: 1.0 0
%%Copyright: (Copyright 2002-2003 The Apache Software Foundation. License terms: http://www.apache.org/licenses/LICENSE-2.0)
/BeginEPSF { %def
/b4_Inc_state save def         % Save state for cleanup
/dict_count countdictstack def % Count objects on dict stack
/op_count count 1 sub def      % Count objects on operand stack
userdict begin                 % Push userdict on dict stack
/showpage { } def              % Redefine showpage, { } = null proc
0 setgray 0 setlinecap         % Prepare graphics state
1 setlinewidth 0 setlinejoin
10 setmiterlimit [ ] 0 setdash newpath
/languagelevel where           % If level not equal to 1 then
{pop languagelevel             % set strokeadjust and
1 ne                           % overprint to their defaults.
{false setstrokeadjust false setoverprint
} if
} if
} bd
/EndEPSF { %def
count op_count sub {pop} repeat            % Clean up stacks
countdictstack dict_count sub {end} repeat
b4_Inc_state restore
} bd
%%EndResource
%FOPBeginFontDict
%%IncludeResource: font Courier-Oblique
%%IncludeResource: font Courier-BoldOblique
%%IncludeResource: font Courier-Bold
%%IncludeResource: font ZapfDingbats
%%IncludeResource: font Symbol
%%IncludeResource: font Helvetica
%%IncludeResource: font Helvetica-Oblique
%%IncludeResource: font Helvetica-Bold
%%IncludeResource: font Helvetica-BoldOblique
%%IncludeResource: font Times-Roman
%%IncludeResource: font Times-Italic
%%IncludeResource: font Times-Bold
%%IncludeResource: font Times-BoldItalic
%%IncludeResource: font Courier
%FOPEndFontDict
%%BeginResource: encoding WinAnsiEncoding
/WinAnsiEncoding [
/.notdef /.notdef /.notdef /.notdef /.notdef
/.notdef /.notdef /.notdef /.notdef /.notdef
/.notdef /.notdef /.notdef /.notdef /.notdef
/.notdef /.notdef /.notdef /.notdef /.notdef
/.notdef /.notdef /.notdef /.notdef /.notdef
/.notdef /.notdef /.notdef /.notdef /.notdef
/.notdef /.notdef /space /exclam /quotedbl
/numbersign /dollar /percent /ampersand /quotesingle
/parenleft /parenright /asterisk /plus /comma
/hyphen /period /slash /zero /one
/two /three /four /five /six
/seven /eight /nine /colon /semicolon
/less /equal /greater /question /at
/A /B /C /D /E
/F /G /H /I /J
/K /L /M /N /O
/P /Q /R /S /T
/U /V /W /X /Y
/Z /bracketleft /backslash /bracketright /asciicircum
/underscore /quoteleft /a /b /c
/d /e /f /g /h
/i /j /k /l /m
/n /o /p /q /r
/s /t /u /v /w
/x /y /z /braceleft /bar
/braceright /asciitilde /bullet /Euro /bullet
/quotesinglbase /florin /quotedblbase /ellipsis /dagger
/daggerdbl /circumflex /perthousand /Scaron /guilsinglleft
/OE /bullet /Zcaron /bullet /bullet
/quoteleft /quoteright /quotedblleft /quotedblright /bullet
/endash /emdash /asciitilde /trademark /scaron
/guilsinglright /oe /bullet /zcaron /Ydieresis
/space /exclamdown /cent /sterling /currency
/yen /brokenbar /section /dieresis /copyright
/ordfeminine /guillemotleft /logicalnot /sfthyphen /registered
/macron /degree /plusminus /twosuperior /threesuperior
/acute /mu /paragraph /middot /cedilla
/onesuperior /ordmasculine /guillemotright /onequarter /onehalf
/threequarters /questiondown /Agrave /Aacute /Acircumflex
/Atilde /Adieresis /Aring /AE /Ccedilla
/Egrave /Eacute /Ecircumflex /Edieresis /Igrave
/Iacute /Icircumflex /Idieresis /Eth /Ntilde
/Ograve /Oacute /Ocircumflex /Otilde /Odieresis
/multiply /Oslash /Ugrave /Uacute /Ucircumflex
/Udieresis /Yacute /Thorn /germandbls /agrave
/aacute /acircumflex /atilde /adieresis /aring
/ae /ccedilla /egrave /eacute /ecircumflex
/edieresis /igrave /iacute /icircumflex /idieresis
/eth /ntilde /ograve /oacute /ocircumflex
/otilde /odieresis /divide /oslash /ugrave
/uacute /ucircumflex /udieresis /yacute /thorn
/ydieresis
] def
%%EndResource
%FOPBeginFontReencode
/Courier-Oblique findfont
dup length dict begin
  {1 index /FID ne {def} {pop pop} ifelse} forall
  /Encoding WinAnsiEncoding def
  currentdict
end
/Courier-Oblique exch definefont pop
/Courier-BoldOblique findfont
dup length dict begin
  {1 index /FID ne {def} {pop pop} ifelse} forall
  /Encoding WinAnsiEncoding def
  currentdict
end
/Courier-BoldOblique exch definefont pop
/Courier-Bold findfont
dup length dict begin
  {1 index /FID ne {def} {pop pop} ifelse} forall
  /Encoding WinAnsiEncoding def
  currentdict
end
/Courier-Bold exch definefont pop
/Helvetica findfont
dup length dict begin
  {1 index /FID ne {def} {pop pop} ifelse} forall
  /Encoding WinAnsiEncoding def
  currentdict
end
/Helvetica exch definefont pop
/Helvetica-Oblique findfont
dup length dict begin
  {1 index /FID ne {def} {pop pop} ifelse} forall
  /Encoding WinAnsiEncoding def
  currentdict
end
/Helvetica-Oblique exch definefont pop
/Helvetica-Bold findfont
dup length dict begin
  {1 index /FID ne {def} {pop pop} ifelse} forall
  /Encoding WinAnsiEncoding def
  currentdict
end
/Helvetica-Bold exch definefont pop
/Helvetica-BoldOblique findfont
dup length dict begin
  {1 index /FID ne {def} {pop pop} ifelse} forall
  /Encoding WinAnsiEncoding def
  currentdict
end
/Helvetica-BoldOblique exch definefont pop
/Times-Roman findfont
dup length dict begin
  {1 index /FID ne {def} {pop pop} ifelse} forall
  /Encoding WinAnsiEncoding def
  currentdict
end
/Times-Roman exch definefont pop
/Times-Italic findfont
dup length dict begin
  {1 index /FID ne {def} {pop pop} ifelse} forall
  /Encoding WinAnsiEncoding def
  currentdict
end
/Times-Italic exch definefont pop
/Times-Bold findfont
dup length dict begin
  {1 index /FID ne {def} {pop pop} ifelse} forall
  /Encoding WinAnsiEncoding def
  currentdict
end
/Times-Bold exch definefont pop
/Times-BoldItalic findfont
dup length dict begin
  {1 index /FID ne {def} {pop pop} ifelse} forall
  /Encoding WinAnsiEncoding def
  currentdict
end
/Times-BoldItalic exch definefont pop
/Courier findfont
dup length dict begin
  {1 index /FID ne {def} {pop pop} ifelse} forall
  /Encoding WinAnsiEncoding def
  currentdict
end
/Courier exch definefont pop
%FOPEndFontReencode
%%EndProlog
%%Page: 1 1
%%PageBoundingBox: 0 0 1000 600
%%BeginPageSetup
[1 0 0 -1 0 600] CT
%%EndPageSetup
GS
1 GC
N
0 0 1000 600 re
f
GR
GS
1 GC
N
0 0 1000 600 re
f
GR
GS
1 GC
N
130 531 M
905 531 L
905 45 L
130 45 L
cp
f
GR
GS
0.873 GC
1 LJ
0.5 LW
N
130 531 M
130 45 L
S
GR
GS
0.873 GC
1 LJ
0.5 LW
N
285 531 M
285 45 L
S
GR
GS
0.873 GC
1 LJ
0.5 LW
N
440 531 M
440 45 L
S
GR
GS
0.873 GC
1 LJ
0.5 LW
N
595 531 M
595 45 L
S
GR
GS
0.873 GC
1 LJ
0.5 LW
N
750 531 M
750 45 L
S
GR
GS
0.873 GC
1 LJ
0.5 LW
N
905 531 M
905 45 L
S
GR
GS
0.873 GC
1 LJ
0.5 LW
N
905 482.4 M
130 482.4 L
S
GR
GS
0.873 GC
1 LJ
0.5 LW
N
905 385.2 M
130 385.2 L
S
GR
GS
0.873 GC
1 LJ
0.5 LW
N
905 288 M
130 288 L
S
GR
GS
0.873 GC
1 LJ
0.5 LW
N
905 190.8 M
130 190.8 L
S
GR
GS
0.873 GC
1 LJ
0.5 LW
N
905 93.6 M
130 93.6 L
S
GR
GS
0.149 GC
2 setlinecap
1 LJ
0.5 LW
N
130 531 M
905 531 L
S
GR
GS
0.149 GC
2 setlinecap
1 LJ
0.5 LW
N
130 45 M
905 45 L
S
GR
GS
0.149 GC
2 setlinecap
1 LJ
0.5 LW
N
130 531 M
130 523.25 L
S
GR
GS
0.149 GC
2 setlinecap
1 LJ
0.5 LW
N
285 531 M
285 523.25 L
S
GR
GS
0.149 GC
2 setlinecap
1 LJ
0.5 LW
N
440 531 M
440 523.25 L
S
GR
GS
0.149 GC
2 setlinecap
1 LJ
0.5 LW
N
595 531 M
595 523.25 L
S
GR
GS
0.149 GC
2 setlinecap
1 LJ
0.5 LW
N
750 531 M
750 523.25 L
S
GR
GS
0.149 GC
2 setlinecap
1 LJ
0.5 LW
N
905 531 M
905 523.25 L
S
GR
GS
0.149 GC
2 setlinecap
1 LJ
0.5 LW
N
130 45 M
130 52.75 L
S
GR
GS
0.149 GC
2 setlinecap
1 LJ
0.5 LW
N
285 45 M
285 52.75 L
S
GR
GS
0.149 GC
2 setlinecap
1 LJ
0.5 LW
N
440 45 M
440 52.75 L
S
GR
GS
0.149 GC
2 setlinecap
1 LJ
0.5 LW
N
595 45 M
595 52.75 L
S
GR
GS
0.149 GC
2 setlinecap
1 LJ
0.5 LW
N
750 45 M
750 52.75 L
S
GR
GS
0.149 GC
2 setlinecap
1 LJ
0.5 LW
N
905 45 M
905 52.75 L
S
GR
GS
[1 0 0 1 130 537.79999] CT
0.149 GC
/Helvetica 24 F
GS
[1 0 0 1 0 0] CT
-7 23 moveto 
1 -1 scale
(0) t 
GR
GR
GS
[1 0 0 1 285 537.79999] CT
0.149 GC
/Helvetica 24 F
GS
[1 0 0 1 0 0] CT
-23.5 23 moveto 
1 -1 scale
(0.01) t 
GR
GR
GS
[1 0 0 1 440 537.79999] CT
0.149 GC
/Helvetica 24 F
GS
[1 0 0 1 0 0] CT
-23.5 23 moveto 
1 -1 scale
(0.02) t 
GR
GR
GS
[1 0 0 1 595 537.79999] CT
0.149 GC
/Helvetica 24 F
GS
[1 0 0 1 0 0] CT
-23.5 23 moveto 
1 -1 scale
(0.03) t 
GR
GR
GS
[1 0 0 1 750 537.79999] CT
0.149 GC
/Helvetica 24 F
GS
[1 0 0 1 0 0] CT
-23.5 23 moveto 
1 -1 scale
(0.04) t 
GR
GR
GS
[1 0 0 1 905 537.79999] CT
0.149 GC
/Helvetica 24 F
GS
[1 0 0 1 0 0] CT
-23.5 23 moveto 
1 -1 scale
(0.05) t 
GR
GR
GS
[1 0 0 1 517.50037 567.79999] CT
0.149 GC
/Helvetica 26.4 F
GS
[1 0 0 1 0 0] CT
-103.5 26 moveto 
1 -1 scale
(False Match Rate) t 
GR
GR
GS
0.149 GC
2 setlinecap
1 LJ
0.5 LW
N
130 531 M
130 45 L
S
GR
GS
0.149 GC
2 setlinecap
1 LJ
0.5 LW
N
905 531 M
905 45 L
S
GR
GS
0.149 GC
2 setlinecap
1 LJ
0.5 LW
N
130 482.4 M
137.75 482.4 L
S
GR
GS
0.149 GC
2 setlinecap
1 LJ
0.5 LW
N
130 385.2 M
137.75 385.2 L
S
GR
GS
0.149 GC
2 setlinecap
1 LJ
0.5 LW
N
130 288 M
137.75 288 L
S
GR
GS
0.149 GC
2 setlinecap
1 LJ
0.5 LW
N
130 190.8 M
137.75 190.8 L
S
GR
GS
0.149 GC
2 setlinecap
1 LJ
0.5 LW
N
130 93.6 M
137.75 93.6 L
S
GR
GS
0.149 GC
2 setlinecap
1 LJ
0.5 LW
N
905 482.4 M
897.25 482.4 L
S
GR
GS
0.149 GC
2 setlinecap
1 LJ
0.5 LW
N
905 385.2 M
897.25 385.2 L
S
GR
GS
0.149 GC
2 setlinecap
1 LJ
0.5 LW
N
905 288 M
897.25 288 L
S
GR
GS
0.149 GC
2 setlinecap
1 LJ
0.5 LW
N
905 190.8 M
897.25 190.8 L
S
GR
GS
0.149 GC
2 setlinecap
1 LJ
0.5 LW
N
905 93.6 M
897.25 93.6 L
S
GR
GS
[1 0 0 1 123.2 482.39999] CT
0.149 GC
/Helvetica 24 F
GS
[1 0 0 1 0 0] CT
-34 8.5 moveto 
1 -1 scale
(0.3) t 
GR
GR
GS
[1 0 0 1 123.2 385.19998] CT
0.149 GC
/Helvetica 24 F
GS
[1 0 0 1 0 0] CT
-34 8.5 moveto 
1 -1 scale
(0.4) t 
GR
GR
GS
[1 0 0 1 123.2 288] CT
0.149 GC
/Helvetica 24 F
GS
[1 0 0 1 0 0] CT
-34 8.5 moveto 
1 -1 scale
(0.5) t 
GR
GR
GS
[1 0 0 1 123.2 190.79997] CT
0.149 GC
/Helvetica 24 F
GS
[1 0 0 1 0 0] CT
-34 8.5 moveto 
1 -1 scale
(0.6) t 
GR
GR
GS
[1 0 0 1 123.2 93.60001] CT
0.149 GC
/Helvetica 24 F
GS
[1 0 0 1 0 0] CT
-34 8.5 moveto 
1 -1 scale
(0.7) t 
GR
GR
GS
[0 -1 1 0 86.2 287.99976] CT
0.149 GC
/Helvetica 26.4 F
GS
[1 0 0 1 0 0] CT
-153 -6 moveto 
1 -1 scale
(1 - False Non-Match Rate) t 
GR
GR
GS
[1 0 0 1 517.50049 38.40002] CT
/Helvetica-Bold 26.4 F
GS
[1 0 0 1 0 0] CT
-287 -6 moveto 
1 -1 scale
(Data acquired less than 370 hours after death) t 
GR
GR
GS
0 0 1 RC
1 LJ
2 LW
N
162.222 531.058 M
162.871 528.277 L
164.793 525.881 L
166.345 523.485 L
167.161 520.653 L
168.293 518.256 L
169.214 514.88 L
170.583 512.157 L
171.425 509.761 L
172.635 506.057 L
174.162 503.117 L
175.952 500.285 L
178.268 495.601 L
180.847 492.007 L
182.768 488.848 L
185.268 486.016 L
187.847 481.877 L
190.374 478.065 L
193.479 475.015 L
196.322 471.094 L
199.085 467.282 L
204.059 464.45 L
208.165 461.727 L
211.981 458.459 L
216.692 454.865 L
223.35 451.271 L
228.719 446.914 L
234.562 443.537 L
241.194 440.052 L
247.458 437.22 L
256.459 434.17 L
265.275 428.942 L
275.434 423.714 L
283.303 420.446 L
294.015 415.327 L
305.911 411.515 L
318.122 407.049 L
331.413 402.039 L
344.809 397.247 L
362.231 392.89 L
379.628 388.424 L
397.656 384.612 L
416.421 379.928 L
438.028 375.136 L
460.661 370.67 L
485.611 366.749 L
512.324 362.828 L
541.405 359.125 L
572.856 353.679 L
606.543 349.431 L
644.046 344.529 L
680.655 338.539 L
720.79 334.618 L
763.11 329.825 L
808.482 325.468 L
856.486 321.112 L
905.092 316.491 L
S
GR
GS
0 1 0 RC
1 LJ
2 LW
N
130.237 531.058 M
130.237 530.346 L
130.29 527.841 L
130.316 525.336 L
130.368 522.722 L
130.395 520.435 L
130.395 518.365 L
130.5 515.969 L
130.526 513.791 L
130.526 511.83 L
130.579 509.652 L
130.605 507.582 L
130.711 504.206 L
130.763 502.572 L
130.842 500.067 L
130.868 497.779 L
130.868 495.928 L
130.921 494.512 L
131 492.007 L
131.053 489.175 L
131.132 486.779 L
131.237 484.056 L
131.263 481.768 L
131.29 478.501 L
131.5 474.906 L
131.605 472.51 L
131.684 470.114 L
131.895 466.955 L
131.974 464.559 L
132.184 461.074 L
132.369 458.351 L
132.474 455.41 L
132.605 451.597 L
132.79 448.983 L
133.132 445.825 L
133.448 442.557 L
133.658 439.943 L
133.921 437.438 L
134.211 434.17 L
134.553 431.774 L
134.816 428.507 L
135.5 424.368 L
135.843 421.209 L
136.606 417.832 L
137.395 414.456 L
138.053 411.406 L
138.843 408.574 L
139.553 405.307 L
140.527 402.366 L
141.501 399.207 L
142.291 396.702 L
143.317 394.632 L
144.422 390.82 L
146.028 387.553 L
147.475 384.612 L
148.896 380.909 L
150.765 377.096 L
153.055 372.631 L
155.292 369.363 L
157.397 365.551 L
160.187 361.848 L
163.845 358.035 L
166.74 354.877 L
170.425 350.738 L
174.372 347.252 L
178.978 343.549 L
184.057 339.846 L
189.19 336.251 L
195.243 332.33 L
202.059 327.865 L
209.007 323.944 L
216.35 319.696 L
224.561 315.121 L
232.93 310.982 L
242.905 305.972 L
252.932 302.704 L
264.538 299.437 L
277.776 293.664 L
291.83 289.416 L
306.569 284.515 L
322.78 280.049 L
339.966 276.019 L
358.178 271.662 L
377.733 266.761 L
399.866 262.513 L
422.895 258.156 L
446.292 253.908 L
472.32 248.898 L
499.165 243.67 L
529.194 239.64 L
560.539 235.61 L
593.094 231.471 L
627.492 228.965 L
665.732 225.371 L
701.236 221.341 L
741.818 217.638 L
782.901 214.261 L
826.484 208.38 L
869.172 205.33 L
905.092 202.065 L
S
GR
GS
1 LJ
2 LW
N
131.211 531.058 M
131.211 530.891 L
131.447 528.931 L
131.447 528.931 L
131.447 527.515 L
131.447 525.99 L
131.447 524.574 L
131.474 522.722 L
131.5 521.415 L
131.5 519.237 L
131.526 517.93 L
131.526 516.514 L
131.737 514.771 L
131.79 513.464 L
131.842 511.612 L
131.895 509.978 L
131.895 507.8 L
131.895 505.731 L
131.921 504.206 L
131.921 502.899 L
131.921 501.918 L
132.132 500.176 L
132.184 498.106 L
132.237 496.69 L
132.29 495.492 L
132.395 492.987 L
132.421 490.591 L
132.474 488.63 L
132.527 487.323 L
132.553 484.6 L
132.553 482.313 L
133.053 479.917 L
133.106 478.174 L
133.132 475.996 L
133.158 474.471 L
133.211 472.946 L
133.237 471.203 L
133.29 470.332 L
133.29 467.935 L
133.316 465.866 L
133.606 464.45 L
133.685 461.618 L
133.764 459.331 L
133.79 457.261 L
133.816 455.083 L
133.895 453.122 L
133.974 451.38 L
134 449.201 L
134.158 447.567 L
134.632 445.716 L
134.685 443.429 L
134.79 441.468 L
134.948 439.616 L
135.053 437.983 L
135.237 435.368 L
135.343 432.754 L
135.448 430.358 L
135.553 427.853 L
135.816 425.348 L
136.395 423.061 L
136.527 421.1 L
136.764 418.704 L
136.922 416.307 L
137.053 414.238 L
137.474 411.515 L
137.685 409.01 L
137.869 407.703 L
138.132 404.871 L
139.106 403.564 L
139.475 400.841 L
139.817 397.791 L
140.106 395.613 L
140.58 393.325 L
140.843 389.949 L
141.369 386.79 L
141.975 384.83 L
142.238 382.433 L
143.212 380.691 L
143.554 377.859 L
143.896 376.225 L
144.607 373.502 L
145.317 370.125 L
146.344 367.838 L
146.896 365.878 L
147.607 363.155 L
148.475 361.085 L
149.212 358.253 L
151.055 355.748 L
151.844 354.114 L
153.028 352.154 L
154.265 349.649 L
155.529 346.054 L
156.818 343.985 L
157.95 341.915 L
159.582 338.866 L
161.503 336.034 L
164.372 334.4 L
165.74 332.221 L
167.898 329.498 L
169.872 325.904 L
172.32 323.072 L
174.925 319.805 L
177.241 316.864 L
179.873 314.359 L
183.163 310.982 L
186.452 309.239 L
190.005 306.299 L
193.032 304.011 L
196.611 301.506 L
200.638 298.021 L
204.875 294.644 L
208.77 291.594 L
213.218 288.109 L
217.297 284.95 L
221.85 280.811 L
227.982 277.653 L
232.851 274.385 L
240.063 271.88 L
246.879 268.177 L
252.327 265.671 L
259.538 263.166 L
267.328 260.334 L
273.118 258.047 L
280.514 254.344 L
291.093 250.858 L
301.068 247.809 L
310.121 244.214 L
320.57 240.838 L
330.229 238.006 L
341.677 234.194 L
350.678 231.362 L
362.152 227.441 L
375.654 224.064 L
390.366 220.47 L
404.604 216.113 L
419.158 213.281 L
434.633 210.013 L
450.608 206.855 L
467.557 204.132 L
481.847 200.102 L
498.796 196.943 L
517.061 193.349 L
536.773 189.428 L
559.618 185.615 L
580.462 181.694 L
604.174 177.555 L
628.597 173.525 L
638.967 171.347 L
670.891 166.772 L
698.209 163.178 L
726.606 160.019 L
752.267 157.078 L
784.612 152.722 L
816.72 149.018 L
849.512 145.86 L
880.436 143.355 L
905.092 141.672 L
S
GR
GS
1 0 0 RC
1 LJ
2 LW
N
130.5 531.058 M
130.5 529.584 L
130.553 528.059 L
130.553 526.316 L
130.553 525.118 L
130.553 523.92 L
130.553 522.395 L
130.553 521.415 L
130.553 519.672 L
130.553 518.365 L
130.553 517.276 L
130.605 515.751 L
130.737 513.464 L
130.737 512.048 L
130.737 510.632 L
130.737 509.216 L
130.763 508.018 L
130.763 506.929 L
130.763 504.641 L
130.79 503.117 L
130.842 501.374 L
130.895 498.542 L
131.026 496.146 L
131.053 494.621 L
131.053 492.878 L
131.053 490.809 L
131.053 489.066 L
131.053 487.214 L
131.053 485.798 L
131.053 483.511 L
131.079 481.441 L
131.184 480.243 L
131.184 477.847 L
131.184 475.996 L
131.184 474.144 L
131.184 471.857 L
131.184 468.807 L
131.237 467.5 L
131.237 465.321 L
131.237 462.598 L
131.237 460.747 L
131.579 458.242 L
131.579 456.499 L
131.579 455.845 L
131.579 453.776 L
131.579 450.944 L
131.579 448.439 L
131.632 446.26 L
131.632 444.191 L
131.632 442.339 L
131.632 440.923 L
131.948 439.398 L
131.948 437.22 L
131.974 434.715 L
132.027 431.665 L
132.105 429.487 L
132.105 428.724 L
132.132 426.001 L
132.184 423.061 L
132.211 420.991 L
132.211 419.03 L
132.632 417.07 L
132.711 414.02 L
132.737 412.931 L
132.895 410.644 L
132.895 408.247 L
133 406.178 L
133.053 404 L
133.079 401.494 L
133.158 399.207 L
133.527 398.009 L
133.579 395.177 L
133.579 392.999 L
133.579 390.385 L
133.711 389.404 L
133.842 387.662 L
133.948 385.592 L
134.053 383.958 L
134.185 382.107 L
134.29 379.602 L
134.869 376.116 L
134.974 373.393 L
135 371.324 L
135.132 370.234 L
135.211 368.492 L
135.369 365.769 L
135.5 362.501 L
135.632 359.451 L
135.816 355.857 L
135.974 353.788 L
136.816 350.956 L
136.974 348.233 L
137.527 346.272 L
137.764 343.44 L
137.922 340.499 L
138.395 338.321 L
138.606 336.36 L
138.896 333.964 L
139.185 331.677 L
139.685 329.063 L
140.343 325.577 L
140.58 322.963 L
141.159 321.329 L
141.501 318.715 L
142.001 316.537 L
142.633 312.725 L
143.08 310.437 L
143.528 307.714 L
144.159 304.338 L
145.607 302.377 L
146.159 300.199 L
146.817 298.347 L
147.528 295.298 L
148.37 292.139 L
149.002 289.852 L
149.739 287.02 L
150.476 283.643 L
151.476 281.465 L
152.581 278.851 L
154.397 275.474 L
155.687 272.207 L
156.792 270.355 L
158.266 267.959 L
159.529 264.8 L
161.266 262.513 L
163.582 259.027 L
165.372 255.433 L
167.609 252.819 L
169.372 250.423 L
172.293 247.155 L
174.662 244.65 L
178.004 240.947 L
180.61 238.659 L
183.557 235.065 L
186.795 232.778 L
189.9 230.273 L
193.4 227.441 L
197.822 224.609 L
202.138 222.104 L
207.191 218.727 L
211.665 216.658 L
215.639 213.826 L
221.219 209.469 L
226.482 205.874 L
232.378 202.934 L
238.747 199.448 L
245.747 196.507 L
253.432 194.765 L
260.564 191.388 L
268.644 188.012 L
276.671 183.982 L
285.277 181.259 L
294.699 177.664 L
304.568 174.723 L
310.437 172.436 L
321.491 169.386 L
333.229 166.446 L
345.098 163.396 L
358.863 159.801 L
370.601 156.752 L
385.155 151.741 L
395.629 148.583 L
412.446 145.533 L
428.158 141.939 L
445.923 138.889 L
463.267 136.057 L
482.058 133.225 L
496.296 130.066 L
517.982 125.818 L
538.589 123.313 L
560.986 120.808 L
585.304 118.521 L
609.254 115.362 L
636.703 111.877 L
656.521 108.718 L
683.366 105.886 L
715.5 102.292 L
746.792 99.678 L
779.664 96.628 L
813.851 92.925 L
839.038 89.875 L
875.014 87.697 L
905.092 84.804 L
S
GR
%%Trailer
%%Pages: 1
%%EOF
