%!PS-Adobe-3.0 EPSF-3.0
%%Creator: (MATLAB, The Mathworks, Inc. Version 9.5.0.1049112 \(R2018b\) Update 3. Operating System: Mac OS X)
%%Title: ./ROCs_postmortem_new_210.eps
%%CreationDate: 2019-02-28T21:27:05
%%Pages: (atend)
%%BoundingBox:    61     5   907   587
%%LanguageLevel: 3
%%EndComments
%%BeginProlog
%%BeginResource: procset (Apache XML Graphics Std ProcSet) 1.2 0
%%Version: 1.2 0
%%Copyright: (Copyright 2001-2003,2010 The Apache Software Foundation. License terms: http://www.apache.org/licenses/LICENSE-2.0)
/bd{bind def}bind def
/ld{load def}bd
/GR/grestore ld
/GS/gsave ld
/RM/rmoveto ld
/C/curveto ld
/t/show ld
/L/lineto ld
/ML/setmiterlimit ld
/CT/concat ld
/f/fill ld
/N/newpath ld
/S/stroke ld
/CC/setcmykcolor ld
/A/ashow ld
/cp/closepath ld
/RC/setrgbcolor ld
/LJ/setlinejoin ld
/GC/setgray ld
/LW/setlinewidth ld
/M/moveto ld
/re {4 2 roll M
1 index 0 rlineto
0 exch rlineto
neg 0 rlineto
cp } bd
/_ctm matrix def
/_tm matrix def
/BT { _ctm currentmatrix pop matrix _tm copy pop 0 0 moveto } bd
/ET { _ctm setmatrix } bd
/iTm { _ctm setmatrix _tm concat } bd
/Tm { _tm astore pop iTm 0 0 moveto } bd
/ux 0.0 def
/uy 0.0 def
/F {
  /Tp exch def
  /Tf exch def
  Tf findfont Tp scalefont setfont
  /cf Tf def  /cs Tp def
} bd
/ULS {currentpoint /uy exch def /ux exch def} bd
/ULE {
  /Tcx currentpoint pop def
  gsave
  newpath
  cf findfont cs scalefont dup
  /FontMatrix get 0 get /Ts exch def /FontInfo get dup
  /UnderlinePosition get Ts mul /To exch def
  /UnderlineThickness get Ts mul /Tt exch def
  ux uy To add moveto  Tcx uy To add lineto
  Tt setlinewidth stroke
  grestore
} bd
/OLE {
  /Tcx currentpoint pop def
  gsave
  newpath
  cf findfont cs scalefont dup
  /FontMatrix get 0 get /Ts exch def /FontInfo get dup
  /UnderlinePosition get Ts mul /To exch def
  /UnderlineThickness get Ts mul /Tt exch def
  ux uy To add cs add moveto Tcx uy To add cs add lineto
  Tt setlinewidth stroke
  grestore
} bd
/SOE {
  /Tcx currentpoint pop def
  gsave
  newpath
  cf findfont cs scalefont dup
  /FontMatrix get 0 get /Ts exch def /FontInfo get dup
  /UnderlinePosition get Ts mul /To exch def
  /UnderlineThickness get Ts mul /Tt exch def
  ux uy To add cs 10 mul 26 idiv add moveto Tcx uy To add cs 10 mul 26 idiv add lineto
  Tt setlinewidth stroke
  grestore
} bd
/QT {
/Y22 exch store
/X22 exch store
/Y21 exch store
/X21 exch store
currentpoint
/Y21 load 2 mul add 3 div exch
/X21 load 2 mul add 3 div exch
/X21 load 2 mul /X22 load add 3 div
/Y21 load 2 mul /Y22 load add 3 div
/X22 load /Y22 load curveto
} bd
/SSPD {
dup length /d exch dict def
{
/v exch def
/k exch def
currentpagedevice k known {
/cpdv currentpagedevice k get def
v cpdv ne {
/upd false def
/nullv v type /nulltype eq def
/nullcpdv cpdv type /nulltype eq def
nullv nullcpdv or
{
/upd true def
} {
/sametype v type cpdv type eq def
sametype {
v type /arraytype eq {
/vlen v length def
/cpdvlen cpdv length def
vlen cpdvlen eq {
0 1 vlen 1 sub {
/i exch def
/obj v i get def
/cpdobj cpdv i get def
obj cpdobj ne {
/upd true def
exit
} if
} for
} {
/upd true def
} ifelse
} {
v type /dicttype eq {
v {
/dv exch def
/dk exch def
/cpddv cpdv dk get def
dv cpddv ne {
/upd true def
exit
} if
} forall
} {
/upd true def
} ifelse
} ifelse
} if
} ifelse
upd true eq {
d k v put
} if
} if
} if
} forall
d length 0 gt {
d setpagedevice
} if
} bd
/RE { % /NewFontName [NewEncodingArray] /FontName RE -
  findfont dup length dict begin
  {
    1 index /FID ne
    {def} {pop pop} ifelse
  } forall
  /Encoding exch def
  /FontName 1 index def
  currentdict definefont pop
  end
} bind def
%%EndResource
%%BeginResource: procset (Apache XML Graphics EPS ProcSet) 1.0 0
%%Version: 1.0 0
%%Copyright: (Copyright 2002-2003 The Apache Software Foundation. License terms: http://www.apache.org/licenses/LICENSE-2.0)
/BeginEPSF { %def
/b4_Inc_state save def         % Save state for cleanup
/dict_count countdictstack def % Count objects on dict stack
/op_count count 1 sub def      % Count objects on operand stack
userdict begin                 % Push userdict on dict stack
/showpage { } def              % Redefine showpage, { } = null proc
0 setgray 0 setlinecap         % Prepare graphics state
1 setlinewidth 0 setlinejoin
10 setmiterlimit [ ] 0 setdash newpath
/languagelevel where           % If level not equal to 1 then
{pop languagelevel             % set strokeadjust and
1 ne                           % overprint to their defaults.
{false setstrokeadjust false setoverprint
} if
} if
} bd
/EndEPSF { %def
count op_count sub {pop} repeat            % Clean up stacks
countdictstack dict_count sub {end} repeat
b4_Inc_state restore
} bd
%%EndResource
%FOPBeginFontDict
%%IncludeResource: font Courier-Oblique
%%IncludeResource: font Courier-BoldOblique
%%IncludeResource: font Courier-Bold
%%IncludeResource: font ZapfDingbats
%%IncludeResource: font Symbol
%%IncludeResource: font Helvetica
%%IncludeResource: font Helvetica-Oblique
%%IncludeResource: font Helvetica-Bold
%%IncludeResource: font Helvetica-BoldOblique
%%IncludeResource: font Times-Roman
%%IncludeResource: font Times-Italic
%%IncludeResource: font Times-Bold
%%IncludeResource: font Times-BoldItalic
%%IncludeResource: font Courier
%FOPEndFontDict
%%BeginResource: encoding WinAnsiEncoding
/WinAnsiEncoding [
/.notdef /.notdef /.notdef /.notdef /.notdef
/.notdef /.notdef /.notdef /.notdef /.notdef
/.notdef /.notdef /.notdef /.notdef /.notdef
/.notdef /.notdef /.notdef /.notdef /.notdef
/.notdef /.notdef /.notdef /.notdef /.notdef
/.notdef /.notdef /.notdef /.notdef /.notdef
/.notdef /.notdef /space /exclam /quotedbl
/numbersign /dollar /percent /ampersand /quotesingle
/parenleft /parenright /asterisk /plus /comma
/hyphen /period /slash /zero /one
/two /three /four /five /six
/seven /eight /nine /colon /semicolon
/less /equal /greater /question /at
/A /B /C /D /E
/F /G /H /I /J
/K /L /M /N /O
/P /Q /R /S /T
/U /V /W /X /Y
/Z /bracketleft /backslash /bracketright /asciicircum
/underscore /quoteleft /a /b /c
/d /e /f /g /h
/i /j /k /l /m
/n /o /p /q /r
/s /t /u /v /w
/x /y /z /braceleft /bar
/braceright /asciitilde /bullet /Euro /bullet
/quotesinglbase /florin /quotedblbase /ellipsis /dagger
/daggerdbl /circumflex /perthousand /Scaron /guilsinglleft
/OE /bullet /Zcaron /bullet /bullet
/quoteleft /quoteright /quotedblleft /quotedblright /bullet
/endash /emdash /asciitilde /trademark /scaron
/guilsinglright /oe /bullet /zcaron /Ydieresis
/space /exclamdown /cent /sterling /currency
/yen /brokenbar /section /dieresis /copyright
/ordfeminine /guillemotleft /logicalnot /sfthyphen /registered
/macron /degree /plusminus /twosuperior /threesuperior
/acute /mu /paragraph /middot /cedilla
/onesuperior /ordmasculine /guillemotright /onequarter /onehalf
/threequarters /questiondown /Agrave /Aacute /Acircumflex
/Atilde /Adieresis /Aring /AE /Ccedilla
/Egrave /Eacute /Ecircumflex /Edieresis /Igrave
/Iacute /Icircumflex /Idieresis /Eth /Ntilde
/Ograve /Oacute /Ocircumflex /Otilde /Odieresis
/multiply /Oslash /Ugrave /Uacute /Ucircumflex
/Udieresis /Yacute /Thorn /germandbls /agrave
/aacute /acircumflex /atilde /adieresis /aring
/ae /ccedilla /egrave /eacute /ecircumflex
/edieresis /igrave /iacute /icircumflex /idieresis
/eth /ntilde /ograve /oacute /ocircumflex
/otilde /odieresis /divide /oslash /ugrave
/uacute /ucircumflex /udieresis /yacute /thorn
/ydieresis
] def
%%EndResource
%FOPBeginFontReencode
/Courier-Oblique findfont
dup length dict begin
  {1 index /FID ne {def} {pop pop} ifelse} forall
  /Encoding WinAnsiEncoding def
  currentdict
end
/Courier-Oblique exch definefont pop
/Courier-BoldOblique findfont
dup length dict begin
  {1 index /FID ne {def} {pop pop} ifelse} forall
  /Encoding WinAnsiEncoding def
  currentdict
end
/Courier-BoldOblique exch definefont pop
/Courier-Bold findfont
dup length dict begin
  {1 index /FID ne {def} {pop pop} ifelse} forall
  /Encoding WinAnsiEncoding def
  currentdict
end
/Courier-Bold exch definefont pop
/Helvetica findfont
dup length dict begin
  {1 index /FID ne {def} {pop pop} ifelse} forall
  /Encoding WinAnsiEncoding def
  currentdict
end
/Helvetica exch definefont pop
/Helvetica-Oblique findfont
dup length dict begin
  {1 index /FID ne {def} {pop pop} ifelse} forall
  /Encoding WinAnsiEncoding def
  currentdict
end
/Helvetica-Oblique exch definefont pop
/Helvetica-Bold findfont
dup length dict begin
  {1 index /FID ne {def} {pop pop} ifelse} forall
  /Encoding WinAnsiEncoding def
  currentdict
end
/Helvetica-Bold exch definefont pop
/Helvetica-BoldOblique findfont
dup length dict begin
  {1 index /FID ne {def} {pop pop} ifelse} forall
  /Encoding WinAnsiEncoding def
  currentdict
end
/Helvetica-BoldOblique exch definefont pop
/Times-Roman findfont
dup length dict begin
  {1 index /FID ne {def} {pop pop} ifelse} forall
  /Encoding WinAnsiEncoding def
  currentdict
end
/Times-Roman exch definefont pop
/Times-Italic findfont
dup length dict begin
  {1 index /FID ne {def} {pop pop} ifelse} forall
  /Encoding WinAnsiEncoding def
  currentdict
end
/Times-Italic exch definefont pop
/Times-Bold findfont
dup length dict begin
  {1 index /FID ne {def} {pop pop} ifelse} forall
  /Encoding WinAnsiEncoding def
  currentdict
end
/Times-Bold exch definefont pop
/Times-BoldItalic findfont
dup length dict begin
  {1 index /FID ne {def} {pop pop} ifelse} forall
  /Encoding WinAnsiEncoding def
  currentdict
end
/Times-BoldItalic exch definefont pop
/Courier findfont
dup length dict begin
  {1 index /FID ne {def} {pop pop} ifelse} forall
  /Encoding WinAnsiEncoding def
  currentdict
end
/Courier exch definefont pop
%FOPEndFontReencode
%%EndProlog
%%Page: 1 1
%%PageBoundingBox: 0 0 1000 600
%%BeginPageSetup
[1 0 0 -1 0 600] CT
%%EndPageSetup
GS
1 GC
N
0 0 1000 600 re
f
GR
GS
1 GC
N
0 0 1000 600 re
f
GR
GS
1 GC
N
130 531 M
905 531 L
905 45 L
130 45 L
cp
f
GR
GS
0.873 GC
1 LJ
0.5 LW
N
130 531 M
130 45 L
S
GR
GS
0.873 GC
1 LJ
0.5 LW
N
285 531 M
285 45 L
S
GR
GS
0.873 GC
1 LJ
0.5 LW
N
440 531 M
440 45 L
S
GR
GS
0.873 GC
1 LJ
0.5 LW
N
595 531 M
595 45 L
S
GR
GS
0.873 GC
1 LJ
0.5 LW
N
750 531 M
750 45 L
S
GR
GS
0.873 GC
1 LJ
0.5 LW
N
905 531 M
905 45 L
S
GR
GS
0.873 GC
1 LJ
0.5 LW
N
905 531 M
130 531 L
S
GR
GS
0.873 GC
1 LJ
0.5 LW
N
905 433.8 M
130 433.8 L
S
GR
GS
0.873 GC
1 LJ
0.5 LW
N
905 336.6 M
130 336.6 L
S
GR
GS
0.873 GC
1 LJ
0.5 LW
N
905 239.4 M
130 239.4 L
S
GR
GS
0.873 GC
1 LJ
0.5 LW
N
905 142.2 M
130 142.2 L
S
GR
GS
0.873 GC
1 LJ
0.5 LW
N
905 45 M
130 45 L
S
GR
GS
0.149 GC
2 setlinecap
1 LJ
0.5 LW
N
130 531 M
905 531 L
S
GR
GS
0.149 GC
2 setlinecap
1 LJ
0.5 LW
N
130 45 M
905 45 L
S
GR
GS
0.149 GC
2 setlinecap
1 LJ
0.5 LW
N
130 531 M
130 523.25 L
S
GR
GS
0.149 GC
2 setlinecap
1 LJ
0.5 LW
N
285 531 M
285 523.25 L
S
GR
GS
0.149 GC
2 setlinecap
1 LJ
0.5 LW
N
440 531 M
440 523.25 L
S
GR
GS
0.149 GC
2 setlinecap
1 LJ
0.5 LW
N
595 531 M
595 523.25 L
S
GR
GS
0.149 GC
2 setlinecap
1 LJ
0.5 LW
N
750 531 M
750 523.25 L
S
GR
GS
0.149 GC
2 setlinecap
1 LJ
0.5 LW
N
905 531 M
905 523.25 L
S
GR
GS
0.149 GC
2 setlinecap
1 LJ
0.5 LW
N
130 45 M
130 52.75 L
S
GR
GS
0.149 GC
2 setlinecap
1 LJ
0.5 LW
N
285 45 M
285 52.75 L
S
GR
GS
0.149 GC
2 setlinecap
1 LJ
0.5 LW
N
440 45 M
440 52.75 L
S
GR
GS
0.149 GC
2 setlinecap
1 LJ
0.5 LW
N
595 45 M
595 52.75 L
S
GR
GS
0.149 GC
2 setlinecap
1 LJ
0.5 LW
N
750 45 M
750 52.75 L
S
GR
GS
0.149 GC
2 setlinecap
1 LJ
0.5 LW
N
905 45 M
905 52.75 L
S
GR
GS
[1 0 0 1 130 537.79999] CT
0.149 GC
/Helvetica 24 F
GS
[1 0 0 1 0 0] CT
-7 23 moveto 
1 -1 scale
(0) t 
GR
GR
GS
[1 0 0 1 285 537.79999] CT
0.149 GC
/Helvetica 24 F
GS
[1 0 0 1 0 0] CT
-17 23 moveto 
1 -1 scale
(0.2) t 
GR
GR
GS
[1 0 0 1 440 537.79999] CT
0.149 GC
/Helvetica 24 F
GS
[1 0 0 1 0 0] CT
-17 23 moveto 
1 -1 scale
(0.4) t 
GR
GR
GS
[1 0 0 1 595 537.79999] CT
0.149 GC
/Helvetica 24 F
GS
[1 0 0 1 0 0] CT
-17 23 moveto 
1 -1 scale
(0.6) t 
GR
GR
GS
[1 0 0 1 750 537.79999] CT
0.149 GC
/Helvetica 24 F
GS
[1 0 0 1 0 0] CT
-17 23 moveto 
1 -1 scale
(0.8) t 
GR
GR
GS
[1 0 0 1 905 537.79999] CT
0.149 GC
/Helvetica 24 F
GS
[1 0 0 1 0 0] CT
-7 23 moveto 
1 -1 scale
(1) t 
GR
GR
GS
[1 0 0 1 517.50037 567.79999] CT
0.149 GC
/Helvetica 26.4 F
GS
[1 0 0 1 0 0] CT
-103.5 26 moveto 
1 -1 scale
(False Match Rate) t 
GR
GR
GS
0.149 GC
2 setlinecap
1 LJ
0.5 LW
N
130 531 M
130 45 L
S
GR
GS
0.149 GC
2 setlinecap
1 LJ
0.5 LW
N
905 531 M
905 45 L
S
GR
GS
0.149 GC
2 setlinecap
1 LJ
0.5 LW
N
130 531 M
137.75 531 L
S
GR
GS
0.149 GC
2 setlinecap
1 LJ
0.5 LW
N
130 433.8 M
137.75 433.8 L
S
GR
GS
0.149 GC
2 setlinecap
1 LJ
0.5 LW
N
130 336.6 M
137.75 336.6 L
S
GR
GS
0.149 GC
2 setlinecap
1 LJ
0.5 LW
N
130 239.4 M
137.75 239.4 L
S
GR
GS
0.149 GC
2 setlinecap
1 LJ
0.5 LW
N
130 142.2 M
137.75 142.2 L
S
GR
GS
0.149 GC
2 setlinecap
1 LJ
0.5 LW
N
130 45 M
137.75 45 L
S
GR
GS
0.149 GC
2 setlinecap
1 LJ
0.5 LW
N
905 531 M
897.25 531 L
S
GR
GS
0.149 GC
2 setlinecap
1 LJ
0.5 LW
N
905 433.8 M
897.25 433.8 L
S
GR
GS
0.149 GC
2 setlinecap
1 LJ
0.5 LW
N
905 336.6 M
897.25 336.6 L
S
GR
GS
0.149 GC
2 setlinecap
1 LJ
0.5 LW
N
905 239.4 M
897.25 239.4 L
S
GR
GS
0.149 GC
2 setlinecap
1 LJ
0.5 LW
N
905 142.2 M
897.25 142.2 L
S
GR
GS
0.149 GC
2 setlinecap
1 LJ
0.5 LW
N
905 45 M
897.25 45 L
S
GR
GS
[1 0 0 1 123.2 531] CT
0.149 GC
/Helvetica 24 F
GS
[1 0 0 1 0 0] CT
-14 8.5 moveto 
1 -1 scale
(0) t 
GR
GR
GS
[1 0 0 1 123.2 433.79999] CT
0.149 GC
/Helvetica 24 F
GS
[1 0 0 1 0 0] CT
-34 8.5 moveto 
1 -1 scale
(0.2) t 
GR
GR
GS
[1 0 0 1 123.2 336.60001] CT
0.149 GC
/Helvetica 24 F
GS
[1 0 0 1 0 0] CT
-34 8.5 moveto 
1 -1 scale
(0.4) t 
GR
GR
GS
[1 0 0 1 123.2 239.39999] CT
0.149 GC
/Helvetica 24 F
GS
[1 0 0 1 0 0] CT
-34 8.5 moveto 
1 -1 scale
(0.6) t 
GR
GR
GS
[1 0 0 1 123.2 142.2] CT
0.149 GC
/Helvetica 24 F
GS
[1 0 0 1 0 0] CT
-34 8.5 moveto 
1 -1 scale
(0.8) t 
GR
GR
GS
[1 0 0 1 123.2 45] CT
0.149 GC
/Helvetica 24 F
GS
[1 0 0 1 0 0] CT
-14 8.5 moveto 
1 -1 scale
(1) t 
GR
GR
GS
[0 -1 1 0 86.2 287.99976] CT
0.149 GC
/Helvetica 26.4 F
GS
[1 0 0 1 0 0] CT
-153 -6 moveto 
1 -1 scale
(1 - False Non-Match Rate) t 
GR
GR
GS
[1 0 0 1 517.50049 38.40002] CT
/Helvetica-Bold 26.4 F
GS
[1 0 0 1 0 0] CT
-287 -6 moveto 
1 -1 scale
(Data acquired less than 210 hours after death) t 
GR
GR
GS
0 0 1 RC
1 LJ
2 LW
N
130.002 530.405 M
130.002 530.405 L
130.002 530.405 L
130.002 530.405 L
130.002 530.405 L
130.002 530.405 L
130.002 530.405 L
130.002 530.405 L
130.002 530.405 L
130.002 530.405 L
130.002 530.405 L
130.002 530.405 L
130.002 530.405 L
130.002 530.405 L
130.002 530.405 L
130.002 530.405 L
130.002 530.405 L
130.002 530.405 L
130.002 530.405 L
130.002 530.405 L
130.002 530.405 L
130.003 530.405 L
130.003 530.405 L
130.003 530.405 L
130.003 530.405 L
130.003 530.405 L
130.003 530.405 L
130.003 530.405 L
130.003 530.405 L
130.003 530.405 L
130.003 530.405 L
130.003 530.405 L
130.003 530.405 L
130.003 530.405 L
130.003 530.405 L
130.003 530.405 L
130.003 530.405 L
130.003 530.405 L
130.003 530.405 L
130.003 530.405 L
130.003 530.405 L
130.003 530.405 L
130.003 530.405 L
130.003 530.405 L
130.003 530.405 L
130.003 530.405 L
130.003 530.405 L
130.003 530.405 L
130.003 530.405 L
130.003 530.405 L
130.003 530.405 L
130.003 530.405 L
130.003 530.405 L
130.003 530.405 L
130.003 530.405 L
130.003 530.405 L
130.003 530.405 L
130.003 530.405 L
130.003 530.405 L
130.003 530.405 L
130.003 530.405 L
130.003 530.405 L
130.003 530.405 L
130.003 530.405 L
130.003 530.405 L
130.003 530.405 L
130.003 530.405 L
130.003 530.405 L
130.003 530.405 L
130.003 530.405 L
130.003 530.405 L
130.003 530.405 L
130.005 530.405 L
130.005 530.405 L
130.005 530.405 L
130.005 530.405 L
130.005 530.405 L
130.005 530.405 L
130.005 530.405 L
130.005 530.405 L
130.005 530.405 L
130.005 530.405 L
130.005 530.405 L
130.005 530.405 L
130.007 530.405 L
130.007 530.405 L
130.007 530.405 L
130.007 530.405 L
130.007 530.405 L
130.007 530.405 L
130.007 530.405 L
130.007 530.405 L
130.007 530.405 L
130.007 530.405 L
130.007 530.405 L
130.007 530.405 L
130.007 530.405 L
130.007 530.405 L
130.007 530.405 L
130.007 530.405 L
130.008 530.405 L
130.008 530.405 L
130.008 530.405 L
130.008 530.405 L
130.008 530.405 L
130.008 530.405 L
130.008 530.405 L
130.008 530.405 L
130.01 530.405 L
130.01 530.405 L
130.01 530.405 L
130.01 530.405 L
130.012 530.405 L
130.012 530.405 L
130.012 530.331 L
130.012 530.331 L
130.012 530.256 L
130.012 530.256 L
130.012 530.256 L
130.012 530.182 L
130.015 530.182 L
130.015 530.182 L
130.015 530.182 L
130.015 530.108 L
130.015 530.033 L
130.015 530.033 L
130.015 529.959 L
130.015 529.587 L
130.015 529.513 L
130.015 529.364 L
130.015 529.364 L
130.015 529.29 L
130.015 529.29 L
130.015 529.067 L
130.016 528.992 L
130.016 528.769 L
130.016 528.695 L
130.016 528.695 L
130.016 528.546 L
130.016 528.249 L
130.016 527.951 L
130.016 527.877 L
130.016 527.58 L
130.023 527.357 L
130.023 527.133 L
130.023 527.059 L
130.023 526.836 L
130.023 526.687 L
130.023 526.464 L
130.023 526.315 L
130.023 526.092 L
130.023 525.572 L
130.025 525.2 L
130.026 524.754 L
130.026 524.382 L
130.033 523.639 L
130.033 523.192 L
130.033 522.821 L
130.033 522.523 L
130.033 522.226 L
130.033 522.077 L
130.033 521.705 L
130.033 521.482 L
130.033 520.887 L
130.033 520.664 L
130.033 519.846 L
130.033 519.549 L
130.051 519.326 L
130.051 519.028 L
130.051 518.508 L
130.051 518.359 L
130.051 518.211 L
130.051 517.764 L
130.051 517.318 L
130.051 517.095 L
130.051 516.649 L
130.051 515.905 L
130.051 515.534 L
130.051 515.311 L
130.061 514.864 L
130.061 514.047 L
130.061 513.972 L
130.061 513.675 L
130.061 513.303 L
130.061 513.005 L
130.061 512.113 L
130.061 511.89 L
130.061 511.518 L
130.061 510.7 L
130.061 510.403 L
130.061 509.734 L
130.066 508.841 L
130.066 508.767 L
130.069 508.544 L
130.069 507.503 L
130.071 507.057 L
130.071 506.313 L
130.071 505.644 L
130.071 505.049 L
130.071 504.454 L
130.071 504.083 L
130.071 503.339 L
130.071 502.967 L
130.076 502.744 L
130.076 502.372 L
130.076 501.554 L
130.081 501.183 L
130.081 500.662 L
130.081 499.993 L
130.086 499.547 L
130.086 499.249 L
130.086 498.506 L
130.086 497.762 L
130.091 497.39 L
130.091 496.87 L
130.109 496.275 L
130.109 495.383 L
130.11 494.714 L
130.112 494.119 L
130.112 493.747 L
130.112 493.078 L
130.112 492.557 L
130.112 491.665 L
130.117 491.367 L
130.117 490.996 L
130.117 490.103 L
130.117 489.657 L
130.132 489.434 L
130.135 488.691 L
130.135 488.468 L
130.138 488.096 L
130.14 487.798 L
130.142 487.129 L
130.142 486.683 L
130.148 486.014 L
130.148 485.493 L
130.148 484.75 L
130.152 484.155 L
130.152 483.411 L
130.17 483.114 L
130.17 482.593 L
130.175 482.147 L
130.175 481.329 L
130.175 481.032 L
130.176 480.065 L
130.176 479.47 L
130.178 478.727 L
130.178 478.429 L
130.178 477.983 L
130.178 477.611 L
130.226 476.868 L
130.226 476.273 L
130.226 475.827 L
130.226 475.455 L
130.226 474.786 L
130.229 474.488 L
130.229 474.117 L
130.229 473.968 L
130.231 473.299 L
130.232 472.778 L
130.237 472.183 L
130.239 471.96 L
130.277 471.217 L
130.277 470.473 L
130.29 469.953 L
130.292 469.729 L
130.292 468.912 L
130.298 468.54 L
130.3 468.094 L
130.302 467.573 L
130.31 467.053 L
130.315 466.532 L
130.315 466.086 L
130.316 465.565 L
130.34 465.045 L
130.34 464.673 L
130.34 464.45 L
130.34 464.004 L
130.348 463.558 L
130.348 463.26 L
130.349 462.889 L
130.349 462.219 L
130.351 461.625 L
130.353 461.104 L
130.356 460.732 L
130.358 460.584 L
130.404 460.063 L
130.404 459.543 L
130.417 459.171 L
130.42 458.65 L
130.42 458.204 L
130.42 457.758 L
130.428 457.014 L
130.428 456.791 L
130.428 456.345 L
130.44 455.973 L
130.44 455.527 L
130.46 455.007 L
130.513 454.412 L
130.513 454.114 L
130.522 453.222 L
130.522 452.776 L
130.524 452.255 L
130.527 451.884 L
130.542 451.363 L
130.542 450.397 L
130.569 449.653 L
130.569 449.281 L
130.583 448.612 L
130.583 448.091 L
130.63 447.274 L
130.63 446.827 L
130.633 446.009 L
130.636 445.563 L
130.638 444.448 L
130.674 443.556 L
130.674 442.589 L
130.679 441.474 L
130.679 440.804 L
130.684 439.912 L
130.692 439.317 L
130.707 438.499 L
130.756 437.681 L
130.761 437.161 L
130.766 436.417 L
130.788 435.674 L
130.788 434.93 L
130.791 434.038 L
130.791 433.22 L
130.793 431.956 L
130.793 430.841 L
130.793 429.8 L
130.794 429.205 L
130.794 428.238 L
130.949 426.974 L
130.949 426.156 L
130.953 424.818 L
130.956 423.777 L
130.958 422.81 L
130.958 421.62 L
130.958 420.207 L
130.962 419.092 L
130.969 417.531 L
131.012 416.713 L
131.03 415.226 L
131.04 413.738 L
131.106 412.177 L
131.124 411.285 L
131.134 409.5 L
131.145 408.31 L
131.154 406.897 L
131.155 405.782 L
131.221 404.295 L
131.239 402.51 L
131.243 400.8 L
131.262 399.09 L
131.269 397.305 L
131.277 395.744 L
131.338 394.034 L
131.353 392.547 L
131.355 390.836 L
131.365 389.424 L
131.432 387.788 L
131.454 385.854 L
131.472 384.59 L
131.49 383.475 L
131.506 382.136 L
131.551 380.203 L
131.569 378.344 L
131.587 376.708 L
131.684 375.073 L
131.772 373.66 L
131.811 371.875 L
131.852 370.462 L
131.889 368.306 L
131.948 366.819 L
131.984 365.332 L
132.045 363.175 L
132.11 361.316 L
132.195 359.829 L
132.301 357.152 L
132.428 355.665 L
132.512 353.881 L
132.625 352.245 L
132.756 349.642 L
132.883 347.486 L
133.031 345.85 L
133.171 343.545 L
133.311 341.24 L
133.558 339.455 L
133.776 337.968 L
133.939 336.184 L
134.168 333.953 L
134.522 332.094 L
134.806 329.566 L
135.091 327.335 L
135.429 325.402 L
135.752 323.989 L
136.227 322.279 L
136.69 319.23 L
137.194 316.405 L
137.603 314.546 L
138.148 312.092 L
138.755 309.787 L
139.358 307.482 L
140.058 304.656 L
140.737 302.202 L
141.644 299.972 L
142.563 297.89 L
143.513 295.733 L
144.49 293.502 L
145.586 290.826 L
146.769 288.521 L
148.06 286.513 L
149.429 284.505 L
150.949 282.721 L
152.614 279.821 L
154.329 277.664 L
156.327 274.987 L
158.242 271.79 L
160.346 269.559 L
162.538 267.254 L
164.9 265.395 L
167.384 263.388 L
170.065 261.008 L
172.976 258.034 L
175.997 256.101 L
179.354 253.573 L
182.938 251.119 L
186.767 249.185 L
190.671 247.326 L
194.851 245.468 L
199.147 243.237 L
203.721 241.304 L
208.594 239.222 L
213.628 236.842 L
218.897 234.165 L
224.578 231.563 L
230.409 228.886 L
236.36 226.953 L
242.868 224.201 L
249.564 221.376 L
256.374 219.219 L
263.728 216.766 L
271.665 214.461 L
279.289 212.007 L
287.23 209.627 L
295.556 206.653 L
304.202 203.753 L
312.94 201.448 L
322.491 198.92 L
331.46 197.061 L
341.154 194.756 L
350.988 192.153 L
361.241 190.666 L
371.248 188.212 L
381.593 185.982 L
392.096 183.379 L
403.215 180.702 L
413.673 178.472 L
424.699 175.943 L
435.898 173.861 L
447.184 170.292 L
458.853 167.615 L
469.911 165.013 L
481.413 162.708 L
492.762 160.18 L
504.037 158.246 L
515.048 156.536 L
525.976 153.116 L
537.177 150.588 L
548.024 147.762 L
559.101 145.457 L
569.469 144.118 L
580.452 141.962 L
590.774 139.136 L
601.274 136.831 L
610.749 134.452 L
621.015 132.593 L
630.464 130.66 L
639.724 129.247 L
648.522 127.76 L
657.311 126.198 L
665.627 124.488 L
674.008 122.406 L
681.901 121.068 L
689.32 119.655 L
696.602 118.837 L
703.44 117.275 L
710.269 116.532 L
716.585 115.788 L
722.849 114.375 L
728.631 113.334 L
734.03 111.55 L
739.317 110.435 L
744.306 109.468 L
749.029 108.724 L
753.089 107.981 L
757.461 107.237 L
760.904 106.642 L
857.401 55.931 L
859.572 55.633 L
862.41 55.261 L
865.627 54.592 L
868.417 53.774 L
871.151 53.031 L
873.676 52.733 L
876.005 52.436 L
878.098 52.138 L
879.967 51.915 L
881.94 51.32 L
883.537 50.874 L
885.104 50.354 L
886.545 49.982 L
887.916 49.685 L
889.172 49.238 L
890.311 49.015 L
891.487 48.792 L
892.463 48.42 L
893.287 48.123 L
894.101 47.9 L
894.884 47.603 L
895.556 47.305 L
896.244 47.082 L
896.881 46.71 L
897.511 46.636 L
898.03 46.562 L
898.449 46.413 L
898.887 46.413 L
899.283 46.19 L
899.659 46.19 L
899.995 46.041 L
900.31 45.967 L
900.609 45.892 L
900.883 45.892 L
901.157 45.818 L
901.414 45.744 L
901.62 45.744 L
901.877 45.669 L
902.076 45.595 L
902.239 45.595 L
902.419 45.52 L
902.557 45.52 L
902.701 45.52 L
902.848 45.52 L
902.965 45.446 L
903.087 45.372 L
903.182 45.149 L
903.306 45.149 L
903.413 45.149 L
903.502 45.149 L
903.597 45.149 L
903.662 45.149 L
903.726 45.149 L
903.782 45.149 L
903.841 45.149 L
903.916 45.149 L
903.963 45.074 L
904.054 45 L
904.095 45 L
904.169 45 L
904.207 45 L
904.244 45 L
904.273 45 L
904.318 45 L
904.347 45 L
904.387 45 L
904.42 45 L
904.458 45 L
904.481 45 L
904.501 45 L
904.529 45 L
904.542 45 L
904.57 45 L
904.581 45 L
904.599 45 L
904.624 45 L
904.646 45 L
904.665 45 L
904.689 45 L
904.695 45 L
904.703 45 L
904.713 45 L
904.721 45 L
904.751 45 L
904.756 45 L
904.779 45 L
904.782 45 L
904.792 45 L
904.799 45 L
904.814 45 L
904.819 45 L
904.82 45 L
904.834 45 L
904.839 45 L
904.848 45 L
904.857 45 L
904.867 45 L
904.867 45 L
904.868 45 L
904.871 45 L
904.876 45 L
904.878 45 L
904.881 45 L
904.891 45 L
904.896 45 L
904.904 45 L
904.908 45 L
904.919 45 L
904.921 45 L
904.927 45 L
904.927 45 L
904.934 45 L
904.937 45 L
904.937 45 L
904.942 45 L
904.942 45 L
904.942 45 L
904.944 45 L
904.947 45 L
904.947 45 L
904.951 45 L
904.951 45 L
904.952 45 L
904.952 45 L
904.957 45 L
904.957 45 L
904.959 45 L
904.959 45 L
904.959 45 L
904.959 45 L
904.96 45 L
904.965 45 L
904.965 45 L
904.967 45 L
904.969 45 L
904.97 45 L
904.972 45 L
904.972 45 L
904.974 45 L
904.974 45 L
904.974 45 L
904.975 45 L
904.975 45 L
904.975 45 L
904.975 45 L
904.977 45 L
904.977 45 L
904.977 45 L
904.977 45 L
904.977 45 L
904.977 45 L
904.977 45 L
904.977 45 L
904.977 45 L
904.98 45 L
904.98 45 L
904.98 45 L
904.98 45 L
904.98 45 L
904.98 45 L
904.98 45 L
904.98 45 L
904.98 45 L
904.98 45 L
904.982 45 L
904.982 45 L
904.987 45 L
904.987 45 L
904.987 45 L
904.987 45 L
904.987 45 L
904.987 45 L
904.987 45 L
904.988 45 L
904.988 45 L
904.988 45 L
904.988 45 L
904.988 45 L
904.99 45 L
904.99 45 L
904.99 45 L
904.99 45 L
904.99 45 L
904.99 45 L
904.99 45 L
904.99 45 L
904.99 45 L
904.99 45 L
904.99 45 L
904.99 45 L
904.99 45 L
904.99 45 L
904.99 45 L
904.99 45 L
904.99 45 L
904.99 45 L
904.99 45 L
904.99 45 L
904.99 45 L
904.99 45 L
904.99 45 L
904.99 45 L
904.99 45 L
904.99 45 L
904.99 45 L
904.99 45 L
904.99 45 L
904.99 45 L
904.992 45 L
904.992 45 L
904.992 45 L
904.992 45 L
904.992 45 L
904.992 45 L
904.992 45 L
904.992 45 L
904.992 45 L
904.992 45 L
904.992 45 L
904.992 45 L
904.992 45 L
904.992 45 L
904.992 45 L
904.992 45 L
904.992 45 L
904.992 45 L
904.992 45 L
904.992 45 L
904.992 45 L
904.992 45 L
904.992 45 L
904.992 45 L
904.992 45 L
904.992 45 L
904.992 45 L
904.992 45 L
904.992 45 L
904.992 45 L
904.992 45 L
904.992 45 L
904.992 45 L
904.992 45 L
904.992 45 L
904.992 45 L
904.992 45 L
904.992 45 L
904.992 45 L
904.992 45 L
904.992 45 L
904.992 45 L
904.992 45 L
904.992 45 L
904.992 45 L
904.992 45 L
904.992 45 L
904.992 45 L
904.992 45 L
904.992 45 L
904.992 45 L
904.992 45 L
904.992 45 L
904.992 45 L
904.992 45 L
904.992 45 L
904.992 45 L
904.992 45 L
904.992 45 L
904.992 45 L
904.992 45 L
904.992 45 L
904.992 45 L
904.992 45 L
904.992 45 L
904.992 45 L
904.992 45 L
904.992 45 L
904.992 45 L
904.992 45 L
904.992 45 L
904.992 45 L
904.992 45 L
904.992 45 L
904.992 45 L
904.992 45 L
904.992 45 L
904.992 45 L
904.992 45 L
904.992 45 L
904.992 45 L
904.992 45 L
904.992 45 L
904.992 45 L
904.992 45 L
904.992 45 L
904.992 45 L
904.992 45 L
904.992 45 L
904.992 45 L
904.992 45 L
904.992 45 L
904.992 45 L
904.992 45 L
904.992 45 L
904.992 45 L
904.992 45 L
904.992 45 L
904.992 45 L
904.992 45 L
904.992 45 L
904.992 45 L
904.992 45 L
904.992 45 L
904.992 45 L
904.992 45 L
904.992 45 L
904.992 45 L
904.992 45 L
904.992 45 L
904.992 45 L
904.992 45 L
904.992 45 L
904.992 45 L
904.992 45 L
904.992 45 L
904.992 45 L
904.992 45 L
904.992 45 L
904.992 45 L
904.992 45 L
904.992 45 L
904.992 45 L
904.992 45 L
904.992 45 L
904.992 45 L
904.992 45 L
904.992 45 L
904.992 45 L
904.992 45 L
904.992 45 L
904.992 45 L
904.992 45 L
904.992 45 L
904.992 45 L
904.992 45 L
904.992 45 L
904.992 45 L
904.992 45 L
904.992 45 L
904.992 45 L
904.992 45 L
904.992 45 L
904.992 45 L
904.992 45 L
904.992 45 L
904.992 45 L
904.992 45 L
904.992 45 L
904.992 45 L
904.992 45 L
904.992 45 L
904.992 45 L
904.992 45 L
904.992 45 L
904.992 45 L
904.992 45 L
904.992 45 L
904.992 45 L
904.992 45 L
904.992 45 L
904.992 45 L
904.992 45 L
904.992 45 L
904.992 45 L
904.992 45 L
904.992 45 L
904.992 45 L
904.992 45 L
904.992 45 L
904.992 45 L
904.992 45 L
904.992 45 L
904.992 45 L
904.992 45 L
904.992 45 L
904.992 45 L
904.992 45 L
904.992 45 L
904.992 45 L
904.992 45 L
904.992 45 L
904.992 45 L
904.992 45 L
904.992 45 L
904.992 45 L
904.992 45 L
904.992 45 L
904.992 45 L
904.992 45 L
904.992 45 L
904.992 45 L
904.992 45 L
904.992 45 L
904.992 45 L
904.992 45 L
904.992 45 L
904.992 45 L
904.992 45 L
904.992 45 L
904.992 45 L
904.992 45 L
904.992 45 L
904.992 45 L
904.992 45 L
904.992 45 L
904.992 45 L
904.992 45 L
904.992 45 L
904.992 45 L
904.992 45 L
904.992 45 L
904.992 45 L
904.992 45 L
904.992 45 L
904.992 45 L
904.992 45 L
904.992 45 L
904.992 45 L
904.992 45 L
904.992 45 L
904.992 45 L
904.992 45 L
904.992 45 L
904.992 45 L
904.992 45 L
904.992 45 L
904.992 45 L
904.992 45 L
904.992 45 L
904.992 45 L
904.992 45 L
904.992 45 L
904.992 45 L
904.992 45 L
904.992 45 L
904.992 45 L
904.992 45 L
904.992 45 L
904.992 45 L
904.992 45 L
904.992 45 L
904.992 45 L
904.992 45 L
904.992 45 L
904.992 45 L
904.992 45 L
904.992 45 L
904.992 45 L
904.992 45 L
904.992 45 L
904.992 45 L
904.992 45 L
904.992 45 L
904.992 45 L
904.992 45 L
904.992 45 L
904.992 45 L
904.992 45 L
904.992 45 L
904.992 45 L
904.992 45 L
904.992 45 L
904.992 45 L
904.992 45 L
904.992 45 L
904.992 45 L
904.992 45 L
904.992 45 L
904.992 45 L
904.992 45 L
904.992 45 L
904.992 45 L
904.992 45 L
904.992 45 L
904.992 45 L
904.992 45 L
904.992 45 L
904.992 45 L
904.992 45 L
904.992 45 L
904.992 45 L
904.992 45 L
904.992 45 L
904.992 45 L
904.992 45 L
904.992 45 L
904.992 45 L
904.992 45 L
904.992 45 L
904.992 45 L
905 45 L
S
GR
GS
0 1 0 RC
1 LJ
2 LW
N
130 530.479 M
130 530.405 L
130 530.405 L
130 530.405 L
130 530.405 L
130 530.405 L
130 530.405 L
130 530.405 L
130 530.405 L
130 530.405 L
130 530.405 L
130 530.405 L
130 530.405 L
130 530.405 L
130 530.405 L
130 530.405 L
130 530.405 L
130 530.405 L
130 530.405 L
130 530.405 L
130 530.405 L
130 530.405 L
130 530.405 L
130 530.405 L
130 530.405 L
130 530.405 L
130 530.405 L
130 530.405 L
130 530.405 L
130 530.405 L
130 530.405 L
130 530.405 L
130 530.405 L
130 530.405 L
130 530.405 L
130 530.405 L
130 530.405 L
130 530.405 L
130 530.405 L
130 530.405 L
130 530.405 L
130 530.405 L
130 530.405 L
130 530.405 L
130 530.405 L
130 530.405 L
130 530.405 L
130 530.405 L
130 530.405 L
130 530.405 L
130 530.405 L
130 530.405 L
130 530.405 L
130 530.405 L
130 530.405 L
130 530.405 L
130 530.405 L
130 530.405 L
130 530.405 L
130 530.405 L
130 530.405 L
130 530.405 L
130 530.405 L
130 530.405 L
130 530.405 L
130 530.405 L
130 530.405 L
130 530.405 L
130 530.405 L
130 530.405 L
130 530.405 L
130 530.405 L
130 530.405 L
130 530.405 L
130 530.405 L
130 530.405 L
130 530.405 L
130 530.405 L
130 530.405 L
130 530.405 L
130 530.405 L
130 530.405 L
130 530.405 L
130 530.405 L
130 530.405 L
130 530.405 L
130 530.405 L
130 530.405 L
130 530.405 L
130 530.405 L
130 530.405 L
130 530.405 L
130 530.405 L
130 530.405 L
130 530.405 L
130 530.405 L
130 530.405 L
130 530.405 L
130 530.405 L
130 530.405 L
130 530.405 L
130 530.405 L
130 530.405 L
130 530.405 L
130 530.405 L
130 530.405 L
130 530.405 L
130 530.405 L
130 530.405 L
130 530.405 L
130 530.405 L
130 530.405 L
130 530.405 L
130 530.405 L
130 530.405 L
130 530.405 L
130 530.405 L
130 530.405 L
130 530.405 L
130 530.405 L
130 530.405 L
130 530.405 L
130 530.405 L
130 530.405 L
130 530.405 L
130 530.405 L
130 530.405 L
130 530.405 L
130 530.405 L
130 530.405 L
130 530.405 L
130 530.405 L
130 530.405 L
130 530.405 L
130 530.405 L
130 530.405 L
130 530.405 L
130 530.405 L
130 530.405 L
130 530.405 L
130 530.405 L
130 530.405 L
130 530.405 L
130 530.405 L
130 530.405 L
130 530.405 L
130 530.405 L
130 530.405 L
130 530.405 L
130 530.405 L
130 530.405 L
130 530.405 L
130 530.405 L
130 530.405 L
130 530.405 L
130 530.405 L
130 530.405 L
130 530.405 L
130 530.405 L
130 530.405 L
130 530.405 L
130 530.405 L
130 530.405 L
130 530.405 L
130 530.405 L
130 530.405 L
130 530.405 L
130 530.405 L
130 530.405 L
130 530.331 L
130 530.331 L
130 530.331 L
130 530.331 L
130 530.331 L
130 530.331 L
130 530.331 L
130 530.256 L
130 530.256 L
130 530.256 L
130 530.256 L
130 530.256 L
130 530.256 L
130 530.256 L
130 530.256 L
130 530.256 L
130 530.256 L
130 530.256 L
130 530.256 L
130 530.256 L
130 530.256 L
130 530.182 L
130 530.108 L
130 530.108 L
130 530.033 L
130 529.885 L
130 529.885 L
130 529.885 L
130 529.885 L
130 529.885 L
130 529.885 L
130 529.885 L
130 529.736 L
130 529.736 L
130 529.513 L
130 529.438 L
130 529.215 L
130 529.141 L
130 528.992 L
130 528.992 L
130 528.769 L
130 528.769 L
130 528.769 L
130 528.695 L
130 528.621 L
130 528.472 L
130 528.323 L
130 528.249 L
130 528.026 L
130 528.026 L
130 528.026 L
130 527.877 L
130 527.803 L
130 527.728 L
130 527.58 L
130 527.431 L
130 527.357 L
130 527.357 L
130 527.133 L
130 526.836 L
130 526.836 L
130 526.613 L
130 526.092 L
130 525.721 L
130 525.646 L
130 525.423 L
130 525.349 L
130 525.051 L
130 524.754 L
130 524.382 L
130 524.233 L
130 523.862 L
130 523.49 L
130 523.416 L
130 522.969 L
130 522.746 L
130 522.449 L
130 522.3 L
130 522.3 L
130 522.077 L
130 521.928 L
130 521.631 L
130 521.334 L
130 521.185 L
130 520.813 L
130 520.367 L
130 519.995 L
130 519.549 L
130 519.103 L
130 518.88 L
130 518.508 L
130 518.211 L
130 517.764 L
130 517.467 L
130 517.169 L
130 516.798 L
130 516.723 L
130 516.5 L
130 516.277 L
130 515.757 L
130 515.236 L
130 515.088 L
130 514.641 L
130 514.047 L
130 513.898 L
130 513.229 L
130 512.708 L
130 512.411 L
130 512.188 L
130 511.667 L
130 511.221 L
130 510.923 L
130 510.403 L
130 510.031 L
130 509.362 L
130 509.139 L
130 508.841 L
130 508.693 L
130 508.321 L
130 507.875 L
130 507.429 L
130 507.057 L
130 506.313 L
130 506.016 L
130 505.718 L
130 505.124 L
130 504.677 L
130 504.157 L
130 503.413 L
130 502.967 L
130 502.67 L
130 502.298 L
130 502.075 L
130 501.629 L
130 501.48 L
130 501.108 L
130 500.588 L
130 499.993 L
130 499.175 L
130 498.506 L
130 498.283 L
130 497.762 L
130 497.093 L
130 496.424 L
130 496.201 L
130 495.978 L
130 495.68 L
130 495.16 L
130 494.714 L
130 494.565 L
130 494.193 L
130 493.896 L
130 493.375 L
130 492.929 L
130 492.334 L
130 491.591 L
130 491.07 L
130 490.475 L
130 490.327 L
130 489.806 L
130 488.988 L
130 488.393 L
130 487.947 L
130 487.352 L
130 486.757 L
130 486.014 L
130 485.493 L
130 485.121 L
130 484.527 L
130 484.304 L
130 483.188 L
130 482.296 L
130 482.073 L
130 481.627 L
130 481.106 L
130 480.66 L
130 480.14 L
130 479.693 L
130 479.247 L
130 479.024 L
130 478.355 L
130 477.686 L
130 477.388 L
130 476.868 L
130 476.273 L
130 475.752 L
130 475.158 L
130 474.637 L
130 474.117 L
130 473.894 L
130 473.299 L
130 472.778 L
130 471.886 L
130 471.44 L
130 470.622 L
130 470.176 L
130 469.506 L
130 468.986 L
130 468.465 L
130 467.871 L
130 467.276 L
130 466.606 L
130 465.863 L
130 465.417 L
130 464.599 L
130 464.078 L
130 463.707 L
130 463.26 L
130 462.814 L
130 462.294 L
130 461.848 L
130 460.955 L
130 460.063 L
130 459.245 L
130 458.725 L
130 458.13 L
130 457.832 L
130 457.014 L
130 456.717 L
130 455.973 L
130 455.527 L
130 454.784 L
130 454.338 L
130 453.668 L
130 452.925 L
130 452.627 L
130 452.255 L
130 451.438 L
130 450.694 L
130 450.397 L
130 450.248 L
130 449.727 L
130 449.133 L
130 448.761 L
130 448.166 L
130 447.497 L
130 446.976 L
130 446.604 L
130 446.009 L
130 446.009 L
130 445.415 L
130 444.671 L
130 444.374 L
130 443.556 L
130 443.184 L
130 443.035 L
130 442.663 L
130 441.994 L
130 441.548 L
130 441.028 L
130 440.507 L
130 440.061 L
130 439.689 L
130 439.169 L
130 438.648 L
130 438.276 L
130 437.83 L
130 437.161 L
130 436.417 L
130 435.971 L
130 435.228 L
130 434.707 L
130 434.41 L
130 434.112 L
130 433.666 L
130 432.923 L
130 431.882 L
130 431.138 L
130 430.617 L
130 429.948 L
130 429.279 L
130 428.982 L
130 428.238 L
130 428.164 L
130 427.346 L
130 426.825 L
130 426.082 L
130 425.636 L
130 425.041 L
130 424.446 L
130 423.925 L
130 422.736 L
130 421.918 L
130 421.397 L
130 420.802 L
130 420.207 L
130 419.018 L
130 418.497 L
130 417.456 L
130 416.713 L
130 415.746 L
130 415.077 L
130 414.779 L
130 413.813 L
130 413.218 L
130 412.772 L
130 412.103 L
130 411.508 L
130 410.69 L
130 410.021 L
130 409.574 L
130 408.979 L
130 408.087 L
130 407.046 L
130 406.303 L
130 405.187 L
130.002 404.667 L
130.002 403.477 L
130.002 402.213 L
130.002 401.395 L
130.002 400.577 L
130.002 399.982 L
130.002 399.536 L
130.002 398.718 L
130.002 397.9 L
130.002 397.157 L
130.002 395.893 L
130.005 395.298 L
130.007 394.331 L
130.007 393.811 L
130.007 392.695 L
130.007 391.506 L
130.007 390.539 L
130.007 390.018 L
130.007 389.126 L
130.008 388.382 L
130.01 387.118 L
130.01 385.854 L
130.01 384.739 L
130.01 383.847 L
130.01 382.88 L
130.012 381.616 L
130.012 380.649 L
130.012 379.683 L
130.012 378.567 L
130.012 377.824 L
130.015 376.188 L
130.015 374.552 L
130.018 372.916 L
130.02 371.355 L
130.02 370.165 L
130.025 368.752 L
130.025 367.637 L
130.025 366.373 L
130.028 365.183 L
130.028 363.919 L
130.033 361.986 L
130.036 361.019 L
130.041 359.532 L
130.043 358.119 L
130.043 356.929 L
130.044 356.037 L
130.048 354.476 L
130.049 352.617 L
130.053 351.278 L
130.059 349.494 L
130.061 348.081 L
130.061 346.147 L
130.064 344.065 L
130.069 342.578 L
130.073 341.091 L
130.079 339.084 L
130.081 337.671 L
130.087 335.514 L
130.096 333.879 L
130.101 332.02 L
130.105 329.789 L
130.11 328.004 L
130.127 326.071 L
130.143 324.286 L
130.152 322.799 L
130.163 321.312 L
130.18 319.156 L
130.194 317.892 L
130.204 315.735 L
130.232 313.43 L
130.244 311.497 L
130.275 309.489 L
130.308 307.259 L
130.331 305.474 L
130.358 303.838 L
130.382 302.054 L
130.42 300.195 L
130.463 298.261 L
130.496 296.774 L
130.527 295.584 L
130.574 293.502 L
130.643 291.644 L
130.702 289.859 L
130.752 287.628 L
130.826 285.769 L
130.928 283.092 L
131.028 281.085 L
131.116 279.151 L
131.243 277.144 L
131.394 275.062 L
131.524 273.203 L
131.666 270.898 L
131.829 269.039 L
132.037 267.18 L
132.258 265.395 L
132.505 263.239 L
132.797 261.231 L
133.092 258.778 L
133.382 256.621 L
133.698 254.39 L
134.079 251.788 L
134.442 249.632 L
134.89 247.55 L
135.33 245.988 L
135.851 244.65 L
136.446 241.675 L
137.118 239.742 L
137.787 237.437 L
138.507 235.429 L
139.323 233.645 L
140.1 231.191 L
140.973 229.332 L
141.978 227.176 L
143.066 225.391 L
144.116 223.458 L
145.299 221.301 L
146.479 218.699 L
147.822 216.84 L
149.223 215.873 L
150.687 214.312 L
152.282 213.196 L
154.049 211.709 L
155.671 209.702 L
157.548 207.768 L
159.399 206.504 L
161.39 204.125 L
163.283 202.712 L
165.362 201.076 L
167.436 199.589 L
169.441 198.176 L
171.548 196.615 L
173.648 194.979 L
175.83 193.566 L
177.961 192.525 L
180.158 191.335 L
182.197 190.146 L
184.46 189.253 L
186.609 187.989 L
188.71 186.874 L
190.773 185.982 L
192.829 185.089 L
194.803 184.42 L
196.591 183.379 L
198.454 182.189 L
200.163 181.52 L
201.781 180.851 L
203.403 180.107 L
204.993 179.81 L
206.519 178.546 L
207.892 178.1 L
209.161 177.654 L
210.407 177.431 L
211.633 177.133 L
212.688 176.464 L
213.666 176.315 L
214.595 176.166 L
215.459 175.869 L
216.317 175.646 L
217.115 175.497 L
217.761 175.2 L
218.356 174.977 L
218.897 174.828 L
219.393 174.605 L
219.826 174.159 L
220.218 174.01 L
220.583 173.861 L
220.891 173.713 L
221.125 173.713 L
221.384 173.713 L
221.619 173.713 L
221.85 173.638 L
222.023 173.49 L
222.155 173.49 L
222.288 173.341 L
222.399 173.192 L
222.465 173.192 L
222.532 173.192 L
222.587 173.118 L
222.651 173.118 L
222.702 173.118 L
222.758 173.118 L
222.812 173.118 L
222.832 173.118 L
222.86 173.118 L
222.882 173.118 L
222.903 173.118 L
222.913 173.118 L
222.925 173.118 L
228.268 170.664 L
234.319 167.913 L
240.749 164.864 L
247.504 161.667 L
254.347 158.098 L
261.03 155.644 L
268.109 153.413 L
275.454 150.885 L
283.001 148.208 L
290.559 146.126 L
298.561 143.747 L
305.977 142.185 L
313.819 139.731 L
321.542 137.575 L
329.466 134.378 L
337.157 132.147 L
344.635 130.585 L
351.525 128.95 L
357.768 127.983 L
363.944 126.942 L
369.579 125.975 L
374.78 124.785 L
379.292 123.819 L
383.123 123.15 L
386.091 122.778 L
388.627 122.555 L
390.697 122.406 L
392.271 122.257 L
393.422 122.257 L
394.188 122.257 L
394.72 122.183 L
395.073 122.109 L
395.216 122.109 L
395.328 122.109 L
395.396 122.109 L
395.424 122.109 L
395.432 122.109 L
395.436 122.109 L
395.437 122.109 L
395.437 122.109 L
395.437 122.109 L
395.437 122.109 L
395.437 122.109 L
395.437 122.109 L
395.437 122.109 L
395.437 122.109 L
395.437 122.109 L
395.437 122.109 L
395.437 122.109 L
395.437 122.109 L
395.437 122.109 L
395.437 122.109 L
395.437 122.109 L
395.437 122.109 L
395.437 122.109 L
395.437 122.109 L
395.437 122.109 L
395.437 122.109 L
395.437 122.109 L
395.437 122.109 L
395.437 122.109 L
395.437 122.109 L
395.437 122.109 L
395.437 122.109 L
395.437 122.109 L
395.437 122.109 L
395.437 122.109 L
395.437 122.109 L
395.437 122.109 L
395.437 122.109 L
395.437 122.109 L
395.437 122.109 L
395.437 122.109 L
395.437 122.109 L
395.437 122.109 L
395.437 122.109 L
395.437 122.109 L
395.437 122.109 L
395.437 122.109 L
395.437 122.109 L
395.437 122.109 L
395.437 122.109 L
395.437 122.109 L
395.437 122.109 L
395.437 122.109 L
395.437 122.109 L
395.437 122.109 L
395.437 122.109 L
395.437 122.109 L
395.437 122.109 L
395.437 122.109 L
395.437 122.109 L
395.437 122.109 L
395.437 122.109 L
395.437 122.109 L
395.437 122.109 L
395.437 122.109 L
395.437 122.109 L
395.437 122.109 L
395.437 122.109 L
395.437 122.109 L
395.437 122.109 L
395.437 122.109 L
395.437 122.109 L
395.437 122.109 L
395.437 122.109 L
395.437 122.109 L
395.437 122.109 L
395.437 122.109 L
395.437 122.109 L
395.437 122.109 L
395.437 122.109 L
395.437 122.109 L
395.437 122.109 L
395.437 122.109 L
395.437 122.109 L
395.437 122.109 L
395.437 122.109 L
395.437 122.109 L
395.437 122.109 L
395.437 122.109 L
395.437 122.109 L
395.437 122.109 L
395.437 122.109 L
395.437 122.109 L
395.437 122.109 L
395.437 122.109 L
395.437 122.109 L
395.437 122.109 L
395.437 122.109 L
395.437 122.109 L
395.437 122.109 L
395.437 122.109 L
395.437 122.109 L
395.437 122.109 L
395.437 122.109 L
395.437 122.109 L
395.437 122.109 L
395.437 122.109 L
395.437 122.109 L
395.437 122.109 L
395.437 122.109 L
395.437 122.109 L
395.437 122.109 L
395.437 122.109 L
395.437 122.109 L
395.437 122.109 L
395.437 122.109 L
395.437 122.109 L
395.437 122.109 L
395.437 122.109 L
395.437 122.109 L
395.437 122.109 L
395.437 122.109 L
395.437 122.109 L
395.437 122.109 L
395.437 122.109 L
395.437 122.109 L
395.437 122.109 L
395.437 122.109 L
395.437 122.109 L
395.437 122.109 L
395.437 122.109 L
395.437 122.109 L
395.437 122.109 L
395.437 122.109 L
395.437 122.109 L
395.437 122.109 L
395.437 122.109 L
395.437 122.109 L
395.437 122.109 L
395.437 122.109 L
395.437 122.109 L
395.437 122.109 L
395.437 122.109 L
395.437 122.109 L
395.437 122.109 L
395.437 122.109 L
395.437 122.109 L
395.437 122.109 L
395.437 122.109 L
395.437 122.109 L
395.437 122.109 L
395.437 122.109 L
395.437 122.109 L
395.437 122.109 L
395.437 122.109 L
395.437 122.109 L
395.437 122.109 L
395.437 122.109 L
395.437 122.109 L
395.437 122.109 L
395.437 122.109 L
395.437 122.109 L
395.437 122.109 L
395.437 122.109 L
395.437 122.109 L
395.437 122.109 L
395.437 122.109 L
395.437 122.109 L
395.437 122.109 L
395.437 122.109 L
395.437 122.109 L
395.437 122.109 L
395.437 122.109 L
395.437 122.109 L
395.437 122.109 L
395.437 122.109 L
395.437 122.109 L
395.437 122.109 L
395.437 122.109 L
395.437 122.109 L
395.437 122.109 L
395.437 122.109 L
395.437 122.109 L
395.437 122.109 L
395.437 122.109 L
395.437 122.109 L
395.437 122.109 L
395.437 122.109 L
395.437 122.109 L
395.437 122.109 L
395.437 122.109 L
395.437 122.109 L
395.437 122.109 L
395.437 122.109 L
395.437 122.109 L
395.437 122.109 L
395.437 122.109 L
395.437 122.109 L
395.437 122.109 L
395.437 122.109 L
395.437 122.109 L
395.437 122.109 L
395.437 122.109 L
395.437 122.109 L
395.437 122.109 L
395.437 122.109 L
395.437 122.109 L
395.437 122.109 L
395.437 122.109 L
395.437 122.109 L
395.437 122.109 L
395.437 122.109 L
395.437 122.109 L
395.437 122.109 L
395.437 122.109 L
395.437 122.109 L
395.437 122.109 L
395.437 122.109 L
395.437 122.109 L
395.437 122.109 L
395.437 122.109 L
395.437 122.109 L
395.437 122.109 L
395.437 122.109 L
395.437 122.109 L
395.437 122.109 L
395.437 122.109 L
395.437 122.109 L
395.437 122.109 L
395.437 122.109 L
395.437 122.109 L
395.437 122.109 L
395.437 122.109 L
395.437 122.109 L
395.437 122.109 L
395.437 122.109 L
395.437 122.109 L
395.437 122.109 L
395.437 122.109 L
395.437 122.109 L
395.437 122.109 L
395.437 122.109 L
395.437 122.109 L
395.437 122.109 L
395.437 122.109 L
395.437 122.109 L
395.437 122.109 L
395.437 122.109 L
395.437 122.109 L
395.437 122.109 L
395.437 122.109 L
395.437 122.109 L
395.437 122.109 L
395.437 122.109 L
395.437 122.109 L
395.437 122.109 L
395.437 122.109 L
395.437 122.109 L
395.437 122.109 L
395.437 122.109 L
395.437 122.109 L
395.437 122.109 L
395.437 122.109 L
395.437 122.109 L
395.437 122.109 L
395.437 122.109 L
395.437 122.109 L
395.437 122.109 L
395.437 122.109 L
395.437 122.109 L
395.437 122.109 L
395.437 122.109 L
395.437 122.109 L
395.437 122.109 L
395.437 122.109 L
395.437 122.109 L
395.437 122.109 L
395.437 122.109 L
395.437 122.109 L
395.437 122.109 L
395.437 122.109 L
395.437 122.109 L
395.437 122.109 L
395.437 122.109 L
395.437 122.109 L
395.437 122.109 L
395.437 122.109 L
395.437 122.109 L
395.437 122.109 L
395.437 122.109 L
395.437 122.109 L
395.437 122.109 L
395.437 122.109 L
395.437 122.109 L
395.437 122.109 L
395.437 122.109 L
395.437 122.109 L
395.437 122.109 L
395.437 122.109 L
395.437 122.109 L
395.437 122.109 L
395.437 122.109 L
395.437 122.109 L
395.437 122.109 L
395.437 122.109 L
905 45 L
S
GR
GS
1 LJ
2 LW
N
130 530.405 M
130 530.405 L
130 530.405 L
130 530.405 L
130 530.405 L
130 530.405 L
130 530.405 L
130 530.405 L
130 530.405 L
130 530.405 L
130 530.405 L
130 530.405 L
130 530.405 L
130 530.405 L
130 530.405 L
130 530.405 L
130 530.405 L
130 530.405 L
130 530.405 L
130 530.405 L
130 530.405 L
130 530.405 L
130 530.405 L
130 530.405 L
130 530.405 L
130 530.405 L
130 530.405 L
130 530.405 L
130 530.405 L
130 530.405 L
130 530.405 L
130 530.405 L
130 530.405 L
130 530.405 L
130 530.405 L
130 530.405 L
130 530.405 L
130 530.405 L
130 530.405 L
130 530.405 L
130 530.405 L
130 530.405 L
130 530.405 L
130 530.405 L
130 530.405 L
130 530.405 L
130 530.405 L
130 530.405 L
130 530.405 L
130 530.405 L
130 530.405 L
130 530.405 L
130 530.405 L
130 530.405 L
130 530.405 L
130 530.405 L
130 530.405 L
130 530.405 L
130 530.405 L
130 530.405 L
130 530.405 L
130 530.405 L
130 530.405 L
130 530.405 L
130 530.405 L
130 530.405 L
130 530.405 L
130 530.405 L
130 530.405 L
130 530.405 L
130 530.405 L
130 530.405 L
130 530.405 L
130 530.405 L
130 530.405 L
130 530.405 L
130 530.405 L
130 530.405 L
130 530.405 L
130 530.405 L
130 530.405 L
130 530.405 L
130 530.405 L
130 530.405 L
130 530.405 L
130 530.405 L
130 530.405 L
130 530.405 L
130 530.405 L
130 530.405 L
130 530.405 L
130 530.405 L
130 530.405 L
130 530.405 L
130 530.405 L
130 530.405 L
130 530.405 L
130 530.405 L
130 530.405 L
130 530.405 L
130 530.405 L
130 530.405 L
130 530.405 L
130 530.405 L
130 530.405 L
130 530.405 L
130 530.405 L
130 530.405 L
130 530.405 L
130 530.405 L
130 530.405 L
130 530.405 L
130 530.405 L
130 530.405 L
130 530.405 L
130 530.405 L
130 530.405 L
130 530.405 L
130 530.405 L
130 530.405 L
130 530.405 L
130 530.405 L
130 530.405 L
130 530.405 L
130 530.405 L
130 530.405 L
130 530.405 L
130 530.405 L
130 530.405 L
130 530.405 L
130 530.405 L
130 530.405 L
130 530.405 L
130 530.405 L
130 530.405 L
130 530.405 L
130 530.405 L
130 530.405 L
130 530.405 L
130 530.405 L
130 530.405 L
130 530.405 L
130 530.405 L
130 530.405 L
130 530.405 L
130 530.405 L
130 530.405 L
130 530.405 L
130 530.405 L
130 530.405 L
130 530.405 L
130 530.405 L
130 530.405 L
130 530.405 L
130 530.405 L
130 530.405 L
130 530.405 L
130 530.405 L
130 530.405 L
130 530.405 L
130 530.405 L
130 530.405 L
130 530.405 L
130 530.405 L
130 530.405 L
130 530.405 L
130 530.405 L
130 530.405 L
130 530.405 L
130 530.405 L
130 530.405 L
130 530.405 L
130 530.405 L
130 530.405 L
130 530.405 L
130 530.405 L
130 530.405 L
130 530.331 L
130 530.256 L
130 530.256 L
130 530.256 L
130 530.256 L
130 530.256 L
130 530.256 L
130 530.256 L
130 530.256 L
130 530.256 L
130 530.256 L
130 530.256 L
130 530.256 L
130 530.256 L
130 530.256 L
130 530.256 L
130 530.256 L
130 530.182 L
130 530.182 L
130 530.182 L
130 530.182 L
130 530.182 L
130 530.182 L
130 530.182 L
130 530.108 L
130 530.033 L
130 530.033 L
130 529.959 L
130 529.959 L
130 529.885 L
130 529.885 L
130 529.885 L
130 529.885 L
130 529.736 L
130 529.662 L
130 529.662 L
130 529.662 L
130 529.662 L
130 529.587 L
130 529.438 L
130 529.438 L
130 529.364 L
130 529.29 L
130 529.29 L
130 529.215 L
130 529.215 L
130 529.141 L
130 529.141 L
130 528.992 L
130 528.918 L
130 528.844 L
130 528.621 L
130 528.397 L
130 528.323 L
130 528.249 L
130 528.249 L
130 528.174 L
130 528.174 L
130 527.951 L
130 527.654 L
130 527.505 L
130 527.282 L
130 527.208 L
130 527.208 L
130 527.208 L
130 527.208 L
130 527.208 L
130 527.208 L
130 527.133 L
130 526.836 L
130 526.762 L
130 526.687 L
130 526.687 L
130 526.687 L
130 526.687 L
130 526.464 L
130 526.315 L
130 526.018 L
130 525.869 L
130 525.795 L
130 525.646 L
130 525.498 L
130 525.423 L
130 524.977 L
130 524.754 L
130 524.531 L
130 524.308 L
130 524.085 L
130 523.862 L
130 523.639 L
130 523.416 L
130 523.341 L
130 522.895 L
130 522.449 L
130 522.077 L
130 521.854 L
130 521.705 L
130 521.334 L
130 520.962 L
130 520.664 L
130 520.516 L
130 520.293 L
130 520.069 L
130 519.549 L
130 519.475 L
130 519.326 L
130 519.252 L
130 519.177 L
130 518.88 L
130 518.434 L
130 518.211 L
130 517.764 L
130 517.244 L
130 517.244 L
130.002 517.021 L
130.002 516.426 L
130.002 516.054 L
130.002 515.831 L
130.002 515.236 L
130.002 515.013 L
130.002 514.195 L
130.002 514.047 L
130.002 513.898 L
130.002 513.452 L
130.002 512.931 L
130.002 512.708 L
130.002 512.411 L
130.002 512.113 L
130.002 511.667 L
130.002 511.518 L
130.002 510.998 L
130.002 510.923 L
130.002 510.775 L
130.002 510.552 L
130.002 510.106 L
130.002 509.808 L
130.002 509.511 L
130.002 508.767 L
130.002 508.247 L
130.002 508.172 L
130.002 507.503 L
130.002 507.131 L
130.002 506.759 L
130.002 506.462 L
130.002 506.165 L
130.002 505.867 L
130.002 505.495 L
130.002 504.826 L
130.002 504.603 L
130.002 504.231 L
130.002 504.008 L
130.002 503.785 L
130.002 503.488 L
130.002 503.116 L
130.002 502.67 L
130.002 502.298 L
130.002 501.778 L
130.002 501.331 L
130.002 500.737 L
130.002 500.513 L
130.002 499.993 L
130.002 499.547 L
130.002 499.101 L
130.002 498.58 L
130.002 498.357 L
130.002 498.283 L
130.002 497.911 L
130.002 497.614 L
130.002 496.944 L
130.002 496.201 L
130.002 495.903 L
130.002 495.011 L
130.002 494.416 L
130.002 494.193 L
130.002 493.673 L
130.002 493.078 L
130.002 492.706 L
130.002 492.334 L
130.002 491.739 L
130.002 491.367 L
130.002 490.996 L
130.002 490.773 L
130.002 490.327 L
130.002 489.88 L
130.002 489.434 L
130.002 489.137 L
130.002 488.914 L
130.002 488.691 L
130.002 488.021 L
130.002 487.724 L
130.002 487.65 L
130.002 487.129 L
130.002 486.832 L
130.002 486.311 L
130.002 485.939 L
130.002 485.642 L
130.002 484.973 L
130.002 484.527 L
130.002 484.08 L
130.002 483.857 L
130.002 483.411 L
130.002 482.816 L
130.002 482.519 L
130.002 481.924 L
130.002 481.775 L
130.002 481.478 L
130.002 481.181 L
130.002 480.809 L
130.002 480.14 L
130.002 479.247 L
130.002 478.727 L
130.002 478.504 L
130.002 477.611 L
130.002 477.017 L
130.002 476.793 L
130.002 476.347 L
130.002 475.976 L
130.002 475.455 L
130.002 475.232 L
130.002 474.786 L
130.002 474.563 L
130.002 474.117 L
130.002 473.745 L
130.002 473.522 L
130.002 473.299 L
130.002 472.704 L
130.002 471.96 L
130.002 471.663 L
130.002 470.994 L
130.002 470.771 L
130.002 470.324 L
130.002 469.953 L
130.002 469.506 L
130.002 469.358 L
130.002 468.391 L
130.002 467.945 L
130.002 467.276 L
130.002 466.904 L
130.002 466.458 L
130.002 465.863 L
130.002 465.342 L
130.002 465.119 L
130.002 464.301 L
130.002 463.93 L
130.002 463.483 L
130.002 462.889 L
130.002 462.442 L
130.002 461.699 L
130.002 461.253 L
130.002 460.881 L
130.002 460.807 L
130.002 460.509 L
130.002 460.212 L
130.002 459.766 L
130.002 459.319 L
130.002 458.948 L
130.002 458.65 L
130.002 457.907 L
130.002 457.237 L
130.002 456.866 L
130.002 456.717 L
130.002 456.048 L
130.002 455.379 L
130.002 455.155 L
130.002 454.784 L
130.002 454.412 L
130.002 453.817 L
130.002 453.52 L
130.002 453.297 L
130.002 452.776 L
130.002 452.404 L
130.002 452.032 L
130.002 451.363 L
130.003 450.991 L
130.003 450.62 L
130.003 450.397 L
130.003 450.173 L
130.003 450.025 L
130.003 449.802 L
130.003 449.133 L
130.003 449.058 L
130.003 448.686 L
130.005 448.166 L
130.005 447.72 L
130.005 447.422 L
130.005 446.976 L
130.005 446.679 L
130.005 446.381 L
130.005 445.563 L
130.005 445.043 L
130.005 444.745 L
130.005 444.374 L
130.005 443.779 L
130.005 443.481 L
130.005 443.035 L
130.005 442.812 L
130.005 442.44 L
130.005 441.771 L
130.005 441.325 L
130.005 440.581 L
130.005 440.135 L
130.005 439.912 L
130.005 439.615 L
130.007 439.094 L
130.007 438.946 L
130.007 438.425 L
130.007 438.276 L
130.008 437.83 L
130.008 437.607 L
130.008 436.715 L
130.008 436.492 L
130.008 435.897 L
130.008 435.748 L
130.008 435.525 L
130.008 435.079 L
130.008 434.633 L
130.008 434.187 L
130.008 434.112 L
130.008 433.964 L
130.01 433.741 L
130.01 432.997 L
130.01 432.476 L
130.01 431.956 L
130.01 431.584 L
130.01 430.989 L
130.01 430.766 L
130.01 430.171 L
130.01 429.948 L
130.01 429.577 L
130.01 429.502 L
130.01 429.056 L
130.016 428.535 L
130.016 428.089 L
130.016 427.197 L
130.016 426.974 L
130.016 426.453 L
130.016 425.784 L
130.016 425.412 L
130.016 424.966 L
130.018 424.223 L
130.018 423.851 L
130.018 422.959 L
130.018 422.066 L
130.018 421.174 L
130.018 421.1 L
130.018 420.654 L
130.018 419.836 L
130.028 419.315 L
130.028 418.869 L
130.028 418.2 L
130.028 417.531 L
130.028 416.787 L
130.028 416.415 L
130.028 415.82 L
130.028 415.449 L
130.028 414.854 L
130.028 414.556 L
130.028 413.664 L
130.028 413.069 L
130.028 412.474 L
130.028 411.433 L
130.028 410.69 L
130.03 410.095 L
130.03 409.128 L
130.03 407.938 L
130.031 407.121 L
130.035 406.08 L
130.035 405.187 L
130.035 404.592 L
130.035 404.221 L
130.035 403.7 L
130.035 403.328 L
130.036 402.064 L
130.038 401.544 L
130.038 400.875 L
130.046 400.057 L
130.046 399.462 L
130.046 399.09 L
130.046 398.569 L
130.046 397.826 L
130.046 396.934 L
130.046 395.67 L
130.046 394.554 L
130.048 393.885 L
130.049 393.141 L
130.063 392.77 L
130.063 392.249 L
130.063 391.654 L
130.063 390.985 L
130.063 390.167 L
130.064 389.275 L
130.064 388.754 L
130.064 387.862 L
130.066 386.226 L
130.071 385.631 L
130.071 385.185 L
130.071 384.442 L
130.071 383.698 L
130.071 383.029 L
130.071 381.988 L
130.071 380.649 L
130.071 379.608 L
130.071 378.493 L
130.082 377.229 L
130.082 377.229 L
130.082 376.411 L
130.082 375.444 L
130.082 374.552 L
130.082 373.511 L
130.082 372.842 L
130.082 371.355 L
130.084 370.537 L
130.084 369.793 L
130.096 368.603 L
130.097 367.785 L
130.099 366.521 L
130.101 365.406 L
130.101 364.068 L
130.101 362.804 L
130.102 361.763 L
130.102 360.945 L
130.102 360.35 L
130.115 359.16 L
130.119 357.822 L
130.12 356.929 L
130.122 356.334 L
130.129 354.847 L
130.13 353.36 L
130.133 352.096 L
130.137 351.278 L
130.138 349.494 L
130.138 348.081 L
130.168 346.594 L
130.171 345.627 L
130.173 344.289 L
130.175 343.248 L
130.176 342.355 L
130.178 341.24 L
130.181 340.645 L
130.181 339.009 L
130.183 337.745 L
130.199 337.002 L
130.203 335.068 L
130.206 333.804 L
130.206 332.391 L
130.208 331.053 L
130.209 329.863 L
130.213 328.674 L
130.213 327.186 L
130.218 326.071 L
130.241 324.881 L
130.242 323.394 L
130.246 322.204 L
130.252 321.238 L
130.257 320.271 L
130.265 318.784 L
130.269 316.999 L
130.275 315.512 L
130.28 314.025 L
130.292 312.835 L
130.325 311.423 L
130.331 310.159 L
130.34 308.597 L
130.349 307.11 L
130.351 305.697 L
130.371 303.912 L
130.379 302.351 L
130.387 301.607 L
130.402 300.046 L
130.457 299.228 L
130.475 297.518 L
130.491 295.808 L
130.501 294.469 L
130.524 293.131 L
130.536 291.272 L
130.557 289.264 L
130.587 288.149 L
130.602 286.736 L
130.654 285.918 L
130.672 284.282 L
130.687 283.762 L
130.725 282.051 L
130.76 280.192 L
130.809 278.854 L
130.836 277.59 L
130.877 275.954 L
130.923 274.69 L
130.962 272.98 L
131.065 271.493 L
131.103 270.675 L
131.169 269.485 L
131.226 267.924 L
131.284 265.693 L
131.351 264.577 L
131.407 263.611 L
131.492 261.752 L
131.585 260.339 L
131.734 259.595 L
131.806 258.48 L
131.91 257.216 L
132.014 255.506 L
132.133 253.944 L
132.261 251.937 L
132.368 250.375 L
132.499 248.888 L
132.665 246.806 L
132.833 245.691 L
133.011 244.352 L
133.174 243.386 L
133.367 241.824 L
133.565 239.965 L
133.764 238.032 L
133.954 236.322 L
134.168 234.76 L
134.374 233.347 L
134.595 231.265 L
134.916 229.778 L
135.155 228.142 L
135.519 226.73 L
135.857 224.871 L
136.142 223.532 L
136.512 222.342 L
136.907 221.153 L
137.199 219.74 L
137.58 218.03 L
138.137 216.394 L
138.644 214.907 L
139.106 213.196 L
139.638 211.263 L
140.119 209.925 L
140.711 208.289 L
141.123 207.174 L
141.731 205.389 L
142.428 203.827 L
143.178 202.266 L
143.925 200.258 L
144.668 198.548 L
145.479 196.912 L
146.314 195.425 L
147.221 194.012 L
147.91 192.079 L
148.757 190.517 L
149.7 188.658 L
150.68 186.874 L
151.852 185.089 L
152.948 183.082 L
154.087 181.223 L
155.346 179.438 L
155.826 178.695 L
157.424 176.91 L
158.809 175.72 L
160.271 174.308 L
161.596 173.043 L
163.259 171.259 L
164.931 169.995 L
166.616 168.285 L
168.181 167.318 L
169.447 166.649 L
171.316 165.013 L
173.203 163.897 L
175.206 162.336 L
177.37 160.849 L
179.519 159.213 L
181.841 157.8 L
184.178 156.313 L
186.498 154.677 L
188.232 152.967 L
190.884 151.629 L
193.504 150.29 L
196.323 149.1 L
199.172 148.282 L
202.277 147.241 L
205.381 146.2 L
208.578 144.936 L
210.936 143.821 L
214.242 143.077 L
217.573 141.516 L
221.441 140.029 L
224.67 138.988 L
228.428 137.426 L
232.633 136.385 L
236.49 135.642 L
240.684 134.378 L
243.71 133.188 L
247.929 131.998 L
252.269 130.734 L
256.626 129.544 L
261.175 128.355 L
266.133 127.537 L
271.041 126.347 L
276.064 125.157 L
279.937 123.224 L
285.002 121.216 L
290.8 119.729 L
295.942 118.688 L
301.646 117.498 L
307.826 115.863 L
313.072 114.97 L
319.419 113.558 L
325.162 112.442 L
329.912 111.55 L
336.32 109.914 L
342.494 108.576 L
348.969 107.609 L
355.466 106.642 L
362.258 105.899 L
369.191 104.337 L
375.599 102.85 L
380.756 102.255 L
388.026 100.842 L
395.154 100.024 L
402.006 99.281 L
409.258 98.017 L
416.618 96.232 L
423.603 95.414 L
431.267 94.15 L
438.827 93.555 L
444.465 92.514 L
451.947 90.953 L
459.533 90.209 L
467.449 89.094 L
475.119 88.425 L
482.981 86.938 L
491.053 85.525 L
498.76 84.632 L
504.696 83.22 L
512.92 82.327 L
520.798 81.435 L
528.618 80.543 L
536.57 79.576 L
544.41 78.312 L
552.316 77.569 L
560.088 76.081 L
568.527 74.743 L
574.288 73.851 L
581.385 72.884 L
590.087 72.215 L
597.503 71.769 L
605.706 70.876 L
613.22 70.133 L
620.737 69.612 L
628.509 68.72 L
634.465 68.125 L
641.908 67.382 L
648.922 66.564 L
656.106 65.523 L
663.144 64.705 L
670.422 63.738 L
677.444 63.218 L
684.48 62.251 L
691.618 61.805 L
696.727 61.284 L
703.326 60.541 L
709.852 59.871 L
716.338 59.351 L
722.581 58.83 L
728.977 58.236 L
735.081 57.938 L
741.237 57.343 L
745.69 56.823 L
751.403 56.154 L
756.808 55.931 L
762.456 55.559 L
767.887 55.187 L
773.398 54.815 L
778.275 54.518 L
783.623 54.369 L
788.542 54.146 L
792.305 53.625 L
796.7 53.254 L
801.168 52.808 L
805.437 52.361 L
809.498 52.138 L
813.827 51.395 L
817.602 51.172 L
821.717 51.023 L
824.608 50.949 L
828.174 50.428 L
831.528 50.205 L
834.783 50.205 L
838.078 50.056 L
841.296 49.536 L
844.489 49.313 L
847.524 49.238 L
850.24 49.015 L
852.31 48.867 L
854.675 48.346 L
857.04 48.272 L
859.371 47.974 L
861.713 47.9 L
864.066 47.677 L
866.387 47.454 L
868.752 47.156 L
871.117 46.933 L
871.117 46.933 L
873.279 46.562 L
875.122 46.264 L
876.816 45.967 L
878.449 45.967 L
879.886 45.744 L
881.282 45.744 L
882.449 45.744 L
883.425 45.744 L
884.641 45.744 L
885.747 45.669 L
886.971 45.595 L
888.076 45.52 L
889.091 45.52 L
889.981 45.446 L
890.787 45.446 L
891.606 45.297 L
892.305 45.297 L
893.137 45.223 L
893.884 45.223 L
894.643 45.223 L
895.28 45.223 L
895.911 45.223 L
896.506 45.223 L
896.985 45.149 L
897.45 45.149 L
897.86 45.074 L
898.325 45.074 L
898.686 45.074 L
899.118 45.074 L
899.502 45.074 L
899.884 45.074 L
900.199 45.074 L
900.491 45.074 L
900.787 45.074 L
901.115 45.074 L
901.402 45.074 L
901.691 45.074 L
901.9 45.074 L
902.114 45.074 L
902.272 45.074 L
902.455 45 L
902.584 45 L
902.767 45 L
902.935 45 L
903.052 45 L
903.215 45 L
903.357 45 L
903.504 45 L
903.614 45 L
903.716 45 L
903.813 45 L
903.892 45 L
903.968 45 L
904.026 45 L
904.089 45 L
904.161 45 L
904.235 45 L
904.301 45 L
904.337 45 L
904.375 45 L
904.428 45 L
904.461 45 L
904.489 45 L
904.525 45 L
904.558 45 L
904.593 45 L
904.628 45 L
904.652 45 L
904.682 45 L
904.712 45 L
904.731 45 L
904.748 45 L
904.771 45 L
904.787 45 L
904.799 45 L
904.81 45 L
904.825 45 L
904.837 45 L
904.848 45 L
904.86 45 L
904.876 45 L
904.883 45 L
904.893 45 L
904.901 45 L
904.908 45 L
904.914 45 L
904.921 45 L
904.931 45 L
904.936 45 L
904.942 45 L
904.947 45 L
904.951 45 L
904.956 45 L
904.96 45 L
904.964 45 L
904.964 45 L
904.965 45 L
904.967 45 L
904.969 45 L
904.969 45 L
904.974 45 L
904.975 45 L
904.977 45 L
904.979 45 L
904.98 45 L
904.98 45 L
904.982 45 L
904.985 45 L
904.988 45 L
904.988 45 L
904.988 45 L
904.99 45 L
904.992 45 L
904.992 45 L
904.992 45 L
904.992 45 L
904.992 45 L
904.992 45 L
904.993 45 L
904.995 45 L
904.997 45 L
904.997 45 L
904.997 45 L
904.997 45 L
904.997 45 L
904.997 45 L
904.997 45 L
904.997 45 L
905 45 L
S
GR
GS
1 0 0 RC
1 LJ
2 LW
N
130 530.405 M
130 530.405 L
130 530.405 L
130 530.405 L
130 530.405 L
130 530.405 L
130 530.405 L
130 530.405 L
130 530.405 L
130 530.405 L
130 530.405 L
130 530.405 L
130 530.405 L
130 530.405 L
130 530.405 L
130 530.405 L
130 530.405 L
130 530.405 L
130 530.405 L
130 530.405 L
130 530.405 L
130 530.405 L
130 530.405 L
130 530.405 L
130 530.405 L
130 530.405 L
130 530.405 L
130 530.405 L
130 530.405 L
130 530.405 L
130 530.405 L
130 530.405 L
130 530.405 L
130 530.405 L
130 530.405 L
130 530.405 L
130 530.405 L
130 530.405 L
130 530.405 L
130 530.405 L
130 530.405 L
130 530.405 L
130 530.405 L
130 530.405 L
130 530.405 L
130 530.405 L
130 530.405 L
130 530.405 L
130 530.405 L
130 530.405 L
130 530.405 L
130 530.405 L
130 530.405 L
130 530.405 L
130 530.405 L
130 530.405 L
130 530.405 L
130 530.405 L
130 530.405 L
130 530.405 L
130 530.405 L
130 530.405 L
130 530.405 L
130 530.405 L
130 530.405 L
130 530.405 L
130 530.405 L
130 530.405 L
130 530.405 L
130 530.405 L
130 530.405 L
130 530.405 L
130 530.405 L
130 530.405 L
130 530.405 L
130 530.405 L
130 530.405 L
130 530.405 L
130 530.405 L
130 530.405 L
130 530.405 L
130 530.405 L
130 530.405 L
130 530.405 L
130 530.405 L
130 530.405 L
130 530.405 L
130 530.405 L
130 530.405 L
130 530.405 L
130 530.405 L
130 530.405 L
130 530.405 L
130 530.405 L
130 530.405 L
130 530.405 L
130 530.405 L
130 530.405 L
130 530.405 L
130 530.405 L
130 530.405 L
130 530.405 L
130 530.405 L
130 530.405 L
130 530.405 L
130 530.405 L
130 530.405 L
130 530.405 L
130 530.405 L
130 530.405 L
130 530.405 L
130 530.405 L
130 530.405 L
130 530.405 L
130 530.405 L
130 530.405 L
130 530.405 L
130 530.405 L
130 530.405 L
130 530.405 L
130 530.405 L
130 530.405 L
130 530.405 L
130 530.405 L
130 530.405 L
130 530.405 L
130 530.405 L
130 530.405 L
130 530.405 L
130 530.405 L
130 530.405 L
130 530.405 L
130 530.405 L
130 530.405 L
130 530.405 L
130 530.405 L
130 530.405 L
130 530.405 L
130 530.405 L
130 530.405 L
130 530.405 L
130 530.405 L
130 530.405 L
130 530.405 L
130 530.405 L
130 530.405 L
130 530.405 L
130 530.405 L
130 530.405 L
130 530.405 L
130 530.405 L
130 530.405 L
130 530.405 L
130 530.405 L
130 530.405 L
130 530.405 L
130 530.405 L
130 530.405 L
130 530.405 L
130 530.405 L
130 530.405 L
130 530.405 L
130 530.405 L
130 530.405 L
130 530.405 L
130 530.405 L
130 530.331 L
130 530.331 L
130 530.331 L
130 530.331 L
130 530.331 L
130 530.331 L
130 530.331 L
130 530.331 L
130 530.331 L
130 530.331 L
130 530.256 L
130 530.256 L
130 530.256 L
130 530.182 L
130 530.182 L
130 530.108 L
130 530.108 L
130 530.108 L
130 530.108 L
130 529.959 L
130 529.959 L
130 529.959 L
130 529.959 L
130 529.885 L
130 529.885 L
130 529.885 L
130 529.81 L
130 529.736 L
130 529.736 L
130 529.513 L
130 529.513 L
130 529.513 L
130 529.513 L
130 529.438 L
130 529.141 L
130 529.141 L
130 529.141 L
130 529.141 L
130 529.141 L
130 528.918 L
130 528.918 L
130 528.918 L
130 528.844 L
130 528.769 L
130 528.695 L
130 528.621 L
130 528.621 L
130 528.472 L
130 528.249 L
130 528.174 L
130 528.1 L
130 527.951 L
130 527.803 L
130 527.505 L
130 527.208 L
130 527.208 L
130 527.133 L
130 527.059 L
130 526.762 L
130 526.613 L
130 526.39 L
130 526.39 L
130 526.018 L
130 526.018 L
130 525.944 L
130 525.572 L
130 525.349 L
130 525.2 L
130 524.828 L
130 524.828 L
130 524.68 L
130 524.605 L
130 524.605 L
130 524.531 L
130 524.382 L
130 524.01 L
130 523.639 L
130 523.118 L
130 522.969 L
130 522.895 L
130 522.746 L
130 522.3 L
130 522.151 L
130 522.003 L
130 521.557 L
130 521.482 L
130 521.185 L
130 520.739 L
130 520.59 L
130 520.441 L
130 519.995 L
130 519.698 L
130 519.252 L
130 518.582 L
130 518.434 L
130 518.211 L
130 518.062 L
130 517.318 L
130 516.946 L
130 516.723 L
130 516.277 L
130 515.608 L
130 515.534 L
130 515.311 L
130 514.939 L
130 514.864 L
130 514.418 L
130 514.047 L
130 513.526 L
130 513.377 L
130 513.005 L
130 512.634 L
130 512.113 L
130 511.518 L
130 510.998 L
130 510.775 L
130 510.254 L
130 509.734 L
130 509.213 L
130 508.544 L
130 508.098 L
130 508.024 L
130 507.949 L
130 507.577 L
130 507.206 L
130 506.759 L
130 506.165 L
130 506.016 L
130 505.793 L
130 505.272 L
130 504.826 L
130 504.306 L
130 503.785 L
130 503.562 L
130 503.116 L
130 503.116 L
130 503.042 L
130 502.149 L
130 501.703 L
130 501.183 L
130 500.439 L
130 500.29 L
130 499.77 L
130 499.249 L
130 498.506 L
130 497.837 L
130 497.465 L
130 497.167 L
130 496.796 L
130 496.126 L
130 495.755 L
130 495.532 L
130 495.085 L
130 494.862 L
130 494.639 L
130 494.267 L
130 493.598 L
130 493.524 L
130 493.078 L
130 492.78 L
130 492.557 L
130 492.409 L
130 491.962 L
130 491.442 L
130 490.55 L
130 489.88 L
130 489.434 L
130 489.36 L
130 489.211 L
130 488.542 L
130 487.798 L
130 487.203 L
130 486.832 L
130 486.46 L
130 486.014 L
130 485.493 L
130 484.527 L
130 484.08 L
130 483.634 L
130 483.114 L
130 482.742 L
130 482.519 L
130 482.073 L
130 481.552 L
130 481.106 L
130 480.586 L
130 480.214 L
130 480.14 L
130 479.842 L
130 479.545 L
130 479.247 L
130 478.801 L
130 477.983 L
130 477.24 L
130 476.942 L
130 476.199 L
130 475.604 L
130 475.381 L
130 474.86 L
130 474.414 L
130 474.34 L
130 473.819 L
130 473.67 L
130 473.299 L
130 472.704 L
130 472.109 L
130 471.886 L
130 471.365 L
130 470.919 L
130 470.176 L
130 469.729 L
130 469.209 L
130 468.912 L
130 468.689 L
130 468.317 L
130 468.019 L
130 467.35 L
130 466.904 L
130 466.309 L
130 465.937 L
130 465.789 L
130 465.045 L
130 464.748 L
130 464.004 L
130 463.855 L
130 463.26 L
130 463.186 L
130 462.74 L
130 462.294 L
130 461.773 L
130 460.955 L
130 460.509 L
130 459.691 L
130 459.543 L
130 459.245 L
130 458.799 L
130 458.204 L
130 458.204 L
130 457.832 L
130 457.684 L
130 456.866 L
130 456.643 L
130 456.271 L
130 455.825 L
130 455.304 L
130 454.635 L
130 454.189 L
130 453.743 L
130 453.148 L
130 452.702 L
130 452.181 L
130 451.735 L
130 451.363 L
130 450.843 L
130 450.397 L
130 450.099 L
130 450.025 L
130 449.802 L
130 449.504 L
130 449.207 L
130 449.133 L
130 448.984 L
130 448.463 L
130 448.017 L
130 447.72 L
130 447.348 L
130 446.976 L
130 446.604 L
130 446.084 L
130 445.638 L
130 445.117 L
130 444.745 L
130 444.671 L
130 444.225 L
130 443.704 L
130 443.184 L
130 442.738 L
130 442.292 L
130.002 442.069 L
130.002 441.845 L
130.002 441.399 L
130.002 441.028 L
130.002 440.656 L
130.002 440.358 L
130.002 439.838 L
130.002 439.763 L
130.002 439.54 L
130.002 439.169 L
130.003 439.02 L
130.003 438.499 L
130.003 438.202 L
130.003 438.202 L
130.003 437.756 L
130.003 437.458 L
130.003 437.235 L
130.003 437.012 L
130.003 436.789 L
130.003 436.417 L
130.003 436.269 L
130.003 435.674 L
130.003 435.451 L
130.003 435.005 L
130.003 434.41 L
130.003 434.261 L
130.003 434.112 L
130.003 433.815 L
130.003 433.666 L
130.003 433.517 L
130.003 433.369 L
130.003 432.997 L
130.003 432.7 L
130.003 432.476 L
130.003 431.956 L
130.003 431.361 L
130.003 431.138 L
130.003 430.915 L
130.003 430.469 L
130.003 430.097 L
130.003 429.948 L
130.003 429.577 L
130.003 429.428 L
130.003 428.982 L
130.003 428.684 L
130.003 428.238 L
130.003 428.015 L
130.003 427.42 L
130.005 427.123 L
130.005 426.677 L
130.005 426.082 L
130.005 425.636 L
130.005 425.487 L
130.005 424.743 L
130.007 424.446 L
130.007 423.777 L
130.007 423.405 L
130.007 422.736 L
130.007 422.215 L
130.007 422.066 L
130.007 421.397 L
130.007 420.802 L
130.007 420.207 L
130.007 419.613 L
130.007 418.72 L
130.007 418.274 L
130.007 417.605 L
130.007 417.084 L
130.008 416.638 L
130.008 415.82 L
130.008 415.226 L
130.008 414.408 L
130.008 413.664 L
130.008 413.367 L
130.008 412.177 L
130.008 411.508 L
130.008 410.764 L
130.008 409.797 L
130.008 408.979 L
130.008 408.682 L
130.01 408.459 L
130.01 407.864 L
130.01 407.269 L
130.013 406.674 L
130.013 405.782 L
130.013 405.633 L
130.013 404.964 L
130.013 404.369 L
130.013 403.551 L
130.015 403.18 L
130.015 402.139 L
130.015 401.544 L
130.015 400.949 L
130.016 400.28 L
130.016 399.313 L
130.016 398.346 L
130.016 397.454 L
130.016 396.636 L
130.016 395.744 L
130.016 395 L
130.016 394.331 L
130.016 393.439 L
130.016 392.472 L
130.018 391.729 L
130.018 391.134 L
130.02 390.688 L
130.02 390.241 L
130.02 389.349 L
130.02 388.382 L
130.023 387.639 L
130.023 386.598 L
130.023 386.3 L
130.025 385.259 L
130.026 384.59 L
130.026 383.847 L
130.026 383.326 L
130.026 382.657 L
130.026 381.988 L
130.026 381.17 L
130.026 379.906 L
130.026 379.311 L
130.026 378.121 L
130.03 377.155 L
130.03 375.965 L
130.03 375.37 L
130.03 374.552 L
130.03 373.511 L
130.03 372.842 L
130.03 371.875 L
130.03 371.132 L
130.03 370.537 L
130.031 369.496 L
130.04 367.934 L
130.04 367.191 L
130.04 366.224 L
130.04 365.332 L
130.041 364.514 L
130.041 363.845 L
130.041 362.283 L
130.043 361.391 L
130.046 360.275 L
130.049 358.416 L
130.058 356.781 L
130.059 355.814 L
130.059 354.699 L
130.059 353.435 L
130.059 352.245 L
130.059 351.055 L
130.059 350.088 L
130.059 348.601 L
130.061 347.263 L
130.068 346.594 L
130.068 344.958 L
130.068 343.768 L
130.068 342.578 L
130.068 341.166 L
130.068 339.158 L
130.068 338.414 L
130.068 337.002 L
130.068 335.366 L
130.068 334.25 L
130.084 332.689 L
130.084 331.499 L
130.084 331.202 L
130.084 329.938 L
130.084 328.004 L
130.084 326.443 L
130.084 325.03 L
130.084 323.617 L
130.084 322.502 L
130.084 321.758 L
130.102 320.866 L
130.102 319.453 L
130.102 317.817 L
130.105 315.884 L
130.109 314.546 L
130.109 314.025 L
130.11 312.315 L
130.114 310.53 L
130.115 309.192 L
130.115 308.002 L
130.142 306.887 L
130.147 304.879 L
130.148 304.136 L
130.155 302.797 L
130.155 301.31 L
130.16 299.897 L
130.162 298.484 L
130.162 296.849 L
130.166 295.51 L
130.19 294.767 L
130.191 292.908 L
130.191 291.569 L
130.191 289.933 L
130.198 289.264 L
130.206 288.297 L
130.211 287.033 L
130.218 286.067 L
130.226 285.1 L
130.231 283.613 L
130.264 281.457 L
130.27 279.895 L
130.272 278.557 L
130.279 277.887 L
130.283 276.772 L
130.293 275.136 L
130.302 273.203 L
130.307 271.418 L
130.315 269.336 L
130.321 267.998 L
130.371 266.288 L
130.376 264.503 L
130.404 263.313 L
130.417 261.826 L
130.425 260.116 L
130.45 259.001 L
130.461 258.183 L
130.476 256.844 L
130.489 255.431 L
130.513 253.944 L
130.549 252.16 L
130.56 250.747 L
130.587 249.855 L
130.603 248.442 L
130.63 247.178 L
130.658 245.244 L
130.679 243.757 L
130.699 242.345 L
130.73 240.56 L
130.809 239.445 L
130.836 238.255 L
130.875 237.214 L
130.913 235.801 L
130.959 234.24 L
130.987 232.976 L
131.027 231.563 L
131.066 229.778 L
131.116 228.96 L
131.172 227.622 L
131.269 225.912 L
131.337 224.499 L
131.396 223.532 L
131.475 222.194 L
131.544 220.409 L
131.637 219.145 L
131.754 217.286 L
131.833 215.502 L
131.961 214.237 L
132.047 212.973 L
132.21 211.486 L
132.329 210.297 L
132.52 208.661 L
132.653 207.694 L
132.808 205.984 L
132.973 204.868 L
133.121 203.753 L
133.296 202.489 L
133.524 201.522 L
133.754 200.333 L
134.018 198.697 L
134.262 197.804 L
134.453 196.689 L
134.768 194.533 L
135.023 192.897 L
135.328 191.558 L
135.655 189.923 L
136.019 188.658 L
136.423 188.138 L
136.77 186.8 L
137.196 185.536 L
137.629 183.751 L
138.092 182.338 L
138.588 180.851 L
139.097 179.736 L
139.369 178.843 L
139.945 177.802 L
140.556 176.613 L
141.159 174.977 L
141.878 173.564 L
142.484 172.002 L
143.239 169.772 L
143.762 168.285 L
144.628 166.797 L
145.431 165.31 L
146.375 163.674 L
147.272 162.856 L
148.264 161.815 L
148.983 160.774 L
150.107 158.841 L
151.175 157.949 L
152.342 156.982 L
153.622 156.462 L
154.853 155.123 L
156.307 153.859 L
157.294 152.521 L
158.67 151.182 L
160.304 149.993 L
161.91 149.026 L
163.634 148.059 L
165.37 146.2 L
166.624 145.308 L
168.471 144.342 L
170.509 142.631 L
172.557 141.516 L
174.658 140.326 L
176.803 138.913 L
179.102 137.426 L
180.768 136.534 L
183.248 135.493 L
185.982 134.08 L
188.583 133.411 L
191.059 132.147 L
194.404 131.032 L
196.693 130.437 L
198.966 129.991 L
202.131 128.652 L
205.374 127.611 L
208.779 126.793 L
212.319 125.826 L
215.74 124.934 L
218.442 124.116 L
222.399 123.075 L
226.351 122.109 L
230.084 121.142 L
234.511 120.101 L
238.819 119.283 L
243.086 118.539 L
246.454 117.796 L
251.099 117.201 L
255.451 116.606 L
260.333 115.565 L
265.429 114.822 L
270.311 113.706 L
274.067 112.591 L
279.487 111.922 L
284.885 111.327 L
290.213 110.658 L
295.83 109.617 L
302.378 109.17 L
308.289 108.65 L
312.465 107.758 L
318.797 106.568 L
324.599 105.453 L
331.246 104.337 L
338.192 103.445 L
344.852 102.33 L
349.757 101.735 L
356.555 100.917 L
363.538 100.396 L
370.259 99.058 L
377.419 97.719 L
384.581 96.901 L
391.811 95.86 L
396.789 95.117 L
404.525 93.778 L
411.542 93.109 L
419.59 91.622 L
427.151 90.581 L
434.84 89.763 L
440.382 89.243 L
448.374 88.202 L
456.474 87.161 L
464.331 86.268 L
472.031 85.227 L
480.368 84.335 L
488.292 83.145 L
494.6 82.253 L
502.351 80.84 L
510.776 79.874 L
518.771 79.056 L
527.011 77.94 L
535.021 77.197 L
540.802 76.379 L
549.323 75.115 L
557.033 74.743 L
565.087 74.148 L
572.962 73.702 L
581.472 73.033 L
589.294 72.512 L
595.292 71.62 L
603.239 71.174 L
610.963 70.356 L
618.358 69.612 L
626.019 69.017 L
633.526 68.051 L
639.538 67.382 L
647.009 66.787 L
654.035 66.266 L
661.585 65.82 L
668.953 65.3 L
675.976 64.407 L
683.405 63.738 L
688.625 63.441 L
695.194 62.623 L
702.232 62.177 L
708.791 61.582 L
715.238 60.912 L
722.147 60.169 L
727.083 59.425 L
733.283 58.905 L
739.353 58.161 L
745.225 57.789 L
750.923 56.972 L
756.413 56.302 L
762.242 55.782 L
766.553 55.41 L
771.808 55.113 L
777.116 54.741 L
781.831 54.369 L
787.224 53.997 L
791.787 53.625 L
795.608 53.031 L
800.399 52.51 L
804.554 52.138 L
808.994 51.767 L
813.11 51.543 L
817.089 51.395 L
821.245 51.023 L
824.311 50.577 L
828.027 50.056 L
831.653 49.685 L
834.907 49.685 L
838.132 49.313 L
841.426 48.718 L
844.085 48.42 L
846.941 48.272 L
849.911 47.9 L
852.546 47.751 L
855.117 47.528 L
857.782 47.156 L
860.144 47.008 L
862.087 46.933 L
864.299 46.785 L
866.334 46.785 L
868.416 46.562 L
870.293 46.562 L
872.185 46.413 L
874.074 46.19 L
875.545 46.041 L
877.175 45.744 L
878.769 45.669 L
880.237 45.595 L
881.61 45.595 L
882.93 45.595 L
884.03 45.595 L
885.218 45.595 L
886.335 45.52 L
887.428 45.446 L
888.456 45.446 L
889.458 45.372 L
890.493 45.297 L
891.245 45.223 L
892.057 45.223 L
892.9 45.223 L
893.704 45.223 L
894.47 45.223 L
895.146 45.223 L
895.724 45.223 L
896.244 45.223 L
896.84 45.223 L
897.458 45.223 L
897.94 45.223 L
898.487 45.223 L
899.181 45.149 L
899.181 45.149 L
899.695 45.074 L
900.036 45.074 L
900.389 45 L
900.722 45 L
900.962 45 L
901.195 45 L
901.476 45 L
901.738 45 L
902.014 45 L
902.233 45 L
902.384 45 L
902.566 45 L
902.699 45 L
902.867 45 L
903.044 45 L
903.195 45 L
903.321 45 L
903.461 45 L
903.569 45 L
903.667 45 L
903.777 45 L
903.878 45 L
903.958 45 L
904.023 45 L
904.082 45 L
904.141 45 L
904.212 45 L
904.268 45 L
904.333 45 L
904.369 45 L
904.428 45 L
904.469 45 L
904.502 45 L
904.542 45 L
904.58 45 L
904.624 45 L
904.66 45 L
904.687 45 L
904.698 45 L
904.731 45 L
904.764 45 L
904.782 45 L
904.799 45 L
904.815 45 L
904.824 45 L
904.842 45 L
904.852 45 L
904.858 45 L
904.87 45 L
904.881 45 L
904.893 45 L
904.911 45 L
904.919 45 L
904.927 45 L
904.931 45 L
904.936 45 L
904.941 45 L
904.944 45 L
904.949 45 L
904.954 45 L
904.959 45 L
904.96 45 L
904.962 45 L
904.967 45 L
904.967 45 L
904.969 45 L
904.97 45 L
904.974 45 L
904.975 45 L
904.975 45 L
904.977 45 L
904.979 45 L
904.979 45 L
904.98 45 L
904.98 45 L
904.98 45 L
904.982 45 L
904.984 45 L
904.985 45 L
904.99 45 L
904.992 45 L
904.993 45 L
904.995 45 L
904.995 45 L
904.995 45 L
904.995 45 L
904.995 45 L
904.997 45 L
904.998 45 L
904.998 45 L
904.998 45 L
905 45 L
S
GR
GS
[1 0 0 1 440 224.82001] CT
/Helvetica 24 F
GS
[1 0 0 1 0 0] CT
0 8.5 moveto 
1 -1 scale
(EER line) t 
GR
GR
GS
[10 6] 0 setdash
2 LJ
0.5 LW
N
905 531 M
130 45 L
S
GR
GS
1 GC
N
897 523 M
897 401 L
213 401 L
213 523 L
cp
f
GR
GS
[1 0 0 1 250 417.5679] CT
/Helvetica 24 F
GS
[1 0 0 1 0 0] CT
0 8.5 moveto 
1 -1 scale
(original OSIRIS, EER = 29.94%) t 
GR
GR
GS
0 0 1 RC
1 LJ
2 LW
N
217 417.568 M
247 417.568 L
S
GR
GS
[1 0 0 1 250 447.1893] CT
/Helvetica 24 F
GS
[1 0 0 1 0 0] CT
0 8.5 moveto 
1 -1 scale
(IriCore, EER = 20.77%) t 
GR
GR
GS
0 1 0 RC
1 LJ
2 LW
N
217 447.189 M
247 447.189 L
S
GR
GS
[1 0 0 1 250 476.8107] CT
/Helvetica 24 F
GS
[1 0 0 1 0 0] CT
0 8.5 moveto 
1 -1 scale
(OSIRIS with new segmentation, EER = 17.09%) t 
GR
GR
GS
1 LJ
2 LW
N
217 476.811 M
247 476.811 L
S
GR
GS
[1 0 0 1 250 506.4321] CT
/Helvetica 24 F
GS
[1 0 0 1 0 0] CT
0 8.5 moveto 
1 -1 scale
(OSIRIS with new segmentation and filter set, EER = 14.98%) t 
GR
GR
GS
1 0 0 RC
1 LJ
2 LW
N
217 506.432 M
247 506.432 L
S
GR
GS
0.149 GC
10.0 ML
0.5 LW
N
213 523 M
213 401 L
897 401 L
897 523 L
cp
S
GR
%%Trailer
%%Pages: 1
%%EOF
