%!PS-Adobe-3.0 EPSF-3.0
%%Creator: (MATLAB, The Mathworks, Inc. Version 9.5.0.1049112 \(R2018b\) Update 3. Operating System: Mac OS X)
%%Title: ./ROCs_postmortem_new_160_closeup.eps
%%CreationDate: 2019-03-12T15:47:47
%%Pages: (atend)
%%BoundingBox:    48     5   927   587
%%LanguageLevel: 3
%%EndComments
%%BeginProlog
%%BeginResource: procset (Apache XML Graphics Std ProcSet) 1.2 0
%%Version: 1.2 0
%%Copyright: (Copyright 2001-2003,2010 The Apache Software Foundation. License terms: http://www.apache.org/licenses/LICENSE-2.0)
/bd{bind def}bind def
/ld{load def}bd
/GR/grestore ld
/GS/gsave ld
/RM/rmoveto ld
/C/curveto ld
/t/show ld
/L/lineto ld
/ML/setmiterlimit ld
/CT/concat ld
/f/fill ld
/N/newpath ld
/S/stroke ld
/CC/setcmykcolor ld
/A/ashow ld
/cp/closepath ld
/RC/setrgbcolor ld
/LJ/setlinejoin ld
/GC/setgray ld
/LW/setlinewidth ld
/M/moveto ld
/re {4 2 roll M
1 index 0 rlineto
0 exch rlineto
neg 0 rlineto
cp } bd
/_ctm matrix def
/_tm matrix def
/BT { _ctm currentmatrix pop matrix _tm copy pop 0 0 moveto } bd
/ET { _ctm setmatrix } bd
/iTm { _ctm setmatrix _tm concat } bd
/Tm { _tm astore pop iTm 0 0 moveto } bd
/ux 0.0 def
/uy 0.0 def
/F {
  /Tp exch def
  /Tf exch def
  Tf findfont Tp scalefont setfont
  /cf Tf def  /cs Tp def
} bd
/ULS {currentpoint /uy exch def /ux exch def} bd
/ULE {
  /Tcx currentpoint pop def
  gsave
  newpath
  cf findfont cs scalefont dup
  /FontMatrix get 0 get /Ts exch def /FontInfo get dup
  /UnderlinePosition get Ts mul /To exch def
  /UnderlineThickness get Ts mul /Tt exch def
  ux uy To add moveto  Tcx uy To add lineto
  Tt setlinewidth stroke
  grestore
} bd
/OLE {
  /Tcx currentpoint pop def
  gsave
  newpath
  cf findfont cs scalefont dup
  /FontMatrix get 0 get /Ts exch def /FontInfo get dup
  /UnderlinePosition get Ts mul /To exch def
  /UnderlineThickness get Ts mul /Tt exch def
  ux uy To add cs add moveto Tcx uy To add cs add lineto
  Tt setlinewidth stroke
  grestore
} bd
/SOE {
  /Tcx currentpoint pop def
  gsave
  newpath
  cf findfont cs scalefont dup
  /FontMatrix get 0 get /Ts exch def /FontInfo get dup
  /UnderlinePosition get Ts mul /To exch def
  /UnderlineThickness get Ts mul /Tt exch def
  ux uy To add cs 10 mul 26 idiv add moveto Tcx uy To add cs 10 mul 26 idiv add lineto
  Tt setlinewidth stroke
  grestore
} bd
/QT {
/Y22 exch store
/X22 exch store
/Y21 exch store
/X21 exch store
currentpoint
/Y21 load 2 mul add 3 div exch
/X21 load 2 mul add 3 div exch
/X21 load 2 mul /X22 load add 3 div
/Y21 load 2 mul /Y22 load add 3 div
/X22 load /Y22 load curveto
} bd
/SSPD {
dup length /d exch dict def
{
/v exch def
/k exch def
currentpagedevice k known {
/cpdv currentpagedevice k get def
v cpdv ne {
/upd false def
/nullv v type /nulltype eq def
/nullcpdv cpdv type /nulltype eq def
nullv nullcpdv or
{
/upd true def
} {
/sametype v type cpdv type eq def
sametype {
v type /arraytype eq {
/vlen v length def
/cpdvlen cpdv length def
vlen cpdvlen eq {
0 1 vlen 1 sub {
/i exch def
/obj v i get def
/cpdobj cpdv i get def
obj cpdobj ne {
/upd true def
exit
} if
} for
} {
/upd true def
} ifelse
} {
v type /dicttype eq {
v {
/dv exch def
/dk exch def
/cpddv cpdv dk get def
dv cpddv ne {
/upd true def
exit
} if
} forall
} {
/upd true def
} ifelse
} ifelse
} if
} ifelse
upd true eq {
d k v put
} if
} if
} if
} forall
d length 0 gt {
d setpagedevice
} if
} bd
/RE { % /NewFontName [NewEncodingArray] /FontName RE -
  findfont dup length dict begin
  {
    1 index /FID ne
    {def} {pop pop} ifelse
  } forall
  /Encoding exch def
  /FontName 1 index def
  currentdict definefont pop
  end
} bind def
%%EndResource
%%BeginResource: procset (Apache XML Graphics EPS ProcSet) 1.0 0
%%Version: 1.0 0
%%Copyright: (Copyright 2002-2003 The Apache Software Foundation. License terms: http://www.apache.org/licenses/LICENSE-2.0)
/BeginEPSF { %def
/b4_Inc_state save def         % Save state for cleanup
/dict_count countdictstack def % Count objects on dict stack
/op_count count 1 sub def      % Count objects on operand stack
userdict begin                 % Push userdict on dict stack
/showpage { } def              % Redefine showpage, { } = null proc
0 setgray 0 setlinecap         % Prepare graphics state
1 setlinewidth 0 setlinejoin
10 setmiterlimit [ ] 0 setdash newpath
/languagelevel where           % If level not equal to 1 then
{pop languagelevel             % set strokeadjust and
1 ne                           % overprint to their defaults.
{false setstrokeadjust false setoverprint
} if
} if
} bd
/EndEPSF { %def
count op_count sub {pop} repeat            % Clean up stacks
countdictstack dict_count sub {end} repeat
b4_Inc_state restore
} bd
%%EndResource
%FOPBeginFontDict
%%IncludeResource: font Courier-Oblique
%%IncludeResource: font Courier-BoldOblique
%%IncludeResource: font Courier-Bold
%%IncludeResource: font ZapfDingbats
%%IncludeResource: font Symbol
%%IncludeResource: font Helvetica
%%IncludeResource: font Helvetica-Oblique
%%IncludeResource: font Helvetica-Bold
%%IncludeResource: font Helvetica-BoldOblique
%%IncludeResource: font Times-Roman
%%IncludeResource: font Times-Italic
%%IncludeResource: font Times-Bold
%%IncludeResource: font Times-BoldItalic
%%IncludeResource: font Courier
%FOPEndFontDict
%%BeginResource: encoding WinAnsiEncoding
/WinAnsiEncoding [
/.notdef /.notdef /.notdef /.notdef /.notdef
/.notdef /.notdef /.notdef /.notdef /.notdef
/.notdef /.notdef /.notdef /.notdef /.notdef
/.notdef /.notdef /.notdef /.notdef /.notdef
/.notdef /.notdef /.notdef /.notdef /.notdef
/.notdef /.notdef /.notdef /.notdef /.notdef
/.notdef /.notdef /space /exclam /quotedbl
/numbersign /dollar /percent /ampersand /quotesingle
/parenleft /parenright /asterisk /plus /comma
/hyphen /period /slash /zero /one
/two /three /four /five /six
/seven /eight /nine /colon /semicolon
/less /equal /greater /question /at
/A /B /C /D /E
/F /G /H /I /J
/K /L /M /N /O
/P /Q /R /S /T
/U /V /W /X /Y
/Z /bracketleft /backslash /bracketright /asciicircum
/underscore /quoteleft /a /b /c
/d /e /f /g /h
/i /j /k /l /m
/n /o /p /q /r
/s /t /u /v /w
/x /y /z /braceleft /bar
/braceright /asciitilde /bullet /Euro /bullet
/quotesinglbase /florin /quotedblbase /ellipsis /dagger
/daggerdbl /circumflex /perthousand /Scaron /guilsinglleft
/OE /bullet /Zcaron /bullet /bullet
/quoteleft /quoteright /quotedblleft /quotedblright /bullet
/endash /emdash /asciitilde /trademark /scaron
/guilsinglright /oe /bullet /zcaron /Ydieresis
/space /exclamdown /cent /sterling /currency
/yen /brokenbar /section /dieresis /copyright
/ordfeminine /guillemotleft /logicalnot /sfthyphen /registered
/macron /degree /plusminus /twosuperior /threesuperior
/acute /mu /paragraph /middot /cedilla
/onesuperior /ordmasculine /guillemotright /onequarter /onehalf
/threequarters /questiondown /Agrave /Aacute /Acircumflex
/Atilde /Adieresis /Aring /AE /Ccedilla
/Egrave /Eacute /Ecircumflex /Edieresis /Igrave
/Iacute /Icircumflex /Idieresis /Eth /Ntilde
/Ograve /Oacute /Ocircumflex /Otilde /Odieresis
/multiply /Oslash /Ugrave /Uacute /Ucircumflex
/Udieresis /Yacute /Thorn /germandbls /agrave
/aacute /acircumflex /atilde /adieresis /aring
/ae /ccedilla /egrave /eacute /ecircumflex
/edieresis /igrave /iacute /icircumflex /idieresis
/eth /ntilde /ograve /oacute /ocircumflex
/otilde /odieresis /divide /oslash /ugrave
/uacute /ucircumflex /udieresis /yacute /thorn
/ydieresis
] def
%%EndResource
%FOPBeginFontReencode
/Courier-Oblique findfont
dup length dict begin
  {1 index /FID ne {def} {pop pop} ifelse} forall
  /Encoding WinAnsiEncoding def
  currentdict
end
/Courier-Oblique exch definefont pop
/Courier-BoldOblique findfont
dup length dict begin
  {1 index /FID ne {def} {pop pop} ifelse} forall
  /Encoding WinAnsiEncoding def
  currentdict
end
/Courier-BoldOblique exch definefont pop
/Courier-Bold findfont
dup length dict begin
  {1 index /FID ne {def} {pop pop} ifelse} forall
  /Encoding WinAnsiEncoding def
  currentdict
end
/Courier-Bold exch definefont pop
/Helvetica findfont
dup length dict begin
  {1 index /FID ne {def} {pop pop} ifelse} forall
  /Encoding WinAnsiEncoding def
  currentdict
end
/Helvetica exch definefont pop
/Helvetica-Oblique findfont
dup length dict begin
  {1 index /FID ne {def} {pop pop} ifelse} forall
  /Encoding WinAnsiEncoding def
  currentdict
end
/Helvetica-Oblique exch definefont pop
/Helvetica-Bold findfont
dup length dict begin
  {1 index /FID ne {def} {pop pop} ifelse} forall
  /Encoding WinAnsiEncoding def
  currentdict
end
/Helvetica-Bold exch definefont pop
/Helvetica-BoldOblique findfont
dup length dict begin
  {1 index /FID ne {def} {pop pop} ifelse} forall
  /Encoding WinAnsiEncoding def
  currentdict
end
/Helvetica-BoldOblique exch definefont pop
/Times-Roman findfont
dup length dict begin
  {1 index /FID ne {def} {pop pop} ifelse} forall
  /Encoding WinAnsiEncoding def
  currentdict
end
/Times-Roman exch definefont pop
/Times-Italic findfont
dup length dict begin
  {1 index /FID ne {def} {pop pop} ifelse} forall
  /Encoding WinAnsiEncoding def
  currentdict
end
/Times-Italic exch definefont pop
/Times-Bold findfont
dup length dict begin
  {1 index /FID ne {def} {pop pop} ifelse} forall
  /Encoding WinAnsiEncoding def
  currentdict
end
/Times-Bold exch definefont pop
/Times-BoldItalic findfont
dup length dict begin
  {1 index /FID ne {def} {pop pop} ifelse} forall
  /Encoding WinAnsiEncoding def
  currentdict
end
/Times-BoldItalic exch definefont pop
/Courier findfont
dup length dict begin
  {1 index /FID ne {def} {pop pop} ifelse} forall
  /Encoding WinAnsiEncoding def
  currentdict
end
/Courier exch definefont pop
%FOPEndFontReencode
%%EndProlog
%%Page: 1 1
%%PageBoundingBox: 0 0 1000 600
%%BeginPageSetup
[1 0 0 -1 0 600] CT
%%EndPageSetup
GS
1 GC
N
0 0 1000 600 re
f
GR
GS
1 GC
N
0 0 1000 600 re
f
GR
GS
1 GC
N
130 531 M
905 531 L
905 45 L
130 45 L
cp
f
GR
GS
0.873 GC
1 LJ
0.5 LW
N
130 531 M
130 45 L
S
GR
GS
0.873 GC
1 LJ
0.5 LW
N
285 531 M
285 45 L
S
GR
GS
0.873 GC
1 LJ
0.5 LW
N
440 531 M
440 45 L
S
GR
GS
0.873 GC
1 LJ
0.5 LW
N
595 531 M
595 45 L
S
GR
GS
0.873 GC
1 LJ
0.5 LW
N
750 531 M
750 45 L
S
GR
GS
0.873 GC
1 LJ
0.5 LW
N
905 531 M
905 45 L
S
GR
GS
0.873 GC
1 LJ
0.5 LW
N
905 531 M
130 531 L
S
GR
GS
0.873 GC
1 LJ
0.5 LW
N
905 470.25 M
130 470.25 L
S
GR
GS
0.873 GC
1 LJ
0.5 LW
N
905 409.5 M
130 409.5 L
S
GR
GS
0.873 GC
1 LJ
0.5 LW
N
905 348.75 M
130 348.75 L
S
GR
GS
0.873 GC
1 LJ
0.5 LW
N
905 288 M
130 288 L
S
GR
GS
0.873 GC
1 LJ
0.5 LW
N
905 227.25 M
130 227.25 L
S
GR
GS
0.873 GC
1 LJ
0.5 LW
N
905 166.5 M
130 166.5 L
S
GR
GS
0.873 GC
1 LJ
0.5 LW
N
905 105.75 M
130 105.75 L
S
GR
GS
0.873 GC
1 LJ
0.5 LW
N
905 45 M
130 45 L
S
GR
GS
0.149 GC
2 setlinecap
1 LJ
0.5 LW
N
130 531 M
905 531 L
S
GR
GS
0.149 GC
2 setlinecap
1 LJ
0.5 LW
N
130 45 M
905 45 L
S
GR
GS
0.149 GC
2 setlinecap
1 LJ
0.5 LW
N
130 531 M
130 523.25 L
S
GR
GS
0.149 GC
2 setlinecap
1 LJ
0.5 LW
N
285 531 M
285 523.25 L
S
GR
GS
0.149 GC
2 setlinecap
1 LJ
0.5 LW
N
440 531 M
440 523.25 L
S
GR
GS
0.149 GC
2 setlinecap
1 LJ
0.5 LW
N
595 531 M
595 523.25 L
S
GR
GS
0.149 GC
2 setlinecap
1 LJ
0.5 LW
N
750 531 M
750 523.25 L
S
GR
GS
0.149 GC
2 setlinecap
1 LJ
0.5 LW
N
905 531 M
905 523.25 L
S
GR
GS
0.149 GC
2 setlinecap
1 LJ
0.5 LW
N
130 45 M
130 52.75 L
S
GR
GS
0.149 GC
2 setlinecap
1 LJ
0.5 LW
N
285 45 M
285 52.75 L
S
GR
GS
0.149 GC
2 setlinecap
1 LJ
0.5 LW
N
440 45 M
440 52.75 L
S
GR
GS
0.149 GC
2 setlinecap
1 LJ
0.5 LW
N
595 45 M
595 52.75 L
S
GR
GS
0.149 GC
2 setlinecap
1 LJ
0.5 LW
N
750 45 M
750 52.75 L
S
GR
GS
0.149 GC
2 setlinecap
1 LJ
0.5 LW
N
905 45 M
905 52.75 L
S
GR
GS
[1 0 0 1 130 537.79999] CT
0.149 GC
/Helvetica 24 F
GS
[1 0 0 1 0 0] CT
-7 23 moveto 
1 -1 scale
(0) t 
GR
GR
GS
[1 0 0 1 285 537.79999] CT
0.149 GC
/Helvetica 24 F
GS
[1 0 0 1 0 0] CT
-23.5 23 moveto 
1 -1 scale
(0.01) t 
GR
GR
GS
[1 0 0 1 440 537.79999] CT
0.149 GC
/Helvetica 24 F
GS
[1 0 0 1 0 0] CT
-23.5 23 moveto 
1 -1 scale
(0.02) t 
GR
GR
GS
[1 0 0 1 595 537.79999] CT
0.149 GC
/Helvetica 24 F
GS
[1 0 0 1 0 0] CT
-23.5 23 moveto 
1 -1 scale
(0.03) t 
GR
GR
GS
[1 0 0 1 750 537.79999] CT
0.149 GC
/Helvetica 24 F
GS
[1 0 0 1 0 0] CT
-23.5 23 moveto 
1 -1 scale
(0.04) t 
GR
GR
GS
[1 0 0 1 905 537.79999] CT
0.149 GC
/Helvetica 24 F
GS
[1 0 0 1 0 0] CT
-23.5 23 moveto 
1 -1 scale
(0.05) t 
GR
GR
GS
[1 0 0 1 517.50037 567.80005] CT
0.149 GC
/Helvetica 26.4 F
GS
[1 0 0 1 0 0] CT
-103.5 26 moveto 
1 -1 scale
(False Match Rate) t 
GR
GR
GS
0.149 GC
2 setlinecap
1 LJ
0.5 LW
N
130 531 M
130 45 L
S
GR
GS
0.149 GC
2 setlinecap
1 LJ
0.5 LW
N
905 531 M
905 45 L
S
GR
GS
0.149 GC
2 setlinecap
1 LJ
0.5 LW
N
130 531 M
137.75 531 L
S
GR
GS
0.149 GC
2 setlinecap
1 LJ
0.5 LW
N
130 470.25 M
137.75 470.25 L
S
GR
GS
0.149 GC
2 setlinecap
1 LJ
0.5 LW
N
130 409.5 M
137.75 409.5 L
S
GR
GS
0.149 GC
2 setlinecap
1 LJ
0.5 LW
N
130 348.75 M
137.75 348.75 L
S
GR
GS
0.149 GC
2 setlinecap
1 LJ
0.5 LW
N
130 288 M
137.75 288 L
S
GR
GS
0.149 GC
2 setlinecap
1 LJ
0.5 LW
N
130 227.25 M
137.75 227.25 L
S
GR
GS
0.149 GC
2 setlinecap
1 LJ
0.5 LW
N
130 166.5 M
137.75 166.5 L
S
GR
GS
0.149 GC
2 setlinecap
1 LJ
0.5 LW
N
130 105.75 M
137.75 105.75 L
S
GR
GS
0.149 GC
2 setlinecap
1 LJ
0.5 LW
N
130 45 M
137.75 45 L
S
GR
GS
0.149 GC
2 setlinecap
1 LJ
0.5 LW
N
905 531 M
897.25 531 L
S
GR
GS
0.149 GC
2 setlinecap
1 LJ
0.5 LW
N
905 470.25 M
897.25 470.25 L
S
GR
GS
0.149 GC
2 setlinecap
1 LJ
0.5 LW
N
905 409.5 M
897.25 409.5 L
S
GR
GS
0.149 GC
2 setlinecap
1 LJ
0.5 LW
N
905 348.75 M
897.25 348.75 L
S
GR
GS
0.149 GC
2 setlinecap
1 LJ
0.5 LW
N
905 288 M
897.25 288 L
S
GR
GS
0.149 GC
2 setlinecap
1 LJ
0.5 LW
N
905 227.25 M
897.25 227.25 L
S
GR
GS
0.149 GC
2 setlinecap
1 LJ
0.5 LW
N
905 166.5 M
897.25 166.5 L
S
GR
GS
0.149 GC
2 setlinecap
1 LJ
0.5 LW
N
905 105.75 M
897.25 105.75 L
S
GR
GS
0.149 GC
2 setlinecap
1 LJ
0.5 LW
N
905 45 M
897.25 45 L
S
GR
GS
[1 0 0 1 123.2 531] CT
0.149 GC
/Helvetica 24 F
GS
[1 0 0 1 0 0] CT
-47 8.5 moveto 
1 -1 scale
(0.45) t 
GR
GR
GS
[1 0 0 1 123.2 470.25] CT
0.149 GC
/Helvetica 24 F
GS
[1 0 0 1 0 0] CT
-34 8.5 moveto 
1 -1 scale
(0.5) t 
GR
GR
GS
[1 0 0 1 123.2 409.5] CT
0.149 GC
/Helvetica 24 F
GS
[1 0 0 1 0 0] CT
-47 8.5 moveto 
1 -1 scale
(0.55) t 
GR
GR
GS
[1 0 0 1 123.2 348.74997] CT
0.149 GC
/Helvetica 24 F
GS
[1 0 0 1 0 0] CT
-34 8.5 moveto 
1 -1 scale
(0.6) t 
GR
GR
GS
[1 0 0 1 123.2 288.00003] CT
0.149 GC
/Helvetica 24 F
GS
[1 0 0 1 0 0] CT
-47 8.5 moveto 
1 -1 scale
(0.65) t 
GR
GR
GS
[1 0 0 1 123.2 227.25002] CT
0.149 GC
/Helvetica 24 F
GS
[1 0 0 1 0 0] CT
-34 8.5 moveto 
1 -1 scale
(0.7) t 
GR
GR
GS
[1 0 0 1 123.2 166.5] CT
0.149 GC
/Helvetica 24 F
GS
[1 0 0 1 0 0] CT
-47 8.5 moveto 
1 -1 scale
(0.75) t 
GR
GR
GS
[1 0 0 1 123.2 105.74998] CT
0.149 GC
/Helvetica 24 F
GS
[1 0 0 1 0 0] CT
-34 8.5 moveto 
1 -1 scale
(0.8) t 
GR
GR
GS
[1 0 0 1 123.2 44.99997] CT
0.149 GC
/Helvetica 24 F
GS
[1 0 0 1 0 0] CT
-47 8.5 moveto 
1 -1 scale
(0.85) t 
GR
GR
GS
[0 -1 1 0 73.2 287.99973] CT
0.149 GC
/Helvetica 26.4 F
GS
[1 0 0 1 0 0] CT
-153 -6 moveto 
1 -1 scale
(1 - False Non-Match Rate) t 
GR
GR
GS
[1 0 0 1 517.50049 38.40001] CT
/Helvetica-Bold 26.4 F
GS
[1 0 0 1 0 0] CT
-287 -6 moveto 
1 -1 scale
(Data acquired less than 160 hours after death) t 
GR
GR
GS
0 0 1 RC
1 LJ
2 LW
N
210.077 531.058 M
212.425 528.239 L
217.15 522.486 L
224.975 518.114 L
230.901 512.131 L
236.595 507.528 L
243.528 502.926 L
249.997 499.474 L
259.951 495.793 L
269.247 488.429 L
279.473 481.986 L
288.033 476.923 L
299.537 472.091 L
312.048 466.798 L
324.287 461.506 L
339.393 454.142 L
353.841 448.849 L
372.549 445.168 L
391.219 439.875 L
411.399 435.503 L
431.347 431.131 L
453.657 423.997 L
477.75 419.165 L
505.251 415.023 L
533.758 412.031 L
565.21 409.27 L
599.296 403.517 L
635.357 399.145 L
676.065 393.392 L
715.031 385.798 L
757.987 380.966 L
802.608 375.903 L
851.683 371.991 L
902.966 367.849 L
905.092 367.687 L
S
GR
GS
0 1 0 RC
1 LJ
2 LW
N
131.38 531.058 M
131.394 530.31 L
131.511 524.557 L
131.549 520.185 L
131.627 514.202 L
131.704 509.369 L
131.782 504.077 L
131.898 497.403 L
132.014 492.111 L
132.363 486.588 L
132.673 482.446 L
132.828 477.844 L
133.021 474.162 L
133.331 467.949 L
133.602 464.267 L
133.796 458.284 L
134.377 451.611 L
134.532 446.318 L
135.113 441.026 L
135.655 435.503 L
136.004 430.901 L
136.391 426.068 L
136.856 421.236 L
137.592 416.634 L
138.212 411.571 L
138.754 407.429 L
139.219 404.438 L
140.148 398.685 L
141.388 393.392 L
142.55 389.71 L
143.479 383.267 L
144.951 378.435 L
147.081 371.761 L
149.096 366.699 L
150.645 361.866 L
152.698 356.804 L
155.525 351.511 L
157.656 346.679 L
160.483 340.006 L
163.621 335.173 L
167.3 331.031 L
171.522 326.659 L
175.861 322.057 L
181.283 317.455 L
186.745 311.932 L
192.206 306.409 L
198.055 301.577 L
204.988 295.134 L
212.076 289.381 L
220.288 285.239 L
228.771 281.787 L
238.376 278.795 L
249.299 272.352 L
262.391 267.52 L
274.786 262.227 L
287.994 257.165 L
303.294 253.253 L
317.354 246.81 L
333.545 241.977 L
351.44 237.375 L
371.697 233.003 L
391.684 228.401 L
412.639 223.338 L
434.058 216.435 L
459.235 211.832 L
485.535 209.991 L
511.913 206.77 L
540.885 204.469 L
573.383 201.017 L
603.634 196.875 L
638.416 192.963 L
671.611 190.662 L
708.33 186.52 L
742.648 183.759 L
780.259 180.767 L
819.689 177.776 L
856.176 175.244 L
894.135 172.483 L
905.092 171.422 L
S
GR
GS
1 LJ
2 LW
N
130.465 531.058 M
130.465 526.398 L
130.504 522.716 L
130.542 520.415 L
130.581 515.122 L
130.62 511.21 L
130.62 507.068 L
130.62 503.616 L
130.62 500.625 L
130.658 496.943 L
130.658 493.031 L
130.736 489.58 L
130.813 486.358 L
130.852 482.676 L
130.891 479.455 L
130.968 476.693 L
131.007 474.162 L
131.123 469.56 L
131.201 465.188 L
131.317 461.276 L
131.433 457.364 L
131.704 453.912 L
131.782 449.77 L
131.898 446.548 L
132.014 442.176 L
132.247 438.494 L
132.285 435.043 L
132.634 430.67 L
132.789 426.528 L
132.944 424.227 L
133.176 419.855 L
133.37 417.784 L
133.757 412.491 L
134.144 408.119 L
134.338 404.898 L
134.725 401.906 L
134.919 396.384 L
135.423 391.321 L
136.004 388.56 L
136.275 384.878 L
136.662 383.037 L
136.972 379.355 L
137.204 378.205 L
137.824 373.602 L
138.56 368.54 L
139.606 364.628 L
140.071 361.636 L
140.884 356.804 L
141.736 354.043 L
142.588 349.21 L
143.634 345.528 L
144.37 343.687 L
145.648 340.696 L
146.927 336.094 L
148.166 330.571 L
149.406 328.27 L
150.451 325.739 L
152.233 321.136 L
154.247 317.915 L
155.758 316.074 L
157.268 313.543 L
159.399 309.861 L
161.529 305.489 L
164.086 301.807 L
166.836 296.284 L
169.082 292.142 L
171.871 288.69 L
175.28 284.088 L
177.681 282.477 L
181.09 279.716 L
184.769 277.415 L
188.604 272.812 L
192.516 268.67 L
196.583 264.298 L
200.65 260.156 L
205.066 256.705 L
209.055 254.403 L
213.703 249.801 L
218.971 246.119 L
223.58 241.747 L
231.249 238.756 L
237.679 234.614 L
243.993 231.162 L
251.585 228.631 L
259.564 226.099 L
265.258 222.878 L
273.198 218.736 L
283.656 215.744 L
294.23 212.523 L
304.03 209.301 L
314.991 205.849 L
325.101 203.548 L
337.263 199.636 L
345.204 196.645 L
357.947 193.193 L
372.317 189.972 L
386.842 186.52 L
402.026 182.608 L
417.519 179.156 L
434.136 175.474 L
450.791 172.713 L
469.345 169.492 L
483.25 166.04 L
500.448 162.818 L
519.698 159.827 L
540.033 155.455 L
562.189 151.773 L
584.112 147.17 L
607.352 143.028 L
633.575 138.886 L
643.181 137.045 L
674.632 133.594 L
703.024 131.293 L
732.655 129.222 L
759.149 126.92 L
791.298 122.778 L
825.112 120.017 L
858.733 115.415 L
890.146 112.884 L
905.092 112.339 L
S
GR
GS
1 0 0 RC
1 LJ
2 LW
N
130.039 531.058 M
130.039 531 L
130.039 525.477 L
130.039 520.645 L
130.039 518.344 L
130.039 514.202 L
130.039 511.67 L
130.039 507.298 L
130.039 503.616 L
130.039 500.855 L
130.039 496.943 L
130.039 493.722 L
130.039 489.349 L
130.039 485.898 L
130.039 481.756 L
130.039 478.764 L
130.039 476.003 L
130.039 474.392 L
130.039 470.94 L
130.039 466.798 L
130.077 461.506 L
130.077 458.514 L
130.077 454.832 L
130.116 451.611 L
130.194 446.318 L
130.232 442.406 L
130.232 439.415 L
130.232 435.733 L
130.31 430.21 L
130.31 426.759 L
130.349 424.687 L
130.349 420.315 L
130.349 416.173 L
130.387 411.801 L
130.426 407.659 L
130.465 404.207 L
130.504 402.597 L
130.504 397.534 L
130.504 393.852 L
130.504 388.79 L
130.62 387.409 L
130.813 384.188 L
130.968 381.656 L
131.046 379.355 L
131.162 377.054 L
131.278 372.682 L
131.278 367.159 L
131.356 363.017 L
131.394 358.875 L
131.433 357.724 L
131.588 354.963 L
131.743 350.591 L
131.898 345.989 L
132.014 341.386 L
132.13 335.403 L
132.247 332.182 L
132.401 327.349 L
132.518 322.517 L
132.944 319.065 L
133.176 315.383 L
133.292 311.472 L
133.641 309.861 L
133.951 306.639 L
134.261 302.727 L
134.571 298.815 L
134.88 294.443 L
134.997 289.611 L
135.19 286.619 L
135.5 285.009 L
135.849 282.477 L
136.159 278.565 L
136.74 273.963 L
137.243 270.051 L
137.708 266.369 L
138.328 264.068 L
138.986 260.847 L
139.451 258.776 L
140.071 256.474 L
140.613 253.253 L
141.349 249.571 L
142.007 246.58 L
142.937 244.509 L
143.595 240.597 L
144.564 237.375 L
145.532 234.844 L
146.849 231.392 L
148.089 228.861 L
149.018 227.02 L
150.877 223.108 L
152.543 218.276 L
154.247 215.054 L
156.61 210.682 L
158.237 207 L
160.212 205.389 L
162.536 201.937 L
165.131 198.486 L
167.572 195.034 L
170.825 191.582 L
173.382 189.511 L
176.209 185.83 L
178.185 185.139 L
182.329 181.918 L
185.931 178.466 L
189.921 176.395 L
194.375 173.403 L
199.217 169.492 L
202.277 167.651 L
207.932 165.58 L
213.703 160.977 L
219.513 157.526 L
225.439 155.224 L
232.45 151.082 L
236.905 148.781 L
244.729 146.25 L
252.088 143.719 L
260.764 140.267 L
269.17 136.125 L
278.892 132.673 L
289.582 128.991 L
295.586 126 L
304.495 123.929 L
316.502 122.548 L
328.238 119.097 L
340.749 117.026 L
353.338 113.804 L
362.401 109.662 L
375.997 105.98 L
392.42 102.068 L
410.16 98.156 L
426.002 94.935 L
443.625 92.403 L
455.943 90.102 L
475.542 88.261 L
497.039 84.58 L
518.071 82.048 L
538.135 79.057 L
561.879 76.756 L
587.094 75.375 L
603.518 73.764 L
630.05 71.463 L
661.928 68.241 L
690.745 65.25 L
723.437 62.719 L
754.849 59.957 L
777.741 59.267 L
811.865 56.276 L
847.849 53.284 L
888.674 50.523 L
905.092 49.288 L
S
GR
%%Trailer
%%Pages: 1
%%EOF
