%!PS-Adobe-3.0 EPSF-3.0
%%Creator: (MATLAB, The Mathworks, Inc. Version 9.5.0.1049112 \(R2018b\) Update 3. Operating System: Mac OS X)
%%Title: ./ROCs_postmortem_new_210_closeup.eps
%%CreationDate: 2019-03-12T15:43:18
%%Pages: (atend)
%%BoundingBox:    48     5   927   587
%%LanguageLevel: 3
%%EndComments
%%BeginProlog
%%BeginResource: procset (Apache XML Graphics Std ProcSet) 1.2 0
%%Version: 1.2 0
%%Copyright: (Copyright 2001-2003,2010 The Apache Software Foundation. License terms: http://www.apache.org/licenses/LICENSE-2.0)
/bd{bind def}bind def
/ld{load def}bd
/GR/grestore ld
/GS/gsave ld
/RM/rmoveto ld
/C/curveto ld
/t/show ld
/L/lineto ld
/ML/setmiterlimit ld
/CT/concat ld
/f/fill ld
/N/newpath ld
/S/stroke ld
/CC/setcmykcolor ld
/A/ashow ld
/cp/closepath ld
/RC/setrgbcolor ld
/LJ/setlinejoin ld
/GC/setgray ld
/LW/setlinewidth ld
/M/moveto ld
/re {4 2 roll M
1 index 0 rlineto
0 exch rlineto
neg 0 rlineto
cp } bd
/_ctm matrix def
/_tm matrix def
/BT { _ctm currentmatrix pop matrix _tm copy pop 0 0 moveto } bd
/ET { _ctm setmatrix } bd
/iTm { _ctm setmatrix _tm concat } bd
/Tm { _tm astore pop iTm 0 0 moveto } bd
/ux 0.0 def
/uy 0.0 def
/F {
  /Tp exch def
  /Tf exch def
  Tf findfont Tp scalefont setfont
  /cf Tf def  /cs Tp def
} bd
/ULS {currentpoint /uy exch def /ux exch def} bd
/ULE {
  /Tcx currentpoint pop def
  gsave
  newpath
  cf findfont cs scalefont dup
  /FontMatrix get 0 get /Ts exch def /FontInfo get dup
  /UnderlinePosition get Ts mul /To exch def
  /UnderlineThickness get Ts mul /Tt exch def
  ux uy To add moveto  Tcx uy To add lineto
  Tt setlinewidth stroke
  grestore
} bd
/OLE {
  /Tcx currentpoint pop def
  gsave
  newpath
  cf findfont cs scalefont dup
  /FontMatrix get 0 get /Ts exch def /FontInfo get dup
  /UnderlinePosition get Ts mul /To exch def
  /UnderlineThickness get Ts mul /Tt exch def
  ux uy To add cs add moveto Tcx uy To add cs add lineto
  Tt setlinewidth stroke
  grestore
} bd
/SOE {
  /Tcx currentpoint pop def
  gsave
  newpath
  cf findfont cs scalefont dup
  /FontMatrix get 0 get /Ts exch def /FontInfo get dup
  /UnderlinePosition get Ts mul /To exch def
  /UnderlineThickness get Ts mul /Tt exch def
  ux uy To add cs 10 mul 26 idiv add moveto Tcx uy To add cs 10 mul 26 idiv add lineto
  Tt setlinewidth stroke
  grestore
} bd
/QT {
/Y22 exch store
/X22 exch store
/Y21 exch store
/X21 exch store
currentpoint
/Y21 load 2 mul add 3 div exch
/X21 load 2 mul add 3 div exch
/X21 load 2 mul /X22 load add 3 div
/Y21 load 2 mul /Y22 load add 3 div
/X22 load /Y22 load curveto
} bd
/SSPD {
dup length /d exch dict def
{
/v exch def
/k exch def
currentpagedevice k known {
/cpdv currentpagedevice k get def
v cpdv ne {
/upd false def
/nullv v type /nulltype eq def
/nullcpdv cpdv type /nulltype eq def
nullv nullcpdv or
{
/upd true def
} {
/sametype v type cpdv type eq def
sametype {
v type /arraytype eq {
/vlen v length def
/cpdvlen cpdv length def
vlen cpdvlen eq {
0 1 vlen 1 sub {
/i exch def
/obj v i get def
/cpdobj cpdv i get def
obj cpdobj ne {
/upd true def
exit
} if
} for
} {
/upd true def
} ifelse
} {
v type /dicttype eq {
v {
/dv exch def
/dk exch def
/cpddv cpdv dk get def
dv cpddv ne {
/upd true def
exit
} if
} forall
} {
/upd true def
} ifelse
} ifelse
} if
} ifelse
upd true eq {
d k v put
} if
} if
} if
} forall
d length 0 gt {
d setpagedevice
} if
} bd
/RE { % /NewFontName [NewEncodingArray] /FontName RE -
  findfont dup length dict begin
  {
    1 index /FID ne
    {def} {pop pop} ifelse
  } forall
  /Encoding exch def
  /FontName 1 index def
  currentdict definefont pop
  end
} bind def
%%EndResource
%%BeginResource: procset (Apache XML Graphics EPS ProcSet) 1.0 0
%%Version: 1.0 0
%%Copyright: (Copyright 2002-2003 The Apache Software Foundation. License terms: http://www.apache.org/licenses/LICENSE-2.0)
/BeginEPSF { %def
/b4_Inc_state save def         % Save state for cleanup
/dict_count countdictstack def % Count objects on dict stack
/op_count count 1 sub def      % Count objects on operand stack
userdict begin                 % Push userdict on dict stack
/showpage { } def              % Redefine showpage, { } = null proc
0 setgray 0 setlinecap         % Prepare graphics state
1 setlinewidth 0 setlinejoin
10 setmiterlimit [ ] 0 setdash newpath
/languagelevel where           % If level not equal to 1 then
{pop languagelevel             % set strokeadjust and
1 ne                           % overprint to their defaults.
{false setstrokeadjust false setoverprint
} if
} if
} bd
/EndEPSF { %def
count op_count sub {pop} repeat            % Clean up stacks
countdictstack dict_count sub {end} repeat
b4_Inc_state restore
} bd
%%EndResource
%FOPBeginFontDict
%%IncludeResource: font Courier-Oblique
%%IncludeResource: font Courier-BoldOblique
%%IncludeResource: font Courier-Bold
%%IncludeResource: font ZapfDingbats
%%IncludeResource: font Symbol
%%IncludeResource: font Helvetica
%%IncludeResource: font Helvetica-Oblique
%%IncludeResource: font Helvetica-Bold
%%IncludeResource: font Helvetica-BoldOblique
%%IncludeResource: font Times-Roman
%%IncludeResource: font Times-Italic
%%IncludeResource: font Times-Bold
%%IncludeResource: font Times-BoldItalic
%%IncludeResource: font Courier
%FOPEndFontDict
%%BeginResource: encoding WinAnsiEncoding
/WinAnsiEncoding [
/.notdef /.notdef /.notdef /.notdef /.notdef
/.notdef /.notdef /.notdef /.notdef /.notdef
/.notdef /.notdef /.notdef /.notdef /.notdef
/.notdef /.notdef /.notdef /.notdef /.notdef
/.notdef /.notdef /.notdef /.notdef /.notdef
/.notdef /.notdef /.notdef /.notdef /.notdef
/.notdef /.notdef /space /exclam /quotedbl
/numbersign /dollar /percent /ampersand /quotesingle
/parenleft /parenright /asterisk /plus /comma
/hyphen /period /slash /zero /one
/two /three /four /five /six
/seven /eight /nine /colon /semicolon
/less /equal /greater /question /at
/A /B /C /D /E
/F /G /H /I /J
/K /L /M /N /O
/P /Q /R /S /T
/U /V /W /X /Y
/Z /bracketleft /backslash /bracketright /asciicircum
/underscore /quoteleft /a /b /c
/d /e /f /g /h
/i /j /k /l /m
/n /o /p /q /r
/s /t /u /v /w
/x /y /z /braceleft /bar
/braceright /asciitilde /bullet /Euro /bullet
/quotesinglbase /florin /quotedblbase /ellipsis /dagger
/daggerdbl /circumflex /perthousand /Scaron /guilsinglleft
/OE /bullet /Zcaron /bullet /bullet
/quoteleft /quoteright /quotedblleft /quotedblright /bullet
/endash /emdash /asciitilde /trademark /scaron
/guilsinglright /oe /bullet /zcaron /Ydieresis
/space /exclamdown /cent /sterling /currency
/yen /brokenbar /section /dieresis /copyright
/ordfeminine /guillemotleft /logicalnot /sfthyphen /registered
/macron /degree /plusminus /twosuperior /threesuperior
/acute /mu /paragraph /middot /cedilla
/onesuperior /ordmasculine /guillemotright /onequarter /onehalf
/threequarters /questiondown /Agrave /Aacute /Acircumflex
/Atilde /Adieresis /Aring /AE /Ccedilla
/Egrave /Eacute /Ecircumflex /Edieresis /Igrave
/Iacute /Icircumflex /Idieresis /Eth /Ntilde
/Ograve /Oacute /Ocircumflex /Otilde /Odieresis
/multiply /Oslash /Ugrave /Uacute /Ucircumflex
/Udieresis /Yacute /Thorn /germandbls /agrave
/aacute /acircumflex /atilde /adieresis /aring
/ae /ccedilla /egrave /eacute /ecircumflex
/edieresis /igrave /iacute /icircumflex /idieresis
/eth /ntilde /ograve /oacute /ocircumflex
/otilde /odieresis /divide /oslash /ugrave
/uacute /ucircumflex /udieresis /yacute /thorn
/ydieresis
] def
%%EndResource
%FOPBeginFontReencode
/Courier-Oblique findfont
dup length dict begin
  {1 index /FID ne {def} {pop pop} ifelse} forall
  /Encoding WinAnsiEncoding def
  currentdict
end
/Courier-Oblique exch definefont pop
/Courier-BoldOblique findfont
dup length dict begin
  {1 index /FID ne {def} {pop pop} ifelse} forall
  /Encoding WinAnsiEncoding def
  currentdict
end
/Courier-BoldOblique exch definefont pop
/Courier-Bold findfont
dup length dict begin
  {1 index /FID ne {def} {pop pop} ifelse} forall
  /Encoding WinAnsiEncoding def
  currentdict
end
/Courier-Bold exch definefont pop
/Helvetica findfont
dup length dict begin
  {1 index /FID ne {def} {pop pop} ifelse} forall
  /Encoding WinAnsiEncoding def
  currentdict
end
/Helvetica exch definefont pop
/Helvetica-Oblique findfont
dup length dict begin
  {1 index /FID ne {def} {pop pop} ifelse} forall
  /Encoding WinAnsiEncoding def
  currentdict
end
/Helvetica-Oblique exch definefont pop
/Helvetica-Bold findfont
dup length dict begin
  {1 index /FID ne {def} {pop pop} ifelse} forall
  /Encoding WinAnsiEncoding def
  currentdict
end
/Helvetica-Bold exch definefont pop
/Helvetica-BoldOblique findfont
dup length dict begin
  {1 index /FID ne {def} {pop pop} ifelse} forall
  /Encoding WinAnsiEncoding def
  currentdict
end
/Helvetica-BoldOblique exch definefont pop
/Times-Roman findfont
dup length dict begin
  {1 index /FID ne {def} {pop pop} ifelse} forall
  /Encoding WinAnsiEncoding def
  currentdict
end
/Times-Roman exch definefont pop
/Times-Italic findfont
dup length dict begin
  {1 index /FID ne {def} {pop pop} ifelse} forall
  /Encoding WinAnsiEncoding def
  currentdict
end
/Times-Italic exch definefont pop
/Times-Bold findfont
dup length dict begin
  {1 index /FID ne {def} {pop pop} ifelse} forall
  /Encoding WinAnsiEncoding def
  currentdict
end
/Times-Bold exch definefont pop
/Times-BoldItalic findfont
dup length dict begin
  {1 index /FID ne {def} {pop pop} ifelse} forall
  /Encoding WinAnsiEncoding def
  currentdict
end
/Times-BoldItalic exch definefont pop
/Courier findfont
dup length dict begin
  {1 index /FID ne {def} {pop pop} ifelse} forall
  /Encoding WinAnsiEncoding def
  currentdict
end
/Courier exch definefont pop
%FOPEndFontReencode
%%EndProlog
%%Page: 1 1
%%PageBoundingBox: 0 0 1000 600
%%BeginPageSetup
[1 0 0 -1 0 600] CT
%%EndPageSetup
GS
1 GC
N
0 0 1000 600 re
f
GR
GS
1 GC
N
0 0 1000 600 re
f
GR
GS
1 GC
N
130 531 M
905 531 L
905 45 L
130 45 L
cp
f
GR
GS
0.873 GC
1 LJ
0.5 LW
N
130 531 M
130 45 L
S
GR
GS
0.873 GC
1 LJ
0.5 LW
N
285 531 M
285 45 L
S
GR
GS
0.873 GC
1 LJ
0.5 LW
N
440 531 M
440 45 L
S
GR
GS
0.873 GC
1 LJ
0.5 LW
N
595 531 M
595 45 L
S
GR
GS
0.873 GC
1 LJ
0.5 LW
N
750 531 M
750 45 L
S
GR
GS
0.873 GC
1 LJ
0.5 LW
N
905 531 M
905 45 L
S
GR
GS
0.873 GC
1 LJ
0.5 LW
N
905 531 M
130 531 L
S
GR
GS
0.873 GC
1 LJ
0.5 LW
N
905 470.25 M
130 470.25 L
S
GR
GS
0.873 GC
1 LJ
0.5 LW
N
905 409.5 M
130 409.5 L
S
GR
GS
0.873 GC
1 LJ
0.5 LW
N
905 348.75 M
130 348.75 L
S
GR
GS
0.873 GC
1 LJ
0.5 LW
N
905 288 M
130 288 L
S
GR
GS
0.873 GC
1 LJ
0.5 LW
N
905 227.25 M
130 227.25 L
S
GR
GS
0.873 GC
1 LJ
0.5 LW
N
905 166.5 M
130 166.5 L
S
GR
GS
0.873 GC
1 LJ
0.5 LW
N
905 105.75 M
130 105.75 L
S
GR
GS
0.873 GC
1 LJ
0.5 LW
N
905 45 M
130 45 L
S
GR
GS
0.149 GC
2 setlinecap
1 LJ
0.5 LW
N
130 531 M
905 531 L
S
GR
GS
0.149 GC
2 setlinecap
1 LJ
0.5 LW
N
130 45 M
905 45 L
S
GR
GS
0.149 GC
2 setlinecap
1 LJ
0.5 LW
N
130 531 M
130 523.25 L
S
GR
GS
0.149 GC
2 setlinecap
1 LJ
0.5 LW
N
285 531 M
285 523.25 L
S
GR
GS
0.149 GC
2 setlinecap
1 LJ
0.5 LW
N
440 531 M
440 523.25 L
S
GR
GS
0.149 GC
2 setlinecap
1 LJ
0.5 LW
N
595 531 M
595 523.25 L
S
GR
GS
0.149 GC
2 setlinecap
1 LJ
0.5 LW
N
750 531 M
750 523.25 L
S
GR
GS
0.149 GC
2 setlinecap
1 LJ
0.5 LW
N
905 531 M
905 523.25 L
S
GR
GS
0.149 GC
2 setlinecap
1 LJ
0.5 LW
N
130 45 M
130 52.75 L
S
GR
GS
0.149 GC
2 setlinecap
1 LJ
0.5 LW
N
285 45 M
285 52.75 L
S
GR
GS
0.149 GC
2 setlinecap
1 LJ
0.5 LW
N
440 45 M
440 52.75 L
S
GR
GS
0.149 GC
2 setlinecap
1 LJ
0.5 LW
N
595 45 M
595 52.75 L
S
GR
GS
0.149 GC
2 setlinecap
1 LJ
0.5 LW
N
750 45 M
750 52.75 L
S
GR
GS
0.149 GC
2 setlinecap
1 LJ
0.5 LW
N
905 45 M
905 52.75 L
S
GR
GS
[1 0 0 1 130 537.79999] CT
0.149 GC
/Helvetica 24 F
GS
[1 0 0 1 0 0] CT
-7 23 moveto 
1 -1 scale
(0) t 
GR
GR
GS
[1 0 0 1 285 537.79999] CT
0.149 GC
/Helvetica 24 F
GS
[1 0 0 1 0 0] CT
-23.5 23 moveto 
1 -1 scale
(0.01) t 
GR
GR
GS
[1 0 0 1 440 537.79999] CT
0.149 GC
/Helvetica 24 F
GS
[1 0 0 1 0 0] CT
-23.5 23 moveto 
1 -1 scale
(0.02) t 
GR
GR
GS
[1 0 0 1 595 537.79999] CT
0.149 GC
/Helvetica 24 F
GS
[1 0 0 1 0 0] CT
-23.5 23 moveto 
1 -1 scale
(0.03) t 
GR
GR
GS
[1 0 0 1 750 537.79999] CT
0.149 GC
/Helvetica 24 F
GS
[1 0 0 1 0 0] CT
-23.5 23 moveto 
1 -1 scale
(0.04) t 
GR
GR
GS
[1 0 0 1 905 537.79999] CT
0.149 GC
/Helvetica 24 F
GS
[1 0 0 1 0 0] CT
-23.5 23 moveto 
1 -1 scale
(0.05) t 
GR
GR
GS
[1 0 0 1 517.50037 567.79999] CT
0.149 GC
/Helvetica 26.4 F
GS
[1 0 0 1 0 0] CT
-103.5 26 moveto 
1 -1 scale
(False Match Rate) t 
GR
GR
GS
0.149 GC
2 setlinecap
1 LJ
0.5 LW
N
130 531 M
130 45 L
S
GR
GS
0.149 GC
2 setlinecap
1 LJ
0.5 LW
N
905 531 M
905 45 L
S
GR
GS
0.149 GC
2 setlinecap
1 LJ
0.5 LW
N
130 531 M
137.75 531 L
S
GR
GS
0.149 GC
2 setlinecap
1 LJ
0.5 LW
N
130 470.25 M
137.75 470.25 L
S
GR
GS
0.149 GC
2 setlinecap
1 LJ
0.5 LW
N
130 409.5 M
137.75 409.5 L
S
GR
GS
0.149 GC
2 setlinecap
1 LJ
0.5 LW
N
130 348.75 M
137.75 348.75 L
S
GR
GS
0.149 GC
2 setlinecap
1 LJ
0.5 LW
N
130 288 M
137.75 288 L
S
GR
GS
0.149 GC
2 setlinecap
1 LJ
0.5 LW
N
130 227.25 M
137.75 227.25 L
S
GR
GS
0.149 GC
2 setlinecap
1 LJ
0.5 LW
N
130 166.5 M
137.75 166.5 L
S
GR
GS
0.149 GC
2 setlinecap
1 LJ
0.5 LW
N
130 105.75 M
137.75 105.75 L
S
GR
GS
0.149 GC
2 setlinecap
1 LJ
0.5 LW
N
130 45 M
137.75 45 L
S
GR
GS
0.149 GC
2 setlinecap
1 LJ
0.5 LW
N
905 531 M
897.25 531 L
S
GR
GS
0.149 GC
2 setlinecap
1 LJ
0.5 LW
N
905 470.25 M
897.25 470.25 L
S
GR
GS
0.149 GC
2 setlinecap
1 LJ
0.5 LW
N
905 409.5 M
897.25 409.5 L
S
GR
GS
0.149 GC
2 setlinecap
1 LJ
0.5 LW
N
905 348.75 M
897.25 348.75 L
S
GR
GS
0.149 GC
2 setlinecap
1 LJ
0.5 LW
N
905 288 M
897.25 288 L
S
GR
GS
0.149 GC
2 setlinecap
1 LJ
0.5 LW
N
905 227.25 M
897.25 227.25 L
S
GR
GS
0.149 GC
2 setlinecap
1 LJ
0.5 LW
N
905 166.5 M
897.25 166.5 L
S
GR
GS
0.149 GC
2 setlinecap
1 LJ
0.5 LW
N
905 105.75 M
897.25 105.75 L
S
GR
GS
0.149 GC
2 setlinecap
1 LJ
0.5 LW
N
905 45 M
897.25 45 L
S
GR
GS
[1 0 0 1 123.2 531] CT
0.149 GC
/Helvetica 24 F
GS
[1 0 0 1 0 0] CT
-34 8.5 moveto 
1 -1 scale
(0.4) t 
GR
GR
GS
[1 0 0 1 123.2 470.25] CT
0.149 GC
/Helvetica 24 F
GS
[1 0 0 1 0 0] CT
-47 8.5 moveto 
1 -1 scale
(0.45) t 
GR
GR
GS
[1 0 0 1 123.2 409.5] CT
0.149 GC
/Helvetica 24 F
GS
[1 0 0 1 0 0] CT
-34 8.5 moveto 
1 -1 scale
(0.5) t 
GR
GR
GS
[1 0 0 1 123.2 348.75] CT
0.149 GC
/Helvetica 24 F
GS
[1 0 0 1 0 0] CT
-47 8.5 moveto 
1 -1 scale
(0.55) t 
GR
GR
GS
[1 0 0 1 123.2 287.99997] CT
0.149 GC
/Helvetica 24 F
GS
[1 0 0 1 0 0] CT
-34 8.5 moveto 
1 -1 scale
(0.6) t 
GR
GR
GS
[1 0 0 1 123.2 227.25003] CT
0.149 GC
/Helvetica 24 F
GS
[1 0 0 1 0 0] CT
-47 8.5 moveto 
1 -1 scale
(0.65) t 
GR
GR
GS
[1 0 0 1 123.2 166.50002] CT
0.149 GC
/Helvetica 24 F
GS
[1 0 0 1 0 0] CT
-34 8.5 moveto 
1 -1 scale
(0.7) t 
GR
GR
GS
[1 0 0 1 123.2 105.75] CT
0.149 GC
/Helvetica 24 F
GS
[1 0 0 1 0 0] CT
-47 8.5 moveto 
1 -1 scale
(0.75) t 
GR
GR
GS
[1 0 0 1 123.2 44.99998] CT
0.149 GC
/Helvetica 24 F
GS
[1 0 0 1 0 0] CT
-34 8.5 moveto 
1 -1 scale
(0.8) t 
GR
GR
GS
[0 -1 1 0 73.2 287.99976] CT
0.149 GC
/Helvetica 26.4 F
GS
[1 0 0 1 0 0] CT
-153 -6 moveto 
1 -1 scale
(1 - False Non-Match Rate) t 
GR
GR
GS
[1 0 0 1 517.50049 38.40002] CT
/Helvetica-Bold 26.4 F
GS
[1 0 0 1 0 0] CT
-287 -6 moveto 
1 -1 scale
(Data acquired less than 210 hours after death) t 
GR
GR
GS
0 0 1 RC
1 LJ
2 LW
N
207.975 531.058 M
208.779 529.959 L
213.361 524.382 L
220.447 519.735 L
226.117 513.414 L
231.819 507.838 L
238.576 503.004 L
245.037 499.472 L
254.53 495.197 L
263.792 487.575 L
273.879 480.511 L
282.053 475.864 L
292.964 469.729 L
305.094 463.967 L
317.158 458.204 L
331.166 451.14 L
344.747 445.006 L
362.876 439.429 L
381.268 434.224 L
400.255 428.833 L
419.801 423.256 L
441.721 416.564 L
465.387 410.801 L
491.196 405.782 L
518.588 400.763 L
548.979 396.302 L
582.27 389.052 L
616.583 383.661 L
656.533 376.969 L
694.835 368.975 L
736.927 363.398 L
780.767 357.636 L
828.001 352.988 L
877.675 347.969 L
905.092 344.928 L
S
GR
GS
0 1 0 RC
1 LJ
2 LW
N
131.679 531.058 M
131.747 528.286 L
131.912 524.196 L
132.011 519.549 L
132.11 513.972 L
132.208 509.511 L
132.538 504.677 L
132.868 500.216 L
133.033 496.498 L
133.263 492.78 L
133.593 487.389 L
133.889 484.229 L
134.087 478.838 L
134.648 473.076 L
134.878 468.242 L
135.505 463.223 L
136.164 457.646 L
136.625 453.185 L
137.153 449.095 L
137.647 444.634 L
138.405 439.987 L
139.262 435.153 L
139.922 431.435 L
140.548 428.461 L
141.471 423.256 L
142.855 418.609 L
144.042 414.147 L
145.031 408.571 L
146.514 403.923 L
148.558 397.231 L
150.568 392.212 L
152.315 387.379 L
154.853 382.36 L
157.886 377.155 L
160.49 372.507 L
163.324 366.744 L
166.588 362.097 L
170.741 357.45 L
175.158 352.988 L
180.102 347.597 L
185.936 342.578 L
191.837 336.444 L
197.638 331.053 L
203.966 325.476 L
211.581 318.97 L
218.832 313.579 L
227.798 308.374 L
236.599 304.47 L
247.015 301.124 L
258.914 293.688 L
272.362 288.855 L
285.745 283.092 L
300.149 278.073 L
316.465 273.612 L
331.99 267.477 L
349.46 262.83 L
369.567 257.439 L
391.322 252.978 L
412.319 248.144 L
435.985 242.754 L
459.586 236.247 L
486.45 231.6 L
514.468 229.183 L
543.738 225.28 L
575.645 222.491 L
610.98 218.773 L
643.414 213.754 L
680.958 208.921 L
717.974 205.761 L
757.792 199.812 L
795.665 196.28 L
837.23 192.19 L
878.729 188.473 L
905.092 186.15 L
S
GR
GS
1 LJ
2 LW
N
134.001 531.058 M
134.054 527.171 L
134.12 524.01 L
134.12 520.478 L
134.153 517.132 L
134.186 514.158 L
134.252 511.184 L
134.252 507.466 L
134.351 504.677 L
134.812 501.703 L
134.845 497.985 L
134.911 495.011 L
135.043 492.594 L
135.142 490.178 L
135.307 486.46 L
135.373 481.998 L
135.505 478.281 L
135.604 474.563 L
135.834 471.588 L
136.493 468.056 L
136.625 464.896 L
136.79 460.992 L
136.988 457.275 L
137.021 453.743 L
137.416 449.281 L
137.581 445.377 L
137.746 443.519 L
138.043 439.615 L
139.13 437.57 L
139.493 433.294 L
139.823 429.019 L
140.02 425.673 L
140.482 422.327 L
140.713 417.679 L
141.141 412.66 L
141.734 409.872 L
142.031 406.34 L
143.086 404.295 L
143.448 400.205 L
143.745 398.904 L
144.503 394.629 L
145.195 389.981 L
146.184 386.635 L
146.712 383.475 L
147.536 379.385 L
148.459 376.225 L
149.25 371.95 L
151.293 368.232 L
152.051 366.187 L
153.37 363.213 L
154.524 359.309 L
155.677 353.732 L
157.029 350.944 L
158.149 348.527 L
159.831 343.88 L
161.709 340.348 L
164.676 338.489 L
166.126 335.7 L
168.203 332.54 L
170.279 328.265 L
172.653 324.361 L
175.224 319.342 L
177.366 315.438 L
179.97 311.72 L
183.299 306.515 L
186.661 303.727 L
190.221 300.381 L
193.485 297.964 L
197.341 294.06 L
201.297 289.413 L
205.285 284.58 L
209.076 280.304 L
213.361 276.4 L
217.481 272.868 L
221.898 267.663 L
228.325 263.945 L
233.105 259.856 L
240.389 256.324 L
247.147 251.676 L
252.849 248.33 L
260.232 245.356 L
268.143 242.382 L
273.978 238.85 L
281.592 234.574 L
292.733 230.485 L
302.885 226.767 L
312.114 222.491 L
322.761 217.658 L
332.386 214.312 L
344.219 210.222 L
352.46 207.434 L
364.623 202.972 L
378.566 199.069 L
393.563 195.165 L
408.495 190.146 L
423.361 185.87 L
439.578 181.78 L
456.29 178.063 L
474.419 174.531 L
488.197 169.697 L
505.139 165.794 L
523.993 161.146 L
543.606 156.685 L
567.042 152.223 L
588.961 147.204 L
611.738 142.557 L
636.921 138.095 L
646.513 136.237 L
678.486 131.775 L
706.174 128.801 L
735.411 125.269 L
761.912 122.109 L
795.171 117.647 L
828.627 114.487 L
862.314 110.211 L
893.628 107.795 L
905.092 107.037 L
S
GR
GS
1 0 0 RC
1 LJ
2 LW
N
131.351 531.058 M
131.351 527.914 L
131.351 525.126 L
131.681 521.222 L
131.681 518.248 L
131.681 517.504 L
131.681 514.344 L
131.681 509.511 L
131.681 505.607 L
131.681 502.075 L
131.681 498.543 L
131.681 495.755 L
131.681 493.896 L
132.044 491.665 L
132.044 488.133 L
132.044 484.043 L
132.11 479.21 L
132.175 475.864 L
132.175 474.563 L
132.208 470.287 L
132.274 465.826 L
132.307 462.48 L
132.307 459.505 L
132.835 456.717 L
132.934 451.698 L
132.967 449.839 L
133.098 446.493 L
133.098 442.775 L
133.197 439.243 L
133.23 435.711 L
133.23 431.621 L
133.329 428.275 L
133.791 426.416 L
133.824 421.769 L
133.824 418.423 L
133.824 414.333 L
133.955 412.66 L
134.12 410.244 L
134.219 407.083 L
134.351 404.667 L
134.516 402.25 L
134.615 398.532 L
135.274 393.141 L
135.406 389.238 L
135.439 385.892 L
135.571 384.218 L
135.669 381.43 L
135.867 377.34 L
136.032 372.507 L
136.131 368.046 L
136.296 362.841 L
136.428 359.495 L
137.416 355.219 L
137.515 350.758 L
138.076 347.783 L
138.339 344.065 L
138.504 339.79 L
138.999 337.002 L
139.229 334.957 L
139.526 331.611 L
139.79 328.079 L
140.251 324.361 L
140.976 319.899 L
141.207 316.367 L
141.734 314.137 L
142.064 310.605 L
142.591 307.444 L
143.152 302.611 L
143.58 298.893 L
143.976 295.361 L
144.602 290.9 L
146.184 288.112 L
146.712 285.137 L
147.503 282.535 L
148.261 279.003 L
149.184 275.099 L
149.744 271.939 L
150.535 268.407 L
151.326 263.945 L
152.315 261.901 L
153.436 258.554 L
155.381 254.279 L
156.732 250.747 L
157.919 248.33 L
159.501 244.984 L
160.885 240.523 L
162.731 237.363 L
165.071 232.715 L
166.654 228.254 L
169.225 225.094 L
170.939 221.933 L
174.202 218.216 L
176.575 215.241 L
180.399 211.152 L
183.069 208.735 L
186.167 204.459 L
189.463 201.671 L
192.43 198.883 L
195.924 195.722 L
200.473 193.306 L
205.087 190.332 L
210.361 186.242 L
215.239 184.011 L
219.063 181.223 L
225.359 175.832 L
230.468 171.742 L
236.566 168.396 L
243.092 164.306 L
250.377 161.146 L
258.452 159.845 L
265.407 156.499 L
273.912 153.339 L
282.581 148.877 L
291.843 145.345 L
301.764 141.627 L
311.95 138.839 L
317.388 136.608 L
328.892 134.006 L
341.121 131.032 L
353.185 126.942 L
367.556 123.41 L
379.686 119.506 L
394.783 113.929 L
405.232 110.211 L
422.57 106.494 L
438.622 102.776 L
457.509 98.686 L
475.441 96.641 L
495.284 94.039 L
509.655 91.436 L
532.135 86.603 L
553.494 84.372 L
576.831 81.956 L
602.443 80.654 L
627.065 77.308 L
656.138 74.148 L
675.882 70.802 L
703.405 67.456 L
736.07 64.482 L
768.208 62.065 L
802.686 59.648 L
837.395 55.001 L
862.479 52.77 L
899.429 50.354 L
905.092 49.759 L
S
GR
%%Trailer
%%Pages: 1
%%EOF
