%!PS-Adobe-3.0 EPSF-3.0
%%Creator: (MATLAB, The Mathworks, Inc. Version 9.5.0.1049112 \(R2018b\) Update 3. Operating System: Mac OS X)
%%Title: ./sfs_60.eps
%%CreationDate: 2019-03-18T20:03:14
%%Pages: (atend)
%%BoundingBox:    48     5   927   588
%%LanguageLevel: 3
%%EndComments
%%BeginProlog
%%BeginResource: procset (Apache XML Graphics Std ProcSet) 1.2 0
%%Version: 1.2 0
%%Copyright: (Copyright 2001-2003,2010 The Apache Software Foundation. License terms: http://www.apache.org/licenses/LICENSE-2.0)
/bd{bind def}bind def
/ld{load def}bd
/GR/grestore ld
/GS/gsave ld
/RM/rmoveto ld
/C/curveto ld
/t/show ld
/L/lineto ld
/ML/setmiterlimit ld
/CT/concat ld
/f/fill ld
/N/newpath ld
/S/stroke ld
/CC/setcmykcolor ld
/A/ashow ld
/cp/closepath ld
/RC/setrgbcolor ld
/LJ/setlinejoin ld
/GC/setgray ld
/LW/setlinewidth ld
/M/moveto ld
/re {4 2 roll M
1 index 0 rlineto
0 exch rlineto
neg 0 rlineto
cp } bd
/_ctm matrix def
/_tm matrix def
/BT { _ctm currentmatrix pop matrix _tm copy pop 0 0 moveto } bd
/ET { _ctm setmatrix } bd
/iTm { _ctm setmatrix _tm concat } bd
/Tm { _tm astore pop iTm 0 0 moveto } bd
/ux 0.0 def
/uy 0.0 def
/F {
  /Tp exch def
  /Tf exch def
  Tf findfont Tp scalefont setfont
  /cf Tf def  /cs Tp def
} bd
/ULS {currentpoint /uy exch def /ux exch def} bd
/ULE {
  /Tcx currentpoint pop def
  gsave
  newpath
  cf findfont cs scalefont dup
  /FontMatrix get 0 get /Ts exch def /FontInfo get dup
  /UnderlinePosition get Ts mul /To exch def
  /UnderlineThickness get Ts mul /Tt exch def
  ux uy To add moveto  Tcx uy To add lineto
  Tt setlinewidth stroke
  grestore
} bd
/OLE {
  /Tcx currentpoint pop def
  gsave
  newpath
  cf findfont cs scalefont dup
  /FontMatrix get 0 get /Ts exch def /FontInfo get dup
  /UnderlinePosition get Ts mul /To exch def
  /UnderlineThickness get Ts mul /Tt exch def
  ux uy To add cs add moveto Tcx uy To add cs add lineto
  Tt setlinewidth stroke
  grestore
} bd
/SOE {
  /Tcx currentpoint pop def
  gsave
  newpath
  cf findfont cs scalefont dup
  /FontMatrix get 0 get /Ts exch def /FontInfo get dup
  /UnderlinePosition get Ts mul /To exch def
  /UnderlineThickness get Ts mul /Tt exch def
  ux uy To add cs 10 mul 26 idiv add moveto Tcx uy To add cs 10 mul 26 idiv add lineto
  Tt setlinewidth stroke
  grestore
} bd
/QT {
/Y22 exch store
/X22 exch store
/Y21 exch store
/X21 exch store
currentpoint
/Y21 load 2 mul add 3 div exch
/X21 load 2 mul add 3 div exch
/X21 load 2 mul /X22 load add 3 div
/Y21 load 2 mul /Y22 load add 3 div
/X22 load /Y22 load curveto
} bd
/SSPD {
dup length /d exch dict def
{
/v exch def
/k exch def
currentpagedevice k known {
/cpdv currentpagedevice k get def
v cpdv ne {
/upd false def
/nullv v type /nulltype eq def
/nullcpdv cpdv type /nulltype eq def
nullv nullcpdv or
{
/upd true def
} {
/sametype v type cpdv type eq def
sametype {
v type /arraytype eq {
/vlen v length def
/cpdvlen cpdv length def
vlen cpdvlen eq {
0 1 vlen 1 sub {
/i exch def
/obj v i get def
/cpdobj cpdv i get def
obj cpdobj ne {
/upd true def
exit
} if
} for
} {
/upd true def
} ifelse
} {
v type /dicttype eq {
v {
/dv exch def
/dk exch def
/cpddv cpdv dk get def
dv cpddv ne {
/upd true def
exit
} if
} forall
} {
/upd true def
} ifelse
} ifelse
} if
} ifelse
upd true eq {
d k v put
} if
} if
} if
} forall
d length 0 gt {
d setpagedevice
} if
} bd
/RE { % /NewFontName [NewEncodingArray] /FontName RE -
  findfont dup length dict begin
  {
    1 index /FID ne
    {def} {pop pop} ifelse
  } forall
  /Encoding exch def
  /FontName 1 index def
  currentdict definefont pop
  end
} bind def
%%EndResource
%%BeginResource: procset (Apache XML Graphics EPS ProcSet) 1.0 0
%%Version: 1.0 0
%%Copyright: (Copyright 2002-2003 The Apache Software Foundation. License terms: http://www.apache.org/licenses/LICENSE-2.0)
/BeginEPSF { %def
/b4_Inc_state save def         % Save state for cleanup
/dict_count countdictstack def % Count objects on dict stack
/op_count count 1 sub def      % Count objects on operand stack
userdict begin                 % Push userdict on dict stack
/showpage { } def              % Redefine showpage, { } = null proc
0 setgray 0 setlinecap         % Prepare graphics state
1 setlinewidth 0 setlinejoin
10 setmiterlimit [ ] 0 setdash newpath
/languagelevel where           % If level not equal to 1 then
{pop languagelevel             % set strokeadjust and
1 ne                           % overprint to their defaults.
{false setstrokeadjust false setoverprint
} if
} if
} bd
/EndEPSF { %def
count op_count sub {pop} repeat            % Clean up stacks
countdictstack dict_count sub {end} repeat
b4_Inc_state restore
} bd
%%EndResource
%FOPBeginFontDict
%%IncludeResource: font Courier-Oblique
%%IncludeResource: font Courier-BoldOblique
%%IncludeResource: font Courier-Bold
%%IncludeResource: font ZapfDingbats
%%IncludeResource: font Symbol
%%IncludeResource: font Helvetica
%%IncludeResource: font Helvetica-Oblique
%%IncludeResource: font Helvetica-Bold
%%IncludeResource: font Helvetica-BoldOblique
%%IncludeResource: font Times-Roman
%%IncludeResource: font Times-Italic
%%IncludeResource: font Times-Bold
%%IncludeResource: font Times-BoldItalic
%%IncludeResource: font Courier
%FOPEndFontDict
%%BeginResource: encoding WinAnsiEncoding
/WinAnsiEncoding [
/.notdef /.notdef /.notdef /.notdef /.notdef
/.notdef /.notdef /.notdef /.notdef /.notdef
/.notdef /.notdef /.notdef /.notdef /.notdef
/.notdef /.notdef /.notdef /.notdef /.notdef
/.notdef /.notdef /.notdef /.notdef /.notdef
/.notdef /.notdef /.notdef /.notdef /.notdef
/.notdef /.notdef /space /exclam /quotedbl
/numbersign /dollar /percent /ampersand /quotesingle
/parenleft /parenright /asterisk /plus /comma
/hyphen /period /slash /zero /one
/two /three /four /five /six
/seven /eight /nine /colon /semicolon
/less /equal /greater /question /at
/A /B /C /D /E
/F /G /H /I /J
/K /L /M /N /O
/P /Q /R /S /T
/U /V /W /X /Y
/Z /bracketleft /backslash /bracketright /asciicircum
/underscore /quoteleft /a /b /c
/d /e /f /g /h
/i /j /k /l /m
/n /o /p /q /r
/s /t /u /v /w
/x /y /z /braceleft /bar
/braceright /asciitilde /bullet /Euro /bullet
/quotesinglbase /florin /quotedblbase /ellipsis /dagger
/daggerdbl /circumflex /perthousand /Scaron /guilsinglleft
/OE /bullet /Zcaron /bullet /bullet
/quoteleft /quoteright /quotedblleft /quotedblright /bullet
/endash /emdash /asciitilde /trademark /scaron
/guilsinglright /oe /bullet /zcaron /Ydieresis
/space /exclamdown /cent /sterling /currency
/yen /brokenbar /section /dieresis /copyright
/ordfeminine /guillemotleft /logicalnot /sfthyphen /registered
/macron /degree /plusminus /twosuperior /threesuperior
/acute /mu /paragraph /middot /cedilla
/onesuperior /ordmasculine /guillemotright /onequarter /onehalf
/threequarters /questiondown /Agrave /Aacute /Acircumflex
/Atilde /Adieresis /Aring /AE /Ccedilla
/Egrave /Eacute /Ecircumflex /Edieresis /Igrave
/Iacute /Icircumflex /Idieresis /Eth /Ntilde
/Ograve /Oacute /Ocircumflex /Otilde /Odieresis
/multiply /Oslash /Ugrave /Uacute /Ucircumflex
/Udieresis /Yacute /Thorn /germandbls /agrave
/aacute /acircumflex /atilde /adieresis /aring
/ae /ccedilla /egrave /eacute /ecircumflex
/edieresis /igrave /iacute /icircumflex /idieresis
/eth /ntilde /ograve /oacute /ocircumflex
/otilde /odieresis /divide /oslash /ugrave
/uacute /ucircumflex /udieresis /yacute /thorn
/ydieresis
] def
%%EndResource
%FOPBeginFontReencode
/Courier-Oblique findfont
dup length dict begin
  {1 index /FID ne {def} {pop pop} ifelse} forall
  /Encoding WinAnsiEncoding def
  currentdict
end
/Courier-Oblique exch definefont pop
/Courier-BoldOblique findfont
dup length dict begin
  {1 index /FID ne {def} {pop pop} ifelse} forall
  /Encoding WinAnsiEncoding def
  currentdict
end
/Courier-BoldOblique exch definefont pop
/Courier-Bold findfont
dup length dict begin
  {1 index /FID ne {def} {pop pop} ifelse} forall
  /Encoding WinAnsiEncoding def
  currentdict
end
/Courier-Bold exch definefont pop
/Helvetica findfont
dup length dict begin
  {1 index /FID ne {def} {pop pop} ifelse} forall
  /Encoding WinAnsiEncoding def
  currentdict
end
/Helvetica exch definefont pop
/Helvetica-Oblique findfont
dup length dict begin
  {1 index /FID ne {def} {pop pop} ifelse} forall
  /Encoding WinAnsiEncoding def
  currentdict
end
/Helvetica-Oblique exch definefont pop
/Helvetica-Bold findfont
dup length dict begin
  {1 index /FID ne {def} {pop pop} ifelse} forall
  /Encoding WinAnsiEncoding def
  currentdict
end
/Helvetica-Bold exch definefont pop
/Helvetica-BoldOblique findfont
dup length dict begin
  {1 index /FID ne {def} {pop pop} ifelse} forall
  /Encoding WinAnsiEncoding def
  currentdict
end
/Helvetica-BoldOblique exch definefont pop
/Times-Roman findfont
dup length dict begin
  {1 index /FID ne {def} {pop pop} ifelse} forall
  /Encoding WinAnsiEncoding def
  currentdict
end
/Times-Roman exch definefont pop
/Times-Italic findfont
dup length dict begin
  {1 index /FID ne {def} {pop pop} ifelse} forall
  /Encoding WinAnsiEncoding def
  currentdict
end
/Times-Italic exch definefont pop
/Times-Bold findfont
dup length dict begin
  {1 index /FID ne {def} {pop pop} ifelse} forall
  /Encoding WinAnsiEncoding def
  currentdict
end
/Times-Bold exch definefont pop
/Times-BoldItalic findfont
dup length dict begin
  {1 index /FID ne {def} {pop pop} ifelse} forall
  /Encoding WinAnsiEncoding def
  currentdict
end
/Times-BoldItalic exch definefont pop
/Courier findfont
dup length dict begin
  {1 index /FID ne {def} {pop pop} ifelse} forall
  /Encoding WinAnsiEncoding def
  currentdict
end
/Courier exch definefont pop
%FOPEndFontReencode
%%EndProlog
%%Page: 1 1
%%PageBoundingBox: 0 0 1000 600
%%BeginPageSetup
[1 0 0 -1 0 600] CT
%%EndPageSetup
GS
1 GC
N
0 0 1000 600 re
f
GR
GS
1 GC
N
0 0 1000 600 re
f
GR
GS
1 GC
N
130 531 M
905 531 L
905 45 L
130 45 L
cp
f
GR
GS
0.873 GC
1 LJ
0.5 LW
N
130 531 M
130 45 L
S
GR
GS
0.873 GC
1 LJ
0.5 LW
N
285 531 M
285 45 L
S
GR
GS
0.873 GC
1 LJ
0.5 LW
N
440 531 M
440 45 L
S
GR
GS
0.873 GC
1 LJ
0.5 LW
N
595 531 M
595 45 L
S
GR
GS
0.873 GC
1 LJ
0.5 LW
N
750 531 M
750 45 L
S
GR
GS
0.873 GC
1 LJ
0.5 LW
N
905 531 M
905 45 L
S
GR
GS
0.873 GC
1 LJ
0.5 LW
N
905 531 M
130 531 L
S
GR
GS
0.873 GC
1 LJ
0.5 LW
N
905 433.8 M
130 433.8 L
S
GR
GS
0.873 GC
1 LJ
0.5 LW
N
905 336.6 M
130 336.6 L
S
GR
GS
0.873 GC
1 LJ
0.5 LW
N
905 239.4 M
130 239.4 L
S
GR
GS
0.873 GC
1 LJ
0.5 LW
N
905 142.2 M
130 142.2 L
S
GR
GS
0.873 GC
1 LJ
0.5 LW
N
905 45 M
130 45 L
S
GR
GS
0.149 GC
2 setlinecap
1 LJ
0.5 LW
N
130 531 M
905 531 L
S
GR
GS
0.149 GC
2 setlinecap
1 LJ
0.5 LW
N
130 45 M
905 45 L
S
GR
GS
0.149 GC
2 setlinecap
1 LJ
0.5 LW
N
130 531 M
130 523.25 L
S
GR
GS
0.149 GC
2 setlinecap
1 LJ
0.5 LW
N
285 531 M
285 523.25 L
S
GR
GS
0.149 GC
2 setlinecap
1 LJ
0.5 LW
N
440 531 M
440 523.25 L
S
GR
GS
0.149 GC
2 setlinecap
1 LJ
0.5 LW
N
595 531 M
595 523.25 L
S
GR
GS
0.149 GC
2 setlinecap
1 LJ
0.5 LW
N
750 531 M
750 523.25 L
S
GR
GS
0.149 GC
2 setlinecap
1 LJ
0.5 LW
N
905 531 M
905 523.25 L
S
GR
GS
0.149 GC
2 setlinecap
1 LJ
0.5 LW
N
130 45 M
130 52.75 L
S
GR
GS
0.149 GC
2 setlinecap
1 LJ
0.5 LW
N
285 45 M
285 52.75 L
S
GR
GS
0.149 GC
2 setlinecap
1 LJ
0.5 LW
N
440 45 M
440 52.75 L
S
GR
GS
0.149 GC
2 setlinecap
1 LJ
0.5 LW
N
595 45 M
595 52.75 L
S
GR
GS
0.149 GC
2 setlinecap
1 LJ
0.5 LW
N
750 45 M
750 52.75 L
S
GR
GS
0.149 GC
2 setlinecap
1 LJ
0.5 LW
N
905 45 M
905 52.75 L
S
GR
GS
[1 0 0 1 130 537.80005] CT
0.149 GC
/Helvetica 24 F
GS
[1 0 0 1 0 0] CT
-7 23 moveto 
1 -1 scale
(0) t 
GR
GR
GS
[1 0 0 1 285 537.80005] CT
0.149 GC
/Helvetica 24 F
GS
[1 0 0 1 0 0] CT
-23.5 23 moveto 
1 -1 scale
(0.01) t 
GR
GR
GS
[1 0 0 1 440 537.80005] CT
0.149 GC
/Helvetica 24 F
GS
[1 0 0 1 0 0] CT
-23.5 23 moveto 
1 -1 scale
(0.02) t 
GR
GR
GS
[1 0 0 1 595 537.80005] CT
0.149 GC
/Helvetica 24 F
GS
[1 0 0 1 0 0] CT
-23.5 23 moveto 
1 -1 scale
(0.03) t 
GR
GR
GS
[1 0 0 1 750 537.80005] CT
0.149 GC
/Helvetica 24 F
GS
[1 0 0 1 0 0] CT
-23.5 23 moveto 
1 -1 scale
(0.04) t 
GR
GR
GS
[1 0 0 1 905 537.80005] CT
0.149 GC
/Helvetica 24 F
GS
[1 0 0 1 0 0] CT
-23.5 23 moveto 
1 -1 scale
(0.05) t 
GR
GR
GS
[1 0 0 1 517.50037 567.79993] CT
0.149 GC
/Helvetica 26.4 F
GS
[1 0 0 1 0 0] CT
-103.5 26 moveto 
1 -1 scale
(False Match Rate) t 
GR
GR
GS
0.149 GC
2 setlinecap
1 LJ
0.5 LW
N
130 531 M
130 45 L
S
GR
GS
0.149 GC
2 setlinecap
1 LJ
0.5 LW
N
905 531 M
905 45 L
S
GR
GS
0.149 GC
2 setlinecap
1 LJ
0.5 LW
N
130 531 M
137.75 531 L
S
GR
GS
0.149 GC
2 setlinecap
1 LJ
0.5 LW
N
130 433.8 M
137.75 433.8 L
S
GR
GS
0.149 GC
2 setlinecap
1 LJ
0.5 LW
N
130 336.6 M
137.75 336.6 L
S
GR
GS
0.149 GC
2 setlinecap
1 LJ
0.5 LW
N
130 239.4 M
137.75 239.4 L
S
GR
GS
0.149 GC
2 setlinecap
1 LJ
0.5 LW
N
130 142.2 M
137.75 142.2 L
S
GR
GS
0.149 GC
2 setlinecap
1 LJ
0.5 LW
N
130 45 M
137.75 45 L
S
GR
GS
0.149 GC
2 setlinecap
1 LJ
0.5 LW
N
905 531 M
897.25 531 L
S
GR
GS
0.149 GC
2 setlinecap
1 LJ
0.5 LW
N
905 433.8 M
897.25 433.8 L
S
GR
GS
0.149 GC
2 setlinecap
1 LJ
0.5 LW
N
905 336.6 M
897.25 336.6 L
S
GR
GS
0.149 GC
2 setlinecap
1 LJ
0.5 LW
N
905 239.4 M
897.25 239.4 L
S
GR
GS
0.149 GC
2 setlinecap
1 LJ
0.5 LW
N
905 142.2 M
897.25 142.2 L
S
GR
GS
0.149 GC
2 setlinecap
1 LJ
0.5 LW
N
905 45 M
897.25 45 L
S
GR
GS
[1 0 0 1 123.2 531] CT
0.149 GC
/Helvetica 24 F
GS
[1 0 0 1 0 0] CT
-47 8.5 moveto 
1 -1 scale
(0.75) t 
GR
GR
GS
[1 0 0 1 123.2 433.79999] CT
0.149 GC
/Helvetica 24 F
GS
[1 0 0 1 0 0] CT
-34 8.5 moveto 
1 -1 scale
(0.8) t 
GR
GR
GS
[1 0 0 1 123.2 336.59995] CT
0.149 GC
/Helvetica 24 F
GS
[1 0 0 1 0 0] CT
-47 8.5 moveto 
1 -1 scale
(0.85) t 
GR
GR
GS
[1 0 0 1 123.2 239.40004] CT
0.149 GC
/Helvetica 24 F
GS
[1 0 0 1 0 0] CT
-34 8.5 moveto 
1 -1 scale
(0.9) t 
GR
GR
GS
[1 0 0 1 123.2 142.20003] CT
0.149 GC
/Helvetica 24 F
GS
[1 0 0 1 0 0] CT
-47 8.5 moveto 
1 -1 scale
(0.95) t 
GR
GR
GS
[1 0 0 1 123.2 45] CT
0.149 GC
/Helvetica 24 F
GS
[1 0 0 1 0 0] CT
-14 8.5 moveto 
1 -1 scale
(1) t 
GR
GR
GS
[0 -1 1 0 73.2 287.99976] CT
0.149 GC
/Helvetica 26.4 F
GS
[1 0 0 1 0 0] CT
-153 -6 moveto 
1 -1 scale
(1 - False Non-Match Rate) t 
GR
GR
GS
[1 0 0 1 517.50049 38.39996] CT
/Helvetica-Bold 26.4 F
GS
[1 0 0 1 0 0] CT
-296 -6 moveto 
1 -1 scale
(SFS/SBS feature selection 60 hours after death) t 
GR
GR
GS
0 0.447 0.741 RC
1 LJ
2 LW
N
131.477 531.058 M
131.493 530.522 L
131.757 524.788 L
132.108 521.92 L
132.284 520.009 L
132.723 514.274 L
132.899 511.407 L
133.162 502.805 L
133.426 499.938 L
133.689 490.381 L
133.777 484.646 L
133.953 477.956 L
134.304 472.221 L
134.743 467.442 L
135.182 461.708 L
135.182 457.885 L
135.358 452.15 L
135.621 450.239 L
136.148 447.372 L
136.588 443.549 L
137.729 439.726 L
138.169 433.991 L
138.608 428.257 L
139.135 422.522 L
139.662 415.832 L
140.101 411.053 L
141.331 408.186 L
142.121 402.451 L
143.087 400.54 L
144.58 394.805 L
145.371 393.85 L
146.601 393.85 L
148.884 390.027 L
150.026 388.115 L
152.134 383.336 L
153.803 380.469 L
155.472 376.646 L
157.58 370.911 L
159.424 367.089 L
162.499 359.443 L
164.255 357.531 L
167.417 350.841 L
169.965 347.018 L
173.039 341.283 L
176.552 341.283 L
179.275 339.372 L
181.91 335.549 L
185.95 332.681 L
188.146 329.814 L
192.45 323.124 L
196.49 319.301 L
201.146 314.522 L
205.186 311.655 L
209.666 305.92 L
213.267 303.053 L
217.746 300.186 L
225.037 300.186 L
230.658 296.363 L
238.036 295.407 L
246.38 292.54 L
254.022 289.673 L
261.136 282.027 L
270.359 278.204 L
276.683 276.292 L
286.257 273.425 L
295.919 270.558 L
304.966 267.69 L
314.364 267.69 L
324.992 265.779 L
338.255 261 L
346.687 257.177 L
359.247 252.398 L
372.949 246.664 L
387.53 238.062 L
402.461 235.195 L
419.238 231.372 L
434.345 229.46 L
452.263 226.593 L
464.911 226.593 L
481.6 225.637 L
499.957 220.858 L
519.808 216.08 L
537.902 215.124 L
560.299 213.212 L
584.102 209.389 L
598.244 207.478 L
619.5 203.655 L
649.539 201.743 L
675.889 199.832 L
700.395 196.965 L
728.765 194.097 L
761.527 191.23 L
792.708 189.319 L
812.12 187.407 L
843.213 185.496 L
874.833 184.54 L
905.092 183.698 L
S
GR
GS
0.851 0.325 0.098 RC
1 LJ
2 LW
N
130.447 531.058 M
130.527 526.699 L
130.527 521.92 L
130.527 512.363 L
130.527 503.761 L
130.527 501.85 L
130.527 498.027 L
130.527 495.159 L
130.615 490.381 L
130.703 482.735 L
130.703 477.956 L
130.703 474.133 L
130.703 468.398 L
130.878 460.752 L
130.966 457.885 L
131.054 450.239 L
131.23 447.372 L
131.318 444.504 L
131.493 439.726 L
131.845 435.903 L
132.02 431.124 L
132.372 430.168 L
132.811 426.345 L
133.25 425.389 L
133.513 419.655 L
133.953 413.92 L
134.216 411.053 L
134.743 406.274 L
134.919 402.451 L
135.27 398.628 L
135.534 396.717 L
135.709 388.115 L
136.061 384.292 L
136.412 379.513 L
136.939 375.69 L
137.729 371.867 L
138.52 369.956 L
139.662 365.177 L
140.804 361.354 L
141.331 360.398 L
142.472 357.531 L
143.351 355.619 L
144.229 352.752 L
145.459 344.15 L
146.688 341.283 L
148.094 335.549 L
150.026 332.681 L
151.432 330.77 L
153.188 328.858 L
154.857 323.124 L
156.526 318.345 L
158.283 315.478 L
160.566 312.611 L
162.147 307.832 L
164.694 305.92 L
166.978 302.097 L
169.789 299.23 L
173.302 296.363 L
177.255 294.451 L
180.68 292.54 L
184.633 287.761 L
189.2 285.85 L
193.68 282.027 L
198.159 281.071 L
203.254 274.381 L
208.085 272.469 L
213.003 267.69 L
219.064 265.779 L
225.651 263.867 L
232.678 259.088 L
240.056 257.177 L
247.083 255.266 L
253.583 250.487 L
259.995 247.62 L
267.46 242.841 L
276.683 240.929 L
290.649 237.106 L
300.223 234.239 L
309.445 230.416 L
321.215 226.593 L
331.667 223.726 L
345.896 222.77 L
358.544 216.08 L
370.314 213.212 L
384.104 207.478 L
398.772 207.478 L
412.475 203.655 L
428.46 201.743 L
447.608 198.876 L
465.351 195.053 L
483.532 193.142 L
502.417 190.274 L
523.058 186.451 L
542.03 186.451 L
566.36 182.628 L
591.92 181.673 L
616.865 180.717 L
640.668 175.938 L
666.491 174.027 L
695.652 172.115 L
726.482 170.203 L
756.784 166.381 L
787.438 165.425 L
820.376 162.557 L
853.402 159.69 L
890.029 157.779 L
905.092 157.016 L
S
GR
GS
0.929 0.694 0.125 RC
1 LJ
2 LW
N
130.429 531.058 M
130.439 530.522 L
130.439 528.611 L
130.527 521.92 L
130.615 515.23 L
130.615 507.584 L
130.703 502.805 L
130.791 495.159 L
130.878 493.248 L
130.878 487.513 L
130.878 486.558 L
130.966 481.779 L
131.054 478.911 L
131.142 473.177 L
131.23 468.398 L
131.405 463.619 L
131.581 459.796 L
131.581 454.062 L
131.669 453.106 L
132.372 449.283 L
132.635 446.416 L
132.986 443.549 L
133.426 433.991 L
133.601 432.08 L
134.04 428.257 L
134.304 426.345 L
134.392 422.522 L
135.007 415.832 L
135.358 414.876 L
135.797 407.23 L
136.236 406.274 L
136.851 401.496 L
137.115 396.717 L
137.378 394.805 L
137.993 393.85 L
138.696 387.159 L
139.135 384.292 L
139.75 379.513 L
140.54 375.69 L
141.682 371.867 L
142.033 366.133 L
142.648 365.177 L
143.526 360.398 L
144.844 357.531 L
145.81 355.619 L
148.006 349.885 L
149.938 341.283 L
151.695 336.504 L
153.1 330.77 L
154.594 329.814 L
155.735 328.858 L
157.756 325.035 L
159.424 319.301 L
161.796 316.434 L
163.201 314.522 L
165.485 311.655 L
168.12 307.832 L
170.667 305.92 L
172.6 303.053 L
175.235 299.23 L
178.045 295.407 L
181.207 294.451 L
183.93 290.628 L
187.356 283.938 L
191.22 279.159 L
195.085 276.292 L
198.071 274.381 L
201.233 269.602 L
205.801 264.823 L
211.159 260.044 L
215.726 259.088 L
222.226 254.31 L
228.199 250.487 L
234.61 248.575 L
241.549 245.708 L
246.117 244.752 L
254.285 241.885 L
261.224 238.062 L
268.954 235.195 L
277.649 232.327 L
285.379 226.593 L
294.952 225.637 L
303.999 223.726 L
310.323 222.77 L
320.249 217.991 L
331.491 216.08 L
341.505 214.168 L
354.328 210.345 L
365.922 206.522 L
380.327 202.699 L
392.185 199.832 L
400.266 196.965 L
414.583 196.009 L
430.832 194.097 L
446.379 187.407 L
462.803 186.451 L
477.999 180.717 L
495.917 179.761 L
516.909 175.938 L
527.889 174.027 L
551.34 169.248 L
571.015 166.381 L
594.555 163.513 L
618.358 160.646 L
642.688 157.779 L
668.862 156.823 L
694.422 156.823 L
726.218 152.044 L
744.4 151.089 L
774.351 148.221 L
809.748 147.265 L
843.301 146.31 L
877.556 144.398 L
905.092 141.115 L
S
GR
GS
0.494 0.184 0.557 RC
1 LJ
2 LW
N
130.527 531.058 M
130.527 524.788 L
130.615 519.053 L
130.615 517.142 L
130.703 510.451 L
130.878 504.717 L
130.878 501.85 L
130.966 493.248 L
130.966 492.292 L
130.966 488.469 L
130.966 483.69 L
131.054 479.867 L
131.142 475.088 L
131.142 472.221 L
131.142 469.354 L
131.142 466.487 L
131.405 462.664 L
131.581 457.885 L
131.669 449.283 L
131.757 444.504 L
131.932 438.77 L
132.196 434.947 L
132.372 433.035 L
132.459 430.168 L
132.811 426.345 L
133.074 425.389 L
133.162 421.566 L
133.865 417.743 L
133.953 412.965 L
134.304 408.186 L
134.48 405.319 L
134.743 398.628 L
135.094 395.761 L
135.797 394.805 L
136.148 390.982 L
136.412 388.115 L
136.851 381.425 L
137.202 379.513 L
137.905 371.867 L
138.432 368.044 L
139.223 362.31 L
140.189 359.443 L
140.804 357.531 L
141.682 354.664 L
142.736 347.018 L
143.702 343.195 L
144.58 341.283 L
145.81 333.637 L
147.128 332.681 L
148.182 327.903 L
150.026 321.212 L
150.729 318.345 L
152.222 311.655 L
153.188 310.699 L
154.418 304.965 L
155.823 302.097 L
157.316 300.186 L
159.424 298.274 L
161.357 298.274 L
162.938 294.451 L
166.188 291.584 L
169.35 288.717 L
172.16 282.027 L
175.235 280.115 L
177.87 277.248 L
180.944 274.381 L
183.579 271.513 L
186.39 265.779 L
189.464 263.867 L
192.977 261 L
196.666 260.044 L
200.443 258.133 L
205.098 255.266 L
209.753 252.398 L
213.969 250.487 L
217.834 246.664 L
222.402 243.796 L
227.847 240.929 L
233.732 239.973 L
239.617 235.195 L
246.029 234.239 L
252.968 231.372 L
258.15 229.46 L
266.231 226.593 L
274.048 220.858 L
280.987 217.035 L
290.736 214.168 L
297.587 210.345 L
308.655 208.434 L
318.843 202.699 L
328.681 196.965 L
338.87 196.009 L
350.376 194.097 L
361.706 192.186 L
373.564 186.451 L
385.685 186.451 L
399.826 182.628 L
415.022 181.673 L
432.852 179.761 L
451.473 177.85 L
468.425 174.027 L
486.08 172.115 L
504.613 168.292 L
522.794 165.425 L
542.645 164.469 L
564.164 162.557 L
586.035 161.602 L
607.203 158.735 L
632.06 155.867 L
656.39 153 L
685.112 149.177 L
713.482 147.265 L
741.062 145.354 L
772.419 142.487 L
800.965 139.619 L
830.389 138.664 L
862.273 136.752 L
893.279 133.885 L
905.092 133.885 L
S
GR
GS
0.467 0.675 0.188 RC
1 LJ
2 LW
N
130 531.058 M
130 524.788 L
130 519.053 L
130 515.23 L
130 505.673 L
130 500.894 L
130 499.938 L
130 496.115 L
130 493.248 L
130 487.513 L
130.088 483.69 L
130.176 478.911 L
130.176 477 L
130.176 471.266 L
130.176 466.487 L
130.176 462.664 L
130.176 460.752 L
130.439 458.841 L
130.527 455.973 L
130.703 453.106 L
130.878 449.283 L
130.878 446.416 L
130.878 436.858 L
130.966 433.035 L
131.054 428.257 L
131.054 425.389 L
131.142 424.434 L
131.23 416.788 L
131.23 412.965 L
131.318 406.274 L
131.405 398.628 L
131.405 395.761 L
131.581 388.115 L
131.669 382.381 L
132.108 379.513 L
132.196 373.779 L
132.196 369.956 L
132.547 366.133 L
132.723 363.265 L
133.162 357.531 L
133.426 352.752 L
133.601 348.929 L
133.601 344.15 L
133.865 341.283 L
134.216 337.46 L
134.48 333.637 L
134.831 327.903 L
135.446 325.035 L
135.709 324.08 L
136.148 319.301 L
136.851 312.611 L
137.378 308.788 L
137.642 308.788 L
137.993 306.876 L
138.432 300.186 L
139.047 295.407 L
139.31 294.451 L
140.101 292.54 L
140.54 290.628 L
141.067 288.717 L
142.033 286.805 L
142.999 281.071 L
143.878 279.159 L
144.844 277.248 L
146.601 276.292 L
147.742 275.336 L
149.236 272.469 L
151.519 271.513 L
152.573 266.734 L
155.033 264.823 L
156.965 261.956 L
158.634 259.088 L
161.181 258.133 L
164.08 256.221 L
166.012 253.354 L
168.647 251.442 L
172.16 251.442 L
175.937 247.62 L
179.363 245.708 L
182.788 242.841 L
186.126 237.106 L
188.585 234.239 L
193.153 231.372 L
197.808 230.416 L
203.254 222.77 L
207.733 219.903 L
213.355 217.991 L
216.165 216.08 L
222.841 211.301 L
229.34 209.389 L
236.894 208.434 L
245.678 206.522 L
253.056 203.655 L
258.062 201.743 L
266.846 196.965 L
276.507 192.186 L
284.764 190.274 L
296.973 188.363 L
307.776 186.451 L
315.506 185.496 L
327.539 180.717 L
340.802 175.938 L
353.977 174.982 L
368.909 173.071 L
383.05 169.248 L
395.698 167.336 L
414.319 165.425 L
431.271 162.557 L
450.243 160.646 L
469.83 159.69 L
489.242 155.867 L
510.849 152.044 L
524.287 151.089 L
546.949 150.133 L
574.441 147.265 L
601.494 144.398 L
631.094 142.487 L
662.45 138.664 L
683.706 137.708 L
714.887 135.797 L
750.197 134.841 L
788.053 132.929 L
825.295 129.106 L
866.665 129.106 L
889.063 127.195 L
905.092 126.811 L
S
GR
GS
1 GC
N
897 523 M
897 372 L
423 372 L
423 523 L
cp
f
GR
GS
[1 0 0 1 460 388.5] CT
/Helvetica 24 F
GS
[1 0 0 1 0 0] CT
0 8.5 moveto 
1 -1 scale
(original OSIRIS filter bank, EER = 6.40%) t 
GR
GR
GS
0 0.447 0.741 RC
1 LJ
2 LW
N
427 388.5 M
457 388.5 L
S
GR
GS
[1 0 0 1 460 418] CT
/Helvetica 24 F
GS
[1 0 0 1 0 0] CT
0 8.5 moveto 
1 -1 scale
(SFS, iteration 1, EER = 5.52%) t 
GR
GR
GS
0.851 0.325 0.098 RC
1 LJ
2 LW
N
427 418 M
457 418 L
S
GR
GS
[1 0 0 1 460 447.5] CT
/Helvetica 24 F
GS
[1 0 0 1 0 0] CT
0 8.5 moveto 
1 -1 scale
(SBS, iteration 1, EER = 4.94%) t 
GR
GR
GS
0.929 0.694 0.125 RC
1 LJ
2 LW
N
427 447.5 M
457 447.5 L
S
GR
GS
[1 0 0 1 460 477] CT
/Helvetica 24 F
GS
[1 0 0 1 0 0] CT
0 8.5 moveto 
1 -1 scale
(SFS, iteration 2, EER = 4.72%) t 
GR
GR
GS
0.494 0.184 0.557 RC
1 LJ
2 LW
N
427 477 M
457 477 L
S
GR
GS
[1 0 0 1 460 506.5] CT
/Helvetica 24 F
GS
[1 0 0 1 0 0] CT
0 8.5 moveto 
1 -1 scale
(SBS, iteration 2, EER = 4.39%) t 
GR
GR
GS
0.467 0.675 0.188 RC
1 LJ
2 LW
N
427 506.5 M
457 506.5 L
S
GR
GS
0.149 GC
10.0 ML
0.5 LW
N
423 523 M
423 372 L
897 372 L
897 523 L
cp
S
GR
%%Trailer
%%Pages: 1
%%EOF
