\relax 
\select@language{english}
\@writefile{toc}{\select@language{english}}
\@writefile{lof}{\select@language{english}}
\@writefile{lot}{\select@language{english}}
\@writefile{toc}{\contentsline {chapter}{List of Figures}{12}}
\@writefile{lof}{\addvspace {10\p@ }}
\@writefile{lot}{\addvspace {10\p@ }}
\@writefile{toc}{\contentsline {chapter}{List of Tables}{13}}
\@writefile{lof}{\addvspace {10\p@ }}
\@writefile{lot}{\addvspace {10\p@ }}
\@writefile{toc}{\contentsline {chapter}{List of Abbreviations}{14}}
\@writefile{lof}{\addvspace {10\p@ }}
\@writefile{lot}{\addvspace {10\p@ }}
\citation{Seppa2016}
\citation{Malmberg2016}
\citation{Mlynczak2015a}
\citation{Seppa2010}
\citation{Ansari2016}
\citation{NavarroTorne2015}
\@writefile{toc}{\contentsline {chapter}{\numberline {1\relax .\kern .5em }Introduction}{16}}
\@writefile{lof}{\addvspace {10\p@ }}
\@writefile{lot}{\addvspace {10\p@ }}
\@writefile{toc}{\contentsline {section}{\numberline {1.1\relax .\kern .5em }Motivation}{16}}
\@writefile{toc}{\contentsline {subsection}{\numberline {1.1.1\relax .\kern .5em }}{16}}
\bibdata{Referencje.bib}
\bibstyle{IEEEtran}
\@writefile{toc}{\contentsline {chapter}{Bibliography}{17}}
\@writefile{lof}{\addvspace {10\p@ }}
\@writefile{lot}{\addvspace {10\p@ }}
