\select@language {english}
\contentsline {chapter}{List of Figures}{12}
\contentsline {chapter}{List of Tables}{13}
\contentsline {chapter}{List of Abbreviations}{14}
\contentsline {chapter}{\numberline {1\relax .\kern .5em }Introduction}{16}
\contentsline {section}{\numberline {1.1\relax .\kern .5em }Motivation}{16}
\contentsline {subsection}{\numberline {1.1.1\relax .\kern .5em }}{16}
\contentsline {chapter}{Bibliography}{17}
