\relax 
\select@language{english}
\@writefile{toc}{\select@language{english}}
\@writefile{lof}{\select@language{english}}
\@writefile{lot}{\select@language{english}}
\@writefile{toc}{\contentsline {chapter}{List of Abbreviations}{4}}
\@writefile{lof}{\addvspace {10\p@ }}
\@writefile{lot}{\addvspace {10\p@ }}
\citation{WaymanJainBiometricSystemsBook2005}
\citation{JainRossBiometricsForensics2015}
\@writefile{toc}{\contentsline {chapter}{\numberline {1\relax .\kern .5em }Post-mortem iris recognition}{6}}
\@writefile{lof}{\addvspace {10\p@ }}
\@writefile{lot}{\addvspace {10\p@ }}
\newlabel{chapter:ColdIrisAssessment}{{1}{6}}
\@writefile{toc}{\contentsline {section}{\numberline {1.1\relax .\kern .5em }Iris recognition after death}{6}}
\citation{DaugmanPostMortem}
\citation{SaeedPostMortem}
\citation{IrisGuardPostMortem}
\citation{IriTechPostMortem}
\citation{SaeedPostMortem}
\citation{IrisGuardPostMortem}
\citation{IriTechPostMortem}
\@writefile{toc}{\contentsline {section}{\numberline {1.2\relax .\kern .5em }Related work}{7}}
\citation{BostonPostMortem}
\citation{PostMortemPigs}
\citation{RossPostMortem}
\citation{TrokielewiczPostMortemICB2016}
\citation{TrokielewiczPostMortemBTAS2016}
\citation{WarsawColdIris1}
\citation{BolmePostMortemBTAS2016}
\citation{Sauerwein_JFO_2017}
\citation{IriCoreIlluminationWavelength}
\@writefile{toc}{\contentsline {section}{\numberline {1.3\relax .\kern .5em }Dataset of cadaver iris images}{9}}
\@writefile{toc}{\contentsline {subsection}{\numberline {1.3.1\relax .\kern .5em }Data Collection}{9}}
\@writefile{lof}{\contentsline {figure}{\numberline {1.1}{\ignorespaces Hours post-mortem for each acquisition session plotted independently for each deceased subject.\relax }}{10}}
\providecommand*\caption@xref[2]{\@setref\relax\@undefined{#1}}
\newlabel{fig:sessions}{{1.1}{10}}
\citation{Prieto2015}
\@writefile{toc}{\contentsline {subsection}{\numberline {1.3.2\relax .\kern .5em }Statistics}{11}}
\newlabel{sec:DatabaseStats}{{1.3.2}{11}}
\@writefile{toc}{\contentsline {section}{\numberline {1.4\relax .\kern .5em }Medical background}{11}}
\citation{LARPKRAJANG20161}
\citation{Prieto2015}
\citation{Belsey2016}
\bibdata{refs}
\@writefile{toc}{\contentsline {section}{\numberline {1.5\relax .\kern .5em }Quantification of influence on iris recognition}{13}}
\@writefile{toc}{\contentsline {section}{\numberline {1.6\relax .\kern .5em }Results and discussion}{13}}
\bibcite{WaymanJainBiometricSystemsBook2005}{1}
\bibcite{JainRossBiometricsForensics2015}{2}
\bibcite{DaugmanPostMortem}{3}
\bibcite{SaeedPostMortem}{4}
\bibcite{IrisGuardPostMortem}{5}
\bibcite{IriTechPostMortem}{6}
\bibcite{BostonPostMortem}{7}
\bibcite{PostMortemPigs}{8}
\bibcite{RossPostMortem}{9}
\bibcite{TrokielewiczPostMortemICB2016}{10}
\bibcite{TrokielewiczPostMortemBTAS2016}{11}
\bibcite{WarsawColdIris1}{12}
\@writefile{toc}{\contentsline {chapter}{References}{14}}
\@writefile{lof}{\addvspace {10\p@ }}
\@writefile{lot}{\addvspace {10\p@ }}
\bibcite{BolmePostMortemBTAS2016}{13}
\bibcite{Sauerwein_JFO_2017}{14}
\bibcite{Prieto2015}{15}
\bibcite{LARPKRAJANG20161}{16}
\bibcite{Belsey2016}{17}
\bibstyle{IEEEtran}
\@writefile{toc}{\contentsline {chapter}{Appendix A: Terms and definitions used}{16}}
\@writefile{lof}{\addvspace {10\p@ }}
\@writefile{lot}{\addvspace {10\p@ }}
\@writefile{toc}{\contentsline {section}{Harmonized Biometric Vocabulary}{16}}
\@writefile{toc}{\contentsline {section}{ISO/IEC standard for biometric testing}{16}}
\@writefile{toc}{\contentsline {chapter}{Appendix B: \\Author's publications, talks, and awards}{17}}
\@writefile{lof}{\addvspace {10\p@ }}
\@writefile{lot}{\addvspace {10\p@ }}
\@writefile{toc}{\contentsline {section}{Journal publications}{17}}
\@writefile{toc}{\contentsline {section}{Conference publications}{17}}
\@writefile{toc}{\contentsline {section}{Poster conference presentations}{19}}
\@writefile{toc}{\contentsline {section}{Conference talks}{19}}
\@writefile{toc}{\contentsline {section}{Awards and achievements}{19}}
