This is BibTeX, Version 0.99d (TeX Live 2016)
Capacity: max_strings=35307, hash_size=35307, hash_prime=30011
The top-level auxiliary file: /Users/trokielewicz/Dropbox/Aplikacje/Texpad/Mateusz-PhD/.texpadtmp/Thesis.aux
A level-1 auxiliary file: chapters/introduction.aux
A level-1 auxiliary file: chapters/aging.aux
A level-1 auxiliary file: chapters/diseases.aux
A level-1 auxiliary file: chapters/postmortem.aux
A level-1 auxiliary file: chapters/methods.aux
A level-1 auxiliary file: chapters/conclusions.aux
The style file: IEEEtran.bst
Reallocated singl_function (elt_size=4) to 100 items from 50.
Reallocated singl_function (elt_size=4) to 100 items from 50.
Reallocated singl_function (elt_size=4) to 100 items from 50.
Reallocated wiz_functions (elt_size=4) to 6000 items from 3000.
Reallocated singl_function (elt_size=4) to 100 items from 50.
Database file #1: ../refs.bib
-- IEEEtran.bst version 1.14 (2015/08/26) by Michael Shell.
-- http://www.michaelshell.org/tex/ieeetran/bibtex/
-- See the "IEEEtran_bst_HOWTO.pdf" manual for usage information.

Done.
You've used 74 entries,
            4087 wiz_defined-function locations,
            1442 strings with 27926 characters,
and the built_in function-call counts, 43046 in all, are:
= -- 3451
> -- 1058
< -- 252
+ -- 559
- -- 201
* -- 1944
:= -- 6797
add.period$ -- 149
call.type$ -- 74
change.case$ -- 77
chr.to.int$ -- 585
cite$ -- 74
duplicate$ -- 3342
empty$ -- 3557
format.name$ -- 260
if$ -- 9943
int.to.chr$ -- 0
int.to.str$ -- 74
missing$ -- 586
newline$ -- 259
num.names$ -- 76
pop$ -- 1498
preamble$ -- 1
purify$ -- 0
quote$ -- 2
skip$ -- 3346
stack$ -- 0
substring$ -- 1429
swap$ -- 2409
text.length$ -- 57
text.prefix$ -- 0
top$ -- 5
type$ -- 74
warning$ -- 0
while$ -- 155
width$ -- 76
write$ -- 676
