\relax 
\catcode `"\active 
\select@language{english}
\@writefile{toc}{\select@language{english}}
\@writefile{lof}{\select@language{english}}
\@writefile{lot}{\select@language{english}}
\@writefile{toc}{\contentsline {chapter}{\numberline {1}Introduction}{}}
\@writefile{lof}{\addvspace {10\p@ }}
\@writefile{lot}{\addvspace {10\p@ }}
\@input{chapters/introduction.aux}
\@writefile{toc}{\contentsline {chapter}{\numberline {2}Aging influence}{}}
\@writefile{lof}{\addvspace {10\p@ }}
\@writefile{lot}{\addvspace {10\p@ }}
\@input{chapters/aging.aux}
\@writefile{toc}{\contentsline {chapter}{\numberline {3}Ophthalmic disorders influence}{}}
\@writefile{lof}{\addvspace {10\p@ }}
\@writefile{lot}{\addvspace {10\p@ }}
\@input{chapters/diseases.aux}
\@writefile{toc}{\contentsline {chapter}{\numberline {4}Post-mortem iris recognition}{}}
\@writefile{lof}{\addvspace {10\p@ }}
\@writefile{lot}{\addvspace {10\p@ }}
\@input{chapters/postmortem.aux}
\@writefile{toc}{\contentsline {chapter}{\numberline {5}Iris recognition under biologically troublesome conditions}{}}
\@writefile{lof}{\addvspace {10\p@ }}
\@writefile{lot}{\addvspace {10\p@ }}
\@input{chapters/methods.aux}
\@writefile{toc}{\contentsline {chapter}{\numberline {6}Conclusions and way forward}{}}
\@writefile{lof}{\addvspace {10\p@ }}
\@writefile{lot}{\addvspace {10\p@ }}
\@input{chapters/conclusions.aux}
\bibstyle{IEEEtran}
\bibdata{refs}
\bibcite{DaugmanAS}{1}
\bibcite{Daugman1993}{2}
\bibcite{IrisHandbook1}{3}
\bibcite{IrisHandbook2}{4}
\bibcite{BowyerSurvey2008}{5}
\bibcite{BowyerSurvey2010}{6}
\bibcite{CBSA}{7}
\bibcite{AADHAAR}{8}
\bibcite{IREXgeneral}{9}
\bibcite{CzajkaPupilDynamicsTIFS}{10}
\bibcite{Fenker2011}{11}
\bibcite{Fenker2012}{12}
\bibcite{Fenker2013}{13}
\bibcite{Czajka2013}{14}
\bibcite{TrokielewiczAgingIWBF2015}{15}
\bibcite{BowyerOrtiz2015}{16}
\bibcite{Grother2015}{17}
\bibcite{TrokielewiczPostMortemICB2016}{18}
\bibcite{TrokielewiczPostMortemBTAS2016}{19}
\bibcite{SafirFlom}{20}
\bibcite{DaugmanPatent}{21}
\bibcite{gonzalez2008}{22}
\bibcite{kevin2009factors}{23}
\bibcite{Baker2009}{24}
\bibcite{Baker2013}{25}
\bibcite{IREX6}{26}
\bibcite{BowyerIREX}{27}
\bibcite{AgingSensorIJCB14}{28}
\bibcite{Sazonova}{29}
\bibcite{Roizenblatt}{30}
\bibcite{Seyeddain2014}{31}
\bibcite{TrokielewiczWilga2014}{32}
\bibcite{Dhir}{33}
\bibcite{Yuan}{34}
\bibcite{Aslam}{35}
\bibcite{Uveitis}{36}
\bibcite{Borgen}{37}
\bibcite{McConnon2012}{38}
\bibcite{TrokielewiczCYBCONF2015}{39}
\bibcite{TrokielewiczBTAS2015}{40}
\bibcite{DaugmanPostMortem}{41}
\bibcite{SaeedPostMortem}{42}
\bibcite{IrisGuardPostMortem}{43}
\bibcite{IriTechPostMortem}{44}
\bibcite{BostonPostMortem}{45}
\bibcite{PostMortemPigs}{46}
\bibcite{RossPostMortem}{47}
\bibcite{WarsawColdIris1}{48}
\bibcite{BolmePostMortemBTAS2016}{49}
\bibcite{WuCNNsForSemanticSegmentation2014}{50}
\bibcite{LiPixelwiseClassificationCNNs2014}{51}
\bibcite{NohDeconvolutionNNsForSegmentation2015}{52}
\bibcite{VGGSimonyanCNNsForRecognition2014}{53}
\bibcite{PinheiroPixelWiseLabelingCNNs2015}{54}
\bibcite{HongSemanticSegmentation2015}{55}
\bibcite{ShelhamerCNNsForSemanticSegmentationTPAMI2016}{56}
\bibcite{YuCNNsForSemanticSegmentationARXIV2016}{57}
\bibcite{ZhaoKumarCNNsForPeriocularTIFS2016}{58}
\bibcite{BroussardNNsIrisSegmentation2009}{59}
\bibcite{LiuICB2016CNNsForIrisSegmentation}{60}
\bibcite{McGinnHumanExaminersIrisBTAS2013}{61}
\bibcite{ShenFlynnCrypts2012}{62}
\bibcite{ShenFlynnCryptsMinutiae2013}{63}
\bibcite{ShenFlynnCryptsBTAS2013}{64}
\bibcite{ShenFlynnCrypts2014}{65}
\bibcite{ShenFlynnCryptsTIFS2016}{66}
\bibcite{RossIrisMacroFeatures2010}{67}
\bibcite{HosseiniStromaAnalysisICB2007}{68}
\bibcite{HosseiniMelaninIrisRecTIFS2010}{69}
\bibcite{YangKeyPoints2004ICBA}{70}
\bibcite{MaKeyLocalVariationsTIP2004}{71}
\bibcite{deMiraMorphologicalIrisRec2003}{72}
\bibcite{MinaeeCNNforIrisRec2016}{73}
\bibcite{SunSIFTIrisCowsElsevier2013}{74}
\@writefile{toc}{\contentsline {chapter}{\numberline {A}List of author's publications and achievements}{}}
\@writefile{lof}{\addvspace {10\p@ }}
\@writefile{lot}{\addvspace {10\p@ }}
\@writefile{toc}{\contentsline {subsubsection}{JOURNAL PAPERS}{}}
\@writefile{toc}{\contentsline {subsubsection}{CONFERENCE PROCEEDINGS}{}}
\@writefile{toc}{\contentsline {subsubsection}{CONFERENCE TALKS}{}}
\@writefile{toc}{\contentsline {subsubsection}{POSTER PRESENTATIONS}{}}
\@writefile{toc}{\contentsline {subsubsection}{AWARDS AND ACHIEVEMENTS}{}}
\newlabel{appendix_papers}{{A}{}}
