\relax 
\citation{ColdTouchID}
\citation{TrokielewiczPostMortemICB2016}
\citation{TrokielewiczPostMortemBTAS2016}
\citation{BolmeBTAS2016}
\citation{TrokielewiczArxiv2018}
\citation{ColdIrisSPECTRUM}
\@writefile{toc}{\contentsline {section}{\numberline {1}\hskip -1em.\nobreakspace  {}Introduction}{1}}
\citation{Komulainen_IJCB_2014}
\citation{Doyle_ICB_2013}
\citation{Lovish_CAIP_2015}
\citation{Gragnaniello_TIFS_2015}
\citation{Sequeira_TSP_2016}
\citation{Gragnaniello_SITIS_2014}
\citation{Pala_CVPR_2017}
\citation{Gragnaniello_TIFS_2015}
\citation{Chen_PRL_2012}
\citation{Galbally_Handbook_2016}
\citation{Menotti:TIFS:2015}
\citation{He_BTAS_2016}
\citation{Pala_CVPR_2017}
\citation{Raghavendra_WACV_2017}
\citation{Thavalengal_TCE_2016}
\citation{Pacut_ICCST_2006}
\citation{Hughes_HICSS_2013}
\citation{Raja_TIFS_2015}
\citation{Rigas_PRL_2015}
\citation{Czajka_TIFS_2015}
\citation{CzajkaPADSurvey2018}
\citation{Yambay2017}
\citation{VGGSimonyanCNNsForRecognition2014}
\citation{SemanticSegmentationREVIEWarxiv}
\citation{JohnsonKarpathyDenseCapCVPR2016}
\citation{RenVQAExploringModelsNIPS2015}
\citation{TrokielewiczPostMortemBTAS2016}
\@writefile{toc}{\contentsline {section}{\numberline {2}\hskip -1em.\nobreakspace  {}Related work}{2}}
\newlabel{sec:related}{{2}{2}}
\@writefile{toc}{\contentsline {subsection}{\numberline {2.1}\hskip -1em.\nobreakspace  {}Presentation Attack Detection in iris recognition}{2}}
\@writefile{toc}{\contentsline {subsection}{\numberline {2.2}\hskip -1em.\nobreakspace  {}Deep convolutional nets in image classification}{2}}
\citation{TrokielewiczPostMortemSegmentationIWBF2018}
\citation{CAMZhou}
\citation{GradCAMSelvaraju}
\citation{GuidedBackPropSpringenberg}
\citation{WarsawColdIris1}
\citation{ISO2}
\@writefile{toc}{\contentsline {subsection}{\numberline {2.3}\hskip -1em.\nobreakspace  {}Explaining deep networks' decisions}{3}}
\newlabel{sec:CAM}{{2.3}{3}}
\@writefile{toc}{\contentsline {section}{\numberline {3}\hskip -1em.\nobreakspace  {}Experimental dataset}{3}}
\newlabel{sec:data}{{3}{3}}
\@writefile{toc}{\contentsline {subsection}{\numberline {3.1}\hskip -1em.\nobreakspace  {}Post-mortem iris images}{3}}
\@writefile{toc}{\contentsline {subsection}{\numberline {3.2}\hskip -1em.\nobreakspace  {}Images of live irises}{3}}
\@writefile{toc}{\contentsline {subsection}{\numberline {3.3}\hskip -1em.\nobreakspace  {}Analysis of potential data bias}{3}}
\citation{ISO2}
\citation{ISO2}
\citation{WarsawColdIris1}
\@writefile{lof}{\contentsline {figure}{\numberline {1}{\ignorespaces Boxplots representing differences in image quality metrics between the two datasets. Median values are shown in red, height of each boxes corresponds to an inter-quartile range (IQR) spanning from the first (Q1) to the third (Q3) quartile, whiskers span from Q1-1.5*IQR to Q3+1.5*IQR, and outliers are shown as crosses.\relax }}{4}}
\providecommand*\caption@xref[2]{\@setref\relax\@undefined{#1}}
\newlabel{fig:boxplots}{{1}{4}}
\@writefile{lof}{\contentsline {figure}{\numberline {2}{\ignorespaces Example iris images obtained from a dead \textbf  {(left)} and a live subject \textbf  {(right)}: original images \textbf  {(top row)} and their cropped and cropped\_masked versions \textbf  {(bottom row)}.\relax }}{4}}
\newlabel{fig:samplesFromDataset}{{2}{4}}
\@writefile{toc}{\contentsline {subsection}{\numberline {3.4}\hskip -1em.\nobreakspace  {}Assessing data bias with Grad-CAM}{4}}
\citation{Keras}
\citation{GradCAMCode}
\@writefile{toc}{\contentsline {subsection}{\numberline {3.5}\hskip -1em.\nobreakspace  {}Dataset modification to counteract the bias}{5}}
\@writefile{lof}{\contentsline {figure}{\numberline {3}{\ignorespaces Example class activation maps obtained using the Grad-CAM technique for samples from the original, unmodified dataset, with a model trained on the original dataset. From left to right: (1) original image, (2) Grad-CAM, (3) guided back-propagation, (4) a combination of (2) and (3). \textbf  {Post-mortem samples are represented here, both correctly classified}.\relax }}{5}}
\newlabel{fig:bias-analysis-cam-cold}{{3}{5}}
\@writefile{lof}{\contentsline {figure}{\numberline {4}{\ignorespaces Same as in Fig. 3\hbox {}, but this \textbf  {post-mortem sample was misclassified as a live one}.\relax }}{5}}
\newlabel{fig:bias-analysis-cam-cold-failure}{{4}{5}}
\@writefile{lof}{\contentsline {figure}{\numberline {5}{\ignorespaces Same as in Fig. 3\hbox {}, but for \textbf  {samples of live irises}.\relax }}{5}}
\newlabel{fig:bias-analysis-cam-warm}{{5}{5}}
\citation{VGGSimonyanCNNsForRecognition2014}
\@writefile{lof}{\contentsline {figure}{\numberline {6}{\ignorespaces Example class activation maps obtained using the Grad-CAM technique for samples from the \emph  {cropped\_masked} dataset, with a model trained on the \emph  {cropped\_masked} dataset as well. From left to right: (1) original image, (2) Grad-CAM, (3) guided back-propagation, (4) a combination of (2) and (3). \textbf  {Post-mortem samples are represented here, both correctly classified.}\relax }}{6}}
\newlabel{fig:bias-analysis-cam-cold-cropped}{{6}{6}}
\@writefile{lof}{\contentsline {figure}{\numberline {7}{\ignorespaces Cropped version of the post-mortem sample misclassified earlier in Fig. 4\hbox {}. The classification is now \textbf  {correct}.\relax }}{6}}
\newlabel{fig:bias-analysis-cam-cold-failure-cropped}{{7}{6}}
\@writefile{lof}{\contentsline {figure}{\numberline {8}{\ignorespaces Same as in Fig. 6\hbox {}, but for \textbf  {samples of live irises}.\relax }}{6}}
\newlabel{fig:bias-analysis-cam-warm-cropped}{{8}{6}}
\@writefile{toc}{\contentsline {section}{\numberline {4}\hskip -1em.\nobreakspace  {}Proposed methodology and evaluation}{6}}
\newlabel{sec:experiments}{{4}{6}}
\@writefile{toc}{\contentsline {subsection}{\numberline {4.1}\hskip -1em.\nobreakspace  {}Model architecture}{6}}
\@writefile{toc}{\contentsline {subsection}{\numberline {4.2}\hskip -1em.\nobreakspace  {}Training and evaluation procedure}{6}}
\@writefile{lof}{\contentsline {figure}{\numberline {9}{\ignorespaces Accuracy of classification into live and post-mortem classes, achieved in 20 independent, subject-disjoint train/test data splits.\relax }}{7}}
\newlabel{fig:accuracy-averaged}{{9}{7}}
\@writefile{toc}{\contentsline {section}{\numberline {5}\hskip -1em.\nobreakspace  {}Results}{7}}
\newlabel{sec:results}{{5}{7}}
\@writefile{toc}{\contentsline {subsection}{\numberline {5.1}\hskip -1em.\nobreakspace  {}Averaged classification accuracy}{7}}
\@writefile{toc}{\contentsline {subsection}{\numberline {5.2}\hskip -1em.\nobreakspace  {}Global performance by Receiver Operating Characteristic}{7}}
\@writefile{toc}{\contentsline {subsection}{\numberline {5.3}\hskip -1em.\nobreakspace  {}Classification accuracy in respect to post-mortem time horizon}{7}}
\@writefile{toc}{\contentsline {section}{\numberline {6}\hskip -1em.\nobreakspace  {}Conclusions}{7}}
\newlabel{sec:conclusions}{{6}{7}}
\bibcite{BolmeBTAS2016}{1}
\@writefile{lof}{\contentsline {figure}{\numberline {10}{\ignorespaces Boxplots representing differences in liveness scores earned by the samples acquired in different moments after death. {\bf  The lower the score, the more likely the sample represents a post-mortem eye}. Samples denoted as acquired \textbf  {zero hours} post-mortem are those collected from live irises.\relax }}{8}}
\newlabel{fig:accuracy-timewise}{{10}{8}}
\@writefile{lof}{\contentsline {figure}{\numberline {11}{\ignorespaces Means (solid black line) and standard deviations (grey areas) of liveness score predicted by the network for samples obtained up to 27 hours after death. Samples denoted as acquired \textbf  {zero hours} post-mortem are those collected from live irises.\relax }}{8}}
\newlabel{fig:accuracy-timewise-short}{{11}{8}}
\@writefile{lof}{\contentsline {figure}{\numberline {12}{\ignorespaces ROC curve showing classification accuracy averaged over 20 independent, subject-disjoint train/test data splits. AUC denotes the Area Under Curve metric.\relax }}{8}}
\newlabel{fig:ROC-averaged}{{12}{8}}
\bibcite{Chen_PRL_2012}{2}
\bibcite{Keras}{3}
\bibcite{Czajka_TIFS_2015}{4}
\bibcite{CzajkaPADSurvey2018}{5}
\bibcite{Doyle_ICB_2013}{6}
\bibcite{ColdIrisSPECTRUM}{7}
\bibcite{Galbally_Handbook_2016}{8}
\bibcite{SemanticSegmentationREVIEWarxiv}{9}
\bibcite{Gragnaniello_SITIS_2014}{10}
\bibcite{Gragnaniello_TIFS_2015}{11}
\bibcite{He_BTAS_2016}{12}
\bibcite{Hughes_HICSS_2013}{13}
\bibcite{ISO2}{14}
\bibcite{JohnsonKarpathyDenseCapCVPR2016}{15}
\bibcite{Komulainen_IJCB_2014}{16}
\bibcite{Lovish_CAIP_2015}{17}
\bibcite{TrokielewiczArxiv2018}{18}
\bibcite{Menotti:TIFS:2015}{19}
\bibcite{Pacut_ICCST_2006}{20}
\bibcite{Pala_CVPR_2017}{21}
\bibcite{GradCAMCode}{22}
\bibcite{Raghavendra_WACV_2017}{23}
\bibcite{Raja_TIFS_2015}{24}
\bibcite{RenVQAExploringModelsNIPS2015}{25}
\bibcite{Rigas_PRL_2015}{26}
\bibcite{GradCAMSelvaraju}{27}
\bibcite{Sequeira_TSP_2016}{28}
\bibcite{VGGSimonyanCNNsForRecognition2014}{29}
\bibcite{GuidedBackPropSpringenberg}{30}
\bibcite{Thavalengal_TCE_2016}{31}
\bibcite{ColdTouchID}{32}
\bibcite{TrokielewiczPostMortemSegmentationIWBF2018}{33}
\bibcite{TrokielewiczPostMortemBTAS2016}{34}
\bibcite{TrokielewiczPostMortemICB2016}{35}
\bibcite{WarsawColdIris1}{36}
\bibcite{Yambay2017}{37}
\bibcite{CAMZhou}{38}
