%!PS-Adobe-3.0 EPSF-3.0
%%Creator: (MATLAB, The Mathworks, Inc. Version 9.3.0.713579 \(R2017b\). Operating System: Mac OS X)
%%Title: ./ROCs_postmortem_48_closeup.eps
%%CreationDate: 2019-01-22T12:53:10
%%Pages: (atend)
%%BoundingBox:    48     5   927   587
%%LanguageLevel: 3
%%EndComments
%%BeginProlog
%%BeginResource: procset (Apache XML Graphics Std ProcSet) 1.2 0
%%Version: 1.2 0
%%Copyright: (Copyright 2001-2003,2010 The Apache Software Foundation. License terms: http://www.apache.org/licenses/LICENSE-2.0)
/bd{bind def}bind def
/ld{load def}bd
/GR/grestore ld
/GS/gsave ld
/RM/rmoveto ld
/C/curveto ld
/t/show ld
/L/lineto ld
/ML/setmiterlimit ld
/CT/concat ld
/f/fill ld
/N/newpath ld
/S/stroke ld
/CC/setcmykcolor ld
/A/ashow ld
/cp/closepath ld
/RC/setrgbcolor ld
/LJ/setlinejoin ld
/GC/setgray ld
/LW/setlinewidth ld
/M/moveto ld
/re {4 2 roll M
1 index 0 rlineto
0 exch rlineto
neg 0 rlineto
cp } bd
/_ctm matrix def
/_tm matrix def
/BT { _ctm currentmatrix pop matrix _tm copy pop 0 0 moveto } bd
/ET { _ctm setmatrix } bd
/iTm { _ctm setmatrix _tm concat } bd
/Tm { _tm astore pop iTm 0 0 moveto } bd
/ux 0.0 def
/uy 0.0 def
/F {
  /Tp exch def
  /Tf exch def
  Tf findfont Tp scalefont setfont
  /cf Tf def  /cs Tp def
} bd
/ULS {currentpoint /uy exch def /ux exch def} bd
/ULE {
  /Tcx currentpoint pop def
  gsave
  newpath
  cf findfont cs scalefont dup
  /FontMatrix get 0 get /Ts exch def /FontInfo get dup
  /UnderlinePosition get Ts mul /To exch def
  /UnderlineThickness get Ts mul /Tt exch def
  ux uy To add moveto  Tcx uy To add lineto
  Tt setlinewidth stroke
  grestore
} bd
/OLE {
  /Tcx currentpoint pop def
  gsave
  newpath
  cf findfont cs scalefont dup
  /FontMatrix get 0 get /Ts exch def /FontInfo get dup
  /UnderlinePosition get Ts mul /To exch def
  /UnderlineThickness get Ts mul /Tt exch def
  ux uy To add cs add moveto Tcx uy To add cs add lineto
  Tt setlinewidth stroke
  grestore
} bd
/SOE {
  /Tcx currentpoint pop def
  gsave
  newpath
  cf findfont cs scalefont dup
  /FontMatrix get 0 get /Ts exch def /FontInfo get dup
  /UnderlinePosition get Ts mul /To exch def
  /UnderlineThickness get Ts mul /Tt exch def
  ux uy To add cs 10 mul 26 idiv add moveto Tcx uy To add cs 10 mul 26 idiv add lineto
  Tt setlinewidth stroke
  grestore
} bd
/QT {
/Y22 exch store
/X22 exch store
/Y21 exch store
/X21 exch store
currentpoint
/Y21 load 2 mul add 3 div exch
/X21 load 2 mul add 3 div exch
/X21 load 2 mul /X22 load add 3 div
/Y21 load 2 mul /Y22 load add 3 div
/X22 load /Y22 load curveto
} bd
/SSPD {
dup length /d exch dict def
{
/v exch def
/k exch def
currentpagedevice k known {
/cpdv currentpagedevice k get def
v cpdv ne {
/upd false def
/nullv v type /nulltype eq def
/nullcpdv cpdv type /nulltype eq def
nullv nullcpdv or
{
/upd true def
} {
/sametype v type cpdv type eq def
sametype {
v type /arraytype eq {
/vlen v length def
/cpdvlen cpdv length def
vlen cpdvlen eq {
0 1 vlen 1 sub {
/i exch def
/obj v i get def
/cpdobj cpdv i get def
obj cpdobj ne {
/upd true def
exit
} if
} for
} {
/upd true def
} ifelse
} {
v type /dicttype eq {
v {
/dv exch def
/dk exch def
/cpddv cpdv dk get def
dv cpddv ne {
/upd true def
exit
} if
} forall
} {
/upd true def
} ifelse
} ifelse
} if
} ifelse
upd true eq {
d k v put
} if
} if
} if
} forall
d length 0 gt {
d setpagedevice
} if
} bd
/RE { % /NewFontName [NewEncodingArray] /FontName RE -
  findfont dup length dict begin
  {
    1 index /FID ne
    {def} {pop pop} ifelse
  } forall
  /Encoding exch def
  /FontName 1 index def
  currentdict definefont pop
  end
} bind def
%%EndResource
%%BeginResource: procset (Apache XML Graphics EPS ProcSet) 1.0 0
%%Version: 1.0 0
%%Copyright: (Copyright 2002-2003 The Apache Software Foundation. License terms: http://www.apache.org/licenses/LICENSE-2.0)
/BeginEPSF { %def
/b4_Inc_state save def         % Save state for cleanup
/dict_count countdictstack def % Count objects on dict stack
/op_count count 1 sub def      % Count objects on operand stack
userdict begin                 % Push userdict on dict stack
/showpage { } def              % Redefine showpage, { } = null proc
0 setgray 0 setlinecap         % Prepare graphics state
1 setlinewidth 0 setlinejoin
10 setmiterlimit [ ] 0 setdash newpath
/languagelevel where           % If level not equal to 1 then
{pop languagelevel             % set strokeadjust and
1 ne                           % overprint to their defaults.
{false setstrokeadjust false setoverprint
} if
} if
} bd
/EndEPSF { %def
count op_count sub {pop} repeat            % Clean up stacks
countdictstack dict_count sub {end} repeat
b4_Inc_state restore
} bd
%%EndResource
%FOPBeginFontDict
%%IncludeResource: font Courier-Oblique
%%IncludeResource: font Courier-BoldOblique
%%IncludeResource: font Courier-Bold
%%IncludeResource: font ZapfDingbats
%%IncludeResource: font Symbol
%%IncludeResource: font Helvetica
%%IncludeResource: font Helvetica-Oblique
%%IncludeResource: font Helvetica-Bold
%%IncludeResource: font Helvetica-BoldOblique
%%IncludeResource: font Times-Roman
%%IncludeResource: font Times-Italic
%%IncludeResource: font Times-Bold
%%IncludeResource: font Times-BoldItalic
%%IncludeResource: font Courier
%FOPEndFontDict
%%BeginResource: encoding WinAnsiEncoding
/WinAnsiEncoding [
/.notdef /.notdef /.notdef /.notdef /.notdef
/.notdef /.notdef /.notdef /.notdef /.notdef
/.notdef /.notdef /.notdef /.notdef /.notdef
/.notdef /.notdef /.notdef /.notdef /.notdef
/.notdef /.notdef /.notdef /.notdef /.notdef
/.notdef /.notdef /.notdef /.notdef /.notdef
/.notdef /.notdef /space /exclam /quotedbl
/numbersign /dollar /percent /ampersand /quotesingle
/parenleft /parenright /asterisk /plus /comma
/hyphen /period /slash /zero /one
/two /three /four /five /six
/seven /eight /nine /colon /semicolon
/less /equal /greater /question /at
/A /B /C /D /E
/F /G /H /I /J
/K /L /M /N /O
/P /Q /R /S /T
/U /V /W /X /Y
/Z /bracketleft /backslash /bracketright /asciicircum
/underscore /quoteleft /a /b /c
/d /e /f /g /h
/i /j /k /l /m
/n /o /p /q /r
/s /t /u /v /w
/x /y /z /braceleft /bar
/braceright /asciitilde /bullet /Euro /bullet
/quotesinglbase /florin /quotedblbase /ellipsis /dagger
/daggerdbl /circumflex /perthousand /Scaron /guilsinglleft
/OE /bullet /Zcaron /bullet /bullet
/quoteleft /quoteright /quotedblleft /quotedblright /bullet
/endash /emdash /asciitilde /trademark /scaron
/guilsinglright /oe /bullet /zcaron /Ydieresis
/space /exclamdown /cent /sterling /currency
/yen /brokenbar /section /dieresis /copyright
/ordfeminine /guillemotleft /logicalnot /sfthyphen /registered
/macron /degree /plusminus /twosuperior /threesuperior
/acute /mu /paragraph /middot /cedilla
/onesuperior /ordmasculine /guillemotright /onequarter /onehalf
/threequarters /questiondown /Agrave /Aacute /Acircumflex
/Atilde /Adieresis /Aring /AE /Ccedilla
/Egrave /Eacute /Ecircumflex /Edieresis /Igrave
/Iacute /Icircumflex /Idieresis /Eth /Ntilde
/Ograve /Oacute /Ocircumflex /Otilde /Odieresis
/multiply /Oslash /Ugrave /Uacute /Ucircumflex
/Udieresis /Yacute /Thorn /germandbls /agrave
/aacute /acircumflex /atilde /adieresis /aring
/ae /ccedilla /egrave /eacute /ecircumflex
/edieresis /igrave /iacute /icircumflex /idieresis
/eth /ntilde /ograve /oacute /ocircumflex
/otilde /odieresis /divide /oslash /ugrave
/uacute /ucircumflex /udieresis /yacute /thorn
/ydieresis
] def
%%EndResource
%FOPBeginFontReencode
/Courier-Oblique findfont
dup length dict begin
  {1 index /FID ne {def} {pop pop} ifelse} forall
  /Encoding WinAnsiEncoding def
  currentdict
end
/Courier-Oblique exch definefont pop
/Courier-BoldOblique findfont
dup length dict begin
  {1 index /FID ne {def} {pop pop} ifelse} forall
  /Encoding WinAnsiEncoding def
  currentdict
end
/Courier-BoldOblique exch definefont pop
/Courier-Bold findfont
dup length dict begin
  {1 index /FID ne {def} {pop pop} ifelse} forall
  /Encoding WinAnsiEncoding def
  currentdict
end
/Courier-Bold exch definefont pop
/Helvetica findfont
dup length dict begin
  {1 index /FID ne {def} {pop pop} ifelse} forall
  /Encoding WinAnsiEncoding def
  currentdict
end
/Helvetica exch definefont pop
/Helvetica-Oblique findfont
dup length dict begin
  {1 index /FID ne {def} {pop pop} ifelse} forall
  /Encoding WinAnsiEncoding def
  currentdict
end
/Helvetica-Oblique exch definefont pop
/Helvetica-Bold findfont
dup length dict begin
  {1 index /FID ne {def} {pop pop} ifelse} forall
  /Encoding WinAnsiEncoding def
  currentdict
end
/Helvetica-Bold exch definefont pop
/Helvetica-BoldOblique findfont
dup length dict begin
  {1 index /FID ne {def} {pop pop} ifelse} forall
  /Encoding WinAnsiEncoding def
  currentdict
end
/Helvetica-BoldOblique exch definefont pop
/Times-Roman findfont
dup length dict begin
  {1 index /FID ne {def} {pop pop} ifelse} forall
  /Encoding WinAnsiEncoding def
  currentdict
end
/Times-Roman exch definefont pop
/Times-Italic findfont
dup length dict begin
  {1 index /FID ne {def} {pop pop} ifelse} forall
  /Encoding WinAnsiEncoding def
  currentdict
end
/Times-Italic exch definefont pop
/Times-Bold findfont
dup length dict begin
  {1 index /FID ne {def} {pop pop} ifelse} forall
  /Encoding WinAnsiEncoding def
  currentdict
end
/Times-Bold exch definefont pop
/Times-BoldItalic findfont
dup length dict begin
  {1 index /FID ne {def} {pop pop} ifelse} forall
  /Encoding WinAnsiEncoding def
  currentdict
end
/Times-BoldItalic exch definefont pop
/Courier findfont
dup length dict begin
  {1 index /FID ne {def} {pop pop} ifelse} forall
  /Encoding WinAnsiEncoding def
  currentdict
end
/Courier exch definefont pop
%FOPEndFontReencode
%%EndProlog
%%Page: 1 1
%%PageBoundingBox: 0 0 1000 600
%%BeginPageSetup
[1 0 0 -1 0 600] CT
%%EndPageSetup
GS
1 GC
N
0 0 1000 600 re
f
GR
GS
1 GC
N
0 0 1000 600 re
f
GR
GS
1 GC
N
130 531 M
905 531 L
905 45 L
130 45 L
cp
f
GR
GS
0.873 GC
1 LJ
0.5 LW
N
130 531 M
130 45 L
S
GR
GS
0.873 GC
1 LJ
0.5 LW
N
285 531 M
285 45 L
S
GR
GS
0.873 GC
1 LJ
0.5 LW
N
440 531 M
440 45 L
S
GR
GS
0.873 GC
1 LJ
0.5 LW
N
595 531 M
595 45 L
S
GR
GS
0.873 GC
1 LJ
0.5 LW
N
750 531 M
750 45 L
S
GR
GS
0.873 GC
1 LJ
0.5 LW
N
905 531 M
905 45 L
S
GR
GS
0.873 GC
1 LJ
0.5 LW
N
905 531 M
130 531 L
S
GR
GS
0.873 GC
1 LJ
0.5 LW
N
905 450 M
130 450 L
S
GR
GS
0.873 GC
1 LJ
0.5 LW
N
905 369 M
130 369 L
S
GR
GS
0.873 GC
1 LJ
0.5 LW
N
905 288 M
130 288 L
S
GR
GS
0.873 GC
1 LJ
0.5 LW
N
905 207 M
130 207 L
S
GR
GS
0.873 GC
1 LJ
0.5 LW
N
905 126 M
130 126 L
S
GR
GS
0.873 GC
1 LJ
0.5 LW
N
905 45 M
130 45 L
S
GR
GS
0.149 GC
2 setlinecap
1 LJ
0.5 LW
N
130 531 M
905 531 L
S
GR
GS
0.149 GC
2 setlinecap
1 LJ
0.5 LW
N
130 45 M
905 45 L
S
GR
GS
0.149 GC
2 setlinecap
1 LJ
0.5 LW
N
130 531 M
130 523.25 L
S
GR
GS
0.149 GC
2 setlinecap
1 LJ
0.5 LW
N
285 531 M
285 523.25 L
S
GR
GS
0.149 GC
2 setlinecap
1 LJ
0.5 LW
N
440 531 M
440 523.25 L
S
GR
GS
0.149 GC
2 setlinecap
1 LJ
0.5 LW
N
595 531 M
595 523.25 L
S
GR
GS
0.149 GC
2 setlinecap
1 LJ
0.5 LW
N
750 531 M
750 523.25 L
S
GR
GS
0.149 GC
2 setlinecap
1 LJ
0.5 LW
N
905 531 M
905 523.25 L
S
GR
GS
0.149 GC
2 setlinecap
1 LJ
0.5 LW
N
130 45 M
130 52.75 L
S
GR
GS
0.149 GC
2 setlinecap
1 LJ
0.5 LW
N
285 45 M
285 52.75 L
S
GR
GS
0.149 GC
2 setlinecap
1 LJ
0.5 LW
N
440 45 M
440 52.75 L
S
GR
GS
0.149 GC
2 setlinecap
1 LJ
0.5 LW
N
595 45 M
595 52.75 L
S
GR
GS
0.149 GC
2 setlinecap
1 LJ
0.5 LW
N
750 45 M
750 52.75 L
S
GR
GS
0.149 GC
2 setlinecap
1 LJ
0.5 LW
N
905 45 M
905 52.75 L
S
GR
GS
[1 0 0 1 130 537.80005] CT
0.149 GC
/Helvetica 24 F
GS
[1 0 0 1 0 0] CT
-7 23 moveto 
1 -1 scale
(0) t 
GR
GR
GS
[1 0 0 1 285 537.80005] CT
0.149 GC
/Helvetica 24 F
GS
[1 0 0 1 0 0] CT
-23.5 23 moveto 
1 -1 scale
(0.01) t 
GR
GR
GS
[1 0 0 1 440 537.80005] CT
0.149 GC
/Helvetica 24 F
GS
[1 0 0 1 0 0] CT
-23.5 23 moveto 
1 -1 scale
(0.02) t 
GR
GR
GS
[1 0 0 1 595 537.80005] CT
0.149 GC
/Helvetica 24 F
GS
[1 0 0 1 0 0] CT
-23.5 23 moveto 
1 -1 scale
(0.03) t 
GR
GR
GS
[1 0 0 1 750 537.80005] CT
0.149 GC
/Helvetica 24 F
GS
[1 0 0 1 0 0] CT
-23.5 23 moveto 
1 -1 scale
(0.04) t 
GR
GR
GS
[1 0 0 1 905 537.80005] CT
0.149 GC
/Helvetica 24 F
GS
[1 0 0 1 0 0] CT
-23.5 23 moveto 
1 -1 scale
(0.05) t 
GR
GR
GS
[1 0 0 1 517.50037 567.79999] CT
0.149 GC
/Helvetica 26.4 F
GS
[1 0 0 1 0 0] CT
-103.5 26 moveto 
1 -1 scale
(False Match Rate) t 
GR
GR
GS
0.149 GC
2 setlinecap
1 LJ
0.5 LW
N
130 531 M
130 45 L
S
GR
GS
0.149 GC
2 setlinecap
1 LJ
0.5 LW
N
905 531 M
905 45 L
S
GR
GS
0.149 GC
2 setlinecap
1 LJ
0.5 LW
N
130 531 M
137.75 531 L
S
GR
GS
0.149 GC
2 setlinecap
1 LJ
0.5 LW
N
130 450 M
137.75 450 L
S
GR
GS
0.149 GC
2 setlinecap
1 LJ
0.5 LW
N
130 369 M
137.75 369 L
S
GR
GS
0.149 GC
2 setlinecap
1 LJ
0.5 LW
N
130 288 M
137.75 288 L
S
GR
GS
0.149 GC
2 setlinecap
1 LJ
0.5 LW
N
130 207 M
137.75 207 L
S
GR
GS
0.149 GC
2 setlinecap
1 LJ
0.5 LW
N
130 126 M
137.75 126 L
S
GR
GS
0.149 GC
2 setlinecap
1 LJ
0.5 LW
N
130 45 M
137.75 45 L
S
GR
GS
0.149 GC
2 setlinecap
1 LJ
0.5 LW
N
905 531 M
897.25 531 L
S
GR
GS
0.149 GC
2 setlinecap
1 LJ
0.5 LW
N
905 450 M
897.25 450 L
S
GR
GS
0.149 GC
2 setlinecap
1 LJ
0.5 LW
N
905 369 M
897.25 369 L
S
GR
GS
0.149 GC
2 setlinecap
1 LJ
0.5 LW
N
905 288 M
897.25 288 L
S
GR
GS
0.149 GC
2 setlinecap
1 LJ
0.5 LW
N
905 207 M
897.25 207 L
S
GR
GS
0.149 GC
2 setlinecap
1 LJ
0.5 LW
N
905 126 M
897.25 126 L
S
GR
GS
0.149 GC
2 setlinecap
1 LJ
0.5 LW
N
905 45 M
897.25 45 L
S
GR
GS
[1 0 0 1 123.2 531] CT
0.149 GC
/Helvetica 24 F
GS
[1 0 0 1 0 0] CT
-34 8.5 moveto 
1 -1 scale
(0.7) t 
GR
GR
GS
[1 0 0 1 123.2 450] CT
0.149 GC
/Helvetica 24 F
GS
[1 0 0 1 0 0] CT
-47 8.5 moveto 
1 -1 scale
(0.75) t 
GR
GR
GS
[1 0 0 1 123.2 368.99997] CT
0.149 GC
/Helvetica 24 F
GS
[1 0 0 1 0 0] CT
-34 8.5 moveto 
1 -1 scale
(0.8) t 
GR
GR
GS
[1 0 0 1 123.2 287.99997] CT
0.149 GC
/Helvetica 24 F
GS
[1 0 0 1 0 0] CT
-47 8.5 moveto 
1 -1 scale
(0.85) t 
GR
GR
GS
[1 0 0 1 123.2 207.00005] CT
0.149 GC
/Helvetica 24 F
GS
[1 0 0 1 0 0] CT
-34 8.5 moveto 
1 -1 scale
(0.9) t 
GR
GR
GS
[1 0 0 1 123.2 126.00002] CT
0.149 GC
/Helvetica 24 F
GS
[1 0 0 1 0 0] CT
-47 8.5 moveto 
1 -1 scale
(0.95) t 
GR
GR
GS
[1 0 0 1 123.2 45] CT
0.149 GC
/Helvetica 24 F
GS
[1 0 0 1 0 0] CT
-14 8.5 moveto 
1 -1 scale
(1) t 
GR
GR
GS
[0 -1 1 0 73.2 287.99976] CT
0.149 GC
/Helvetica 26.4 F
GS
[1 0 0 1 0 0] CT
-153 -6 moveto 
1 -1 scale
(1 - False Non-Match Rate) t 
GR
GR
GS
[1 0 0 1 517.50049 38.39996] CT
/Helvetica-Bold 26.4 F
GS
[1 0 0 1 0 0] CT
-279.5 -6 moveto 
1 -1 scale
(Data acquired less than 48 hours after death) t 
GR
GR
GS
0 0 1 RC
1 LJ
2 LW
N
185.683 531.058 M
186.987 530.337 L
189.987 527.025 L
195.103 525.368 L
198.808 523.712 L
204.63 520.399 L
209.923 517.086 L
215.216 513.773 L
218.745 510.46 L
225.273 507.147 L
229.86 507.147 L
235.859 505.491 L
242.21 505.491 L
248.738 503.834 L
257.03 500.521 L
264.264 498.865 L
273.438 493.896 L
281.025 493.896 L
290.552 493.896 L
296.904 492.239 L
304.667 490.583 L
313.665 490.583 L
322.663 490.583 L
337.659 488.926 L
349.127 485.613 L
359.008 483.957 L
371.711 483.957 L
385.119 478.988 L
400.822 478.988 L
414.936 478.988 L
430.991 478.988 L
448.987 477.331 L
467.866 475.675 L
483.921 475.675 L
505.445 474.018 L
521.853 472.362 L
545.848 470.706 L
570.019 469.049 L
593.308 465.736 L
615.009 462.423 L
639.18 462.423 L
669.35 459.11 L
694.05 454.141 L
723.338 452.485 L
749.802 452.485 L
779.266 452.485 L
812.788 450.828 L
842.429 449.172 L
877.009 447.515 L
905.092 445.182 L
S
GR
GS
0 1 0 RC
1 LJ
2 LW
N
130 531.058 M
130 530.337 L
130 527.025 L
130 525.368 L
130 523.712 L
130 515.429 L
130 512.117 L
130 510.46 L
130 510.46 L
130 508.804 L
130 503.834 L
130 497.209 L
130 492.239 L
130 483.957 L
130 482.301 L
130 480.644 L
130 478.988 L
130 474.018 L
130 472.362 L
130 470.706 L
130 465.736 L
130 464.08 L
130 460.767 L
130 459.11 L
130 457.454 L
130 457.454 L
130 455.798 L
130 452.485 L
130 452.485 L
130.176 452.485 L
130.176 450.828 L
130.176 449.172 L
130.176 444.202 L
130.176 440.89 L
130.176 439.233 L
130.176 432.607 L
130.176 427.638 L
130.176 419.356 L
130.176 417.699 L
130.176 412.73 L
130.353 409.417 L
130.529 404.448 L
130.706 397.822 L
130.706 392.853 L
130.706 386.227 L
130.706 384.571 L
130.882 374.632 L
131.588 369.663 L
131.764 361.38 L
131.941 356.411 L
132.117 354.755 L
132.47 353.098 L
132.47 353.098 L
132.47 348.129 L
132.999 343.159 L
133.176 333.221 L
133.705 326.595 L
133.705 323.282 L
134.058 321.626 L
134.411 319.969 L
134.764 319.969 L
135.469 315 L
136.352 311.687 L
136.881 306.718 L
137.763 305.061 L
138.822 295.123 L
140.409 293.466 L
140.762 290.153 L
143.585 288.497 L
145.35 286.84 L
146.055 286.84 L
147.82 283.528 L
149.231 278.558 L
151.172 275.245 L
153.289 273.589 L
155.053 271.933 L
158.935 271.933 L
163.169 266.963 L
166.874 263.65 L
171.285 263.65 L
176.049 257.025 L
182.047 248.742 L
187.34 245.429 L
191.927 245.429 L
199.69 243.773 L
209.394 240.46 L
219.098 235.491 L
228.625 232.178 L
238.329 228.865 L
249.444 228.865 L
257.913 227.209 L
269.91 225.552 L
285.612 222.239 L
297.433 218.926 L
313.665 213.957 L
332.014 210.644 L
348.422 208.988 L
366.594 205.675 L
387.942 204.018 L
409.467 204.018 L
430.109 200.706 L
454.81 200.706 L
475.805 200.706 L
500.505 200.706 L
522.383 200.706 L
552.552 199.049 L
576.018 199.049 L
609.54 197.393 L
640.768 195.736 L
666.527 194.08 L
692.639 194.08 L
720.515 192.423 L
752.449 192.423 L
782.089 190.767 L
813.318 189.11 L
842.605 187.454 L
872.951 187.454 L
900.651 187.454 L
905.092 187.454 L
S
GR
GS
1 0 0 RC
1 LJ
2 LW
N
155.759 531.058 M
155.759 527.025 L
155.759 525.368 L
155.759 522.055 L
155.759 517.086 L
155.759 513.773 L
155.759 510.46 L
155.759 508.804 L
155.759 508.804 L
155.759 507.147 L
155.759 502.178 L
155.935 500.521 L
155.935 495.552 L
155.935 492.239 L
155.935 487.27 L
155.935 485.613 L
155.935 485.613 L
155.935 477.331 L
155.935 474.018 L
155.935 470.706 L
155.935 467.393 L
155.935 459.11 L
155.935 457.454 L
156.112 454.141 L
156.112 452.485 L
156.112 450.828 L
156.112 447.515 L
156.112 439.233 L
165.639 432.607 L
165.639 425.982 L
165.639 424.325 L
165.639 422.669 L
165.639 419.356 L
165.816 419.356 L
165.992 419.356 L
166.168 411.074 L
166.168 406.104 L
166.168 402.791 L
166.168 397.822 L
166.168 394.509 L
166.168 392.853 L
166.168 389.54 L
166.168 386.227 L
166.168 384.571 L
166.168 381.258 L
166.168 379.601 L
166.168 377.945 L
166.345 376.288 L
166.345 372.975 L
166.521 371.319 L
166.521 366.35 L
166.698 361.38 L
166.698 358.068 L
166.698 348.129 L
166.874 346.472 L
166.874 343.159 L
166.874 331.564 L
167.227 331.564 L
167.403 331.564 L
167.403 326.595 L
167.58 323.282 L
167.58 319.969 L
167.58 313.344 L
167.933 310.031 L
168.109 310.031 L
168.109 308.374 L
168.109 306.718 L
168.109 305.061 L
168.462 301.749 L
178.871 301.749 L
179.048 301.749 L
179.048 301.749 L
179.224 295.123 L
179.754 293.466 L
180.106 290.153 L
180.636 283.528 L
181.341 283.528 L
181.518 278.558 L
181.694 273.589 L
182.929 271.933 L
183.282 270.276 L
183.459 268.62 L
183.635 265.307 L
184.164 263.65 L
184.694 261.994 L
184.87 260.337 L
185.399 258.681 L
185.576 252.055 L
185.929 252.055 L
186.458 252.055 L
186.987 247.086 L
187.517 243.773 L
188.575 240.46 L
189.104 240.46 L
189.457 232.178 L
190.692 232.178 L
191.045 230.521 L
191.751 228.865 L
192.28 227.209 L
193.162 225.552 L
193.339 225.552 L
194.397 223.896 L
195.809 223.896 L
196.338 218.926 L
197.926 218.926 L
199.161 217.27 L
199.69 215.614 L
200.749 215.614 L
201.631 215.614 L
202.69 210.644 L
204.277 210.644 L
212.57 204.018 L
214.51 204.018 L
216.804 202.362 L
218.745 199.049 L
221.568 197.393 L
223.861 194.08 L
224.92 190.767 L
226.508 185.798 L
230.213 184.141 L
234.271 184.141 L
236.388 179.172 L
239.917 177.515 L
243.974 175.859 L
247.15 175.859 L
250.855 174.202 L
254.384 170.89 L
256.501 169.233 L
259.677 169.233 L
263.735 167.577 L
267.793 164.264 L
274.321 162.607 L
278.908 160.951 L
283.848 157.638 L
288.964 155.982 L
295.316 155.982 L
299.903 155.982 L
305.549 155.982 L
312.783 152.669 L
319.487 152.669 L
325.839 151.012 L
332.896 147.699 L
340.482 146.043 L
349.127 141.074 L
359.184 141.074 L
366.947 137.761 L
374.886 136.104 L
385.119 132.791 L
394.999 131.135 L
406.291 127.822 L
415.818 121.196 L
425.522 116.227 L
436.461 114.571 L
453.222 114.571 L
470.159 112.914 L
487.802 111.258 L
504.563 109.601 L
524.5 106.288 L
539.144 102.975 L
556.61 102.975 L
575.488 102.975 L
597.895 101.319 L
619.949 101.319 L
641.65 101.319 L
660.528 101.319 L
682.053 101.319 L
711.693 96.35 L
733.924 94.693 L
757.742 94.693 L
780.148 94.693 L
803.967 94.693 L
830.608 94.693 L
864.306 94.693 L
888.124 94.693 L
905.092 93.308 L
S
GR
GS
0 1 1 RC
[2 2] 0 setdash
2 LJ
2 LW
N
130 531.058 M
130 527.025 L
130 523.712 L
130 522.055 L
130 518.742 L
130 517.086 L
130 517.086 L
130 517.086 L
130 513.773 L
130 513.773 L
130 510.46 L
130 505.491 L
130 500.521 L
130 488.926 L
130 487.27 L
130 485.613 L
130 482.301 L
130 478.988 L
130 475.675 L
130 467.393 L
130 460.767 L
130 459.11 L
130 459.11 L
130 449.172 L
130 445.859 L
130 445.859 L
130 440.89 L
130 434.264 L
130 427.638 L
130 427.638 L
130 422.669 L
130 419.356 L
130 417.699 L
130 416.043 L
130 414.387 L
130 411.074 L
130 407.761 L
130 402.791 L
130 399.479 L
130 396.166 L
130 391.196 L
130 386.227 L
130 381.258 L
130 379.601 L
130 379.601 L
130 377.945 L
130 372.975 L
130 366.35 L
130 363.037 L
130 363.037 L
130 359.724 L
130 353.098 L
130 351.442 L
130 348.129 L
130 344.816 L
130 339.847 L
130 334.877 L
130 333.221 L
130 331.564 L
130 328.252 L
130 324.939 L
130 316.656 L
130 315 L
130 313.344 L
130 310.031 L
130 305.061 L
130 305.061 L
130 301.749 L
130 298.436 L
130 293.466 L
130 290.153 L
130.176 290.153 L
130.176 288.497 L
130.176 285.184 L
130.176 283.528 L
130.353 281.871 L
130.529 280.215 L
130.529 273.589 L
130.706 273.589 L
130.706 271.933 L
130.882 270.276 L
130.882 268.62 L
131.235 263.65 L
131.235 261.994 L
131.411 261.994 L
131.411 258.681 L
131.411 258.681 L
131.411 255.368 L
131.411 252.055 L
131.588 250.399 L
131.588 250.399 L
131.764 248.742 L
131.941 247.086 L
131.941 247.086 L
132.294 247.086 L
132.47 242.117 L
132.646 242.117 L
132.646 240.46 L
133.176 237.147 L
133.705 235.491 L
133.705 233.834 L
134.058 233.834 L
134.411 232.178 L
134.587 230.521 L
134.94 227.209 L
135.646 227.209 L
135.822 225.552 L
136.528 222.239 L
136.704 217.27 L
137.057 217.27 L
137.587 213.957 L
138.292 212.301 L
139.704 210.644 L
140.409 208.988 L
141.115 204.018 L
142.527 202.362 L
144.644 200.706 L
145.702 197.393 L
146.055 197.393 L
147.82 192.423 L
149.231 190.767 L
152.054 190.767 L
154.347 190.767 L
156.112 190.767 L
157.347 189.11 L
160.17 189.11 L
162.287 182.485 L
164.933 180.828 L
167.933 177.515 L
170.226 177.515 L
173.931 175.859 L
177.46 175.859 L
181.165 172.546 L
183.635 170.89 L
188.046 169.233 L
190.869 162.607 L
196.338 160.951 L
201.455 157.638 L
204.454 155.982 L
209.394 152.669 L
214.51 147.699 L
221.215 142.73 L
228.625 142.73 L
236.212 139.417 L
243.445 139.417 L
251.385 137.761 L
258.265 137.761 L
265.852 134.448 L
275.203 134.448 L
281.025 134.448 L
291.611 132.791 L
299.903 131.135 L
310.313 131.135 L
323.898 126.166 L
338.894 126.166 L
350.892 121.196 L
364.3 119.54 L
380.532 117.883 L
394.47 117.883 L
411.584 117.883 L
430.286 112.914 L
450.046 109.601 L
463.455 109.601 L
480.216 106.288 L
504.21 106.288 L
519.383 106.288 L
537.909 104.632 L
563.138 104.632 L
581.311 102.975 L
606.188 101.319 L
634.24 99.663 L
659.823 99.663 L
682.935 98.006 L
715.928 98.006 L
747.156 98.006 L
778.737 96.35 L
810.848 96.35 L
844.369 91.38 L
876.656 89.724 L
902.768 88.067 L
905.092 88.067 L
S
GR
GS
0 1 1 RC
1 LJ
2 LW
N
130 531.058 M
130 530.337 L
130 528.681 L
130.176 522.055 L
130.176 515.429 L
130.176 512.117 L
130.176 508.804 L
130.176 505.491 L
130.176 503.834 L
130.176 500.521 L
130.176 498.865 L
130.176 493.896 L
130.176 485.613 L
130.176 483.957 L
130.176 483.957 L
130.176 477.331 L
130.176 472.362 L
130.176 470.706 L
130.176 469.049 L
130.176 462.423 L
130.176 454.141 L
130.176 452.485 L
130.176 444.202 L
130.176 442.546 L
130.176 439.233 L
130.176 437.577 L
130.176 434.264 L
130.176 427.638 L
130.176 427.638 L
130.176 424.325 L
130.176 421.012 L
130.176 417.699 L
130.176 412.73 L
130.176 407.761 L
130.176 404.448 L
130.353 404.448 L
130.353 404.448 L
130.353 402.791 L
130.353 396.166 L
130.353 389.54 L
130.353 387.883 L
130.353 384.571 L
130.353 384.571 L
130.353 381.258 L
130.353 376.288 L
130.353 371.319 L
130.353 366.35 L
130.353 358.068 L
130.353 356.411 L
130.353 348.129 L
130.353 344.816 L
130.706 336.534 L
130.882 334.877 L
130.882 333.221 L
130.882 333.221 L
130.882 331.564 L
130.882 329.908 L
130.882 328.252 L
130.882 324.939 L
130.882 319.969 L
130.882 319.969 L
130.882 315 L
130.882 315 L
130.882 313.344 L
131.059 308.374 L
131.059 306.718 L
131.059 305.061 L
131.411 303.405 L
131.411 300.092 L
131.411 300.092 L
131.411 295.123 L
131.588 295.123 L
131.764 291.81 L
131.764 290.153 L
131.764 285.184 L
132.117 285.184 L
132.117 285.184 L
132.646 283.528 L
132.646 278.558 L
132.823 278.558 L
132.823 275.245 L
132.823 271.933 L
132.999 270.276 L
132.999 268.62 L
132.999 266.963 L
132.999 266.963 L
133.176 265.307 L
133.352 263.65 L
133.881 260.337 L
133.881 260.337 L
133.881 260.337 L
134.234 255.368 L
134.587 253.712 L
135.293 253.712 L
135.822 250.399 L
135.999 248.742 L
136.352 245.429 L
136.528 242.117 L
136.881 237.147 L
137.234 235.491 L
137.234 235.491 L
138.469 233.834 L
138.822 227.209 L
138.998 225.552 L
140.409 220.583 L
141.115 217.27 L
141.997 215.614 L
143.232 213.957 L
144.467 212.301 L
145.526 212.301 L
146.408 212.301 L
147.114 208.988 L
148.349 207.331 L
149.231 207.331 L
150.995 205.675 L
151.877 205.675 L
152.76 200.706 L
154.347 197.393 L
157.17 197.393 L
159.64 195.736 L
162.816 192.423 L
164.933 189.11 L
166.698 185.798 L
169.521 184.141 L
170.403 184.141 L
173.755 180.828 L
177.46 179.172 L
180.989 177.515 L
184.87 175.859 L
188.222 172.546 L
192.104 172.546 L
194.574 169.233 L
198.102 165.92 L
203.748 160.951 L
208.159 159.295 L
215.745 154.325 L
223.332 147.699 L
230.919 147.699 L
235.506 147.699 L
242.563 146.043 L
252.443 144.387 L
260.03 144.387 L
267.44 144.387 L
275.026 141.074 L
278.908 139.417 L
290.729 137.761 L
302.726 137.761 L
314.723 137.761 L
325.662 137.761 L
338.365 137.761 L
353.185 137.761 L
357.773 136.104 L
370.828 129.478 L
386.178 126.166 L
403.645 119.54 L
417.23 119.54 L
434.344 119.54 L
454.81 117.883 L
461.161 117.883 L
484.803 112.914 L
511.444 112.914 L
528.029 112.914 L
551.67 111.258 L
579.194 111.258 L
607.246 109.601 L
616.597 109.601 L
646.414 109.601 L
674.466 107.945 L
701.99 106.288 L
732.159 104.632 L
761.447 104.632 L
795.322 104.632 L
808.378 104.632 L
843.487 102.975 L
875.598 101.319 L
905.092 99.968 L
S
GR
GS
1 0 1 RC
[2 2] 0 setdash
2 LJ
2 LW
N
130 531.058 M
130 528.681 L
130 528.681 L
130 525.368 L
130 520.399 L
130 518.742 L
130 512.117 L
130 503.834 L
130 500.521 L
130 498.865 L
130 493.896 L
130 492.239 L
130 490.583 L
130 483.957 L
130 480.644 L
130 475.675 L
130 470.706 L
130 469.049 L
130 464.08 L
130 462.423 L
130 455.798 L
130 452.485 L
130 449.172 L
130 442.546 L
130 440.89 L
130 437.577 L
130 432.607 L
130 429.294 L
130 427.638 L
130 427.638 L
130 425.982 L
130 417.699 L
130 411.074 L
130 407.761 L
130 404.448 L
130 399.479 L
130 394.509 L
130 391.196 L
130 386.227 L
130 381.258 L
130 379.601 L
130 374.632 L
130 372.975 L
130 364.693 L
130 364.693 L
130 363.037 L
130 359.724 L
130 356.411 L
130 353.098 L
130 351.442 L
130 351.442 L
130 349.785 L
130 348.129 L
130 341.503 L
130 341.503 L
130 339.847 L
130.176 331.564 L
130.176 326.595 L
130.176 323.282 L
130.176 323.282 L
130.176 315 L
130.176 308.374 L
130.529 305.061 L
130.706 303.405 L
130.706 298.436 L
130.882 293.466 L
131.059 293.466 L
131.235 291.81 L
131.235 291.81 L
131.411 286.84 L
131.411 281.871 L
131.764 278.558 L
131.941 275.245 L
132.294 268.62 L
132.294 268.62 L
132.47 268.62 L
132.47 265.307 L
132.999 261.994 L
133.705 260.337 L
133.705 255.368 L
134.234 250.399 L
134.411 248.742 L
134.764 248.742 L
135.117 245.429 L
135.646 242.117 L
135.822 242.117 L
135.999 240.46 L
136.352 235.491 L
137.234 230.521 L
138.116 227.209 L
138.998 225.552 L
139.351 225.552 L
140.409 225.552 L
141.821 220.583 L
141.997 218.926 L
142.703 215.614 L
144.644 212.301 L
146.055 208.988 L
147.996 208.988 L
149.407 207.331 L
150.113 205.675 L
150.995 202.362 L
152.76 200.706 L
153.995 199.049 L
156.288 195.736 L
158.935 192.423 L
161.934 190.767 L
164.051 182.485 L
166.521 182.485 L
169.168 179.172 L
172.167 175.859 L
175.166 167.577 L
179.401 164.264 L
183.106 164.264 L
185.929 160.951 L
189.634 160.951 L
193.515 157.638 L
198.279 155.982 L
202.337 154.325 L
206.395 151.012 L
210.1 149.356 L
216.981 149.356 L
222.45 149.356 L
228.978 149.356 L
235.329 147.699 L
242.387 142.73 L
249.444 142.73 L
259.677 141.074 L
270.968 139.417 L
276.967 137.761 L
288.082 137.761 L
296.727 136.104 L
310.313 132.791 L
318.428 129.478 L
327.779 127.822 L
341.364 127.822 L
351.774 127.822 L
365.888 124.509 L
381.061 122.853 L
399.587 122.853 L
416.877 122.853 L
434.52 119.54 L
452.34 116.227 L
471.041 116.227 L
480.216 116.227 L
501.387 114.571 L
529.793 114.571 L
546.73 112.914 L
568.255 109.601 L
594.543 106.288 L
615.185 106.288 L
637.769 106.288 L
667.056 101.319 L
696.167 101.319 L
722.985 101.319 L
761.094 99.663 L
795.851 99.663 L
830.608 99.663 L
860.778 96.35 L
898.71 96.35 L
905.092 96.35 L
S
GR
GS
1 0 1 RC
1 LJ
2 LW
N
130 531.058 M
130 527.025 L
130 525.368 L
130 520.399 L
130 513.773 L
130 512.117 L
130 508.804 L
130 503.834 L
130 502.178 L
130 493.896 L
130 490.583 L
130 488.926 L
130 487.27 L
130 485.613 L
130 480.644 L
130 475.675 L
130 467.393 L
130 465.736 L
130 464.08 L
130 462.423 L
130 459.11 L
130 454.141 L
130 450.828 L
130 445.859 L
130 442.546 L
130 442.546 L
130 442.546 L
130 439.233 L
130 430.951 L
130 425.982 L
130 421.012 L
130 421.012 L
130 417.699 L
130 412.73 L
130 412.73 L
130 407.761 L
130 404.448 L
130 392.853 L
130 392.853 L
130 391.196 L
130 381.258 L
130 377.945 L
130 374.632 L
130 368.006 L
130 366.35 L
130 366.35 L
130 363.037 L
130 363.037 L
130 359.724 L
130 354.755 L
130 353.098 L
130 353.098 L
130 349.785 L
130 348.129 L
130 343.159 L
130 338.19 L
130 336.534 L
130 323.282 L
130 321.626 L
130 319.969 L
130.176 311.687 L
130.176 308.374 L
130.353 305.061 L
130.529 303.405 L
130.529 303.405 L
130.529 301.749 L
130.706 295.123 L
130.882 291.81 L
130.882 290.153 L
130.882 286.84 L
131.059 286.84 L
131.059 285.184 L
131.235 283.528 L
131.588 281.871 L
131.588 280.215 L
131.941 280.215 L
131.941 276.902 L
132.294 273.589 L
132.294 270.276 L
132.47 270.276 L
132.823 270.276 L
133.352 265.307 L
133.705 257.025 L
135.117 252.055 L
135.117 252.055 L
135.646 250.399 L
135.999 245.429 L
136.881 243.773 L
137.41 242.117 L
138.469 242.117 L
139.351 240.46 L
139.704 237.147 L
140.057 233.834 L
140.762 233.834 L
141.821 227.209 L
143.409 227.209 L
144.997 223.896 L
144.997 220.583 L
146.408 217.27 L
147.29 215.614 L
149.055 212.301 L
150.113 208.988 L
151.525 205.675 L
153.112 205.675 L
153.642 204.018 L
156.818 202.362 L
159.464 202.362 L
161.052 200.706 L
164.404 190.767 L
167.756 190.767 L
168.815 190.767 L
171.814 187.454 L
173.931 182.485 L
178.166 172.546 L
181.518 170.89 L
185.223 167.577 L
187.869 165.92 L
189.281 164.264 L
195.456 160.951 L
200.22 160.951 L
206.748 155.982 L
212.923 154.325 L
219.803 154.325 L
227.39 152.669 L
229.684 152.669 L
237.094 151.012 L
246.621 151.012 L
256.501 151.012 L
264.97 149.356 L
272.38 142.73 L
275.203 142.73 L
286.142 139.417 L
295.316 136.104 L
307.313 134.448 L
316.135 134.448 L
327.603 131.135 L
342.776 129.478 L
346.657 129.478 L
361.125 127.822 L
382.649 124.509 L
396.764 122.853 L
414.583 122.853 L
431.344 122.853 L
439.637 122.853 L
457.633 121.196 L
480.039 119.54 L
502.093 119.54 L
520.618 116.227 L
546.554 114.571 L
568.784 114.571 L
575.136 114.571 L
603.365 112.914 L
634.416 111.258 L
661.94 109.601 L
690.874 109.601 L
726.513 106.288 L
761.447 106.288 L
777.149 106.288 L
812.259 106.288 L
848.78 106.288 L
890.065 106.288 L
905.092 105.613 L
S
GR
GS
0 0 1 RC
[2 2] 0 setdash
2 LJ
2 LW
N
134.058 531.058 M
134.058 528.681 L
134.234 523.712 L
134.234 520.399 L
134.587 512.117 L
134.764 507.147 L
134.764 505.491 L
135.293 498.865 L
135.293 497.209 L
135.293 490.583 L
135.293 487.27 L
135.999 483.957 L
136.175 478.988 L
136.352 469.049 L
136.528 465.736 L
136.881 464.08 L
136.881 459.11 L
136.881 457.454 L
136.881 455.798 L
137.41 454.141 L
137.41 449.172 L
137.41 447.515 L
137.587 447.515 L
137.939 442.546 L
137.939 437.577 L
137.939 434.264 L
138.116 434.264 L
138.645 430.951 L
138.645 429.294 L
138.645 427.638 L
140.586 424.325 L
140.762 422.669 L
140.762 419.356 L
140.939 411.074 L
142.527 407.761 L
142.527 401.135 L
142.527 401.135 L
142.879 399.479 L
143.232 392.853 L
143.232 391.196 L
143.232 386.227 L
143.762 382.914 L
144.644 381.258 L
144.82 381.258 L
144.82 381.258 L
144.997 372.975 L
146.761 368.006 L
146.937 366.35 L
147.114 353.098 L
147.643 351.442 L
149.231 346.472 L
150.819 341.503 L
151.348 334.877 L
151.525 331.564 L
152.936 324.939 L
153.642 321.626 L
154.347 319.969 L
156.641 318.313 L
157.523 313.344 L
158.582 311.687 L
159.288 310.031 L
162.287 308.374 L
162.993 306.718 L
163.698 303.405 L
165.286 301.749 L
167.933 300.092 L
168.815 293.466 L
169.873 290.153 L
171.991 286.84 L
175.343 283.528 L
176.931 281.871 L
178.519 281.871 L
179.754 275.245 L
182.753 271.933 L
184.694 266.963 L
186.987 266.963 L
190.339 263.65 L
195.632 261.994 L
198.632 258.681 L
202.337 255.368 L
207.1 250.399 L
212.746 245.429 L
215.922 242.117 L
220.333 235.491 L
225.273 230.521 L
229.86 223.896 L
237.094 223.896 L
243.974 218.926 L
250.15 218.926 L
256.148 217.27 L
261.794 213.957 L
267.969 212.301 L
275.556 212.301 L
284.377 205.675 L
288.788 202.362 L
296.375 202.362 L
304.314 200.706 L
312.606 199.049 L
321.781 199.049 L
334.307 197.393 L
345.775 197.393 L
356.714 195.736 L
372.416 194.08 L
386.531 194.08 L
399.94 189.11 L
406.82 189.11 L
421.641 187.454 L
437.343 185.798 L
455.868 185.798 L
471.394 184.141 L
487.449 182.485 L
505.798 180.828 L
523.265 179.172 L
545.319 179.172 L
570.019 175.859 L
589.25 172.546 L
603.365 172.546 L
631.946 172.546 L
663.88 169.233 L
694.05 165.92 L
728.807 160.951 L
756.683 157.638 L
790.029 155.982 L
826.197 152.669 L
864.659 152.669 L
899.769 151.012 L
905.092 150.798 L
S
GR
GS
[2 2] 0 setdash
2 LJ
2 LW
N
130 531.058 M
130 530.337 L
130 523.712 L
130 520.399 L
130 513.773 L
130 513.773 L
130 510.46 L
130 510.46 L
130 505.491 L
130 502.178 L
130 500.521 L
130 497.209 L
130 495.552 L
130 495.552 L
130 492.239 L
130 488.926 L
130 488.926 L
130 488.926 L
130 485.613 L
130 483.957 L
130 483.957 L
130 482.301 L
130 478.988 L
130 472.362 L
130 472.362 L
130 465.736 L
130 457.454 L
130 457.454 L
130 452.485 L
130 450.828 L
130 445.859 L
130 444.202 L
130 439.233 L
130 432.607 L
130 429.294 L
130 429.294 L
130 427.638 L
130 424.325 L
130 422.669 L
130 421.012 L
130 417.699 L
130 414.387 L
130 407.761 L
130 404.448 L
130 402.791 L
130 402.791 L
130 401.135 L
130 397.822 L
130 397.822 L
130 387.883 L
130 384.571 L
130 377.945 L
130 372.975 L
130 369.663 L
130 364.693 L
130 359.724 L
130 354.755 L
130 353.098 L
130 351.442 L
130 344.816 L
130 341.503 L
130 336.534 L
130 329.908 L
130 326.595 L
130 326.595 L
130 319.969 L
130 318.313 L
130 315 L
130 310.031 L
130 308.374 L
130 303.405 L
130 298.436 L
130 298.436 L
130 296.779 L
130 291.81 L
130 288.497 L
130 283.528 L
130 281.871 L
130 278.558 L
130 271.933 L
130 261.994 L
130 260.337 L
130 258.681 L
130 257.025 L
130 250.399 L
130 248.742 L
130 245.429 L
130 242.117 L
130 242.117 L
130 238.804 L
130 237.147 L
130.353 237.147 L
130.529 235.491 L
130.529 235.491 L
130.882 233.834 L
131.235 233.834 L
131.235 225.552 L
131.235 225.552 L
131.411 223.896 L
131.411 222.239 L
131.411 217.27 L
131.764 217.27 L
131.764 212.301 L
131.764 212.301 L
131.941 210.644 L
131.941 210.644 L
132.294 207.331 L
132.646 207.331 L
132.999 204.018 L
133.176 200.706 L
133.352 199.049 L
133.529 195.736 L
134.234 194.08 L
134.764 192.423 L
135.117 189.11 L
135.469 187.454 L
135.822 185.798 L
136.528 185.798 L
137.057 185.798 L
137.939 185.798 L
139.527 184.141 L
140.233 180.828 L
141.115 179.172 L
142.35 175.859 L
143.232 174.202 L
143.938 170.89 L
145.173 169.233 L
146.937 165.92 L
149.055 164.264 L
151.348 162.607 L
153.642 159.295 L
154.7 159.295 L
157.523 159.295 L
158.582 157.638 L
161.052 157.638 L
163.698 157.638 L
165.816 155.982 L
167.756 152.669 L
170.05 151.012 L
173.402 149.356 L
176.049 146.043 L
180.106 142.73 L
183.282 139.417 L
188.752 139.417 L
193.868 139.417 L
198.455 136.104 L
202.69 134.448 L
208.865 132.791 L
214.158 131.135 L
221.038 131.135 L
227.743 126.166 L
236.212 124.509 L
245.033 124.509 L
247.503 121.196 L
255.619 121.196 L
264.793 121.196 L
274.144 117.883 L
286.142 114.571 L
298.315 112.914 L
311.9 111.258 L
319.487 109.601 L
329.72 104.632 L
342.423 102.975 L
358.478 98.006 L
369.77 98.006 L
386.707 98.006 L
403.292 98.006 L
411.937 98.006 L
427.816 96.35 L
444.929 93.037 L
460.808 93.037 L
478.628 93.037 L
501.917 91.38 L
524.853 89.724 L
529.793 86.411 L
555.728 84.755 L
583.251 83.098 L
606.717 81.442 L
631.417 78.129 L
661.234 76.472 L
694.756 76.472 L
708.165 76.472 L
741.687 76.472 L
770.798 76.472 L
805.731 76.472 L
843.84 76.472 L
882.126 71.503 L
905.092 70.451 L
S
GR
GS
1 LJ
2 LW
N
130 531.058 M
130 530.337 L
130 528.681 L
130 522.055 L
130 518.742 L
130 515.429 L
130 513.773 L
130 512.117 L
130 510.46 L
130 507.147 L
130 502.178 L
130 500.521 L
130 498.865 L
130 498.865 L
130 498.865 L
130 495.552 L
130 493.896 L
130 493.896 L
130 487.27 L
130 487.27 L
130 487.27 L
130 487.27 L
130 485.613 L
130 482.301 L
130 474.018 L
130 465.736 L
130 460.767 L
130 459.11 L
130 459.11 L
130 454.141 L
130 454.141 L
130 447.515 L
130 444.202 L
130 440.89 L
130 439.233 L
130 439.233 L
130 439.233 L
130 432.607 L
130 429.294 L
130 425.982 L
130 422.669 L
130 417.699 L
130 417.699 L
130 411.074 L
130 406.104 L
130 404.448 L
130 404.448 L
130 401.135 L
130 399.479 L
130 397.822 L
130 386.227 L
130 381.258 L
130 379.601 L
130 372.975 L
130 369.663 L
130 361.38 L
130 361.38 L
130 358.068 L
130 354.755 L
130 351.442 L
130 348.129 L
130 343.159 L
130 339.847 L
130 339.847 L
130 336.534 L
130 334.877 L
130 328.252 L
130 324.939 L
130 318.313 L
130 316.656 L
130 313.344 L
130 310.031 L
130 308.374 L
130 305.061 L
130 303.405 L
130.176 301.749 L
130.176 295.123 L
130.529 295.123 L
130.529 291.81 L
130.529 286.84 L
130.529 271.933 L
130.529 270.276 L
130.529 265.307 L
130.529 265.307 L
130.529 265.307 L
130.529 261.994 L
130.706 257.025 L
130.706 252.055 L
130.706 248.742 L
130.706 247.086 L
130.706 245.429 L
130.706 245.429 L
130.706 242.117 L
130.706 242.117 L
130.706 242.117 L
130.882 242.117 L
131.059 237.147 L
131.059 237.147 L
131.411 235.491 L
131.411 233.834 L
131.764 232.178 L
131.764 232.178 L
132.294 230.521 L
132.294 225.552 L
132.646 220.583 L
132.823 220.583 L
132.823 218.926 L
133.352 218.926 L
134.234 218.926 L
134.234 215.614 L
134.94 212.301 L
135.293 208.988 L
135.822 205.675 L
136.175 205.675 L
136.704 202.362 L
136.881 199.049 L
137.587 199.049 L
138.645 199.049 L
139.351 194.08 L
140.057 194.08 L
140.762 194.08 L
141.468 190.767 L
143.232 189.11 L
144.114 189.11 L
144.82 182.485 L
145.173 177.515 L
146.585 177.515 L
146.937 177.515 L
148.525 177.515 L
150.113 175.859 L
153.289 174.202 L
155.583 172.546 L
156.465 167.577 L
159.288 164.264 L
159.993 164.264 L
162.463 164.264 L
164.228 164.264 L
166.874 162.607 L
169.344 160.951 L
172.343 160.951 L
175.696 155.982 L
177.46 155.982 L
181.694 154.325 L
185.046 152.669 L
189.987 151.012 L
194.397 151.012 L
201.278 147.699 L
207.63 146.043 L
208.865 146.043 L
214.51 144.387 L
219.627 142.73 L
227.037 137.761 L
233.918 136.104 L
242.21 134.448 L
250.15 132.791 L
251.561 132.791 L
260.206 131.135 L
268.322 131.135 L
279.614 129.478 L
290.376 126.166 L
301.491 122.853 L
312.606 121.196 L
316.488 121.196 L
330.249 117.883 L
343.129 116.227 L
357.42 116.227 L
372.063 111.258 L
386.707 106.288 L
401.704 106.288 L
406.291 106.288 L
423.758 104.632 L
444.224 102.975 L
462.396 102.975 L
480.039 99.663 L
503.505 98.006 L
529.264 98.006 L
534.027 98.006 L
558.904 94.693 L
585.369 93.037 L
605.129 88.067 L
637.945 83.098 L
667.938 83.098 L
701.284 83.098 L
710.105 83.098 L
739.922 83.098 L
772.562 83.098 L
805.555 83.098 L
844.546 81.442 L
884.596 79.785 L
905.092 78.966 L
S
GR
GS
[10 6] 0 setdash
2 LJ
0.5 LW
N
905.092 126.01 M
130 45 L
S
GR
%%Trailer
%%Pages: 1
%%EOF
