%!PS-Adobe-3.0 EPSF-3.0
%%Creator: (MATLAB, The Mathworks, Inc. Version 9.3.0.713579 \(R2017b\). Operating System: Mac OS X)
%%Title: ./ROCs_postmortem_110_closeup.eps
%%CreationDate: 2019-01-22T13:07:47
%%Pages: (atend)
%%BoundingBox:    48     5   927   587
%%LanguageLevel: 3
%%EndComments
%%BeginProlog
%%BeginResource: procset (Apache XML Graphics Std ProcSet) 1.2 0
%%Version: 1.2 0
%%Copyright: (Copyright 2001-2003,2010 The Apache Software Foundation. License terms: http://www.apache.org/licenses/LICENSE-2.0)
/bd{bind def}bind def
/ld{load def}bd
/GR/grestore ld
/GS/gsave ld
/RM/rmoveto ld
/C/curveto ld
/t/show ld
/L/lineto ld
/ML/setmiterlimit ld
/CT/concat ld
/f/fill ld
/N/newpath ld
/S/stroke ld
/CC/setcmykcolor ld
/A/ashow ld
/cp/closepath ld
/RC/setrgbcolor ld
/LJ/setlinejoin ld
/GC/setgray ld
/LW/setlinewidth ld
/M/moveto ld
/re {4 2 roll M
1 index 0 rlineto
0 exch rlineto
neg 0 rlineto
cp } bd
/_ctm matrix def
/_tm matrix def
/BT { _ctm currentmatrix pop matrix _tm copy pop 0 0 moveto } bd
/ET { _ctm setmatrix } bd
/iTm { _ctm setmatrix _tm concat } bd
/Tm { _tm astore pop iTm 0 0 moveto } bd
/ux 0.0 def
/uy 0.0 def
/F {
  /Tp exch def
  /Tf exch def
  Tf findfont Tp scalefont setfont
  /cf Tf def  /cs Tp def
} bd
/ULS {currentpoint /uy exch def /ux exch def} bd
/ULE {
  /Tcx currentpoint pop def
  gsave
  newpath
  cf findfont cs scalefont dup
  /FontMatrix get 0 get /Ts exch def /FontInfo get dup
  /UnderlinePosition get Ts mul /To exch def
  /UnderlineThickness get Ts mul /Tt exch def
  ux uy To add moveto  Tcx uy To add lineto
  Tt setlinewidth stroke
  grestore
} bd
/OLE {
  /Tcx currentpoint pop def
  gsave
  newpath
  cf findfont cs scalefont dup
  /FontMatrix get 0 get /Ts exch def /FontInfo get dup
  /UnderlinePosition get Ts mul /To exch def
  /UnderlineThickness get Ts mul /Tt exch def
  ux uy To add cs add moveto Tcx uy To add cs add lineto
  Tt setlinewidth stroke
  grestore
} bd
/SOE {
  /Tcx currentpoint pop def
  gsave
  newpath
  cf findfont cs scalefont dup
  /FontMatrix get 0 get /Ts exch def /FontInfo get dup
  /UnderlinePosition get Ts mul /To exch def
  /UnderlineThickness get Ts mul /Tt exch def
  ux uy To add cs 10 mul 26 idiv add moveto Tcx uy To add cs 10 mul 26 idiv add lineto
  Tt setlinewidth stroke
  grestore
} bd
/QT {
/Y22 exch store
/X22 exch store
/Y21 exch store
/X21 exch store
currentpoint
/Y21 load 2 mul add 3 div exch
/X21 load 2 mul add 3 div exch
/X21 load 2 mul /X22 load add 3 div
/Y21 load 2 mul /Y22 load add 3 div
/X22 load /Y22 load curveto
} bd
/SSPD {
dup length /d exch dict def
{
/v exch def
/k exch def
currentpagedevice k known {
/cpdv currentpagedevice k get def
v cpdv ne {
/upd false def
/nullv v type /nulltype eq def
/nullcpdv cpdv type /nulltype eq def
nullv nullcpdv or
{
/upd true def
} {
/sametype v type cpdv type eq def
sametype {
v type /arraytype eq {
/vlen v length def
/cpdvlen cpdv length def
vlen cpdvlen eq {
0 1 vlen 1 sub {
/i exch def
/obj v i get def
/cpdobj cpdv i get def
obj cpdobj ne {
/upd true def
exit
} if
} for
} {
/upd true def
} ifelse
} {
v type /dicttype eq {
v {
/dv exch def
/dk exch def
/cpddv cpdv dk get def
dv cpddv ne {
/upd true def
exit
} if
} forall
} {
/upd true def
} ifelse
} ifelse
} if
} ifelse
upd true eq {
d k v put
} if
} if
} if
} forall
d length 0 gt {
d setpagedevice
} if
} bd
/RE { % /NewFontName [NewEncodingArray] /FontName RE -
  findfont dup length dict begin
  {
    1 index /FID ne
    {def} {pop pop} ifelse
  } forall
  /Encoding exch def
  /FontName 1 index def
  currentdict definefont pop
  end
} bind def
%%EndResource
%%BeginResource: procset (Apache XML Graphics EPS ProcSet) 1.0 0
%%Version: 1.0 0
%%Copyright: (Copyright 2002-2003 The Apache Software Foundation. License terms: http://www.apache.org/licenses/LICENSE-2.0)
/BeginEPSF { %def
/b4_Inc_state save def         % Save state for cleanup
/dict_count countdictstack def % Count objects on dict stack
/op_count count 1 sub def      % Count objects on operand stack
userdict begin                 % Push userdict on dict stack
/showpage { } def              % Redefine showpage, { } = null proc
0 setgray 0 setlinecap         % Prepare graphics state
1 setlinewidth 0 setlinejoin
10 setmiterlimit [ ] 0 setdash newpath
/languagelevel where           % If level not equal to 1 then
{pop languagelevel             % set strokeadjust and
1 ne                           % overprint to their defaults.
{false setstrokeadjust false setoverprint
} if
} if
} bd
/EndEPSF { %def
count op_count sub {pop} repeat            % Clean up stacks
countdictstack dict_count sub {end} repeat
b4_Inc_state restore
} bd
%%EndResource
%FOPBeginFontDict
%%IncludeResource: font Courier-Oblique
%%IncludeResource: font Courier-BoldOblique
%%IncludeResource: font Courier-Bold
%%IncludeResource: font ZapfDingbats
%%IncludeResource: font Symbol
%%IncludeResource: font Helvetica
%%IncludeResource: font Helvetica-Oblique
%%IncludeResource: font Helvetica-Bold
%%IncludeResource: font Helvetica-BoldOblique
%%IncludeResource: font Times-Roman
%%IncludeResource: font Times-Italic
%%IncludeResource: font Times-Bold
%%IncludeResource: font Times-BoldItalic
%%IncludeResource: font Courier
%FOPEndFontDict
%%BeginResource: encoding WinAnsiEncoding
/WinAnsiEncoding [
/.notdef /.notdef /.notdef /.notdef /.notdef
/.notdef /.notdef /.notdef /.notdef /.notdef
/.notdef /.notdef /.notdef /.notdef /.notdef
/.notdef /.notdef /.notdef /.notdef /.notdef
/.notdef /.notdef /.notdef /.notdef /.notdef
/.notdef /.notdef /.notdef /.notdef /.notdef
/.notdef /.notdef /space /exclam /quotedbl
/numbersign /dollar /percent /ampersand /quotesingle
/parenleft /parenright /asterisk /plus /comma
/hyphen /period /slash /zero /one
/two /three /four /five /six
/seven /eight /nine /colon /semicolon
/less /equal /greater /question /at
/A /B /C /D /E
/F /G /H /I /J
/K /L /M /N /O
/P /Q /R /S /T
/U /V /W /X /Y
/Z /bracketleft /backslash /bracketright /asciicircum
/underscore /quoteleft /a /b /c
/d /e /f /g /h
/i /j /k /l /m
/n /o /p /q /r
/s /t /u /v /w
/x /y /z /braceleft /bar
/braceright /asciitilde /bullet /Euro /bullet
/quotesinglbase /florin /quotedblbase /ellipsis /dagger
/daggerdbl /circumflex /perthousand /Scaron /guilsinglleft
/OE /bullet /Zcaron /bullet /bullet
/quoteleft /quoteright /quotedblleft /quotedblright /bullet
/endash /emdash /asciitilde /trademark /scaron
/guilsinglright /oe /bullet /zcaron /Ydieresis
/space /exclamdown /cent /sterling /currency
/yen /brokenbar /section /dieresis /copyright
/ordfeminine /guillemotleft /logicalnot /sfthyphen /registered
/macron /degree /plusminus /twosuperior /threesuperior
/acute /mu /paragraph /middot /cedilla
/onesuperior /ordmasculine /guillemotright /onequarter /onehalf
/threequarters /questiondown /Agrave /Aacute /Acircumflex
/Atilde /Adieresis /Aring /AE /Ccedilla
/Egrave /Eacute /Ecircumflex /Edieresis /Igrave
/Iacute /Icircumflex /Idieresis /Eth /Ntilde
/Ograve /Oacute /Ocircumflex /Otilde /Odieresis
/multiply /Oslash /Ugrave /Uacute /Ucircumflex
/Udieresis /Yacute /Thorn /germandbls /agrave
/aacute /acircumflex /atilde /adieresis /aring
/ae /ccedilla /egrave /eacute /ecircumflex
/edieresis /igrave /iacute /icircumflex /idieresis
/eth /ntilde /ograve /oacute /ocircumflex
/otilde /odieresis /divide /oslash /ugrave
/uacute /ucircumflex /udieresis /yacute /thorn
/ydieresis
] def
%%EndResource
%FOPBeginFontReencode
/Courier-Oblique findfont
dup length dict begin
  {1 index /FID ne {def} {pop pop} ifelse} forall
  /Encoding WinAnsiEncoding def
  currentdict
end
/Courier-Oblique exch definefont pop
/Courier-BoldOblique findfont
dup length dict begin
  {1 index /FID ne {def} {pop pop} ifelse} forall
  /Encoding WinAnsiEncoding def
  currentdict
end
/Courier-BoldOblique exch definefont pop
/Courier-Bold findfont
dup length dict begin
  {1 index /FID ne {def} {pop pop} ifelse} forall
  /Encoding WinAnsiEncoding def
  currentdict
end
/Courier-Bold exch definefont pop
/Helvetica findfont
dup length dict begin
  {1 index /FID ne {def} {pop pop} ifelse} forall
  /Encoding WinAnsiEncoding def
  currentdict
end
/Helvetica exch definefont pop
/Helvetica-Oblique findfont
dup length dict begin
  {1 index /FID ne {def} {pop pop} ifelse} forall
  /Encoding WinAnsiEncoding def
  currentdict
end
/Helvetica-Oblique exch definefont pop
/Helvetica-Bold findfont
dup length dict begin
  {1 index /FID ne {def} {pop pop} ifelse} forall
  /Encoding WinAnsiEncoding def
  currentdict
end
/Helvetica-Bold exch definefont pop
/Helvetica-BoldOblique findfont
dup length dict begin
  {1 index /FID ne {def} {pop pop} ifelse} forall
  /Encoding WinAnsiEncoding def
  currentdict
end
/Helvetica-BoldOblique exch definefont pop
/Times-Roman findfont
dup length dict begin
  {1 index /FID ne {def} {pop pop} ifelse} forall
  /Encoding WinAnsiEncoding def
  currentdict
end
/Times-Roman exch definefont pop
/Times-Italic findfont
dup length dict begin
  {1 index /FID ne {def} {pop pop} ifelse} forall
  /Encoding WinAnsiEncoding def
  currentdict
end
/Times-Italic exch definefont pop
/Times-Bold findfont
dup length dict begin
  {1 index /FID ne {def} {pop pop} ifelse} forall
  /Encoding WinAnsiEncoding def
  currentdict
end
/Times-Bold exch definefont pop
/Times-BoldItalic findfont
dup length dict begin
  {1 index /FID ne {def} {pop pop} ifelse} forall
  /Encoding WinAnsiEncoding def
  currentdict
end
/Times-BoldItalic exch definefont pop
/Courier findfont
dup length dict begin
  {1 index /FID ne {def} {pop pop} ifelse} forall
  /Encoding WinAnsiEncoding def
  currentdict
end
/Courier exch definefont pop
%FOPEndFontReencode
%%EndProlog
%%Page: 1 1
%%PageBoundingBox: 0 0 1000 600
%%BeginPageSetup
[1 0 0 -1 0 600] CT
%%EndPageSetup
GS
1 GC
N
0 0 1000 600 re
f
GR
GS
1 GC
N
0 0 1000 600 re
f
GR
GS
1 GC
N
130 531 M
905 531 L
905 45 L
130 45 L
cp
f
GR
GS
0.873 GC
1 LJ
0.5 LW
N
130 531 M
130 45 L
S
GR
GS
0.873 GC
1 LJ
0.5 LW
N
285 531 M
285 45 L
S
GR
GS
0.873 GC
1 LJ
0.5 LW
N
440 531 M
440 45 L
S
GR
GS
0.873 GC
1 LJ
0.5 LW
N
595 531 M
595 45 L
S
GR
GS
0.873 GC
1 LJ
0.5 LW
N
750 531 M
750 45 L
S
GR
GS
0.873 GC
1 LJ
0.5 LW
N
905 531 M
905 45 L
S
GR
GS
0.873 GC
1 LJ
0.5 LW
N
905 531 M
130 531 L
S
GR
GS
0.873 GC
1 LJ
0.5 LW
N
905 461.571 M
130 461.571 L
S
GR
GS
0.873 GC
1 LJ
0.5 LW
N
905 392.143 M
130 392.143 L
S
GR
GS
0.873 GC
1 LJ
0.5 LW
N
905 322.714 M
130 322.714 L
S
GR
GS
0.873 GC
1 LJ
0.5 LW
N
905 253.286 M
130 253.286 L
S
GR
GS
0.873 GC
1 LJ
0.5 LW
N
905 183.857 M
130 183.857 L
S
GR
GS
0.873 GC
1 LJ
0.5 LW
N
905 114.429 M
130 114.429 L
S
GR
GS
0.873 GC
1 LJ
0.5 LW
N
905 45 M
130 45 L
S
GR
GS
0.149 GC
2 setlinecap
1 LJ
0.5 LW
N
130 531 M
905 531 L
S
GR
GS
0.149 GC
2 setlinecap
1 LJ
0.5 LW
N
130 45 M
905 45 L
S
GR
GS
0.149 GC
2 setlinecap
1 LJ
0.5 LW
N
130 531 M
130 523.25 L
S
GR
GS
0.149 GC
2 setlinecap
1 LJ
0.5 LW
N
285 531 M
285 523.25 L
S
GR
GS
0.149 GC
2 setlinecap
1 LJ
0.5 LW
N
440 531 M
440 523.25 L
S
GR
GS
0.149 GC
2 setlinecap
1 LJ
0.5 LW
N
595 531 M
595 523.25 L
S
GR
GS
0.149 GC
2 setlinecap
1 LJ
0.5 LW
N
750 531 M
750 523.25 L
S
GR
GS
0.149 GC
2 setlinecap
1 LJ
0.5 LW
N
905 531 M
905 523.25 L
S
GR
GS
0.149 GC
2 setlinecap
1 LJ
0.5 LW
N
130 45 M
130 52.75 L
S
GR
GS
0.149 GC
2 setlinecap
1 LJ
0.5 LW
N
285 45 M
285 52.75 L
S
GR
GS
0.149 GC
2 setlinecap
1 LJ
0.5 LW
N
440 45 M
440 52.75 L
S
GR
GS
0.149 GC
2 setlinecap
1 LJ
0.5 LW
N
595 45 M
595 52.75 L
S
GR
GS
0.149 GC
2 setlinecap
1 LJ
0.5 LW
N
750 45 M
750 52.75 L
S
GR
GS
0.149 GC
2 setlinecap
1 LJ
0.5 LW
N
905 45 M
905 52.75 L
S
GR
GS
[1 0 0 1 130 537.79999] CT
0.149 GC
/Helvetica 24 F
GS
[1 0 0 1 0 0] CT
-7 23 moveto 
1 -1 scale
(0) t 
GR
GR
GS
[1 0 0 1 285 537.79999] CT
0.149 GC
/Helvetica 24 F
GS
[1 0 0 1 0 0] CT
-23.5 23 moveto 
1 -1 scale
(0.01) t 
GR
GR
GS
[1 0 0 1 440 537.79999] CT
0.149 GC
/Helvetica 24 F
GS
[1 0 0 1 0 0] CT
-23.5 23 moveto 
1 -1 scale
(0.02) t 
GR
GR
GS
[1 0 0 1 595 537.79999] CT
0.149 GC
/Helvetica 24 F
GS
[1 0 0 1 0 0] CT
-23.5 23 moveto 
1 -1 scale
(0.03) t 
GR
GR
GS
[1 0 0 1 750 537.79999] CT
0.149 GC
/Helvetica 24 F
GS
[1 0 0 1 0 0] CT
-23.5 23 moveto 
1 -1 scale
(0.04) t 
GR
GR
GS
[1 0 0 1 905 537.79999] CT
0.149 GC
/Helvetica 24 F
GS
[1 0 0 1 0 0] CT
-23.5 23 moveto 
1 -1 scale
(0.05) t 
GR
GR
GS
[1 0 0 1 517.50037 567.79999] CT
0.149 GC
/Helvetica 26.4 F
GS
[1 0 0 1 0 0] CT
-103.5 26 moveto 
1 -1 scale
(False Match Rate) t 
GR
GR
GS
0.149 GC
2 setlinecap
1 LJ
0.5 LW
N
130 531 M
130 45 L
S
GR
GS
0.149 GC
2 setlinecap
1 LJ
0.5 LW
N
905 531 M
905 45 L
S
GR
GS
0.149 GC
2 setlinecap
1 LJ
0.5 LW
N
130 531 M
137.75 531 L
S
GR
GS
0.149 GC
2 setlinecap
1 LJ
0.5 LW
N
130 461.571 M
137.75 461.571 L
S
GR
GS
0.149 GC
2 setlinecap
1 LJ
0.5 LW
N
130 392.143 M
137.75 392.143 L
S
GR
GS
0.149 GC
2 setlinecap
1 LJ
0.5 LW
N
130 322.714 M
137.75 322.714 L
S
GR
GS
0.149 GC
2 setlinecap
1 LJ
0.5 LW
N
130 253.286 M
137.75 253.286 L
S
GR
GS
0.149 GC
2 setlinecap
1 LJ
0.5 LW
N
130 183.857 M
137.75 183.857 L
S
GR
GS
0.149 GC
2 setlinecap
1 LJ
0.5 LW
N
130 114.429 M
137.75 114.429 L
S
GR
GS
0.149 GC
2 setlinecap
1 LJ
0.5 LW
N
130 45 M
137.75 45 L
S
GR
GS
0.149 GC
2 setlinecap
1 LJ
0.5 LW
N
905 531 M
897.25 531 L
S
GR
GS
0.149 GC
2 setlinecap
1 LJ
0.5 LW
N
905 461.571 M
897.25 461.571 L
S
GR
GS
0.149 GC
2 setlinecap
1 LJ
0.5 LW
N
905 392.143 M
897.25 392.143 L
S
GR
GS
0.149 GC
2 setlinecap
1 LJ
0.5 LW
N
905 322.714 M
897.25 322.714 L
S
GR
GS
0.149 GC
2 setlinecap
1 LJ
0.5 LW
N
905 253.286 M
897.25 253.286 L
S
GR
GS
0.149 GC
2 setlinecap
1 LJ
0.5 LW
N
905 183.857 M
897.25 183.857 L
S
GR
GS
0.149 GC
2 setlinecap
1 LJ
0.5 LW
N
905 114.429 M
897.25 114.429 L
S
GR
GS
0.149 GC
2 setlinecap
1 LJ
0.5 LW
N
905 45 M
897.25 45 L
S
GR
GS
[1 0 0 1 123.2 531] CT
0.149 GC
/Helvetica 24 F
GS
[1 0 0 1 0 0] CT
-47 8.5 moveto 
1 -1 scale
(0.55) t 
GR
GR
GS
[1 0 0 1 123.2 461.57138] CT
0.149 GC
/Helvetica 24 F
GS
[1 0 0 1 0 0] CT
-34 8.5 moveto 
1 -1 scale
(0.6) t 
GR
GR
GS
[1 0 0 1 123.2 392.14288] CT
0.149 GC
/Helvetica 24 F
GS
[1 0 0 1 0 0] CT
-47 8.5 moveto 
1 -1 scale
(0.65) t 
GR
GR
GS
[1 0 0 1 123.2 322.71429] CT
0.149 GC
/Helvetica 24 F
GS
[1 0 0 1 0 0] CT
-34 8.5 moveto 
1 -1 scale
(0.7) t 
GR
GR
GS
[1 0 0 1 123.2 253.28572] CT
0.149 GC
/Helvetica 24 F
GS
[1 0 0 1 0 0] CT
-47 8.5 moveto 
1 -1 scale
(0.75) t 
GR
GR
GS
[1 0 0 1 123.2 183.85713] CT
0.149 GC
/Helvetica 24 F
GS
[1 0 0 1 0 0] CT
-34 8.5 moveto 
1 -1 scale
(0.8) t 
GR
GR
GS
[1 0 0 1 123.2 114.42854] CT
0.149 GC
/Helvetica 24 F
GS
[1 0 0 1 0 0] CT
-47 8.5 moveto 
1 -1 scale
(0.85) t 
GR
GR
GS
[1 0 0 1 123.2 45.00003] CT
0.149 GC
/Helvetica 24 F
GS
[1 0 0 1 0 0] CT
-34 8.5 moveto 
1 -1 scale
(0.9) t 
GR
GR
GS
[0 -1 1 0 73.2 287.99979] CT
0.149 GC
/Helvetica 26.4 F
GS
[1 0 0 1 0 0] CT
-153 -6 moveto 
1 -1 scale
(1 - False Non-Match Rate) t 
GR
GR
GS
[1 0 0 1 517.50049 38.4] CT
/Helvetica-Bold 26.4 F
GS
[1 0 0 1 0 0] CT
-287 -6 moveto 
1 -1 scale
(Data acquired less than 110 hours after death) t 
GR
GR
GS
0 0 1 RC
1 LJ
2 LW
N
244.703 531.058 M
248.777 527.205 L
254.713 524.138 L
264.466 518.77 L
274.112 509.186 L
283.599 501.519 L
291.867 496.152 L
302.521 490.784 L
315.718 485.034 L
327.75 478.516 L
342.802 468.549 L
357.325 461.648 L
375.663 457.048 L
393.419 450.147 L
413.401 444.78 L
433.223 439.796 L
455.325 430.595 L
479.706 425.611 L
507.426 421.394 L
536.206 419.477 L
568.007 417.177 L
602.67 410.276 L
638.764 405.292 L
680.371 398.775 L
719.062 389.574 L
762.894 385.357 L
807.999 380.757 L
858.085 376.54 L
905.092 373.052 L
S
GR
GS
0 1 0 RC
1 LJ
2 LW
N
130.795 531.058 M
130.795 527.971 L
130.795 521.837 L
130.795 514.553 L
130.795 508.036 L
130.848 500.752 L
130.901 493.468 L
130.954 486.567 L
131.06 479.283 L
131.113 473.533 L
131.272 468.932 L
131.325 464.715 L
131.537 457.431 L
131.802 453.214 L
132.014 445.163 L
132.332 437.112 L
132.438 431.362 L
132.756 425.611 L
132.915 419.477 L
132.968 412.577 L
133.233 407.209 L
133.498 401.075 L
133.922 396.475 L
134.399 390.341 L
134.77 386.507 L
134.982 383.824 L
135.565 377.69 L
136.572 373.856 L
137.314 370.022 L
138.003 364.272 L
138.745 360.438 L
140.282 351.621 L
141.66 347.02 L
142.879 342.803 L
144.575 338.586 L
146.749 332.069 L
148.074 327.468 L
150.088 319.801 L
152.579 314.433 L
155.335 309.833 L
158.621 306.383 L
161.801 303.316 L
165.988 299.865 L
170.334 293.731 L
174.786 289.514 L
179.186 286.447 L
184.91 281.847 L
191.111 275.713 L
197.736 272.263 L
204.786 268.429 L
212.736 266.129 L
222.382 258.845 L
232.876 252.711 L
242.947 249.644 L
254.66 243.893 L
266.533 241.21 L
277.398 236.609 L
291.178 231.242 L
306.867 227.792 L
323.51 223.958 L
339.622 220.124 L
358.279 215.907 L
376.617 210.923 L
397.871 207.473 L
420.026 204.789 L
442.711 202.872 L
466.19 200.572 L
493.168 197.505 L
517.655 194.822 L
547.919 191.371 L
575.003 188.304 L
606.062 185.237 L
636.061 182.937 L
669.346 181.404 L
701.253 179.103 L
731.464 177.186 L
762.258 175.653 L
795.172 172.586 L
828.033 171.053 L
859.411 169.519 L
893.226 167.602 L
905.092 166.843 L
S
GR
GS
1 0 0 RC
1 LJ
2 LW
N
185.52 531.058 M
186.023 526.055 L
186.447 518.004 L
187.242 513.787 L
187.825 506.886 L
193.814 500.752 L
194.503 494.618 L
195.616 489.251 L
196.57 482.734 L
197.577 473.916 L
199.167 465.865 L
200.068 458.581 L
201.234 452.447 L
202.983 441.329 L
204.574 437.496 L
206.27 430.978 L
207.86 422.544 L
210.086 415.644 L
215.386 408.743 L
217.4 398.775 L
219.361 388.041 L
222.011 380.757 L
225.244 370.406 L
228.636 364.272 L
232.134 354.304 L
236.163 347.02 L
239.979 340.503 L
243.901 334.369 L
252.328 326.701 L
257.045 322.101 L
261.656 315.2 L
268.017 305.999 L
274.43 296.798 L
281.214 289.131 L
287.468 278.013 L
295.313 268.046 L
305.33 260.378 L
314.075 250.027 L
323.457 241.976 L
333.686 230.475 L
344.074 222.041 L
356.371 214.757 L
368.508 205.939 L
381.705 199.039 L
396.811 192.905 L
412.288 185.237 L
430.255 179.103 L
451.297 173.736 L
468.045 168.752 L
489.829 164.535 L
512.302 156.484 L
536.471 148.434 L
564.986 142.3 L
594.826 136.166 L
627.846 130.032 L
663.781 122.364 L
697.172 117.764 L
740.209 111.63 L
778.053 107.796 L
819.182 103.963 L
867.202 99.362 L
905.092 93.733 L
S
GR
GS
0 1 1 RC
[2 2] 0 setdash
2 LJ
2 LW
N
134.982 531.058 M
134.982 529.121 L
135.035 524.904 L
135.088 521.837 L
135.141 519.154 L
135.936 516.47 L
136.148 514.17 L
136.201 509.186 L
136.254 503.436 L
136.466 500.369 L
136.519 496.152 L
136.996 492.701 L
137.208 489.251 L
137.314 485.417 L
138.321 479.667 L
138.533 474.683 L
138.904 470.082 L
139.116 467.015 L
139.381 464.332 L
139.646 458.581 L
140.017 453.597 L
140.176 448.997 L
140.494 444.78 L
140.653 440.179 L
142.243 437.496 L
142.455 432.895 L
142.773 430.212 L
143.091 427.911 L
143.621 424.461 L
144.204 417.944 L
144.628 411.426 L
145.371 407.593 L
146.007 403.759 L
147.438 399.159 L
148.074 395.325 L
148.922 390.341 L
150.247 386.124 L
151.095 382.29 L
152.049 378.84 L
152.95 373.473 L
153.745 368.489 L
154.487 361.205 L
157.137 358.521 L
158.674 355.071 L
159.628 350.087 L
160.847 345.487 L
162.49 343.57 L
164.027 338.203 L
165.458 332.069 L
167.366 327.468 L
169.274 320.567 L
170.758 314.05 L
175.211 308.683 L
177.331 303.699 L
178.868 297.949 L
181.73 291.431 L
183.426 286.447 L
186.129 284.147 L
189.521 281.847 L
192.913 278.78 L
196.358 273.029 L
200.333 266.129 L
204.574 259.995 L
208.39 254.628 L
212.524 250.027 L
218.619 245.81 L
223.283 241.976 L
228.53 239.293 L
234.096 234.692 L
238.071 232.009 L
244.431 228.558 L
250.897 224.341 L
257.469 219.741 L
264.731 215.907 L
270.349 211.69 L
278.193 209.006 L
285.984 205.173 L
294.359 200.189 L
301.673 195.205 L
310.418 191.755 L
320.965 188.688 L
330.771 184.471 L
340.788 183.32 L
352.448 177.186 L
364.48 174.12 L
376.352 170.669 L
386.953 168.752 L
398.931 164.535 L
412.977 163.002 L
428.771 160.318 L
445.149 156.484 L
459.671 153.801 L
475.943 149.967 L
494.546 145.367 L
510.023 143.066 L
528.467 141.15 L
547.919 137.316 L
568.06 135.016 L
587.193 131.565 L
609.401 128.115 L
633.358 125.815 L
658.64 123.898 L
676.448 121.214 L
703.055 119.297 L
734.432 115.08 L
759.979 113.547 L
788.547 110.48 L
820.878 105.496 L
854.004 100.512 L
886.441 97.445 L
905.092 95.756 L
S
GR
GS
0 1 1 RC
1 LJ
2 LW
N
131.113 531.058 M
131.113 527.588 L
131.272 523.754 L
131.484 518.77 L
131.537 515.32 L
131.696 511.103 L
131.696 508.036 L
131.855 504.969 L
132.12 499.602 L
132.279 495.385 L
132.332 490.018 L
132.438 485.034 L
132.491 479.667 L
132.597 478.516 L
132.597 475.833 L
132.862 471.999 L
132.968 466.632 L
133.392 463.565 L
133.551 460.115 L
133.657 457.814 L
133.869 453.981 L
133.922 452.064 L
134.134 445.163 L
134.611 440.563 L
135.035 435.962 L
135.512 430.978 L
136.095 425.611 L
136.731 421.011 L
136.731 419.477 L
137.42 416.027 L
137.791 408.743 L
138.374 403.376 L
139.116 400.309 L
140.017 396.475 L
140.812 391.874 L
141.395 390.341 L
142.084 385.357 L
142.614 379.607 L
143.356 376.54 L
144.734 373.473 L
145.689 367.722 L
146.749 361.205 L
147.862 355.838 L
148.18 354.687 L
149.929 350.854 L
151.466 344.336 L
153.427 338.203 L
155.282 332.835 L
156.819 327.085 L
159.045 319.801 L
159.787 317.884 L
161.589 314.05 L
163.603 310.983 L
165.882 307.916 L
167.843 301.399 L
170.652 298.332 L
174.097 293.348 L
175.211 292.581 L
178.921 287.981 L
182.472 282.23 L
186.182 278.013 L
190.051 274.563 L
192.913 269.962 L
197.577 263.828 L
202.082 256.928 L
203.672 254.244 L
208.39 248.494 L
214.114 245.81 L
219.308 242.36 L
224.767 238.526 L
231.074 234.692 L
237.117 230.858 L
239.714 228.558 L
248.353 226.258 L
255.19 222.808 L
263.829 220.124 L
271.833 215.907 L
283.122 211.307 L
293.669 207.856 L
297.751 205.556 L
308.616 202.106 L
318.898 199.039 L
330.877 195.205 L
341.848 190.604 L
355.205 187.154 L
369.25 183.704 L
375.345 181.787 L
388.808 177.186 L
404.231 173.353 L
419.231 169.136 L
434.336 166.069 L
451.615 161.852 L
468.999 159.935 L
489.829 156.484 L
496.931 154.951 L
517.231 152.267 L
541.188 148.817 L
562.548 143.833 L
586.133 140.383 L
610.885 136.933 L
638.764 132.715 L
648.304 130.799 L
675.971 125.431 L
706.129 120.447 L
737.347 116.614 L
767.876 112.78 L
803.6 110.096 L
837.15 107.029 L
851.778 105.496 L
887.978 102.046 L
905.092 101.513 L
S
GR
GS
1 0 1 RC
[2 2] 0 setdash
2 LJ
2 LW
N
131.054 531.058 M
131.06 530.655 L
131.113 527.588 L
131.219 522.221 L
131.272 517.237 L
131.325 512.253 L
131.325 507.269 L
131.431 502.669 L
131.59 499.985 L
131.802 493.851 L
131.908 486.567 L
132.12 483.5 L
132.332 481.2 L
132.491 474.299 L
132.544 469.699 L
133.074 465.098 L
133.18 461.648 L
133.286 458.965 L
133.498 453.981 L
133.869 451.68 L
134.187 445.163 L
134.399 440.563 L
134.558 434.429 L
134.982 430.212 L
135.353 426.378 L
135.936 422.928 L
136.572 416.794 L
136.784 412.577 L
137.844 407.976 L
138.374 402.609 L
138.957 398.392 L
139.752 393.791 L
140.176 388.808 L
140.812 383.824 L
141.554 379.223 L
142.19 375.773 L
142.72 370.406 L
143.886 363.888 L
145.318 360.055 L
146.166 355.071 L
147.385 349.32 L
148.922 342.036 L
150.3 337.819 L
151.784 333.985 L
153.268 329.002 L
154.805 325.551 L
156.077 318.651 L
157.667 313.667 L
159.045 311.367 L
161.218 305.233 L
164.027 299.865 L
166.2 295.648 L
168.903 291.815 L
170.44 286.831 L
172.56 282.23 L
175.317 279.93 L
177.702 278.013 L
181.942 273.413 L
185.811 270.346 L
190.475 267.279 L
194.238 260.762 L
198.054 258.078 L
202.453 250.027 L
206.8 245.81 L
211.093 242.743 L
216.34 240.059 L
220.527 234.309 L
225.933 230.475 L
232.293 226.641 L
237.7 222.424 L
245.173 217.824 L
251.586 214.757 L
257.999 210.923 L
263.352 207.473 L
272.151 203.639 L
281.797 200.572 L
290.065 197.122 L
299.182 193.671 L
308.934 190.604 L
319.587 186.004 L
331.195 182.937 L
341.265 177.953 L
351.441 176.42 L
365.805 173.353 L
379.744 170.669 L
392.306 165.685 L
405.503 161.852 L
420.927 160.318 L
437.41 158.401 L
451.668 154.951 L
469.158 153.034 L
489.67 150.351 L
511.03 148.817 L
529.951 146.9 L
550.569 144.217 L
573.943 141.916 L
599.543 138.849 L
615.39 135.399 L
641.626 131.949 L
670.406 127.348 L
694.681 123.898 L
720.546 120.831 L
750.333 118.147 L
782.187 116.614 L
812.08 114.314 L
838.21 112.013 L
874.198 109.713 L
905.092 107.965 L
S
GR
GS
1 0 1 RC
1 LJ
2 LW
N
130.941 531.058 M
131.113 526.821 L
131.113 524.904 L
131.219 522.221 L
131.325 518.004 L
131.431 512.253 L
131.59 508.419 L
131.696 500.752 L
131.855 496.535 L
131.855 495.001 L
132.067 490.018 L
132.226 485.801 L
132.597 479.667 L
132.862 475.066 L
133.18 470.849 L
133.445 465.865 L
133.551 459.348 L
133.551 457.048 L
133.816 453.981 L
134.134 448.613 L
134.823 444.396 L
135.194 440.563 L
135.777 435.962 L
136.095 430.978 L
136.784 427.145 L
136.837 424.844 L
137.261 419.094 L
137.95 413.343 L
138.586 409.51 L
139.381 402.992 L
139.964 396.858 L
140.653 386.124 L
141.872 379.99 L
142.72 373.856 L
142.985 373.089 L
144.045 365.805 L
145.159 360.438 L
146.219 355.454 L
147.544 352.004 L
148.551 348.554 L
150.247 341.269 L
150.671 339.736 L
152.367 337.052 L
153.904 332.452 L
156.342 328.235 L
158.515 322.484 L
160.741 317.117 L
162.437 312.517 L
164.504 306.383 L
165.14 305.616 L
167.101 300.632 L
169.91 298.332 L
172.772 291.815 L
176.324 289.131 L
179.716 285.681 L
182.737 281.464 L
186.447 274.179 L
190.528 269.962 L
191.853 268.812 L
195.563 264.595 L
200.28 260.762 L
205.104 251.944 L
209.715 247.727 L
214.538 242.36 L
220.156 238.143 L
222.011 236.609 L
228.583 233.542 L
234.944 231.242 L
241.569 228.175 L
249.625 224.341 L
257.787 219.357 L
266.798 214.374 L
276.02 210.156 L
278.564 207.856 L
287.733 205.173 L
297.009 203.639 L
307.768 200.189 L
318.633 196.738 L
330.188 191.755 L
342.219 187.154 L
355.735 183.704 L
360.505 182.17 L
373.437 179.87 L
389.55 178.72 L
405.132 176.036 L
422.411 172.969 L
439.795 169.519 L
458.876 165.685 L
479.07 164.919 L
486.331 162.618 L
505.624 159.935 L
529.05 154.951 L
556.134 151.884 L
576.805 149.584 L
601.716 143.833 L
630.072 140.766 L
656.573 138.466 L
663.092 137.699 L
693.091 135.016 L
723.779 130.799 L
754.838 127.348 L
784.678 125.431 L
819.924 121.598 L
858.668 118.147 L
896.194 115.847 L
905.092 115.348 L
S
GR
GS
0 0 1 RC
[2 2] 0 setdash
2 LJ
2 LW
N
142.807 531.058 M
143.25 527.205 L
144.363 521.454 L
144.84 517.62 L
145.742 512.253 L
146.537 506.886 L
147.809 502.285 L
148.816 497.302 L
149.717 491.168 L
150.883 487.334 L
152.155 481.583 L
153.215 476.216 L
154.752 468.932 L
156.554 464.332 L
157.72 457.814 L
158.78 453.597 L
160.105 450.147 L
162.49 444.78 L
163.232 439.029 L
165.087 435.962 L
167.154 431.745 L
169.539 424.844 L
170.917 419.094 L
172.666 414.11 L
175.476 411.043 L
178.126 405.676 L
180.723 403.759 L
182.949 400.692 L
186.394 396.092 L
189.574 390.724 L
192.966 387.274 L
197.047 383.824 L
202.347 380.757 L
206.906 376.54 L
212.047 371.939 L
217.718 366.189 L
223.336 361.588 L
228.212 357.754 L
234.361 350.47 L
240.933 345.487 L
248.141 339.353 L
254.713 335.519 L
262.239 331.685 L
269.713 327.085 L
276.868 322.868 L
285.454 318.267 L
292.291 314.817 L
301.408 309.45 L
311.425 304.466 L
321.124 300.249 L
332.414 295.648 L
344.074 290.664 L
356.583 284.531 L
370.734 281.08 L
383.932 277.246 L
398.083 274.563 L
413.507 270.346 L
430.202 266.512 L
447.269 262.295 L
463.911 258.078 L
481.561 255.011 L
500.535 253.094 L
520.358 250.027 L
541.029 246.96 L
563.979 239.676 L
588.306 232.775 L
616.344 228.942 L
641.308 225.108 L
666.166 222.041 L
694.416 217.824 L
715.352 215.524 L
747.895 211.69 L
778.954 207.473 L
813.935 199.805 L
847.008 195.205 L
883.367 190.221 L
905.092 187.584 L
S
GR
GS
[2 2] 0 setdash
2 LJ
2 LW
N
130.318 531.058 M
130.318 529.505 L
130.318 524.138 L
130.371 521.071 L
130.424 514.553 L
130.477 510.72 L
130.477 506.503 L
130.477 502.669 L
130.477 499.602 L
130.477 495.768 L
130.477 490.784 L
130.53 486.567 L
130.583 483.117 L
130.636 479.667 L
130.689 475.449 L
130.742 471.999 L
130.795 468.549 L
130.901 462.798 L
131.007 457.048 L
131.166 452.064 L
131.219 447.463 L
131.484 443.63 L
131.537 437.496 L
131.643 434.429 L
131.802 428.295 L
131.802 423.311 L
131.855 419.094 L
132.173 414.11 L
132.385 409.51 L
132.597 406.443 L
132.915 401.075 L
133.021 398.775 L
133.339 393.408 L
133.71 386.891 L
133.869 382.29 L
134.134 378.073 L
134.24 370.789 L
134.876 365.038 L
135.247 361.588 L
135.565 356.221 L
135.777 354.304 L
135.936 349.32 L
136.201 348.17 L
136.572 343.186 L
137.261 337.819 L
138.427 333.219 L
138.798 329.385 L
139.487 323.634 L
140.335 319.034 L
141.13 312.9 L
142.243 308.299 L
143.197 306.383 L
144.363 301.399 L
145.477 296.798 L
146.908 292.581 L
148.074 289.898 L
149.187 287.597 L
151.201 282.614 L
153.215 278.78 L
154.699 276.48 L
156.077 273.796 L
158.303 268.812 L
160.211 264.212 L
162.755 259.228 L
165.564 251.944 L
168.373 249.26 L
171.288 246.193 L
174.734 241.593 L
177.119 239.676 L
180.723 236.226 L
184.115 233.542 L
187.56 227.408 L
191.376 223.191 L
195.616 217.824 L
199.644 213.99 L
203.937 209.773 L
207.701 207.473 L
212.471 203.256 L
217.4 198.655 L
221.958 194.055 L
230.12 191.755 L
236.269 187.921 L
242.629 185.237 L
250.155 182.554 L
258.317 179.487 L
264.413 175.27 L
272.628 171.436 L
282.91 168.369 L
293.352 164.919 L
303.369 162.235 L
313.651 158.785 L
323.775 156.484 L
335.965 153.801 L
343.809 151.117 L
356.318 148.434 L
370.363 145.75 L
384.939 141.15 L
401.051 136.933 L
416.687 134.632 L
433.806 130.415 L
449.389 129.265 L
467.992 125.815 L
480.978 124.281 L
498.733 120.064 L
517.708 116.614 L
537.902 112.013 L
559.155 108.563 L
581.098 105.113 L
604.419 102.046 L
630.655 98.212 L
639.877 97.062 L
671.148 93.228 L
699.769 91.311 L
729.556 89.394 L
756.11 86.711 L
788.547 84.027 L
822.309 81.344 L
856.177 79.043 L
887.925 77.51 L
905.092 77.22 L
S
GR
GS
1 LJ
2 LW
N
130.159 531.058 M
130.159 530.655 L
130.212 525.671 L
130.265 522.604 L
130.318 520.304 L
130.318 516.087 L
130.318 509.57 L
130.371 506.119 L
130.371 498.835 L
130.424 494.235 L
130.477 492.318 L
130.583 487.717 L
130.742 485.417 L
130.742 480.817 L
130.742 474.683 L
130.742 469.699 L
130.848 463.565 L
131.113 458.965 L
131.113 457.048 L
131.166 450.53 L
131.219 445.93 L
131.325 441.329 L
131.537 434.812 L
131.59 429.445 L
131.749 424.844 L
131.855 419.861 L
131.961 417.56 L
132.12 412.577 L
132.226 409.893 L
132.438 402.992 L
132.703 398.008 L
132.915 394.175 L
133.233 389.574 L
133.71 384.974 L
133.922 384.207 L
134.346 381.907 L
134.77 377.69 L
134.982 372.323 L
135.3 366.189 L
135.883 359.671 L
136.466 355.838 L
136.996 352.387 L
137.208 351.237 L
137.579 345.87 L
138.268 340.503 L
138.798 336.669 L
139.646 330.535 L
140.6 325.168 L
141.554 320.951 L
142.349 316.35 L
143.886 312.9 L
144.151 311.367 L
145.318 306.766 L
146.696 301.782 L
148.445 296.798 L
150.247 292.965 L
151.731 289.514 L
153.109 285.297 L
155.07 279.163 L
155.812 278.013 L
158.25 274.563 L
160.317 271.496 L
162.437 265.745 L
165.458 261.145 L
168.161 256.928 L
170.705 252.711 L
173.832 248.877 L
174.468 246.96 L
176.96 241.976 L
180.087 240.059 L
183.956 235.842 L
187.613 232.009 L
192.436 229.708 L
196.782 225.491 L
201.87 220.507 L
203.46 218.207 L
207.224 213.99 L
212.418 210.156 L
218.036 208.24 L
225.668 203.256 L
232.293 200.572 L
239.926 196.355 L
247.293 191.755 L
249.731 188.688 L
257.469 186.004 L
266.215 182.554 L
274.801 179.487 L
284.977 175.27 L
295.26 172.203 L
304.853 169.902 L
315.559 168.752 L
327.962 165.685 L
330.93 164.152 L
343.597 161.468 L
358.173 158.018 L
373.013 153.034 L
387.642 149.2 L
402.853 147.667 L
417.535 144.217 L
435.078 141.533 L
439.954 139.999 L
456.65 136.549 L
476.261 133.099 L
496.772 127.348 L
516.277 123.131 L
538.167 118.531 L
561.911 115.847 L
588.624 114.314 L
593.289 113.163 L
617.828 109.713 L
645.071 107.029 L
670.83 103.963 L
701.518 101.279 L
733.69 99.362 L
766.074 97.062 L
797.239 95.145 L
806.515 94.378 L
842.026 92.461 L
875.735 89.011 L
905.092 88.221 L
S
GR
%%Trailer
%%Pages: 1
%%EOF
