%!PS-Adobe-3.0 EPSF-3.0
%%Creator: (MATLAB, The Mathworks, Inc. Version 9.3.0.713579 \(R2017b\). Operating System: Mac OS X)
%%Title: ./ROCs_postmortem_370_closeup.eps
%%CreationDate: 2019-01-22T13:11:10
%%Pages: (atend)
%%BoundingBox:    61     5   927   587
%%LanguageLevel: 3
%%EndComments
%%BeginProlog
%%BeginResource: procset (Apache XML Graphics Std ProcSet) 1.2 0
%%Version: 1.2 0
%%Copyright: (Copyright 2001-2003,2010 The Apache Software Foundation. License terms: http://www.apache.org/licenses/LICENSE-2.0)
/bd{bind def}bind def
/ld{load def}bd
/GR/grestore ld
/GS/gsave ld
/RM/rmoveto ld
/C/curveto ld
/t/show ld
/L/lineto ld
/ML/setmiterlimit ld
/CT/concat ld
/f/fill ld
/N/newpath ld
/S/stroke ld
/CC/setcmykcolor ld
/A/ashow ld
/cp/closepath ld
/RC/setrgbcolor ld
/LJ/setlinejoin ld
/GC/setgray ld
/LW/setlinewidth ld
/M/moveto ld
/re {4 2 roll M
1 index 0 rlineto
0 exch rlineto
neg 0 rlineto
cp } bd
/_ctm matrix def
/_tm matrix def
/BT { _ctm currentmatrix pop matrix _tm copy pop 0 0 moveto } bd
/ET { _ctm setmatrix } bd
/iTm { _ctm setmatrix _tm concat } bd
/Tm { _tm astore pop iTm 0 0 moveto } bd
/ux 0.0 def
/uy 0.0 def
/F {
  /Tp exch def
  /Tf exch def
  Tf findfont Tp scalefont setfont
  /cf Tf def  /cs Tp def
} bd
/ULS {currentpoint /uy exch def /ux exch def} bd
/ULE {
  /Tcx currentpoint pop def
  gsave
  newpath
  cf findfont cs scalefont dup
  /FontMatrix get 0 get /Ts exch def /FontInfo get dup
  /UnderlinePosition get Ts mul /To exch def
  /UnderlineThickness get Ts mul /Tt exch def
  ux uy To add moveto  Tcx uy To add lineto
  Tt setlinewidth stroke
  grestore
} bd
/OLE {
  /Tcx currentpoint pop def
  gsave
  newpath
  cf findfont cs scalefont dup
  /FontMatrix get 0 get /Ts exch def /FontInfo get dup
  /UnderlinePosition get Ts mul /To exch def
  /UnderlineThickness get Ts mul /Tt exch def
  ux uy To add cs add moveto Tcx uy To add cs add lineto
  Tt setlinewidth stroke
  grestore
} bd
/SOE {
  /Tcx currentpoint pop def
  gsave
  newpath
  cf findfont cs scalefont dup
  /FontMatrix get 0 get /Ts exch def /FontInfo get dup
  /UnderlinePosition get Ts mul /To exch def
  /UnderlineThickness get Ts mul /Tt exch def
  ux uy To add cs 10 mul 26 idiv add moveto Tcx uy To add cs 10 mul 26 idiv add lineto
  Tt setlinewidth stroke
  grestore
} bd
/QT {
/Y22 exch store
/X22 exch store
/Y21 exch store
/X21 exch store
currentpoint
/Y21 load 2 mul add 3 div exch
/X21 load 2 mul add 3 div exch
/X21 load 2 mul /X22 load add 3 div
/Y21 load 2 mul /Y22 load add 3 div
/X22 load /Y22 load curveto
} bd
/SSPD {
dup length /d exch dict def
{
/v exch def
/k exch def
currentpagedevice k known {
/cpdv currentpagedevice k get def
v cpdv ne {
/upd false def
/nullv v type /nulltype eq def
/nullcpdv cpdv type /nulltype eq def
nullv nullcpdv or
{
/upd true def
} {
/sametype v type cpdv type eq def
sametype {
v type /arraytype eq {
/vlen v length def
/cpdvlen cpdv length def
vlen cpdvlen eq {
0 1 vlen 1 sub {
/i exch def
/obj v i get def
/cpdobj cpdv i get def
obj cpdobj ne {
/upd true def
exit
} if
} for
} {
/upd true def
} ifelse
} {
v type /dicttype eq {
v {
/dv exch def
/dk exch def
/cpddv cpdv dk get def
dv cpddv ne {
/upd true def
exit
} if
} forall
} {
/upd true def
} ifelse
} ifelse
} if
} ifelse
upd true eq {
d k v put
} if
} if
} if
} forall
d length 0 gt {
d setpagedevice
} if
} bd
/RE { % /NewFontName [NewEncodingArray] /FontName RE -
  findfont dup length dict begin
  {
    1 index /FID ne
    {def} {pop pop} ifelse
  } forall
  /Encoding exch def
  /FontName 1 index def
  currentdict definefont pop
  end
} bind def
%%EndResource
%%BeginResource: procset (Apache XML Graphics EPS ProcSet) 1.0 0
%%Version: 1.0 0
%%Copyright: (Copyright 2002-2003 The Apache Software Foundation. License terms: http://www.apache.org/licenses/LICENSE-2.0)
/BeginEPSF { %def
/b4_Inc_state save def         % Save state for cleanup
/dict_count countdictstack def % Count objects on dict stack
/op_count count 1 sub def      % Count objects on operand stack
userdict begin                 % Push userdict on dict stack
/showpage { } def              % Redefine showpage, { } = null proc
0 setgray 0 setlinecap         % Prepare graphics state
1 setlinewidth 0 setlinejoin
10 setmiterlimit [ ] 0 setdash newpath
/languagelevel where           % If level not equal to 1 then
{pop languagelevel             % set strokeadjust and
1 ne                           % overprint to their defaults.
{false setstrokeadjust false setoverprint
} if
} if
} bd
/EndEPSF { %def
count op_count sub {pop} repeat            % Clean up stacks
countdictstack dict_count sub {end} repeat
b4_Inc_state restore
} bd
%%EndResource
%FOPBeginFontDict
%%IncludeResource: font Courier-Oblique
%%IncludeResource: font Courier-BoldOblique
%%IncludeResource: font Courier-Bold
%%IncludeResource: font ZapfDingbats
%%IncludeResource: font Symbol
%%IncludeResource: font Helvetica
%%IncludeResource: font Helvetica-Oblique
%%IncludeResource: font Helvetica-Bold
%%IncludeResource: font Helvetica-BoldOblique
%%IncludeResource: font Times-Roman
%%IncludeResource: font Times-Italic
%%IncludeResource: font Times-Bold
%%IncludeResource: font Times-BoldItalic
%%IncludeResource: font Courier
%FOPEndFontDict
%%BeginResource: encoding WinAnsiEncoding
/WinAnsiEncoding [
/.notdef /.notdef /.notdef /.notdef /.notdef
/.notdef /.notdef /.notdef /.notdef /.notdef
/.notdef /.notdef /.notdef /.notdef /.notdef
/.notdef /.notdef /.notdef /.notdef /.notdef
/.notdef /.notdef /.notdef /.notdef /.notdef
/.notdef /.notdef /.notdef /.notdef /.notdef
/.notdef /.notdef /space /exclam /quotedbl
/numbersign /dollar /percent /ampersand /quotesingle
/parenleft /parenright /asterisk /plus /comma
/hyphen /period /slash /zero /one
/two /three /four /five /six
/seven /eight /nine /colon /semicolon
/less /equal /greater /question /at
/A /B /C /D /E
/F /G /H /I /J
/K /L /M /N /O
/P /Q /R /S /T
/U /V /W /X /Y
/Z /bracketleft /backslash /bracketright /asciicircum
/underscore /quoteleft /a /b /c
/d /e /f /g /h
/i /j /k /l /m
/n /o /p /q /r
/s /t /u /v /w
/x /y /z /braceleft /bar
/braceright /asciitilde /bullet /Euro /bullet
/quotesinglbase /florin /quotedblbase /ellipsis /dagger
/daggerdbl /circumflex /perthousand /Scaron /guilsinglleft
/OE /bullet /Zcaron /bullet /bullet
/quoteleft /quoteright /quotedblleft /quotedblright /bullet
/endash /emdash /asciitilde /trademark /scaron
/guilsinglright /oe /bullet /zcaron /Ydieresis
/space /exclamdown /cent /sterling /currency
/yen /brokenbar /section /dieresis /copyright
/ordfeminine /guillemotleft /logicalnot /sfthyphen /registered
/macron /degree /plusminus /twosuperior /threesuperior
/acute /mu /paragraph /middot /cedilla
/onesuperior /ordmasculine /guillemotright /onequarter /onehalf
/threequarters /questiondown /Agrave /Aacute /Acircumflex
/Atilde /Adieresis /Aring /AE /Ccedilla
/Egrave /Eacute /Ecircumflex /Edieresis /Igrave
/Iacute /Icircumflex /Idieresis /Eth /Ntilde
/Ograve /Oacute /Ocircumflex /Otilde /Odieresis
/multiply /Oslash /Ugrave /Uacute /Ucircumflex
/Udieresis /Yacute /Thorn /germandbls /agrave
/aacute /acircumflex /atilde /adieresis /aring
/ae /ccedilla /egrave /eacute /ecircumflex
/edieresis /igrave /iacute /icircumflex /idieresis
/eth /ntilde /ograve /oacute /ocircumflex
/otilde /odieresis /divide /oslash /ugrave
/uacute /ucircumflex /udieresis /yacute /thorn
/ydieresis
] def
%%EndResource
%FOPBeginFontReencode
/Courier-Oblique findfont
dup length dict begin
  {1 index /FID ne {def} {pop pop} ifelse} forall
  /Encoding WinAnsiEncoding def
  currentdict
end
/Courier-Oblique exch definefont pop
/Courier-BoldOblique findfont
dup length dict begin
  {1 index /FID ne {def} {pop pop} ifelse} forall
  /Encoding WinAnsiEncoding def
  currentdict
end
/Courier-BoldOblique exch definefont pop
/Courier-Bold findfont
dup length dict begin
  {1 index /FID ne {def} {pop pop} ifelse} forall
  /Encoding WinAnsiEncoding def
  currentdict
end
/Courier-Bold exch definefont pop
/Helvetica findfont
dup length dict begin
  {1 index /FID ne {def} {pop pop} ifelse} forall
  /Encoding WinAnsiEncoding def
  currentdict
end
/Helvetica exch definefont pop
/Helvetica-Oblique findfont
dup length dict begin
  {1 index /FID ne {def} {pop pop} ifelse} forall
  /Encoding WinAnsiEncoding def
  currentdict
end
/Helvetica-Oblique exch definefont pop
/Helvetica-Bold findfont
dup length dict begin
  {1 index /FID ne {def} {pop pop} ifelse} forall
  /Encoding WinAnsiEncoding def
  currentdict
end
/Helvetica-Bold exch definefont pop
/Helvetica-BoldOblique findfont
dup length dict begin
  {1 index /FID ne {def} {pop pop} ifelse} forall
  /Encoding WinAnsiEncoding def
  currentdict
end
/Helvetica-BoldOblique exch definefont pop
/Times-Roman findfont
dup length dict begin
  {1 index /FID ne {def} {pop pop} ifelse} forall
  /Encoding WinAnsiEncoding def
  currentdict
end
/Times-Roman exch definefont pop
/Times-Italic findfont
dup length dict begin
  {1 index /FID ne {def} {pop pop} ifelse} forall
  /Encoding WinAnsiEncoding def
  currentdict
end
/Times-Italic exch definefont pop
/Times-Bold findfont
dup length dict begin
  {1 index /FID ne {def} {pop pop} ifelse} forall
  /Encoding WinAnsiEncoding def
  currentdict
end
/Times-Bold exch definefont pop
/Times-BoldItalic findfont
dup length dict begin
  {1 index /FID ne {def} {pop pop} ifelse} forall
  /Encoding WinAnsiEncoding def
  currentdict
end
/Times-BoldItalic exch definefont pop
/Courier findfont
dup length dict begin
  {1 index /FID ne {def} {pop pop} ifelse} forall
  /Encoding WinAnsiEncoding def
  currentdict
end
/Courier exch definefont pop
%FOPEndFontReencode
%%EndProlog
%%Page: 1 1
%%PageBoundingBox: 0 0 1000 600
%%BeginPageSetup
[1 0 0 -1 0 600] CT
%%EndPageSetup
GS
1 GC
N
0 0 1000 600 re
f
GR
GS
1 GC
N
0 0 1000 600 re
f
GR
GS
1 GC
N
130 531 M
905 531 L
905 45 L
130 45 L
cp
f
GR
GS
0.873 GC
1 LJ
0.5 LW
N
130 531 M
130 45 L
S
GR
GS
0.873 GC
1 LJ
0.5 LW
N
285 531 M
285 45 L
S
GR
GS
0.873 GC
1 LJ
0.5 LW
N
440 531 M
440 45 L
S
GR
GS
0.873 GC
1 LJ
0.5 LW
N
595 531 M
595 45 L
S
GR
GS
0.873 GC
1 LJ
0.5 LW
N
750 531 M
750 45 L
S
GR
GS
0.873 GC
1 LJ
0.5 LW
N
905 531 M
905 45 L
S
GR
GS
0.873 GC
1 LJ
0.5 LW
N
905 531 M
130 531 L
S
GR
GS
0.873 GC
1 LJ
0.5 LW
N
905 433.8 M
130 433.8 L
S
GR
GS
0.873 GC
1 LJ
0.5 LW
N
905 336.6 M
130 336.6 L
S
GR
GS
0.873 GC
1 LJ
0.5 LW
N
905 239.4 M
130 239.4 L
S
GR
GS
0.873 GC
1 LJ
0.5 LW
N
905 142.2 M
130 142.2 L
S
GR
GS
0.873 GC
1 LJ
0.5 LW
N
905 45 M
130 45 L
S
GR
GS
0.149 GC
2 setlinecap
1 LJ
0.5 LW
N
130 531 M
905 531 L
S
GR
GS
0.149 GC
2 setlinecap
1 LJ
0.5 LW
N
130 45 M
905 45 L
S
GR
GS
0.149 GC
2 setlinecap
1 LJ
0.5 LW
N
130 531 M
130 523.25 L
S
GR
GS
0.149 GC
2 setlinecap
1 LJ
0.5 LW
N
285 531 M
285 523.25 L
S
GR
GS
0.149 GC
2 setlinecap
1 LJ
0.5 LW
N
440 531 M
440 523.25 L
S
GR
GS
0.149 GC
2 setlinecap
1 LJ
0.5 LW
N
595 531 M
595 523.25 L
S
GR
GS
0.149 GC
2 setlinecap
1 LJ
0.5 LW
N
750 531 M
750 523.25 L
S
GR
GS
0.149 GC
2 setlinecap
1 LJ
0.5 LW
N
905 531 M
905 523.25 L
S
GR
GS
0.149 GC
2 setlinecap
1 LJ
0.5 LW
N
130 45 M
130 52.75 L
S
GR
GS
0.149 GC
2 setlinecap
1 LJ
0.5 LW
N
285 45 M
285 52.75 L
S
GR
GS
0.149 GC
2 setlinecap
1 LJ
0.5 LW
N
440 45 M
440 52.75 L
S
GR
GS
0.149 GC
2 setlinecap
1 LJ
0.5 LW
N
595 45 M
595 52.75 L
S
GR
GS
0.149 GC
2 setlinecap
1 LJ
0.5 LW
N
750 45 M
750 52.75 L
S
GR
GS
0.149 GC
2 setlinecap
1 LJ
0.5 LW
N
905 45 M
905 52.75 L
S
GR
GS
[1 0 0 1 130 537.79999] CT
0.149 GC
/Helvetica 24 F
GS
[1 0 0 1 0 0] CT
-7 23 moveto 
1 -1 scale
(0) t 
GR
GR
GS
[1 0 0 1 285 537.79999] CT
0.149 GC
/Helvetica 24 F
GS
[1 0 0 1 0 0] CT
-23.5 23 moveto 
1 -1 scale
(0.01) t 
GR
GR
GS
[1 0 0 1 440 537.79999] CT
0.149 GC
/Helvetica 24 F
GS
[1 0 0 1 0 0] CT
-23.5 23 moveto 
1 -1 scale
(0.02) t 
GR
GR
GS
[1 0 0 1 595 537.79999] CT
0.149 GC
/Helvetica 24 F
GS
[1 0 0 1 0 0] CT
-23.5 23 moveto 
1 -1 scale
(0.03) t 
GR
GR
GS
[1 0 0 1 750 537.79999] CT
0.149 GC
/Helvetica 24 F
GS
[1 0 0 1 0 0] CT
-23.5 23 moveto 
1 -1 scale
(0.04) t 
GR
GR
GS
[1 0 0 1 905 537.79999] CT
0.149 GC
/Helvetica 24 F
GS
[1 0 0 1 0 0] CT
-23.5 23 moveto 
1 -1 scale
(0.05) t 
GR
GR
GS
[1 0 0 1 517.50037 567.79999] CT
0.149 GC
/Helvetica 26.4 F
GS
[1 0 0 1 0 0] CT
-103.5 26 moveto 
1 -1 scale
(False Match Rate) t 
GR
GR
GS
0.149 GC
2 setlinecap
1 LJ
0.5 LW
N
130 531 M
130 45 L
S
GR
GS
0.149 GC
2 setlinecap
1 LJ
0.5 LW
N
905 531 M
905 45 L
S
GR
GS
0.149 GC
2 setlinecap
1 LJ
0.5 LW
N
130 531 M
137.75 531 L
S
GR
GS
0.149 GC
2 setlinecap
1 LJ
0.5 LW
N
130 433.8 M
137.75 433.8 L
S
GR
GS
0.149 GC
2 setlinecap
1 LJ
0.5 LW
N
130 336.6 M
137.75 336.6 L
S
GR
GS
0.149 GC
2 setlinecap
1 LJ
0.5 LW
N
130 239.4 M
137.75 239.4 L
S
GR
GS
0.149 GC
2 setlinecap
1 LJ
0.5 LW
N
130 142.2 M
137.75 142.2 L
S
GR
GS
0.149 GC
2 setlinecap
1 LJ
0.5 LW
N
130 45 M
137.75 45 L
S
GR
GS
0.149 GC
2 setlinecap
1 LJ
0.5 LW
N
905 531 M
897.25 531 L
S
GR
GS
0.149 GC
2 setlinecap
1 LJ
0.5 LW
N
905 433.8 M
897.25 433.8 L
S
GR
GS
0.149 GC
2 setlinecap
1 LJ
0.5 LW
N
905 336.6 M
897.25 336.6 L
S
GR
GS
0.149 GC
2 setlinecap
1 LJ
0.5 LW
N
905 239.4 M
897.25 239.4 L
S
GR
GS
0.149 GC
2 setlinecap
1 LJ
0.5 LW
N
905 142.2 M
897.25 142.2 L
S
GR
GS
0.149 GC
2 setlinecap
1 LJ
0.5 LW
N
905 45 M
897.25 45 L
S
GR
GS
[1 0 0 1 123.2 531] CT
0.149 GC
/Helvetica 24 F
GS
[1 0 0 1 0 0] CT
-34 8.5 moveto 
1 -1 scale
(0.2) t 
GR
GR
GS
[1 0 0 1 123.2 433.79999] CT
0.149 GC
/Helvetica 24 F
GS
[1 0 0 1 0 0] CT
-34 8.5 moveto 
1 -1 scale
(0.3) t 
GR
GR
GS
[1 0 0 1 123.2 336.60001] CT
0.149 GC
/Helvetica 24 F
GS
[1 0 0 1 0 0] CT
-34 8.5 moveto 
1 -1 scale
(0.4) t 
GR
GR
GS
[1 0 0 1 123.2 239.39999] CT
0.149 GC
/Helvetica 24 F
GS
[1 0 0 1 0 0] CT
-34 8.5 moveto 
1 -1 scale
(0.5) t 
GR
GR
GS
[1 0 0 1 123.2 142.19998] CT
0.149 GC
/Helvetica 24 F
GS
[1 0 0 1 0 0] CT
-34 8.5 moveto 
1 -1 scale
(0.6) t 
GR
GR
GS
[1 0 0 1 123.2 45.00001] CT
0.149 GC
/Helvetica 24 F
GS
[1 0 0 1 0 0] CT
-34 8.5 moveto 
1 -1 scale
(0.7) t 
GR
GR
GS
[0 -1 1 0 86.2 287.99979] CT
0.149 GC
/Helvetica 26.4 F
GS
[1 0 0 1 0 0] CT
-153 -6 moveto 
1 -1 scale
(1 - False Non-Match Rate) t 
GR
GR
GS
[1 0 0 1 517.50049 38.40003] CT
/Helvetica-Bold 26.4 F
GS
[1 0 0 1 0 0] CT
-287 -6 moveto 
1 -1 scale
(Data acquired less than 370 hours after death) t 
GR
GR
GS
0 0 1 RC
1 LJ
2 LW
N
152.558 531.058 M
152.713 529.562 L
152.87 527.928 L
153.976 525.423 L
154.318 522.809 L
154.423 520.304 L
154.765 517.472 L
155.108 514.64 L
155.45 512.026 L
156.66 509.303 L
157.029 506.798 L
157.239 503.857 L
157.45 501.57 L
158.766 498.738 L
159.239 495.579 L
159.74 493.183 L
160.397 491.331 L
160.792 489.262 L
161.634 485.994 L
162.108 482.945 L
162.871 479.677 L
164.793 477.281 L
166.345 474.885 L
167.161 472.053 L
168.293 469.656 L
169.214 466.28 L
170.583 463.557 L
171.425 461.161 L
172.635 457.457 L
174.162 454.517 L
175.952 451.685 L
178.268 447.001 L
180.847 443.407 L
182.768 440.248 L
185.268 437.416 L
187.847 433.277 L
190.374 429.465 L
193.479 426.415 L
196.322 422.494 L
199.085 418.682 L
204.059 415.85 L
208.165 413.127 L
211.981 409.859 L
216.692 406.265 L
223.35 402.671 L
228.719 398.314 L
234.562 394.937 L
241.194 391.452 L
247.458 388.62 L
256.459 385.57 L
265.275 380.342 L
275.434 375.114 L
283.303 371.846 L
294.015 366.727 L
305.911 362.915 L
318.122 358.449 L
331.413 353.439 L
344.809 348.647 L
362.231 344.29 L
379.628 339.824 L
397.656 336.012 L
416.421 331.328 L
438.028 326.536 L
460.661 322.07 L
485.611 318.149 L
512.324 314.228 L
541.405 310.525 L
572.856 305.079 L
606.543 300.831 L
644.046 295.929 L
680.655 289.939 L
720.79 286.018 L
763.11 281.225 L
808.482 276.868 L
856.486 272.512 L
905.092 267.891 L
S
GR
GS
0 1 0 RC
1 LJ
2 LW
N
130 531.058 M
130 530.543 L
130 529.127 L
130 527.602 L
130 526.295 L
130 524.661 L
130.026 523.789 L
130.026 522.047 L
130.026 520.195 L
130.026 518.779 L
130.026 517.363 L
130.026 516.165 L
130.026 515.512 L
130.026 514.205 L
130.026 512.789 L
130.026 511.591 L
130.026 509.63 L
130.079 508.759 L
130.105 507.343 L
130.105 506.362 L
130.105 504.729 L
130.105 502.877 L
130.105 501.461 L
130.105 500.59 L
130.105 499.065 L
130.158 497.976 L
130.184 496.124 L
130.184 494.272 L
130.184 492.53 L
130.184 491.223 L
130.211 489.589 L
130.237 487.737 L
130.237 486.103 L
130.237 484.469 L
130.237 482.836 L
130.237 481.746 L
130.29 479.241 L
130.316 476.736 L
130.368 474.122 L
130.395 471.835 L
130.395 469.765 L
130.5 467.369 L
130.526 465.191 L
130.526 463.23 L
130.579 461.052 L
130.605 458.982 L
130.711 455.606 L
130.763 453.972 L
130.842 451.467 L
130.868 449.179 L
130.868 447.328 L
130.921 445.912 L
131 443.407 L
131.053 440.575 L
131.132 438.179 L
131.237 435.456 L
131.263 433.168 L
131.29 429.901 L
131.5 426.306 L
131.605 423.91 L
131.684 421.514 L
131.895 418.355 L
131.974 415.959 L
132.184 412.474 L
132.369 409.751 L
132.474 406.81 L
132.605 402.997 L
132.79 400.383 L
133.132 397.225 L
133.448 393.957 L
133.658 391.343 L
133.921 388.838 L
134.211 385.57 L
134.553 383.174 L
134.816 379.906 L
135.5 375.768 L
135.843 372.609 L
136.606 369.232 L
137.395 365.856 L
138.053 362.806 L
138.843 359.974 L
139.553 356.707 L
140.527 353.766 L
141.501 350.607 L
142.291 348.102 L
143.317 346.032 L
144.422 342.22 L
146.028 338.953 L
147.475 336.012 L
148.896 332.309 L
150.765 328.496 L
153.055 324.031 L
155.292 320.763 L
157.397 316.951 L
160.187 313.248 L
163.845 309.435 L
166.74 306.277 L
170.425 302.138 L
174.372 298.652 L
178.978 294.949 L
184.057 291.246 L
189.19 287.651 L
195.243 283.73 L
202.059 279.265 L
209.007 275.344 L
216.35 271.096 L
224.561 266.521 L
232.93 262.382 L
242.905 257.372 L
252.932 254.104 L
264.538 250.837 L
277.776 245.064 L
291.83 240.816 L
306.569 235.915 L
322.78 231.449 L
339.966 227.419 L
358.178 223.062 L
377.733 218.161 L
399.866 213.913 L
422.895 209.556 L
446.292 205.308 L
472.32 200.298 L
499.165 195.07 L
529.194 191.04 L
560.539 187.01 L
593.094 182.871 L
627.492 180.365 L
665.732 176.771 L
701.236 172.741 L
741.818 169.038 L
782.901 165.661 L
826.484 159.78 L
869.172 156.73 L
905.092 153.465 L
S
GR
GS
1 0 0 RC
1 LJ
2 LW
N
166.34 531.058 M
167.003 530.651 L
167.24 528.037 L
167.451 525.314 L
167.846 523.898 L
168.24 521.502 L
173.083 518.561 L
173.372 516.928 L
173.899 514.531 L
174.03 512.571 L
174.583 510.066 L
174.872 508.323 L
175.267 505.709 L
175.662 503.313 L
175.978 500.807 L
176.32 498.629 L
177.241 495.906 L
177.794 492.747 L
178.136 490.678 L
178.846 487.737 L
179.294 485.559 L
179.636 482.727 L
180.083 480.331 L
180.136 478.37 L
180.136 475.211 L
193.137 470.419 L
193.19 467.042 L
193.321 464.21 L
193.822 461.596 L
194.558 457.566 L
195.19 454.517 L
196.164 452.011 L
196.953 449.179 L
198.348 445.912 L
199.033 442.644 L
199.664 439.377 L
201.006 436.545 L
202.664 433.713 L
203.796 429.029 L
205.033 424.999 L
206.77 421.95 L
208.797 418.464 L
210.112 413.998 L
215.087 409.315 L
216.666 406.483 L
218.719 402.889 L
220.271 399.076 L
222.219 396.462 L
224.14 393.086 L
230.377 390.145 L
233.193 386.224 L
235.615 383.283 L
237.246 379.689 L
240.668 375.441 L
243.958 370.43 L
246.616 366.074 L
249.432 362.588 L
252.774 356.598 L
256.775 353.439 L
260.249 349.736 L
263.696 345.161 L
268.776 340.913 L
277.54 336.339 L
282.408 331.11 L
285.988 324.466 L
290.435 320.981 L
298.173 314.772 L
302.015 310.525 L
307.99 304.861 L
313.727 300.504 L
321.359 296.147 L
328.149 292.662 L
339.071 287.543 L
346.362 284.384 L
355.441 279.482 L
364.232 273.928 L
375.154 268.046 L
385.102 261.837 L
395.313 254.758 L
407.051 248.985 L
423.632 242.994 L
433.817 237.657 L
447.818 232.865 L
463.109 225.785 L
478.61 220.993 L
495.822 214.893 L
511.219 209.12 L
529.641 203.13 L
547.985 196.377 L
569.803 189.188 L
593.963 182.98 L
620.86 176.227 L
641.151 171.543 L
669.391 165.879 L
696.867 160.106 L
727.554 152.591 L
760.451 147.145 L
795.534 141.154 L
831.905 135.817 L
871.067 128.302 L
905.092 123.738 L
S
GR
GS
0 1 1 RC
[2 2] 0 setdash
2 LJ
2 LW
N
131.371 531.058 M
131.395 529.562 L
131.395 528.691 L
131.395 528.146 L
131.395 526.513 L
131.421 524.879 L
131.526 523.136 L
131.684 521.502 L
131.737 519.868 L
131.816 518.126 L
131.895 516.71 L
131.948 515.621 L
131.974 514.967 L
132.027 512.68 L
132.079 510.828 L
132.316 509.63 L
132.342 507.56 L
132.342 506.907 L
132.527 505.709 L
132.553 503.095 L
132.632 501.57 L
132.684 500.154 L
132.684 498.738 L
132.684 496.995 L
133.421 494.708 L
133.421 492.53 L
133.421 490.678 L
133.448 488.826 L
133.527 487.519 L
133.579 486.43 L
133.632 484.687 L
133.632 482.836 L
133.711 481.311 L
133.895 479.241 L
133.974 477.39 L
134.027 475.756 L
134.158 473.469 L
134.316 472.053 L
134.369 470.419 L
134.448 467.587 L
134.474 465.626 L
134.921 463.884 L
135.211 461.378 L
135.29 458.873 L
135.343 456.368 L
135.422 454.517 L
135.527 453.101 L
135.685 451.249 L
135.948 448.962 L
136.158 446.565 L
136.606 444.169 L
136.764 442.753 L
136.974 440.575 L
137.211 437.307 L
137.527 435.456 L
137.632 434.257 L
137.816 432.297 L
137.922 429.247 L
138.159 426.742 L
138.738 424.673 L
138.974 422.167 L
139.238 419.88 L
139.659 417.157 L
140.027 415.523 L
140.211 413.454 L
140.396 411.058 L
140.817 408.879 L
141.554 407.028 L
141.948 405.394 L
142.212 403.76 L
142.448 400.383 L
142.87 398.423 L
143.58 395.7 L
144.107 393.957 L
144.475 391.888 L
144.975 389.165 L
146.08 386.877 L
146.423 384.699 L
147.554 382.085 L
148.002 379.253 L
148.712 377.184 L
149.265 374.134 L
149.712 371.302 L
150.449 368.143 L
151.397 365.093 L
152.87 363.024 L
153.634 360.192 L
154.607 357.905 L
155.344 355.617 L
156.529 353.221 L
157.529 349.518 L
158.766 347.013 L
159.687 344.617 L
161.503 341.458 L
162.713 338.626 L
163.714 336.339 L
165.714 334.269 L
167.161 331.655 L
168.635 328.387 L
169.898 325.882 L
171.32 323.159 L
172.793 320.763 L
175.873 317.931 L
178.241 314.446 L
179.926 312.376 L
181.926 309.544 L
184.742 306.93 L
187.058 303.881 L
189.979 300.286 L
192.716 296.583 L
195.348 294.078 L
199.717 291.246 L
202.954 287.216 L
205.428 283.73 L
210.007 278.938 L
213.508 277.195 L
216.587 274.69 L
221.035 271.64 L
225.219 268.155 L
231.22 263.471 L
236.562 259.55 L
241.747 256.065 L
246.353 252.035 L
252.932 248.767 L
259.143 246.044 L
265.354 243.539 L
271.934 240.054 L
278.566 236.786 L
286.725 232.647 L
294.357 229.924 L
303.279 226.765 L
310.437 221.973 L
319.438 218.596 L
328.86 215.22 L
339.15 210.972 L
350.257 207.595 L
361.073 203.348 L
372.101 200.842 L
384.944 197.575 L
396.366 195.179 L
408.657 192.456 L
422.763 188.099 L
436.08 185.594 L
451.792 181.781 L
468.057 178.296 L
484.242 174.92 L
503.323 170.345 L
521.193 165.879 L
539.879 162.503 L
558.696 159.017 L
578.961 156.512 L
601.595 153.789 L
624.466 149.65 L
646.468 145.729 L
674.049 140.937 L
698.893 137.887 L
726.501 134.51 L
751.293 131.243 L
770.768 128.629 L
809.061 123.183 L
842.775 119.588 L
875.488 114.687 L
905.092 110.097 L
S
GR
GS
0 1 1 RC
1 LJ
2 LW
N
130 531.058 M
130 530.543 L
130 529.453 L
130 528.255 L
130 527.275 L
130 526.621 L
130 524.879 L
130 523.354 L
130.026 521.938 L
130.026 520.304 L
130.026 518.779 L
130.026 517.472 L
130.026 515.729 L
130.026 514.313 L
130.053 512.789 L
130.053 510.937 L
130.053 510.937 L
130.053 508.105 L
130.053 506.907 L
130.053 504.946 L
130.053 502.877 L
130.053 501.788 L
130.053 500.045 L
130.079 498.193 L
130.079 496.124 L
130.079 494.272 L
130.079 493.837 L
130.105 491.767 L
130.132 490.133 L
130.132 487.846 L
130.158 486.103 L
130.158 483.489 L
130.158 482.182 L
130.184 480.331 L
130.184 478.043 L
130.184 476.083 L
130.184 474.993 L
130.184 473.142 L
130.211 471.617 L
130.211 470.419 L
130.211 468.894 L
130.263 465.844 L
130.263 463.775 L
130.29 461.705 L
130.29 459.963 L
130.29 458.111 L
130.29 456.804 L
130.316 454.19 L
130.368 452.556 L
130.395 450.051 L
130.421 447.872 L
130.474 446.13 L
130.5 444.496 L
130.579 442.535 L
130.605 440.357 L
130.605 438.614 L
130.632 437.307 L
130.632 436.109 L
130.658 434.475 L
130.658 432.406 L
130.711 430.445 L
130.711 428.158 L
130.763 426.306 L
130.842 423.692 L
130.868 421.732 L
130.921 419.989 L
131 417.919 L
131.079 417.484 L
131.184 415.305 L
131.237 412.038 L
131.369 409.968 L
131.579 408.008 L
131.684 405.394 L
131.763 402.78 L
131.869 400.383 L
131.921 398.096 L
132.027 396.462 L
132.079 395.7 L
132.237 392.65 L
132.395 390.581 L
132.684 388.184 L
132.816 386.333 L
132.974 384.481 L
133.184 382.303 L
133.369 379.906 L
133.579 377.401 L
134.079 373.698 L
134.421 371.193 L
134.632 370.539 L
134.816 367.816 L
135.211 365.747 L
135.685 363.677 L
136.001 360.737 L
136.474 357.905 L
136.895 356.271 L
137.527 354.528 L
138.211 351.587 L
138.817 349.191 L
139.08 348.429 L
139.448 345.815 L
140.08 343.854 L
141.264 342.002 L
142.027 338.953 L
142.949 335.903 L
143.738 334.051 L
144.633 330.675 L
145.896 328.17 L
147.475 324.466 L
148.133 323.486 L
149.396 321.09 L
150.818 317.387 L
152.528 314.337 L
153.765 312.267 L
155.423 309.762 L
157.239 307.475 L
158.713 303.336 L
161.003 301.266 L
163.424 298.761 L
166.03 295.494 L
167.451 293.86 L
170.319 291.246 L
172.846 288.741 L
175.899 286.018 L
179.162 282.75 L
182.926 279.918 L
186.637 275.126 L
190.269 271.313 L
194.927 268.482 L
199.427 265.867 L
201.375 263.253 L
206.823 260.53 L
212.139 258.352 L
217.824 255.52 L
224.166 252.797 L
230.667 249.312 L
237.536 246.48 L
244.616 243.103 L
253.669 239.727 L
262.38 236.677 L
266.223 235.37 L
274.829 232.32 L
284.303 229.379 L
293.199 225.567 L
304.568 221.973 L
314.938 219.141 L
325.175 216.963 L
337.519 213.259 L
350.467 210.21 L
363.047 206.724 L
376.864 202.585 L
384.207 200.733 L
399.103 197.139 L
414.183 194.089 L
432.738 189.842 L
451.16 186.356 L
467.899 183.96 L
488.295 179.603 L
510.455 175.028 L
530.773 171.107 L
553.854 165.77 L
565.144 164.354 L
588.462 160.869 L
615.912 155.967 L
643.757 151.828 L
672.549 148.888 L
701.393 145.62 L
731.186 141.481 L
764.505 138.105 L
795.639 134.946 L
827.826 131.569 L
847.065 129.827 L
883.147 125.688 L
905.092 123.594 L
S
GR
GS
1 0 1 RC
[2 2] 0 setdash
2 LJ
2 LW
N
134.053 531.058 M
134.053 529.78 L
134.132 528.8 L
134.921 527.166 L
134.921 525.641 L
134.921 524.879 L
134.921 523.136 L
134.921 522.7 L
134.921 521.502 L
134.921 519.651 L
134.921 518.017 L
134.948 517.036 L
134.948 516.056 L
134.948 514.531 L
134.948 513.333 L
134.948 512.353 L
134.948 511.264 L
134.948 509.739 L
134.974 507.56 L
134.974 506.471 L
135 505.164 L
135 502.986 L
135.027 501.352 L
135.027 500.59 L
136.658 499.174 L
136.658 497.867 L
136.658 495.797 L
136.658 494.49 L
136.658 493.292 L
136.711 491.658 L
136.711 489.371 L
136.711 487.192 L
136.737 485.777 L
136.737 484.905 L
136.737 483.707 L
136.764 482.073 L
136.79 480.548 L
136.79 479.023 L
136.79 477.172 L
136.79 475.974 L
136.816 473.904 L
136.843 472.053 L
136.895 470.855 L
136.895 468.676 L
138.185 467.151 L
138.395 465.735 L
138.395 463.666 L
138.58 461.487 L
138.606 460.616 L
138.711 458.982 L
138.738 457.893 L
138.738 456.15 L
138.922 454.081 L
138.974 452.011 L
138.974 450.051 L
139.053 448.526 L
139.106 446.348 L
139.185 444.823 L
139.238 442.426 L
139.317 440.357 L
139.343 438.07 L
139.422 435.782 L
139.448 433.713 L
139.58 432.406 L
141.606 429.901 L
141.633 427.613 L
141.712 425.653 L
141.948 424.019 L
142.054 421.841 L
142.212 419.553 L
142.317 417.266 L
142.606 415.197 L
142.738 412.365 L
142.791 410.077 L
142.896 407.463 L
143.001 405.176 L
143.159 402.453 L
143.291 400.928 L
143.554 398.096 L
143.764 395.046 L
144.107 393.086 L
144.396 391.343 L
144.659 387.749 L
144.922 385.57 L
147.975 382.956 L
148.186 379.798 L
148.37 377.292 L
148.633 375.441 L
149.028 373.153 L
149.633 370.322 L
149.975 367.707 L
150.344 364.876 L
150.923 361.608 L
151.186 359.756 L
152.265 357.578 L
152.792 354.093 L
153.818 351.696 L
154.555 348.429 L
154.923 345.597 L
156.029 343.092 L
156.66 340.26 L
157.634 337.863 L
158.424 335.032 L
159.555 331.764 L
162.871 328.605 L
164.161 324.249 L
165.372 322.288 L
166.661 319.238 L
168.161 314.446 L
169.398 311.723 L
171.162 308.782 L
172.741 306.603 L
174.662 303.445 L
176.162 300.286 L
177.741 297.454 L
179.662 294.622 L
181.478 291.246 L
183.242 288.305 L
185.873 285.473 L
188.321 283.186 L
190.453 280.681 L
192.953 277.413 L
195.848 275.126 L
199.427 273.274 L
205.323 270.987 L
208.639 268.155 L
213.297 266.303 L
217.218 262.6 L
221.482 259.332 L
225.772 255.847 L
230.641 253.124 L
235.194 250.837 L
240.773 248.658 L
245.589 244.519 L
250.906 241.469 L
256.801 238.311 L
264.433 233.627 L
270.486 230.904 L
277.434 228.399 L
285.014 225.24 L
293.146 221.755 L
302.173 218.814 L
309.858 216.2 L
318.859 212.715 L
330.544 208.249 L
339.782 205.417 L
350.757 201.605 L
362.705 198.773 L
374.68 195.288 L
386.839 191.802 L
399.419 187.554 L
412.894 183.742 L
425.421 180.583 L
440.581 177.643 L
455.924 173.395 L
472.61 171.107 L
490.664 167.513 L
509.771 165.117 L
529.694 160.869 L
548.485 157.71 L
569.224 154.66 L
591.857 151.611 L
615.465 147.363 L
635.519 143.877 L
655.521 139.521 L
687.998 133.203 L
714.5 129.282 L
741.266 126.45 L
769.215 123.4 L
800.508 121.113 L
832.274 116.212 L
866.014 112.617 L
900.833 108.805 L
905.092 108.335 L
S
GR
GS
1 0 1 RC
1 LJ
2 LW
N
130 531.058 M
130 530.978 L
130 529.453 L
130 528.146 L
130 527.384 L
130 525.968 L
130 525.532 L
130 524.007 L
130 522.482 L
130.026 520.631 L
130.026 519.324 L
130.026 517.908 L
130.026 516.492 L
130.026 514.749 L
130.026 513.878 L
130.026 513.769 L
130.026 512.135 L
130.026 510.392 L
130.026 508.759 L
130.026 506.907 L
130.026 506.036 L
130.026 504.511 L
130.026 503.204 L
130.026 501.679 L
130.026 501.57 L
130.026 499.609 L
130.026 497.758 L
130.026 496.233 L
130.053 495.144 L
130.053 493.945 L
130.053 492.203 L
130.053 491.114 L
130.053 490.351 L
130.053 488.5 L
130.053 486.975 L
130.053 485.123 L
130.053 483.489 L
130.132 480.875 L
130.132 479.677 L
130.132 478.806 L
130.132 477.063 L
130.132 476.192 L
130.158 474.449 L
130.158 471.726 L
130.158 470.31 L
130.158 469.656 L
130.184 467.587 L
130.184 465.626 L
130.211 463.666 L
130.211 462.032 L
130.211 461.052 L
130.211 459.418 L
130.237 456.913 L
130.263 454.19 L
130.316 452.992 L
130.368 450.922 L
130.421 449.288 L
130.421 447.328 L
130.447 446.348 L
130.474 443.733 L
130.5 441.773 L
130.553 439.812 L
130.553 438.179 L
130.579 436.218 L
130.605 434.257 L
130.632 432.297 L
130.711 429.356 L
130.737 428.376 L
130.816 426.197 L
130.895 424.564 L
130.974 422.385 L
131.105 419.662 L
131.184 417.811 L
131.342 415.632 L
131.447 413.781 L
131.474 413.018 L
131.605 410.622 L
131.684 407.899 L
131.842 406.265 L
132.027 404.305 L
132.211 401.255 L
132.395 399.185 L
132.632 396.244 L
133 393.848 L
133 392.759 L
133.184 390.69 L
133.29 387.967 L
133.474 386.333 L
133.658 383.937 L
134.106 381.105 L
134.421 379.253 L
134.79 376.53 L
135.106 373.916 L
135.264 372.718 L
135.685 369.777 L
136.106 366.509 L
136.553 363.351 L
137.053 360.737 L
137.659 356.815 L
138.053 353.875 L
138.659 348.973 L
138.869 347.557 L
139.685 344.181 L
140.369 341.131 L
141.29 337.863 L
142.133 335.249 L
142.949 332.091 L
143.843 329.477 L
144.764 326.536 L
146.107 323.05 L
146.554 321.961 L
147.975 319.892 L
149.239 317.06 L
151.239 315.317 L
152.713 312.267 L
154.265 309.653 L
155.502 307.039 L
157.424 303.772 L
159.424 301.049 L
160.266 299.197 L
162.608 297.345 L
164.898 294.187 L
167.767 292.117 L
170.319 289.721 L
173.057 286.671 L
176.03 282.314 L
179.531 280.245 L
180.952 279.047 L
184.084 276.106 L
187.637 273.71 L
191.374 269.571 L
194.953 265.867 L
198.559 262.927 L
203.428 259.986 L
208.954 257.916 L
214.376 255.411 L
217.482 253.451 L
223.298 250.183 L
229.404 247.46 L
236.273 244.955 L
243.694 242.341 L
250.879 238.42 L
258.748 234.172 L
266.46 231.558 L
270.539 230.033 L
279.277 227.092 L
288.777 224.696 L
298.489 220.339 L
308.621 215.873 L
320.017 212.388 L
331.466 209.011 L
343.888 205.417 L
358.152 202.912 L
364.021 200.733 L
377.338 197.684 L
392.129 194.416 L
408.551 192.238 L
425.711 188.97 L
443.239 185.158 L
462.556 181.455 L
483.137 178.514 L
505.429 174.157 L
511.64 172.741 L
533.457 168.82 L
556.459 164.463 L
580.198 160.978 L
603.832 157.057 L
631.44 152.7 L
658.048 148.561 L
683.918 146.274 L
698.262 144.313 L
728.764 140.61 L
761.899 135.382 L
794.928 132.659 L
827.036 129.282 L
864.829 125.688 L
902.754 121.44 L
905.092 121.229 L
S
GR
GS
0 0 1 RC
[2 2] 0 setdash
2 LJ
2 LW
N
134.731 531.058 M
134.764 530.651 L
135 528.909 L
135.132 527.384 L
135.369 524.334 L
135.579 522.156 L
135.922 519.759 L
136.211 515.621 L
136.527 511.917 L
136.974 508.105 L
137.29 505.818 L
137.501 503.095 L
137.816 500.154 L
138.369 496.777 L
138.79 493.183 L
139.422 489.48 L
139.922 487.084 L
140.501 483.489 L
140.922 480.548 L
141.448 478.697 L
142.106 474.122 L
142.554 471.399 L
143.291 466.716 L
144.133 463.557 L
145.001 459.418 L
145.922 456.041 L
147.396 452.338 L
148.002 449.179 L
149.239 444.496 L
150.554 440.575 L
151.844 436.654 L
153.871 433.386 L
154.95 429.792 L
156.555 425.435 L
158.529 421.95 L
161.029 417.157 L
163.056 413.889 L
165.451 409.424 L
168.056 405.176 L
170.977 399.839 L
174.32 395.046 L
177.346 390.036 L
181.399 385.788 L
184.689 381.867 L
188.979 378.599 L
193.979 373.48 L
198.085 368.252 L
203.375 363.133 L
209.033 359.321 L
215.06 354.855 L
221.903 349.627 L
229.956 345.597 L
238.51 340.913 L
247.037 337.101 L
257.117 331.764 L
267.67 327.625 L
280.75 320.218 L
290.699 314.772 L
304.753 308.455 L
318.78 303.663 L
333.755 298.543 L
350.467 291.681 L
366.811 286.344 L
386.786 280.572 L
405.63 274.908 L
429.001 269.789 L
451.845 264.996 L
478.663 260.313 L
504.165 253.995 L
536.194 248.767 L
567.013 243.103 L
602.358 237.439 L
640.704 230.469 L
680.892 223.824 L
725.317 218.487 L
771.716 214.457 L
825.405 207.378 L
875.541 201.387 L
905.092 197.866 L
S
GR
GS
[2 2] 0 setdash
2 LJ
2 LW
N
130.474 531.058 M
130.474 530.869 L
130.474 528.909 L
130.5 527.602 L
130.553 526.077 L
130.553 524.77 L
130.553 523.898 L
130.553 523.245 L
130.553 522.374 L
130.553 521.829 L
130.579 519.759 L
130.605 518.997 L
130.605 518.017 L
130.737 516.601 L
130.737 515.729 L
130.763 515.185 L
130.763 514.422 L
130.763 513.224 L
130.763 511.808 L
130.763 509.957 L
130.763 508.214 L
130.79 507.125 L
130.816 505.818 L
131.026 505.164 L
131.026 504.402 L
131.026 503.422 L
131.026 502.223 L
131.026 501.025 L
131.053 499.718 L
131.053 498.956 L
131.053 497.322 L
131.105 494.817 L
131.184 493.945 L
131.184 492.856 L
131.184 491.658 L
131.184 490.569 L
131.184 489.48 L
131.211 487.955 L
131.211 485.994 L
131.211 484.361 L
131.211 482.291 L
131.447 480.331 L
131.447 480.331 L
131.447 478.915 L
131.447 477.39 L
131.447 475.974 L
131.474 474.122 L
131.5 472.815 L
131.5 470.637 L
131.526 469.33 L
131.526 467.914 L
131.737 466.171 L
131.79 464.864 L
131.842 463.012 L
131.895 461.378 L
131.895 459.2 L
131.895 457.131 L
131.921 455.606 L
131.921 454.299 L
131.921 453.318 L
132.132 451.576 L
132.184 449.506 L
132.237 448.09 L
132.29 446.892 L
132.395 444.387 L
132.421 441.991 L
132.474 440.03 L
132.527 438.723 L
132.553 436 L
132.553 433.713 L
133.053 431.317 L
133.106 429.574 L
133.132 427.396 L
133.158 425.871 L
133.211 424.346 L
133.237 422.603 L
133.29 421.732 L
133.29 419.335 L
133.316 417.266 L
133.606 415.85 L
133.685 413.018 L
133.764 410.731 L
133.79 408.661 L
133.816 406.483 L
133.895 404.522 L
133.974 402.78 L
134 400.601 L
134.158 398.967 L
134.632 397.116 L
134.685 394.829 L
134.79 392.868 L
134.948 391.016 L
135.053 389.383 L
135.237 386.768 L
135.343 384.154 L
135.448 381.758 L
135.553 379.253 L
135.816 376.748 L
136.395 374.461 L
136.527 372.5 L
136.764 370.104 L
136.922 367.707 L
137.053 365.638 L
137.474 362.915 L
137.685 360.41 L
137.869 359.103 L
138.132 356.271 L
139.106 354.964 L
139.475 352.241 L
139.817 349.191 L
140.106 347.013 L
140.58 344.725 L
140.843 341.349 L
141.369 338.19 L
141.975 336.23 L
142.238 333.833 L
143.212 332.091 L
143.554 329.259 L
143.896 327.625 L
144.607 324.902 L
145.317 321.526 L
146.344 319.238 L
146.896 317.278 L
147.607 314.555 L
148.475 312.485 L
149.212 309.653 L
151.055 307.148 L
151.844 305.514 L
153.028 303.554 L
154.265 301.049 L
155.529 297.454 L
156.818 295.385 L
157.95 293.315 L
159.582 290.266 L
161.503 287.434 L
164.372 285.8 L
165.74 283.621 L
167.898 280.898 L
169.872 277.304 L
172.32 274.472 L
174.925 271.205 L
177.241 268.264 L
179.873 265.759 L
183.163 262.382 L
186.452 260.639 L
190.005 257.699 L
193.032 255.411 L
196.611 252.906 L
200.638 249.421 L
204.875 246.044 L
208.77 242.994 L
213.218 239.509 L
217.297 236.35 L
221.85 232.211 L
227.982 229.053 L
232.851 225.785 L
240.063 223.28 L
246.879 219.577 L
252.327 217.071 L
259.538 214.566 L
267.328 211.734 L
273.118 209.447 L
280.514 205.744 L
291.093 202.258 L
301.068 199.209 L
310.121 195.614 L
320.57 192.238 L
330.229 189.406 L
341.677 185.594 L
350.678 182.762 L
362.152 178.841 L
375.654 175.464 L
390.366 171.87 L
404.604 167.513 L
419.158 164.681 L
434.633 161.413 L
450.608 158.255 L
467.557 155.532 L
481.847 151.502 L
498.796 148.343 L
517.061 144.749 L
536.773 140.828 L
559.618 137.015 L
580.462 133.094 L
604.174 128.955 L
628.597 124.925 L
638.967 122.747 L
670.891 118.172 L
698.209 114.578 L
726.606 111.419 L
752.267 108.478 L
784.612 104.122 L
816.72 100.418 L
849.512 97.26 L
880.436 94.755 L
905.092 93.072 L
S
GR
GS
1 LJ
2 LW
N
130 531.058 M
130 529.998 L
130 528.364 L
130 527.275 L
130 527.057 L
130 525.968 L
130 524.879 L
130 524.116 L
130 523.027 L
130 521.829 L
130 520.958 L
130 519.215 L
130 517.799 L
130 517.145 L
130 516.165 L
130 514.64 L
130 513.551 L
130 512.571 L
130 510.937 L
130 509.739 L
130 508.323 L
130 507.669 L
130 506.798 L
130 505.491 L
130 504.402 L
130 503.313 L
130 500.372 L
130 499.065 L
130 498.411 L
130 497.213 L
130 496.886 L
130 495.144 L
130 492.856 L
130 490.896 L
130 489.262 L
130 487.955 L
130 486.212 L
130 485.559 L
130 485.341 L
130 483.489 L
130 482.182 L
130 479.895 L
130 478.37 L
130 476.954 L
130 475.429 L
130 473.469 L
130 472.379 L
130 471.617 L
130 469.439 L
130 467.478 L
130 464.973 L
130 463.557 L
130 461.814 L
130 459.854 L
130.026 458.329 L
130.026 457.675 L
130.026 455.388 L
130.026 454.19 L
130.026 452.229 L
130.026 450.269 L
130.026 447.981 L
130.026 446.13 L
130.053 444.169 L
130.079 442.753 L
130.079 441.555 L
130.105 439.268 L
130.105 437.525 L
130.105 435.565 L
130.105 433.713 L
130.132 431.861 L
130.158 430.445 L
130.184 427.722 L
130.184 426.415 L
130.184 424.128 L
130.211 421.514 L
130.237 419.553 L
130.263 418.028 L
130.263 415.959 L
130.263 413.672 L
130.29 411.711 L
130.29 408.879 L
130.29 407.681 L
130.342 405.176 L
130.447 402.997 L
130.526 401.799 L
130.579 400.057 L
130.605 397.443 L
130.605 395.046 L
130.658 392.65 L
130.684 391.997 L
130.816 389.383 L
130.842 386.877 L
130.921 384.59 L
131 382.303 L
131.079 379.362 L
131.158 376.53 L
131.29 374.678 L
131.369 372.391 L
131.421 371.193 L
131.526 368.47 L
131.711 366.618 L
131.869 362.915 L
132.132 360.846 L
132.369 358.667 L
132.658 356.489 L
132.974 354.093 L
133.106 353.548 L
133.606 352.023 L
133.921 350.28 L
134.132 347.557 L
134.448 344.834 L
134.895 342.002 L
135.395 339.388 L
135.816 337.646 L
136.369 335.903 L
136.395 334.814 L
136.816 332.309 L
137.343 330.457 L
138.08 327.843 L
138.817 325.12 L
139.475 322.833 L
140.054 320.11 L
141.054 317.495 L
141.475 315.753 L
142.396 313.03 L
143.58 310.742 L
144.975 307.911 L
146.423 305.623 L
147.502 303.118 L
148.686 300.504 L
150.265 297.236 L
150.87 296.583 L
152.765 294.513 L
154.765 291.899 L
156.397 288.958 L
158.397 285.691 L
160.713 282.968 L
162.819 279.591 L
165.424 277.086 L
167.503 274.145 L
168.503 273.274 L
170.925 270.115 L
173.925 267.283 L
177.004 263.798 L
180.505 261.729 L
183.636 259.006 L
187.847 256.391 L
191.532 253.668 L
192.979 252.47 L
197.427 249.965 L
202.191 248.223 L
208.428 244.519 L
213.718 241.143 L
219.271 237.004 L
225.403 232.647 L
231.588 229.053 L
238.615 226.112 L
241.326 223.824 L
247.8 221.428 L
255.827 219.141 L
264.459 215.764 L
272.987 213.15 L
281.856 210.101 L
291.962 206.833 L
302.937 203.456 L
307.253 202.476 L
318.622 198.228 L
330.281 194.743 L
342.203 191.04 L
355.415 188.643 L
368.1 185.267 L
382.049 182.435 L
397.34 178.405 L
413.526 174.92 L
419.631 173.395 L
436.343 168.493 L
453.845 164.899 L
473.32 160.215 L
491.059 155.967 L
513.087 152.809 L
534.931 148.234 L
557.407 145.076 L
565.223 143.66 L
589.805 139.629 L
615.991 135.708 L
642.783 131.896 L
669.943 128.411 L
700.288 125.361 L
731.87 122.202 L
761.741 117.628 L
793.823 114.796 L
808.745 112.4 L
846.038 108.37 L
881.41 104.448 L
905.092 102.687 L
S
GR
%%Trailer
%%Pages: 1
%%EOF
