%!PS-Adobe-3.0 EPSF-3.0
%%Creator: (MATLAB, The Mathworks, Inc. Version 9.3.0.713579 \(R2017b\). Operating System: Mac OS X)
%%Title: ./ROCs_postmortem_60_closeup.eps
%%CreationDate: 2019-01-22T12:58:14
%%Pages: (atend)
%%BoundingBox:    48     5   927   587
%%LanguageLevel: 3
%%EndComments
%%BeginProlog
%%BeginResource: procset (Apache XML Graphics Std ProcSet) 1.2 0
%%Version: 1.2 0
%%Copyright: (Copyright 2001-2003,2010 The Apache Software Foundation. License terms: http://www.apache.org/licenses/LICENSE-2.0)
/bd{bind def}bind def
/ld{load def}bd
/GR/grestore ld
/GS/gsave ld
/RM/rmoveto ld
/C/curveto ld
/t/show ld
/L/lineto ld
/ML/setmiterlimit ld
/CT/concat ld
/f/fill ld
/N/newpath ld
/S/stroke ld
/CC/setcmykcolor ld
/A/ashow ld
/cp/closepath ld
/RC/setrgbcolor ld
/LJ/setlinejoin ld
/GC/setgray ld
/LW/setlinewidth ld
/M/moveto ld
/re {4 2 roll M
1 index 0 rlineto
0 exch rlineto
neg 0 rlineto
cp } bd
/_ctm matrix def
/_tm matrix def
/BT { _ctm currentmatrix pop matrix _tm copy pop 0 0 moveto } bd
/ET { _ctm setmatrix } bd
/iTm { _ctm setmatrix _tm concat } bd
/Tm { _tm astore pop iTm 0 0 moveto } bd
/ux 0.0 def
/uy 0.0 def
/F {
  /Tp exch def
  /Tf exch def
  Tf findfont Tp scalefont setfont
  /cf Tf def  /cs Tp def
} bd
/ULS {currentpoint /uy exch def /ux exch def} bd
/ULE {
  /Tcx currentpoint pop def
  gsave
  newpath
  cf findfont cs scalefont dup
  /FontMatrix get 0 get /Ts exch def /FontInfo get dup
  /UnderlinePosition get Ts mul /To exch def
  /UnderlineThickness get Ts mul /Tt exch def
  ux uy To add moveto  Tcx uy To add lineto
  Tt setlinewidth stroke
  grestore
} bd
/OLE {
  /Tcx currentpoint pop def
  gsave
  newpath
  cf findfont cs scalefont dup
  /FontMatrix get 0 get /Ts exch def /FontInfo get dup
  /UnderlinePosition get Ts mul /To exch def
  /UnderlineThickness get Ts mul /Tt exch def
  ux uy To add cs add moveto Tcx uy To add cs add lineto
  Tt setlinewidth stroke
  grestore
} bd
/SOE {
  /Tcx currentpoint pop def
  gsave
  newpath
  cf findfont cs scalefont dup
  /FontMatrix get 0 get /Ts exch def /FontInfo get dup
  /UnderlinePosition get Ts mul /To exch def
  /UnderlineThickness get Ts mul /Tt exch def
  ux uy To add cs 10 mul 26 idiv add moveto Tcx uy To add cs 10 mul 26 idiv add lineto
  Tt setlinewidth stroke
  grestore
} bd
/QT {
/Y22 exch store
/X22 exch store
/Y21 exch store
/X21 exch store
currentpoint
/Y21 load 2 mul add 3 div exch
/X21 load 2 mul add 3 div exch
/X21 load 2 mul /X22 load add 3 div
/Y21 load 2 mul /Y22 load add 3 div
/X22 load /Y22 load curveto
} bd
/SSPD {
dup length /d exch dict def
{
/v exch def
/k exch def
currentpagedevice k known {
/cpdv currentpagedevice k get def
v cpdv ne {
/upd false def
/nullv v type /nulltype eq def
/nullcpdv cpdv type /nulltype eq def
nullv nullcpdv or
{
/upd true def
} {
/sametype v type cpdv type eq def
sametype {
v type /arraytype eq {
/vlen v length def
/cpdvlen cpdv length def
vlen cpdvlen eq {
0 1 vlen 1 sub {
/i exch def
/obj v i get def
/cpdobj cpdv i get def
obj cpdobj ne {
/upd true def
exit
} if
} for
} {
/upd true def
} ifelse
} {
v type /dicttype eq {
v {
/dv exch def
/dk exch def
/cpddv cpdv dk get def
dv cpddv ne {
/upd true def
exit
} if
} forall
} {
/upd true def
} ifelse
} ifelse
} if
} ifelse
upd true eq {
d k v put
} if
} if
} if
} forall
d length 0 gt {
d setpagedevice
} if
} bd
/RE { % /NewFontName [NewEncodingArray] /FontName RE -
  findfont dup length dict begin
  {
    1 index /FID ne
    {def} {pop pop} ifelse
  } forall
  /Encoding exch def
  /FontName 1 index def
  currentdict definefont pop
  end
} bind def
%%EndResource
%%BeginResource: procset (Apache XML Graphics EPS ProcSet) 1.0 0
%%Version: 1.0 0
%%Copyright: (Copyright 2002-2003 The Apache Software Foundation. License terms: http://www.apache.org/licenses/LICENSE-2.0)
/BeginEPSF { %def
/b4_Inc_state save def         % Save state for cleanup
/dict_count countdictstack def % Count objects on dict stack
/op_count count 1 sub def      % Count objects on operand stack
userdict begin                 % Push userdict on dict stack
/showpage { } def              % Redefine showpage, { } = null proc
0 setgray 0 setlinecap         % Prepare graphics state
1 setlinewidth 0 setlinejoin
10 setmiterlimit [ ] 0 setdash newpath
/languagelevel where           % If level not equal to 1 then
{pop languagelevel             % set strokeadjust and
1 ne                           % overprint to their defaults.
{false setstrokeadjust false setoverprint
} if
} if
} bd
/EndEPSF { %def
count op_count sub {pop} repeat            % Clean up stacks
countdictstack dict_count sub {end} repeat
b4_Inc_state restore
} bd
%%EndResource
%FOPBeginFontDict
%%IncludeResource: font Courier-Oblique
%%IncludeResource: font Courier-BoldOblique
%%IncludeResource: font Courier-Bold
%%IncludeResource: font ZapfDingbats
%%IncludeResource: font Symbol
%%IncludeResource: font Helvetica
%%IncludeResource: font Helvetica-Oblique
%%IncludeResource: font Helvetica-Bold
%%IncludeResource: font Helvetica-BoldOblique
%%IncludeResource: font Times-Roman
%%IncludeResource: font Times-Italic
%%IncludeResource: font Times-Bold
%%IncludeResource: font Times-BoldItalic
%%IncludeResource: font Courier
%FOPEndFontDict
%%BeginResource: encoding WinAnsiEncoding
/WinAnsiEncoding [
/.notdef /.notdef /.notdef /.notdef /.notdef
/.notdef /.notdef /.notdef /.notdef /.notdef
/.notdef /.notdef /.notdef /.notdef /.notdef
/.notdef /.notdef /.notdef /.notdef /.notdef
/.notdef /.notdef /.notdef /.notdef /.notdef
/.notdef /.notdef /.notdef /.notdef /.notdef
/.notdef /.notdef /space /exclam /quotedbl
/numbersign /dollar /percent /ampersand /quotesingle
/parenleft /parenright /asterisk /plus /comma
/hyphen /period /slash /zero /one
/two /three /four /five /six
/seven /eight /nine /colon /semicolon
/less /equal /greater /question /at
/A /B /C /D /E
/F /G /H /I /J
/K /L /M /N /O
/P /Q /R /S /T
/U /V /W /X /Y
/Z /bracketleft /backslash /bracketright /asciicircum
/underscore /quoteleft /a /b /c
/d /e /f /g /h
/i /j /k /l /m
/n /o /p /q /r
/s /t /u /v /w
/x /y /z /braceleft /bar
/braceright /asciitilde /bullet /Euro /bullet
/quotesinglbase /florin /quotedblbase /ellipsis /dagger
/daggerdbl /circumflex /perthousand /Scaron /guilsinglleft
/OE /bullet /Zcaron /bullet /bullet
/quoteleft /quoteright /quotedblleft /quotedblright /bullet
/endash /emdash /asciitilde /trademark /scaron
/guilsinglright /oe /bullet /zcaron /Ydieresis
/space /exclamdown /cent /sterling /currency
/yen /brokenbar /section /dieresis /copyright
/ordfeminine /guillemotleft /logicalnot /sfthyphen /registered
/macron /degree /plusminus /twosuperior /threesuperior
/acute /mu /paragraph /middot /cedilla
/onesuperior /ordmasculine /guillemotright /onequarter /onehalf
/threequarters /questiondown /Agrave /Aacute /Acircumflex
/Atilde /Adieresis /Aring /AE /Ccedilla
/Egrave /Eacute /Ecircumflex /Edieresis /Igrave
/Iacute /Icircumflex /Idieresis /Eth /Ntilde
/Ograve /Oacute /Ocircumflex /Otilde /Odieresis
/multiply /Oslash /Ugrave /Uacute /Ucircumflex
/Udieresis /Yacute /Thorn /germandbls /agrave
/aacute /acircumflex /atilde /adieresis /aring
/ae /ccedilla /egrave /eacute /ecircumflex
/edieresis /igrave /iacute /icircumflex /idieresis
/eth /ntilde /ograve /oacute /ocircumflex
/otilde /odieresis /divide /oslash /ugrave
/uacute /ucircumflex /udieresis /yacute /thorn
/ydieresis
] def
%%EndResource
%FOPBeginFontReencode
/Courier-Oblique findfont
dup length dict begin
  {1 index /FID ne {def} {pop pop} ifelse} forall
  /Encoding WinAnsiEncoding def
  currentdict
end
/Courier-Oblique exch definefont pop
/Courier-BoldOblique findfont
dup length dict begin
  {1 index /FID ne {def} {pop pop} ifelse} forall
  /Encoding WinAnsiEncoding def
  currentdict
end
/Courier-BoldOblique exch definefont pop
/Courier-Bold findfont
dup length dict begin
  {1 index /FID ne {def} {pop pop} ifelse} forall
  /Encoding WinAnsiEncoding def
  currentdict
end
/Courier-Bold exch definefont pop
/Helvetica findfont
dup length dict begin
  {1 index /FID ne {def} {pop pop} ifelse} forall
  /Encoding WinAnsiEncoding def
  currentdict
end
/Helvetica exch definefont pop
/Helvetica-Oblique findfont
dup length dict begin
  {1 index /FID ne {def} {pop pop} ifelse} forall
  /Encoding WinAnsiEncoding def
  currentdict
end
/Helvetica-Oblique exch definefont pop
/Helvetica-Bold findfont
dup length dict begin
  {1 index /FID ne {def} {pop pop} ifelse} forall
  /Encoding WinAnsiEncoding def
  currentdict
end
/Helvetica-Bold exch definefont pop
/Helvetica-BoldOblique findfont
dup length dict begin
  {1 index /FID ne {def} {pop pop} ifelse} forall
  /Encoding WinAnsiEncoding def
  currentdict
end
/Helvetica-BoldOblique exch definefont pop
/Times-Roman findfont
dup length dict begin
  {1 index /FID ne {def} {pop pop} ifelse} forall
  /Encoding WinAnsiEncoding def
  currentdict
end
/Times-Roman exch definefont pop
/Times-Italic findfont
dup length dict begin
  {1 index /FID ne {def} {pop pop} ifelse} forall
  /Encoding WinAnsiEncoding def
  currentdict
end
/Times-Italic exch definefont pop
/Times-Bold findfont
dup length dict begin
  {1 index /FID ne {def} {pop pop} ifelse} forall
  /Encoding WinAnsiEncoding def
  currentdict
end
/Times-Bold exch definefont pop
/Times-BoldItalic findfont
dup length dict begin
  {1 index /FID ne {def} {pop pop} ifelse} forall
  /Encoding WinAnsiEncoding def
  currentdict
end
/Times-BoldItalic exch definefont pop
/Courier findfont
dup length dict begin
  {1 index /FID ne {def} {pop pop} ifelse} forall
  /Encoding WinAnsiEncoding def
  currentdict
end
/Courier exch definefont pop
%FOPEndFontReencode
%%EndProlog
%%Page: 1 1
%%PageBoundingBox: 0 0 1000 600
%%BeginPageSetup
[1 0 0 -1 0 600] CT
%%EndPageSetup
GS
1 GC
N
0 0 1000 600 re
f
GR
GS
1 GC
N
0 0 1000 600 re
f
GR
GS
1 GC
N
130 531 M
905 531 L
905 45 L
130 45 L
cp
f
GR
GS
0.873 GC
1 LJ
0.5 LW
N
130 531 M
130 45 L
S
GR
GS
0.873 GC
1 LJ
0.5 LW
N
285 531 M
285 45 L
S
GR
GS
0.873 GC
1 LJ
0.5 LW
N
440 531 M
440 45 L
S
GR
GS
0.873 GC
1 LJ
0.5 LW
N
595 531 M
595 45 L
S
GR
GS
0.873 GC
1 LJ
0.5 LW
N
750 531 M
750 45 L
S
GR
GS
0.873 GC
1 LJ
0.5 LW
N
905 531 M
905 45 L
S
GR
GS
0.873 GC
1 LJ
0.5 LW
N
905 531 M
130 531 L
S
GR
GS
0.873 GC
1 LJ
0.5 LW
N
905 461.571 M
130 461.571 L
S
GR
GS
0.873 GC
1 LJ
0.5 LW
N
905 392.143 M
130 392.143 L
S
GR
GS
0.873 GC
1 LJ
0.5 LW
N
905 322.714 M
130 322.714 L
S
GR
GS
0.873 GC
1 LJ
0.5 LW
N
905 253.286 M
130 253.286 L
S
GR
GS
0.873 GC
1 LJ
0.5 LW
N
905 183.857 M
130 183.857 L
S
GR
GS
0.873 GC
1 LJ
0.5 LW
N
905 114.429 M
130 114.429 L
S
GR
GS
0.873 GC
1 LJ
0.5 LW
N
905 45 M
130 45 L
S
GR
GS
0.149 GC
2 setlinecap
1 LJ
0.5 LW
N
130 531 M
905 531 L
S
GR
GS
0.149 GC
2 setlinecap
1 LJ
0.5 LW
N
130 45 M
905 45 L
S
GR
GS
0.149 GC
2 setlinecap
1 LJ
0.5 LW
N
130 531 M
130 523.25 L
S
GR
GS
0.149 GC
2 setlinecap
1 LJ
0.5 LW
N
285 531 M
285 523.25 L
S
GR
GS
0.149 GC
2 setlinecap
1 LJ
0.5 LW
N
440 531 M
440 523.25 L
S
GR
GS
0.149 GC
2 setlinecap
1 LJ
0.5 LW
N
595 531 M
595 523.25 L
S
GR
GS
0.149 GC
2 setlinecap
1 LJ
0.5 LW
N
750 531 M
750 523.25 L
S
GR
GS
0.149 GC
2 setlinecap
1 LJ
0.5 LW
N
905 531 M
905 523.25 L
S
GR
GS
0.149 GC
2 setlinecap
1 LJ
0.5 LW
N
130 45 M
130 52.75 L
S
GR
GS
0.149 GC
2 setlinecap
1 LJ
0.5 LW
N
285 45 M
285 52.75 L
S
GR
GS
0.149 GC
2 setlinecap
1 LJ
0.5 LW
N
440 45 M
440 52.75 L
S
GR
GS
0.149 GC
2 setlinecap
1 LJ
0.5 LW
N
595 45 M
595 52.75 L
S
GR
GS
0.149 GC
2 setlinecap
1 LJ
0.5 LW
N
750 45 M
750 52.75 L
S
GR
GS
0.149 GC
2 setlinecap
1 LJ
0.5 LW
N
905 45 M
905 52.75 L
S
GR
GS
[1 0 0 1 130 537.79999] CT
0.149 GC
/Helvetica 24 F
GS
[1 0 0 1 0 0] CT
-7 23 moveto 
1 -1 scale
(0) t 
GR
GR
GS
[1 0 0 1 285 537.79999] CT
0.149 GC
/Helvetica 24 F
GS
[1 0 0 1 0 0] CT
-23.5 23 moveto 
1 -1 scale
(0.01) t 
GR
GR
GS
[1 0 0 1 440 537.79999] CT
0.149 GC
/Helvetica 24 F
GS
[1 0 0 1 0 0] CT
-23.5 23 moveto 
1 -1 scale
(0.02) t 
GR
GR
GS
[1 0 0 1 595 537.79999] CT
0.149 GC
/Helvetica 24 F
GS
[1 0 0 1 0 0] CT
-23.5 23 moveto 
1 -1 scale
(0.03) t 
GR
GR
GS
[1 0 0 1 750 537.79999] CT
0.149 GC
/Helvetica 24 F
GS
[1 0 0 1 0 0] CT
-23.5 23 moveto 
1 -1 scale
(0.04) t 
GR
GR
GS
[1 0 0 1 905 537.79999] CT
0.149 GC
/Helvetica 24 F
GS
[1 0 0 1 0 0] CT
-23.5 23 moveto 
1 -1 scale
(0.05) t 
GR
GR
GS
[1 0 0 1 517.50037 567.79999] CT
0.149 GC
/Helvetica 26.4 F
GS
[1 0 0 1 0 0] CT
-103.5 26 moveto 
1 -1 scale
(False Match Rate) t 
GR
GR
GS
0.149 GC
2 setlinecap
1 LJ
0.5 LW
N
130 531 M
130 45 L
S
GR
GS
0.149 GC
2 setlinecap
1 LJ
0.5 LW
N
905 531 M
905 45 L
S
GR
GS
0.149 GC
2 setlinecap
1 LJ
0.5 LW
N
130 531 M
137.75 531 L
S
GR
GS
0.149 GC
2 setlinecap
1 LJ
0.5 LW
N
130 461.571 M
137.75 461.571 L
S
GR
GS
0.149 GC
2 setlinecap
1 LJ
0.5 LW
N
130 392.143 M
137.75 392.143 L
S
GR
GS
0.149 GC
2 setlinecap
1 LJ
0.5 LW
N
130 322.714 M
137.75 322.714 L
S
GR
GS
0.149 GC
2 setlinecap
1 LJ
0.5 LW
N
130 253.286 M
137.75 253.286 L
S
GR
GS
0.149 GC
2 setlinecap
1 LJ
0.5 LW
N
130 183.857 M
137.75 183.857 L
S
GR
GS
0.149 GC
2 setlinecap
1 LJ
0.5 LW
N
130 114.429 M
137.75 114.429 L
S
GR
GS
0.149 GC
2 setlinecap
1 LJ
0.5 LW
N
130 45 M
137.75 45 L
S
GR
GS
0.149 GC
2 setlinecap
1 LJ
0.5 LW
N
905 531 M
897.25 531 L
S
GR
GS
0.149 GC
2 setlinecap
1 LJ
0.5 LW
N
905 461.571 M
897.25 461.571 L
S
GR
GS
0.149 GC
2 setlinecap
1 LJ
0.5 LW
N
905 392.143 M
897.25 392.143 L
S
GR
GS
0.149 GC
2 setlinecap
1 LJ
0.5 LW
N
905 322.714 M
897.25 322.714 L
S
GR
GS
0.149 GC
2 setlinecap
1 LJ
0.5 LW
N
905 253.286 M
897.25 253.286 L
S
GR
GS
0.149 GC
2 setlinecap
1 LJ
0.5 LW
N
905 183.857 M
897.25 183.857 L
S
GR
GS
0.149 GC
2 setlinecap
1 LJ
0.5 LW
N
905 114.429 M
897.25 114.429 L
S
GR
GS
0.149 GC
2 setlinecap
1 LJ
0.5 LW
N
905 45 M
897.25 45 L
S
GR
GS
[1 0 0 1 123.2 530.99994] CT
0.149 GC
/Helvetica 24 F
GS
[1 0 0 1 0 0] CT
-34 8.5 moveto 
1 -1 scale
(0.6) t 
GR
GR
GS
[1 0 0 1 123.2 461.57147] CT
0.149 GC
/Helvetica 24 F
GS
[1 0 0 1 0 0] CT
-47 8.5 moveto 
1 -1 scale
(0.65) t 
GR
GR
GS
[1 0 0 1 123.2 392.14288] CT
0.149 GC
/Helvetica 24 F
GS
[1 0 0 1 0 0] CT
-34 8.5 moveto 
1 -1 scale
(0.7) t 
GR
GR
GS
[1 0 0 1 123.2 322.71429] CT
0.149 GC
/Helvetica 24 F
GS
[1 0 0 1 0 0] CT
-47 8.5 moveto 
1 -1 scale
(0.75) t 
GR
GR
GS
[1 0 0 1 123.2 253.28569] CT
0.149 GC
/Helvetica 24 F
GS
[1 0 0 1 0 0] CT
-34 8.5 moveto 
1 -1 scale
(0.8) t 
GR
GR
GS
[1 0 0 1 123.2 183.85712] CT
0.149 GC
/Helvetica 24 F
GS
[1 0 0 1 0 0] CT
-47 8.5 moveto 
1 -1 scale
(0.85) t 
GR
GR
GS
[1 0 0 1 123.2 114.4286] CT
0.149 GC
/Helvetica 24 F
GS
[1 0 0 1 0 0] CT
-34 8.5 moveto 
1 -1 scale
(0.9) t 
GR
GR
GS
[1 0 0 1 123.2 45.00002] CT
0.149 GC
/Helvetica 24 F
GS
[1 0 0 1 0 0] CT
-47 8.5 moveto 
1 -1 scale
(0.95) t 
GR
GR
GS
[0 -1 1 0 73.2 287.99979] CT
0.149 GC
/Helvetica 26.4 F
GS
[1 0 0 1 0 0] CT
-153 -6 moveto 
1 -1 scale
(1 - False Non-Match Rate) t 
GR
GR
GS
[1 0 0 1 517.50049 38.39998] CT
/Helvetica-Bold 26.4 F
GS
[1 0 0 1 0 0] CT
-279.5 -6 moveto 
1 -1 scale
(Data acquired less than 60 hours after death) t 
GR
GR
GS
0 0 1 RC
1 LJ
2 LW
N
231.031 531.058 M
235.84 529.908 L
239.88 528.542 L
246.205 525.129 L
253.056 520.35 L
259.731 516.254 L
265.089 511.475 L
272.291 508.745 L
278.264 506.697 L
284.764 503.966 L
290.912 501.235 L
298.817 499.87 L
307.425 497.822 L
314.539 495.091 L
323.411 490.312 L
332.018 487.582 L
341.329 484.851 L
349.41 481.437 L
359.95 478.024 L
372.422 475.293 L
383.314 471.197 L
397.016 469.149 L
408.873 464.37 L
421.17 463.688 L
435.399 458.226 L
449.628 453.448 L
465.439 452.082 L
482.83 450.717 L
501.099 447.986 L
520.862 447.303 L
539.834 445.938 L
559.333 445.255 L
582.609 442.525 L
602.108 438.429 L
626.614 434.332 L
651.91 431.602 L
675.186 428.188 L
699.516 422.727 L
724.901 422.044 L
754.413 419.314 L
779.709 415.9 L
811.505 413.169 L
839.524 411.804 L
873.077 411.121 L
905.092 409.889 L
S
GR
GS
0 1 0 RC
1 LJ
2 LW
N
130 531.058 M
130 525.812 L
130 519.667 L
130 517.619 L
130 512.158 L
130 505.331 L
130 501.918 L
130 498.504 L
130 492.36 L
130 487.582 L
130 483.485 L
130.088 475.293 L
130.088 471.197 L
130.088 465.736 L
130.088 458.226 L
130.088 453.448 L
130.088 448.669 L
130.088 441.842 L
130.088 434.332 L
130.088 426.14 L
130.088 419.996 L
130.088 414.535 L
130.176 409.756 L
130.264 404.295 L
130.351 399.516 L
130.351 392.689 L
130.351 387.228 L
130.351 385.862 L
130.439 379.035 L
130.791 374.939 L
130.878 367.43 L
130.966 359.92 L
131.054 355.824 L
131.318 351.046 L
131.318 347.632 L
131.318 340.123 L
131.581 336.027 L
131.669 329.882 L
131.932 325.786 L
132.108 321.69 L
132.284 321.008 L
132.547 318.96 L
132.899 316.229 L
133.513 313.498 L
134.304 310.085 L
134.743 305.989 L
135.27 302.575 L
136.588 295.066 L
137.466 293.018 L
137.993 290.287 L
139.837 286.191 L
141.067 284.143 L
141.858 281.412 L
143.175 274.585 L
144.668 269.807 L
146.249 267.759 L
148.621 265.711 L
150.641 263.662 L
153.891 261.614 L
156.789 254.788 L
160.215 249.326 L
163.64 247.961 L
168.208 243.865 L
173.039 237.038 L
177.957 234.99 L
182.7 234.307 L
189.727 231.577 L
198.159 225.432 L
206.679 219.288 L
215.199 216.558 L
225.476 213.827 L
235.752 211.096 L
244.536 209.731 L
256.13 207 L
269.92 204.269 L
282.919 202.221 L
297.587 198.808 L
314.891 194.712 L
330.525 191.298 L
348.531 189.25 L
367.328 186.52 L
387.53 184.472 L
406.765 181.741 L
431.008 180.376 L
452.615 176.962 L
477.647 175.597 L
500.484 175.597 L
528.152 170.818 L
553.536 170.135 L
583.575 168.77 L
611.594 166.722 L
638.56 166.039 L
663.241 165.356 L
692.665 163.308 L
719.806 161.943 L
748.264 160.578 L
777.689 159.212 L
803.688 157.164 L
832.761 156.482 L
858.321 155.799 L
885.549 154.434 L
905.092 152.987 L
S
GR
GS
1 0 0 RC
1 LJ
2 LW
N
187.61 531.058 M
187.619 530.59 L
187.707 527.177 L
187.883 521.716 L
187.971 517.619 L
187.971 515.571 L
187.971 512.158 L
188.058 508.062 L
188.234 503.283 L
188.322 501.918 L
188.322 497.139 L
188.498 496.456 L
188.585 493.043 L
188.849 490.312 L
189.025 486.899 L
189.2 483.485 L
189.2 479.389 L
189.552 474.611 L
189.639 470.514 L
190.254 463.005 L
190.342 458.909 L
190.606 453.448 L
190.781 449.352 L
191.484 444.573 L
191.572 439.794 L
195.963 432.284 L
196.051 430.236 L
196.754 426.14 L
197.105 420.679 L
197.72 416.583 L
197.808 411.121 L
198.071 409.756 L
198.423 407.708 L
199.038 404.977 L
205.889 402.247 L
206.24 399.516 L
206.591 397.468 L
206.767 393.372 L
207.558 389.276 L
207.997 385.862 L
208.612 379.035 L
209.578 378.353 L
210.017 373.574 L
210.368 368.113 L
211.598 364.016 L
211.774 362.651 L
212.476 356.507 L
213.003 355.142 L
214.584 353.776 L
214.76 345.584 L
215.287 343.536 L
216.165 340.805 L
217.131 338.075 L
217.834 333.296 L
218.976 329.2 L
220.03 326.469 L
220.908 321.69 L
226.618 320.325 L
227.145 314.181 L
228.286 309.402 L
229.604 304.623 L
230.658 298.479 L
231.712 294.383 L
232.415 291.652 L
233.556 287.556 L
234.962 282.095 L
237.948 280.729 L
239.617 276.633 L
241.901 275.268 L
244.184 272.537 L
245.414 266.393 L
247.786 263.662 L
249.191 262.98 L
251.65 256.836 L
254.549 253.422 L
261.839 247.961 L
265.265 246.595 L
267.373 245.23 L
270.447 241.134 L
273.784 233.625 L
276.859 232.259 L
279.933 227.48 L
283.622 223.384 L
288.189 221.336 L
291.615 217.923 L
295.304 213.144 L
300.047 211.096 L
304.79 207 L
313.661 202.221 L
317.614 198.125 L
322.181 194.712 L
327.363 192.664 L
332.633 189.933 L
337.991 187.885 L
344.754 182.424 L
349.673 179.693 L
355.646 175.597 L
363.727 172.866 L
370.753 170.135 L
377.077 167.405 L
385.158 166.722 L
393.854 163.308 L
402.549 159.212 L
410.63 157.164 L
420.731 153.068 L
429.778 148.972 L
442.162 144.876 L
453.23 144.193 L
464.121 142.145 L
475.188 140.097 L
487.134 138.049 L
500.748 131.905 L
512.869 129.857 L
524.639 123.713 L
539.571 121.665 L
557.752 120.982 L
572.508 119.617 L
592.008 118.252 L
610.892 116.886 L
630.303 112.79 L
652.174 110.059 L
670.795 108.011 L
690.118 105.963 L
714.185 103.915 L
737.988 103.233 L
761.352 101.185 L
782.432 101.185 L
807.552 99.819 L
836.625 98.454 L
864.557 95.04 L
890.029 92.992 L
905.092 91.822 L
S
GR
GS
0 1 1 RC
[2 2] 0 setdash
2 LJ
2 LW
N
130.255 531.058 M
130.264 530.59 L
130.264 529.225 L
130.264 523.764 L
130.264 518.985 L
130.264 512.158 L
130.264 506.697 L
130.351 505.331 L
130.439 502.601 L
130.527 499.87 L
130.615 494.408 L
130.615 488.264 L
130.703 480.755 L
130.791 480.072 L
130.878 475.976 L
130.878 471.88 L
130.878 468.466 L
130.878 464.37 L
130.966 456.861 L
130.966 453.448 L
130.966 450.034 L
130.966 444.573 L
130.966 439.794 L
130.966 434.332 L
130.966 430.236 L
130.966 424.092 L
131.054 422.727 L
131.054 419.996 L
131.142 417.265 L
131.142 415.217 L
131.23 415.217 L
131.318 411.121 L
131.493 407.708 L
131.581 402.247 L
131.581 396.102 L
131.757 392.689 L
131.932 387.228 L
132.372 384.497 L
132.459 381.083 L
132.635 378.353 L
132.811 375.622 L
133.074 369.478 L
133.162 368.113 L
133.162 365.382 L
133.338 364.016 L
133.426 360.603 L
133.601 355.142 L
133.689 351.046 L
133.865 348.997 L
133.865 346.267 L
134.04 345.584 L
134.216 341.488 L
134.48 338.075 L
134.567 336.709 L
134.831 335.344 L
135.182 329.882 L
135.446 322.373 L
136.324 318.96 L
136.675 316.912 L
136.851 312.815 L
137.202 308.719 L
137.817 303.258 L
139.135 299.162 L
140.101 295.748 L
140.979 291.652 L
141.858 289.604 L
142.472 286.874 L
143.087 282.777 L
143.966 278.681 L
145.107 277.316 L
145.81 272.537 L
146.601 269.807 L
147.479 267.076 L
148.533 266.393 L
149.763 262.98 L
151.08 259.566 L
152.925 254.788 L
154.242 249.326 L
155.999 242.499 L
158.283 238.403 L
160.83 234.307 L
161.972 231.577 L
163.64 228.163 L
165.046 226.115 L
167.329 224.75 L
170.755 223.384 L
173.654 222.019 L
176.816 218.606 L
178.572 213.827 L
182.964 209.048 L
185.863 205.635 L
189.727 202.904 L
194.207 199.49 L
197.896 196.077 L
202.287 195.394 L
206.767 193.346 L
211.159 189.933 L
216.517 189.25 L
221.874 185.837 L
227.584 181.741 L
234.698 178.327 L
239.793 176.279 L
246.468 172.866 L
251.387 170.135 L
258.238 164.674 L
265.44 163.308 L
274.926 159.212 L
282.831 155.799 L
291.966 152.386 L
301.891 151.02 L
310.499 148.29 L
321.566 146.241 L
331.228 144.193 L
342.207 143.511 L
352.747 142.145 L
365.659 139.415 L
379.361 136.684 L
390.428 135.319 L
404.921 131.223 L
420.38 128.492 L
436.19 126.444 L
452.176 125.078 L
470.094 122.348 L
489.505 120.982 L
507.775 117.569 L
522.97 116.204 L
543.26 114.155 L
564.691 112.79 L
589.987 112.107 L
607.378 112.107 L
633.729 110.059 L
665.788 107.329 L
678.261 105.281 L
710.232 103.915 L
739.305 99.137 L
765.919 96.406 L
797.539 92.992 L
830.741 91.627 L
865.347 90.262 L
890.117 89.579 L
905.092 89.311 L
S
GR
GS
0 1 1 RC
1 LJ
2 LW
N
130.355 531.058 M
130.439 526.494 L
130.439 524.446 L
130.439 523.081 L
130.439 516.254 L
130.439 511.475 L
130.439 505.331 L
130.527 501.235 L
130.527 495.091 L
130.527 491.678 L
130.615 484.168 L
130.703 480.755 L
130.703 478.707 L
130.791 473.245 L
130.878 468.466 L
130.878 464.37 L
130.878 458.909 L
131.054 451.4 L
131.142 449.352 L
131.142 446.621 L
131.142 445.938 L
131.142 443.207 L
131.142 440.477 L
131.142 438.429 L
131.23 434.332 L
131.23 430.919 L
131.318 428.188 L
131.318 425.458 L
131.405 421.362 L
131.405 416.583 L
131.669 413.169 L
131.932 408.391 L
132.02 404.977 L
132.196 401.564 L
132.196 399.516 L
132.372 396.785 L
132.811 391.324 L
132.899 388.593 L
132.986 385.862 L
132.986 381.083 L
133.074 375.622 L
133.25 374.257 L
133.25 372.891 L
133.601 370.843 L
133.689 366.747 L
134.04 364.016 L
134.04 359.92 L
134.216 357.19 L
134.48 355.142 L
134.567 352.411 L
134.655 346.949 L
134.919 343.536 L
135.27 342.853 L
135.709 337.392 L
136.324 331.248 L
136.939 328.517 L
136.939 327.152 L
137.817 323.738 L
138.081 318.277 L
138.959 314.863 L
139.662 311.45 L
140.54 308.037 L
141.418 304.623 L
142.033 302.575 L
142.56 298.479 L
142.824 293.018 L
143.263 288.922 L
144.405 286.191 L
145.547 280.047 L
146.513 273.22 L
147.83 269.807 L
148.357 269.124 L
150.114 265.028 L
151.344 260.249 L
153.452 256.153 L
154.945 255.47 L
156.438 252.057 L
158.37 249.326 L
159.161 248.643 L
160.83 244.547 L
163.113 243.182 L
165.309 241.134 L
167.417 234.307 L
170.579 231.577 L
173.654 227.48 L
174.883 227.48 L
178.924 224.067 L
182.173 219.288 L
185.335 215.875 L
188.673 213.827 L
191.308 209.048 L
195.876 202.904 L
200.706 200.173 L
202.375 198.125 L
207.382 194.712 L
213.179 193.346 L
217.658 189.933 L
222.841 187.885 L
228.989 183.789 L
234.786 181.058 L
237.245 178.327 L
246.907 176.279 L
254.461 173.549 L
263.332 172.183 L
271.325 170.818 L
283.446 164.674 L
294.425 161.943 L
298.466 161.26 L
309.094 159.895 L
319.019 157.164 L
331.491 153.751 L
341.944 150.338 L
355.997 148.972 L
369.875 147.607 L
375.672 146.241 L
389.813 143.511 L
404.569 141.463 L
419.677 137.367 L
435.048 134.636 L
452.351 129.174 L
468.864 127.126 L
489.769 125.761 L
496.62 125.078 L
518.402 123.713 L
543.26 120.3 L
565.306 119.617 L
588.933 116.886 L
613.351 114.838 L
641.546 112.79 L
651.208 110.742 L
679.139 108.011 L
708.3 105.281 L
738.603 101.867 L
768.554 97.771 L
803.776 95.723 L
838.821 95.04 L
852.699 93.675 L
888.536 92.31 L
905.092 91.708 L
S
GR
GS
1 0 1 RC
[2 2] 0 setdash
2 LJ
2 LW
N
130.264 531.058 M
130.264 527.177 L
130.264 525.129 L
130.351 521.716 L
130.351 519.667 L
130.351 516.937 L
130.351 513.523 L
130.351 508.745 L
130.351 504.649 L
130.351 499.87 L
130.351 492.36 L
130.351 490.312 L
130.351 480.072 L
130.351 476.659 L
130.351 471.88 L
130.351 467.784 L
130.351 465.053 L
130.351 461.64 L
130.527 455.496 L
130.615 452.082 L
130.615 441.842 L
130.615 440.477 L
130.615 437.746 L
130.878 432.967 L
131.054 430.919 L
131.142 426.823 L
131.142 423.41 L
131.318 419.996 L
131.318 415.9 L
131.405 411.804 L
131.405 405.66 L
131.493 402.247 L
131.757 400.199 L
132.02 394.737 L
132.108 388.593 L
132.108 385.862 L
132.284 384.497 L
132.284 377.67 L
132.372 372.891 L
132.986 364.699 L
133.162 361.286 L
133.162 357.19 L
133.338 351.046 L
133.601 348.315 L
134.128 343.536 L
134.392 340.123 L
134.48 336.027 L
135.094 333.978 L
135.446 329.882 L
135.973 326.469 L
136.236 322.373 L
136.412 319.642 L
137.378 316.912 L
137.993 310.767 L
138.52 306.671 L
139.398 301.893 L
139.837 298.479 L
140.628 295.748 L
141.331 293.018 L
141.77 291.652 L
142.385 286.874 L
143.614 284.143 L
144.58 280.047 L
145.283 274.585 L
146.161 269.124 L
147.479 262.297 L
148.709 258.201 L
149.675 255.47 L
150.817 249.326 L
152.31 245.913 L
153.54 240.451 L
154.681 236.355 L
155.823 234.307 L
158.195 230.894 L
160.918 227.48 L
163.026 222.702 L
165.661 221.336 L
166.627 217.24 L
168.823 213.827 L
171.194 211.779 L
173.302 211.096 L
177.167 208.365 L
180.065 207 L
184.194 203.587 L
187.619 199.49 L
190.693 197.442 L
194.997 190.616 L
198.774 187.885 L
203.078 185.837 L
208.348 183.106 L
212.652 178.327 L
217.483 175.597 L
223.368 174.231 L
228.462 171.501 L
235.05 169.453 L
241.549 166.722 L
246.644 163.991 L
252.265 163.991 L
260.434 162.626 L
269.129 160.578 L
277.122 158.53 L
284.5 153.751 L
292.932 153.751 L
303.121 150.338 L
314.1 147.607 L
322.005 146.241 L
331.579 146.241 L
346.16 144.876 L
359.159 141.463 L
369.875 137.367 L
381.118 133.953 L
396.928 131.223 L
412.123 129.857 L
425.123 126.444 L
442.075 125.078 L
461.925 123.03 L
482.566 121.665 L
499.957 118.252 L
520.335 116.204 L
544.314 114.838 L
567.326 112.79 L
582.961 110.059 L
609.311 108.694 L
637.593 103.915 L
659.903 102.55 L
685.112 100.502 L
713.746 99.137 L
745.366 97.089 L
773.824 95.04 L
797.012 93.675 L
833.2 92.992 L
869.036 91.627 L
903.731 89.579 L
905.092 89.554 L
S
GR
GS
1 0 1 RC
1 LJ
2 LW
N
130.264 531.058 M
130.264 529.908 L
130.351 528.542 L
130.351 521.716 L
130.351 520.35 L
130.351 515.571 L
130.351 510.793 L
130.351 508.745 L
130.351 504.649 L
130.351 497.822 L
130.351 492.36 L
130.351 491.678 L
130.439 487.582 L
130.439 482.803 L
130.439 477.341 L
130.527 471.88 L
130.615 465.736 L
130.703 462.322 L
130.703 458.909 L
130.703 458.226 L
130.703 450.034 L
130.703 446.621 L
130.878 441.842 L
130.966 439.111 L
131.054 434.332 L
131.318 430.919 L
131.318 427.506 L
131.581 419.996 L
131.581 418.631 L
131.669 415.9 L
131.845 412.487 L
131.932 404.295 L
132.02 399.516 L
132.02 389.958 L
132.284 386.545 L
132.284 385.862 L
132.547 379.718 L
132.635 375.622 L
132.811 369.478 L
132.986 366.064 L
133.513 361.968 L
133.865 357.19 L
133.953 352.411 L
133.953 350.363 L
134.304 348.315 L
134.655 342.171 L
135.094 340.123 L
135.534 337.392 L
135.973 334.661 L
136.324 330.565 L
137.115 327.152 L
137.115 326.469 L
137.729 320.325 L
138.52 315.546 L
139.398 311.45 L
140.277 305.989 L
141.067 297.796 L
141.682 289.604 L
143.087 284.826 L
143.79 280.729 L
143.966 279.364 L
144.932 273.22 L
145.898 269.124 L
146.688 266.393 L
147.918 264.345 L
148.884 261.614 L
150.202 256.153 L
150.553 254.788 L
151.871 252.057 L
153.188 249.326 L
155.999 247.278 L
158.019 241.134 L
160.478 237.038 L
161.708 232.259 L
163.816 228.846 L
164.694 228.163 L
166.539 224.067 L
169.086 223.384 L
171.633 219.288 L
175.41 217.923 L
178.66 214.509 L
181.383 212.461 L
185.072 205.635 L
188.937 204.269 L
190.166 204.269 L
193.68 202.221 L
197.72 198.808 L
202.639 192.664 L
207.118 191.981 L
212.564 188.568 L
217.746 185.837 L
219.591 184.472 L
227.057 181.741 L
233.205 181.058 L
239.266 176.279 L
246.995 174.914 L
254.724 170.135 L
262.717 166.722 L
272.203 162.626 L
274.575 160.578 L
283.271 158.53 L
293.108 157.164 L
303.297 153.751 L
313.134 151.02 L
324.816 148.29 L
336.586 144.193 L
349.058 140.78 L
353.538 139.415 L
365.22 138.049 L
380.239 137.367 L
395.259 135.319 L
412.211 131.905 L
431.095 129.857 L
450.068 126.444 L
470.357 125.761 L
476.945 123.03 L
495.478 121.665 L
517.612 119.617 L
544.489 117.569 L
565.745 116.886 L
590.339 112.79 L
618.533 110.059 L
643.039 108.011 L
649.978 108.011 L
680.105 105.281 L
712.692 102.55 L
743.873 101.185 L
774.966 100.502 L
811.329 97.089 L
849.625 95.04 L
888.272 94.358 L
903.204 94.358 L
905.092 94.26 L
S
GR
GS
0 0 1 RC
[2 2] 0 setdash
2 LJ
2 LW
N
135.201 531.058 M
135.358 529.225 L
135.534 524.446 L
135.709 524.446 L
135.885 521.033 L
135.973 514.206 L
135.973 510.11 L
136.061 505.331 L
136.5 500.552 L
136.588 495.774 L
136.851 492.36 L
137.027 487.582 L
138.169 484.851 L
138.344 478.707 L
138.608 471.88 L
139.75 468.466 L
139.837 464.37 L
140.189 461.64 L
140.804 456.861 L
141.243 449.352 L
141.331 445.255 L
141.77 435.698 L
142.385 430.919 L
143.966 428.188 L
143.966 426.14 L
144.756 419.996 L
146.161 416.583 L
146.513 410.439 L
147.479 403.612 L
148.094 398.15 L
149.851 392.689 L
150.905 388.593 L
151.959 382.449 L
152.749 379.035 L
154.594 374.257 L
155.56 366.747 L
156.789 359.238 L
158.81 353.094 L
160.478 348.315 L
161.532 344.219 L
163.026 342.853 L
165.397 339.44 L
166.275 336.709 L
168.208 333.978 L
170.14 331.248 L
172.687 323.738 L
173.917 316.912 L
175.586 313.498 L
178.309 311.45 L
180.505 308.719 L
183.14 308.037 L
184.808 304.623 L
188.41 301.893 L
191.22 296.431 L
194.47 292.335 L
198.598 290.287 L
204.22 287.556 L
208.436 283.46 L
213.53 279.364 L
219.854 275.268 L
225.476 271.855 L
230.394 265.711 L
235.84 261.614 L
242.691 256.836 L
250.596 251.374 L
258.15 246.595 L
265.089 243.865 L
273.345 241.134 L
279.669 237.038 L
288.628 231.577 L
296.446 229.528 L
304.966 225.432 L
315.154 219.971 L
325.255 217.24 L
335.795 213.827 L
347.916 207.683 L
359.247 206.317 L
372.949 203.587 L
385.509 200.173 L
400.178 197.442 L
416.691 194.712 L
432.94 193.346 L
448.662 189.933 L
465.087 186.52 L
481.951 184.472 L
500.924 183.106 L
520.159 180.376 L
539.307 178.327 L
560.036 174.231 L
583.136 168.087 L
610.804 167.405 L
635.925 164.674 L
659.464 163.308 L
687.22 159.212 L
706.807 158.53 L
740.184 154.434 L
771.277 151.703 L
805.62 146.924 L
837.943 144.193 L
872.023 140.78 L
905.092 138.966 L
S
GR
GS
[2 2] 0 setdash
2 LJ
2 LW
N
130 531.058 M
130 529.225 L
130 525.812 L
130 524.446 L
130 522.398 L
130 520.35 L
130 515.571 L
130 512.158 L
130 507.379 L
130 503.283 L
130 498.504 L
130 496.456 L
130 494.408 L
130 493.043 L
130 489.63 L
130 484.851 L
130 482.803 L
130 477.341 L
130 472.563 L
130 467.101 L
130 463.688 L
130 456.861 L
130 450.717 L
130 447.303 L
130.088 444.573 L
130.088 439.794 L
130.088 438.429 L
130.176 434.332 L
130.176 430.919 L
130.264 425.458 L
130.264 419.314 L
130.264 413.169 L
130.351 411.804 L
130.439 407.025 L
130.439 402.929 L
130.527 400.199 L
130.527 394.737 L
130.527 390.641 L
130.527 387.91 L
130.527 383.814 L
130.527 378.353 L
130.527 376.305 L
130.615 373.574 L
130.703 371.526 L
130.791 366.747 L
130.878 363.334 L
130.878 359.92 L
130.878 352.411 L
130.878 346.949 L
130.966 344.219 L
130.966 343.536 L
131.23 339.44 L
131.318 333.978 L
131.405 331.248 L
131.405 327.834 L
131.405 324.421 L
131.493 322.373 L
131.757 318.277 L
132.108 316.229 L
132.284 314.863 L
132.723 310.767 L
132.899 308.719 L
133.162 302.575 L
133.426 300.527 L
133.689 293.7 L
133.777 289.604 L
133.953 284.826 L
134.304 280.729 L
134.743 277.316 L
135.182 273.22 L
135.182 270.489 L
135.358 266.393 L
135.621 265.028 L
136.148 262.98 L
136.588 260.249 L
137.729 257.518 L
138.169 253.422 L
138.608 249.326 L
139.135 245.23 L
139.662 240.451 L
140.101 237.038 L
141.331 234.99 L
142.121 230.894 L
143.087 229.528 L
144.58 225.432 L
145.371 224.75 L
146.601 224.75 L
148.884 222.019 L
150.026 220.654 L
152.134 217.24 L
153.803 215.192 L
155.472 212.461 L
157.58 208.365 L
159.424 205.635 L
162.499 200.173 L
164.255 198.808 L
167.417 194.029 L
169.965 191.298 L
173.039 187.202 L
176.552 187.202 L
179.275 185.837 L
181.91 183.106 L
185.95 181.058 L
188.146 179.01 L
192.45 174.231 L
196.49 171.501 L
201.146 168.087 L
205.186 166.039 L
209.666 161.943 L
213.267 159.895 L
217.746 157.847 L
225.037 157.847 L
230.658 155.116 L
238.036 154.434 L
246.38 152.386 L
254.022 150.338 L
261.136 144.876 L
270.359 142.145 L
276.683 140.78 L
286.257 138.732 L
295.919 136.684 L
304.966 134.636 L
314.364 134.636 L
324.992 133.271 L
338.255 129.857 L
346.687 127.126 L
359.247 123.713 L
372.949 119.617 L
387.53 113.473 L
402.461 111.425 L
419.238 108.694 L
434.345 107.329 L
452.263 105.281 L
464.911 105.281 L
481.6 104.598 L
499.957 101.185 L
519.808 97.771 L
537.902 97.089 L
560.299 95.723 L
584.102 92.992 L
598.244 91.627 L
619.5 88.896 L
649.539 87.531 L
675.889 86.166 L
700.395 84.118 L
728.765 82.07 L
761.527 80.021 L
792.708 78.656 L
812.12 77.291 L
843.213 75.925 L
874.833 75.243 L
905.092 74.641 L
S
GR
GS
1 LJ
2 LW
N
130 531.058 M
130 529.908 L
130 525.812 L
130 523.081 L
130 517.619 L
130 512.841 L
130 508.062 L
130 504.649 L
130 502.601 L
130 501.918 L
130 499.187 L
130 495.091 L
130 489.63 L
130 484.851 L
130 478.707 L
130 474.611 L
130 472.563 L
130 469.149 L
130 465.053 L
130 459.592 L
130 455.496 L
130 450.034 L
130 447.986 L
130 444.573 L
130 442.525 L
130 437.746 L
130.088 434.332 L
130.176 429.554 L
130.176 422.044 L
130.176 415.9 L
130.264 413.169 L
130.264 411.121 L
130.351 407.708 L
130.439 404.977 L
130.439 402.247 L
130.439 396.785 L
130.439 392.689 L
130.439 384.497 L
130.527 381.766 L
130.615 380.401 L
130.791 376.987 L
131.054 373.574 L
131.054 370.843 L
131.054 362.651 L
131.054 359.238 L
131.142 355.142 L
131.23 353.776 L
131.493 348.997 L
131.493 343.536 L
131.581 339.44 L
131.669 336.027 L
131.757 331.248 L
131.845 329.2 L
132.02 325.104 L
132.02 324.421 L
132.284 319.642 L
132.284 316.912 L
132.459 314.863 L
132.635 309.402 L
132.811 305.306 L
132.986 301.893 L
133.162 301.893 L
133.426 297.796 L
133.953 294.383 L
134.567 293.018 L
135.094 288.922 L
135.27 284.826 L
135.621 277.316 L
136.148 274.585 L
136.5 271.855 L
136.939 268.441 L
137.729 266.393 L
138.081 262.297 L
138.871 258.201 L
139.31 254.105 L
140.277 247.278 L
140.54 245.913 L
141.418 241.134 L
142.209 238.403 L
143.351 236.355 L
144.844 234.99 L
145.722 232.259 L
147.128 230.211 L
148.709 226.798 L
149.411 224.75 L
151.519 222.019 L
152.837 219.971 L
154.506 217.24 L
155.735 211.096 L
158.019 209.048 L
160.391 207 L
161.181 207 L
163.553 202.221 L
166.539 197.442 L
169.262 196.077 L
171.809 194.029 L
175.147 191.298 L
177.694 186.52 L
181.032 185.154 L
182.261 184.472 L
186.653 180.376 L
190.43 177.645 L
194.207 176.962 L
198.335 174.231 L
203.693 171.501 L
208.085 168.77 L
209.051 167.405 L
215.023 166.039 L
220.293 165.356 L
228.199 161.26 L
235.313 159.212 L
242.516 157.164 L
249.894 153.751 L
257.799 149.655 L
260.258 148.972 L
269.129 146.924 L
278.967 145.559 L
288.365 142.828 L
298.202 140.097 L
307.161 137.367 L
318.404 136.684 L
322.269 136.001 L
333.951 131.905 L
347.038 127.809 L
361.355 123.713 L
376.375 120.982 L
391.658 118.934 L
406.15 116.886 L
421.785 113.473 L
426.177 112.79 L
442.514 111.425 L
459.817 110.059 L
480.019 108.011 L
500.397 105.281 L
521.565 103.233 L
543.611 99.137 L
549.496 98.454 L
572.508 96.406 L
599.561 95.04 L
623.54 92.31 L
651.471 89.579 L
676.24 85.483 L
708.827 82.07 L
739.569 81.387 L
749.67 80.704 L
780.939 80.704 L
811.856 79.339 L
846.287 77.291 L
879.928 75.243 L
905.092 74.842 L
S
GR
GS
[10 6] 0 setdash
2 LJ
0.5 LW
N
905.092 45.008 M
904.353 44.942 L
S
GR
%%Trailer
%%Pages: 1
%%EOF
