%!PS-Adobe-3.0 EPSF-3.0
%%Creator: (MATLAB, The Mathworks, Inc. Version 9.3.0.713579 \(R2017b\). Operating System: Mac OS X)
%%Title: ./ROCs_postmortem_12_closeup.eps
%%CreationDate: 2019-01-22T12:48:04
%%Pages: (atend)
%%BoundingBox:    48     5   927   587
%%LanguageLevel: 3
%%EndComments
%%BeginProlog
%%BeginResource: procset (Apache XML Graphics Std ProcSet) 1.2 0
%%Version: 1.2 0
%%Copyright: (Copyright 2001-2003,2010 The Apache Software Foundation. License terms: http://www.apache.org/licenses/LICENSE-2.0)
/bd{bind def}bind def
/ld{load def}bd
/GR/grestore ld
/GS/gsave ld
/RM/rmoveto ld
/C/curveto ld
/t/show ld
/L/lineto ld
/ML/setmiterlimit ld
/CT/concat ld
/f/fill ld
/N/newpath ld
/S/stroke ld
/CC/setcmykcolor ld
/A/ashow ld
/cp/closepath ld
/RC/setrgbcolor ld
/LJ/setlinejoin ld
/GC/setgray ld
/LW/setlinewidth ld
/M/moveto ld
/re {4 2 roll M
1 index 0 rlineto
0 exch rlineto
neg 0 rlineto
cp } bd
/_ctm matrix def
/_tm matrix def
/BT { _ctm currentmatrix pop matrix _tm copy pop 0 0 moveto } bd
/ET { _ctm setmatrix } bd
/iTm { _ctm setmatrix _tm concat } bd
/Tm { _tm astore pop iTm 0 0 moveto } bd
/ux 0.0 def
/uy 0.0 def
/F {
  /Tp exch def
  /Tf exch def
  Tf findfont Tp scalefont setfont
  /cf Tf def  /cs Tp def
} bd
/ULS {currentpoint /uy exch def /ux exch def} bd
/ULE {
  /Tcx currentpoint pop def
  gsave
  newpath
  cf findfont cs scalefont dup
  /FontMatrix get 0 get /Ts exch def /FontInfo get dup
  /UnderlinePosition get Ts mul /To exch def
  /UnderlineThickness get Ts mul /Tt exch def
  ux uy To add moveto  Tcx uy To add lineto
  Tt setlinewidth stroke
  grestore
} bd
/OLE {
  /Tcx currentpoint pop def
  gsave
  newpath
  cf findfont cs scalefont dup
  /FontMatrix get 0 get /Ts exch def /FontInfo get dup
  /UnderlinePosition get Ts mul /To exch def
  /UnderlineThickness get Ts mul /Tt exch def
  ux uy To add cs add moveto Tcx uy To add cs add lineto
  Tt setlinewidth stroke
  grestore
} bd
/SOE {
  /Tcx currentpoint pop def
  gsave
  newpath
  cf findfont cs scalefont dup
  /FontMatrix get 0 get /Ts exch def /FontInfo get dup
  /UnderlinePosition get Ts mul /To exch def
  /UnderlineThickness get Ts mul /Tt exch def
  ux uy To add cs 10 mul 26 idiv add moveto Tcx uy To add cs 10 mul 26 idiv add lineto
  Tt setlinewidth stroke
  grestore
} bd
/QT {
/Y22 exch store
/X22 exch store
/Y21 exch store
/X21 exch store
currentpoint
/Y21 load 2 mul add 3 div exch
/X21 load 2 mul add 3 div exch
/X21 load 2 mul /X22 load add 3 div
/Y21 load 2 mul /Y22 load add 3 div
/X22 load /Y22 load curveto
} bd
/SSPD {
dup length /d exch dict def
{
/v exch def
/k exch def
currentpagedevice k known {
/cpdv currentpagedevice k get def
v cpdv ne {
/upd false def
/nullv v type /nulltype eq def
/nullcpdv cpdv type /nulltype eq def
nullv nullcpdv or
{
/upd true def
} {
/sametype v type cpdv type eq def
sametype {
v type /arraytype eq {
/vlen v length def
/cpdvlen cpdv length def
vlen cpdvlen eq {
0 1 vlen 1 sub {
/i exch def
/obj v i get def
/cpdobj cpdv i get def
obj cpdobj ne {
/upd true def
exit
} if
} for
} {
/upd true def
} ifelse
} {
v type /dicttype eq {
v {
/dv exch def
/dk exch def
/cpddv cpdv dk get def
dv cpddv ne {
/upd true def
exit
} if
} forall
} {
/upd true def
} ifelse
} ifelse
} if
} ifelse
upd true eq {
d k v put
} if
} if
} if
} forall
d length 0 gt {
d setpagedevice
} if
} bd
/RE { % /NewFontName [NewEncodingArray] /FontName RE -
  findfont dup length dict begin
  {
    1 index /FID ne
    {def} {pop pop} ifelse
  } forall
  /Encoding exch def
  /FontName 1 index def
  currentdict definefont pop
  end
} bind def
%%EndResource
%%BeginResource: procset (Apache XML Graphics EPS ProcSet) 1.0 0
%%Version: 1.0 0
%%Copyright: (Copyright 2002-2003 The Apache Software Foundation. License terms: http://www.apache.org/licenses/LICENSE-2.0)
/BeginEPSF { %def
/b4_Inc_state save def         % Save state for cleanup
/dict_count countdictstack def % Count objects on dict stack
/op_count count 1 sub def      % Count objects on operand stack
userdict begin                 % Push userdict on dict stack
/showpage { } def              % Redefine showpage, { } = null proc
0 setgray 0 setlinecap         % Prepare graphics state
1 setlinewidth 0 setlinejoin
10 setmiterlimit [ ] 0 setdash newpath
/languagelevel where           % If level not equal to 1 then
{pop languagelevel             % set strokeadjust and
1 ne                           % overprint to their defaults.
{false setstrokeadjust false setoverprint
} if
} if
} bd
/EndEPSF { %def
count op_count sub {pop} repeat            % Clean up stacks
countdictstack dict_count sub {end} repeat
b4_Inc_state restore
} bd
%%EndResource
%FOPBeginFontDict
%%IncludeResource: font Courier-Oblique
%%IncludeResource: font Courier-BoldOblique
%%IncludeResource: font Courier-Bold
%%IncludeResource: font ZapfDingbats
%%IncludeResource: font Symbol
%%IncludeResource: font Helvetica
%%IncludeResource: font Helvetica-Oblique
%%IncludeResource: font Helvetica-Bold
%%IncludeResource: font Helvetica-BoldOblique
%%IncludeResource: font Times-Roman
%%IncludeResource: font Times-Italic
%%IncludeResource: font Times-Bold
%%IncludeResource: font Times-BoldItalic
%%IncludeResource: font Courier
%FOPEndFontDict
%%BeginResource: encoding WinAnsiEncoding
/WinAnsiEncoding [
/.notdef /.notdef /.notdef /.notdef /.notdef
/.notdef /.notdef /.notdef /.notdef /.notdef
/.notdef /.notdef /.notdef /.notdef /.notdef
/.notdef /.notdef /.notdef /.notdef /.notdef
/.notdef /.notdef /.notdef /.notdef /.notdef
/.notdef /.notdef /.notdef /.notdef /.notdef
/.notdef /.notdef /space /exclam /quotedbl
/numbersign /dollar /percent /ampersand /quotesingle
/parenleft /parenright /asterisk /plus /comma
/hyphen /period /slash /zero /one
/two /three /four /five /six
/seven /eight /nine /colon /semicolon
/less /equal /greater /question /at
/A /B /C /D /E
/F /G /H /I /J
/K /L /M /N /O
/P /Q /R /S /T
/U /V /W /X /Y
/Z /bracketleft /backslash /bracketright /asciicircum
/underscore /quoteleft /a /b /c
/d /e /f /g /h
/i /j /k /l /m
/n /o /p /q /r
/s /t /u /v /w
/x /y /z /braceleft /bar
/braceright /asciitilde /bullet /Euro /bullet
/quotesinglbase /florin /quotedblbase /ellipsis /dagger
/daggerdbl /circumflex /perthousand /Scaron /guilsinglleft
/OE /bullet /Zcaron /bullet /bullet
/quoteleft /quoteright /quotedblleft /quotedblright /bullet
/endash /emdash /asciitilde /trademark /scaron
/guilsinglright /oe /bullet /zcaron /Ydieresis
/space /exclamdown /cent /sterling /currency
/yen /brokenbar /section /dieresis /copyright
/ordfeminine /guillemotleft /logicalnot /sfthyphen /registered
/macron /degree /plusminus /twosuperior /threesuperior
/acute /mu /paragraph /middot /cedilla
/onesuperior /ordmasculine /guillemotright /onequarter /onehalf
/threequarters /questiondown /Agrave /Aacute /Acircumflex
/Atilde /Adieresis /Aring /AE /Ccedilla
/Egrave /Eacute /Ecircumflex /Edieresis /Igrave
/Iacute /Icircumflex /Idieresis /Eth /Ntilde
/Ograve /Oacute /Ocircumflex /Otilde /Odieresis
/multiply /Oslash /Ugrave /Uacute /Ucircumflex
/Udieresis /Yacute /Thorn /germandbls /agrave
/aacute /acircumflex /atilde /adieresis /aring
/ae /ccedilla /egrave /eacute /ecircumflex
/edieresis /igrave /iacute /icircumflex /idieresis
/eth /ntilde /ograve /oacute /ocircumflex
/otilde /odieresis /divide /oslash /ugrave
/uacute /ucircumflex /udieresis /yacute /thorn
/ydieresis
] def
%%EndResource
%FOPBeginFontReencode
/Courier-Oblique findfont
dup length dict begin
  {1 index /FID ne {def} {pop pop} ifelse} forall
  /Encoding WinAnsiEncoding def
  currentdict
end
/Courier-Oblique exch definefont pop
/Courier-BoldOblique findfont
dup length dict begin
  {1 index /FID ne {def} {pop pop} ifelse} forall
  /Encoding WinAnsiEncoding def
  currentdict
end
/Courier-BoldOblique exch definefont pop
/Courier-Bold findfont
dup length dict begin
  {1 index /FID ne {def} {pop pop} ifelse} forall
  /Encoding WinAnsiEncoding def
  currentdict
end
/Courier-Bold exch definefont pop
/Helvetica findfont
dup length dict begin
  {1 index /FID ne {def} {pop pop} ifelse} forall
  /Encoding WinAnsiEncoding def
  currentdict
end
/Helvetica exch definefont pop
/Helvetica-Oblique findfont
dup length dict begin
  {1 index /FID ne {def} {pop pop} ifelse} forall
  /Encoding WinAnsiEncoding def
  currentdict
end
/Helvetica-Oblique exch definefont pop
/Helvetica-Bold findfont
dup length dict begin
  {1 index /FID ne {def} {pop pop} ifelse} forall
  /Encoding WinAnsiEncoding def
  currentdict
end
/Helvetica-Bold exch definefont pop
/Helvetica-BoldOblique findfont
dup length dict begin
  {1 index /FID ne {def} {pop pop} ifelse} forall
  /Encoding WinAnsiEncoding def
  currentdict
end
/Helvetica-BoldOblique exch definefont pop
/Times-Roman findfont
dup length dict begin
  {1 index /FID ne {def} {pop pop} ifelse} forall
  /Encoding WinAnsiEncoding def
  currentdict
end
/Times-Roman exch definefont pop
/Times-Italic findfont
dup length dict begin
  {1 index /FID ne {def} {pop pop} ifelse} forall
  /Encoding WinAnsiEncoding def
  currentdict
end
/Times-Italic exch definefont pop
/Times-Bold findfont
dup length dict begin
  {1 index /FID ne {def} {pop pop} ifelse} forall
  /Encoding WinAnsiEncoding def
  currentdict
end
/Times-Bold exch definefont pop
/Times-BoldItalic findfont
dup length dict begin
  {1 index /FID ne {def} {pop pop} ifelse} forall
  /Encoding WinAnsiEncoding def
  currentdict
end
/Times-BoldItalic exch definefont pop
/Courier findfont
dup length dict begin
  {1 index /FID ne {def} {pop pop} ifelse} forall
  /Encoding WinAnsiEncoding def
  currentdict
end
/Courier exch definefont pop
%FOPEndFontReencode
%%EndProlog
%%Page: 1 1
%%PageBoundingBox: 0 0 1000 600
%%BeginPageSetup
[1 0 0 -1 0 600] CT
%%EndPageSetup
GS
1 GC
N
0 0 1000 600 re
f
GR
GS
1 GC
N
0 0 1000 600 re
f
GR
GS
1 GC
N
130 531 M
905 531 L
905 45 L
130 45 L
cp
f
GR
GS
0.873 GC
1 LJ
0.5 LW
N
130 531 M
130 45 L
S
GR
GS
0.873 GC
1 LJ
0.5 LW
N
285 531 M
285 45 L
S
GR
GS
0.873 GC
1 LJ
0.5 LW
N
440 531 M
440 45 L
S
GR
GS
0.873 GC
1 LJ
0.5 LW
N
595 531 M
595 45 L
S
GR
GS
0.873 GC
1 LJ
0.5 LW
N
750 531 M
750 45 L
S
GR
GS
0.873 GC
1 LJ
0.5 LW
N
905 531 M
905 45 L
S
GR
GS
0.873 GC
1 LJ
0.5 LW
N
905 531 M
130 531 L
S
GR
GS
0.873 GC
1 LJ
0.5 LW
N
905 450 M
130 450 L
S
GR
GS
0.873 GC
1 LJ
0.5 LW
N
905 369 M
130 369 L
S
GR
GS
0.873 GC
1 LJ
0.5 LW
N
905 288 M
130 288 L
S
GR
GS
0.873 GC
1 LJ
0.5 LW
N
905 207 M
130 207 L
S
GR
GS
0.873 GC
1 LJ
0.5 LW
N
905 126 M
130 126 L
S
GR
GS
0.873 GC
1 LJ
0.5 LW
N
905 45 M
130 45 L
S
GR
GS
0.149 GC
2 setlinecap
1 LJ
0.5 LW
N
130 531 M
905 531 L
S
GR
GS
0.149 GC
2 setlinecap
1 LJ
0.5 LW
N
130 45 M
905 45 L
S
GR
GS
0.149 GC
2 setlinecap
1 LJ
0.5 LW
N
130 531 M
130 523.25 L
S
GR
GS
0.149 GC
2 setlinecap
1 LJ
0.5 LW
N
285 531 M
285 523.25 L
S
GR
GS
0.149 GC
2 setlinecap
1 LJ
0.5 LW
N
440 531 M
440 523.25 L
S
GR
GS
0.149 GC
2 setlinecap
1 LJ
0.5 LW
N
595 531 M
595 523.25 L
S
GR
GS
0.149 GC
2 setlinecap
1 LJ
0.5 LW
N
750 531 M
750 523.25 L
S
GR
GS
0.149 GC
2 setlinecap
1 LJ
0.5 LW
N
905 531 M
905 523.25 L
S
GR
GS
0.149 GC
2 setlinecap
1 LJ
0.5 LW
N
130 45 M
130 52.75 L
S
GR
GS
0.149 GC
2 setlinecap
1 LJ
0.5 LW
N
285 45 M
285 52.75 L
S
GR
GS
0.149 GC
2 setlinecap
1 LJ
0.5 LW
N
440 45 M
440 52.75 L
S
GR
GS
0.149 GC
2 setlinecap
1 LJ
0.5 LW
N
595 45 M
595 52.75 L
S
GR
GS
0.149 GC
2 setlinecap
1 LJ
0.5 LW
N
750 45 M
750 52.75 L
S
GR
GS
0.149 GC
2 setlinecap
1 LJ
0.5 LW
N
905 45 M
905 52.75 L
S
GR
GS
[1 0 0 1 130 537.80005] CT
0.149 GC
/Helvetica 24 F
GS
[1 0 0 1 0 0] CT
-7 23 moveto 
1 -1 scale
(0) t 
GR
GR
GS
[1 0 0 1 285 537.80005] CT
0.149 GC
/Helvetica 24 F
GS
[1 0 0 1 0 0] CT
-23.5 23 moveto 
1 -1 scale
(0.01) t 
GR
GR
GS
[1 0 0 1 440 537.80005] CT
0.149 GC
/Helvetica 24 F
GS
[1 0 0 1 0 0] CT
-23.5 23 moveto 
1 -1 scale
(0.02) t 
GR
GR
GS
[1 0 0 1 595 537.80005] CT
0.149 GC
/Helvetica 24 F
GS
[1 0 0 1 0 0] CT
-23.5 23 moveto 
1 -1 scale
(0.03) t 
GR
GR
GS
[1 0 0 1 750 537.80005] CT
0.149 GC
/Helvetica 24 F
GS
[1 0 0 1 0 0] CT
-23.5 23 moveto 
1 -1 scale
(0.04) t 
GR
GR
GS
[1 0 0 1 905 537.80005] CT
0.149 GC
/Helvetica 24 F
GS
[1 0 0 1 0 0] CT
-23.5 23 moveto 
1 -1 scale
(0.05) t 
GR
GR
GS
[1 0 0 1 517.50037 567.79999] CT
0.149 GC
/Helvetica 26.4 F
GS
[1 0 0 1 0 0] CT
-103.5 26 moveto 
1 -1 scale
(False Match Rate) t 
GR
GR
GS
0.149 GC
2 setlinecap
1 LJ
0.5 LW
N
130 531 M
130 45 L
S
GR
GS
0.149 GC
2 setlinecap
1 LJ
0.5 LW
N
905 531 M
905 45 L
S
GR
GS
0.149 GC
2 setlinecap
1 LJ
0.5 LW
N
130 531 M
137.75 531 L
S
GR
GS
0.149 GC
2 setlinecap
1 LJ
0.5 LW
N
130 450 M
137.75 450 L
S
GR
GS
0.149 GC
2 setlinecap
1 LJ
0.5 LW
N
130 369 M
137.75 369 L
S
GR
GS
0.149 GC
2 setlinecap
1 LJ
0.5 LW
N
130 288 M
137.75 288 L
S
GR
GS
0.149 GC
2 setlinecap
1 LJ
0.5 LW
N
130 207 M
137.75 207 L
S
GR
GS
0.149 GC
2 setlinecap
1 LJ
0.5 LW
N
130 126 M
137.75 126 L
S
GR
GS
0.149 GC
2 setlinecap
1 LJ
0.5 LW
N
130 45 M
137.75 45 L
S
GR
GS
0.149 GC
2 setlinecap
1 LJ
0.5 LW
N
905 531 M
897.25 531 L
S
GR
GS
0.149 GC
2 setlinecap
1 LJ
0.5 LW
N
905 450 M
897.25 450 L
S
GR
GS
0.149 GC
2 setlinecap
1 LJ
0.5 LW
N
905 369 M
897.25 369 L
S
GR
GS
0.149 GC
2 setlinecap
1 LJ
0.5 LW
N
905 288 M
897.25 288 L
S
GR
GS
0.149 GC
2 setlinecap
1 LJ
0.5 LW
N
905 207 M
897.25 207 L
S
GR
GS
0.149 GC
2 setlinecap
1 LJ
0.5 LW
N
905 126 M
897.25 126 L
S
GR
GS
0.149 GC
2 setlinecap
1 LJ
0.5 LW
N
905 45 M
897.25 45 L
S
GR
GS
[1 0 0 1 123.2 531] CT
0.149 GC
/Helvetica 24 F
GS
[1 0 0 1 0 0] CT
-34 8.5 moveto 
1 -1 scale
(0.7) t 
GR
GR
GS
[1 0 0 1 123.2 450] CT
0.149 GC
/Helvetica 24 F
GS
[1 0 0 1 0 0] CT
-47 8.5 moveto 
1 -1 scale
(0.75) t 
GR
GR
GS
[1 0 0 1 123.2 368.99997] CT
0.149 GC
/Helvetica 24 F
GS
[1 0 0 1 0 0] CT
-34 8.5 moveto 
1 -1 scale
(0.8) t 
GR
GR
GS
[1 0 0 1 123.2 287.99997] CT
0.149 GC
/Helvetica 24 F
GS
[1 0 0 1 0 0] CT
-47 8.5 moveto 
1 -1 scale
(0.85) t 
GR
GR
GS
[1 0 0 1 123.2 207.00005] CT
0.149 GC
/Helvetica 24 F
GS
[1 0 0 1 0 0] CT
-34 8.5 moveto 
1 -1 scale
(0.9) t 
GR
GR
GS
[1 0 0 1 123.2 126.00002] CT
0.149 GC
/Helvetica 24 F
GS
[1 0 0 1 0 0] CT
-47 8.5 moveto 
1 -1 scale
(0.95) t 
GR
GR
GS
[1 0 0 1 123.2 45] CT
0.149 GC
/Helvetica 24 F
GS
[1 0 0 1 0 0] CT
-14 8.5 moveto 
1 -1 scale
(1) t 
GR
GR
GS
[0 -1 1 0 73.2 287.99976] CT
0.149 GC
/Helvetica 26.4 F
GS
[1 0 0 1 0 0] CT
-153 -6 moveto 
1 -1 scale
(1 - False Non-Match Rate) t 
GR
GR
GS
[1 0 0 1 517.50049 38.39996] CT
/Helvetica-Bold 26.4 F
GS
[1 0 0 1 0 0] CT
-279.5 -6 moveto 
1 -1 scale
(Data acquired less than 12 hours after death) t 
GR
GR
GS
0 0 1 RC
1 LJ
2 LW
N
130.338 531.058 M
130.338 530.067 L
130.338 530.067 L
130.338 526.958 L
130.338 526.958 L
130.338 526.958 L
130.338 526.958 L
130.338 523.848 L
130.338 520.739 L
130.338 520.739 L
130.338 520.739 L
130.338 517.63 L
130.338 514.52 L
130.338 514.52 L
130.338 514.52 L
130.338 514.52 L
130.338 514.52 L
130.338 511.411 L
130.338 511.411 L
130.338 511.411 L
130.338 511.411 L
130.338 511.411 L
130.338 511.411 L
130.338 508.301 L
130.338 508.301 L
130.338 505.192 L
130.338 495.864 L
130.338 495.864 L
130.676 495.864 L
130.676 492.754 L
130.676 489.645 L
131.014 486.536 L
131.014 486.536 L
131.014 486.536 L
131.014 483.426 L
131.014 480.317 L
131.014 477.207 L
131.014 470.988 L
131.014 470.988 L
131.014 467.879 L
131.014 467.879 L
131.014 467.879 L
131.014 467.879 L
131.014 467.879 L
131.014 467.879 L
131.691 467.879 L
131.691 464.77 L
132.029 464.77 L
132.029 461.66 L
132.029 461.66 L
132.029 458.551 L
132.029 458.551 L
132.029 458.551 L
132.029 458.551 L
132.029 458.551 L
132.367 458.551 L
132.705 455.441 L
132.705 455.441 L
133.381 455.441 L
134.058 455.441 L
134.396 452.332 L
134.396 449.223 L
135.072 446.113 L
135.41 446.113 L
135.748 446.113 L
136.087 446.113 L
136.763 446.113 L
137.101 446.113 L
137.439 439.894 L
138.792 439.894 L
139.13 439.894 L
139.468 436.785 L
139.806 433.676 L
140.482 433.676 L
141.159 433.676 L
141.497 433.676 L
142.173 433.676 L
142.511 433.676 L
144.202 433.676 L
144.878 433.676 L
146.907 433.676 L
147.921 433.676 L
149.612 433.676 L
152.655 433.676 L
154.684 433.676 L
156.037 430.566 L
157.727 430.566 L
160.094 430.566 L
161.447 430.566 L
164.152 430.566 L
168.21 430.566 L
170.239 430.566 L
171.929 424.347 L
175.311 418.129 L
178.354 418.129 L
180.383 415.019 L
181.059 415.019 L
185.455 411.91 L
187.484 411.91 L
189.851 408.8 L
194.923 408.8 L
198.642 405.691 L
204.053 405.691 L
208.787 405.691 L
213.182 399.472 L
216.226 396.363 L
222.65 393.253 L
227.384 393.253 L
234.485 393.253 L
241.924 393.253 L
249.363 390.144 L
259.169 390.144 L
267.285 390.144 L
276.415 387.035 L
284.192 387.035 L
294.336 387.035 L
299.408 383.925 L
307.185 383.925 L
315.301 383.925 L
323.754 383.925 L
338.294 380.816 L
349.453 377.706 L
358.921 377.706 L
371.77 377.706 L
384.619 371.488 L
401.526 371.488 L
416.066 371.488 L
432.635 371.488 L
448.866 368.378 L
467.126 365.269 L
481.666 365.269 L
498.234 365.269 L
512.436 365.269 L
534.077 362.159 L
558.423 362.159 L
581.755 362.159 L
606.777 355.94 L
630.447 355.94 L
662.57 355.94 L
689.622 352.831 L
723.098 349.722 L
746.767 349.722 L
774.157 349.722 L
807.633 349.722 L
836.375 349.722 L
871.879 349.722 L
905.092 349.722 L
S
GR
GS
0 1 0 RC
1 LJ
2 LW
N
130 531.058 M
130 526.958 L
130 523.848 L
130 520.739 L
130 520.739 L
130 514.52 L
130 508.301 L
130 505.192 L
130 495.864 L
130 486.536 L
130 486.536 L
130 486.536 L
130 486.536 L
130 486.536 L
130 483.426 L
130 483.426 L
130 483.426 L
130 477.207 L
130 477.207 L
130 474.098 L
130 474.098 L
130 464.77 L
130 455.441 L
130 455.441 L
130 455.441 L
130 449.223 L
130 443.004 L
130 443.004 L
130 436.785 L
130 436.785 L
130 430.566 L
130 427.457 L
130 421.238 L
130 418.129 L
130 418.129 L
130 418.129 L
130 418.129 L
130 418.129 L
130 411.91 L
130 402.582 L
130 396.363 L
130 390.144 L
130 383.925 L
130 383.925 L
130 380.816 L
130 380.816 L
130 377.706 L
130 374.597 L
130 371.488 L
130 368.378 L
130 365.269 L
130 365.269 L
130 365.269 L
130 359.05 L
130 355.94 L
130 352.831 L
130 352.831 L
130 349.722 L
130 349.722 L
130 346.612 L
130 346.612 L
130 343.503 L
130 340.393 L
130 337.284 L
130 334.175 L
130 331.065 L
130 331.065 L
130 327.956 L
130 327.956 L
130 324.846 L
130 324.846 L
130 321.737 L
130 321.737 L
130 321.737 L
130 321.737 L
130 321.737 L
130 321.737 L
130 318.628 L
130 309.299 L
130 309.299 L
130 306.19 L
130 299.971 L
130 299.971 L
130 299.971 L
130 299.971 L
130 299.971 L
130 299.971 L
130 296.862 L
130 293.752 L
130 290.643 L
130 284.424 L
130 284.424 L
130 278.205 L
130 278.205 L
130 275.096 L
130 275.096 L
130 275.096 L
130 271.987 L
130 271.987 L
130 265.768 L
130 259.549 L
130 256.44 L
130 256.44 L
130 256.44 L
130 256.44 L
130 250.221 L
130 250.221 L
130 250.221 L
130 250.221 L
130 247.111 L
130 247.111 L
130 244.002 L
130 240.893 L
130 240.893 L
130 237.783 L
130 237.783 L
130 237.783 L
130 237.783 L
130 234.674 L
130 231.564 L
130 228.455 L
130 228.455 L
130 222.236 L
130 222.236 L
130 219.127 L
130 219.127 L
130 219.127 L
130 219.127 L
130 219.127 L
130 219.127 L
130 216.017 L
130 216.017 L
130 212.908 L
130 212.908 L
130 212.908 L
130 209.798 L
130 206.689 L
130 200.47 L
130 200.47 L
130 197.361 L
130.338 194.251 L
130.338 194.251 L
130.676 191.142 L
130.676 188.033 L
130.676 184.923 L
130.676 181.814 L
131.014 175.595 L
132.367 175.595 L
132.367 175.595 L
132.705 175.595 L
132.705 175.595 L
133.381 175.595 L
133.381 175.595 L
133.381 175.595 L
133.72 175.595 L
133.72 166.267 L
134.396 166.267 L
134.396 163.157 L
134.396 163.157 L
134.396 163.157 L
134.734 163.157 L
135.748 160.048 L
136.763 160.048 L
137.439 160.048 L
138.792 160.048 L
139.468 160.048 L
141.497 160.048 L
141.835 160.048 L
144.878 160.048 L
145.554 160.048 L
146.231 160.048 L
147.921 160.048 L
148.936 160.048 L
150.965 160.048 L
153.67 160.048 L
155.022 156.939 L
157.389 156.939 L
160.771 153.829 L
165.505 153.829 L
168.886 153.829 L
173.62 147.61 L
178.354 147.61 L
182.75 147.61 L
187.146 147.61 L
193.57 147.61 L
201.348 144.501 L
212.168 144.501 L
219.269 141.392 L
226.708 141.392 L
235.838 141.392 L
243.277 141.392 L
257.141 138.282 L
269.99 138.282 L
277.429 138.282 L
292.645 138.282 L
309.214 138.282 L
323.078 135.173 L
337.28 135.173 L
355.878 135.173 L
375.152 135.173 L
394.087 135.173 L
414.714 135.173 L
428.916 135.173 L
451.571 135.173 L
471.521 135.173 L
494.853 135.173 L
514.465 135.173 L
541.516 135.173 L
567.891 135.173 L
587.165 135.173 L
608.806 135.173 L
634.843 135.173 L
665.276 135.173 L
686.578 132.063 L
712.277 132.063 L
736.961 132.063 L
762.998 132.063 L
788.359 132.063 L
813.381 132.063 L
834.008 132.063 L
853.958 132.063 L
876.951 132.063 L
897.578 132.063 L
905.092 132.063 L
S
GR
GS
1 0 0 RC
1 LJ
2 LW
N
147.583 531.058 M
147.583 530.067 L
147.583 530.067 L
147.583 526.958 L
147.583 526.958 L
147.583 520.739 L
147.583 517.63 L
147.583 511.411 L
147.583 498.973 L
147.583 492.754 L
147.583 489.645 L
147.583 486.536 L
147.583 477.207 L
147.583 470.988 L
147.583 464.77 L
147.583 458.551 L
147.583 458.551 L
147.921 449.223 L
147.921 443.004 L
147.921 439.894 L
147.921 436.785 L
147.921 433.676 L
147.921 421.238 L
147.921 418.129 L
147.921 418.129 L
147.921 415.019 L
147.921 415.019 L
147.921 415.019 L
147.921 411.91 L
147.921 408.8 L
155.022 402.582 L
155.022 399.472 L
155.022 399.472 L
155.022 399.472 L
155.022 396.363 L
155.022 396.363 L
155.022 393.253 L
155.022 380.816 L
155.022 374.597 L
155.022 374.597 L
155.022 374.597 L
155.022 374.597 L
155.022 362.159 L
155.022 355.94 L
155.022 346.612 L
155.022 346.612 L
155.022 340.393 L
155.022 337.284 L
155.022 334.175 L
155.022 334.175 L
155.022 334.175 L
155.022 324.846 L
155.022 324.846 L
155.022 324.846 L
155.022 324.846 L
155.361 324.846 L
155.361 324.846 L
155.361 315.518 L
155.361 309.299 L
155.361 309.299 L
155.361 303.081 L
155.361 299.971 L
155.361 290.643 L
155.361 287.534 L
155.361 284.424 L
155.699 281.315 L
155.699 278.205 L
155.699 275.096 L
155.699 271.987 L
155.699 268.877 L
155.699 268.877 L
155.699 268.877 L
161.785 268.877 L
161.785 265.768 L
161.785 265.768 L
161.785 256.44 L
161.785 250.221 L
161.785 250.221 L
161.785 250.221 L
161.785 240.893 L
161.785 240.893 L
161.785 237.783 L
161.785 237.783 L
161.785 231.564 L
161.785 228.455 L
161.785 228.455 L
161.785 228.455 L
161.785 225.345 L
161.785 222.236 L
161.785 219.127 L
161.785 219.127 L
161.785 216.017 L
161.785 212.908 L
161.785 209.798 L
161.785 209.798 L
161.785 209.798 L
161.785 209.798 L
162.123 209.798 L
162.123 206.689 L
162.123 200.47 L
162.123 200.47 L
162.123 200.47 L
162.123 200.47 L
162.123 197.361 L
162.123 194.251 L
162.123 191.142 L
162.123 191.142 L
162.123 181.814 L
162.123 178.704 L
162.461 175.595 L
162.461 172.486 L
162.461 172.486 L
162.461 169.376 L
162.461 166.267 L
174.296 163.157 L
174.296 163.157 L
174.296 163.157 L
174.296 163.157 L
174.296 163.157 L
174.634 163.157 L
174.973 163.157 L
175.311 160.048 L
175.311 160.048 L
175.311 160.048 L
175.311 160.048 L
175.311 160.048 L
175.311 160.048 L
175.311 160.048 L
175.311 160.048 L
175.311 160.048 L
175.311 156.939 L
175.311 156.939 L
175.311 156.939 L
175.649 156.939 L
175.649 153.829 L
175.649 153.829 L
175.649 150.72 L
175.987 147.61 L
175.987 144.501 L
175.987 141.392 L
176.325 138.282 L
176.325 138.282 L
176.325 135.173 L
177.001 135.173 L
177.34 135.173 L
177.34 132.063 L
177.678 128.954 L
177.678 128.954 L
177.678 128.954 L
178.016 128.954 L
178.354 128.954 L
178.354 125.845 L
178.354 125.845 L
178.354 122.735 L
179.03 122.735 L
192.894 122.735 L
193.232 122.735 L
193.232 122.735 L
193.232 119.626 L
193.57 119.626 L
194.247 116.516 L
194.923 116.516 L
196.275 116.516 L
196.614 113.407 L
196.614 113.407 L
197.966 113.407 L
197.966 113.407 L
198.304 113.407 L
198.642 107.188 L
199.319 107.188 L
199.995 107.188 L
199.995 107.188 L
201.009 104.079 L
201.348 100.969 L
201.348 100.969 L
201.686 100.969 L
202.362 97.86 L
202.7 97.86 L
204.729 94.75 L
205.405 94.75 L
206.081 88.532 L
206.758 88.532 L
207.096 88.532 L
207.772 85.422 L
208.448 82.313 L
209.463 82.313 L
209.463 82.313 L
210.477 82.313 L
212.168 82.313 L
212.506 82.313 L
214.535 82.313 L
216.226 82.313 L
216.564 82.313 L
218.255 82.313 L
219.945 82.313 L
220.96 82.313 L
222.65 82.313 L
234.823 82.313 L
237.529 82.313 L
239.557 82.313 L
240.91 79.203 L
243.615 79.203 L
245.644 76.094 L
247.335 69.875 L
249.025 63.656 L
254.097 63.656 L
257.479 63.656 L
259.508 63.656 L
264.242 63.656 L
268.976 63.656 L
272.019 63.656 L
276.076 63.656 L
280.134 63.656 L
282.163 63.656 L
285.883 63.656 L
289.94 63.656 L
293.322 60.547 L
301.775 60.547 L
306.171 60.547 L
312.257 60.547 L
318.006 60.547 L
324.092 60.547 L
328.15 60.547 L
334.575 60.547 L
341.676 60.547 L
349.115 60.547 L
355.878 60.547 L
364.669 60.547 L
371.094 60.547 L
382.252 57.438 L
391.044 57.438 L
397.807 57.438 L
406.599 57.438 L
418.433 57.438 L
430.945 57.438 L
442.441 57.438 L
450.557 57.438 L
460.363 57.438 L
470.845 57.438 L
491.472 57.438 L
507.364 57.438 L
522.581 57.438 L
539.149 54.328 L
560.452 51.219 L
575.33 51.219 L
592.237 51.219 L
611.849 51.219 L
632.814 51.219 L
657.837 51.219 L
679.478 51.219 L
698.413 51.219 L
718.702 51.219 L
748.12 48.109 L
773.819 48.109 L
798.841 48.109 L
819.467 48.109 L
845.166 48.109 L
872.217 48.109 L
905.092 48.109 L
S
GR
GS
0 1 1 RC
[2 2] 0 setdash
2 LJ
2 LW
N
130 531.058 M
130 530.067 L
130 530.067 L
130 530.067 L
130 526.958 L
130 514.52 L
130 511.411 L
130 508.301 L
130 505.192 L
130 502.083 L
130 502.083 L
130 498.973 L
130 489.645 L
130 486.536 L
130 483.426 L
130 474.098 L
130 467.879 L
130 467.879 L
130 467.879 L
130 458.551 L
130 455.441 L
130 443.004 L
130 443.004 L
130 436.785 L
130 433.676 L
130 433.676 L
130 430.566 L
130 421.238 L
130 418.129 L
130 418.129 L
130 411.91 L
130 405.691 L
130 396.363 L
130 396.363 L
130 393.253 L
130 387.035 L
130 387.035 L
130 387.035 L
130 387.035 L
130 387.035 L
130 383.925 L
130 380.816 L
130 380.816 L
130 374.597 L
130 371.488 L
130 365.269 L
130 352.831 L
130 352.831 L
130 346.612 L
130 343.503 L
130 337.284 L
130 327.956 L
130 324.846 L
130 318.628 L
130 312.409 L
130 312.409 L
130 312.409 L
130 309.299 L
130 309.299 L
130 309.299 L
130 306.19 L
130 306.19 L
130 306.19 L
130 303.081 L
130 303.081 L
130 299.971 L
130 299.971 L
130 293.752 L
130 281.315 L
130 281.315 L
130 275.096 L
130 268.877 L
130 259.549 L
130 256.44 L
130 253.33 L
130 250.221 L
130 250.221 L
130 250.221 L
130 250.221 L
130 244.002 L
130 240.893 L
130 240.893 L
130 234.674 L
130 234.674 L
130 231.564 L
130 222.236 L
130 222.236 L
130 222.236 L
130 216.017 L
130 216.017 L
130 216.017 L
130 216.017 L
130 216.017 L
130 212.908 L
130 206.689 L
130 206.689 L
130 206.689 L
130 197.361 L
130 197.361 L
130 197.361 L
130 197.361 L
130 197.361 L
130 197.361 L
130 194.251 L
130 194.251 L
130 194.251 L
130 191.142 L
130 188.033 L
130 188.033 L
130 188.033 L
130 184.923 L
130 181.814 L
130 178.704 L
130 178.704 L
130 178.704 L
130 175.595 L
130 175.595 L
130 175.595 L
130 175.595 L
130 175.595 L
130 175.595 L
130 175.595 L
130 175.595 L
130 175.595 L
130 175.595 L
130 175.595 L
130 169.376 L
130 169.376 L
130 169.376 L
130 166.267 L
130 163.157 L
130 163.157 L
130 163.157 L
130 163.157 L
130 160.048 L
130 150.72 L
130 150.72 L
130 150.72 L
130 150.72 L
130 150.72 L
130 150.72 L
130 150.72 L
130 150.72 L
130 150.72 L
130 150.72 L
130 138.282 L
130 138.282 L
130 135.173 L
130 135.173 L
130 132.063 L
130 132.063 L
130 128.954 L
130 125.845 L
130 119.626 L
130 119.626 L
130 119.626 L
130 119.626 L
130 116.516 L
130 116.516 L
130 113.407 L
130 113.407 L
130 110.298 L
130.338 110.298 L
130.338 110.298 L
130.338 110.298 L
130.338 110.298 L
130.676 110.298 L
131.014 110.298 L
131.014 110.298 L
131.353 107.188 L
131.353 107.188 L
131.353 107.188 L
131.353 100.969 L
131.691 97.86 L
131.691 97.86 L
131.691 94.75 L
131.691 94.75 L
131.691 94.75 L
132.029 94.75 L
132.367 94.75 L
132.367 94.75 L
132.705 94.75 L
132.705 91.641 L
133.72 91.641 L
134.058 91.641 L
134.396 91.641 L
135.072 91.641 L
135.072 91.641 L
135.072 88.532 L
135.748 88.532 L
136.425 88.532 L
136.763 85.422 L
137.101 85.422 L
137.439 82.313 L
138.115 82.313 L
138.115 79.203 L
138.454 79.203 L
139.806 79.203 L
140.144 76.094 L
141.497 76.094 L
142.511 76.094 L
144.202 76.094 L
144.878 76.094 L
145.554 76.094 L
146.569 72.985 L
147.583 72.985 L
150.288 72.985 L
151.979 72.985 L
154.346 72.985 L
155.361 69.875 L
157.389 66.766 L
159.756 63.656 L
162.8 63.656 L
165.505 63.656 L
169.901 63.656 L
174.296 63.656 L
177.001 63.656 L
179.368 63.656 L
182.412 63.656 L
186.469 63.656 L
191.203 63.656 L
197.628 60.547 L
201.348 60.547 L
204.053 60.547 L
208.448 60.547 L
214.197 60.547 L
222.312 60.547 L
228.061 60.547 L
237.19 60.547 L
244.291 60.547 L
252.407 60.547 L
258.831 60.547 L
266.947 60.547 L
272.357 60.547 L
278.105 57.438 L
287.573 57.438 L
295.012 57.438 L
305.495 57.438 L
319.02 57.438 L
335.251 57.438 L
346.071 57.438 L
359.597 54.328 L
373.461 54.328 L
390.03 54.328 L
404.232 54.328 L
424.182 54.328 L
440.751 54.328 L
456.981 54.328 L
476.255 54.328 L
493.501 54.328 L
513.789 54.328 L
540.502 54.328 L
565.862 54.328 L
582.093 54.328 L
605.087 54.328 L
631.462 54.328 L
644.649 54.328 L
680.154 54.328 L
712.953 54.328 L
733.58 54.328 L
767.056 54.328 L
801.546 54.328 L
827.245 54.328 L
850.238 54.328 L
881.347 51.219 L
905.092 51.219 L
S
GR
GS
0 1 1 RC
1 LJ
2 LW
N
130 531.058 M
130 526.958 L
130 523.848 L
130 520.739 L
130 517.63 L
130 505.192 L
130 505.192 L
130 492.754 L
130 489.645 L
130 483.426 L
130 483.426 L
130 480.317 L
130 470.988 L
130 467.879 L
130 467.879 L
130 464.77 L
130 452.332 L
130 452.332 L
130 446.113 L
130 446.113 L
130 443.004 L
130 439.894 L
130 439.894 L
130 427.457 L
130 424.347 L
130 415.019 L
130 408.8 L
130 405.691 L
130 402.582 L
130 399.472 L
130 399.472 L
130 399.472 L
130 396.363 L
130 393.253 L
130 390.144 L
130 387.035 L
130 377.706 L
130 377.706 L
130 377.706 L
130 371.488 L
130 368.378 L
130 362.159 L
130 355.94 L
130 349.722 L
130 346.612 L
130 346.612 L
130 346.612 L
130 343.503 L
130 340.393 L
130 340.393 L
130 334.175 L
130 331.065 L
130 331.065 L
130 331.065 L
130 327.956 L
130 324.846 L
130 321.737 L
130 321.737 L
130 321.737 L
130 318.628 L
130 312.409 L
130 309.299 L
130 299.971 L
130 299.971 L
130 293.752 L
130 290.643 L
130 287.534 L
130 287.534 L
130 281.315 L
130 281.315 L
130 271.987 L
130 271.987 L
130 268.877 L
130 268.877 L
130 262.658 L
130 259.549 L
130 259.549 L
130 250.221 L
130 247.111 L
130 244.002 L
130 240.893 L
130 240.893 L
130 240.893 L
130 237.783 L
130 234.674 L
130 231.564 L
130 225.345 L
130 219.127 L
130 219.127 L
130 219.127 L
130 219.127 L
130 219.127 L
130 216.017 L
130 212.908 L
130 212.908 L
130 212.908 L
130 212.908 L
130 203.58 L
130 203.58 L
130 200.47 L
130 194.251 L
130 194.251 L
130 194.251 L
130 194.251 L
130 194.251 L
130 184.923 L
130 184.923 L
130 184.923 L
130 184.923 L
130 184.923 L
130 184.923 L
130 184.923 L
130 181.814 L
130 181.814 L
130 181.814 L
130 181.814 L
130 178.704 L
130 178.704 L
130 178.704 L
130 178.704 L
130 178.704 L
130 178.704 L
130 178.704 L
130 175.595 L
130 172.486 L
130 169.376 L
130 169.376 L
130 169.376 L
130 169.376 L
130 169.376 L
130 169.376 L
130 166.267 L
130 160.048 L
130 160.048 L
130 156.939 L
130 156.939 L
130 144.501 L
130 144.501 L
130 144.501 L
130 144.501 L
130 144.501 L
130 144.501 L
130 141.392 L
130 138.282 L
130 138.282 L
130 138.282 L
130 138.282 L
130 138.282 L
130 138.282 L
130 138.282 L
130 138.282 L
130 135.173 L
130.338 132.063 L
130.338 128.954 L
130.338 128.954 L
130.338 128.954 L
130.676 128.954 L
131.014 128.954 L
131.014 125.845 L
131.014 122.735 L
131.014 122.735 L
131.014 122.735 L
132.029 119.626 L
132.029 119.626 L
132.367 119.626 L
132.367 119.626 L
132.367 116.516 L
132.705 116.516 L
132.705 116.516 L
132.705 116.516 L
132.705 116.516 L
133.043 116.516 L
133.043 113.407 L
133.381 113.407 L
133.72 110.298 L
133.72 110.298 L
134.058 110.298 L
134.058 110.298 L
134.396 110.298 L
135.072 107.188 L
135.072 107.188 L
135.41 107.188 L
135.41 107.188 L
136.087 100.969 L
136.087 97.86 L
136.087 97.86 L
136.087 97.86 L
137.777 94.75 L
137.777 94.75 L
138.454 94.75 L
138.454 91.641 L
139.13 91.641 L
140.144 88.532 L
140.144 88.532 L
141.835 88.532 L
142.849 88.532 L
144.202 85.422 L
144.878 82.313 L
145.554 82.313 L
145.554 82.313 L
147.245 79.203 L
148.936 79.203 L
150.288 76.094 L
153.332 72.985 L
155.699 72.985 L
159.08 69.875 L
159.418 69.875 L
162.461 66.766 L
164.49 66.766 L
166.857 66.766 L
168.548 66.766 L
172.606 66.766 L
174.634 66.766 L
178.692 63.656 L
183.088 63.656 L
186.469 63.656 L
191.203 63.656 L
196.952 63.656 L
202.024 63.656 L
203.038 63.656 L
209.125 63.656 L
218.931 63.656 L
225.694 63.656 L
234.147 63.656 L
241.924 63.656 L
243.953 60.547 L
255.45 60.547 L
262.551 60.547 L
270.666 60.547 L
277.091 60.547 L
286.897 60.547 L
300.084 60.547 L
304.48 60.547 L
315.639 60.547 L
327.136 60.547 L
338.294 60.547 L
353.849 60.547 L
367.374 60.547 L
370.418 57.438 L
385.634 57.438 L
403.217 57.438 L
420.124 57.438 L
439.736 57.438 L
462.053 54.328 L
487.076 54.328 L
492.824 54.328 L
522.242 54.328 L
542.869 54.328 L
561.128 54.328 L
588.518 54.328 L
620.641 54.328 L
626.051 54.328 L
659.865 54.328 L
686.578 54.328 L
715.997 54.328 L
748.796 54.328 L
777.2 54.328 L
811.69 54.328 L
824.54 54.328 L
857.677 54.328 L
892.168 54.328 L
905.092 54.328 L
S
GR
GS
1 0 1 RC
[2 2] 0 setdash
2 LJ
2 LW
N
130 531.058 M
130 520.739 L
130 520.739 L
130 511.411 L
130 505.192 L
130 505.192 L
130 505.192 L
130 505.192 L
130 502.083 L
130 495.864 L
130 492.754 L
130 489.645 L
130 486.536 L
130 477.207 L
130 474.098 L
130 467.879 L
130 467.879 L
130 461.66 L
130 461.66 L
130 461.66 L
130 458.551 L
130 452.332 L
130 452.332 L
130 443.004 L
130 439.894 L
130 436.785 L
130 436.785 L
130 436.785 L
130 433.676 L
130 433.676 L
130 433.676 L
130 430.566 L
130 421.238 L
130 421.238 L
130 411.91 L
130 408.8 L
130 405.691 L
130 402.582 L
130 399.472 L
130 399.472 L
130 399.472 L
130 396.363 L
130 393.253 L
130 390.144 L
130 387.035 L
130 387.035 L
130 387.035 L
130 387.035 L
130 387.035 L
130 380.816 L
130 380.816 L
130 377.706 L
130 377.706 L
130 374.597 L
130 374.597 L
130 368.378 L
130 368.378 L
130 368.378 L
130 365.269 L
130 362.159 L
130 355.94 L
130 349.722 L
130 346.612 L
130 343.503 L
130 343.503 L
130 343.503 L
130 334.175 L
130 331.065 L
130 321.737 L
130 318.628 L
130 315.518 L
130 312.409 L
130 309.299 L
130 309.299 L
130 306.19 L
130 306.19 L
130 306.19 L
130 306.19 L
130 299.971 L
130 296.862 L
130 293.752 L
130 293.752 L
130 293.752 L
130 287.534 L
130 284.424 L
130 281.315 L
130 281.315 L
130 281.315 L
130 281.315 L
130 281.315 L
130 281.315 L
130 281.315 L
130 281.315 L
130 278.205 L
130 271.987 L
130 271.987 L
130 271.987 L
130 268.877 L
130 268.877 L
130 262.658 L
130 259.549 L
130 256.44 L
130 256.44 L
130 247.111 L
130 247.111 L
130 244.002 L
130 244.002 L
130 244.002 L
130 244.002 L
130 244.002 L
130 244.002 L
130 244.002 L
130 244.002 L
130 240.893 L
130 237.783 L
130 234.674 L
130 234.674 L
130 234.674 L
130 234.674 L
130 234.674 L
130 231.564 L
130 231.564 L
130 231.564 L
130 225.345 L
130 225.345 L
130 222.236 L
130 222.236 L
130 219.127 L
130 219.127 L
130 219.127 L
130 216.017 L
130 216.017 L
130 212.908 L
130 212.908 L
130 212.908 L
130 212.908 L
130 212.908 L
130 212.908 L
130 209.798 L
130 209.798 L
130 206.689 L
130 206.689 L
130 203.58 L
130 203.58 L
130 200.47 L
130 197.361 L
130 194.251 L
130 191.142 L
130 191.142 L
130 191.142 L
130 191.142 L
130 184.923 L
130 184.923 L
130 181.814 L
130 178.704 L
130 175.595 L
130 175.595 L
130 175.595 L
130 175.595 L
130 172.486 L
130 172.486 L
130 169.376 L
130 166.267 L
130 166.267 L
130 163.157 L
130 163.157 L
130 163.157 L
130 163.157 L
130 153.829 L
130 150.72 L
130.338 147.61 L
130.676 147.61 L
130.676 147.61 L
131.014 141.392 L
131.353 141.392 L
131.691 138.282 L
131.691 138.282 L
131.691 138.282 L
131.691 135.173 L
131.691 135.173 L
132.029 135.173 L
132.367 128.954 L
132.367 128.954 L
132.367 128.954 L
132.367 128.954 L
132.705 125.845 L
133.043 122.735 L
133.043 116.516 L
133.381 116.516 L
134.058 116.516 L
134.734 116.516 L
134.734 116.516 L
134.734 116.516 L
135.072 116.516 L
135.41 113.407 L
135.748 110.298 L
136.425 107.188 L
137.101 107.188 L
137.101 104.079 L
137.439 104.079 L
138.454 104.079 L
139.13 100.969 L
139.468 100.969 L
139.806 97.86 L
141.159 97.86 L
142.173 94.75 L
144.54 94.75 L
145.893 94.75 L
147.583 94.75 L
148.26 88.532 L
149.95 88.532 L
150.627 88.532 L
151.641 88.532 L
155.022 85.422 L
156.713 85.422 L
161.785 82.313 L
164.49 82.313 L
166.519 82.313 L
171.253 76.094 L
171.929 76.094 L
175.987 76.094 L
180.383 72.985 L
184.779 72.985 L
186.808 69.875 L
190.865 69.875 L
194.247 69.875 L
198.642 69.875 L
201.686 69.875 L
207.434 66.766 L
211.83 66.766 L
218.593 66.766 L
227.384 66.766 L
230.766 63.656 L
236.514 63.656 L
244.629 57.438 L
251.054 57.438 L
261.198 57.438 L
274.048 54.328 L
279.796 54.328 L
288.588 54.328 L
298.732 54.328 L
312.934 54.328 L
319.358 54.328 L
329.503 54.328 L
344.043 54.328 L
352.158 54.328 L
363.655 54.328 L
379.209 54.328 L
398.145 51.219 L
416.405 51.219 L
438.046 51.219 L
457.32 51.219 L
464.42 51.219 L
482.68 51.219 L
503.983 51.219 L
526.638 51.219 L
550.646 48.109 L
570.258 48.109 L
581.079 48.109 L
606.101 48.109 L
636.196 48.109 L
661.556 48.109 L
690.636 48.109 L
722.421 48.109 L
757.25 48.109 L
778.553 48.109 L
815.748 48.109 L
850.915 48.109 L
884.729 48.109 L
905.092 48.109 L
S
GR
GS
1 0 1 RC
1 LJ
2 LW
N
130 531.058 M
130 523.848 L
130 520.739 L
130 511.411 L
130 511.411 L
130 508.301 L
130 502.083 L
130 502.083 L
130 495.864 L
130 489.645 L
130 486.536 L
130 486.536 L
130 474.098 L
130 474.098 L
130 474.098 L
130 470.988 L
130 470.988 L
130 461.66 L
130 461.66 L
130 458.551 L
130 452.332 L
130 452.332 L
130 452.332 L
130 449.223 L
130 446.113 L
130 443.004 L
130 436.785 L
130 433.676 L
130 427.457 L
130 427.457 L
130 424.347 L
130 421.238 L
130 418.129 L
130 415.019 L
130 415.019 L
130 408.8 L
130 408.8 L
130 408.8 L
130 408.8 L
130 399.472 L
130 396.363 L
130 396.363 L
130 396.363 L
130 393.253 L
130 393.253 L
130 393.253 L
130 393.253 L
130 393.253 L
130 393.253 L
130 387.035 L
130 387.035 L
130 383.925 L
130 377.706 L
130 377.706 L
130 374.597 L
130 368.378 L
130 368.378 L
130 368.378 L
130 368.378 L
130 362.159 L
130 359.05 L
130 346.612 L
130 340.393 L
130 340.393 L
130 340.393 L
130 337.284 L
130 331.065 L
130 327.956 L
130 327.956 L
130 327.956 L
130 327.956 L
130 327.956 L
130 324.846 L
130 321.737 L
130 315.518 L
130 312.409 L
130 306.19 L
130 303.081 L
130 299.971 L
130 296.862 L
130 293.752 L
130 287.534 L
130 287.534 L
130 287.534 L
130 287.534 L
130 287.534 L
130 287.534 L
130 284.424 L
130 281.315 L
130 281.315 L
130 281.315 L
130 281.315 L
130 275.096 L
130 268.877 L
130 265.768 L
130 262.658 L
130 262.658 L
130 262.658 L
130 262.658 L
130 259.549 L
130 256.44 L
130 247.111 L
130 247.111 L
130 247.111 L
130 247.111 L
130 244.002 L
130 244.002 L
130 244.002 L
130 244.002 L
130 244.002 L
130 244.002 L
130 244.002 L
130 240.893 L
130 240.893 L
130 237.783 L
130 237.783 L
130 237.783 L
130 237.783 L
130 237.783 L
130 234.674 L
130 231.564 L
130 231.564 L
130 231.564 L
130 228.455 L
130 228.455 L
130 228.455 L
130 225.345 L
130 225.345 L
130 222.236 L
130 222.236 L
130 222.236 L
130 222.236 L
130 222.236 L
130 219.127 L
130 216.017 L
130 212.908 L
130 212.908 L
130 212.908 L
130 212.908 L
130 212.908 L
130 212.908 L
130 212.908 L
130 200.47 L
130 200.47 L
130 200.47 L
130 197.361 L
130 191.142 L
130 188.033 L
130 181.814 L
130 181.814 L
130 181.814 L
130 178.704 L
130 178.704 L
130 178.704 L
130 175.595 L
130 175.595 L
130 175.595 L
130 172.486 L
130 172.486 L
130 172.486 L
130 169.376 L
130 169.376 L
130 160.048 L
130 160.048 L
130 160.048 L
130.338 147.61 L
130.338 144.501 L
130.338 144.501 L
130.676 144.501 L
130.676 144.501 L
130.676 144.501 L
131.014 141.392 L
131.014 141.392 L
131.014 141.392 L
131.014 138.282 L
131.014 138.282 L
131.014 138.282 L
131.014 138.282 L
131.353 138.282 L
131.353 138.282 L
132.029 138.282 L
132.029 138.282 L
132.367 138.282 L
132.367 135.173 L
132.705 135.173 L
133.381 135.173 L
133.381 128.954 L
133.72 125.845 L
135.748 122.735 L
135.748 122.735 L
136.087 122.735 L
136.087 122.735 L
136.763 122.735 L
137.101 119.626 L
137.439 119.626 L
138.454 116.516 L
138.792 116.516 L
139.13 113.407 L
139.806 113.407 L
141.497 104.079 L
143.864 104.079 L
145.554 104.079 L
145.554 97.86 L
147.583 97.86 L
148.936 97.86 L
149.95 94.75 L
150.627 91.641 L
151.979 88.532 L
154.008 88.532 L
154.346 88.532 L
157.389 88.532 L
160.771 88.532 L
161.447 88.532 L
165.843 88.532 L
170.577 88.532 L
171.591 88.532 L
174.634 88.532 L
177.001 88.532 L
181.397 88.532 L
185.117 85.422 L
188.498 82.313 L
190.865 79.203 L
191.88 76.094 L
198.642 76.094 L
203.715 76.094 L
211.154 69.875 L
219.607 66.766 L
226.708 66.766 L
235.5 63.656 L
237.19 63.656 L
245.982 60.547 L
257.141 60.547 L
268.637 60.547 L
275.4 60.547 L
281.487 57.438 L
282.839 57.438 L
296.365 54.328 L
304.48 54.328 L
318.344 54.328 L
327.474 54.328 L
339.985 54.328 L
355.539 54.328 L
360.611 54.328 L
375.49 54.328 L
399.836 54.328 L
415.39 54.328 L
436.017 54.328 L
450.895 54.328 L
456.305 54.328 L
474.565 51.219 L
498.911 48.109 L
518.523 48.109 L
535.43 48.109 L
560.114 48.109 L
585.813 48.109 L
590.547 48.109 L
620.303 48.109 L
652.426 48.109 L
681.168 48.109 L
713.292 48.109 L
746.767 48.109 L
779.905 48.109 L
798.503 48.109 L
832.317 48.109 L
867.821 48.109 L
905.092 48.109 L
S
GR
GS
0 0 1 RC
[2 2] 0 setdash
2 LJ
2 LW
N
130 531.058 M
130 526.958 L
130 517.63 L
130 517.63 L
130 514.52 L
130 511.411 L
130 508.301 L
130 508.301 L
130 508.301 L
130 495.864 L
130 492.754 L
130 489.645 L
130 489.645 L
130 486.536 L
130 483.426 L
130 483.426 L
130 483.426 L
130 483.426 L
130 480.317 L
130 480.317 L
130 480.317 L
130 477.207 L
130 470.988 L
130 467.879 L
130 464.77 L
130 461.66 L
130 455.441 L
130 455.441 L
130 455.441 L
130 455.441 L
130 455.441 L
130 455.441 L
130 452.332 L
130 446.113 L
130 439.894 L
130 439.894 L
130 439.894 L
130 433.676 L
130 433.676 L
130 433.676 L
130 433.676 L
130 427.457 L
130 421.238 L
130 421.238 L
130 418.129 L
130 415.019 L
130 415.019 L
130 415.019 L
130 408.8 L
130 405.691 L
130 402.582 L
130 402.582 L
130 402.582 L
130 399.472 L
130 390.144 L
130 387.035 L
130 387.035 L
130 387.035 L
130 387.035 L
130 387.035 L
130 383.925 L
130 380.816 L
130 377.706 L
130 377.706 L
130 377.706 L
130 377.706 L
130 374.597 L
130 371.488 L
130 371.488 L
130 368.378 L
130 368.378 L
130 365.269 L
130 359.05 L
130 359.05 L
130 352.831 L
130 346.612 L
130 343.503 L
130 337.284 L
130 337.284 L
130 334.175 L
130 334.175 L
130 331.065 L
130 331.065 L
130 327.956 L
130 327.956 L
130 321.737 L
130 318.628 L
130 309.299 L
130 306.19 L
130 306.19 L
130 303.081 L
130 299.971 L
130 299.971 L
130 299.971 L
130 293.752 L
130 284.424 L
130 284.424 L
130 284.424 L
130 281.315 L
130 281.315 L
130 278.205 L
130 278.205 L
130 275.096 L
130 271.987 L
130 271.987 L
130 271.987 L
130 265.768 L
130 259.549 L
130 259.549 L
130 259.549 L
130 259.549 L
130 259.549 L
130 253.33 L
130 253.33 L
130 253.33 L
130 250.221 L
130 244.002 L
130 244.002 L
130 244.002 L
130 240.893 L
130 240.893 L
130 240.893 L
130.338 237.783 L
130.338 234.674 L
130.338 234.674 L
130.338 231.564 L
130.676 231.564 L
130.676 228.455 L
130.676 222.236 L
130.676 222.236 L
130.676 219.127 L
130.676 212.908 L
130.676 212.908 L
130.676 209.798 L
131.014 206.689 L
131.014 206.689 L
131.353 206.689 L
131.353 206.689 L
131.353 197.361 L
131.353 197.361 L
131.691 194.251 L
131.691 191.142 L
131.691 181.814 L
132.367 181.814 L
132.367 181.814 L
133.043 178.704 L
133.72 175.595 L
133.72 172.486 L
134.058 172.486 L
135.072 169.376 L
135.072 169.376 L
136.425 169.376 L
137.101 163.157 L
138.115 160.048 L
138.115 160.048 L
139.13 156.939 L
139.468 153.829 L
139.806 150.72 L
141.497 150.72 L
141.835 147.61 L
142.511 147.61 L
143.187 141.392 L
145.216 138.282 L
146.907 138.282 L
148.936 138.282 L
149.95 138.282 L
152.655 138.282 L
154.684 138.282 L
156.037 135.173 L
158.066 135.173 L
159.418 135.173 L
161.109 132.063 L
163.138 132.063 L
166.857 132.063 L
169.224 132.063 L
175.311 132.063 L
180.721 132.063 L
186.808 128.954 L
192.894 122.735 L
193.57 116.516 L
197.628 116.516 L
201.348 110.298 L
209.463 110.298 L
216.902 110.298 L
220.622 110.298 L
224.679 107.188 L
231.442 104.079 L
238.881 104.079 L
245.306 100.969 L
249.025 100.969 L
258.831 97.86 L
266.947 97.86 L
271.004 97.86 L
278.443 97.86 L
286.897 97.86 L
295.689 97.86 L
308.876 94.75 L
321.725 94.75 L
331.87 94.75 L
339.309 94.75 L
352.496 94.75 L
367.712 94.75 L
375.828 91.641 L
389.353 91.641 L
405.246 88.532 L
419.448 88.532 L
428.239 88.532 L
444.808 88.532 L
462.73 88.532 L
477.27 88.532 L
494.515 88.532 L
517.508 88.532 L
526.3 85.422 L
553.013 85.422 L
574.654 85.422 L
599 85.422 L
630.785 85.422 L
661.894 85.422 L
691.989 82.313 L
711.939 79.203 L
740.681 76.094 L
773.819 76.094 L
805.604 76.094 L
847.533 76.094 L
887.095 76.094 L
905.092 76.094 L
S
GR
GS
[2 2] 0 setdash
2 LJ
2 LW
N
130 531.058 M
130 530.067 L
130 530.067 L
130 520.739 L
130 511.411 L
130 508.301 L
130 505.192 L
130 492.754 L
130 489.645 L
130 489.645 L
130 483.426 L
130 477.207 L
130 477.207 L
130 474.098 L
130 470.988 L
130 464.77 L
130 461.66 L
130 458.551 L
130 452.332 L
130 452.332 L
130 439.894 L
130 436.785 L
130 433.676 L
130 430.566 L
130 427.457 L
130 427.457 L
130 424.347 L
130 418.129 L
130 418.129 L
130 418.129 L
130 411.91 L
130 408.8 L
130 402.582 L
130 399.472 L
130 396.363 L
130 393.253 L
130 390.144 L
130 390.144 L
130 383.925 L
130 377.706 L
130 377.706 L
130 374.597 L
130 374.597 L
130 368.378 L
130 365.269 L
130 362.159 L
130 352.831 L
130 352.831 L
130 346.612 L
130 346.612 L
130 346.612 L
130 346.612 L
130 343.503 L
130 343.503 L
130 343.503 L
130 343.503 L
130 340.393 L
130 340.393 L
130 340.393 L
130 340.393 L
130 337.284 L
130 334.175 L
130 331.065 L
130 327.956 L
130 324.846 L
130 324.846 L
130 321.737 L
130 318.628 L
130 312.409 L
130 312.409 L
130 309.299 L
130 309.299 L
130 303.081 L
130 303.081 L
130 303.081 L
130 303.081 L
130 303.081 L
130 299.971 L
130 296.862 L
130 296.862 L
130 290.643 L
130 290.643 L
130 287.534 L
130 287.534 L
130 284.424 L
130 284.424 L
130 281.315 L
130 275.096 L
130 275.096 L
130 268.877 L
130 268.877 L
130 265.768 L
130 262.658 L
130 259.549 L
130 259.549 L
130 259.549 L
130 259.549 L
130 259.549 L
130 253.33 L
130 250.221 L
130 250.221 L
130 250.221 L
130 250.221 L
130 247.111 L
130 247.111 L
130 247.111 L
130 247.111 L
130 244.002 L
130 244.002 L
130 237.783 L
130 237.783 L
130 234.674 L
130 234.674 L
130 231.564 L
130 225.345 L
130 225.345 L
130 222.236 L
130 219.127 L
130 219.127 L
130 216.017 L
130 216.017 L
130 216.017 L
130 216.017 L
130 216.017 L
130 212.908 L
130 212.908 L
130 212.908 L
130 209.798 L
130 203.58 L
130 200.47 L
130 200.47 L
130 197.361 L
130 197.361 L
130 197.361 L
130 191.142 L
130 188.033 L
130 184.923 L
130 184.923 L
130 184.923 L
130 181.814 L
130 178.704 L
130 178.704 L
130 175.595 L
130 175.595 L
130 175.595 L
130 175.595 L
130 175.595 L
130 175.595 L
130 169.376 L
130 169.376 L
130 166.267 L
130 166.267 L
130 166.267 L
130 163.157 L
130 163.157 L
130 156.939 L
130 156.939 L
130 153.829 L
130 153.829 L
130 150.72 L
130 150.72 L
130 150.72 L
130 150.72 L
130 150.72 L
130 147.61 L
130 147.61 L
130 147.61 L
130 147.61 L
130 141.392 L
130 138.282 L
130 135.173 L
130 135.173 L
130 132.063 L
130 132.063 L
130 132.063 L
130 128.954 L
130 128.954 L
130 125.845 L
130 125.845 L
130 125.845 L
130 122.735 L
130 122.735 L
130 116.516 L
130 116.516 L
130 116.516 L
130 113.407 L
130 110.298 L
130 104.079 L
130 100.969 L
130 100.969 L
130 100.969 L
130 97.86 L
130 97.86 L
130 94.75 L
130 94.75 L
130 94.75 L
130 91.641 L
130 91.641 L
130 91.641 L
130.338 91.641 L
130.338 91.641 L
130.338 91.641 L
130.676 91.641 L
130.676 91.641 L
130.676 91.641 L
130.676 91.641 L
131.014 91.641 L
131.014 91.641 L
131.014 88.532 L
131.353 88.532 L
131.353 88.532 L
131.691 88.532 L
131.691 88.532 L
132.029 88.532 L
132.029 88.532 L
132.705 88.532 L
132.705 88.532 L
132.705 85.422 L
133.043 85.422 L
134.058 85.422 L
134.058 85.422 L
134.058 85.422 L
134.058 85.422 L
134.734 85.422 L
135.072 85.422 L
135.072 85.422 L
135.072 85.422 L
135.748 85.422 L
136.425 85.422 L
137.101 85.422 L
139.13 85.422 L
139.806 82.313 L
140.482 79.203 L
140.82 79.203 L
141.835 76.094 L
143.864 76.094 L
146.231 72.985 L
148.936 72.985 L
150.627 72.985 L
151.641 72.985 L
154.346 72.985 L
155.361 72.985 L
157.727 72.985 L
160.094 72.985 L
163.138 72.985 L
164.152 72.985 L
167.534 72.985 L
169.224 72.985 L
172.606 72.985 L
177.001 66.766 L
180.721 63.656 L
184.441 63.656 L
188.498 63.656 L
192.556 60.547 L
197.29 60.547 L
204.053 60.547 L
208.11 60.547 L
213.182 60.547 L
218.931 60.547 L
226.708 57.438 L
235.838 57.438 L
245.306 57.438 L
252.069 57.438 L
262.213 57.438 L
267.285 57.438 L
277.429 57.438 L
288.588 57.438 L
300.084 57.438 L
311.243 57.438 L
327.812 57.438 L
335.251 54.328 L
347.424 54.328 L
362.302 54.328 L
372.785 54.328 L
393.073 54.328 L
409.98 54.328 L
419.786 54.328 L
433.312 54.328 L
451.571 51.219 L
467.464 51.219 L
485.047 51.219 L
505.674 51.219 L
531.034 51.219 L
535.43 51.219 L
561.805 48.109 L
584.798 48.109 L
611.849 48.109 L
638.224 45 L
665.276 45 L
676.434 45 L
712.615 45 L
747.444 45 L
776.524 45 L
810 45 L
839.756 45 L
862.073 45 L
900.621 45 L
905.092 45 L
S
GR
GS
1 LJ
2 LW
N
130 531.058 M
130 526.958 L
130 517.63 L
130 517.63 L
130 511.411 L
130 508.301 L
130 508.301 L
130 502.083 L
130 495.864 L
130 495.864 L
130 492.754 L
130 486.536 L
130 483.426 L
130 477.207 L
130 477.207 L
130 470.988 L
130 464.77 L
130 458.551 L
130 455.441 L
130 452.332 L
130 449.223 L
130 446.113 L
130 443.004 L
130 443.004 L
130 443.004 L
130 439.894 L
130 439.894 L
130 436.785 L
130 436.785 L
130 430.566 L
130 427.457 L
130 421.238 L
130 418.129 L
130 411.91 L
130 405.691 L
130 399.472 L
130 396.363 L
130 396.363 L
130 396.363 L
130 396.363 L
130 390.144 L
130 387.035 L
130 387.035 L
130 380.816 L
130 377.706 L
130 371.488 L
130 362.159 L
130 362.159 L
130 359.05 L
130 359.05 L
130 359.05 L
130 355.94 L
130 355.94 L
130 352.831 L
130 352.831 L
130 352.831 L
130 352.831 L
130 349.722 L
130 340.393 L
130 340.393 L
130 337.284 L
130 337.284 L
130 337.284 L
130 331.065 L
130 331.065 L
130 321.737 L
130 321.737 L
130 318.628 L
130 318.628 L
130 315.518 L
130 312.409 L
130 309.299 L
130 309.299 L
130 309.299 L
130 306.19 L
130 303.081 L
130 299.971 L
130 299.971 L
130 299.971 L
130 296.862 L
130 293.752 L
130 287.534 L
130 287.534 L
130 284.424 L
130 281.315 L
130 278.205 L
130 275.096 L
130 271.987 L
130 271.987 L
130 268.877 L
130 265.768 L
130 262.658 L
130 262.658 L
130 262.658 L
130 262.658 L
130 259.549 L
130 259.549 L
130 259.549 L
130 256.44 L
130 256.44 L
130 250.221 L
130 247.111 L
130 247.111 L
130 244.002 L
130 244.002 L
130 244.002 L
130 244.002 L
130 244.002 L
130 244.002 L
130 240.893 L
130 240.893 L
130 231.564 L
130 228.455 L
130 228.455 L
130 228.455 L
130 228.455 L
130 228.455 L
130 222.236 L
130 222.236 L
130 222.236 L
130 219.127 L
130 219.127 L
130 219.127 L
130 219.127 L
130 216.017 L
130 212.908 L
130 212.908 L
130 206.689 L
130 206.689 L
130 203.58 L
130 200.47 L
130 200.47 L
130 200.47 L
130 200.47 L
130 200.47 L
130 200.47 L
130 197.361 L
130 194.251 L
130 194.251 L
130 191.142 L
130 188.033 L
130 188.033 L
130 184.923 L
130 181.814 L
130 181.814 L
130 178.704 L
130 175.595 L
130 175.595 L
130 172.486 L
130 172.486 L
130 169.376 L
130 166.267 L
130 163.157 L
130 160.048 L
130 156.939 L
130 156.939 L
130 153.829 L
130 153.829 L
130 150.72 L
130 147.61 L
130 147.61 L
130 147.61 L
130 147.61 L
130 147.61 L
130 147.61 L
130 144.501 L
130 144.501 L
130 141.392 L
130 141.392 L
130 135.173 L
130 135.173 L
130 132.063 L
130 132.063 L
130 132.063 L
130 132.063 L
130 132.063 L
130 132.063 L
130 128.954 L
130 125.845 L
130 122.735 L
130 119.626 L
130 116.516 L
130 110.298 L
130 110.298 L
130 104.079 L
130 104.079 L
130 104.079 L
130 104.079 L
130 104.079 L
130 104.079 L
130 100.969 L
130 97.86 L
130 97.86 L
130 97.86 L
130 97.86 L
130 97.86 L
130 94.75 L
130 94.75 L
130 94.75 L
130.338 94.75 L
130.338 94.75 L
130.338 94.75 L
130.338 94.75 L
130.338 91.641 L
130.676 91.641 L
130.676 91.641 L
131.014 91.641 L
131.014 88.532 L
131.014 88.532 L
131.353 88.532 L
131.691 88.532 L
132.029 88.532 L
132.705 88.532 L
132.705 88.532 L
132.705 88.532 L
132.705 85.422 L
133.043 85.422 L
134.058 85.422 L
134.058 85.422 L
134.058 85.422 L
134.058 85.422 L
134.058 85.422 L
134.396 85.422 L
134.396 85.422 L
135.41 85.422 L
136.087 85.422 L
136.425 85.422 L
137.439 85.422 L
138.454 85.422 L
139.13 85.422 L
139.468 82.313 L
140.482 82.313 L
140.482 82.313 L
142.173 82.313 L
143.526 82.313 L
146.907 79.203 L
148.598 79.203 L
149.612 72.985 L
149.95 69.875 L
152.317 69.875 L
153.332 69.875 L
155.361 69.875 L
158.066 69.875 L
161.447 69.875 L
162.461 69.875 L
164.152 69.875 L
167.872 69.875 L
172.606 69.875 L
175.649 69.875 L
181.397 69.875 L
187.484 69.875 L
188.836 69.875 L
192.894 66.766 L
198.304 63.656 L
203.376 63.656 L
209.125 60.547 L
216.564 60.547 L
217.578 60.547 L
226.032 60.547 L
236.176 60.547 L
244.291 60.547 L
254.436 60.547 L
262.889 60.547 L
264.58 60.547 L
274.386 60.547 L
283.854 60.547 L
293.66 57.438 L
305.833 57.438 L
322.402 57.438 L
326.121 57.438 L
339.647 54.328 L
352.834 54.328 L
370.079 54.328 L
384.281 54.328 L
400.174 54.328 L
404.57 54.328 L
421.477 54.328 L
443.456 54.328 L
461.715 54.328 L
478.96 51.219 L
501.278 51.219 L
506.012 51.219 L
531.372 51.219 L
554.366 51.219 L
581.755 51.219 L
606.101 48.109 L
635.519 48.109 L
643.297 48.109 L
677.111 48.109 L
709.91 48.109 L
738.652 48.109 L
770.437 48.109 L
802.899 48.109 L
809.661 45 L
855.987 45 L
891.829 45 L
905.092 45 L
S
GR
GS
[10 6] 0 setdash
2 LJ
0.5 LW
N
905.092 126.01 M
130 45 L
S
GR
%%Trailer
%%Pages: 1
%%EOF
