%!PS-Adobe-3.0 EPSF-3.0
%%Creator: (MATLAB, The Mathworks, Inc. Version 9.3.0.713579 \(R2017b\). Operating System: Mac OS X)
%%Title: ./ROCs_elderly_closeup.eps
%%CreationDate: 2019-01-22T12:28:32
%%Pages: (atend)
%%BoundingBox:    48     5   911   588
%%LanguageLevel: 3
%%EndComments
%%BeginProlog
%%BeginResource: procset (Apache XML Graphics Std ProcSet) 1.2 0
%%Version: 1.2 0
%%Copyright: (Copyright 2001-2003,2010 The Apache Software Foundation. License terms: http://www.apache.org/licenses/LICENSE-2.0)
/bd{bind def}bind def
/ld{load def}bd
/GR/grestore ld
/GS/gsave ld
/RM/rmoveto ld
/C/curveto ld
/t/show ld
/L/lineto ld
/ML/setmiterlimit ld
/CT/concat ld
/f/fill ld
/N/newpath ld
/S/stroke ld
/CC/setcmykcolor ld
/A/ashow ld
/cp/closepath ld
/RC/setrgbcolor ld
/LJ/setlinejoin ld
/GC/setgray ld
/LW/setlinewidth ld
/M/moveto ld
/re {4 2 roll M
1 index 0 rlineto
0 exch rlineto
neg 0 rlineto
cp } bd
/_ctm matrix def
/_tm matrix def
/BT { _ctm currentmatrix pop matrix _tm copy pop 0 0 moveto } bd
/ET { _ctm setmatrix } bd
/iTm { _ctm setmatrix _tm concat } bd
/Tm { _tm astore pop iTm 0 0 moveto } bd
/ux 0.0 def
/uy 0.0 def
/F {
  /Tp exch def
  /Tf exch def
  Tf findfont Tp scalefont setfont
  /cf Tf def  /cs Tp def
} bd
/ULS {currentpoint /uy exch def /ux exch def} bd
/ULE {
  /Tcx currentpoint pop def
  gsave
  newpath
  cf findfont cs scalefont dup
  /FontMatrix get 0 get /Ts exch def /FontInfo get dup
  /UnderlinePosition get Ts mul /To exch def
  /UnderlineThickness get Ts mul /Tt exch def
  ux uy To add moveto  Tcx uy To add lineto
  Tt setlinewidth stroke
  grestore
} bd
/OLE {
  /Tcx currentpoint pop def
  gsave
  newpath
  cf findfont cs scalefont dup
  /FontMatrix get 0 get /Ts exch def /FontInfo get dup
  /UnderlinePosition get Ts mul /To exch def
  /UnderlineThickness get Ts mul /Tt exch def
  ux uy To add cs add moveto Tcx uy To add cs add lineto
  Tt setlinewidth stroke
  grestore
} bd
/SOE {
  /Tcx currentpoint pop def
  gsave
  newpath
  cf findfont cs scalefont dup
  /FontMatrix get 0 get /Ts exch def /FontInfo get dup
  /UnderlinePosition get Ts mul /To exch def
  /UnderlineThickness get Ts mul /Tt exch def
  ux uy To add cs 10 mul 26 idiv add moveto Tcx uy To add cs 10 mul 26 idiv add lineto
  Tt setlinewidth stroke
  grestore
} bd
/QT {
/Y22 exch store
/X22 exch store
/Y21 exch store
/X21 exch store
currentpoint
/Y21 load 2 mul add 3 div exch
/X21 load 2 mul add 3 div exch
/X21 load 2 mul /X22 load add 3 div
/Y21 load 2 mul /Y22 load add 3 div
/X22 load /Y22 load curveto
} bd
/SSPD {
dup length /d exch dict def
{
/v exch def
/k exch def
currentpagedevice k known {
/cpdv currentpagedevice k get def
v cpdv ne {
/upd false def
/nullv v type /nulltype eq def
/nullcpdv cpdv type /nulltype eq def
nullv nullcpdv or
{
/upd true def
} {
/sametype v type cpdv type eq def
sametype {
v type /arraytype eq {
/vlen v length def
/cpdvlen cpdv length def
vlen cpdvlen eq {
0 1 vlen 1 sub {
/i exch def
/obj v i get def
/cpdobj cpdv i get def
obj cpdobj ne {
/upd true def
exit
} if
} for
} {
/upd true def
} ifelse
} {
v type /dicttype eq {
v {
/dv exch def
/dk exch def
/cpddv cpdv dk get def
dv cpddv ne {
/upd true def
exit
} if
} forall
} {
/upd true def
} ifelse
} ifelse
} if
} ifelse
upd true eq {
d k v put
} if
} if
} if
} forall
d length 0 gt {
d setpagedevice
} if
} bd
/RE { % /NewFontName [NewEncodingArray] /FontName RE -
  findfont dup length dict begin
  {
    1 index /FID ne
    {def} {pop pop} ifelse
  } forall
  /Encoding exch def
  /FontName 1 index def
  currentdict definefont pop
  end
} bind def
%%EndResource
%%BeginResource: procset (Apache XML Graphics EPS ProcSet) 1.0 0
%%Version: 1.0 0
%%Copyright: (Copyright 2002-2003 The Apache Software Foundation. License terms: http://www.apache.org/licenses/LICENSE-2.0)
/BeginEPSF { %def
/b4_Inc_state save def         % Save state for cleanup
/dict_count countdictstack def % Count objects on dict stack
/op_count count 1 sub def      % Count objects on operand stack
userdict begin                 % Push userdict on dict stack
/showpage { } def              % Redefine showpage, { } = null proc
0 setgray 0 setlinecap         % Prepare graphics state
1 setlinewidth 0 setlinejoin
10 setmiterlimit [ ] 0 setdash newpath
/languagelevel where           % If level not equal to 1 then
{pop languagelevel             % set strokeadjust and
1 ne                           % overprint to their defaults.
{false setstrokeadjust false setoverprint
} if
} if
} bd
/EndEPSF { %def
count op_count sub {pop} repeat            % Clean up stacks
countdictstack dict_count sub {end} repeat
b4_Inc_state restore
} bd
%%EndResource
%FOPBeginFontDict
%%IncludeResource: font Courier-Oblique
%%IncludeResource: font Courier-BoldOblique
%%IncludeResource: font Courier-Bold
%%IncludeResource: font ZapfDingbats
%%IncludeResource: font Symbol
%%IncludeResource: font Helvetica
%%IncludeResource: font Helvetica-Oblique
%%IncludeResource: font Helvetica-Bold
%%IncludeResource: font Helvetica-BoldOblique
%%IncludeResource: font Times-Roman
%%IncludeResource: font Times-Italic
%%IncludeResource: font Times-Bold
%%IncludeResource: font Times-BoldItalic
%%IncludeResource: font Courier
%FOPEndFontDict
%%BeginResource: encoding WinAnsiEncoding
/WinAnsiEncoding [
/.notdef /.notdef /.notdef /.notdef /.notdef
/.notdef /.notdef /.notdef /.notdef /.notdef
/.notdef /.notdef /.notdef /.notdef /.notdef
/.notdef /.notdef /.notdef /.notdef /.notdef
/.notdef /.notdef /.notdef /.notdef /.notdef
/.notdef /.notdef /.notdef /.notdef /.notdef
/.notdef /.notdef /space /exclam /quotedbl
/numbersign /dollar /percent /ampersand /quotesingle
/parenleft /parenright /asterisk /plus /comma
/hyphen /period /slash /zero /one
/two /three /four /five /six
/seven /eight /nine /colon /semicolon
/less /equal /greater /question /at
/A /B /C /D /E
/F /G /H /I /J
/K /L /M /N /O
/P /Q /R /S /T
/U /V /W /X /Y
/Z /bracketleft /backslash /bracketright /asciicircum
/underscore /quoteleft /a /b /c
/d /e /f /g /h
/i /j /k /l /m
/n /o /p /q /r
/s /t /u /v /w
/x /y /z /braceleft /bar
/braceright /asciitilde /bullet /Euro /bullet
/quotesinglbase /florin /quotedblbase /ellipsis /dagger
/daggerdbl /circumflex /perthousand /Scaron /guilsinglleft
/OE /bullet /Zcaron /bullet /bullet
/quoteleft /quoteright /quotedblleft /quotedblright /bullet
/endash /emdash /asciitilde /trademark /scaron
/guilsinglright /oe /bullet /zcaron /Ydieresis
/space /exclamdown /cent /sterling /currency
/yen /brokenbar /section /dieresis /copyright
/ordfeminine /guillemotleft /logicalnot /sfthyphen /registered
/macron /degree /plusminus /twosuperior /threesuperior
/acute /mu /paragraph /middot /cedilla
/onesuperior /ordmasculine /guillemotright /onequarter /onehalf
/threequarters /questiondown /Agrave /Aacute /Acircumflex
/Atilde /Adieresis /Aring /AE /Ccedilla
/Egrave /Eacute /Ecircumflex /Edieresis /Igrave
/Iacute /Icircumflex /Idieresis /Eth /Ntilde
/Ograve /Oacute /Ocircumflex /Otilde /Odieresis
/multiply /Oslash /Ugrave /Uacute /Ucircumflex
/Udieresis /Yacute /Thorn /germandbls /agrave
/aacute /acircumflex /atilde /adieresis /aring
/ae /ccedilla /egrave /eacute /ecircumflex
/edieresis /igrave /iacute /icircumflex /idieresis
/eth /ntilde /ograve /oacute /ocircumflex
/otilde /odieresis /divide /oslash /ugrave
/uacute /ucircumflex /udieresis /yacute /thorn
/ydieresis
] def
%%EndResource
%FOPBeginFontReencode
/Courier-Oblique findfont
dup length dict begin
  {1 index /FID ne {def} {pop pop} ifelse} forall
  /Encoding WinAnsiEncoding def
  currentdict
end
/Courier-Oblique exch definefont pop
/Courier-BoldOblique findfont
dup length dict begin
  {1 index /FID ne {def} {pop pop} ifelse} forall
  /Encoding WinAnsiEncoding def
  currentdict
end
/Courier-BoldOblique exch definefont pop
/Courier-Bold findfont
dup length dict begin
  {1 index /FID ne {def} {pop pop} ifelse} forall
  /Encoding WinAnsiEncoding def
  currentdict
end
/Courier-Bold exch definefont pop
/Helvetica findfont
dup length dict begin
  {1 index /FID ne {def} {pop pop} ifelse} forall
  /Encoding WinAnsiEncoding def
  currentdict
end
/Helvetica exch definefont pop
/Helvetica-Oblique findfont
dup length dict begin
  {1 index /FID ne {def} {pop pop} ifelse} forall
  /Encoding WinAnsiEncoding def
  currentdict
end
/Helvetica-Oblique exch definefont pop
/Helvetica-Bold findfont
dup length dict begin
  {1 index /FID ne {def} {pop pop} ifelse} forall
  /Encoding WinAnsiEncoding def
  currentdict
end
/Helvetica-Bold exch definefont pop
/Helvetica-BoldOblique findfont
dup length dict begin
  {1 index /FID ne {def} {pop pop} ifelse} forall
  /Encoding WinAnsiEncoding def
  currentdict
end
/Helvetica-BoldOblique exch definefont pop
/Times-Roman findfont
dup length dict begin
  {1 index /FID ne {def} {pop pop} ifelse} forall
  /Encoding WinAnsiEncoding def
  currentdict
end
/Times-Roman exch definefont pop
/Times-Italic findfont
dup length dict begin
  {1 index /FID ne {def} {pop pop} ifelse} forall
  /Encoding WinAnsiEncoding def
  currentdict
end
/Times-Italic exch definefont pop
/Times-Bold findfont
dup length dict begin
  {1 index /FID ne {def} {pop pop} ifelse} forall
  /Encoding WinAnsiEncoding def
  currentdict
end
/Times-Bold exch definefont pop
/Times-BoldItalic findfont
dup length dict begin
  {1 index /FID ne {def} {pop pop} ifelse} forall
  /Encoding WinAnsiEncoding def
  currentdict
end
/Times-BoldItalic exch definefont pop
/Courier findfont
dup length dict begin
  {1 index /FID ne {def} {pop pop} ifelse} forall
  /Encoding WinAnsiEncoding def
  currentdict
end
/Courier exch definefont pop
%FOPEndFontReencode
%%EndProlog
%%Page: 1 1
%%PageBoundingBox: 0 0 1000 600
%%BeginPageSetup
[1 0 0 -1 0 600] CT
%%EndPageSetup
GS
1 GC
N
0 0 1000 600 re
f
GR
GS
1 GC
N
0 0 1000 600 re
f
GR
GS
1 GC
N
130 526 M
905 526 L
905 45 L
130 45 L
cp
f
GR
GS
0.873 GC
1 LJ
0.5 LW
N
130 526 M
130 45 L
S
GR
GS
0.873 GC
1 LJ
0.5 LW
N
323.75 526 M
323.75 45 L
S
GR
GS
0.873 GC
1 LJ
0.5 LW
N
517.5 526 M
517.5 45 L
S
GR
GS
0.873 GC
1 LJ
0.5 LW
N
711.25 526 M
711.25 45 L
S
GR
GS
0.873 GC
1 LJ
0.5 LW
N
905 526 M
905 45 L
S
GR
GS
0.873 GC
1 LJ
0.5 LW
N
905 526 M
130 526 L
S
GR
GS
0.873 GC
1 LJ
0.5 LW
N
905 405.75 M
130 405.75 L
S
GR
GS
0.873 GC
1 LJ
0.5 LW
N
905 285.5 M
130 285.5 L
S
GR
GS
0.873 GC
1 LJ
0.5 LW
N
905 165.25 M
130 165.25 L
S
GR
GS
0.873 GC
1 LJ
0.5 LW
N
905 45 M
130 45 L
S
GR
GS
0.149 GC
2 setlinecap
1 LJ
0.5 LW
N
130 526 M
905 526 L
S
GR
GS
0.149 GC
2 setlinecap
1 LJ
0.5 LW
N
130 45 M
905 45 L
S
GR
GS
0.149 GC
2 setlinecap
1 LJ
0.5 LW
N
130 526 M
130 518.25 L
S
GR
GS
0.149 GC
2 setlinecap
1 LJ
0.5 LW
N
323.75 526 M
323.75 518.25 L
S
GR
GS
0.149 GC
2 setlinecap
1 LJ
0.5 LW
N
517.5 526 M
517.5 518.25 L
S
GR
GS
0.149 GC
2 setlinecap
1 LJ
0.5 LW
N
711.25 526 M
711.25 518.25 L
S
GR
GS
0.149 GC
2 setlinecap
1 LJ
0.5 LW
N
905 526 M
905 518.25 L
S
GR
GS
0.149 GC
2 setlinecap
1 LJ
0.5 LW
N
130 45 M
130 52.75 L
S
GR
GS
0.149 GC
2 setlinecap
1 LJ
0.5 LW
N
323.75 45 M
323.75 52.75 L
S
GR
GS
0.149 GC
2 setlinecap
1 LJ
0.5 LW
N
517.5 45 M
517.5 52.75 L
S
GR
GS
0.149 GC
2 setlinecap
1 LJ
0.5 LW
N
711.25 45 M
711.25 52.75 L
S
GR
GS
0.149 GC
2 setlinecap
1 LJ
0.5 LW
N
905 45 M
905 52.75 L
S
GR
GS
[1 0 0 1 130 532.80005] CT
0.149 GC
/Helvetica 24 F
GS
[1 0 0 1 0 0] CT
-7 23 moveto 
1 -1 scale
(0) t 
GR
GR
GS
[1 0 0 1 323.75 532.80005] CT
0.149 GC
/Helvetica 24 F
GS
[1 0 0 1 0 0] CT
-17 23 moveto 
1 -1 scale
(0.5) t 
GR
GR
GS
[1 0 0 1 517.5 532.80005] CT
0.149 GC
/Helvetica 24 F
GS
[1 0 0 1 0 0] CT
-7 23 moveto 
1 -1 scale
(1) t 
GR
GR
GS
[1 0 0 1 711.25 532.80005] CT
0.149 GC
/Helvetica 24 F
GS
[1 0 0 1 0 0] CT
-17 23 moveto 
1 -1 scale
(1.5) t 
GR
GR
GS
[1 0 0 1 905.00006 532.80005] CT
0.149 GC
/Helvetica 24 F
GS
[1 0 0 1 0 0] CT
-7 23 moveto 
1 -1 scale
(2) t 
GR
GR
GS
[1 0 0 1 517.50037 562.79999] CT
0.149 GC
/Helvetica 26.4 F
GS
[1 0 0 1 0 0] CT
-103.5 26 moveto 
1 -1 scale
(False Match Rate) t 
GR
GR
GS
[1 0 0 1 840 594] CT
0.149 GC
N
3.531 -0.688 M
3.531 -0.875 3.641 -1.031 QT
8.641 -6 L
3.641 -11 L
3.531 -11.109 3.531 -11.313 QT
3.531 -11.484 3.672 -11.641 QT
3.813 -11.797 4.016 -11.797 QT
4.172 -11.797 4.375 -11.641 QT
9.344 -6.672 L
14.281 -11.641 L
14.484 -11.797 14.641 -11.797 QT
14.844 -11.797 14.984 -11.656 QT
15.125 -11.516 15.125 -11.313 QT
15.125 -11.109 15 -11 QT
10.016 -6 L
15 -1.031 L
15.125 -0.875 15.125 -0.688 QT
15.125 -0.5 14.984 -0.359 QT
14.844 -0.219 14.641 -0.219 QT
14.469 -0.219 14.281 -0.391 QT
9.344 -5.328 L
4.375 -0.391 L
4.203 -0.219 4.016 -0.219 QT
3.813 -0.219 3.672 -0.367 QT
3.531 -0.516 3.531 -0.688 QT
cp
f
GR
GS
[1 0 0 1 859 594] CT
0.149 GC
/Helvetica 24 F
GS
[1 0 0 1 0 0] CT
0 0 moveto 
1 -1 scale
(10) t 
GR
GR
GS
[1 0 0 1 886 582] CT
0.149 GC
/Helvetica 19.2 F
GS
[1 0 0 1 0 0] CT
0 0 moveto 
1 -1 scale
(-3) t 
GR
GR
GS
0.149 GC
2 setlinecap
1 LJ
0.5 LW
N
130 526 M
130 45 L
S
GR
GS
0.149 GC
2 setlinecap
1 LJ
0.5 LW
N
905 526 M
905 45 L
S
GR
GS
0.149 GC
2 setlinecap
1 LJ
0.5 LW
N
130 526 M
137.75 526 L
S
GR
GS
0.149 GC
2 setlinecap
1 LJ
0.5 LW
N
130 405.75 M
137.75 405.75 L
S
GR
GS
0.149 GC
2 setlinecap
1 LJ
0.5 LW
N
130 285.5 M
137.75 285.5 L
S
GR
GS
0.149 GC
2 setlinecap
1 LJ
0.5 LW
N
130 165.25 M
137.75 165.25 L
S
GR
GS
0.149 GC
2 setlinecap
1 LJ
0.5 LW
N
130 45 M
137.75 45 L
S
GR
GS
0.149 GC
2 setlinecap
1 LJ
0.5 LW
N
905 526 M
897.25 526 L
S
GR
GS
0.149 GC
2 setlinecap
1 LJ
0.5 LW
N
905 405.75 M
897.25 405.75 L
S
GR
GS
0.149 GC
2 setlinecap
1 LJ
0.5 LW
N
905 285.5 M
897.25 285.5 L
S
GR
GS
0.149 GC
2 setlinecap
1 LJ
0.5 LW
N
905 165.25 M
897.25 165.25 L
S
GR
GS
0.149 GC
2 setlinecap
1 LJ
0.5 LW
N
905 45 M
897.25 45 L
S
GR
GS
[1 0 0 1 123.2 526] CT
0.149 GC
/Helvetica 24 F
GS
[1 0 0 1 0 0] CT
-34 8.5 moveto 
1 -1 scale
(0.8) t 
GR
GR
GS
[1 0 0 1 123.2 405.74994] CT
0.149 GC
/Helvetica 24 F
GS
[1 0 0 1 0 0] CT
-47 8.5 moveto 
1 -1 scale
(0.85) t 
GR
GR
GS
[1 0 0 1 123.2 285.50006] CT
0.149 GC
/Helvetica 24 F
GS
[1 0 0 1 0 0] CT
-34 8.5 moveto 
1 -1 scale
(0.9) t 
GR
GR
GS
[1 0 0 1 123.2 165.25003] CT
0.149 GC
/Helvetica 24 F
GS
[1 0 0 1 0 0] CT
-47 8.5 moveto 
1 -1 scale
(0.95) t 
GR
GR
GS
[1 0 0 1 123.2 45] CT
0.149 GC
/Helvetica 24 F
GS
[1 0 0 1 0 0] CT
-14 8.5 moveto 
1 -1 scale
(1) t 
GR
GR
GS
[0 -1 1 0 73.2 285.49976] CT
0.149 GC
/Helvetica 26.4 F
GS
[1 0 0 1 0 0] CT
-153 -6 moveto 
1 -1 scale
(1 - False Non-Match Rate) t 
GR
GR
GS
[1 0 0 1 517.50049 38.39992] CT
/Helvetica-Bold 26.4 F
GS
[1 0 0 1 0 0] CT
-186.5 -6 moveto 
1 -1 scale
(Elderly/disease data \(test set\)) t 
GR
GR
GS
0 0 1 RC
1 LJ
2 LW
N
132.581 526.057 M
132.581 526 L
135.163 521.104 L
135.163 521.104 L
135.163 517.433 L
135.163 517.433 L
135.163 514.985 L
135.163 511.313 L
137.744 507.641 L
137.744 503.969 L
140.326 503.969 L
140.326 500.298 L
142.907 497.85 L
142.907 496.626 L
142.907 496.626 L
142.907 494.178 L
142.907 492.954 L
142.907 492.954 L
142.907 490.506 L
142.907 486.835 L
145.489 486.835 L
145.489 485.611 L
145.489 484.387 L
145.489 480.715 L
145.489 478.267 L
145.489 473.371 L
145.489 472.148 L
145.489 470.924 L
145.489 469.7 L
145.489 467.252 L
145.489 463.58 L
145.489 462.356 L
145.489 461.132 L
145.489 457.461 L
148.07 456.237 L
148.07 455.013 L
148.07 455.013 L
148.07 451.341 L
148.07 448.893 L
148.07 446.445 L
148.07 446.445 L
148.07 446.445 L
148.07 443.997 L
148.07 440.326 L
148.07 440.326 L
150.651 439.102 L
150.651 436.654 L
153.233 434.206 L
153.233 434.206 L
153.233 431.758 L
155.814 430.534 L
158.396 428.086 L
160.977 424.415 L
163.559 424.415 L
168.721 424.415 L
176.466 421.967 L
184.21 420.743 L
189.373 419.519 L
197.117 414.623 L
204.861 414.623 L
212.606 414.623 L
215.187 409.728 L
222.931 409.728 L
225.513 406.056 L
230.676 406.056 L
248.745 402.384 L
251.327 399.936 L
264.234 397.489 L
274.56 395.041 L
279.723 393.817 L
287.467 392.593 L
295.211 391.369 L
313.281 391.369 L
318.444 387.697 L
328.77 384.025 L
344.258 384.025 L
357.165 381.578 L
367.491 380.354 L
401.049 376.682 L
421.701 374.234 L
450.096 371.786 L
493.981 371.786 L
517.214 370.562 L
527.539 369.338 L
555.935 366.891 L
579.168 366.891 L
607.563 363.219 L
641.122 360.771 L
651.447 359.547 L
679.843 355.875 L
708.239 354.651 L
736.634 354.651 L
770.193 350.98 L
819.24 350.98 L
863.124 350.98 L
905.092 350.98 L
S
GR
GS
0 1 0 RC
1 LJ
2 LW
N
130 526.057 M
130 524.776 L
130 523.552 L
130 521.104 L
130 518.656 L
130 516.209 L
130 514.985 L
130 512.537 L
130 510.089 L
130 510.089 L
130 510.089 L
130 507.641 L
130 506.417 L
130 502.746 L
130 499.074 L
130 497.85 L
130 492.954 L
130 492.954 L
130 490.506 L
130 489.282 L
130 488.058 L
130 486.835 L
130 485.611 L
130 484.387 L
130 484.387 L
130 483.163 L
130 481.939 L
130 481.939 L
130 480.715 L
130 480.715 L
130 478.267 L
130 477.043 L
130 477.043 L
130 474.595 L
130 473.371 L
130 472.148 L
130 468.476 L
130 467.252 L
130 466.028 L
130 462.356 L
130 459.908 L
130 455.013 L
130 451.341 L
130 448.893 L
130 446.445 L
130 446.445 L
130 445.221 L
130 443.997 L
130 435.43 L
130 435.43 L
130 432.982 L
130 431.758 L
130 431.758 L
130 430.534 L
130 430.534 L
130 429.31 L
130 429.31 L
130 428.086 L
130 428.086 L
130 426.863 L
130 424.415 L
130 421.967 L
130 420.743 L
130 415.847 L
130 412.176 L
130 410.952 L
130 406.056 L
130 404.832 L
130 403.608 L
130 402.384 L
130 399.936 L
130 393.817 L
130 393.817 L
130 392.593 L
130 390.145 L
130 386.473 L
130 385.249 L
130 385.249 L
130 385.249 L
130 382.801 L
130 381.578 L
130 380.354 L
130 380.354 L
130 377.906 L
130 377.906 L
130 374.234 L
130 371.786 L
130 371.786 L
130 371.786 L
130 371.786 L
130 368.114 L
130 359.547 L
130 358.323 L
130 354.651 L
130 353.427 L
130 350.98 L
130 348.532 L
130 344.86 L
130 341.188 L
130 336.293 L
130 333.845 L
130 327.725 L
130 325.277 L
130 324.053 L
130 321.606 L
130 320.382 L
130 319.158 L
130 313.038 L
130 311.814 L
130 308.142 L
130 306.919 L
130 304.471 L
132.591 303.247 L
132.591 297.127 L
135.182 295.903 L
135.182 291.008 L
135.182 291.008 L
135.182 289.784 L
135.182 283.664 L
135.182 276.321 L
135.182 275.097 L
135.182 271.425 L
137.773 268.977 L
137.773 268.977 L
137.773 267.753 L
137.773 266.529 L
137.773 257.962 L
137.773 256.738 L
137.773 255.514 L
142.955 254.29 L
145.546 253.066 L
145.546 249.394 L
153.318 246.947 L
155.909 245.723 L
161.091 243.275 L
171.455 242.051 L
184.41 239.603 L
192.182 234.707 L
199.955 231.036 L
215.501 229.812 L
236.228 228.588 L
254.365 226.14 L
282.865 222.468 L
290.638 218.796 L
313.956 215.125 L
347.638 211.453 L
383.911 210.229 L
422.775 207.781 L
482.367 205.333 L
539.367 202.885 L
593.777 201.662 L
640.414 200.438 L
668.914 197.99 L
723.324 196.766 L
798.461 194.318 L
871.007 194.318 L
905.092 193.471 L
S
GR
GS
1 0 0 RC
1 LJ
2 LW
N
145.489 526.057 M
145.489 519.88 L
145.489 519.88 L
148.07 518.656 L
148.07 513.761 L
148.07 503.969 L
148.07 501.522 L
150.651 500.298 L
150.651 495.402 L
150.651 490.506 L
150.651 485.611 L
150.651 479.491 L
150.651 477.043 L
153.233 473.371 L
155.814 469.7 L
155.814 464.804 L
155.814 458.684 L
158.396 455.013 L
158.396 447.669 L
158.396 443.997 L
158.396 440.326 L
158.396 435.43 L
158.396 432.982 L
160.977 430.534 L
160.977 425.639 L
160.977 424.415 L
160.977 420.743 L
163.559 418.295 L
163.559 414.623 L
163.559 407.28 L
163.559 404.832 L
168.721 398.712 L
171.303 392.593 L
171.303 386.473 L
171.303 381.578 L
173.884 377.906 L
173.884 370.562 L
173.884 366.891 L
173.884 360.771 L
179.047 360.771 L
184.21 352.204 L
189.373 347.308 L
197.117 346.084 L
204.861 341.188 L
204.861 337.517 L
217.768 332.621 L
222.931 332.621 L
228.094 330.173 L
230.676 325.277 L
251.327 321.606 L
256.49 320.382 L
264.234 316.71 L
264.234 314.262 L
279.723 306.919 L
290.048 305.695 L
302.955 300.799 L
310.7 298.351 L
321.025 295.903 L
328.77 295.903 L
341.677 293.456 L
362.328 291.008 L
377.817 286.112 L
393.305 284.888 L
408.794 279.992 L
429.445 272.649 L
450.096 267.753 L
457.841 265.305 L
475.911 260.41 L
491.399 257.962 L
509.469 254.29 L
522.376 249.394 L
543.028 244.499 L
579.168 240.827 L
623.052 235.931 L
651.447 234.707 L
692.75 232.26 L
715.983 229.812 L
749.542 228.588 L
790.844 227.364 L
824.403 224.916 L
881.194 218.796 L
905.092 216.908 L
S
GR
GS
0 1 1 RC
[2 2] 0 setdash
2 LJ
2 LW
N
130 526.057 M
130 523.552 L
130 521.104 L
130 519.88 L
130 516.209 L
130 511.313 L
130 505.193 L
130 501.522 L
130 491.73 L
130 486.835 L
130 484.387 L
130 479.491 L
130 478.267 L
130 477.043 L
130 469.7 L
130 462.356 L
130 455.013 L
130 451.341 L
130 442.774 L
130 436.654 L
130 432.982 L
130 430.534 L
130 415.847 L
130 404.832 L
130 398.712 L
130 392.593 L
130 382.801 L
130 379.13 L
130 370.562 L
132.591 365.667 L
132.591 363.219 L
132.591 357.099 L
132.591 349.756 L
132.591 342.412 L
135.182 333.845 L
135.182 330.173 L
135.182 324.053 L
135.182 320.382 L
135.182 310.59 L
135.182 303.247 L
137.773 292.232 L
140.364 287.336 L
145.546 282.44 L
145.546 273.873 L
145.546 270.201 L
145.546 266.529 L
145.546 260.41 L
150.727 253.066 L
153.318 248.171 L
161.091 245.723 L
166.273 243.275 L
166.273 235.931 L
181.819 228.588 L
181.819 228.588 L
194.773 220.02 L
197.364 212.677 L
207.728 210.229 L
210.319 209.005 L
220.683 207.781 L
231.046 204.109 L
251.774 200.438 L
262.138 200.438 L
280.274 191.87 L
301.002 186.975 L
316.547 183.303 L
350.229 182.079 L
376.139 178.407 L
404.639 173.511 L
425.366 169.84 L
453.867 167.392 L
484.958 166.168 L
521.231 166.168 L
554.913 164.944 L
604.141 162.496 L
655.959 162.496 L
712.96 161.272 L
793.279 157.6 L
834.734 156.377 L
905.092 155.304 L
S
GR
GS
0 1 1 RC
1 LJ
2 LW
N
130 526.057 M
130 522.328 L
130 522.328 L
130 519.88 L
130 518.656 L
130 516.209 L
130 513.761 L
130 513.761 L
130 511.313 L
130 506.417 L
130 503.969 L
130 500.298 L
130 499.074 L
130 495.402 L
130 494.178 L
130 492.954 L
130 491.73 L
130 486.835 L
130 483.163 L
130 481.939 L
130 479.491 L
130 473.371 L
130 473.371 L
130 469.7 L
130 467.252 L
130 464.804 L
130 462.356 L
130 458.684 L
130 458.684 L
130 455.013 L
130 450.117 L
130 446.445 L
130 446.445 L
130 442.774 L
130 436.654 L
130 435.43 L
130 434.206 L
130 432.982 L
130 431.758 L
130 428.086 L
130 426.863 L
130 425.639 L
130 421.967 L
130 418.295 L
130 410.952 L
130 408.504 L
130 403.608 L
130 402.384 L
130 396.265 L
130 392.593 L
130 388.921 L
130 385.249 L
130 381.578 L
130 377.906 L
130 374.234 L
130 369.338 L
130 360.771 L
130 355.875 L
130 353.427 L
130 352.204 L
130 349.756 L
130 349.756 L
130 346.084 L
130 339.964 L
132.591 333.845 L
132.591 331.397 L
132.591 330.173 L
132.591 327.725 L
135.182 327.725 L
135.182 320.382 L
135.182 319.158 L
135.182 317.934 L
137.773 314.262 L
137.773 311.814 L
137.773 309.366 L
140.364 305.695 L
140.364 302.023 L
140.364 300.799 L
140.364 300.799 L
142.955 299.575 L
142.955 297.127 L
148.137 295.903 L
148.137 294.679 L
148.137 293.456 L
153.318 291.008 L
155.909 286.112 L
155.909 283.664 L
155.909 278.768 L
155.909 277.544 L
158.5 275.097 L
158.5 270.201 L
161.091 268.977 L
168.864 262.857 L
168.864 257.962 L
179.228 255.514 L
187.001 251.842 L
189.591 250.618 L
192.182 246.947 L
194.773 245.723 L
194.773 245.723 L
197.364 245.723 L
199.955 243.275 L
202.546 239.603 L
205.137 235.931 L
215.501 233.484 L
231.046 232.26 L
233.637 228.588 L
238.819 227.364 L
238.819 226.14 L
249.183 223.692 L
256.956 221.244 L
262.138 221.244 L
264.729 218.796 L
264.729 216.349 L
269.91 215.125 L
280.274 213.901 L
293.229 211.453 L
298.411 207.781 L
313.956 202.885 L
319.138 202.885 L
329.502 200.438 L
345.047 199.214 L
352.82 199.214 L
373.548 199.214 L
386.502 196.766 L
391.684 194.318 L
412.412 194.318 L
427.957 190.646 L
448.685 184.527 L
461.639 184.527 L
477.185 184.527 L
490.14 182.079 L
503.094 179.631 L
529.004 178.407 L
549.731 178.407 L
567.868 178.407 L
591.186 177.183 L
627.459 177.183 L
655.959 175.959 L
684.46 175.959 L
710.369 175.959 L
741.46 174.735 L
769.961 174.735 L
801.052 172.287 L
826.961 169.84 L
852.87 169.84 L
902.098 168.616 L
905.092 168.521 L
S
GR
GS
1 0 1 RC
1 LJ
2 LW
N
130 526.057 M
130 523.552 L
130 518.656 L
130 513.761 L
130 512.537 L
130 510.089 L
130 508.865 L
130 507.641 L
130 506.417 L
130 505.193 L
130 503.969 L
130 499.074 L
130 497.85 L
130 496.626 L
130 496.626 L
130 495.402 L
130 491.73 L
130 491.73 L
130 490.506 L
130 486.835 L
130 485.611 L
130 484.387 L
130 479.491 L
130 474.595 L
130 472.148 L
130 469.7 L
130 467.252 L
130 463.58 L
130 461.132 L
130 459.908 L
130 459.908 L
130 458.684 L
130 453.789 L
130 451.341 L
130 450.117 L
130 446.445 L
130 442.774 L
130 439.102 L
130 435.43 L
130 432.982 L
130 429.31 L
130 429.31 L
130 424.415 L
130 421.967 L
130 420.743 L
130 417.071 L
130 415.847 L
130 413.399 L
130 409.728 L
130 408.504 L
130 408.504 L
130 407.28 L
130 402.384 L
130 402.384 L
130 399.936 L
130 397.489 L
130 393.817 L
132.591 392.593 L
132.591 392.593 L
132.591 387.697 L
132.591 385.249 L
132.591 384.025 L
132.591 381.578 L
132.591 379.13 L
132.591 373.01 L
132.591 370.562 L
132.591 369.338 L
132.591 369.338 L
132.591 365.667 L
132.591 364.443 L
132.591 358.323 L
132.591 355.875 L
132.591 353.427 L
132.591 353.427 L
132.591 352.204 L
132.591 350.98 L
132.591 350.98 L
132.591 347.308 L
132.591 341.188 L
132.591 336.293 L
132.591 332.621 L
132.591 330.173 L
132.591 330.173 L
132.591 326.501 L
132.591 322.829 L
132.591 319.158 L
132.591 316.71 L
132.591 315.486 L
132.591 313.038 L
132.591 309.366 L
132.591 306.919 L
132.591 305.695 L
132.591 305.695 L
132.591 305.695 L
132.591 302.023 L
132.591 299.575 L
132.591 298.351 L
132.591 294.679 L
132.591 291.008 L
132.591 289.784 L
132.591 287.336 L
132.591 284.888 L
132.591 283.664 L
132.591 282.44 L
135.182 278.768 L
135.182 277.544 L
135.182 276.321 L
135.182 271.425 L
135.182 267.753 L
135.182 265.305 L
137.773 257.962 L
137.773 249.394 L
140.364 244.499 L
140.364 243.275 L
140.364 238.379 L
145.546 237.155 L
145.546 234.707 L
145.546 232.26 L
145.546 229.812 L
145.546 226.14 L
145.546 223.692 L
145.546 218.796 L
145.546 216.349 L
148.137 216.349 L
148.137 211.453 L
148.137 210.229 L
150.727 207.781 L
155.909 206.557 L
155.909 202.885 L
155.909 200.438 L
155.909 197.99 L
155.909 197.99 L
158.5 197.99 L
163.682 196.766 L
168.864 196.766 L
171.455 195.542 L
174.046 195.542 L
181.819 195.542 L
184.41 193.094 L
194.773 190.646 L
199.955 188.199 L
202.546 186.975 L
205.137 185.751 L
207.728 182.079 L
218.092 182.079 L
223.274 182.079 L
231.046 180.855 L
241.41 180.855 L
259.547 178.407 L
267.319 177.183 L
277.683 174.735 L
290.638 174.735 L
298.411 172.287 L
306.183 167.392 L
308.774 166.168 L
319.138 164.944 L
329.502 163.72 L
352.82 162.496 L
376.139 157.6 L
389.093 155.153 L
402.048 152.705 L
415.003 151.481 L
430.548 151.481 L
453.867 149.033 L
472.003 147.809 L
497.913 146.585 L
536.777 142.913 L
578.231 141.69 L
627.459 140.466 L
661.141 139.242 L
689.642 138.018 L
720.733 138.018 L
769.961 136.794 L
811.416 134.346 L
863.234 134.346 L
905.092 132.149 L
S
GR
GS
1 LJ
2 LW
N
132.591 526.057 M
132.591 523.552 L
132.591 519.88 L
132.591 517.433 L
132.591 514.985 L
132.591 514.985 L
132.591 507.641 L
132.591 506.417 L
132.591 505.193 L
132.591 502.746 L
132.591 499.074 L
132.591 497.85 L
132.591 496.626 L
132.591 492.954 L
132.591 491.73 L
132.591 490.506 L
132.591 481.939 L
132.591 480.715 L
135.182 478.267 L
135.182 478.267 L
135.182 477.043 L
137.773 474.595 L
137.773 470.924 L
137.773 468.476 L
137.773 464.804 L
137.773 462.356 L
137.773 455.013 L
137.773 453.789 L
137.773 448.893 L
137.773 441.55 L
137.773 437.878 L
137.773 436.654 L
137.773 432.982 L
137.773 430.534 L
137.773 429.31 L
137.773 426.863 L
137.773 423.191 L
137.773 421.967 L
137.773 418.295 L
137.773 410.952 L
137.773 409.728 L
137.773 408.504 L
137.773 404.832 L
137.773 402.384 L
137.773 402.384 L
137.773 395.041 L
137.773 393.817 L
137.773 392.593 L
137.773 388.921 L
137.773 386.473 L
137.773 385.249 L
137.773 381.578 L
137.773 379.13 L
137.773 376.682 L
137.773 375.458 L
137.773 371.786 L
137.773 366.891 L
140.364 364.443 L
140.364 361.995 L
140.364 358.323 L
140.364 358.323 L
140.364 357.099 L
140.364 355.875 L
140.364 354.651 L
140.364 352.204 L
140.364 352.204 L
142.955 348.532 L
142.955 347.308 L
142.955 346.084 L
142.955 344.86 L
142.955 339.964 L
142.955 337.517 L
142.955 333.845 L
145.546 332.621 L
145.546 330.173 L
145.546 330.173 L
145.546 326.501 L
145.546 325.277 L
145.546 322.829 L
145.546 321.606 L
145.546 320.382 L
145.546 320.382 L
145.546 317.934 L
145.546 314.262 L
145.546 311.814 L
145.546 310.59 L
148.137 304.471 L
150.727 294.679 L
153.318 293.456 L
155.909 292.232 L
158.5 289.784 L
158.5 288.56 L
158.5 286.112 L
158.5 286.112 L
158.5 282.44 L
158.5 281.216 L
161.091 279.992 L
166.273 276.321 L
174.046 273.873 L
179.228 268.977 L
181.819 266.529 L
189.591 264.081 L
197.364 264.081 L
197.364 260.41 L
199.955 257.962 L
202.546 256.738 L
207.728 254.29 L
220.683 253.066 L
228.455 253.066 L
233.637 253.066 L
238.819 246.947 L
241.41 243.275 L
241.41 239.603 L
244.001 235.931 L
249.183 234.707 L
251.774 232.26 L
259.547 227.364 L
267.319 224.916 L
267.319 221.244 L
280.274 220.02 L
295.82 218.796 L
301.002 213.901 L
306.183 207.781 L
313.956 201.662 L
321.729 201.662 L
329.502 200.438 L
350.229 197.99 L
360.593 194.318 L
365.775 193.094 L
378.73 193.094 L
394.275 190.646 L
412.412 189.422 L
422.775 184.527 L
433.139 180.855 L
443.503 177.183 L
461.639 173.511 L
469.412 171.064 L
484.958 166.168 L
497.913 166.168 L
513.458 163.72 L
529.004 161.272 L
562.686 157.6 L
575.641 157.6 L
601.55 155.153 L
614.505 155.153 L
645.596 153.929 L
674.096 152.705 L
700.005 151.481 L
723.324 147.809 L
751.824 147.809 L
788.097 146.585 L
829.552 146.585 L
863.234 142.913 L
891.734 140.466 L
905.092 140.134 L
S
GR
GS
[2 2] 0 setdash
2 LJ
2 LW
N
132.591 526.057 M
132.591 522.328 L
132.591 512.537 L
135.182 507.641 L
135.182 506.417 L
135.182 499.074 L
135.182 495.402 L
135.182 486.835 L
135.182 481.939 L
135.182 478.267 L
135.182 469.7 L
135.182 462.356 L
135.182 453.789 L
137.773 448.893 L
137.773 445.221 L
137.773 437.878 L
137.773 431.758 L
140.364 421.967 L
140.364 418.295 L
140.364 417.071 L
140.364 413.399 L
140.364 408.504 L
142.955 402.384 L
145.546 391.369 L
145.546 387.697 L
148.137 379.13 L
148.137 376.682 L
150.727 370.562 L
150.727 365.667 L
153.318 361.995 L
155.909 355.875 L
155.909 353.427 L
158.5 349.756 L
158.5 346.084 L
158.5 341.188 L
161.091 338.741 L
161.091 333.845 L
171.455 331.397 L
174.046 327.725 L
174.046 322.829 L
174.046 316.71 L
176.637 314.262 L
176.637 303.247 L
179.228 300.799 L
189.591 297.127 L
194.773 293.456 L
197.364 292.232 L
199.955 289.784 L
202.546 286.112 L
205.137 277.544 L
228.455 272.649 L
233.637 266.529 L
238.819 262.857 L
244.001 260.41 L
249.183 253.066 L
254.365 245.723 L
259.547 240.827 L
288.047 234.707 L
295.82 227.364 L
308.774 217.572 L
319.138 211.453 L
326.911 210.229 L
326.911 206.557 L
342.457 200.438 L
373.548 195.542 L
394.275 191.87 L
409.821 189.422 L
430.548 188.199 L
466.821 183.303 L
484.958 175.959 L
516.049 166.168 L
567.868 162.496 L
591.186 162.496 L
640.414 160.048 L
697.414 152.705 L
731.097 150.257 L
777.733 146.585 L
824.37 141.69 L
905.092 140.842 L
S
GR
GS
[10 6] 0 setdash
2 LJ
0.5 LW
N
905.092 49.811 M
130 45 L
S
GR
%%Trailer
%%Pages: 1
%%EOF
