%!PS-Adobe-3.0 EPSF-3.0
%%Creator: (MATLAB, The Mathworks, Inc. Version 9.3.0.713579 \(R2017b\). Operating System: Mac OS X)
%%Title: ./ROCs_postmortem_210_closeup.eps
%%CreationDate: 2019-01-22T13:10:22
%%Pages: (atend)
%%BoundingBox:    48     5   927   587
%%LanguageLevel: 3
%%EndComments
%%BeginProlog
%%BeginResource: procset (Apache XML Graphics Std ProcSet) 1.2 0
%%Version: 1.2 0
%%Copyright: (Copyright 2001-2003,2010 The Apache Software Foundation. License terms: http://www.apache.org/licenses/LICENSE-2.0)
/bd{bind def}bind def
/ld{load def}bd
/GR/grestore ld
/GS/gsave ld
/RM/rmoveto ld
/C/curveto ld
/t/show ld
/L/lineto ld
/ML/setmiterlimit ld
/CT/concat ld
/f/fill ld
/N/newpath ld
/S/stroke ld
/CC/setcmykcolor ld
/A/ashow ld
/cp/closepath ld
/RC/setrgbcolor ld
/LJ/setlinejoin ld
/GC/setgray ld
/LW/setlinewidth ld
/M/moveto ld
/re {4 2 roll M
1 index 0 rlineto
0 exch rlineto
neg 0 rlineto
cp } bd
/_ctm matrix def
/_tm matrix def
/BT { _ctm currentmatrix pop matrix _tm copy pop 0 0 moveto } bd
/ET { _ctm setmatrix } bd
/iTm { _ctm setmatrix _tm concat } bd
/Tm { _tm astore pop iTm 0 0 moveto } bd
/ux 0.0 def
/uy 0.0 def
/F {
  /Tp exch def
  /Tf exch def
  Tf findfont Tp scalefont setfont
  /cf Tf def  /cs Tp def
} bd
/ULS {currentpoint /uy exch def /ux exch def} bd
/ULE {
  /Tcx currentpoint pop def
  gsave
  newpath
  cf findfont cs scalefont dup
  /FontMatrix get 0 get /Ts exch def /FontInfo get dup
  /UnderlinePosition get Ts mul /To exch def
  /UnderlineThickness get Ts mul /Tt exch def
  ux uy To add moveto  Tcx uy To add lineto
  Tt setlinewidth stroke
  grestore
} bd
/OLE {
  /Tcx currentpoint pop def
  gsave
  newpath
  cf findfont cs scalefont dup
  /FontMatrix get 0 get /Ts exch def /FontInfo get dup
  /UnderlinePosition get Ts mul /To exch def
  /UnderlineThickness get Ts mul /Tt exch def
  ux uy To add cs add moveto Tcx uy To add cs add lineto
  Tt setlinewidth stroke
  grestore
} bd
/SOE {
  /Tcx currentpoint pop def
  gsave
  newpath
  cf findfont cs scalefont dup
  /FontMatrix get 0 get /Ts exch def /FontInfo get dup
  /UnderlinePosition get Ts mul /To exch def
  /UnderlineThickness get Ts mul /Tt exch def
  ux uy To add cs 10 mul 26 idiv add moveto Tcx uy To add cs 10 mul 26 idiv add lineto
  Tt setlinewidth stroke
  grestore
} bd
/QT {
/Y22 exch store
/X22 exch store
/Y21 exch store
/X21 exch store
currentpoint
/Y21 load 2 mul add 3 div exch
/X21 load 2 mul add 3 div exch
/X21 load 2 mul /X22 load add 3 div
/Y21 load 2 mul /Y22 load add 3 div
/X22 load /Y22 load curveto
} bd
/SSPD {
dup length /d exch dict def
{
/v exch def
/k exch def
currentpagedevice k known {
/cpdv currentpagedevice k get def
v cpdv ne {
/upd false def
/nullv v type /nulltype eq def
/nullcpdv cpdv type /nulltype eq def
nullv nullcpdv or
{
/upd true def
} {
/sametype v type cpdv type eq def
sametype {
v type /arraytype eq {
/vlen v length def
/cpdvlen cpdv length def
vlen cpdvlen eq {
0 1 vlen 1 sub {
/i exch def
/obj v i get def
/cpdobj cpdv i get def
obj cpdobj ne {
/upd true def
exit
} if
} for
} {
/upd true def
} ifelse
} {
v type /dicttype eq {
v {
/dv exch def
/dk exch def
/cpddv cpdv dk get def
dv cpddv ne {
/upd true def
exit
} if
} forall
} {
/upd true def
} ifelse
} ifelse
} if
} ifelse
upd true eq {
d k v put
} if
} if
} if
} forall
d length 0 gt {
d setpagedevice
} if
} bd
/RE { % /NewFontName [NewEncodingArray] /FontName RE -
  findfont dup length dict begin
  {
    1 index /FID ne
    {def} {pop pop} ifelse
  } forall
  /Encoding exch def
  /FontName 1 index def
  currentdict definefont pop
  end
} bind def
%%EndResource
%%BeginResource: procset (Apache XML Graphics EPS ProcSet) 1.0 0
%%Version: 1.0 0
%%Copyright: (Copyright 2002-2003 The Apache Software Foundation. License terms: http://www.apache.org/licenses/LICENSE-2.0)
/BeginEPSF { %def
/b4_Inc_state save def         % Save state for cleanup
/dict_count countdictstack def % Count objects on dict stack
/op_count count 1 sub def      % Count objects on operand stack
userdict begin                 % Push userdict on dict stack
/showpage { } def              % Redefine showpage, { } = null proc
0 setgray 0 setlinecap         % Prepare graphics state
1 setlinewidth 0 setlinejoin
10 setmiterlimit [ ] 0 setdash newpath
/languagelevel where           % If level not equal to 1 then
{pop languagelevel             % set strokeadjust and
1 ne                           % overprint to their defaults.
{false setstrokeadjust false setoverprint
} if
} if
} bd
/EndEPSF { %def
count op_count sub {pop} repeat            % Clean up stacks
countdictstack dict_count sub {end} repeat
b4_Inc_state restore
} bd
%%EndResource
%FOPBeginFontDict
%%IncludeResource: font Courier-Oblique
%%IncludeResource: font Courier-BoldOblique
%%IncludeResource: font Courier-Bold
%%IncludeResource: font ZapfDingbats
%%IncludeResource: font Symbol
%%IncludeResource: font Helvetica
%%IncludeResource: font Helvetica-Oblique
%%IncludeResource: font Helvetica-Bold
%%IncludeResource: font Helvetica-BoldOblique
%%IncludeResource: font Times-Roman
%%IncludeResource: font Times-Italic
%%IncludeResource: font Times-Bold
%%IncludeResource: font Times-BoldItalic
%%IncludeResource: font Courier
%FOPEndFontDict
%%BeginResource: encoding WinAnsiEncoding
/WinAnsiEncoding [
/.notdef /.notdef /.notdef /.notdef /.notdef
/.notdef /.notdef /.notdef /.notdef /.notdef
/.notdef /.notdef /.notdef /.notdef /.notdef
/.notdef /.notdef /.notdef /.notdef /.notdef
/.notdef /.notdef /.notdef /.notdef /.notdef
/.notdef /.notdef /.notdef /.notdef /.notdef
/.notdef /.notdef /space /exclam /quotedbl
/numbersign /dollar /percent /ampersand /quotesingle
/parenleft /parenright /asterisk /plus /comma
/hyphen /period /slash /zero /one
/two /three /four /five /six
/seven /eight /nine /colon /semicolon
/less /equal /greater /question /at
/A /B /C /D /E
/F /G /H /I /J
/K /L /M /N /O
/P /Q /R /S /T
/U /V /W /X /Y
/Z /bracketleft /backslash /bracketright /asciicircum
/underscore /quoteleft /a /b /c
/d /e /f /g /h
/i /j /k /l /m
/n /o /p /q /r
/s /t /u /v /w
/x /y /z /braceleft /bar
/braceright /asciitilde /bullet /Euro /bullet
/quotesinglbase /florin /quotedblbase /ellipsis /dagger
/daggerdbl /circumflex /perthousand /Scaron /guilsinglleft
/OE /bullet /Zcaron /bullet /bullet
/quoteleft /quoteright /quotedblleft /quotedblright /bullet
/endash /emdash /asciitilde /trademark /scaron
/guilsinglright /oe /bullet /zcaron /Ydieresis
/space /exclamdown /cent /sterling /currency
/yen /brokenbar /section /dieresis /copyright
/ordfeminine /guillemotleft /logicalnot /sfthyphen /registered
/macron /degree /plusminus /twosuperior /threesuperior
/acute /mu /paragraph /middot /cedilla
/onesuperior /ordmasculine /guillemotright /onequarter /onehalf
/threequarters /questiondown /Agrave /Aacute /Acircumflex
/Atilde /Adieresis /Aring /AE /Ccedilla
/Egrave /Eacute /Ecircumflex /Edieresis /Igrave
/Iacute /Icircumflex /Idieresis /Eth /Ntilde
/Ograve /Oacute /Ocircumflex /Otilde /Odieresis
/multiply /Oslash /Ugrave /Uacute /Ucircumflex
/Udieresis /Yacute /Thorn /germandbls /agrave
/aacute /acircumflex /atilde /adieresis /aring
/ae /ccedilla /egrave /eacute /ecircumflex
/edieresis /igrave /iacute /icircumflex /idieresis
/eth /ntilde /ograve /oacute /ocircumflex
/otilde /odieresis /divide /oslash /ugrave
/uacute /ucircumflex /udieresis /yacute /thorn
/ydieresis
] def
%%EndResource
%FOPBeginFontReencode
/Courier-Oblique findfont
dup length dict begin
  {1 index /FID ne {def} {pop pop} ifelse} forall
  /Encoding WinAnsiEncoding def
  currentdict
end
/Courier-Oblique exch definefont pop
/Courier-BoldOblique findfont
dup length dict begin
  {1 index /FID ne {def} {pop pop} ifelse} forall
  /Encoding WinAnsiEncoding def
  currentdict
end
/Courier-BoldOblique exch definefont pop
/Courier-Bold findfont
dup length dict begin
  {1 index /FID ne {def} {pop pop} ifelse} forall
  /Encoding WinAnsiEncoding def
  currentdict
end
/Courier-Bold exch definefont pop
/Helvetica findfont
dup length dict begin
  {1 index /FID ne {def} {pop pop} ifelse} forall
  /Encoding WinAnsiEncoding def
  currentdict
end
/Helvetica exch definefont pop
/Helvetica-Oblique findfont
dup length dict begin
  {1 index /FID ne {def} {pop pop} ifelse} forall
  /Encoding WinAnsiEncoding def
  currentdict
end
/Helvetica-Oblique exch definefont pop
/Helvetica-Bold findfont
dup length dict begin
  {1 index /FID ne {def} {pop pop} ifelse} forall
  /Encoding WinAnsiEncoding def
  currentdict
end
/Helvetica-Bold exch definefont pop
/Helvetica-BoldOblique findfont
dup length dict begin
  {1 index /FID ne {def} {pop pop} ifelse} forall
  /Encoding WinAnsiEncoding def
  currentdict
end
/Helvetica-BoldOblique exch definefont pop
/Times-Roman findfont
dup length dict begin
  {1 index /FID ne {def} {pop pop} ifelse} forall
  /Encoding WinAnsiEncoding def
  currentdict
end
/Times-Roman exch definefont pop
/Times-Italic findfont
dup length dict begin
  {1 index /FID ne {def} {pop pop} ifelse} forall
  /Encoding WinAnsiEncoding def
  currentdict
end
/Times-Italic exch definefont pop
/Times-Bold findfont
dup length dict begin
  {1 index /FID ne {def} {pop pop} ifelse} forall
  /Encoding WinAnsiEncoding def
  currentdict
end
/Times-Bold exch definefont pop
/Times-BoldItalic findfont
dup length dict begin
  {1 index /FID ne {def} {pop pop} ifelse} forall
  /Encoding WinAnsiEncoding def
  currentdict
end
/Times-BoldItalic exch definefont pop
/Courier findfont
dup length dict begin
  {1 index /FID ne {def} {pop pop} ifelse} forall
  /Encoding WinAnsiEncoding def
  currentdict
end
/Courier exch definefont pop
%FOPEndFontReencode
%%EndProlog
%%Page: 1 1
%%PageBoundingBox: 0 0 1000 600
%%BeginPageSetup
[1 0 0 -1 0 600] CT
%%EndPageSetup
GS
1 GC
N
0 0 1000 600 re
f
GR
GS
1 GC
N
0 0 1000 600 re
f
GR
GS
1 GC
N
130 531 M
905 531 L
905 45 L
130 45 L
cp
f
GR
GS
0.873 GC
1 LJ
0.5 LW
N
130 531 M
130 45 L
S
GR
GS
0.873 GC
1 LJ
0.5 LW
N
285 531 M
285 45 L
S
GR
GS
0.873 GC
1 LJ
0.5 LW
N
440 531 M
440 45 L
S
GR
GS
0.873 GC
1 LJ
0.5 LW
N
595 531 M
595 45 L
S
GR
GS
0.873 GC
1 LJ
0.5 LW
N
750 531 M
750 45 L
S
GR
GS
0.873 GC
1 LJ
0.5 LW
N
905 531 M
905 45 L
S
GR
GS
0.873 GC
1 LJ
0.5 LW
N
905 531 M
130 531 L
S
GR
GS
0.873 GC
1 LJ
0.5 LW
N
905 467.053 M
130 467.053 L
S
GR
GS
0.873 GC
1 LJ
0.5 LW
N
905 403.105 M
130 403.105 L
S
GR
GS
0.873 GC
1 LJ
0.5 LW
N
905 339.158 M
130 339.158 L
S
GR
GS
0.873 GC
1 LJ
0.5 LW
N
905 275.211 M
130 275.211 L
S
GR
GS
0.873 GC
1 LJ
0.5 LW
N
905 211.263 M
130 211.263 L
S
GR
GS
0.873 GC
1 LJ
0.5 LW
N
905 147.316 M
130 147.316 L
S
GR
GS
0.873 GC
1 LJ
0.5 LW
N
905 83.368 M
130 83.368 L
S
GR
GS
0.149 GC
2 setlinecap
1 LJ
0.5 LW
N
130 531 M
905 531 L
S
GR
GS
0.149 GC
2 setlinecap
1 LJ
0.5 LW
N
130 45 M
905 45 L
S
GR
GS
0.149 GC
2 setlinecap
1 LJ
0.5 LW
N
130 531 M
130 523.25 L
S
GR
GS
0.149 GC
2 setlinecap
1 LJ
0.5 LW
N
285 531 M
285 523.25 L
S
GR
GS
0.149 GC
2 setlinecap
1 LJ
0.5 LW
N
440 531 M
440 523.25 L
S
GR
GS
0.149 GC
2 setlinecap
1 LJ
0.5 LW
N
595 531 M
595 523.25 L
S
GR
GS
0.149 GC
2 setlinecap
1 LJ
0.5 LW
N
750 531 M
750 523.25 L
S
GR
GS
0.149 GC
2 setlinecap
1 LJ
0.5 LW
N
905 531 M
905 523.25 L
S
GR
GS
0.149 GC
2 setlinecap
1 LJ
0.5 LW
N
130 45 M
130 52.75 L
S
GR
GS
0.149 GC
2 setlinecap
1 LJ
0.5 LW
N
285 45 M
285 52.75 L
S
GR
GS
0.149 GC
2 setlinecap
1 LJ
0.5 LW
N
440 45 M
440 52.75 L
S
GR
GS
0.149 GC
2 setlinecap
1 LJ
0.5 LW
N
595 45 M
595 52.75 L
S
GR
GS
0.149 GC
2 setlinecap
1 LJ
0.5 LW
N
750 45 M
750 52.75 L
S
GR
GS
0.149 GC
2 setlinecap
1 LJ
0.5 LW
N
905 45 M
905 52.75 L
S
GR
GS
[1 0 0 1 130 537.79999] CT
0.149 GC
/Helvetica 24 F
GS
[1 0 0 1 0 0] CT
-7 23 moveto 
1 -1 scale
(0) t 
GR
GR
GS
[1 0 0 1 285 537.79999] CT
0.149 GC
/Helvetica 24 F
GS
[1 0 0 1 0 0] CT
-23.5 23 moveto 
1 -1 scale
(0.01) t 
GR
GR
GS
[1 0 0 1 440 537.79999] CT
0.149 GC
/Helvetica 24 F
GS
[1 0 0 1 0 0] CT
-23.5 23 moveto 
1 -1 scale
(0.02) t 
GR
GR
GS
[1 0 0 1 595 537.79999] CT
0.149 GC
/Helvetica 24 F
GS
[1 0 0 1 0 0] CT
-23.5 23 moveto 
1 -1 scale
(0.03) t 
GR
GR
GS
[1 0 0 1 750 537.79999] CT
0.149 GC
/Helvetica 24 F
GS
[1 0 0 1 0 0] CT
-23.5 23 moveto 
1 -1 scale
(0.04) t 
GR
GR
GS
[1 0 0 1 905 537.79999] CT
0.149 GC
/Helvetica 24 F
GS
[1 0 0 1 0 0] CT
-23.5 23 moveto 
1 -1 scale
(0.05) t 
GR
GR
GS
[1 0 0 1 517.50037 567.79999] CT
0.149 GC
/Helvetica 26.4 F
GS
[1 0 0 1 0 0] CT
-103.5 26 moveto 
1 -1 scale
(False Match Rate) t 
GR
GR
GS
0.149 GC
2 setlinecap
1 LJ
0.5 LW
N
130 531 M
130 45 L
S
GR
GS
0.149 GC
2 setlinecap
1 LJ
0.5 LW
N
905 531 M
905 45 L
S
GR
GS
0.149 GC
2 setlinecap
1 LJ
0.5 LW
N
130 531 M
137.75 531 L
S
GR
GS
0.149 GC
2 setlinecap
1 LJ
0.5 LW
N
130 467.053 M
137.75 467.053 L
S
GR
GS
0.149 GC
2 setlinecap
1 LJ
0.5 LW
N
130 403.105 M
137.75 403.105 L
S
GR
GS
0.149 GC
2 setlinecap
1 LJ
0.5 LW
N
130 339.158 M
137.75 339.158 L
S
GR
GS
0.149 GC
2 setlinecap
1 LJ
0.5 LW
N
130 275.211 M
137.75 275.211 L
S
GR
GS
0.149 GC
2 setlinecap
1 LJ
0.5 LW
N
130 211.263 M
137.75 211.263 L
S
GR
GS
0.149 GC
2 setlinecap
1 LJ
0.5 LW
N
130 147.316 M
137.75 147.316 L
S
GR
GS
0.149 GC
2 setlinecap
1 LJ
0.5 LW
N
130 83.368 M
137.75 83.368 L
S
GR
GS
0.149 GC
2 setlinecap
1 LJ
0.5 LW
N
905 531 M
897.25 531 L
S
GR
GS
0.149 GC
2 setlinecap
1 LJ
0.5 LW
N
905 467.053 M
897.25 467.053 L
S
GR
GS
0.149 GC
2 setlinecap
1 LJ
0.5 LW
N
905 403.105 M
897.25 403.105 L
S
GR
GS
0.149 GC
2 setlinecap
1 LJ
0.5 LW
N
905 339.158 M
897.25 339.158 L
S
GR
GS
0.149 GC
2 setlinecap
1 LJ
0.5 LW
N
905 275.211 M
897.25 275.211 L
S
GR
GS
0.149 GC
2 setlinecap
1 LJ
0.5 LW
N
905 211.263 M
897.25 211.263 L
S
GR
GS
0.149 GC
2 setlinecap
1 LJ
0.5 LW
N
905 147.316 M
897.25 147.316 L
S
GR
GS
0.149 GC
2 setlinecap
1 LJ
0.5 LW
N
905 83.368 M
897.25 83.368 L
S
GR
GS
[1 0 0 1 123.2 531] CT
0.149 GC
/Helvetica 24 F
GS
[1 0 0 1 0 0] CT
-34 8.5 moveto 
1 -1 scale
(0.4) t 
GR
GR
GS
[1 0 0 1 123.2 467.05264] CT
0.149 GC
/Helvetica 24 F
GS
[1 0 0 1 0 0] CT
-47 8.5 moveto 
1 -1 scale
(0.45) t 
GR
GR
GS
[1 0 0 1 123.2 403.10526] CT
0.149 GC
/Helvetica 24 F
GS
[1 0 0 1 0 0] CT
-34 8.5 moveto 
1 -1 scale
(0.5) t 
GR
GR
GS
[1 0 0 1 123.2 339.15787] CT
0.149 GC
/Helvetica 24 F
GS
[1 0 0 1 0 0] CT
-47 8.5 moveto 
1 -1 scale
(0.55) t 
GR
GR
GS
[1 0 0 1 123.2 275.21051] CT
0.149 GC
/Helvetica 24 F
GS
[1 0 0 1 0 0] CT
-34 8.5 moveto 
1 -1 scale
(0.6) t 
GR
GR
GS
[1 0 0 1 123.2 211.26318] CT
0.149 GC
/Helvetica 24 F
GS
[1 0 0 1 0 0] CT
-47 8.5 moveto 
1 -1 scale
(0.65) t 
GR
GR
GS
[1 0 0 1 123.2 147.31581] CT
0.149 GC
/Helvetica 24 F
GS
[1 0 0 1 0 0] CT
-34 8.5 moveto 
1 -1 scale
(0.7) t 
GR
GR
GS
[1 0 0 1 123.2 83.36842] CT
0.149 GC
/Helvetica 24 F
GS
[1 0 0 1 0 0] CT
-47 8.5 moveto 
1 -1 scale
(0.75) t 
GR
GR
GS
[0 -1 1 0 73.2 287.99982] CT
0.149 GC
/Helvetica 26.4 F
GS
[1 0 0 1 0 0] CT
-153 -6 moveto 
1 -1 scale
(1 - False Non-Match Rate) t 
GR
GR
GS
[1 0 0 1 517.50049 38.40002] CT
/Helvetica-Bold 26.4 F
GS
[1 0 0 1 0 0] CT
-287 -6 moveto 
1 -1 scale
(Data acquired less than 210 hours after death) t 
GR
GR
GS
0 0 1 RC
1 LJ
2 LW
N
207.977 531.058 M
208.779 529.904 L
213.361 524.034 L
220.447 519.142 L
226.117 512.489 L
231.819 506.619 L
238.576 501.531 L
245.037 497.813 L
254.53 493.313 L
263.792 485.29 L
273.879 477.854 L
282.053 472.962 L
292.964 466.505 L
305.094 460.439 L
317.158 454.373 L
331.166 446.937 L
344.747 440.48 L
362.876 434.609 L
381.268 429.13 L
400.255 423.456 L
419.801 417.585 L
441.721 410.541 L
465.387 404.475 L
491.196 399.192 L
518.588 393.908 L
548.979 389.212 L
582.27 381.581 L
616.583 375.906 L
656.533 368.862 L
694.835 360.448 L
736.927 354.577 L
780.767 348.511 L
828.001 343.619 L
877.675 338.336 L
905.092 335.135 L
S
GR
GS
0 1 0 RC
1 LJ
2 LW
N
131.679 531.058 M
131.747 528.143 L
131.912 523.838 L
132.011 518.946 L
132.11 513.076 L
132.208 508.38 L
132.538 503.292 L
132.868 498.596 L
133.033 494.682 L
133.263 490.769 L
133.593 485.094 L
133.889 481.768 L
134.087 476.093 L
134.648 470.027 L
134.878 464.939 L
135.505 459.656 L
136.164 453.786 L
136.625 449.089 L
137.153 444.785 L
137.647 440.088 L
138.405 435.196 L
139.262 430.109 L
139.922 426.195 L
140.548 423.064 L
141.471 417.585 L
142.855 412.693 L
144.042 407.997 L
145.031 402.127 L
146.514 397.235 L
148.558 390.191 L
150.568 384.907 L
152.315 379.82 L
154.853 374.536 L
157.886 369.057 L
160.49 364.165 L
163.324 358.099 L
166.588 353.208 L
170.741 348.316 L
175.158 343.619 L
180.102 337.945 L
185.936 332.661 L
191.837 326.204 L
197.638 320.529 L
203.966 314.659 L
211.581 307.81 L
218.832 302.136 L
227.798 296.657 L
236.599 292.548 L
247.015 289.025 L
258.914 281.198 L
272.362 276.111 L
285.745 270.045 L
300.149 264.761 L
316.465 260.065 L
331.99 253.608 L
349.46 248.716 L
369.567 243.041 L
391.322 238.345 L
412.319 233.257 L
435.985 227.583 L
459.586 220.734 L
486.45 215.842 L
514.468 213.298 L
543.738 209.189 L
575.645 206.254 L
610.98 202.34 L
643.414 197.057 L
680.958 191.969 L
717.974 188.643 L
757.792 182.381 L
795.665 178.663 L
837.23 174.358 L
878.729 170.445 L
905.092 168 L
S
GR
GS
1 0 0 RC
1 LJ
2 LW
N
202.361 531.058 M
204.659 527.556 L
205.944 522.86 L
207.493 516.99 L
208.581 510.728 L
210.031 507.988 L
211.68 502.901 L
216.855 498.596 L
218.569 492.921 L
220.612 489.008 L
221.865 483.333 L
224.007 476.484 L
226.249 468.853 L
227.996 462.983 L
230.171 457.699 L
232.544 448.307 L
235.379 444.393 L
238.016 439.11 L
240.719 432.065 L
244.081 425.608 L
251.992 418.759 L
255.453 411.128 L
258.255 400.757 L
261.65 395.474 L
267.286 387.255 L
270.846 381.972 L
274.9 373.949 L
279.449 367.296 L
285.349 361.23 L
290.656 356.338 L
299.325 349.49 L
305.522 344.793 L
311.95 338.14 L
319.762 330.705 L
327.903 322.486 L
336.638 313.485 L
344.549 304.093 L
354.438 295.678 L
368.446 288.047 L
378.104 279.437 L
390.036 272.588 L
403.617 262.022 L
416.175 254.978 L
431.535 247.15 L
445.28 239.91 L
461.135 231.888 L
477.913 223.473 L
496.24 214.081 L
516.247 205.862 L
540.903 196.47 L
559.263 191.578 L
583.655 185.316 L
609.233 178.076 L
637.185 168.879 L
666.224 161.248 L
699.285 154.791 L
733.664 147.746 L
772.724 139.919 L
810.202 133.658 L
854.865 125.635 L
895.705 119.764 L
905.092 118.706 L
S
GR
GS
0 1 1 RC
[2 2] 0 setdash
2 LJ
2 LW
N
136.951 531.058 M
137.054 528.73 L
137.186 525.012 L
137.383 521.881 L
138.142 519.142 L
138.405 516.99 L
138.603 514.25 L
138.768 508.967 L
138.966 505.445 L
139.361 500.944 L
139.79 498.204 L
140.119 495.269 L
140.548 491.16 L
141.537 488.029 L
141.866 484.898 L
142.591 480.789 L
142.921 476.289 L
143.383 472.962 L
143.811 468.266 L
144.24 464.548 L
144.8 459.656 L
145.261 455.938 L
146.481 453.003 L
146.909 448.502 L
147.733 444.98 L
148.36 441.458 L
149.184 437.936 L
149.81 431.674 L
150.832 428.543 L
151.59 424.825 L
153.337 419.738 L
154.326 415.824 L
155.282 412.302 L
156.6 409.954 L
157.556 406.04 L
158.809 401.344 L
159.896 397.235 L
161.281 392.93 L
162.599 389.212 L
164.742 385.299 L
166.884 380.015 L
168.269 376.884 L
170.279 372.775 L
172.422 369.057 L
174.63 364.753 L
177.004 359.861 L
179.509 354.969 L
181.849 350.859 L
186.167 346.359 L
189.2 340.488 L
191.738 334.618 L
195.298 327.769 L
198.264 325.421 L
201.132 322.095 L
205.549 317.007 L
209.405 311.92 L
214.877 305.267 L
219.327 299.396 L
224.436 294.309 L
229.215 289.612 L
235.445 284.72 L
241.016 281.003 L
246.784 277.872 L
252.816 272.98 L
259.441 268.479 L
266.99 262.805 L
274.373 258.695 L
283.108 254.782 L
290.294 247.542 L
298.699 244.411 L
307.665 240.302 L
316.993 235.018 L
328.233 230.126 L
338.385 225.626 L
348.603 221.908 L
360.865 217.994 L
372.006 215.059 L
384.598 211.146 L
397.749 206.058 L
410.638 202.927 L
425.701 198.035 L
440.93 194.318 L
456.784 189.817 L
476.067 184.142 L
494.097 177.685 L
512.753 172.989 L
531.344 168.879 L
550.956 165.944 L
573.469 163.205 L
596.213 158.9 L
618.396 154.399 L
646.084 148.333 L
670.641 144.42 L
697.867 140.898 L
721.633 137.18 L
743.124 134.44 L
779.086 129.157 L
812.377 125.243 L
846.427 118.786 L
880.081 112.72 L
905.092 109.429 L
S
GR
GS
0 1 1 RC
1 LJ
2 LW
N
131.209 531.058 M
131.253 529.513 L
131.351 528.73 L
131.483 525.012 L
131.549 519.533 L
131.714 516.598 L
131.912 513.076 L
132.044 509.358 L
132.143 505.445 L
132.274 501.727 L
132.34 498.204 L
132.439 495.856 L
132.472 494.878 L
132.67 489.79 L
132.835 486.268 L
133.197 482.746 L
133.362 479.811 L
133.56 477.071 L
133.758 473.549 L
133.988 469.831 L
134.252 465.918 L
134.812 460.83 L
135.208 456.721 L
135.439 455.547 L
135.636 451.633 L
136.098 448.307 L
136.658 445.176 L
136.988 440.284 L
137.515 436.37 L
138.01 433.827 L
138.702 431.674 L
139.526 427.174 L
140.218 423.847 L
140.383 422.477 L
140.746 418.172 L
141.504 415.237 L
142.723 412.889 L
143.613 408.389 L
144.602 403.497 L
145.558 400.366 L
146.58 394.887 L
148.03 391.169 L
149.876 386.081 L
150.568 384.907 L
152.051 380.994 L
153.634 375.123 L
155.611 371.014 L
157.095 367.883 L
159.006 364.557 L
161.017 360.643 L
162.665 354.773 L
165.368 351.642 L
168.269 347.533 L
171.202 342.445 L
172.752 340.097 L
175.949 335.988 L
178.817 332.27 L
182.376 327.574 L
185.64 322.682 L
189.826 318.768 L
193.847 311.137 L
197.737 306.049 L
203.142 301.94 L
208.317 298.418 L
210.163 295.091 L
216.228 291.96 L
222.26 289.221 L
228.622 285.307 L
235.61 281.003 L
242.565 277.089 L
250.311 273.958 L
258.189 268.675 L
268.242 264.174 L
277.867 260.065 L
281.724 258.108 L
291.184 253.803 L
301.072 249.694 L
311.257 245.194 L
323.486 240.693 L
335.155 236.584 L
346.461 233.649 L
360.239 228.561 L
374.281 224.256 L
388.256 220.538 L
403.551 214.668 L
410.802 212.907 L
426.756 208.015 L
442.94 204.101 L
463.212 199.796 L
483.483 195.1 L
501.909 191.774 L
523.697 185.903 L
548.056 181.207 L
570.404 176.902 L
595.916 169.662 L
607.354 167.705 L
632.801 162.422 L
662.697 156.356 L
693.648 151.66 L
724.929 147.159 L
756.309 143.833 L
788.645 139.137 L
824.276 134.832 L
857.864 132.288 L
892.112 128.961 L
905.092 127.691 L
S
GR
GS
1 0 1 RC
[2 2] 0 setdash
2 LJ
2 LW
N
143.647 531.058 M
143.745 525.991 L
143.778 522.273 L
143.844 518.164 L
143.91 514.641 L
144.108 510.141 L
144.24 507.793 L
144.503 502.901 L
144.701 497.813 L
145.064 494.291 L
145.261 492.138 L
145.525 486.66 L
145.723 483.333 L
149.151 479.419 L
149.25 475.115 L
149.415 471.592 L
149.678 468.657 L
150.041 465.526 L
150.535 460.439 L
150.898 456.134 L
151.26 451.829 L
151.755 446.35 L
152.019 443.61 L
153.073 440.48 L
153.568 435.588 L
154.458 432.065 L
155.183 427.174 L
155.48 422.869 L
156.6 419.346 L
157.062 414.65 L
157.853 410.932 L
158.71 406.432 L
159.798 402.127 L
163.423 397.039 L
164.676 390.973 L
165.928 387.842 L
166.983 382.951 L
168.532 376.102 L
169.719 371.797 L
171.235 368.275 L
172.85 365.34 L
174.63 361.23 L
176.147 356.534 L
177.465 351.838 L
179.443 347.729 L
181.289 342.25 L
183.299 338.14 L
185.837 334.227 L
188.376 330.705 L
190.188 326.987 L
192.331 322.682 L
195.133 319.747 L
198.627 317.203 L
204.988 313.681 L
208.449 309.376 L
212.998 306.832 L
216.822 301.549 L
221.008 297.048 L
225.392 291.765 L
230.369 287.851 L
235.017 284.916 L
240.587 282.372 L
245.465 277.089 L
250.937 273.762 L
256.903 269.849 L
264.386 263.783 L
270.912 260.456 L
277.636 257.13 L
285.349 253.021 L
293.755 248.129 L
303.215 244.411 L
310.796 241.084 L
319.762 237.171 L
332.287 231.692 L
341.978 227.387 L
353.778 223.473 L
366.106 219.169 L
378.104 214.472 L
390.86 211.146 L
403.056 206.645 L
417.494 202.145 L
429.624 198.427 L
445.511 194.709 L
461.168 190.208 L
478.605 187.273 L
497.789 183.164 L
517.731 179.25 L
538.563 174.75 L
558.373 171.423 L
578.842 167.901 L
601.849 164.379 L
626.406 158.9 L
646.117 154.595 L
667.542 150.29 L
700.109 142.267 L
727.5 138.158 L
755.65 135.223 L
783.371 131.896 L
815.278 129.548 L
847.35 123.091 L
881.63 119.764 L
905.092 117.01 L
S
GR
GS
1 0 1 RC
1 LJ
2 LW
N
131.38 531.058 M
131.384 530.883 L
131.582 527.36 L
131.714 524.034 L
131.747 522.664 L
131.912 518.946 L
132.011 514.054 L
132.143 511.511 L
132.373 508.184 L
132.604 503.879 L
132.835 500.748 L
133.065 496.639 L
133.461 492.725 L
133.461 491.16 L
133.692 488.029 L
133.824 483.333 L
134.021 480.789 L
134.219 476.68 L
134.747 472.179 L
135.109 469.049 L
135.538 464.548 L
135.867 460.439 L
135.999 458.482 L
136.526 454.373 L
137.021 448.894 L
137.581 444.002 L
138.109 440.48 L
138.702 434.022 L
139.196 429.717 L
139.922 421.695 L
140.086 419.542 L
140.976 414.65 L
141.734 409.954 L
142.69 404.866 L
143.646 400.757 L
144.602 396.257 L
145.591 393.126 L
146.58 388.234 L
147.997 383.146 L
148.492 381.776 L
150.041 379.037 L
151.458 374.928 L
153.601 372.384 L
155.315 367.883 L
157.095 363.774 L
158.479 360.056 L
160.622 354.773 L
162.863 351.446 L
163.588 349.294 L
166.126 347.337 L
168.73 342.445 L
171.928 339.314 L
174.795 335.792 L
177.729 331.487 L
181.025 325.226 L
184.915 321.899 L
186.431 320.529 L
189.991 315.833 L
194.078 312.115 L
198.165 305.658 L
202.252 300.962 L
206.274 296.461 L
211.844 292.743 L
217.876 290.004 L
223.843 287.264 L
227.04 285.112 L
233.599 280.611 L
240.554 277.089 L
248.267 273.958 L
256.31 269.849 L
264.287 265.348 L
272.791 260.261 L
281.46 256.934 L
285.481 255.76 L
295.172 252.434 L
305.819 249.303 L
316.498 243.041 L
327.936 237.367 L
340.659 233.257 L
352.921 229.148 L
366.897 224.647 L
382.983 221.908 L
388.784 219.364 L
403.254 216.429 L
420.065 211.733 L
438.227 208.993 L
456.619 205.667 L
475.704 201.558 L
497.163 196.666 L
520.269 192.948 L
544.628 186.686 L
550.396 185.512 L
573.041 180.816 L
598.685 175.532 L
623.571 172.206 L
649.249 167.705 L
678.618 162.031 L
708.415 157.53 L
735.971 154.791 L
749.585 153.812 L
782.612 149.312 L
818.739 143.05 L
853.744 139.919 L
887.596 135.81 L
905.092 133.664 L
S
GR
GS
0 0 1 RC
[2 2] 0 setdash
2 LJ
2 LW
N
149.233 531.058 M
150.436 526.773 L
152.183 519.338 L
154.029 512.489 L
156.172 503.096 L
158.875 496.052 L
161.017 488.616 L
164.214 482.159 L
166.72 475.897 L
169.851 472.375 L
173.74 463.961 L
177.135 456.134 L
181.585 448.502 L
186.431 442.632 L
191.474 435.979 L
196.616 428.152 L
203.077 422.477 L
210.493 415.237 L
217.613 410.345 L
226.348 402.518 L
235.148 395.865 L
246.784 384.32 L
255.816 377.472 L
268.901 368.275 L
281.559 361.035 L
295.139 354.577 L
310.532 345.38 L
325.134 338.923 L
343.923 333.444 L
362.052 325.617 L
384.268 318.573 L
405.397 312.898 L
431.041 306.245 L
456.158 299.005 L
485.955 291.96 L
516.116 285.307 L
550.495 279.241 L
586.786 270.045 L
626.868 262.022 L
671.135 256.152 L
715.107 250.868 L
767.483 242.258 L
816.135 234.431 L
875.235 225.822 L
905.092 220.739 L
S
GR
GS
[2 2] 0 setdash
2 LJ
2 LW
N
134.001 531.058 M
134.054 526.969 L
134.12 523.643 L
134.12 519.925 L
134.153 516.402 L
134.186 513.272 L
134.252 510.141 L
134.252 506.227 L
134.351 503.292 L
134.812 500.161 L
134.845 496.248 L
134.911 493.117 L
135.043 490.573 L
135.142 488.029 L
135.307 484.116 L
135.373 479.419 L
135.505 475.506 L
135.604 471.592 L
135.834 468.462 L
136.493 464.744 L
136.625 461.417 L
136.79 457.308 L
136.988 453.394 L
137.021 449.676 L
137.416 444.98 L
137.581 440.871 L
137.746 438.914 L
138.043 434.805 L
139.13 432.653 L
139.493 428.152 L
139.823 423.651 L
140.02 420.129 L
140.482 416.607 L
140.713 411.715 L
141.141 406.432 L
141.734 403.497 L
142.031 399.779 L
143.086 397.626 L
143.448 393.321 L
143.745 391.952 L
144.503 387.451 L
145.195 382.559 L
146.184 379.037 L
146.712 375.71 L
147.536 371.406 L
148.459 368.079 L
149.25 363.578 L
151.293 359.665 L
152.051 357.512 L
153.37 354.382 L
154.524 350.272 L
155.677 344.402 L
157.029 341.467 L
158.149 338.923 L
159.831 334.031 L
161.709 330.313 L
164.676 328.357 L
166.126 325.421 L
168.203 322.095 L
170.279 317.594 L
172.653 313.485 L
175.224 308.202 L
177.366 304.093 L
179.97 300.179 L
183.299 294.7 L
186.661 291.765 L
190.221 288.243 L
193.485 285.699 L
197.341 281.59 L
201.297 276.698 L
205.285 271.61 L
209.076 267.109 L
213.361 263 L
217.481 259.282 L
221.898 253.803 L
228.325 249.89 L
233.105 245.585 L
240.389 241.867 L
247.147 236.975 L
252.849 233.453 L
260.232 230.322 L
268.143 227.191 L
273.978 223.473 L
281.592 218.973 L
292.733 214.668 L
302.885 210.754 L
312.114 206.254 L
322.761 201.166 L
332.386 197.644 L
344.219 193.339 L
352.46 190.404 L
364.623 185.708 L
378.566 181.598 L
393.563 177.489 L
408.495 172.206 L
423.361 167.705 L
439.578 163.4 L
456.29 159.487 L
474.419 155.769 L
488.197 150.681 L
505.139 146.572 L
523.993 141.68 L
543.606 136.984 L
567.042 132.288 L
588.961 127.004 L
611.738 122.113 L
636.921 117.416 L
646.513 115.46 L
678.486 110.763 L
706.174 107.632 L
735.411 103.915 L
761.912 100.588 L
795.171 95.892 L
828.627 92.565 L
862.314 88.065 L
893.628 85.521 L
905.092 84.723 L
S
GR
GS
1 LJ
2 LW
N
130.318 531.058 M
130.33 530.296 L
130.33 526.969 L
130.33 523.055 L
130.363 519.925 L
130.363 515.424 L
130.363 513.859 L
130.428 509.554 L
130.527 505.836 L
130.626 503.683 L
130.692 500.944 L
130.692 496.639 L
130.692 492.921 L
130.758 488.616 L
130.791 487.442 L
130.956 483.333 L
130.989 479.224 L
131.055 475.31 L
131.121 471.592 L
131.22 466.505 L
131.318 461.613 L
131.483 458.482 L
131.582 454.373 L
131.648 452.416 L
131.78 448.111 L
131.978 445.372 L
132.175 439.893 L
132.439 436.566 L
132.703 433.631 L
133 430.5 L
133.329 426.195 L
133.494 425.217 L
134.054 423.064 L
134.384 420.325 L
134.648 416.02 L
135.01 412.106 L
135.571 407.802 L
136.164 403.692 L
136.625 400.953 L
137.186 397.822 L
137.219 396.257 L
137.746 392.343 L
138.339 389.603 L
139.13 385.299 L
139.922 380.798 L
140.647 377.667 L
141.273 373.362 L
142.361 369.253 L
142.69 367.101 L
143.778 363.187 L
145.13 359.861 L
146.712 355.751 L
148.426 352.229 L
149.678 349.098 L
150.997 345.576 L
152.546 340.684 L
153.271 339.706 L
155.183 336.966 L
157.424 333.053 L
159.138 328.357 L
161.413 323.856 L
163.852 319.355 L
165.961 315.246 L
168.961 311.528 L
171.169 307.419 L
172.125 306.832 L
174.96 303.31 L
178.223 299.005 L
181.552 294.7 L
185.607 291.569 L
189.265 286.873 L
193.88 283.546 L
198 279.828 L
199.418 278.654 L
204.23 275.328 L
209.405 272.98 L
216.228 268.088 L
222.194 263.783 L
228.688 257.521 L
235.676 251.064 L
242.532 246.563 L
250.278 242.65 L
252.783 239.91 L
260.167 236.584 L
268.835 233.453 L
278.427 229.735 L
287.822 226.213 L
297.743 223.473 L
309.313 218.777 L
321.542 213.69 L
325.596 212.711 L
337.957 207.428 L
351.108 203.514 L
364.326 199.405 L
378.566 196.47 L
392.64 192.556 L
408.198 188.447 L
424.91 182.968 L
442.874 178.468 L
448.478 176.315 L
466.838 170.054 L
486.219 166.336 L
507.381 160.465 L
526.927 155.182 L
551.187 151.464 L
574.227 145.594 L
599.048 142.072 L
605.772 140.702 L
632.603 136.201 L
660.719 131.114 L
689.825 126.613 L
719.556 122.113 L
751.628 118.786 L
785.348 115.46 L
817.058 110.959 L
852.195 107.045 L
867.292 104.502 L
905.092 100.746 L
S
GR
%%Trailer
%%Pages: 1
%%EOF
