%!PS-Adobe-3.0 EPSF-3.0
%%Creator: (MATLAB, The Mathworks, Inc. Version 9.3.0.713579 \(R2017b\). Operating System: Mac OS X)
%%Title: ./ROCs_postmortem_72_closeup.eps
%%CreationDate: 2019-01-22T13:00:42
%%Pages: (atend)
%%BoundingBox:    48     5   927   587
%%LanguageLevel: 3
%%EndComments
%%BeginProlog
%%BeginResource: procset (Apache XML Graphics Std ProcSet) 1.2 0
%%Version: 1.2 0
%%Copyright: (Copyright 2001-2003,2010 The Apache Software Foundation. License terms: http://www.apache.org/licenses/LICENSE-2.0)
/bd{bind def}bind def
/ld{load def}bd
/GR/grestore ld
/GS/gsave ld
/RM/rmoveto ld
/C/curveto ld
/t/show ld
/L/lineto ld
/ML/setmiterlimit ld
/CT/concat ld
/f/fill ld
/N/newpath ld
/S/stroke ld
/CC/setcmykcolor ld
/A/ashow ld
/cp/closepath ld
/RC/setrgbcolor ld
/LJ/setlinejoin ld
/GC/setgray ld
/LW/setlinewidth ld
/M/moveto ld
/re {4 2 roll M
1 index 0 rlineto
0 exch rlineto
neg 0 rlineto
cp } bd
/_ctm matrix def
/_tm matrix def
/BT { _ctm currentmatrix pop matrix _tm copy pop 0 0 moveto } bd
/ET { _ctm setmatrix } bd
/iTm { _ctm setmatrix _tm concat } bd
/Tm { _tm astore pop iTm 0 0 moveto } bd
/ux 0.0 def
/uy 0.0 def
/F {
  /Tp exch def
  /Tf exch def
  Tf findfont Tp scalefont setfont
  /cf Tf def  /cs Tp def
} bd
/ULS {currentpoint /uy exch def /ux exch def} bd
/ULE {
  /Tcx currentpoint pop def
  gsave
  newpath
  cf findfont cs scalefont dup
  /FontMatrix get 0 get /Ts exch def /FontInfo get dup
  /UnderlinePosition get Ts mul /To exch def
  /UnderlineThickness get Ts mul /Tt exch def
  ux uy To add moveto  Tcx uy To add lineto
  Tt setlinewidth stroke
  grestore
} bd
/OLE {
  /Tcx currentpoint pop def
  gsave
  newpath
  cf findfont cs scalefont dup
  /FontMatrix get 0 get /Ts exch def /FontInfo get dup
  /UnderlinePosition get Ts mul /To exch def
  /UnderlineThickness get Ts mul /Tt exch def
  ux uy To add cs add moveto Tcx uy To add cs add lineto
  Tt setlinewidth stroke
  grestore
} bd
/SOE {
  /Tcx currentpoint pop def
  gsave
  newpath
  cf findfont cs scalefont dup
  /FontMatrix get 0 get /Ts exch def /FontInfo get dup
  /UnderlinePosition get Ts mul /To exch def
  /UnderlineThickness get Ts mul /Tt exch def
  ux uy To add cs 10 mul 26 idiv add moveto Tcx uy To add cs 10 mul 26 idiv add lineto
  Tt setlinewidth stroke
  grestore
} bd
/QT {
/Y22 exch store
/X22 exch store
/Y21 exch store
/X21 exch store
currentpoint
/Y21 load 2 mul add 3 div exch
/X21 load 2 mul add 3 div exch
/X21 load 2 mul /X22 load add 3 div
/Y21 load 2 mul /Y22 load add 3 div
/X22 load /Y22 load curveto
} bd
/SSPD {
dup length /d exch dict def
{
/v exch def
/k exch def
currentpagedevice k known {
/cpdv currentpagedevice k get def
v cpdv ne {
/upd false def
/nullv v type /nulltype eq def
/nullcpdv cpdv type /nulltype eq def
nullv nullcpdv or
{
/upd true def
} {
/sametype v type cpdv type eq def
sametype {
v type /arraytype eq {
/vlen v length def
/cpdvlen cpdv length def
vlen cpdvlen eq {
0 1 vlen 1 sub {
/i exch def
/obj v i get def
/cpdobj cpdv i get def
obj cpdobj ne {
/upd true def
exit
} if
} for
} {
/upd true def
} ifelse
} {
v type /dicttype eq {
v {
/dv exch def
/dk exch def
/cpddv cpdv dk get def
dv cpddv ne {
/upd true def
exit
} if
} forall
} {
/upd true def
} ifelse
} ifelse
} if
} ifelse
upd true eq {
d k v put
} if
} if
} if
} forall
d length 0 gt {
d setpagedevice
} if
} bd
/RE { % /NewFontName [NewEncodingArray] /FontName RE -
  findfont dup length dict begin
  {
    1 index /FID ne
    {def} {pop pop} ifelse
  } forall
  /Encoding exch def
  /FontName 1 index def
  currentdict definefont pop
  end
} bind def
%%EndResource
%%BeginResource: procset (Apache XML Graphics EPS ProcSet) 1.0 0
%%Version: 1.0 0
%%Copyright: (Copyright 2002-2003 The Apache Software Foundation. License terms: http://www.apache.org/licenses/LICENSE-2.0)
/BeginEPSF { %def
/b4_Inc_state save def         % Save state for cleanup
/dict_count countdictstack def % Count objects on dict stack
/op_count count 1 sub def      % Count objects on operand stack
userdict begin                 % Push userdict on dict stack
/showpage { } def              % Redefine showpage, { } = null proc
0 setgray 0 setlinecap         % Prepare graphics state
1 setlinewidth 0 setlinejoin
10 setmiterlimit [ ] 0 setdash newpath
/languagelevel where           % If level not equal to 1 then
{pop languagelevel             % set strokeadjust and
1 ne                           % overprint to their defaults.
{false setstrokeadjust false setoverprint
} if
} if
} bd
/EndEPSF { %def
count op_count sub {pop} repeat            % Clean up stacks
countdictstack dict_count sub {end} repeat
b4_Inc_state restore
} bd
%%EndResource
%FOPBeginFontDict
%%IncludeResource: font Courier-Oblique
%%IncludeResource: font Courier-BoldOblique
%%IncludeResource: font Courier-Bold
%%IncludeResource: font ZapfDingbats
%%IncludeResource: font Symbol
%%IncludeResource: font Helvetica
%%IncludeResource: font Helvetica-Oblique
%%IncludeResource: font Helvetica-Bold
%%IncludeResource: font Helvetica-BoldOblique
%%IncludeResource: font Times-Roman
%%IncludeResource: font Times-Italic
%%IncludeResource: font Times-Bold
%%IncludeResource: font Times-BoldItalic
%%IncludeResource: font Courier
%FOPEndFontDict
%%BeginResource: encoding WinAnsiEncoding
/WinAnsiEncoding [
/.notdef /.notdef /.notdef /.notdef /.notdef
/.notdef /.notdef /.notdef /.notdef /.notdef
/.notdef /.notdef /.notdef /.notdef /.notdef
/.notdef /.notdef /.notdef /.notdef /.notdef
/.notdef /.notdef /.notdef /.notdef /.notdef
/.notdef /.notdef /.notdef /.notdef /.notdef
/.notdef /.notdef /space /exclam /quotedbl
/numbersign /dollar /percent /ampersand /quotesingle
/parenleft /parenright /asterisk /plus /comma
/hyphen /period /slash /zero /one
/two /three /four /five /six
/seven /eight /nine /colon /semicolon
/less /equal /greater /question /at
/A /B /C /D /E
/F /G /H /I /J
/K /L /M /N /O
/P /Q /R /S /T
/U /V /W /X /Y
/Z /bracketleft /backslash /bracketright /asciicircum
/underscore /quoteleft /a /b /c
/d /e /f /g /h
/i /j /k /l /m
/n /o /p /q /r
/s /t /u /v /w
/x /y /z /braceleft /bar
/braceright /asciitilde /bullet /Euro /bullet
/quotesinglbase /florin /quotedblbase /ellipsis /dagger
/daggerdbl /circumflex /perthousand /Scaron /guilsinglleft
/OE /bullet /Zcaron /bullet /bullet
/quoteleft /quoteright /quotedblleft /quotedblright /bullet
/endash /emdash /asciitilde /trademark /scaron
/guilsinglright /oe /bullet /zcaron /Ydieresis
/space /exclamdown /cent /sterling /currency
/yen /brokenbar /section /dieresis /copyright
/ordfeminine /guillemotleft /logicalnot /sfthyphen /registered
/macron /degree /plusminus /twosuperior /threesuperior
/acute /mu /paragraph /middot /cedilla
/onesuperior /ordmasculine /guillemotright /onequarter /onehalf
/threequarters /questiondown /Agrave /Aacute /Acircumflex
/Atilde /Adieresis /Aring /AE /Ccedilla
/Egrave /Eacute /Ecircumflex /Edieresis /Igrave
/Iacute /Icircumflex /Idieresis /Eth /Ntilde
/Ograve /Oacute /Ocircumflex /Otilde /Odieresis
/multiply /Oslash /Ugrave /Uacute /Ucircumflex
/Udieresis /Yacute /Thorn /germandbls /agrave
/aacute /acircumflex /atilde /adieresis /aring
/ae /ccedilla /egrave /eacute /ecircumflex
/edieresis /igrave /iacute /icircumflex /idieresis
/eth /ntilde /ograve /oacute /ocircumflex
/otilde /odieresis /divide /oslash /ugrave
/uacute /ucircumflex /udieresis /yacute /thorn
/ydieresis
] def
%%EndResource
%FOPBeginFontReencode
/Courier-Oblique findfont
dup length dict begin
  {1 index /FID ne {def} {pop pop} ifelse} forall
  /Encoding WinAnsiEncoding def
  currentdict
end
/Courier-Oblique exch definefont pop
/Courier-BoldOblique findfont
dup length dict begin
  {1 index /FID ne {def} {pop pop} ifelse} forall
  /Encoding WinAnsiEncoding def
  currentdict
end
/Courier-BoldOblique exch definefont pop
/Courier-Bold findfont
dup length dict begin
  {1 index /FID ne {def} {pop pop} ifelse} forall
  /Encoding WinAnsiEncoding def
  currentdict
end
/Courier-Bold exch definefont pop
/Helvetica findfont
dup length dict begin
  {1 index /FID ne {def} {pop pop} ifelse} forall
  /Encoding WinAnsiEncoding def
  currentdict
end
/Helvetica exch definefont pop
/Helvetica-Oblique findfont
dup length dict begin
  {1 index /FID ne {def} {pop pop} ifelse} forall
  /Encoding WinAnsiEncoding def
  currentdict
end
/Helvetica-Oblique exch definefont pop
/Helvetica-Bold findfont
dup length dict begin
  {1 index /FID ne {def} {pop pop} ifelse} forall
  /Encoding WinAnsiEncoding def
  currentdict
end
/Helvetica-Bold exch definefont pop
/Helvetica-BoldOblique findfont
dup length dict begin
  {1 index /FID ne {def} {pop pop} ifelse} forall
  /Encoding WinAnsiEncoding def
  currentdict
end
/Helvetica-BoldOblique exch definefont pop
/Times-Roman findfont
dup length dict begin
  {1 index /FID ne {def} {pop pop} ifelse} forall
  /Encoding WinAnsiEncoding def
  currentdict
end
/Times-Roman exch definefont pop
/Times-Italic findfont
dup length dict begin
  {1 index /FID ne {def} {pop pop} ifelse} forall
  /Encoding WinAnsiEncoding def
  currentdict
end
/Times-Italic exch definefont pop
/Times-Bold findfont
dup length dict begin
  {1 index /FID ne {def} {pop pop} ifelse} forall
  /Encoding WinAnsiEncoding def
  currentdict
end
/Times-Bold exch definefont pop
/Times-BoldItalic findfont
dup length dict begin
  {1 index /FID ne {def} {pop pop} ifelse} forall
  /Encoding WinAnsiEncoding def
  currentdict
end
/Times-BoldItalic exch definefont pop
/Courier findfont
dup length dict begin
  {1 index /FID ne {def} {pop pop} ifelse} forall
  /Encoding WinAnsiEncoding def
  currentdict
end
/Courier exch definefont pop
%FOPEndFontReencode
%%EndProlog
%%Page: 1 1
%%PageBoundingBox: 0 0 1000 600
%%BeginPageSetup
[1 0 0 -1 0 600] CT
%%EndPageSetup
GS
1 GC
N
0 0 1000 600 re
f
GR
GS
1 GC
N
0 0 1000 600 re
f
GR
GS
1 GC
N
130 531 M
905 531 L
905 45 L
130 45 L
cp
f
GR
GS
0.873 GC
1 LJ
0.5 LW
N
130 531 M
130 45 L
S
GR
GS
0.873 GC
1 LJ
0.5 LW
N
285 531 M
285 45 L
S
GR
GS
0.873 GC
1 LJ
0.5 LW
N
440 531 M
440 45 L
S
GR
GS
0.873 GC
1 LJ
0.5 LW
N
595 531 M
595 45 L
S
GR
GS
0.873 GC
1 LJ
0.5 LW
N
750 531 M
750 45 L
S
GR
GS
0.873 GC
1 LJ
0.5 LW
N
905 531 M
905 45 L
S
GR
GS
0.873 GC
1 LJ
0.5 LW
N
905 531 M
130 531 L
S
GR
GS
0.873 GC
1 LJ
0.5 LW
N
905 470.25 M
130 470.25 L
S
GR
GS
0.873 GC
1 LJ
0.5 LW
N
905 409.5 M
130 409.5 L
S
GR
GS
0.873 GC
1 LJ
0.5 LW
N
905 348.75 M
130 348.75 L
S
GR
GS
0.873 GC
1 LJ
0.5 LW
N
905 288 M
130 288 L
S
GR
GS
0.873 GC
1 LJ
0.5 LW
N
905 227.25 M
130 227.25 L
S
GR
GS
0.873 GC
1 LJ
0.5 LW
N
905 166.5 M
130 166.5 L
S
GR
GS
0.873 GC
1 LJ
0.5 LW
N
905 105.75 M
130 105.75 L
S
GR
GS
0.873 GC
1 LJ
0.5 LW
N
905 45 M
130 45 L
S
GR
GS
0.149 GC
2 setlinecap
1 LJ
0.5 LW
N
130 531 M
905 531 L
S
GR
GS
0.149 GC
2 setlinecap
1 LJ
0.5 LW
N
130 45 M
905 45 L
S
GR
GS
0.149 GC
2 setlinecap
1 LJ
0.5 LW
N
130 531 M
130 523.25 L
S
GR
GS
0.149 GC
2 setlinecap
1 LJ
0.5 LW
N
285 531 M
285 523.25 L
S
GR
GS
0.149 GC
2 setlinecap
1 LJ
0.5 LW
N
440 531 M
440 523.25 L
S
GR
GS
0.149 GC
2 setlinecap
1 LJ
0.5 LW
N
595 531 M
595 523.25 L
S
GR
GS
0.149 GC
2 setlinecap
1 LJ
0.5 LW
N
750 531 M
750 523.25 L
S
GR
GS
0.149 GC
2 setlinecap
1 LJ
0.5 LW
N
905 531 M
905 523.25 L
S
GR
GS
0.149 GC
2 setlinecap
1 LJ
0.5 LW
N
130 45 M
130 52.75 L
S
GR
GS
0.149 GC
2 setlinecap
1 LJ
0.5 LW
N
285 45 M
285 52.75 L
S
GR
GS
0.149 GC
2 setlinecap
1 LJ
0.5 LW
N
440 45 M
440 52.75 L
S
GR
GS
0.149 GC
2 setlinecap
1 LJ
0.5 LW
N
595 45 M
595 52.75 L
S
GR
GS
0.149 GC
2 setlinecap
1 LJ
0.5 LW
N
750 45 M
750 52.75 L
S
GR
GS
0.149 GC
2 setlinecap
1 LJ
0.5 LW
N
905 45 M
905 52.75 L
S
GR
GS
[1 0 0 1 130 537.79999] CT
0.149 GC
/Helvetica 24 F
GS
[1 0 0 1 0 0] CT
-7 23 moveto 
1 -1 scale
(0) t 
GR
GR
GS
[1 0 0 1 285 537.79999] CT
0.149 GC
/Helvetica 24 F
GS
[1 0 0 1 0 0] CT
-23.5 23 moveto 
1 -1 scale
(0.01) t 
GR
GR
GS
[1 0 0 1 440 537.79999] CT
0.149 GC
/Helvetica 24 F
GS
[1 0 0 1 0 0] CT
-23.5 23 moveto 
1 -1 scale
(0.02) t 
GR
GR
GS
[1 0 0 1 595 537.79999] CT
0.149 GC
/Helvetica 24 F
GS
[1 0 0 1 0 0] CT
-23.5 23 moveto 
1 -1 scale
(0.03) t 
GR
GR
GS
[1 0 0 1 750 537.79999] CT
0.149 GC
/Helvetica 24 F
GS
[1 0 0 1 0 0] CT
-23.5 23 moveto 
1 -1 scale
(0.04) t 
GR
GR
GS
[1 0 0 1 905 537.79999] CT
0.149 GC
/Helvetica 24 F
GS
[1 0 0 1 0 0] CT
-23.5 23 moveto 
1 -1 scale
(0.05) t 
GR
GR
GS
[1 0 0 1 517.50037 567.79993] CT
0.149 GC
/Helvetica 26.4 F
GS
[1 0 0 1 0 0] CT
-103.5 26 moveto 
1 -1 scale
(False Match Rate) t 
GR
GR
GS
0.149 GC
2 setlinecap
1 LJ
0.5 LW
N
130 531 M
130 45 L
S
GR
GS
0.149 GC
2 setlinecap
1 LJ
0.5 LW
N
905 531 M
905 45 L
S
GR
GS
0.149 GC
2 setlinecap
1 LJ
0.5 LW
N
130 531 M
137.75 531 L
S
GR
GS
0.149 GC
2 setlinecap
1 LJ
0.5 LW
N
130 470.25 M
137.75 470.25 L
S
GR
GS
0.149 GC
2 setlinecap
1 LJ
0.5 LW
N
130 409.5 M
137.75 409.5 L
S
GR
GS
0.149 GC
2 setlinecap
1 LJ
0.5 LW
N
130 348.75 M
137.75 348.75 L
S
GR
GS
0.149 GC
2 setlinecap
1 LJ
0.5 LW
N
130 288 M
137.75 288 L
S
GR
GS
0.149 GC
2 setlinecap
1 LJ
0.5 LW
N
130 227.25 M
137.75 227.25 L
S
GR
GS
0.149 GC
2 setlinecap
1 LJ
0.5 LW
N
130 166.5 M
137.75 166.5 L
S
GR
GS
0.149 GC
2 setlinecap
1 LJ
0.5 LW
N
130 105.75 M
137.75 105.75 L
S
GR
GS
0.149 GC
2 setlinecap
1 LJ
0.5 LW
N
130 45 M
137.75 45 L
S
GR
GS
0.149 GC
2 setlinecap
1 LJ
0.5 LW
N
905 531 M
897.25 531 L
S
GR
GS
0.149 GC
2 setlinecap
1 LJ
0.5 LW
N
905 470.25 M
897.25 470.25 L
S
GR
GS
0.149 GC
2 setlinecap
1 LJ
0.5 LW
N
905 409.5 M
897.25 409.5 L
S
GR
GS
0.149 GC
2 setlinecap
1 LJ
0.5 LW
N
905 348.75 M
897.25 348.75 L
S
GR
GS
0.149 GC
2 setlinecap
1 LJ
0.5 LW
N
905 288 M
897.25 288 L
S
GR
GS
0.149 GC
2 setlinecap
1 LJ
0.5 LW
N
905 227.25 M
897.25 227.25 L
S
GR
GS
0.149 GC
2 setlinecap
1 LJ
0.5 LW
N
905 166.5 M
897.25 166.5 L
S
GR
GS
0.149 GC
2 setlinecap
1 LJ
0.5 LW
N
905 105.75 M
897.25 105.75 L
S
GR
GS
0.149 GC
2 setlinecap
1 LJ
0.5 LW
N
905 45 M
897.25 45 L
S
GR
GS
[1 0 0 1 123.2 531] CT
0.149 GC
/Helvetica 24 F
GS
[1 0 0 1 0 0] CT
-47 8.5 moveto 
1 -1 scale
(0.55) t 
GR
GR
GS
[1 0 0 1 123.2 470.24997] CT
0.149 GC
/Helvetica 24 F
GS
[1 0 0 1 0 0] CT
-34 8.5 moveto 
1 -1 scale
(0.6) t 
GR
GR
GS
[1 0 0 1 123.2 409.50003] CT
0.149 GC
/Helvetica 24 F
GS
[1 0 0 1 0 0] CT
-47 8.5 moveto 
1 -1 scale
(0.65) t 
GR
GR
GS
[1 0 0 1 123.2 348.75] CT
0.149 GC
/Helvetica 24 F
GS
[1 0 0 1 0 0] CT
-34 8.5 moveto 
1 -1 scale
(0.7) t 
GR
GR
GS
[1 0 0 1 123.2 288] CT
0.149 GC
/Helvetica 24 F
GS
[1 0 0 1 0 0] CT
-47 8.5 moveto 
1 -1 scale
(0.75) t 
GR
GR
GS
[1 0 0 1 123.2 227.24998] CT
0.149 GC
/Helvetica 24 F
GS
[1 0 0 1 0 0] CT
-34 8.5 moveto 
1 -1 scale
(0.8) t 
GR
GR
GS
[1 0 0 1 123.2 166.49997] CT
0.149 GC
/Helvetica 24 F
GS
[1 0 0 1 0 0] CT
-47 8.5 moveto 
1 -1 scale
(0.85) t 
GR
GR
GS
[1 0 0 1 123.2 105.75003] CT
0.149 GC
/Helvetica 24 F
GS
[1 0 0 1 0 0] CT
-34 8.5 moveto 
1 -1 scale
(0.9) t 
GR
GR
GS
[1 0 0 1 123.2 45.00002] CT
0.149 GC
/Helvetica 24 F
GS
[1 0 0 1 0 0] CT
-47 8.5 moveto 
1 -1 scale
(0.95) t 
GR
GR
GS
[0 -1 1 0 73.2 287.99979] CT
0.149 GC
/Helvetica 26.4 F
GS
[1 0 0 1 0 0] CT
-153 -6 moveto 
1 -1 scale
(1 - False Non-Match Rate) t 
GR
GR
GS
[1 0 0 1 517.50049 38.40005] CT
/Helvetica-Bold 26.4 F
GS
[1 0 0 1 0 0] CT
-279.5 -6 moveto 
1 -1 scale
(Data acquired less than 72 hours after death) t 
GR
GR
GS
0 0 1 RC
1 LJ
2 LW
N
198.566 531.058 M
200.806 528.648 L
203.471 523.485 L
206.303 521.191 L
209.469 517.749 L
212.718 516.028 L
216.05 510.865 L
221.131 508.57 L
226.046 506.275 L
229.128 502.834 L
233.043 498.244 L
241.29 495.95 L
247.371 491.361 L
252.619 489.066 L
259.116 486.771 L
266.28 484.477 L
277.109 479.887 L
286.189 473.004 L
296.851 468.414 L
305.931 464.972 L
316.344 461.53 L
329.422 459.236 L
340.834 455.22 L
356.161 449.484 L
370.239 445.468 L
387.149 441.453 L
404.059 435.142 L
423.968 431.127 L
443.044 427.111 L
465.202 420.227 L
489.442 417.359 L
516.348 414.491 L
544.504 413.917 L
577.241 411.622 L
611.394 405.886 L
645.048 401.297 L
686.032 396.708 L
723.184 392.118 L
767.167 389.25 L
811.233 384.661 L
860.463 381.792 L
905.092 379.803 L
S
GR
GS
0 1 0 RC
1 LJ
2 LW
N
130 531.058 M
130 530.369 L
130 530.369 L
130 528.074 L
130 524.632 L
130 518.322 L
130 512.586 L
130 506.275 L
130 503.407 L
130 499.965 L
130 495.95 L
130 491.934 L
130 488.492 L
130 483.903 L
130 478.74 L
130 477.019 L
130 472.43 L
130 466.693 L
130 463.825 L
130 460.957 L
130.083 455.794 L
130.083 451.778 L
130.083 448.336 L
130.167 441.453 L
130.167 438.011 L
130.167 433.421 L
130.167 427.111 L
130.167 423.096 L
130.167 419.08 L
130.167 413.343 L
130.167 407.033 L
130.167 400.149 L
130.167 394.987 L
130.167 390.397 L
130.25 386.382 L
130.333 381.792 L
130.417 377.777 L
130.417 372.04 L
130.417 367.451 L
130.417 366.304 L
130.5 360.567 L
130.833 357.125 L
131 350.815 L
131.083 344.505 L
131.166 341.063 L
131.583 337.047 L
131.666 334.179 L
131.666 327.869 L
131.916 324.427 L
132.166 319.264 L
132.499 315.822 L
132.749 312.38 L
133.082 311.807 L
133.332 310.086 L
133.832 307.791 L
134.498 305.496 L
135.331 302.628 L
135.748 299.186 L
136.331 296.318 L
137.83 290.008 L
138.747 288.287 L
139.829 285.992 L
141.662 282.55 L
142.995 280.829 L
143.995 278.535 L
145.91 272.798 L
147.826 268.783 L
149.826 267.062 L
152.824 265.341 L
155.407 263.62 L
158.655 261.899 L
161.987 256.162 L
165.819 251.573 L
170.151 250.426 L
175.482 246.984 L
180.73 241.247 L
186.644 238.953 L
192.392 238.379 L
199.806 236.084 L
208.969 230.921 L
218.632 225.758 L
228.378 223.464 L
240.123 221.169 L
250.953 218.301 L
260.449 217.154 L
273.027 214.859 L
287.771 212.564 L
301.766 210.843 L
317.426 207.975 L
335.753 204.533 L
352.496 201.665 L
371.738 199.944 L
392.147 197.649 L
413.722 195.928 L
435.13 193.634 L
460.62 191.913 L
482.945 189.045 L
509.851 187.324 L
534.175 187.324 L
563.413 183.308 L
590.653 182.161 L
623.723 181.013 L
653.295 179.292 L
682.533 178.719 L
709.606 178.145 L
740.927 174.703 L
770.665 172.982 L
800.903 171.835 L
831.725 170.688 L
860.297 168.393 L
892.867 167.819 L
905.092 167.569 L
S
GR
GS
1 0 0 RC
1 LJ
2 LW
N
174.566 531.058 M
174.566 529.795 L
174.649 526.927 L
174.732 526.353 L
174.732 523.485 L
174.732 521.764 L
174.732 514.307 L
185.811 510.291 L
185.811 505.128 L
185.811 502.834 L
185.978 501.113 L
186.061 498.244 L
186.228 495.95 L
186.311 492.508 L
186.478 485.05 L
186.644 482.182 L
186.811 477.593 L
186.894 474.151 L
186.894 472.43 L
186.978 469.562 L
187.061 466.12 L
187.311 462.104 L
187.394 460.957 L
187.394 456.941 L
187.561 456.368 L
187.644 452.926 L
187.894 450.631 L
188.144 447.763 L
188.31 444.894 L
188.31 441.453 L
188.644 437.437 L
188.81 433.995 L
189.393 427.685 L
189.477 424.243 L
189.727 419.654 L
189.976 416.212 L
190.643 412.196 L
190.809 408.181 L
194.975 401.87 L
195.058 400.149 L
195.724 396.708 L
196.057 392.118 L
196.641 388.676 L
196.724 384.087 L
197.14 382.94 L
197.474 381.219 L
198.057 378.924 L
204.804 376.63 L
205.304 374.335 L
205.72 372.614 L
205.887 369.172 L
206.803 365.73 L
207.303 362.862 L
207.969 357.125 L
209.052 356.552 L
209.469 352.536 L
209.802 347.947 L
211.052 344.505 L
211.301 343.358 L
211.968 338.195 L
212.551 337.047 L
214.05 335.9 L
214.384 329.016 L
214.883 327.295 L
215.883 324.427 L
217.132 322.132 L
217.882 318.117 L
219.048 314.675 L
220.131 312.38 L
221.131 308.365 L
226.795 307.217 L
227.378 302.055 L
228.545 298.039 L
230.044 294.023 L
231.044 288.861 L
232.376 285.419 L
233.209 283.124 L
234.292 279.682 L
236.042 275.093 L
239.041 273.945 L
240.623 270.504 L
243.039 269.356 L
245.538 267.062 L
246.954 261.899 L
249.536 259.604 L
250.869 259.03 L
253.452 253.868 L
256.2 250.999 L
263.531 246.41 L
266.863 245.263 L
269.029 244.115 L
272.028 240.674 L
275.443 233.79 L
278.525 232.069 L
282.107 227.479 L
285.772 224.038 L
290.187 222.317 L
294.186 218.875 L
298.101 214.859 L
303.015 213.138 L
307.847 209.696 L
316.76 205.107 L
321.008 201.665 L
325.59 198.797 L
331.004 197.076 L
336.252 194.208 L
341.584 192.487 L
348.914 187.897 L
353.829 185.603 L
360.16 182.161 L
368.157 179.292 L
375.404 176.998 L
381.984 174.703 L
390.315 174.13 L
398.894 171.261 L
407.641 167.819 L
415.638 166.098 L
426.134 162.657 L
435.38 159.215 L
447.459 155.773 L
458.871 155.199 L
470.366 153.478 L
481.445 151.183 L
493.441 149.462 L
507.185 143.726 L
520.097 142.005 L
532.259 136.842 L
547.919 135.121 L
566.745 133.974 L
581.656 132.253 L
601.065 131.106 L
619.308 129.385 L
639.3 125.943 L
662.041 123.648 L
680.451 121.927 L
699.526 120.206 L
724.267 117.911 L
748.091 115.617 L
771.582 113.896 L
792.823 113.322 L
818.23 112.175 L
847.468 111.028 L
875.208 108.159 L
900.531 106.438 L
905.092 106.141 L
S
GR
GS
0 1 1 RC
[2 2] 0 setdash
2 LJ
2 LW
N
130.083 531.058 M
130.083 530.943 L
130.083 528.074 L
130.167 526.353 L
130.167 522.911 L
130.167 519.47 L
130.167 513.733 L
130.167 513.159 L
130.167 509.717 L
130.167 506.849 L
130.167 503.981 L
130.167 499.965 L
130.167 497.671 L
130.167 493.655 L
130.167 490.213 L
130.25 486.198 L
130.25 484.477 L
130.25 479.887 L
130.25 475.872 L
130.25 470.135 L
130.25 465.546 L
130.333 464.399 L
130.417 462.104 L
130.5 459.81 L
130.583 455.22 L
130.583 450.057 L
130.666 443.747 L
130.75 443.173 L
130.833 439.732 L
130.833 436.29 L
130.833 433.421 L
130.833 429.979 L
130.916 423.669 L
130.916 420.801 L
130.916 417.933 L
130.916 413.343 L
130.916 409.328 L
130.916 404.739 L
130.916 401.297 L
130.916 396.134 L
131 394.987 L
131 392.692 L
131.083 390.397 L
131.083 388.676 L
131.166 388.676 L
131.25 385.234 L
131.416 382.366 L
131.499 377.777 L
131.499 372.614 L
131.666 369.746 L
131.833 365.157 L
132.249 362.862 L
132.332 359.994 L
132.499 357.699 L
132.666 355.404 L
132.916 350.241 L
132.999 349.094 L
132.999 346.8 L
133.165 345.652 L
133.249 342.784 L
133.415 338.195 L
133.499 334.753 L
133.665 333.032 L
133.665 330.737 L
133.915 330.164 L
134.082 326.722 L
134.332 323.853 L
134.415 322.706 L
134.665 321.559 L
134.998 316.97 L
135.248 310.659 L
136.081 307.791 L
136.414 306.07 L
136.664 302.628 L
136.997 299.186 L
137.58 294.597 L
138.913 291.155 L
139.829 288.287 L
140.746 284.845 L
141.662 283.124 L
142.328 280.829 L
142.912 276.814 L
143.745 273.372 L
144.994 272.225 L
145.744 268.209 L
146.494 265.914 L
147.327 263.62 L
148.326 263.046 L
149.492 260.178 L
150.742 257.31 L
152.491 253.294 L
153.741 248.705 L
155.407 242.968 L
157.573 239.526 L
160.072 236.084 L
161.154 233.79 L
162.737 230.921 L
164.237 229.2 L
166.402 228.053 L
169.734 226.906 L
172.567 225.758 L
175.565 222.89 L
177.231 218.875 L
181.48 214.859 L
184.479 211.417 L
188.144 209.123 L
192.392 206.254 L
196.307 203.386 L
200.722 202.812 L
205.304 201.091 L
209.719 198.223 L
214.883 197.649 L
220.131 194.781 L
225.796 190.766 L
232.793 187.897 L
237.791 185.603 L
244.205 182.734 L
249.203 179.866 L
255.784 175.277 L
263.114 174.13 L
272.194 170.688 L
280.024 167.819 L
288.938 164.951 L
298.684 163.804 L
307.18 161.509 L
318.176 159.788 L
327.423 158.067 L
338.168 156.92 L
348.498 155.773 L
361.326 153.478 L
374.904 151.183 L
385.733 150.036 L
400.227 146.594 L
415.305 144.3 L
430.965 142.579 L
446.792 141.431 L
464.535 139.137 L
483.528 137.989 L
501.521 135.121 L
516.515 133.974 L
536.59 132.253 L
557.416 130.532 L
582.322 129.958 L
599.232 129.385 L
625.389 127.664 L
656.793 124.795 L
669.455 123.074 L
700.609 121.927 L
729.348 117.911 L
756.504 115.617 L
787.659 112.749 L
820.729 111.028 L
854.466 109.88 L
879.789 109.307 L
905.092 108.916 L
S
GR
GS
0 1 1 RC
1 LJ
2 LW
N
130.167 531.058 M
130.167 526.927 L
130.167 521.764 L
130.25 518.322 L
130.25 518.322 L
130.25 515.454 L
130.25 512.012 L
130.25 509.717 L
130.25 506.275 L
130.25 503.981 L
130.333 499.965 L
130.333 495.376 L
130.333 494.229 L
130.333 490.213 L
130.333 487.919 L
130.417 483.903 L
130.417 482.182 L
130.417 481.035 L
130.417 475.298 L
130.417 470.709 L
130.417 465.546 L
130.5 462.104 L
130.5 456.941 L
130.5 454.073 L
130.583 447.763 L
130.666 444.894 L
130.666 443.173 L
130.75 438.584 L
130.833 434.569 L
130.833 431.127 L
130.833 426.538 L
131 420.227 L
131.083 418.506 L
131.083 416.212 L
131.083 415.638 L
131.083 413.343 L
131.083 411.049 L
131.083 409.328 L
131.166 405.886 L
131.166 403.018 L
131.25 400.723 L
131.25 398.428 L
131.333 394.987 L
131.333 390.971 L
131.583 387.529 L
131.833 383.513 L
131.916 380.645 L
132.083 377.777 L
132.083 376.056 L
132.249 373.761 L
132.666 369.172 L
132.749 366.877 L
132.832 364.583 L
132.832 360.567 L
132.916 355.404 L
133.082 354.257 L
133.082 353.11 L
133.415 351.389 L
133.499 347.947 L
133.832 345.652 L
133.832 342.21 L
133.998 339.916 L
134.248 338.195 L
134.332 335.9 L
134.415 331.311 L
134.665 328.443 L
134.998 327.869 L
135.415 323.28 L
135.998 318.117 L
136.581 315.822 L
136.581 314.675 L
137.414 311.807 L
137.664 307.217 L
138.497 304.349 L
139.163 301.481 L
139.996 298.613 L
140.829 295.744 L
141.412 294.023 L
141.912 290.581 L
142.162 285.992 L
142.578 282.55 L
143.661 280.256 L
144.744 275.093 L
145.661 269.356 L
146.91 266.488 L
147.41 265.914 L
149.076 262.472 L
150.242 258.457 L
152.241 255.015 L
153.657 254.441 L
155.073 251.573 L
156.906 249.278 L
157.656 248.705 L
159.239 245.263 L
161.488 244.115 L
163.57 242.394 L
165.569 236.658 L
168.568 234.363 L
171.484 230.921 L
172.733 230.921 L
176.815 228.053 L
179.897 224.038 L
182.896 221.169 L
186.061 219.448 L
188.644 215.433 L
193.059 210.27 L
197.64 207.975 L
199.223 206.254 L
203.971 203.386 L
209.552 202.239 L
213.8 199.37 L
218.798 197.649 L
224.796 194.208 L
230.377 191.913 L
232.71 189.618 L
241.873 187.897 L
249.12 185.603 L
257.783 184.455 L
265.447 183.308 L
277.026 178.145 L
287.522 175.851 L
291.437 175.277 L
301.766 174.13 L
311.429 171.835 L
323.591 168.967 L
333.587 166.098 L
347.081 164.951 L
360.659 163.804 L
366.241 162.657 L
379.985 160.362 L
394.146 158.641 L
408.641 155.199 L
423.635 152.904 L
440.461 148.315 L
456.622 146.594 L
476.864 145.447 L
483.445 144.873 L
504.52 143.726 L
528.427 140.858 L
549.752 140.284 L
572.66 137.989 L
596.317 136.268 L
623.556 134.547 L
632.886 132.827 L
659.875 130.532 L
688.531 128.237 L
718.269 125.369 L
747.341 121.927 L
781.661 119.632 L
816.147 118.485 L
829.476 117.338 L
864.462 116.19 L
900.947 115.043 L
905.092 114.708 L
S
GR
GS
1 0 1 RC
[2 2] 0 setdash
2 LJ
2 LW
N
130 531.058 M
130 529.795 L
130 527.501 L
130 525.206 L
130.083 522.911 L
130.083 519.47 L
130.083 514.88 L
130.083 513.733 L
130.083 512.012 L
130.083 509.144 L
130.167 505.128 L
130.167 500.539 L
130.167 498.818 L
130.25 495.95 L
130.25 494.229 L
130.25 492.508 L
130.25 489.066 L
130.25 485.05 L
130.25 483.329 L
130.333 480.461 L
130.333 478.74 L
130.333 476.445 L
130.333 473.577 L
130.333 469.562 L
130.333 466.12 L
130.333 462.104 L
130.333 455.794 L
130.333 454.073 L
130.333 445.468 L
130.333 442.6 L
130.333 438.584 L
130.333 435.142 L
130.333 432.848 L
130.333 429.979 L
130.5 424.817 L
130.583 421.948 L
130.583 413.343 L
130.583 412.196 L
130.583 409.902 L
130.833 405.886 L
131 404.165 L
131.083 400.723 L
131.083 397.855 L
131.25 394.987 L
131.25 391.545 L
131.333 388.103 L
131.333 382.94 L
131.416 380.072 L
131.666 378.351 L
131.916 373.761 L
131.999 368.598 L
131.999 366.304 L
132.166 365.157 L
132.166 358.846 L
132.249 354.831 L
132.832 347.947 L
132.999 345.079 L
132.999 341.637 L
133.165 336.474 L
133.415 334.179 L
133.915 330.164 L
134.165 327.295 L
134.248 323.853 L
134.831 322.132 L
135.165 318.69 L
135.664 315.822 L
135.914 312.38 L
136.081 309.512 L
136.997 307.217 L
137.58 302.055 L
138.163 298.613 L
138.996 294.597 L
139.413 291.729 L
140.163 289.434 L
140.829 287.139 L
141.329 285.419 L
141.912 281.403 L
143.078 279.108 L
144.161 275.666 L
144.828 271.077 L
145.661 266.488 L
146.91 260.751 L
148.076 257.31 L
148.993 255.015 L
150.159 249.852 L
151.575 246.984 L
152.824 242.394 L
153.991 238.953 L
155.24 237.232 L
157.489 234.363 L
160.072 230.921 L
162.071 226.906 L
164.57 225.758 L
165.486 222.317 L
167.569 219.448 L
169.818 217.727 L
171.9 217.154 L
175.565 214.859 L
178.481 213.712 L
182.396 210.843 L
185.978 207.402 L
189.143 205.681 L
193.308 199.37 L
196.89 197.076 L
201.055 195.355 L
206.053 193.06 L
210.302 188.471 L
215.133 186.176 L
220.798 185.029 L
225.712 182.734 L
232.21 181.013 L
238.707 178.719 L
243.789 176.424 L
249.203 176.424 L
257.117 175.277 L
265.53 173.556 L
273.36 171.261 L
280.441 167.246 L
289.021 166.672 L
298.767 162.657 L
309.513 160.362 L
317.26 159.215 L
326.756 159.215 L
341.334 157.494 L
353.995 154.625 L
364.491 150.61 L
375.57 147.741 L
390.981 145.447 L
405.892 144.3 L
418.97 141.431 L
435.713 140.284 L
454.956 137.989 L
475.031 136.842 L
492.608 133.974 L
512.35 132.253 L
535.757 130.532 L
558.665 128.811 L
573.909 126.516 L
599.732 125.369 L
627.471 121.353 L
649.296 120.206 L
674.37 118.485 L
703.192 117.338 L
735.096 115.617 L
762.585 113.896 L
786.076 112.175 L
822.312 111.601 L
857.048 109.88 L
891.118 108.159 L
905.092 107.943 L
S
GR
GS
1 0 1 RC
1 LJ
2 LW
N
130.083 531.058 M
130.083 530.369 L
130.083 526.353 L
130.083 525.78 L
130.083 522.911 L
130.083 520.043 L
130.083 518.322 L
130.083 514.307 L
130.083 510.865 L
130.25 505.702 L
130.25 504.555 L
130.25 503.981 L
130.25 502.26 L
130.25 498.818 L
130.25 495.376 L
130.25 491.934 L
130.25 489.066 L
130.25 487.919 L
130.333 486.771 L
130.333 481.035 L
130.333 479.887 L
130.333 475.872 L
130.333 471.856 L
130.333 470.135 L
130.333 466.693 L
130.333 460.957 L
130.333 456.368 L
130.333 455.794 L
130.417 452.352 L
130.417 448.336 L
130.417 443.747 L
130.5 438.584 L
130.583 433.421 L
130.666 430.553 L
130.666 427.685 L
130.666 427.111 L
130.666 420.227 L
130.666 417.359 L
130.833 413.343 L
130.916 411.049 L
131 407.033 L
131.25 404.165 L
131.25 401.297 L
131.499 394.987 L
131.499 393.839 L
131.583 391.545 L
131.749 388.676 L
131.833 381.792 L
131.916 377.777 L
131.916 369.746 L
132.166 366.877 L
132.166 366.304 L
132.416 361.141 L
132.499 357.699 L
132.666 351.962 L
132.832 349.094 L
133.332 345.652 L
133.665 341.637 L
133.749 337.621 L
133.749 335.9 L
134.082 334.179 L
134.415 329.016 L
134.831 327.295 L
135.248 325.001 L
135.664 322.706 L
135.998 319.264 L
136.747 316.396 L
136.747 315.822 L
137.33 310.659 L
138.08 306.644 L
138.913 303.202 L
139.746 298.613 L
140.496 291.729 L
141.079 284.845 L
142.412 280.829 L
143.078 277.387 L
143.245 276.24 L
144.161 271.077 L
145.077 267.635 L
145.827 265.341 L
146.993 263.046 L
147.91 260.751 L
149.159 256.162 L
149.492 255.015 L
150.742 252.72 L
151.991 250.426 L
154.657 248.705 L
156.573 243.542 L
158.905 240.1 L
160.072 236.084 L
162.071 233.216 L
162.904 232.642 L
164.653 229.2 L
167.152 228.627 L
169.568 225.185 L
173.15 224.038 L
176.398 221.169 L
179.231 219.448 L
182.729 213.712 L
186.395 212.564 L
187.561 212.564 L
190.893 210.843 L
194.725 207.975 L
199.473 202.812 L
203.721 202.239 L
208.969 199.37 L
213.884 197.076 L
215.633 195.928 L
222.797 193.634 L
228.711 193.06 L
234.542 189.045 L
241.873 187.897 L
249.453 183.882 L
257.033 181.013 L
266.03 177.572 L
268.279 175.851 L
276.692 174.13 L
286.189 172.982 L
295.935 170.114 L
305.431 167.819 L
316.677 165.525 L
328.089 162.083 L
340.417 159.215 L
344.916 158.067 L
356.161 156.92 L
370.406 156.346 L
385.15 153.478 L
401.56 150.61 L
419.886 148.889 L
437.962 146.021 L
457.538 145.447 L
464.285 143.152 L
482.112 142.005 L
503.27 140.284 L
529.51 138.563 L
549.919 137.989 L
574.076 133.4 L
601.565 131.106 L
625.556 129.385 L
632.303 129.385 L
661.791 127.09 L
693.945 124.795 L
724.183 123.648 L
754.338 123.074 L
789.824 119.632 L
827.143 117.911 L
865.128 117.338 L
879.706 116.764 L
905.092 115.264 L
S
GR
GS
0 0 1 RC
[2 2] 0 setdash
2 LJ
2 LW
N
132.974 531.058 M
132.999 530.369 L
133.165 525.78 L
133.332 525.78 L
133.332 519.47 L
133.332 517.749 L
133.749 514.307 L
133.832 511.438 L
133.998 506.275 L
134.248 500.539 L
134.665 498.818 L
134.665 497.671 L
134.748 495.95 L
134.998 492.508 L
135.165 490.787 L
135.331 486.771 L
135.498 486.771 L
135.664 483.903 L
135.748 478.166 L
135.748 474.151 L
135.831 470.135 L
136.248 466.12 L
136.414 462.104 L
136.664 459.236 L
136.831 455.22 L
137.914 452.926 L
138.163 447.763 L
138.413 442.026 L
139.496 439.158 L
139.58 435.716 L
139.913 433.421 L
140.496 429.406 L
140.912 423.096 L
140.996 419.654 L
141.412 411.622 L
141.995 407.607 L
143.495 405.312 L
143.495 403.591 L
144.244 398.428 L
145.577 395.56 L
145.91 390.397 L
146.827 384.661 L
147.41 380.072 L
149.076 375.482 L
150.075 372.04 L
151.158 366.877 L
151.908 364.009 L
153.657 359.42 L
154.657 353.11 L
155.823 346.8 L
157.739 341.637 L
159.322 337.621 L
160.321 333.606 L
161.738 332.458 L
164.07 329.016 L
164.903 326.722 L
166.736 324.427 L
168.652 322.132 L
171.151 315.822 L
172.317 310.086 L
173.983 307.217 L
176.648 305.496 L
178.981 303.202 L
181.48 302.628 L
183.063 299.76 L
186.478 297.465 L
189.227 292.302 L
192.392 288.861 L
196.307 287.139 L
201.722 284.845 L
205.72 281.403 L
210.635 277.961 L
216.799 274.519 L
222.131 271.651 L
226.962 266.488 L
232.21 263.046 L
238.707 259.03 L
246.288 254.441 L
253.452 250.426 L
260.199 247.557 L
268.029 245.263 L
274.193 241.821 L
282.69 237.232 L
290.187 235.511 L
298.267 232.069 L
308.013 227.479 L
317.76 225.185 L
328.089 222.317 L
339.584 217.154 L
350.58 215.433 L
363.991 213.138 L
376.153 210.27 L
390.398 207.402 L
406.308 205.107 L
421.969 203.96 L
437.296 201.091 L
453.456 198.223 L
470.117 196.502 L
488.359 195.355 L
506.935 193.06 L
526.178 191.339 L
546.337 187.897 L
568.994 182.734 L
595.9 182.161 L
620.308 179.292 L
643.132 178.145 L
670.788 174.13 L
690.447 173.556 L
723.101 170.114 L
753.672 167.819 L
787.492 163.804 L
819.313 160.936 L
852.716 158.067 L
889.202 155.773 L
905.092 155.107 L
S
GR
GS
[2 2] 0 setdash
2 LJ
2 LW
N
130 531.058 M
130 529.795 L
130 528.074 L
130 526.927 L
130 524.632 L
130 524.059 L
130 520.617 L
130 516.601 L
130 513.159 L
130 509.144 L
130 507.996 L
130 505.128 L
130 503.981 L
130 501.686 L
130 495.376 L
130 493.081 L
130 486.198 L
130 483.329 L
130 482.182 L
130 480.461 L
130 478.74 L
130 474.724 L
130 471.856 L
130 467.841 L
130 464.399 L
130 460.383 L
130 458.662 L
130 456.941 L
130 455.794 L
130 452.926 L
130 448.91 L
130 447.189 L
130 442.6 L
130 438.584 L
130 433.995 L
130 431.127 L
130 425.39 L
130 420.227 L
130 417.359 L
130.083 415.064 L
130.083 411.049 L
130.083 409.902 L
130.167 406.46 L
130.167 403.591 L
130.25 399.002 L
130.25 393.839 L
130.25 388.676 L
130.333 387.529 L
130.417 383.513 L
130.417 380.072 L
130.5 377.777 L
130.5 373.188 L
130.5 369.746 L
130.5 367.451 L
130.5 364.009 L
130.5 359.42 L
130.5 357.699 L
130.583 355.404 L
130.666 353.683 L
130.75 349.668 L
130.833 346.8 L
130.833 343.931 L
130.833 337.621 L
130.833 333.032 L
130.916 330.737 L
130.916 330.164 L
131.166 326.722 L
131.25 322.132 L
131.333 319.838 L
131.333 316.97 L
131.333 314.101 L
131.416 312.38 L
131.666 308.938 L
131.999 307.217 L
132.166 306.07 L
132.582 302.628 L
132.749 300.907 L
132.999 295.744 L
133.249 294.023 L
133.499 288.287 L
133.582 284.845 L
133.749 280.829 L
134.082 276.814 L
134.498 273.945 L
134.915 270.504 L
134.915 268.209 L
135.081 264.193 L
135.331 263.046 L
135.831 261.325 L
136.248 259.03 L
137.33 256.736 L
137.747 253.294 L
138.163 249.852 L
138.663 245.836 L
139.163 241.821 L
139.58 238.953 L
140.746 237.232 L
141.495 233.79 L
142.412 232.642 L
143.828 229.2 L
144.578 228.627 L
145.744 228.627 L
147.91 226.332 L
148.993 225.185 L
151.075 222.317 L
152.658 220.596 L
154.24 217.727 L
156.323 214.285 L
158.072 211.991 L
161.071 207.402 L
162.82 206.254 L
165.903 202.239 L
168.318 199.944 L
171.317 196.502 L
174.899 196.502 L
177.565 195.355 L
180.23 193.06 L
184.062 191.339 L
186.145 189.618 L
190.31 185.603 L
194.308 183.308 L
198.806 180.44 L
202.638 178.719 L
206.97 174.13 L
210.385 172.409 L
214.8 170.688 L
222.047 170.688 L
227.378 168.393 L
234.626 167.819 L
242.622 166.098 L
249.87 164.378 L
256.867 159.788 L
265.78 157.494 L
272.194 156.346 L
281.357 154.625 L
290.687 152.904 L
299.517 151.183 L
308.597 151.183 L
319.009 150.036 L
332.087 146.594 L
340.334 144.3 L
352.413 141.431 L
365.907 137.416 L
380.235 132.253 L
395.146 130.532 L
411.39 128.237 L
426.05 127.09 L
444.043 125.369 L
456.455 125.369 L
472.699 124.222 L
491.108 121.353 L
510.851 118.485 L
528.927 117.911 L
550.502 116.764 L
573.742 114.47 L
588.403 113.322 L
609.145 111.028 L
638.55 109.307 L
664.54 108.159 L
689.031 106.438 L
717.353 104.717 L
749.59 102.423 L
780.328 101.276 L
799.82 100.128 L
831.225 98.981 L
862.213 98.407 L
896.116 97.834 L
905.092 97.567 L
S
GR
GS
1 LJ
2 LW
N
130 531.058 M
130 529.795 L
130 528.648 L
130 526.353 L
130 520.617 L
130 515.454 L
130 513.159 L
130 511.438 L
130 507.996 L
130 507.996 L
130 507.423 L
130 501.113 L
130 498.818 L
130 496.523 L
130 494.802 L
130 491.361 L
130 488.492 L
130 486.771 L
130 483.329 L
130 481.035 L
130 476.445 L
130 472.43 L
130 468.414 L
130 465.546 L
130 463.825 L
130 463.251 L
130 460.957 L
130 457.515 L
130 452.926 L
130 448.91 L
130 443.747 L
130 440.305 L
130 438.584 L
130 435.716 L
130 432.274 L
130 427.685 L
130 424.243 L
130 419.654 L
130 417.933 L
130 415.064 L
130 413.343 L
130 409.328 L
130.083 406.46 L
130.167 402.444 L
130.167 396.134 L
130.167 390.971 L
130.25 388.676 L
130.25 386.955 L
130.333 384.087 L
130.417 381.792 L
130.417 379.498 L
130.417 374.909 L
130.417 371.467 L
130.417 364.583 L
130.5 362.288 L
130.583 361.141 L
130.75 358.273 L
131 355.404 L
131 353.11 L
131 346.226 L
131 343.358 L
131.083 339.916 L
131.166 338.768 L
131.416 334.753 L
131.416 330.164 L
131.499 326.722 L
131.583 323.853 L
131.666 319.838 L
131.749 318.117 L
131.916 314.675 L
131.916 314.101 L
132.166 310.086 L
132.166 307.791 L
132.332 306.07 L
132.499 301.481 L
132.666 298.039 L
132.832 295.171 L
132.999 295.171 L
133.249 291.729 L
133.749 288.861 L
134.332 287.713 L
134.831 284.271 L
134.998 280.829 L
135.331 274.519 L
135.831 272.225 L
136.164 269.93 L
136.581 267.062 L
137.33 265.341 L
137.664 261.899 L
138.413 258.457 L
138.83 255.015 L
139.746 249.278 L
139.996 248.131 L
140.829 244.115 L
141.579 241.821 L
142.662 240.1 L
144.078 238.953 L
144.911 236.658 L
146.244 234.937 L
147.743 232.069 L
148.409 230.348 L
150.409 228.053 L
151.658 226.332 L
153.241 224.038 L
154.407 218.875 L
156.573 217.154 L
158.822 215.433 L
159.572 215.433 L
161.821 211.417 L
164.653 207.402 L
167.235 206.254 L
169.651 204.533 L
172.817 202.239 L
175.232 198.223 L
178.398 196.502 L
179.564 195.928 L
183.729 192.487 L
187.311 190.192 L
191.309 189.618 L
195.224 187.324 L
200.306 185.029 L
204.554 182.734 L
205.554 181.587 L
211.385 179.866 L
216.383 179.292 L
223.88 175.851 L
230.71 174.13 L
237.708 172.409 L
244.788 169.54 L
252.285 165.525 L
254.618 164.951 L
263.114 163.23 L
272.444 161.509 L
281.774 159.215 L
291.187 156.92 L
300.017 154.625 L
310.762 154.052 L
314.428 153.478 L
325.757 150.036 L
338.252 146.594 L
352.246 143.152 L
366.657 140.858 L
381.235 139.137 L
395.063 137.416 L
410.14 134.547 L
414.388 133.974 L
430.215 132.827 L
446.792 131.679 L
466.368 129.958 L
485.944 127.664 L
506.436 125.943 L
527.844 122.501 L
533.425 121.927 L
556.166 120.206 L
582.239 119.059 L
605.647 116.764 L
632.803 114.47 L
656.877 111.028 L
688.781 108.159 L
718.519 107.586 L
728.099 106.438 L
758.253 106.438 L
788.575 105.291 L
821.978 103.57 L
854.549 101.849 L
895.783 101.276 L
905.092 101.011 L
S
GR
GS
[10 6] 0 setdash
2 LJ
0.5 LW
N
905.092 45.007 M
904.261 44.942 L
S
GR
%%Trailer
%%Pages: 1
%%EOF
