%!PS-Adobe-3.0 EPSF-3.0
%%Creator: (MATLAB, The Mathworks, Inc. Version 9.3.0.713579 \(R2017b\). Operating System: Mac OS X)
%%Title: ./ROCs_postmortem_160_closeup.eps
%%CreationDate: 2019-01-22T13:08:19
%%Pages: (atend)
%%BoundingBox:    48     5   927   587
%%LanguageLevel: 3
%%EndComments
%%BeginProlog
%%BeginResource: procset (Apache XML Graphics Std ProcSet) 1.2 0
%%Version: 1.2 0
%%Copyright: (Copyright 2001-2003,2010 The Apache Software Foundation. License terms: http://www.apache.org/licenses/LICENSE-2.0)
/bd{bind def}bind def
/ld{load def}bd
/GR/grestore ld
/GS/gsave ld
/RM/rmoveto ld
/C/curveto ld
/t/show ld
/L/lineto ld
/ML/setmiterlimit ld
/CT/concat ld
/f/fill ld
/N/newpath ld
/S/stroke ld
/CC/setcmykcolor ld
/A/ashow ld
/cp/closepath ld
/RC/setrgbcolor ld
/LJ/setlinejoin ld
/GC/setgray ld
/LW/setlinewidth ld
/M/moveto ld
/re {4 2 roll M
1 index 0 rlineto
0 exch rlineto
neg 0 rlineto
cp } bd
/_ctm matrix def
/_tm matrix def
/BT { _ctm currentmatrix pop matrix _tm copy pop 0 0 moveto } bd
/ET { _ctm setmatrix } bd
/iTm { _ctm setmatrix _tm concat } bd
/Tm { _tm astore pop iTm 0 0 moveto } bd
/ux 0.0 def
/uy 0.0 def
/F {
  /Tp exch def
  /Tf exch def
  Tf findfont Tp scalefont setfont
  /cf Tf def  /cs Tp def
} bd
/ULS {currentpoint /uy exch def /ux exch def} bd
/ULE {
  /Tcx currentpoint pop def
  gsave
  newpath
  cf findfont cs scalefont dup
  /FontMatrix get 0 get /Ts exch def /FontInfo get dup
  /UnderlinePosition get Ts mul /To exch def
  /UnderlineThickness get Ts mul /Tt exch def
  ux uy To add moveto  Tcx uy To add lineto
  Tt setlinewidth stroke
  grestore
} bd
/OLE {
  /Tcx currentpoint pop def
  gsave
  newpath
  cf findfont cs scalefont dup
  /FontMatrix get 0 get /Ts exch def /FontInfo get dup
  /UnderlinePosition get Ts mul /To exch def
  /UnderlineThickness get Ts mul /Tt exch def
  ux uy To add cs add moveto Tcx uy To add cs add lineto
  Tt setlinewidth stroke
  grestore
} bd
/SOE {
  /Tcx currentpoint pop def
  gsave
  newpath
  cf findfont cs scalefont dup
  /FontMatrix get 0 get /Ts exch def /FontInfo get dup
  /UnderlinePosition get Ts mul /To exch def
  /UnderlineThickness get Ts mul /Tt exch def
  ux uy To add cs 10 mul 26 idiv add moveto Tcx uy To add cs 10 mul 26 idiv add lineto
  Tt setlinewidth stroke
  grestore
} bd
/QT {
/Y22 exch store
/X22 exch store
/Y21 exch store
/X21 exch store
currentpoint
/Y21 load 2 mul add 3 div exch
/X21 load 2 mul add 3 div exch
/X21 load 2 mul /X22 load add 3 div
/Y21 load 2 mul /Y22 load add 3 div
/X22 load /Y22 load curveto
} bd
/SSPD {
dup length /d exch dict def
{
/v exch def
/k exch def
currentpagedevice k known {
/cpdv currentpagedevice k get def
v cpdv ne {
/upd false def
/nullv v type /nulltype eq def
/nullcpdv cpdv type /nulltype eq def
nullv nullcpdv or
{
/upd true def
} {
/sametype v type cpdv type eq def
sametype {
v type /arraytype eq {
/vlen v length def
/cpdvlen cpdv length def
vlen cpdvlen eq {
0 1 vlen 1 sub {
/i exch def
/obj v i get def
/cpdobj cpdv i get def
obj cpdobj ne {
/upd true def
exit
} if
} for
} {
/upd true def
} ifelse
} {
v type /dicttype eq {
v {
/dv exch def
/dk exch def
/cpddv cpdv dk get def
dv cpddv ne {
/upd true def
exit
} if
} forall
} {
/upd true def
} ifelse
} ifelse
} if
} ifelse
upd true eq {
d k v put
} if
} if
} if
} forall
d length 0 gt {
d setpagedevice
} if
} bd
/RE { % /NewFontName [NewEncodingArray] /FontName RE -
  findfont dup length dict begin
  {
    1 index /FID ne
    {def} {pop pop} ifelse
  } forall
  /Encoding exch def
  /FontName 1 index def
  currentdict definefont pop
  end
} bind def
%%EndResource
%%BeginResource: procset (Apache XML Graphics EPS ProcSet) 1.0 0
%%Version: 1.0 0
%%Copyright: (Copyright 2002-2003 The Apache Software Foundation. License terms: http://www.apache.org/licenses/LICENSE-2.0)
/BeginEPSF { %def
/b4_Inc_state save def         % Save state for cleanup
/dict_count countdictstack def % Count objects on dict stack
/op_count count 1 sub def      % Count objects on operand stack
userdict begin                 % Push userdict on dict stack
/showpage { } def              % Redefine showpage, { } = null proc
0 setgray 0 setlinecap         % Prepare graphics state
1 setlinewidth 0 setlinejoin
10 setmiterlimit [ ] 0 setdash newpath
/languagelevel where           % If level not equal to 1 then
{pop languagelevel             % set strokeadjust and
1 ne                           % overprint to their defaults.
{false setstrokeadjust false setoverprint
} if
} if
} bd
/EndEPSF { %def
count op_count sub {pop} repeat            % Clean up stacks
countdictstack dict_count sub {end} repeat
b4_Inc_state restore
} bd
%%EndResource
%FOPBeginFontDict
%%IncludeResource: font Courier-Oblique
%%IncludeResource: font Courier-BoldOblique
%%IncludeResource: font Courier-Bold
%%IncludeResource: font ZapfDingbats
%%IncludeResource: font Symbol
%%IncludeResource: font Helvetica
%%IncludeResource: font Helvetica-Oblique
%%IncludeResource: font Helvetica-Bold
%%IncludeResource: font Helvetica-BoldOblique
%%IncludeResource: font Times-Roman
%%IncludeResource: font Times-Italic
%%IncludeResource: font Times-Bold
%%IncludeResource: font Times-BoldItalic
%%IncludeResource: font Courier
%FOPEndFontDict
%%BeginResource: encoding WinAnsiEncoding
/WinAnsiEncoding [
/.notdef /.notdef /.notdef /.notdef /.notdef
/.notdef /.notdef /.notdef /.notdef /.notdef
/.notdef /.notdef /.notdef /.notdef /.notdef
/.notdef /.notdef /.notdef /.notdef /.notdef
/.notdef /.notdef /.notdef /.notdef /.notdef
/.notdef /.notdef /.notdef /.notdef /.notdef
/.notdef /.notdef /space /exclam /quotedbl
/numbersign /dollar /percent /ampersand /quotesingle
/parenleft /parenright /asterisk /plus /comma
/hyphen /period /slash /zero /one
/two /three /four /five /six
/seven /eight /nine /colon /semicolon
/less /equal /greater /question /at
/A /B /C /D /E
/F /G /H /I /J
/K /L /M /N /O
/P /Q /R /S /T
/U /V /W /X /Y
/Z /bracketleft /backslash /bracketright /asciicircum
/underscore /quoteleft /a /b /c
/d /e /f /g /h
/i /j /k /l /m
/n /o /p /q /r
/s /t /u /v /w
/x /y /z /braceleft /bar
/braceright /asciitilde /bullet /Euro /bullet
/quotesinglbase /florin /quotedblbase /ellipsis /dagger
/daggerdbl /circumflex /perthousand /Scaron /guilsinglleft
/OE /bullet /Zcaron /bullet /bullet
/quoteleft /quoteright /quotedblleft /quotedblright /bullet
/endash /emdash /asciitilde /trademark /scaron
/guilsinglright /oe /bullet /zcaron /Ydieresis
/space /exclamdown /cent /sterling /currency
/yen /brokenbar /section /dieresis /copyright
/ordfeminine /guillemotleft /logicalnot /sfthyphen /registered
/macron /degree /plusminus /twosuperior /threesuperior
/acute /mu /paragraph /middot /cedilla
/onesuperior /ordmasculine /guillemotright /onequarter /onehalf
/threequarters /questiondown /Agrave /Aacute /Acircumflex
/Atilde /Adieresis /Aring /AE /Ccedilla
/Egrave /Eacute /Ecircumflex /Edieresis /Igrave
/Iacute /Icircumflex /Idieresis /Eth /Ntilde
/Ograve /Oacute /Ocircumflex /Otilde /Odieresis
/multiply /Oslash /Ugrave /Uacute /Ucircumflex
/Udieresis /Yacute /Thorn /germandbls /agrave
/aacute /acircumflex /atilde /adieresis /aring
/ae /ccedilla /egrave /eacute /ecircumflex
/edieresis /igrave /iacute /icircumflex /idieresis
/eth /ntilde /ograve /oacute /ocircumflex
/otilde /odieresis /divide /oslash /ugrave
/uacute /ucircumflex /udieresis /yacute /thorn
/ydieresis
] def
%%EndResource
%FOPBeginFontReencode
/Courier-Oblique findfont
dup length dict begin
  {1 index /FID ne {def} {pop pop} ifelse} forall
  /Encoding WinAnsiEncoding def
  currentdict
end
/Courier-Oblique exch definefont pop
/Courier-BoldOblique findfont
dup length dict begin
  {1 index /FID ne {def} {pop pop} ifelse} forall
  /Encoding WinAnsiEncoding def
  currentdict
end
/Courier-BoldOblique exch definefont pop
/Courier-Bold findfont
dup length dict begin
  {1 index /FID ne {def} {pop pop} ifelse} forall
  /Encoding WinAnsiEncoding def
  currentdict
end
/Courier-Bold exch definefont pop
/Helvetica findfont
dup length dict begin
  {1 index /FID ne {def} {pop pop} ifelse} forall
  /Encoding WinAnsiEncoding def
  currentdict
end
/Helvetica exch definefont pop
/Helvetica-Oblique findfont
dup length dict begin
  {1 index /FID ne {def} {pop pop} ifelse} forall
  /Encoding WinAnsiEncoding def
  currentdict
end
/Helvetica-Oblique exch definefont pop
/Helvetica-Bold findfont
dup length dict begin
  {1 index /FID ne {def} {pop pop} ifelse} forall
  /Encoding WinAnsiEncoding def
  currentdict
end
/Helvetica-Bold exch definefont pop
/Helvetica-BoldOblique findfont
dup length dict begin
  {1 index /FID ne {def} {pop pop} ifelse} forall
  /Encoding WinAnsiEncoding def
  currentdict
end
/Helvetica-BoldOblique exch definefont pop
/Times-Roman findfont
dup length dict begin
  {1 index /FID ne {def} {pop pop} ifelse} forall
  /Encoding WinAnsiEncoding def
  currentdict
end
/Times-Roman exch definefont pop
/Times-Italic findfont
dup length dict begin
  {1 index /FID ne {def} {pop pop} ifelse} forall
  /Encoding WinAnsiEncoding def
  currentdict
end
/Times-Italic exch definefont pop
/Times-Bold findfont
dup length dict begin
  {1 index /FID ne {def} {pop pop} ifelse} forall
  /Encoding WinAnsiEncoding def
  currentdict
end
/Times-Bold exch definefont pop
/Times-BoldItalic findfont
dup length dict begin
  {1 index /FID ne {def} {pop pop} ifelse} forall
  /Encoding WinAnsiEncoding def
  currentdict
end
/Times-BoldItalic exch definefont pop
/Courier findfont
dup length dict begin
  {1 index /FID ne {def} {pop pop} ifelse} forall
  /Encoding WinAnsiEncoding def
  currentdict
end
/Courier exch definefont pop
%FOPEndFontReencode
%%EndProlog
%%Page: 1 1
%%PageBoundingBox: 0 0 1000 600
%%BeginPageSetup
[1 0 0 -1 0 600] CT
%%EndPageSetup
GS
1 GC
N
0 0 1000 600 re
f
GR
GS
1 GC
N
0 0 1000 600 re
f
GR
GS
1 GC
N
130 531 M
905 531 L
905 45 L
130 45 L
cp
f
GR
GS
0.873 GC
1 LJ
0.5 LW
N
130 531 M
130 45 L
S
GR
GS
0.873 GC
1 LJ
0.5 LW
N
285 531 M
285 45 L
S
GR
GS
0.873 GC
1 LJ
0.5 LW
N
440 531 M
440 45 L
S
GR
GS
0.873 GC
1 LJ
0.5 LW
N
595 531 M
595 45 L
S
GR
GS
0.873 GC
1 LJ
0.5 LW
N
750 531 M
750 45 L
S
GR
GS
0.873 GC
1 LJ
0.5 LW
N
905 531 M
905 45 L
S
GR
GS
0.873 GC
1 LJ
0.5 LW
N
905 531 M
130 531 L
S
GR
GS
0.873 GC
1 LJ
0.5 LW
N
905 461.571 M
130 461.571 L
S
GR
GS
0.873 GC
1 LJ
0.5 LW
N
905 392.143 M
130 392.143 L
S
GR
GS
0.873 GC
1 LJ
0.5 LW
N
905 322.714 M
130 322.714 L
S
GR
GS
0.873 GC
1 LJ
0.5 LW
N
905 253.286 M
130 253.286 L
S
GR
GS
0.873 GC
1 LJ
0.5 LW
N
905 183.857 M
130 183.857 L
S
GR
GS
0.873 GC
1 LJ
0.5 LW
N
905 114.429 M
130 114.429 L
S
GR
GS
0.873 GC
1 LJ
0.5 LW
N
905 45 M
130 45 L
S
GR
GS
0.149 GC
2 setlinecap
1 LJ
0.5 LW
N
130 531 M
905 531 L
S
GR
GS
0.149 GC
2 setlinecap
1 LJ
0.5 LW
N
130 45 M
905 45 L
S
GR
GS
0.149 GC
2 setlinecap
1 LJ
0.5 LW
N
130 531 M
130 523.25 L
S
GR
GS
0.149 GC
2 setlinecap
1 LJ
0.5 LW
N
285 531 M
285 523.25 L
S
GR
GS
0.149 GC
2 setlinecap
1 LJ
0.5 LW
N
440 531 M
440 523.25 L
S
GR
GS
0.149 GC
2 setlinecap
1 LJ
0.5 LW
N
595 531 M
595 523.25 L
S
GR
GS
0.149 GC
2 setlinecap
1 LJ
0.5 LW
N
750 531 M
750 523.25 L
S
GR
GS
0.149 GC
2 setlinecap
1 LJ
0.5 LW
N
905 531 M
905 523.25 L
S
GR
GS
0.149 GC
2 setlinecap
1 LJ
0.5 LW
N
130 45 M
130 52.75 L
S
GR
GS
0.149 GC
2 setlinecap
1 LJ
0.5 LW
N
285 45 M
285 52.75 L
S
GR
GS
0.149 GC
2 setlinecap
1 LJ
0.5 LW
N
440 45 M
440 52.75 L
S
GR
GS
0.149 GC
2 setlinecap
1 LJ
0.5 LW
N
595 45 M
595 52.75 L
S
GR
GS
0.149 GC
2 setlinecap
1 LJ
0.5 LW
N
750 45 M
750 52.75 L
S
GR
GS
0.149 GC
2 setlinecap
1 LJ
0.5 LW
N
905 45 M
905 52.75 L
S
GR
GS
[1 0 0 1 130 537.79999] CT
0.149 GC
/Helvetica 24 F
GS
[1 0 0 1 0 0] CT
-7 23 moveto 
1 -1 scale
(0) t 
GR
GR
GS
[1 0 0 1 285 537.79999] CT
0.149 GC
/Helvetica 24 F
GS
[1 0 0 1 0 0] CT
-23.5 23 moveto 
1 -1 scale
(0.01) t 
GR
GR
GS
[1 0 0 1 440 537.79999] CT
0.149 GC
/Helvetica 24 F
GS
[1 0 0 1 0 0] CT
-23.5 23 moveto 
1 -1 scale
(0.02) t 
GR
GR
GS
[1 0 0 1 595 537.79999] CT
0.149 GC
/Helvetica 24 F
GS
[1 0 0 1 0 0] CT
-23.5 23 moveto 
1 -1 scale
(0.03) t 
GR
GR
GS
[1 0 0 1 750 537.79999] CT
0.149 GC
/Helvetica 24 F
GS
[1 0 0 1 0 0] CT
-23.5 23 moveto 
1 -1 scale
(0.04) t 
GR
GR
GS
[1 0 0 1 905 537.79999] CT
0.149 GC
/Helvetica 24 F
GS
[1 0 0 1 0 0] CT
-23.5 23 moveto 
1 -1 scale
(0.05) t 
GR
GR
GS
[1 0 0 1 517.50037 567.79999] CT
0.149 GC
/Helvetica 26.4 F
GS
[1 0 0 1 0 0] CT
-103.5 26 moveto 
1 -1 scale
(False Match Rate) t 
GR
GR
GS
0.149 GC
2 setlinecap
1 LJ
0.5 LW
N
130 531 M
130 45 L
S
GR
GS
0.149 GC
2 setlinecap
1 LJ
0.5 LW
N
905 531 M
905 45 L
S
GR
GS
0.149 GC
2 setlinecap
1 LJ
0.5 LW
N
130 531 M
137.75 531 L
S
GR
GS
0.149 GC
2 setlinecap
1 LJ
0.5 LW
N
130 461.571 M
137.75 461.571 L
S
GR
GS
0.149 GC
2 setlinecap
1 LJ
0.5 LW
N
130 392.143 M
137.75 392.143 L
S
GR
GS
0.149 GC
2 setlinecap
1 LJ
0.5 LW
N
130 322.714 M
137.75 322.714 L
S
GR
GS
0.149 GC
2 setlinecap
1 LJ
0.5 LW
N
130 253.286 M
137.75 253.286 L
S
GR
GS
0.149 GC
2 setlinecap
1 LJ
0.5 LW
N
130 183.857 M
137.75 183.857 L
S
GR
GS
0.149 GC
2 setlinecap
1 LJ
0.5 LW
N
130 114.429 M
137.75 114.429 L
S
GR
GS
0.149 GC
2 setlinecap
1 LJ
0.5 LW
N
130 45 M
137.75 45 L
S
GR
GS
0.149 GC
2 setlinecap
1 LJ
0.5 LW
N
905 531 M
897.25 531 L
S
GR
GS
0.149 GC
2 setlinecap
1 LJ
0.5 LW
N
905 461.571 M
897.25 461.571 L
S
GR
GS
0.149 GC
2 setlinecap
1 LJ
0.5 LW
N
905 392.143 M
897.25 392.143 L
S
GR
GS
0.149 GC
2 setlinecap
1 LJ
0.5 LW
N
905 322.714 M
897.25 322.714 L
S
GR
GS
0.149 GC
2 setlinecap
1 LJ
0.5 LW
N
905 253.286 M
897.25 253.286 L
S
GR
GS
0.149 GC
2 setlinecap
1 LJ
0.5 LW
N
905 183.857 M
897.25 183.857 L
S
GR
GS
0.149 GC
2 setlinecap
1 LJ
0.5 LW
N
905 114.429 M
897.25 114.429 L
S
GR
GS
0.149 GC
2 setlinecap
1 LJ
0.5 LW
N
905 45 M
897.25 45 L
S
GR
GS
[1 0 0 1 123.2 531] CT
0.149 GC
/Helvetica 24 F
GS
[1 0 0 1 0 0] CT
-47 8.5 moveto 
1 -1 scale
(0.45) t 
GR
GR
GS
[1 0 0 1 123.2 461.57144] CT
0.149 GC
/Helvetica 24 F
GS
[1 0 0 1 0 0] CT
-34 8.5 moveto 
1 -1 scale
(0.5) t 
GR
GR
GS
[1 0 0 1 123.2 392.14285] CT
0.149 GC
/Helvetica 24 F
GS
[1 0 0 1 0 0] CT
-47 8.5 moveto 
1 -1 scale
(0.55) t 
GR
GR
GS
[1 0 0 1 123.2 322.71426] CT
0.149 GC
/Helvetica 24 F
GS
[1 0 0 1 0 0] CT
-34 8.5 moveto 
1 -1 scale
(0.6) t 
GR
GR
GS
[1 0 0 1 123.2 253.28575] CT
0.149 GC
/Helvetica 24 F
GS
[1 0 0 1 0 0] CT
-47 8.5 moveto 
1 -1 scale
(0.65) t 
GR
GR
GS
[1 0 0 1 123.2 183.85716] CT
0.149 GC
/Helvetica 24 F
GS
[1 0 0 1 0 0] CT
-34 8.5 moveto 
1 -1 scale
(0.7) t 
GR
GR
GS
[1 0 0 1 123.2 114.42857] CT
0.149 GC
/Helvetica 24 F
GS
[1 0 0 1 0 0] CT
-47 8.5 moveto 
1 -1 scale
(0.75) t 
GR
GR
GS
[1 0 0 1 123.2 44.99998] CT
0.149 GC
/Helvetica 24 F
GS
[1 0 0 1 0 0] CT
-34 8.5 moveto 
1 -1 scale
(0.8) t 
GR
GR
GS
[0 -1 1 0 73.2 287.99976] CT
0.149 GC
/Helvetica 26.4 F
GS
[1 0 0 1 0 0] CT
-153 -6 moveto 
1 -1 scale
(1 - False Non-Match Rate) t 
GR
GR
GS
[1 0 0 1 517.50049 38.39995] CT
/Helvetica-Bold 26.4 F
GS
[1 0 0 1 0 0] CT
-287 -6 moveto 
1 -1 scale
(Data acquired less than 160 hours after death) t 
GR
GR
GS
0 0 1 RC
1 LJ
2 LW
N
210.083 531.058 M
212.425 527.844 L
217.15 521.269 L
224.975 516.273 L
230.901 509.435 L
236.595 504.175 L
243.528 498.916 L
249.997 494.971 L
259.951 490.763 L
269.247 482.347 L
279.473 474.984 L
288.033 469.198 L
299.537 463.675 L
312.048 457.627 L
324.287 451.578 L
339.393 443.162 L
353.841 437.114 L
372.549 432.906 L
391.219 426.857 L
411.399 421.86 L
431.347 416.864 L
453.657 408.711 L
477.75 403.188 L
505.251 398.455 L
533.758 395.036 L
565.21 391.88 L
599.296 385.305 L
635.357 380.308 L
676.065 373.734 L
715.031 365.055 L
757.987 359.532 L
802.608 353.747 L
851.683 349.276 L
902.966 344.542 L
905.092 344.357 L
S
GR
GS
0 1 0 RC
1 LJ
2 LW
N
131.381 531.058 M
131.394 530.211 L
131.511 523.636 L
131.549 518.64 L
131.627 511.802 L
131.704 506.279 L
131.782 500.231 L
131.898 492.604 L
132.014 486.555 L
132.363 480.243 L
132.673 475.51 L
132.828 470.25 L
133.021 466.042 L
133.331 458.942 L
133.602 454.734 L
133.796 447.896 L
134.377 440.269 L
134.532 434.221 L
135.113 428.172 L
135.655 421.86 L
136.004 416.601 L
136.391 411.078 L
136.856 405.555 L
137.592 400.295 L
138.212 394.51 L
138.754 389.776 L
139.219 386.357 L
140.148 379.783 L
141.388 373.734 L
142.55 369.526 L
143.479 362.162 L
144.951 356.64 L
147.081 349.013 L
149.096 343.227 L
150.645 337.705 L
152.698 331.919 L
155.525 325.87 L
157.656 320.347 L
160.483 312.721 L
163.621 307.198 L
167.3 302.464 L
171.522 297.468 L
175.861 292.208 L
181.283 286.948 L
186.745 280.636 L
192.206 274.325 L
198.055 268.802 L
204.988 261.438 L
212.076 254.864 L
220.288 250.13 L
228.771 246.185 L
238.376 242.766 L
249.299 235.403 L
262.391 229.88 L
274.786 223.831 L
287.994 218.045 L
303.294 213.575 L
317.354 206.211 L
333.545 200.688 L
351.44 195.429 L
371.697 190.432 L
391.684 185.172 L
412.639 179.386 L
434.058 171.497 L
459.235 166.237 L
485.535 164.133 L
511.913 160.451 L
540.885 157.821 L
573.383 153.877 L
603.634 149.143 L
638.416 144.672 L
671.611 142.042 L
708.33 137.308 L
742.648 134.153 L
780.259 130.734 L
819.689 127.315 L
856.176 124.422 L
894.135 121.266 L
905.092 120.054 L
S
GR
GS
1 0 0 RC
1 LJ
2 LW
N
196.924 531.058 M
201.115 524.688 L
202.044 519.429 L
203.516 511.802 L
204.485 504.701 L
205.569 501.019 L
206.77 494.182 L
211.999 489.185 L
213.122 483.925 L
214.749 479.455 L
215.834 473.143 L
217.731 464.464 L
219.707 455.26 L
220.791 448.948 L
222.651 442.373 L
224.936 432.643 L
226.95 428.435 L
229.197 422.386 L
231.482 414.76 L
234.348 406.87 L
242.792 399.244 L
245.542 390.302 L
248.215 379.257 L
251.236 373.208 L
255.729 364.003 L
259.447 357.955 L
263.437 349.276 L
267.969 341.386 L
272.888 334.812 L
277.497 329.289 L
285.825 322.451 L
291.596 317.98 L
297.096 310.354 L
303.991 301.412 L
311.505 292.997 L
319.678 284.055 L
326.96 273.799 L
336.605 264.594 L
349.813 255.916 L
359.225 246.185 L
370.613 238.032 L
382.388 226.987 L
394.434 219.36 L
408.649 210.682 L
422.051 202.003 L
437.544 193.062 L
453.657 185.172 L
470.894 175.968 L
490.338 168.867 L
513.462 160.977 L
531.551 156.244 L
555.101 150.195 L
579.851 142.042 L
607.081 134.153 L
635.976 126.789 L
667.931 120.214 L
702.133 113.377 L
741.37 105.224 L
775.998 99.964 L
820.27 91.549 L
859.624 85.763 L
904.012 80.503 L
905.092 80.367 L
S
GR
GS
0 1 1 RC
[2 2] 0 setdash
2 LJ
2 LW
N
135.025 531.058 M
135.152 526.529 L
135.306 523.373 L
135.384 518.64 L
135.461 514.432 L
135.539 510.487 L
136.391 507.594 L
136.585 504.701 L
136.74 501.282 L
136.817 495.497 L
136.933 491.026 L
137.243 486.555 L
137.631 483.399 L
137.863 480.243 L
138.173 475.773 L
139.141 472.091 L
139.296 468.146 L
139.916 463.149 L
140.109 458.416 L
140.381 454.471 L
140.729 448.422 L
140.845 444.74 L
141.349 440.269 L
141.581 435.799 L
142.898 432.906 L
143.324 427.909 L
143.789 424.753 L
144.486 421.334 L
145.184 417.39 L
145.726 410.026 L
146.578 405.818 L
147.159 402.662 L
148.902 396.877 L
149.56 392.669 L
150.529 387.935 L
151.807 385.305 L
152.659 380.571 L
153.705 375.575 L
154.867 370.841 L
156.029 366.37 L
157.075 362.162 L
159.205 358.481 L
160.793 352.432 L
162.033 348.75 L
164.047 344.805 L
165.906 340.597 L
167.881 335.601 L
169.779 330.078 L
172.258 324.555 L
174.466 319.558 L
178.688 314.036 L
180.973 307.461 L
183.568 300.097 L
186.745 292.208 L
189.185 290.104 L
192.245 286.948 L
196.312 283.266 L
200.069 277.481 L
205.337 270.38 L
209.636 263.542 L
214.091 258.282 L
218.777 253.286 L
225.052 248.552 L
230.359 243.555 L
235.897 240.662 L
241.785 235.14 L
248.757 230.932 L
256.194 225.672 L
263.669 221.99 L
272.694 217.782 L
279.821 210.156 L
287.917 207 L
296.632 203.055 L
306.16 197.795 L
316.734 192.536 L
326.379 187.276 L
335.908 183.594 L
347.915 179.123 L
359.148 176.23 L
371.232 172.286 L
384.286 166.237 L
396.758 163.081 L
411.593 158.873 L
426.505 155.98 L
442.463 152.825 L
460.784 148.354 L
479.26 142.042 L
497.349 138.36 L
515.67 134.153 L
534.765 130.997 L
557.192 128.367 L
578.999 124.159 L
601.852 119.162 L
628.462 113.114 L
652.98 109.695 L
679.9 106.276 L
703.411 103.12 L
725.722 100.49 L
758.955 94.442 L
793.157 89.971 L
826.235 83.659 L
860.243 78.399 L
897.002 73.666 L
905.092 73.033 L
S
GR
GS
0 1 1 RC
1 LJ
2 LW
N
131.078 531.058 M
131.085 530.737 L
131.201 525.214 L
131.239 521.532 L
131.317 518.114 L
131.433 513.906 L
131.549 512.854 L
131.704 508.646 L
131.782 502.334 L
131.975 499.442 L
132.208 495.497 L
132.363 490.763 L
132.44 486.818 L
132.556 482.347 L
132.595 477.614 L
132.711 474.721 L
132.75 473.406 L
132.982 467.62 L
133.176 463.149 L
133.602 460.519 L
133.757 457.364 L
133.99 454.208 L
134.222 449.737 L
134.493 444.74 L
134.803 440.269 L
135.384 435.536 L
135.849 430.276 L
136.12 428.961 L
136.314 424.753 L
136.817 420.808 L
137.476 417.653 L
137.863 412.13 L
138.483 407.659 L
139.064 405.292 L
139.838 402.662 L
140.69 397.666 L
141.504 393.984 L
141.698 392.143 L
142.124 387.146 L
143.014 383.727 L
144.409 380.834 L
145.455 375.312 L
146.578 370.578 L
147.662 366.37 L
148.824 360.847 L
150.451 356.114 L
152.504 350.854 L
153.24 349.539 L
154.944 344.805 L
156.687 337.968 L
158.895 333.76 L
160.522 329.815 L
162.652 327.185 L
164.86 323.503 L
166.603 317.192 L
169.547 313.51 L
172.762 308.776 L
175.783 304.305 L
177.332 301.938 L
180.663 296.942 L
183.762 292.734 L
187.481 288.526 L
191.199 283.266 L
195.886 278.532 L
200.03 270.38 L
204.33 265.646 L
210.101 261.438 L
215.756 258.02 L
217.654 254.864 L
224.084 251.182 L
230.397 248.289 L
237.408 244.344 L
245 240.399 L
252.475 236.455 L
260.687 234.351 L
269.325 229.091 L
280.364 224.62 L
290.744 220.412 L
294.501 218.045 L
304.843 213.838 L
315.611 209.367 L
326.883 205.422 L
340.052 200.951 L
352.485 196.743 L
364.609 193.062 L
379.599 187.802 L
394.356 183.331 L
409.191 179.386 L
425.266 173.601 L
432.238 171.497 L
448.777 165.711 L
466.44 162.555 L
487.743 159.399 L
508.814 155.192 L
528.336 151.51 L
551.111 145.461 L
576.055 141.253 L
599.644 136.519 L
626.99 129.945 L
637.642 127.578 L
664.135 121.266 L
695.239 115.744 L
727.387 110.747 L
759.691 106.802 L
792.692 103.12 L
826.429 98.912 L
864.349 94.968 L
898.241 92.601 L
905.092 91.841 L
S
GR
GS
1 0 1 RC
[2 2] 0 setdash
2 LJ
2 LW
N
131.371 531.058 M
131.433 528.107 L
131.472 524.162 L
131.666 519.429 L
131.666 516.273 L
131.704 511.013 L
131.743 506.805 L
131.898 502.071 L
132.014 497.338 L
132.247 493.919 L
132.479 487.081 L
132.634 482.61 L
132.866 478.666 L
133.06 476.036 L
133.215 469.987 L
133.525 467.094 L
133.796 461.571 L
133.912 457.364 L
134.067 453.682 L
134.377 450 L
134.687 445.792 L
134.958 440.007 L
135.229 435.799 L
135.694 431.065 L
136.004 425.542 L
136.43 421.597 L
137.127 419.757 L
137.514 413.971 L
138.289 410.289 L
139.025 404.766 L
139.335 400.032 L
140.458 396.088 L
140.884 390.828 L
141.581 386.883 L
142.201 381.886 L
143.131 376.89 L
143.712 371.104 L
144.796 365.581 L
146.074 362.162 L
146.888 358.217 L
148.127 352.169 L
149.638 345.331 L
151.032 341.649 L
152.465 338.757 L
154.015 334.023 L
155.448 331.13 L
156.959 324.818 L
158.663 319.295 L
160.135 316.666 L
162.342 310.354 L
164.821 306.146 L
166.836 302.201 L
169.315 297.205 L
171.096 292.734 L
173.498 288.263 L
176.519 285.37 L
178.998 283.529 L
183.22 279.321 L
186.745 276.955 L
191.354 273.536 L
195.343 268.276 L
199.217 264.594 L
204.136 258.02 L
208.861 253.812 L
214.168 250.393 L
218.467 246.711 L
223.27 241.714 L
228.306 238.821 L
234.542 234.877 L
241.514 228.828 L
247.944 225.146 L
254.683 221.464 L
261.772 217.257 L
269.789 211.997 L
277.497 207.789 L
286.367 204.37 L
295.353 199.899 L
305.308 194.377 L
314.991 190.432 L
325.798 185.961 L
336.76 182.542 L
349.58 178.597 L
362.362 175.705 L
373.556 171.76 L
386.803 168.867 L
400.128 163.87 L
415.35 159.662 L
430.882 157.558 L
446.957 153.877 L
464.309 149.932 L
483.444 147.565 L
500.409 144.935 L
519.698 142.831 L
541.273 139.938 L
563.196 134.942 L
587.133 131.26 L
607.739 127.052 L
632.103 120.74 L
662.393 113.114 L
687.414 109.958 L
707.207 106.276 L
737.109 103.383 L
768.135 101.016 L
798.812 96.808 L
827.552 92.864 L
862.296 89.708 L
897.854 87.604 L
905.092 86.832 L
S
GR
GS
1 0 1 RC
1 LJ
2 LW
N
131.226 531.058 M
131.239 530.474 L
131.317 526.266 L
131.511 520.218 L
131.588 516.799 L
131.82 513.38 L
131.975 509.435 L
132.014 507.594 L
132.169 503.386 L
132.285 497.338 L
132.44 493.919 L
132.711 489.448 L
132.982 483.925 L
133.215 480.243 L
133.486 475.247 L
133.912 471.039 L
133.912 469.198 L
134.183 464.99 L
134.338 459.468 L
134.571 456.312 L
134.803 451.315 L
135.423 446.055 L
135.849 442.11 L
136.352 437.64 L
136.74 433.169 L
136.856 431.065 L
137.476 426.594 L
138.057 420.02 L
138.676 415.549 L
139.219 411.604 L
139.916 405.555 L
140.419 401.347 L
141.194 392.143 L
141.349 389.776 L
142.356 384.516 L
143.247 379.519 L
144.293 373.734 L
145.338 370.052 L
146.462 365.055 L
147.585 361.373 L
148.592 355.851 L
150.141 349.276 L
150.645 347.961 L
152.311 344.805 L
153.86 339.808 L
156.261 336.916 L
158.237 330.867 L
160.096 325.87 L
161.723 321.662 L
164.124 316.403 L
166.448 313.51 L
167.107 310.88 L
169.934 308.776 L
172.839 303.779 L
176.287 300.886 L
179.501 296.942 L
182.6 292.734 L
186.047 285.107 L
190.192 281.425 L
191.78 280.373 L
195.46 275.903 L
199.914 271.695 L
204.407 264.068 L
208.823 259.071 L
213.161 254.338 L
219.203 250.919 L
225.982 248.289 L
232.334 245.659 L
235.355 244.081 L
242.017 239.873 L
249.261 236.192 L
257.433 232.247 L
265.916 227.25 L
274.515 222.253 L
283.501 218.045 L
292.991 214.89 L
297.019 213.838 L
307.051 210.419 L
318.245 207 L
329.207 200.425 L
341.137 194.903 L
354.655 190.958 L
367.437 187.539 L
382.388 183.594 L
398.927 181.227 L
404.66 178.071 L
420.54 175.179 L
438.28 170.445 L
457.298 167.552 L
476.317 164.659 L
495.761 161.766 L
518.807 157.032 L
543.79 152.562 L
569.316 147.039 L
574.816 145.987 L
598.095 141.516 L
625.092 136.782 L
650.656 133.627 L
677.111 129.682 L
707.168 123.37 L
737.962 118.11 L
766.741 115.744 L
779.833 114.692 L
813.841 111.01 L
851.335 105.75 L
887.589 102.068 L
905.092 100.743 L
S
GR
GS
0 0 1 RC
[2 2] 0 setdash
2 LJ
2 LW
N
145.245 531.058 M
145.765 528.633 L
147.508 520.481 L
149.018 513.643 L
150.684 505.49 L
152.582 497.601 L
154.867 486.818 L
157.54 479.192 L
159.709 470.513 L
162.885 462.623 L
165.402 455.786 L
168.772 451.841 L
172.336 442.899 L
175.861 434.484 L
180.702 426.594 L
185.234 420.546 L
190.541 413.708 L
195.847 405.029 L
202.316 400.032 L
210.256 393.195 L
217.886 387.935 L
226.795 378.468 L
235.665 371.63 L
247.711 359.795 L
257.007 352.695 L
270.641 344.016 L
283.462 336.127 L
297.523 329.552 L
312.939 320.084 L
327.851 314.036 L
347.14 307.724 L
365.732 299.308 L
388.856 291.156 L
409.927 286.948 L
436.77 279.847 L
462.024 272.484 L
491.926 264.857 L
522.913 257.756 L
558.238 251.445 L
595.267 240.662 L
636.596 232.773 L
681.759 226.198 L
726.303 220.149 L
779.019 210.945 L
827.436 202.529 L
888.17 194.114 L
905.092 191.713 L
S
GR
GS
[2 2] 0 setdash
2 LJ
2 LW
N
130.465 531.058 M
130.465 525.74 L
130.504 521.532 L
130.542 518.903 L
130.581 512.854 L
130.62 508.383 L
130.62 503.649 L
130.62 499.705 L
130.62 496.286 L
130.658 492.078 L
130.658 487.607 L
130.736 483.662 L
130.813 479.98 L
130.852 475.773 L
130.891 472.091 L
130.968 468.935 L
131.007 466.042 L
131.123 460.782 L
131.201 455.786 L
131.317 451.315 L
131.433 446.844 L
131.704 442.899 L
131.782 438.166 L
131.898 434.484 L
132.014 429.487 L
132.247 425.279 L
132.285 421.334 L
132.634 416.338 L
132.789 411.604 L
132.944 408.974 L
133.176 403.977 L
133.37 401.61 L
133.757 395.562 L
134.144 390.565 L
134.338 386.883 L
134.725 383.464 L
134.919 377.153 L
135.423 371.367 L
136.004 368.211 L
136.275 364.003 L
136.662 361.899 L
136.972 357.692 L
137.204 356.377 L
137.824 351.117 L
138.56 345.331 L
139.606 340.86 L
140.071 337.442 L
140.884 331.919 L
141.736 328.763 L
142.588 323.24 L
143.634 319.032 L
144.37 316.929 L
145.648 313.51 L
146.927 308.25 L
148.166 301.938 L
149.406 299.308 L
150.451 296.416 L
152.233 291.156 L
154.247 287.474 L
155.758 285.37 L
157.268 282.477 L
159.399 278.269 L
161.529 273.273 L
164.086 269.065 L
166.836 262.753 L
169.082 258.02 L
171.871 254.075 L
175.28 248.815 L
177.681 246.974 L
181.09 243.818 L
184.769 241.188 L
188.604 235.929 L
192.516 231.195 L
196.583 226.198 L
200.65 221.464 L
205.066 217.519 L
209.055 214.89 L
213.703 209.63 L
218.971 205.422 L
223.58 200.425 L
231.249 197.007 L
237.679 192.273 L
243.993 188.328 L
251.585 185.435 L
259.564 182.542 L
265.258 178.86 L
273.198 174.127 L
283.656 170.708 L
294.23 167.026 L
304.03 163.344 L
314.991 159.399 L
325.101 156.769 L
337.263 152.299 L
345.204 148.88 L
357.947 144.935 L
372.317 141.253 L
386.842 137.308 L
402.026 132.838 L
417.519 128.893 L
434.136 124.685 L
450.791 121.529 L
469.345 117.847 L
483.25 113.903 L
500.448 110.221 L
519.698 106.802 L
540.033 101.805 L
562.189 97.597 L
584.112 92.338 L
607.352 87.604 L
633.575 82.87 L
643.181 80.766 L
674.632 76.821 L
703.024 74.192 L
732.655 71.825 L
759.149 69.195 L
791.298 64.461 L
825.112 61.305 L
858.733 56.045 L
890.146 53.153 L
905.092 52.53 L
S
GR
GS
1 LJ
2 LW
N
130.271 531.058 M
130.271 527.581 L
130.31 521.532 L
130.349 517.851 L
130.387 516.01 L
130.387 511.539 L
130.387 507.068 L
130.426 503.123 L
130.426 497.864 L
130.426 496.023 L
130.504 491.026 L
130.62 486.555 L
130.736 483.925 L
130.813 480.506 L
130.813 474.721 L
130.813 470.513 L
130.891 465.779 L
130.93 464.464 L
131.123 459.204 L
131.162 454.208 L
131.239 449.737 L
131.317 445.003 L
131.433 439.481 L
131.549 434.484 L
131.743 430.802 L
131.859 425.805 L
131.937 423.438 L
132.092 418.442 L
132.324 415.549 L
132.518 408.711 L
132.75 404.766 L
133.021 401.61 L
133.37 397.929 L
133.757 392.406 L
133.912 391.354 L
134.532 388.987 L
134.842 385.568 L
135.152 380.834 L
135.5 375.838 L
136.159 370.052 L
136.817 365.844 L
137.359 362.951 L
137.979 359.007 L
138.018 357.429 L
138.599 352.695 L
139.219 349.802 L
139.993 345.068 L
140.845 340.071 L
141.581 336.39 L
142.317 331.393 L
143.557 327.448 L
143.867 325.607 L
145.067 320.61 L
146.539 316.403 L
148.321 311.143 L
150.141 307.724 L
151.613 304.305 L
152.969 300.36 L
154.635 294.838 L
155.448 293.786 L
157.617 290.893 L
160.057 287.474 L
161.878 282.214 L
164.512 278.007 L
167.145 273.536 L
169.392 269.591 L
172.762 266.435 L
175.163 261.175 L
176.015 260.386 L
179.23 257.494 L
182.6 252.497 L
186.241 248.026 L
190.773 245.133 L
194.917 240.399 L
200.185 236.98 L
204.523 232.51 L
205.802 231.195 L
210.721 226.987 L
216.415 225.409 L
223.658 220.412 L
230.087 217.257 L
237.098 212.523 L
244.729 207 L
252.321 203.055 L
260.687 199.636 L
263.282 196.481 L
271.416 192.799 L
280.983 188.854 L
291.325 184.909 L
301.164 181.227 L
311.389 179.123 L
324.055 173.864 L
336.721 169.919 L
340.362 169.13 L
353.609 163.607 L
367.32 160.188 L
381.691 156.506 L
396.952 154.666 L
411.632 150.984 L
428.519 148.091 L
445.911 143.62 L
464.348 139.149 L
469.926 136.519 L
489.486 129.419 L
509.085 125.211 L
531.318 118.899 L
552.467 113.377 L
578.341 109.958 L
602.472 106.013 L
628.075 102.594 L
633.923 101.016 L
662.238 96.808 L
691.559 92.601 L
722.197 89.182 L
753.223 85.237 L
786.03 82.081 L
820.58 79.451 L
852.613 75.243 L
889.216 71.562 L
903.974 68.669 L
905.092 68.561 L
S
GR
%%Trailer
%%Pages: 1
%%EOF
