%!PS-Adobe-3.0 EPSF-3.0
%%Creator: (MATLAB, The Mathworks, Inc. Version 9.2.0.538062 \(R2017a\). Operating System: Mac OS X)
%%Title: /Users/trokielewicz/Dropbox/Aplikacje/Texpad/IrisDisease-BookChapter-2016/images/cataract-F-imp-VE.eps
%%CreationDate: 2017-08-02T13:55:28
%%Pages: (atend)
%%BoundingBox: 0 0 840 390
%%LanguageLevel: 3
%%EndComments
%%BeginProlog
%%BeginResource: procset (Apache XML Graphics Std ProcSet) 1.2 0
%%Version: 1.2 0
%%Copyright: (Copyright 2001-2003,2010 The Apache Software Foundation. License terms: http://www.apache.org/licenses/LICENSE-2.0)
/bd{bind def}bind def
/ld{load def}bd
/GR/grestore ld
/M/moveto ld
/LJ/setlinejoin ld
/C/curveto ld
/f/fill ld
/LW/setlinewidth ld
/GC/setgray ld
/t/show ld
/N/newpath ld
/CT/concat ld
/cp/closepath ld
/S/stroke ld
/L/lineto ld
/CC/setcmykcolor ld
/A/ashow ld
/GS/gsave ld
/RC/setrgbcolor ld
/RM/rmoveto ld
/ML/setmiterlimit ld
/re {4 2 roll M
1 index 0 rlineto
0 exch rlineto
neg 0 rlineto
cp } bd
/_ctm matrix def
/_tm matrix def
/BT { _ctm currentmatrix pop matrix _tm copy pop 0 0 moveto } bd
/ET { _ctm setmatrix } bd
/iTm { _ctm setmatrix _tm concat } bd
/Tm { _tm astore pop iTm 0 0 moveto } bd
/ux 0.0 def
/uy 0.0 def
/F {
  /Tp exch def
  /Tf exch def
  Tf findfont Tp scalefont setfont
  /cf Tf def  /cs Tp def
} bd
/ULS {currentpoint /uy exch def /ux exch def} bd
/ULE {
  /Tcx currentpoint pop def
  gsave
  newpath
  cf findfont cs scalefont dup
  /FontMatrix get 0 get /Ts exch def /FontInfo get dup
  /UnderlinePosition get Ts mul /To exch def
  /UnderlineThickness get Ts mul /Tt exch def
  ux uy To add moveto  Tcx uy To add lineto
  Tt setlinewidth stroke
  grestore
} bd
/OLE {
  /Tcx currentpoint pop def
  gsave
  newpath
  cf findfont cs scalefont dup
  /FontMatrix get 0 get /Ts exch def /FontInfo get dup
  /UnderlinePosition get Ts mul /To exch def
  /UnderlineThickness get Ts mul /Tt exch def
  ux uy To add cs add moveto Tcx uy To add cs add lineto
  Tt setlinewidth stroke
  grestore
} bd
/SOE {
  /Tcx currentpoint pop def
  gsave
  newpath
  cf findfont cs scalefont dup
  /FontMatrix get 0 get /Ts exch def /FontInfo get dup
  /UnderlinePosition get Ts mul /To exch def
  /UnderlineThickness get Ts mul /Tt exch def
  ux uy To add cs 10 mul 26 idiv add moveto Tcx uy To add cs 10 mul 26 idiv add lineto
  Tt setlinewidth stroke
  grestore
} bd
/QT {
/Y22 exch store
/X22 exch store
/Y21 exch store
/X21 exch store
currentpoint
/Y21 load 2 mul add 3 div exch
/X21 load 2 mul add 3 div exch
/X21 load 2 mul /X22 load add 3 div
/Y21 load 2 mul /Y22 load add 3 div
/X22 load /Y22 load curveto
} bd
/SSPD {
dup length /d exch dict def
{
/v exch def
/k exch def
currentpagedevice k known {
/cpdv currentpagedevice k get def
v cpdv ne {
/upd false def
/nullv v type /nulltype eq def
/nullcpdv cpdv type /nulltype eq def
nullv nullcpdv or
{
/upd true def
} {
/sametype v type cpdv type eq def
sametype {
v type /arraytype eq {
/vlen v length def
/cpdvlen cpdv length def
vlen cpdvlen eq {
0 1 vlen 1 sub {
/i exch def
/obj v i get def
/cpdobj cpdv i get def
obj cpdobj ne {
/upd true def
exit
} if
} for
} {
/upd true def
} ifelse
} {
v type /dicttype eq {
v {
/dv exch def
/dk exch def
/cpddv cpdv dk get def
dv cpddv ne {
/upd true def
exit
} if
} forall
} {
/upd true def
} ifelse
} ifelse
} if
} ifelse
upd true eq {
d k v put
} if
} if
} if
} forall
d length 0 gt {
d setpagedevice
} if
} bd
/RE { % /NewFontName [NewEncodingArray] /FontName RE -
  findfont dup length dict begin
  {
    1 index /FID ne
    {def} {pop pop} ifelse
  } forall
  /Encoding exch def
  /FontName 1 index def
  currentdict definefont pop
  end
} bind def
%%EndResource
%%BeginResource: procset (Apache XML Graphics EPS ProcSet) 1.0 0
%%Version: 1.0 0
%%Copyright: (Copyright 2002-2003 The Apache Software Foundation. License terms: http://www.apache.org/licenses/LICENSE-2.0)
/BeginEPSF { %def
/b4_Inc_state save def         % Save state for cleanup
/dict_count countdictstack def % Count objects on dict stack
/op_count count 1 sub def      % Count objects on operand stack
userdict begin                 % Push userdict on dict stack
/showpage { } def              % Redefine showpage, { } = null proc
0 setgray 0 setlinecap         % Prepare graphics state
1 setlinewidth 0 setlinejoin
10 setmiterlimit [ ] 0 setdash newpath
/languagelevel where           % If level not equal to 1 then
{pop languagelevel             % set strokeadjust and
1 ne                           % overprint to their defaults.
{false setstrokeadjust false setoverprint
} if
} if
} bd
/EndEPSF { %def
count op_count sub {pop} repeat            % Clean up stacks
countdictstack dict_count sub {end} repeat
b4_Inc_state restore
} bd
%%EndResource
%FOPBeginFontDict
%%IncludeResource: font Courier-Bold
%%IncludeResource: font Helvetica
%%IncludeResource: font Courier-BoldOblique
%%IncludeResource: font Courier-Oblique
%%IncludeResource: font Times-Roman
%%IncludeResource: font Helvetica-BoldOblique
%%IncludeResource: font Helvetica-Bold
%%IncludeResource: font Helvetica-Oblique
%%IncludeResource: font Times-BoldItalic
%%IncludeResource: font Courier
%%IncludeResource: font Times-Italic
%%IncludeResource: font Times-Bold
%%IncludeResource: font Symbol
%%IncludeResource: font ZapfDingbats
%FOPEndFontDict
%%BeginResource: encoding WinAnsiEncoding
/WinAnsiEncoding [
/.notdef /.notdef /.notdef /.notdef /.notdef
/.notdef /.notdef /.notdef /.notdef /.notdef
/.notdef /.notdef /.notdef /.notdef /.notdef
/.notdef /.notdef /.notdef /.notdef /.notdef
/.notdef /.notdef /.notdef /.notdef /.notdef
/.notdef /.notdef /.notdef /.notdef /.notdef
/.notdef /.notdef /space /exclam /quotedbl
/numbersign /dollar /percent /ampersand /quotesingle
/parenleft /parenright /asterisk /plus /comma
/hyphen /period /slash /zero /one
/two /three /four /five /six
/seven /eight /nine /colon /semicolon
/less /equal /greater /question /at
/A /B /C /D /E
/F /G /H /I /J
/K /L /M /N /O
/P /Q /R /S /T
/U /V /W /X /Y
/Z /bracketleft /backslash /bracketright /asciicircum
/underscore /quoteleft /a /b /c
/d /e /f /g /h
/i /j /k /l /m
/n /o /p /q /r
/s /t /u /v /w
/x /y /z /braceleft /bar
/braceright /asciitilde /bullet /Euro /bullet
/quotesinglbase /florin /quotedblbase /ellipsis /dagger
/daggerdbl /circumflex /perthousand /Scaron /guilsinglleft
/OE /bullet /Zcaron /bullet /bullet
/quoteleft /quoteright /quotedblleft /quotedblright /bullet
/endash /emdash /asciitilde /trademark /scaron
/guilsinglright /oe /bullet /zcaron /Ydieresis
/space /exclamdown /cent /sterling /currency
/yen /brokenbar /section /dieresis /copyright
/ordfeminine /guillemotleft /logicalnot /sfthyphen /registered
/macron /degree /plusminus /twosuperior /threesuperior
/acute /mu /paragraph /middot /cedilla
/onesuperior /ordmasculine /guillemotright /onequarter /onehalf
/threequarters /questiondown /Agrave /Aacute /Acircumflex
/Atilde /Adieresis /Aring /AE /Ccedilla
/Egrave /Eacute /Ecircumflex /Edieresis /Igrave
/Iacute /Icircumflex /Idieresis /Eth /Ntilde
/Ograve /Oacute /Ocircumflex /Otilde /Odieresis
/multiply /Oslash /Ugrave /Uacute /Ucircumflex
/Udieresis /Yacute /Thorn /germandbls /agrave
/aacute /acircumflex /atilde /adieresis /aring
/ae /ccedilla /egrave /eacute /ecircumflex
/edieresis /igrave /iacute /icircumflex /idieresis
/eth /ntilde /ograve /oacute /ocircumflex
/otilde /odieresis /divide /oslash /ugrave
/uacute /ucircumflex /udieresis /yacute /thorn
/ydieresis
] def
%%EndResource
%FOPBeginFontReencode
/Courier-Bold findfont
dup length dict begin
  {1 index /FID ne {def} {pop pop} ifelse} forall
  /Encoding WinAnsiEncoding def
  currentdict
end
/Courier-Bold exch definefont pop
/Helvetica findfont
dup length dict begin
  {1 index /FID ne {def} {pop pop} ifelse} forall
  /Encoding WinAnsiEncoding def
  currentdict
end
/Helvetica exch definefont pop
/Courier-BoldOblique findfont
dup length dict begin
  {1 index /FID ne {def} {pop pop} ifelse} forall
  /Encoding WinAnsiEncoding def
  currentdict
end
/Courier-BoldOblique exch definefont pop
/Courier-Oblique findfont
dup length dict begin
  {1 index /FID ne {def} {pop pop} ifelse} forall
  /Encoding WinAnsiEncoding def
  currentdict
end
/Courier-Oblique exch definefont pop
/Times-Roman findfont
dup length dict begin
  {1 index /FID ne {def} {pop pop} ifelse} forall
  /Encoding WinAnsiEncoding def
  currentdict
end
/Times-Roman exch definefont pop
/Helvetica-BoldOblique findfont
dup length dict begin
  {1 index /FID ne {def} {pop pop} ifelse} forall
  /Encoding WinAnsiEncoding def
  currentdict
end
/Helvetica-BoldOblique exch definefont pop
/Helvetica-Bold findfont
dup length dict begin
  {1 index /FID ne {def} {pop pop} ifelse} forall
  /Encoding WinAnsiEncoding def
  currentdict
end
/Helvetica-Bold exch definefont pop
/Helvetica-Oblique findfont
dup length dict begin
  {1 index /FID ne {def} {pop pop} ifelse} forall
  /Encoding WinAnsiEncoding def
  currentdict
end
/Helvetica-Oblique exch definefont pop
/Times-BoldItalic findfont
dup length dict begin
  {1 index /FID ne {def} {pop pop} ifelse} forall
  /Encoding WinAnsiEncoding def
  currentdict
end
/Times-BoldItalic exch definefont pop
/Courier findfont
dup length dict begin
  {1 index /FID ne {def} {pop pop} ifelse} forall
  /Encoding WinAnsiEncoding def
  currentdict
end
/Courier exch definefont pop
/Times-Italic findfont
dup length dict begin
  {1 index /FID ne {def} {pop pop} ifelse} forall
  /Encoding WinAnsiEncoding def
  currentdict
end
/Times-Italic exch definefont pop
/Times-Bold findfont
dup length dict begin
  {1 index /FID ne {def} {pop pop} ifelse} forall
  /Encoding WinAnsiEncoding def
  currentdict
end
/Times-Bold exch definefont pop
%FOPEndFontReencode
%%EndProlog
%%Page: 1 1
%%PageBoundingBox: 0 0 840 390
%%BeginPageSetup
[1 0 0 -1 0 390] CT
%%EndPageSetup
GS
1 GC
N
0 0 840 390 re
f
GR
GS
1 GC
N
0 0 840 390 re
f
GR
GS
1 GC
N
109 305 M
760 305 L
760 49 L
109 49 L
cp
f
GR
GS
0.873 GC
1 LJ
0.5 LW
N
109 305 M
109 49 L
S
GR
GS
0.873 GC
1 LJ
0.5 LW
N
217.5 305 M
217.5 49 L
S
GR
GS
0.873 GC
1 LJ
0.5 LW
N
326 305 M
326 49 L
S
GR
GS
0.873 GC
1 LJ
0.5 LW
N
434.5 305 M
434.5 49 L
S
GR
GS
0.873 GC
1 LJ
0.5 LW
N
543 305 M
543 49 L
S
GR
GS
0.873 GC
1 LJ
0.5 LW
N
651.5 305 M
651.5 49 L
S
GR
GS
0.873 GC
1 LJ
0.5 LW
N
760 305 M
760 49 L
S
GR
GS
0.873 GC
1 LJ
0.5 LW
N
760 305 M
109 305 L
S
GR
GS
0.873 GC
1 LJ
0.5 LW
N
760 177 M
109 177 L
S
GR
GS
0.873 GC
1 LJ
0.5 LW
N
760 49 M
109 49 L
S
GR
GS
0.149 GC
2 setlinecap
1 LJ
0.5 LW
N
109 305 M
760 305 L
S
GR
GS
0.149 GC
2 setlinecap
1 LJ
0.5 LW
N
109 49 M
760 49 L
S
GR
GS
0.149 GC
2 setlinecap
1 LJ
0.5 LW
N
109 305 M
109 298.49 L
S
GR
GS
0.149 GC
2 setlinecap
1 LJ
0.5 LW
N
217.5 305 M
217.5 298.49 L
S
GR
GS
0.149 GC
2 setlinecap
1 LJ
0.5 LW
N
326 305 M
326 298.49 L
S
GR
GS
0.149 GC
2 setlinecap
1 LJ
0.5 LW
N
434.5 305 M
434.5 298.49 L
S
GR
GS
0.149 GC
2 setlinecap
1 LJ
0.5 LW
N
543 305 M
543 298.49 L
S
GR
GS
0.149 GC
2 setlinecap
1 LJ
0.5 LW
N
651.5 305 M
651.5 298.49 L
S
GR
GS
0.149 GC
2 setlinecap
1 LJ
0.5 LW
N
760 305 M
760 298.49 L
S
GR
GS
0.149 GC
2 setlinecap
1 LJ
0.5 LW
N
109 49 M
109 55.51 L
S
GR
GS
0.149 GC
2 setlinecap
1 LJ
0.5 LW
N
217.5 49 M
217.5 55.51 L
S
GR
GS
0.149 GC
2 setlinecap
1 LJ
0.5 LW
N
326 49 M
326 55.51 L
S
GR
GS
0.149 GC
2 setlinecap
1 LJ
0.5 LW
N
434.5 49 M
434.5 55.51 L
S
GR
GS
0.149 GC
2 setlinecap
1 LJ
0.5 LW
N
543 49 M
543 55.51 L
S
GR
GS
0.149 GC
2 setlinecap
1 LJ
0.5 LW
N
651.5 49 M
651.5 55.51 L
S
GR
GS
0.149 GC
2 setlinecap
1 LJ
0.5 LW
N
760 49 M
760 55.51 L
S
GR
GS
[1 0 0 1 109 313] CT
0.149 GC
/Helvetica 30 F
GS
[1 0 0 1 0 0] CT
-8.5 29 moveto 
1 -1 scale
(0) t 
GR
GR
GS
[1 0 0 1 217.5 313] CT
0.149 GC
/Helvetica 30 F
GS
[1 0 0 1 0 0] CT
-17 29 moveto 
1 -1 scale
(10) t 
GR
GR
GS
[1 0 0 1 326 313] CT
0.149 GC
/Helvetica 30 F
GS
[1 0 0 1 0 0] CT
-17 29 moveto 
1 -1 scale
(20) t 
GR
GR
GS
[1 0 0 1 434.5 313] CT
0.149 GC
/Helvetica 30 F
GS
[1 0 0 1 0 0] CT
-17 29 moveto 
1 -1 scale
(30) t 
GR
GR
GS
[1 0 0 1 543 313] CT
0.149 GC
/Helvetica 30 F
GS
[1 0 0 1 0 0] CT
-17 29 moveto 
1 -1 scale
(40) t 
GR
GR
GS
[1 0 0 1 651.5 313] CT
0.149 GC
/Helvetica 30 F
GS
[1 0 0 1 0 0] CT
-17 29 moveto 
1 -1 scale
(50) t 
GR
GR
GS
[1 0 0 1 760 313] CT
0.149 GC
/Helvetica 30 F
GS
[1 0 0 1 0 0] CT
-17 29 moveto 
1 -1 scale
(60) t 
GR
GR
GS
[1 0 0 1 434.50031 350] CT
0.149 GC
/Helvetica 33 F
GS
[1 0 0 1 0 0] CT
-9 32 moveto 
1 -1 scale
(x) t 
GR
GR
GS
0.149 GC
2 setlinecap
1 LJ
0.5 LW
N
109 305 M
109 49 L
S
GR
GS
0.149 GC
2 setlinecap
1 LJ
0.5 LW
N
760 305 M
760 49 L
S
GR
GS
0.149 GC
2 setlinecap
1 LJ
0.5 LW
N
109 305 M
115.51 305 L
S
GR
GS
0.149 GC
2 setlinecap
1 LJ
0.5 LW
N
109 177 M
115.51 177 L
S
GR
GS
0.149 GC
2 setlinecap
1 LJ
0.5 LW
N
109 49 M
115.51 49 L
S
GR
GS
0.149 GC
2 setlinecap
1 LJ
0.5 LW
N
760 305 M
753.49 305 L
S
GR
GS
0.149 GC
2 setlinecap
1 LJ
0.5 LW
N
760 177 M
753.49 177 L
S
GR
GS
0.149 GC
2 setlinecap
1 LJ
0.5 LW
N
760 49 M
753.49 49 L
S
GR
GS
[1 0 0 1 101 305] CT
0.149 GC
/Helvetica 30 F
GS
[1 0 0 1 0 0] CT
-17 11 moveto 
1 -1 scale
(0) t 
GR
GR
GS
[1 0 0 1 101 177] CT
0.149 GC
/Helvetica 30 F
GS
[1 0 0 1 0 0] CT
-42 11 moveto 
1 -1 scale
(0.5) t 
GR
GR
GS
[1 0 0 1 101 49] CT
0.149 GC
/Helvetica 30 F
GS
[1 0 0 1 0 0] CT
-17 11 moveto 
1 -1 scale
(1) t 
GR
GR
GS
[0 -1 1 0 56 176.99988] CT
0.149 GC
/Helvetica 33 F
GS
[1 0 0 1 0 0] CT
-27 -8 moveto 
1 -1 scale
(F\(x\)) t 
GR
GR
GS
[1 0 0 1 434.50043 40.75] CT
/Helvetica-Bold 33 F
GS
[1 0 0 1 0 0] CT
-59.5 -8 moveto 
1 -1 scale
(VeriEye) t 
GR
GR
GS
0 0.447 0.741 RC
1 LJ
6 LW
N
109 305 M
109 146.113 L
119.85 146.113 L
119.85 134.815 L
130.7 134.815 L
130.7 123.967 L
141.55 123.967 L
141.55 113.799 L
152.4 113.799 L
152.4 104.501 L
163.25 104.501 L
163.25 95.909 L
174.1 95.909 L
174.1 88.464 L
184.95 88.464 L
184.95 81.973 L
195.8 81.973 L
195.8 76.221 L
206.65 76.221 L
206.65 71.211 L
217.5 71.211 L
217.5 67.12 L
228.35 67.12 L
228.35 63.698 L
239.2 63.698 L
239.2 60.908 L
250.05 60.908 L
250.05 58.62 L
260.9 58.62 L
260.9 56.713 L
271.75 56.713 L
271.75 56.197 L
282.6 56.197 L
282.6 55.843 L
293.45 55.843 L
293.45 55.249 L
304.3 55.249 L
304.3 54.457 L
315.15 54.457 L
315.15 53.511 L
326 53.511 L
326 52.757 L
336.85 52.757 L
336.85 52.047 L
347.7 52.047 L
347.7 51.5 L
358.55 51.5 L
358.55 51.022 L
369.4 51.022 L
369.4 50.612 L
380.25 50.612 L
380.25 50.307 L
391.1 50.307 L
391.1 50.021 L
401.95 50.021 L
401.95 49.803 L
412.8 49.803 L
412.8 49.625 L
423.65 49.625 L
423.65 49.515 L
434.5 49.515 L
434.5 49.397 L
445.35 49.397 L
445.35 49.322 L
456.2 49.322 L
456.2 49.272 L
467.05 49.272 L
467.05 49.221 L
477.9 49.221 L
477.9 49.169 L
488.75 49.169 L
488.75 49.144 L
499.6 49.144 L
499.6 49.112 L
510.45 49.112 L
510.45 49.086 L
521.3 49.086 L
521.3 49.073 L
532.15 49.073 L
532.15 49.052 L
543 49.052 L
543 49.039 L
553.85 49.039 L
553.85 49.034 L
564.7 49.034 L
564.7 49.024 L
575.55 49.024 L
575.55 49.015 L
586.4 49.015 L
586.4 49.013 L
608.1 49.013 L
608.1 49.011 L
618.95 49.011 L
618.95 49.009 L
640.65 49.009 L
640.65 49.007 L
651.5 49.007 L
651.5 49.004 L
662.35 49.004 L
662.35 49.002 L
684.05 49.002 L
684.05 49 L
S
GR
GS
0.851 0.325 0.098 RC
[6 6] 0 setdash
2 LJ
6 LW
N
109 305 M
109 163.185 L
119.85 163.185 L
119.85 151.095 L
130.7 151.095 L
130.7 139.461 L
141.55 139.461 L
141.55 128.148 L
152.4 128.148 L
152.4 117.685 L
163.25 117.685 L
163.25 108.045 L
174.1 108.045 L
174.1 99.082 L
184.95 99.082 L
184.95 91.153 L
195.8 91.153 L
195.8 83.745 L
206.65 83.745 L
206.65 77.791 L
217.5 77.791 L
217.5 72.249 L
228.35 72.249 L
228.35 67.621 L
239.2 67.621 L
239.2 63.944 L
250.05 63.944 L
250.05 60.871 L
260.9 60.871 L
260.9 58.301 L
271.75 58.301 L
271.75 57.725 L
282.6 57.725 L
282.6 57.332 L
293.45 57.332 L
293.45 56.673 L
304.3 56.673 L
304.3 55.494 L
315.15 55.494 L
315.15 54.442 L
326 54.442 L
326 53.399 L
336.85 53.399 L
336.85 52.64 L
347.7 52.64 L
347.7 51.826 L
358.55 51.826 L
358.55 51.168 L
369.4 51.168 L
369.4 50.719 L
380.25 50.719 L
380.25 50.363 L
391.1 50.363 L
391.1 50.125 L
401.95 50.125 L
401.95 49.814 L
412.8 49.814 L
412.8 49.658 L
423.65 49.658 L
423.65 49.494 L
434.5 49.494 L
434.5 49.366 L
445.35 49.366 L
445.35 49.293 L
456.2 49.293 L
456.2 49.247 L
467.05 49.247 L
467.05 49.174 L
477.9 49.174 L
477.9 49.155 L
488.75 49.155 L
488.75 49.101 L
510.45 49.101 L
510.45 49.082 L
521.3 49.082 L
521.3 49.064 L
543 49.064 L
543 49.037 L
553.85 49.037 L
553.85 49 L
S
GR
GS
1 GC
N
403 295 M
403 226 L
750 226 L
750 295 L
cp
f
GR
GS
[1 0 0 1 440 244.13139] CT
/Helvetica 27 F
GS
[1 0 0 1 0 0] CT
0 10 moveto 
1 -1 scale
(Cataract \(mean = 2.5724\)) t 
GR
GR
GS
0 0.447 0.741 RC
1 LJ
6 LW
N
407 244.131 M
437 244.131 L
S
GR
GS
[1 0 0 1 440 276.86862] CT
/Helvetica 27 F
GS
[1 0 0 1 0 0] CT
0 10 moveto 
1 -1 scale
(Healthy \(mean = 3.1443\)) t 
GR
GR
GS
0.851 0.325 0.098 RC
[6 6] 0 setdash
2 LJ
6 LW
N
407 276.869 M
437 276.869 L
S
GR
GS
0.149 GC
10.0 ML
0.5 LW
N
403 295 M
403 226 L
750 226 L
750 295 L
cp
S
GR
%%Trailer
%%Pages: 1
%%EOF
