%!PS-Adobe-3.0 EPSF-3.0
%%Creator: (MATLAB, The Mathworks, Inc. Version 9.2.0.538062 \(R2017a\). Operating System: Mac OS X)
%%Title: /Users/trokielewicz/Dropbox/Aplikacje/Texpad/IrisDisease-BookChapter-2016/images/cataract-F-imp-ML.eps
%%CreationDate: 2017-08-02T13:56:55
%%Pages: (atend)
%%BoundingBox: 0 0 840 390
%%LanguageLevel: 3
%%EndComments
%%BeginProlog
%%BeginResource: procset (Apache XML Graphics Std ProcSet) 1.2 0
%%Version: 1.2 0
%%Copyright: (Copyright 2001-2003,2010 The Apache Software Foundation. License terms: http://www.apache.org/licenses/LICENSE-2.0)
/bd{bind def}bind def
/ld{load def}bd
/GR/grestore ld
/M/moveto ld
/LJ/setlinejoin ld
/C/curveto ld
/f/fill ld
/LW/setlinewidth ld
/GC/setgray ld
/t/show ld
/N/newpath ld
/CT/concat ld
/cp/closepath ld
/S/stroke ld
/L/lineto ld
/CC/setcmykcolor ld
/A/ashow ld
/GS/gsave ld
/RC/setrgbcolor ld
/RM/rmoveto ld
/ML/setmiterlimit ld
/re {4 2 roll M
1 index 0 rlineto
0 exch rlineto
neg 0 rlineto
cp } bd
/_ctm matrix def
/_tm matrix def
/BT { _ctm currentmatrix pop matrix _tm copy pop 0 0 moveto } bd
/ET { _ctm setmatrix } bd
/iTm { _ctm setmatrix _tm concat } bd
/Tm { _tm astore pop iTm 0 0 moveto } bd
/ux 0.0 def
/uy 0.0 def
/F {
  /Tp exch def
  /Tf exch def
  Tf findfont Tp scalefont setfont
  /cf Tf def  /cs Tp def
} bd
/ULS {currentpoint /uy exch def /ux exch def} bd
/ULE {
  /Tcx currentpoint pop def
  gsave
  newpath
  cf findfont cs scalefont dup
  /FontMatrix get 0 get /Ts exch def /FontInfo get dup
  /UnderlinePosition get Ts mul /To exch def
  /UnderlineThickness get Ts mul /Tt exch def
  ux uy To add moveto  Tcx uy To add lineto
  Tt setlinewidth stroke
  grestore
} bd
/OLE {
  /Tcx currentpoint pop def
  gsave
  newpath
  cf findfont cs scalefont dup
  /FontMatrix get 0 get /Ts exch def /FontInfo get dup
  /UnderlinePosition get Ts mul /To exch def
  /UnderlineThickness get Ts mul /Tt exch def
  ux uy To add cs add moveto Tcx uy To add cs add lineto
  Tt setlinewidth stroke
  grestore
} bd
/SOE {
  /Tcx currentpoint pop def
  gsave
  newpath
  cf findfont cs scalefont dup
  /FontMatrix get 0 get /Ts exch def /FontInfo get dup
  /UnderlinePosition get Ts mul /To exch def
  /UnderlineThickness get Ts mul /Tt exch def
  ux uy To add cs 10 mul 26 idiv add moveto Tcx uy To add cs 10 mul 26 idiv add lineto
  Tt setlinewidth stroke
  grestore
} bd
/QT {
/Y22 exch store
/X22 exch store
/Y21 exch store
/X21 exch store
currentpoint
/Y21 load 2 mul add 3 div exch
/X21 load 2 mul add 3 div exch
/X21 load 2 mul /X22 load add 3 div
/Y21 load 2 mul /Y22 load add 3 div
/X22 load /Y22 load curveto
} bd
/SSPD {
dup length /d exch dict def
{
/v exch def
/k exch def
currentpagedevice k known {
/cpdv currentpagedevice k get def
v cpdv ne {
/upd false def
/nullv v type /nulltype eq def
/nullcpdv cpdv type /nulltype eq def
nullv nullcpdv or
{
/upd true def
} {
/sametype v type cpdv type eq def
sametype {
v type /arraytype eq {
/vlen v length def
/cpdvlen cpdv length def
vlen cpdvlen eq {
0 1 vlen 1 sub {
/i exch def
/obj v i get def
/cpdobj cpdv i get def
obj cpdobj ne {
/upd true def
exit
} if
} for
} {
/upd true def
} ifelse
} {
v type /dicttype eq {
v {
/dv exch def
/dk exch def
/cpddv cpdv dk get def
dv cpddv ne {
/upd true def
exit
} if
} forall
} {
/upd true def
} ifelse
} ifelse
} if
} ifelse
upd true eq {
d k v put
} if
} if
} if
} forall
d length 0 gt {
d setpagedevice
} if
} bd
/RE { % /NewFontName [NewEncodingArray] /FontName RE -
  findfont dup length dict begin
  {
    1 index /FID ne
    {def} {pop pop} ifelse
  } forall
  /Encoding exch def
  /FontName 1 index def
  currentdict definefont pop
  end
} bind def
%%EndResource
%%BeginResource: procset (Apache XML Graphics EPS ProcSet) 1.0 0
%%Version: 1.0 0
%%Copyright: (Copyright 2002-2003 The Apache Software Foundation. License terms: http://www.apache.org/licenses/LICENSE-2.0)
/BeginEPSF { %def
/b4_Inc_state save def         % Save state for cleanup
/dict_count countdictstack def % Count objects on dict stack
/op_count count 1 sub def      % Count objects on operand stack
userdict begin                 % Push userdict on dict stack
/showpage { } def              % Redefine showpage, { } = null proc
0 setgray 0 setlinecap         % Prepare graphics state
1 setlinewidth 0 setlinejoin
10 setmiterlimit [ ] 0 setdash newpath
/languagelevel where           % If level not equal to 1 then
{pop languagelevel             % set strokeadjust and
1 ne                           % overprint to their defaults.
{false setstrokeadjust false setoverprint
} if
} if
} bd
/EndEPSF { %def
count op_count sub {pop} repeat            % Clean up stacks
countdictstack dict_count sub {end} repeat
b4_Inc_state restore
} bd
%%EndResource
%FOPBeginFontDict
%%IncludeResource: font Courier-Bold
%%IncludeResource: font Helvetica
%%IncludeResource: font Courier-BoldOblique
%%IncludeResource: font Courier-Oblique
%%IncludeResource: font Times-Roman
%%IncludeResource: font Helvetica-BoldOblique
%%IncludeResource: font Helvetica-Bold
%%IncludeResource: font Helvetica-Oblique
%%IncludeResource: font Times-BoldItalic
%%IncludeResource: font Courier
%%IncludeResource: font Times-Italic
%%IncludeResource: font Times-Bold
%%IncludeResource: font Symbol
%%IncludeResource: font ZapfDingbats
%FOPEndFontDict
%%BeginResource: encoding WinAnsiEncoding
/WinAnsiEncoding [
/.notdef /.notdef /.notdef /.notdef /.notdef
/.notdef /.notdef /.notdef /.notdef /.notdef
/.notdef /.notdef /.notdef /.notdef /.notdef
/.notdef /.notdef /.notdef /.notdef /.notdef
/.notdef /.notdef /.notdef /.notdef /.notdef
/.notdef /.notdef /.notdef /.notdef /.notdef
/.notdef /.notdef /space /exclam /quotedbl
/numbersign /dollar /percent /ampersand /quotesingle
/parenleft /parenright /asterisk /plus /comma
/hyphen /period /slash /zero /one
/two /three /four /five /six
/seven /eight /nine /colon /semicolon
/less /equal /greater /question /at
/A /B /C /D /E
/F /G /H /I /J
/K /L /M /N /O
/P /Q /R /S /T
/U /V /W /X /Y
/Z /bracketleft /backslash /bracketright /asciicircum
/underscore /quoteleft /a /b /c
/d /e /f /g /h
/i /j /k /l /m
/n /o /p /q /r
/s /t /u /v /w
/x /y /z /braceleft /bar
/braceright /asciitilde /bullet /Euro /bullet
/quotesinglbase /florin /quotedblbase /ellipsis /dagger
/daggerdbl /circumflex /perthousand /Scaron /guilsinglleft
/OE /bullet /Zcaron /bullet /bullet
/quoteleft /quoteright /quotedblleft /quotedblright /bullet
/endash /emdash /asciitilde /trademark /scaron
/guilsinglright /oe /bullet /zcaron /Ydieresis
/space /exclamdown /cent /sterling /currency
/yen /brokenbar /section /dieresis /copyright
/ordfeminine /guillemotleft /logicalnot /sfthyphen /registered
/macron /degree /plusminus /twosuperior /threesuperior
/acute /mu /paragraph /middot /cedilla
/onesuperior /ordmasculine /guillemotright /onequarter /onehalf
/threequarters /questiondown /Agrave /Aacute /Acircumflex
/Atilde /Adieresis /Aring /AE /Ccedilla
/Egrave /Eacute /Ecircumflex /Edieresis /Igrave
/Iacute /Icircumflex /Idieresis /Eth /Ntilde
/Ograve /Oacute /Ocircumflex /Otilde /Odieresis
/multiply /Oslash /Ugrave /Uacute /Ucircumflex
/Udieresis /Yacute /Thorn /germandbls /agrave
/aacute /acircumflex /atilde /adieresis /aring
/ae /ccedilla /egrave /eacute /ecircumflex
/edieresis /igrave /iacute /icircumflex /idieresis
/eth /ntilde /ograve /oacute /ocircumflex
/otilde /odieresis /divide /oslash /ugrave
/uacute /ucircumflex /udieresis /yacute /thorn
/ydieresis
] def
%%EndResource
%FOPBeginFontReencode
/Courier-Bold findfont
dup length dict begin
  {1 index /FID ne {def} {pop pop} ifelse} forall
  /Encoding WinAnsiEncoding def
  currentdict
end
/Courier-Bold exch definefont pop
/Helvetica findfont
dup length dict begin
  {1 index /FID ne {def} {pop pop} ifelse} forall
  /Encoding WinAnsiEncoding def
  currentdict
end
/Helvetica exch definefont pop
/Courier-BoldOblique findfont
dup length dict begin
  {1 index /FID ne {def} {pop pop} ifelse} forall
  /Encoding WinAnsiEncoding def
  currentdict
end
/Courier-BoldOblique exch definefont pop
/Courier-Oblique findfont
dup length dict begin
  {1 index /FID ne {def} {pop pop} ifelse} forall
  /Encoding WinAnsiEncoding def
  currentdict
end
/Courier-Oblique exch definefont pop
/Times-Roman findfont
dup length dict begin
  {1 index /FID ne {def} {pop pop} ifelse} forall
  /Encoding WinAnsiEncoding def
  currentdict
end
/Times-Roman exch definefont pop
/Helvetica-BoldOblique findfont
dup length dict begin
  {1 index /FID ne {def} {pop pop} ifelse} forall
  /Encoding WinAnsiEncoding def
  currentdict
end
/Helvetica-BoldOblique exch definefont pop
/Helvetica-Bold findfont
dup length dict begin
  {1 index /FID ne {def} {pop pop} ifelse} forall
  /Encoding WinAnsiEncoding def
  currentdict
end
/Helvetica-Bold exch definefont pop
/Helvetica-Oblique findfont
dup length dict begin
  {1 index /FID ne {def} {pop pop} ifelse} forall
  /Encoding WinAnsiEncoding def
  currentdict
end
/Helvetica-Oblique exch definefont pop
/Times-BoldItalic findfont
dup length dict begin
  {1 index /FID ne {def} {pop pop} ifelse} forall
  /Encoding WinAnsiEncoding def
  currentdict
end
/Times-BoldItalic exch definefont pop
/Courier findfont
dup length dict begin
  {1 index /FID ne {def} {pop pop} ifelse} forall
  /Encoding WinAnsiEncoding def
  currentdict
end
/Courier exch definefont pop
/Times-Italic findfont
dup length dict begin
  {1 index /FID ne {def} {pop pop} ifelse} forall
  /Encoding WinAnsiEncoding def
  currentdict
end
/Times-Italic exch definefont pop
/Times-Bold findfont
dup length dict begin
  {1 index /FID ne {def} {pop pop} ifelse} forall
  /Encoding WinAnsiEncoding def
  currentdict
end
/Times-Bold exch definefont pop
%FOPEndFontReencode
%%EndProlog
%%Page: 1 1
%%PageBoundingBox: 0 0 840 390
%%BeginPageSetup
[1 0 0 -1 0 390] CT
%%EndPageSetup
GS
1 GC
N
0 0 840 390 re
f
GR
GS
1 GC
N
0 0 840 390 re
f
GR
GS
1 GC
N
109 305 M
760 305 L
760 49 L
109 49 L
cp
f
GR
GS
0.873 GC
1 LJ
0.5 LW
N
109 305 M
109 49 L
S
GR
GS
0.873 GC
1 LJ
0.5 LW
N
271.75 305 M
271.75 49 L
S
GR
GS
0.873 GC
1 LJ
0.5 LW
N
434.5 305 M
434.5 49 L
S
GR
GS
0.873 GC
1 LJ
0.5 LW
N
597.25 305 M
597.25 49 L
S
GR
GS
0.873 GC
1 LJ
0.5 LW
N
760 305 M
760 49 L
S
GR
GS
0.873 GC
1 LJ
0.5 LW
N
760 305 M
109 305 L
S
GR
GS
0.873 GC
1 LJ
0.5 LW
N
760 177 M
109 177 L
S
GR
GS
0.873 GC
1 LJ
0.5 LW
N
760 49 M
109 49 L
S
GR
GS
0.149 GC
2 setlinecap
1 LJ
0.5 LW
N
109 305 M
760 305 L
S
GR
GS
0.149 GC
2 setlinecap
1 LJ
0.5 LW
N
109 49 M
760 49 L
S
GR
GS
0.149 GC
2 setlinecap
1 LJ
0.5 LW
N
109 305 M
109 298.49 L
S
GR
GS
0.149 GC
2 setlinecap
1 LJ
0.5 LW
N
271.75 305 M
271.75 298.49 L
S
GR
GS
0.149 GC
2 setlinecap
1 LJ
0.5 LW
N
434.5 305 M
434.5 298.49 L
S
GR
GS
0.149 GC
2 setlinecap
1 LJ
0.5 LW
N
597.25 305 M
597.25 298.49 L
S
GR
GS
0.149 GC
2 setlinecap
1 LJ
0.5 LW
N
760 305 M
760 298.49 L
S
GR
GS
0.149 GC
2 setlinecap
1 LJ
0.5 LW
N
109 49 M
109 55.51 L
S
GR
GS
0.149 GC
2 setlinecap
1 LJ
0.5 LW
N
271.75 49 M
271.75 55.51 L
S
GR
GS
0.149 GC
2 setlinecap
1 LJ
0.5 LW
N
434.5 49 M
434.5 55.51 L
S
GR
GS
0.149 GC
2 setlinecap
1 LJ
0.5 LW
N
597.25 49 M
597.25 55.51 L
S
GR
GS
0.149 GC
2 setlinecap
1 LJ
0.5 LW
N
760 49 M
760 55.51 L
S
GR
GS
[1 0 0 1 109 313] CT
0.149 GC
/Helvetica 30 F
GS
[1 0 0 1 0 0] CT
-8.5 29 moveto 
1 -1 scale
(0) t 
GR
GR
GS
[1 0 0 1 271.75 313] CT
0.149 GC
/Helvetica 30 F
GS
[1 0 0 1 0 0] CT
-21 29 moveto 
1 -1 scale
(0.2) t 
GR
GR
GS
[1 0 0 1 434.5 313] CT
0.149 GC
/Helvetica 30 F
GS
[1 0 0 1 0 0] CT
-21 29 moveto 
1 -1 scale
(0.4) t 
GR
GR
GS
[1 0 0 1 597.25 313] CT
0.149 GC
/Helvetica 30 F
GS
[1 0 0 1 0 0] CT
-21 29 moveto 
1 -1 scale
(0.6) t 
GR
GR
GS
[1 0 0 1 760 313] CT
0.149 GC
/Helvetica 30 F
GS
[1 0 0 1 0 0] CT
-21 29 moveto 
1 -1 scale
(0.8) t 
GR
GR
GS
[1 0 0 1 434.50031 350] CT
0.149 GC
/Helvetica 33 F
GS
[1 0 0 1 0 0] CT
-9 32 moveto 
1 -1 scale
(x) t 
GR
GR
GS
0.149 GC
2 setlinecap
1 LJ
0.5 LW
N
109 305 M
109 49 L
S
GR
GS
0.149 GC
2 setlinecap
1 LJ
0.5 LW
N
760 305 M
760 49 L
S
GR
GS
0.149 GC
2 setlinecap
1 LJ
0.5 LW
N
109 305 M
115.51 305 L
S
GR
GS
0.149 GC
2 setlinecap
1 LJ
0.5 LW
N
109 177 M
115.51 177 L
S
GR
GS
0.149 GC
2 setlinecap
1 LJ
0.5 LW
N
109 49 M
115.51 49 L
S
GR
GS
0.149 GC
2 setlinecap
1 LJ
0.5 LW
N
760 305 M
753.49 305 L
S
GR
GS
0.149 GC
2 setlinecap
1 LJ
0.5 LW
N
760 177 M
753.49 177 L
S
GR
GS
0.149 GC
2 setlinecap
1 LJ
0.5 LW
N
760 49 M
753.49 49 L
S
GR
GS
[1 0 0 1 101 305] CT
0.149 GC
/Helvetica 30 F
GS
[1 0 0 1 0 0] CT
-17 11 moveto 
1 -1 scale
(0) t 
GR
GR
GS
[1 0 0 1 101 177] CT
0.149 GC
/Helvetica 30 F
GS
[1 0 0 1 0 0] CT
-42 11 moveto 
1 -1 scale
(0.5) t 
GR
GR
GS
[1 0 0 1 101 49] CT
0.149 GC
/Helvetica 30 F
GS
[1 0 0 1 0 0] CT
-17 11 moveto 
1 -1 scale
(1) t 
GR
GR
GS
[0 -1 1 0 56 176.99988] CT
0.149 GC
/Helvetica 33 F
GS
[1 0 0 1 0 0] CT
-27 -8 moveto 
1 -1 scale
(F\(x\)) t 
GR
GR
GS
[1 0 0 1 434.50043 40.75] CT
/Helvetica-Bold 33 F
GS
[1 0 0 1 0 0] CT
-59 -8 moveto 
1 -1 scale
(MIRLIN) t 
GR
GR
GS
0 0.447 0.741 RC
1 LJ
6 LW
N
164.22 305 M
164.22 304.998 L
186.585 304.998 L
186.585 304.996 L
202.14 304.996 L
202.14 304.993 L
206.107 304.993 L
206.107 304.991 L
207.774 304.991 L
207.877 304.987 L
212.37 304.987 L
212.37 304.985 L
213.791 304.985 L
213.791 304.983 L
216.209 304.983 L
216.209 304.98 L
218.685 304.98 L
218.685 304.978 L
220.072 304.978 L
220.072 304.976 L
220.756 304.976 L
221.863 304.972 L
226.738 304.972 L
226.738 304.97 L
228.564 304.97 L
229.456 304.965 L
229.874 304.965 L
229.874 304.963 L
231.921 304.963 L
232.415 304.959 L
232.617 304.959 L
233.434 304.954 L
236.91 304.954 L
236.91 304.952 L
238.364 304.952 L
238.364 304.95 L
238.512 304.95 L
239.517 304.943 L
240.233 304.943 L
240.233 304.941 L
241.747 304.941 L
242.601 304.933 L
243.222 304.933 L
244.148 304.928 L
244.671 304.928 L
244.671 304.926 L
247.108 304.926 L
247.272 304.92 L
249.036 304.92 L
249.807 304.915 L
250.717 304.915 L
251.768 304.911 L
252.33 304.911 L
253.341 304.904 L
253.516 304.904 L
254.048 304.9 L
255.386 304.9 L
256.482 304.893 L
256.884 304.893 L
257.1 304.889 L
258.027 304.889 L
258.781 304.878 L
259.961 304.878 L
260.531 304.874 L
261.17 304.874 L
262.088 304.867 L
262.633 304.867 L
262.633 304.865 L
264.385 304.865 L
265.2 304.859 L
265.832 304.859 L
265.832 304.857 L
267.792 304.857 L
268.324 304.841 L
268.813 304.841 L
269.685 304.833 L
270.321 304.833 L
270.73 304.822 L
271.744 304.822 L
272.48 304.813 L
273.278 304.813 L
274.1 304.804 L
275.08 304.804 L
275.977 304.796 L
276.025 304.796 L
277.496 304.778 L
278.034 304.778 L
278.642 304.772 L
279.008 304.772 L
280.376 304.759 L
280.5 304.759 L
281.858 304.739 L
282.157 304.739 L
283.404 304.722 L
283.97 304.722 L
284.437 304.702 L
285.074 304.702 L
286.354 304.687 L
286.59 304.687 L
287.892 304.659 L
288.033 304.659 L
289.344 304.633 L
289.521 304.633 L
290.981 304.604 L
291.101 304.604 L
292.354 304.574 L
292.649 304.574 L
293.878 304.548 L
294.091 304.548 L
295.495 304.509 L
295.549 304.509 L
296.998 304.474 L
297.108 304.474 L
297.995 304.448 L
298.806 304.448 L
299.999 304.411 L
300.014 304.411 L
301.288 304.367 L
301.751 304.367 L
302.817 304.33 L
303.051 304.33 L
304.455 304.287 L
304.674 304.287 L
305.908 304.259 L
306.064 304.259 L
307.415 304.215 L
307.553 304.215 L
308.981 304.17 L
309.022 304.17 L
310.373 304.102 L
310.651 304.102 L
311.992 304.044 L
312.167 304.044 L
313.454 303.974 L
313.571 303.974 L
314.972 303.889 L
315.05 303.889 L
316.476 303.789 L
316.552 303.789 L
317.998 303.652 L
318.001 303.652 L
319.496 303.504 L
319.503 303.504 L
320.997 303.381 L
321.083 303.381 L
322.491 303.231 L
322.523 303.231 L
323.98 303.055 L
324.003 303.055 L
325.488 302.857 L
325.513 302.857 L
326.975 302.641 L
327.012 302.641 L
328.475 302.437 L
328.509 302.437 L
329.98 302.209 L
330.01 302.209 L
331.496 301.952 L
331.509 301.952 L
332.999 301.698 L
333.007 301.698 L
334.489 301.398 L
334.508 301.398 L
336 301.039 L
336.006 301.039 L
337.496 300.707 L
337.503 300.707 L
338.989 300.35 L
339.002 300.35 L
340.498 300.04 L
340.508 300.04 L
341.993 299.6 L
342.007 299.6 L
343.489 299.177 L
343.502 299.177 L
344.983 298.735 L
345.005 298.735 L
346.495 298.198 L
346.511 298.198 L
347.993 297.651 L
348.008 297.651 L
349.486 297.085 L
349.508 297.085 L
350.996 296.462 L
351.019 296.462 L
352.498 295.783 L
352.506 295.783 L
353.999 295.096 L
354.001 295.096 L
355.5 294.325 L
355.503 294.325 L
356.999 293.612 L
357.001 293.612 L
358.495 292.727 L
358.506 292.727 L
359.998 291.836 L
360.001 291.836 L
361.499 290.871 L
361.501 290.871 L
362.999 289.901 L
363.005 289.901 L
364.487 288.866 L
364.506 288.866 L
365.999 287.884 L
366.001 287.884 L
367.499 286.76 L
367.503 286.76 L
368.999 285.619 L
369.001 285.619 L
370.499 284.412 L
370.503 284.412 L
371.997 283.058 L
372.004 283.058 L
373.494 281.697 L
373.5 281.697 L
374.999 280.226 L
375.003 280.226 L
376.5 278.748 L
376.502 278.748 L
377.997 277.278 L
378.005 277.278 L
379.498 275.665 L
379.501 275.665 L
380.999 274.022 L
381.001 274.022 L
382.495 272.279 L
382.501 272.279 L
383.997 270.472 L
384 270.472 L
385.496 268.596 L
385.501 268.596 L
386.999 266.644 L
387.001 266.644 L
388.497 264.688 L
388.5 264.688 L
389.999 262.588 L
390.002 262.588 L
391.5 260.421 L
391.501 260.421 L
392.998 258.191 L
393 258.191 L
394.499 255.919 L
394.51 255.919 L
395.998 253.55 L
396.001 253.55 L
397.497 251.156 L
397.501 251.156 L
398.998 248.589 L
399.001 248.589 L
400.5 246.048 L
400.501 246.048 L
401.996 243.468 L
402.001 243.468 L
403.499 240.864 L
403.5 240.864 L
404.999 238.188 L
405.001 238.188 L
406.498 235.275 L
406.501 235.275 L
407.999 232.49 L
408.003 232.49 L
409.5 229.701 L
409.503 229.701 L
410.998 226.843 L
411.001 226.843 L
412.499 223.878 L
412.5 223.878 L
413.998 220.974 L
414 220.974 L
415.5 217.974 L
415.501 217.974 L
416.999 214.892 L
417.002 214.892 L
418.499 211.788 L
418.501 211.788 L
420 208.627 L
420.001 208.627 L
421.499 205.445 L
421.5 205.445 L
422.998 202.204 L
423 202.204 L
424.499 198.839 L
424.501 198.839 L
425.999 195.576 L
426.002 195.576 L
427.499 192.337 L
427.5 192.337 L
428.998 189.031 L
429.003 189.031 L
430.5 185.761 L
430.501 185.761 L
431.998 182.666 L
432 182.666 L
433.5 179.229 L
433.502 179.229 L
435 175.745 L
435 175.745 L
436.499 172.497 L
436.5 172.497 L
438 169.093 L
438.001 169.093 L
439.5 165.798 L
439.5 165.798 L
440.999 162.511 L
441.004 162.511 L
442.5 159.32 L
442.501 159.32 L
444 156.001 L
444.001 156.001 L
445.499 152.757 L
445.501 152.757 L
446.999 149.636 L
447.004 149.636 L
448.499 146.427 L
448.501 146.427 L
449.999 143.16 L
450.002 143.16 L
451.498 140.039 L
451.5 140.039 L
453 136.891 L
453.002 136.891 L
454.5 133.926 L
454.5 133.926 L
455.997 130.924 L
456 130.924 L
457.499 128.07 L
457.501 128.07 L
459 125.101 L
459.002 125.101 L
460.498 122.392 L
460.5 122.392 L
462 119.608 L
462.001 119.608 L
463.5 116.834 L
463.501 116.834 L
464.999 114.086 L
465 114.086 L
466.5 111.497 L
466.502 111.497 L
468 108.869 L
468 108.869 L
469.499 106.417 L
469.5 106.417 L
470.999 104.091 L
471.002 104.091 L
472.5 101.633 L
472.503 101.633 L
473.999 99.385 L
474.004 99.385 L
475.5 97.146 L
475.501 97.146 L
476.999 95.114 L
477.001 95.114 L
478.497 93.099 L
478.5 93.099 L
479.998 91.047 L
480.002 91.047 L
481.497 89.001 L
481.501 89.001 L
482.999 87.141 L
483 87.141 L
484.495 85.136 L
484.5 85.136 L
485.998 83.436 L
486.001 83.436 L
487.498 81.697 L
487.505 81.697 L
488.998 79.958 L
489 79.958 L
490.5 78.413 L
490.503 78.413 L
491.996 76.83 L
492.001 76.83 L
493.498 75.296 L
493.509 75.296 L
494.979 73.95 L
495.001 73.95 L
496.497 72.596 L
496.501 72.596 L
497.999 71.305 L
498.006 71.305 L
499.495 70.164 L
499.502 70.164 L
500.993 69.012 L
501 69.012 L
502.499 67.836 L
502.5 67.836 L
503.998 66.812 L
504.006 66.812 L
505.499 65.801 L
505.503 65.801 L
506.998 64.779 L
507.001 64.779 L
508.5 63.888 L
508.501 63.888 L
509.986 63.018 L
510.002 63.018 L
511.498 62.106 L
511.501 62.106 L
512.993 61.295 L
513.001 61.295 L
514.489 60.521 L
514.503 60.521 L
515.992 59.762 L
516.001 59.762 L
517.494 59.104 L
517.512 59.104 L
518.991 58.471 L
519.005 58.471 L
520.5 57.854 L
520.504 57.854 L
521.994 57.341 L
522.009 57.341 L
523.491 56.825 L
523.503 56.825 L
524.991 56.319 L
525.007 56.319 L
526.491 55.856 L
526.516 55.856 L
527.982 55.426 L
528.005 55.426 L
529.493 54.997 L
529.515 54.997 L
530.963 54.632 L
531.001 54.632 L
532.492 54.278 L
532.502 54.278 L
533.987 53.932 L
534.002 53.932 L
535.473 53.571 L
535.508 53.571 L
536.987 53.256 L
537.002 53.256 L
538.47 52.993 L
538.532 52.993 L
539.948 52.734 L
540.019 52.734 L
541.49 52.413 L
541.515 52.413 L
542.986 52.191 L
543.003 52.191 L
544.499 51.976 L
544.513 51.976 L
545.994 51.719 L
546.022 51.719 L
547.49 51.524 L
547.508 51.524 L
548.975 51.332 L
549.006 51.332 L
550.484 51.148 L
550.511 51.148 L
551.982 50.982 L
552.069 50.982 L
553.477 50.819 L
553.524 50.819 L
554.985 50.696 L
555 50.696 L
556.481 50.539 L
556.522 50.539 L
557.998 50.435 L
558.016 50.435 L
559.494 50.317 L
559.538 50.317 L
560.951 50.226 L
561.12 50.226 L
562.448 50.159 L
562.592 50.159 L
563.968 50.074 L
564.029 50.074 L
565.487 49.989 L
565.52 49.989 L
566.999 49.911 L
567.043 49.911 L
568.446 49.835 L
568.548 49.835 L
569.872 49.77 L
570.042 49.77 L
571.373 49.724 L
571.515 49.724 L
572.988 49.678 L
573.071 49.678 L
574.346 49.633 L
574.533 49.633 L
575.922 49.58 L
576.097 49.58 L
577.202 49.541 L
577.579 49.541 L
578.993 49.5 L
579.174 49.5 L
580.457 49.467 L
580.506 49.467 L
581.917 49.435 L
582.079 49.435 L
583.465 49.398 L
583.688 49.398 L
584.999 49.363 L
585.123 49.363 L
586.495 49.326 L
586.741 49.326 L
587.902 49.307 L
588.019 49.307 L
589.445 49.278 L
589.506 49.278 L
590.989 49.252 L
591.019 49.252 L
592.293 49.235 L
592.765 49.235 L
593.938 49.222 L
594.392 49.222 L
595.459 49.215 L
595.865 49.215 L
596.812 49.207 L
597.123 49.207 L
598.337 49.196 L
599.546 49.196 L
599.903 49.189 L
600.166 49.189 L
601.441 49.174 L
601.629 49.174 L
602.936 49.163 L
603.008 49.163 L
604.339 49.137 L
604.64 49.137 L
605.986 49.13 L
606.106 49.13 L
606.591 49.122 L
607.618 49.122 L
608.943 49.111 L
609.046 49.111 L
610.456 49.098 L
611.176 49.098 L
611.863 49.091 L
612.41 49.091 L
613.416 49.078 L
613.826 49.078 L
613.938 49.074 L
615.663 49.074 L
616.109 49.065 L
616.515 49.065 L
617.935 49.057 L
619.022 49.057 L
619.457 49.052 L
621.595 49.052 L
621.595 49.05 L
624.424 49.05 L
624.485 49.046 L
628.619 49.046 L
629.138 49.041 L
631.26 49.041 L
631.283 49.037 L
632.275 49.037 L
632.755 49.033 L
634.079 49.033 L
634.079 49.03 L
635.774 49.03 L
635.774 49.028 L
636.186 49.028 L
637.203 49.022 L
638.913 49.022 L
638.913 49.02 L
640.271 49.02 L
640.271 49.017 L
643.485 49.017 L
643.485 49.015 L
644.998 49.015 L
644.998 49.013 L
646.086 49.013 L
646.222 49.009 L
651.527 49.009 L
652.449 49.004 L
674.335 49.004 L
674.335 49.002 L
695.65 49.002 L
695.65 49 L
S
GR
GS
0.851 0.325 0.098 RC
[6 6] 0 setdash
2 LJ
6 LW
N
287.651 305 M
287.651 304.99 L
298.093 304.99 L
298.093 304.981 L
300.477 304.981 L
300.477 304.971 L
305.062 304.971 L
305.062 304.962 L
306.452 304.962 L
307.442 304.943 L
307.956 304.943 L
308.782 304.914 L
310.111 304.914 L
310.347 304.895 L
311.284 304.895 L
311.425 304.876 L
312.014 304.876 L
312.845 304.819 L
314.6 304.819 L
314.6 304.809 L
315.103 304.809 L
315.103 304.8 L
316.539 304.8 L
317.071 304.733 L
318.946 304.733 L
318.946 304.723 L
319.515 304.723 L
320.95 304.637 L
321.771 304.637 L
322.479 304.571 L
322.623 304.571 L
323.985 304.494 L
324.12 304.494 L
325.492 304.408 L
325.546 304.408 L
326.701 304.303 L
327.14 304.303 L
328.494 304.179 L
328.847 304.179 L
329.402 304.141 L
330.063 304.141 L
331.496 304.036 L
331.763 304.036 L
332.907 303.922 L
333.042 303.922 L
334.482 303.807 L
334.529 303.807 L
335.852 303.702 L
336 303.702 L
337.478 303.531 L
337.517 303.531 L
338.865 303.321 L
339.032 303.321 L
340.478 303.101 L
340.513 303.101 L
341.948 302.901 L
342.257 302.901 L
343.489 302.748 L
343.56 302.748 L
344.978 302.519 L
345.13 302.519 L
346.46 302.281 L
346.504 302.281 L
347.988 302.013 L
348.003 302.013 L
349.44 301.603 L
349.501 301.603 L
350.977 301.164 L
351.02 301.164 L
352.496 300.764 L
352.507 300.764 L
353.997 300.315 L
354.005 300.315 L
355.447 299.838 L
355.55 299.838 L
356.986 299.246 L
357.018 299.246 L
358.491 298.598 L
358.629 298.598 L
359.99 297.977 L
360.039 297.977 L
361.485 297.281 L
361.512 297.281 L
362.998 296.594 L
363.005 296.594 L
364.461 295.964 L
364.531 295.964 L
365.964 295.22 L
366.015 295.22 L
367.497 294.418 L
367.509 294.418 L
368.994 293.569 L
369.059 293.569 L
370.494 292.615 L
370.501 292.615 L
372 291.623 L
372.019 291.623 L
373.5 290.354 L
373.505 290.354 L
374.983 288.856 L
375.003 288.856 L
376.458 287.797 L
376.52 287.797 L
377.992 286.556 L
378.001 286.556 L
379.475 285.287 L
379.501 285.287 L
380.994 283.904 L
381.028 283.904 L
382.468 282.387 L
382.503 282.387 L
383.994 280.698 L
384.006 280.698 L
385.494 278.99 L
385.501 278.99 L
386.988 277.272 L
387.019 277.272 L
388.491 275.421 L
388.515 275.421 L
389.999 273.57 L
390.01 273.57 L
391.494 271.719 L
391.513 271.719 L
392.999 269.629 L
393.008 269.629 L
394.497 267.397 L
394.505 267.397 L
395.963 265.231 L
396.013 265.231 L
397.485 262.616 L
397.5 262.616 L
398.998 260.183 L
399.003 260.183 L
400.493 257.683 L
400.504 257.683 L
401.988 255.241 L
402.009 255.241 L
403.499 252.483 L
403.501 252.483 L
404.993 249.649 L
405.024 249.649 L
406.496 247.111 L
406.5 247.111 L
407.998 244.325 L
408.012 244.325 L
409.498 241.415 L
409.505 241.415 L
410.988 238.295 L
411.004 238.295 L
412.493 235.165 L
412.5 235.165 L
413.995 232.236 L
414.015 232.236 L
415.498 228.982 L
415.501 228.982 L
416.999 226.025 L
417.003 226.025 L
418.494 222.752 L
418.501 222.752 L
419.999 219.546 L
420.001 219.546 L
421.495 216.378 L
421.513 216.378 L
422.996 212.695 L
423.006 212.695 L
424.495 209.518 L
424.501 209.518 L
426 206.054 L
426.011 206.054 L
427.496 202.81 L
427.5 202.81 L
429 198.984 L
429.006 198.984 L
430.5 195.434 L
430.502 195.434 L
431.999 191.809 L
432 191.809 L
433.5 188.593 L
433.504 188.593 L
435 184.767 L
435.007 184.767 L
436.495 181.132 L
436.505 181.132 L
437.997 177.134 L
438.001 177.134 L
439.499 173.746 L
439.501 173.746 L
440.999 170.206 L
441.001 170.206 L
442.496 166.418 L
442.502 166.418 L
443.998 162.592 L
444.003 162.592 L
445.499 158.9 L
445.5 158.9 L
446.997 155.159 L
447.02 155.159 L
448.495 152.106 L
448.501 152.106 L
449.999 148.747 L
450 148.747 L
451.499 145.141 L
451.506 145.141 L
452.995 141.935 L
453.002 141.935 L
454.5 138.319 L
454.503 138.319 L
455.999 135.189 L
456.002 135.189 L
457.489 132.164 L
457.533 132.164 L
459 129.197 L
459.001 129.197 L
460.495 126.039 L
460.5 126.039 L
461.997 123.119 L
462.005 123.119 L
463.496 120.066 L
463.509 120.066 L
464.996 117.031 L
465.002 117.031 L
466.498 114.379 L
466.507 114.379 L
467.996 111.707 L
468.001 111.707 L
469.499 108.931 L
469.503 108.931 L
470.993 106.125 L
471.001 106.125 L
472.489 103.473 L
472.503 103.473 L
473.996 100.992 L
474.002 100.992 L
475.498 98.607 L
475.503 98.607 L
476.985 96.25 L
477.006 96.25 L
478.499 94.017 L
478.502 94.017 L
479.997 91.67 L
480.002 91.67 L
481.498 89.676 L
481.504 89.676 L
482.982 87.634 L
483.013 87.634 L
484.495 85.63 L
484.512 85.63 L
486 83.598 L
486.013 83.598 L
487.5 81.737 L
487.513 81.737 L
488.991 79.905 L
489.002 79.905 L
490.493 77.987 L
490.501 77.987 L
491.978 76.251 L
492.013 76.251 L
493.476 74.858 L
493.522 74.858 L
494.985 73.264 L
495.007 73.264 L
496.492 71.842 L
496.515 71.842 L
497.999 70.43 L
498.007 70.43 L
499.489 68.99 L
499.519 68.99 L
500.998 67.692 L
501.004 67.692 L
502.488 66.518 L
502.525 66.518 L
503.987 65.469 L
504.002 65.469 L
505.496 64.419 L
505.505 64.419 L
506.995 63.322 L
507.018 63.322 L
508.494 62.31 L
508.521 62.31 L
509.933 61.328 L
510.004 61.328 L
511.498 60.507 L
511.556 60.507 L
512.94 59.658 L
513.055 59.658 L
514.496 59.076 L
514.501 59.076 L
515.983 58.351 L
516.017 58.351 L
517.492 57.606 L
517.504 57.606 L
518.988 56.977 L
519.07 56.977 L
520.474 56.547 L
520.506 56.547 L
521.994 55.899 L
522.013 55.899 L
523.44 55.355 L
523.533 55.355 L
524.941 54.868 L
525.002 54.868 L
526.479 54.372 L
526.525 54.372 L
527.967 53.952 L
528.019 53.952 L
529.482 53.523 L
529.518 53.523 L
530.945 53.198 L
531.082 53.198 L
532.467 52.931 L
532.553 52.931 L
533.843 52.673 L
534.058 52.673 L
535.494 52.416 L
535.568 52.416 L
536.962 52.12 L
537.057 52.12 L
538.45 51.853 L
538.577 51.853 L
539.964 51.672 L
540.03 51.672 L
541.473 51.462 L
541.554 51.462 L
542.93 51.3 L
543.013 51.3 L
544.469 51.156 L
544.506 51.156 L
545.791 50.966 L
546.001 50.966 L
547.315 50.822 L
547.571 50.822 L
548.95 50.698 L
549.204 50.698 L
550.412 50.508 L
550.619 50.508 L
551.985 50.441 L
552.053 50.441 L
553.286 50.298 L
553.688 50.298 L
554.617 50.212 L
555.006 50.212 L
556.247 50.107 L
556.597 50.107 L
557.947 50.021 L
558.157 50.021 L
559.414 49.935 L
559.635 49.935 L
560.966 49.897 L
561.081 49.897 L
562.491 49.83 L
562.516 49.83 L
563.728 49.735 L
564.043 49.735 L
564.798 49.677 L
565.768 49.677 L
566.643 49.611 L
567.182 49.611 L
568.115 49.553 L
568.783 49.553 L
569.656 49.525 L
570.105 49.525 L
571.086 49.439 L
572.32 49.439 L
572.696 49.401 L
573.511 49.401 L
574.013 49.353 L
574.878 49.353 L
575.49 49.324 L
576.092 49.324 L
576.943 49.267 L
577.766 49.267 L
577.842 49.239 L
579.289 49.239 L
580.338 49.21 L
583.511 49.21 L
585 49.181 L
587.225 49.181 L
587.225 49.172 L
589.922 49.172 L
590.064 49.153 L
592.292 49.153 L
592.292 49.143 L
594.541 49.143 L
594.935 49.124 L
596.046 49.124 L
596.729 49.095 L
598.205 49.095 L
598.205 49.086 L
599.136 49.086 L
599.432 49.067 L
600.111 49.067 L
601.344 49.048 L
604.059 49.048 L
604.059 49.038 L
604.989 49.038 L
605.419 49.019 L
614.091 49.019 L
614.091 49.01 L
619.377 49.01 L
619.377 49 L
S
GR
GS
1 GC
N
403 295 M
403 226 L
750 226 L
750 295 L
cp
f
GR
GS
[1 0 0 1 440 244.13139] CT
/Helvetica 27 F
GS
[1 0 0 1 0 0] CT
0 10 moveto 
1 -1 scale
(Cataract \(mean = 0.4005\)) t 
GR
GR
GS
0 0.447 0.741 RC
1 LJ
6 LW
N
407 244.131 M
437 244.131 L
S
GR
GS
[1 0 0 1 440 276.86862] CT
/Helvetica 27 F
GS
[1 0 0 1 0 0] CT
0 10 moveto 
1 -1 scale
(Healthy \(mean = 0.4054\)) t 
GR
GR
GS
0.851 0.325 0.098 RC
[6 6] 0 setdash
2 LJ
6 LW
N
407 276.869 M
437 276.869 L
S
GR
GS
0.149 GC
10.0 ML
0.5 LW
N
403 295 M
403 226 L
750 226 L
750 295 L
cp
S
GR
%%Trailer
%%Pages: 1
%%EOF
