%!PS-Adobe-3.0 EPSF-3.0
%%Creator: (MATLAB, The Mathworks, Inc. Version 9.2.0.538062 \(R2017a\). Operating System: Mac OS X)
%%Title: /Users/trokielewicz/Dropbox/Aplikacje/Texpad/IrisDisease-BookChapter-2016/images/cataract-F-gen-VE.eps
%%CreationDate: 2017-08-02T13:54:58
%%Pages: (atend)
%%BoundingBox: 0 0 840 390
%%LanguageLevel: 3
%%EndComments
%%BeginProlog
%%BeginResource: procset (Apache XML Graphics Std ProcSet) 1.2 0
%%Version: 1.2 0
%%Copyright: (Copyright 2001-2003,2010 The Apache Software Foundation. License terms: http://www.apache.org/licenses/LICENSE-2.0)
/bd{bind def}bind def
/ld{load def}bd
/GR/grestore ld
/M/moveto ld
/LJ/setlinejoin ld
/C/curveto ld
/f/fill ld
/LW/setlinewidth ld
/GC/setgray ld
/t/show ld
/N/newpath ld
/CT/concat ld
/cp/closepath ld
/S/stroke ld
/L/lineto ld
/CC/setcmykcolor ld
/A/ashow ld
/GS/gsave ld
/RC/setrgbcolor ld
/RM/rmoveto ld
/ML/setmiterlimit ld
/re {4 2 roll M
1 index 0 rlineto
0 exch rlineto
neg 0 rlineto
cp } bd
/_ctm matrix def
/_tm matrix def
/BT { _ctm currentmatrix pop matrix _tm copy pop 0 0 moveto } bd
/ET { _ctm setmatrix } bd
/iTm { _ctm setmatrix _tm concat } bd
/Tm { _tm astore pop iTm 0 0 moveto } bd
/ux 0.0 def
/uy 0.0 def
/F {
  /Tp exch def
  /Tf exch def
  Tf findfont Tp scalefont setfont
  /cf Tf def  /cs Tp def
} bd
/ULS {currentpoint /uy exch def /ux exch def} bd
/ULE {
  /Tcx currentpoint pop def
  gsave
  newpath
  cf findfont cs scalefont dup
  /FontMatrix get 0 get /Ts exch def /FontInfo get dup
  /UnderlinePosition get Ts mul /To exch def
  /UnderlineThickness get Ts mul /Tt exch def
  ux uy To add moveto  Tcx uy To add lineto
  Tt setlinewidth stroke
  grestore
} bd
/OLE {
  /Tcx currentpoint pop def
  gsave
  newpath
  cf findfont cs scalefont dup
  /FontMatrix get 0 get /Ts exch def /FontInfo get dup
  /UnderlinePosition get Ts mul /To exch def
  /UnderlineThickness get Ts mul /Tt exch def
  ux uy To add cs add moveto Tcx uy To add cs add lineto
  Tt setlinewidth stroke
  grestore
} bd
/SOE {
  /Tcx currentpoint pop def
  gsave
  newpath
  cf findfont cs scalefont dup
  /FontMatrix get 0 get /Ts exch def /FontInfo get dup
  /UnderlinePosition get Ts mul /To exch def
  /UnderlineThickness get Ts mul /Tt exch def
  ux uy To add cs 10 mul 26 idiv add moveto Tcx uy To add cs 10 mul 26 idiv add lineto
  Tt setlinewidth stroke
  grestore
} bd
/QT {
/Y22 exch store
/X22 exch store
/Y21 exch store
/X21 exch store
currentpoint
/Y21 load 2 mul add 3 div exch
/X21 load 2 mul add 3 div exch
/X21 load 2 mul /X22 load add 3 div
/Y21 load 2 mul /Y22 load add 3 div
/X22 load /Y22 load curveto
} bd
/SSPD {
dup length /d exch dict def
{
/v exch def
/k exch def
currentpagedevice k known {
/cpdv currentpagedevice k get def
v cpdv ne {
/upd false def
/nullv v type /nulltype eq def
/nullcpdv cpdv type /nulltype eq def
nullv nullcpdv or
{
/upd true def
} {
/sametype v type cpdv type eq def
sametype {
v type /arraytype eq {
/vlen v length def
/cpdvlen cpdv length def
vlen cpdvlen eq {
0 1 vlen 1 sub {
/i exch def
/obj v i get def
/cpdobj cpdv i get def
obj cpdobj ne {
/upd true def
exit
} if
} for
} {
/upd true def
} ifelse
} {
v type /dicttype eq {
v {
/dv exch def
/dk exch def
/cpddv cpdv dk get def
dv cpddv ne {
/upd true def
exit
} if
} forall
} {
/upd true def
} ifelse
} ifelse
} if
} ifelse
upd true eq {
d k v put
} if
} if
} if
} forall
d length 0 gt {
d setpagedevice
} if
} bd
/RE { % /NewFontName [NewEncodingArray] /FontName RE -
  findfont dup length dict begin
  {
    1 index /FID ne
    {def} {pop pop} ifelse
  } forall
  /Encoding exch def
  /FontName 1 index def
  currentdict definefont pop
  end
} bind def
%%EndResource
%%BeginResource: procset (Apache XML Graphics EPS ProcSet) 1.0 0
%%Version: 1.0 0
%%Copyright: (Copyright 2002-2003 The Apache Software Foundation. License terms: http://www.apache.org/licenses/LICENSE-2.0)
/BeginEPSF { %def
/b4_Inc_state save def         % Save state for cleanup
/dict_count countdictstack def % Count objects on dict stack
/op_count count 1 sub def      % Count objects on operand stack
userdict begin                 % Push userdict on dict stack
/showpage { } def              % Redefine showpage, { } = null proc
0 setgray 0 setlinecap         % Prepare graphics state
1 setlinewidth 0 setlinejoin
10 setmiterlimit [ ] 0 setdash newpath
/languagelevel where           % If level not equal to 1 then
{pop languagelevel             % set strokeadjust and
1 ne                           % overprint to their defaults.
{false setstrokeadjust false setoverprint
} if
} if
} bd
/EndEPSF { %def
count op_count sub {pop} repeat            % Clean up stacks
countdictstack dict_count sub {end} repeat
b4_Inc_state restore
} bd
%%EndResource
%FOPBeginFontDict
%%IncludeResource: font Courier-Bold
%%IncludeResource: font Helvetica
%%IncludeResource: font Courier-BoldOblique
%%IncludeResource: font Courier-Oblique
%%IncludeResource: font Times-Roman
%%IncludeResource: font Helvetica-BoldOblique
%%IncludeResource: font Helvetica-Bold
%%IncludeResource: font Helvetica-Oblique
%%IncludeResource: font Times-BoldItalic
%%IncludeResource: font Courier
%%IncludeResource: font Times-Italic
%%IncludeResource: font Times-Bold
%%IncludeResource: font Symbol
%%IncludeResource: font ZapfDingbats
%FOPEndFontDict
%%BeginResource: encoding WinAnsiEncoding
/WinAnsiEncoding [
/.notdef /.notdef /.notdef /.notdef /.notdef
/.notdef /.notdef /.notdef /.notdef /.notdef
/.notdef /.notdef /.notdef /.notdef /.notdef
/.notdef /.notdef /.notdef /.notdef /.notdef
/.notdef /.notdef /.notdef /.notdef /.notdef
/.notdef /.notdef /.notdef /.notdef /.notdef
/.notdef /.notdef /space /exclam /quotedbl
/numbersign /dollar /percent /ampersand /quotesingle
/parenleft /parenright /asterisk /plus /comma
/hyphen /period /slash /zero /one
/two /three /four /five /six
/seven /eight /nine /colon /semicolon
/less /equal /greater /question /at
/A /B /C /D /E
/F /G /H /I /J
/K /L /M /N /O
/P /Q /R /S /T
/U /V /W /X /Y
/Z /bracketleft /backslash /bracketright /asciicircum
/underscore /quoteleft /a /b /c
/d /e /f /g /h
/i /j /k /l /m
/n /o /p /q /r
/s /t /u /v /w
/x /y /z /braceleft /bar
/braceright /asciitilde /bullet /Euro /bullet
/quotesinglbase /florin /quotedblbase /ellipsis /dagger
/daggerdbl /circumflex /perthousand /Scaron /guilsinglleft
/OE /bullet /Zcaron /bullet /bullet
/quoteleft /quoteright /quotedblleft /quotedblright /bullet
/endash /emdash /asciitilde /trademark /scaron
/guilsinglright /oe /bullet /zcaron /Ydieresis
/space /exclamdown /cent /sterling /currency
/yen /brokenbar /section /dieresis /copyright
/ordfeminine /guillemotleft /logicalnot /sfthyphen /registered
/macron /degree /plusminus /twosuperior /threesuperior
/acute /mu /paragraph /middot /cedilla
/onesuperior /ordmasculine /guillemotright /onequarter /onehalf
/threequarters /questiondown /Agrave /Aacute /Acircumflex
/Atilde /Adieresis /Aring /AE /Ccedilla
/Egrave /Eacute /Ecircumflex /Edieresis /Igrave
/Iacute /Icircumflex /Idieresis /Eth /Ntilde
/Ograve /Oacute /Ocircumflex /Otilde /Odieresis
/multiply /Oslash /Ugrave /Uacute /Ucircumflex
/Udieresis /Yacute /Thorn /germandbls /agrave
/aacute /acircumflex /atilde /adieresis /aring
/ae /ccedilla /egrave /eacute /ecircumflex
/edieresis /igrave /iacute /icircumflex /idieresis
/eth /ntilde /ograve /oacute /ocircumflex
/otilde /odieresis /divide /oslash /ugrave
/uacute /ucircumflex /udieresis /yacute /thorn
/ydieresis
] def
%%EndResource
%FOPBeginFontReencode
/Courier-Bold findfont
dup length dict begin
  {1 index /FID ne {def} {pop pop} ifelse} forall
  /Encoding WinAnsiEncoding def
  currentdict
end
/Courier-Bold exch definefont pop
/Helvetica findfont
dup length dict begin
  {1 index /FID ne {def} {pop pop} ifelse} forall
  /Encoding WinAnsiEncoding def
  currentdict
end
/Helvetica exch definefont pop
/Courier-BoldOblique findfont
dup length dict begin
  {1 index /FID ne {def} {pop pop} ifelse} forall
  /Encoding WinAnsiEncoding def
  currentdict
end
/Courier-BoldOblique exch definefont pop
/Courier-Oblique findfont
dup length dict begin
  {1 index /FID ne {def} {pop pop} ifelse} forall
  /Encoding WinAnsiEncoding def
  currentdict
end
/Courier-Oblique exch definefont pop
/Times-Roman findfont
dup length dict begin
  {1 index /FID ne {def} {pop pop} ifelse} forall
  /Encoding WinAnsiEncoding def
  currentdict
end
/Times-Roman exch definefont pop
/Helvetica-BoldOblique findfont
dup length dict begin
  {1 index /FID ne {def} {pop pop} ifelse} forall
  /Encoding WinAnsiEncoding def
  currentdict
end
/Helvetica-BoldOblique exch definefont pop
/Helvetica-Bold findfont
dup length dict begin
  {1 index /FID ne {def} {pop pop} ifelse} forall
  /Encoding WinAnsiEncoding def
  currentdict
end
/Helvetica-Bold exch definefont pop
/Helvetica-Oblique findfont
dup length dict begin
  {1 index /FID ne {def} {pop pop} ifelse} forall
  /Encoding WinAnsiEncoding def
  currentdict
end
/Helvetica-Oblique exch definefont pop
/Times-BoldItalic findfont
dup length dict begin
  {1 index /FID ne {def} {pop pop} ifelse} forall
  /Encoding WinAnsiEncoding def
  currentdict
end
/Times-BoldItalic exch definefont pop
/Courier findfont
dup length dict begin
  {1 index /FID ne {def} {pop pop} ifelse} forall
  /Encoding WinAnsiEncoding def
  currentdict
end
/Courier exch definefont pop
/Times-Italic findfont
dup length dict begin
  {1 index /FID ne {def} {pop pop} ifelse} forall
  /Encoding WinAnsiEncoding def
  currentdict
end
/Times-Italic exch definefont pop
/Times-Bold findfont
dup length dict begin
  {1 index /FID ne {def} {pop pop} ifelse} forall
  /Encoding WinAnsiEncoding def
  currentdict
end
/Times-Bold exch definefont pop
%FOPEndFontReencode
%%EndProlog
%%Page: 1 1
%%PageBoundingBox: 0 0 840 390
%%BeginPageSetup
[1 0 0 -1 0 390] CT
%%EndPageSetup
GS
1 GC
N
0 0 840 390 re
f
GR
GS
1 GC
N
0 0 840 390 re
f
GR
GS
1 GC
N
109 305 M
760 305 L
760 49 L
109 49 L
cp
f
GR
GS
0.873 GC
1 LJ
0.5 LW
N
109 305 M
109 49 L
S
GR
GS
0.873 GC
1 LJ
0.5 LW
N
239.2 305 M
239.2 49 L
S
GR
GS
0.873 GC
1 LJ
0.5 LW
N
369.4 305 M
369.4 49 L
S
GR
GS
0.873 GC
1 LJ
0.5 LW
N
499.6 305 M
499.6 49 L
S
GR
GS
0.873 GC
1 LJ
0.5 LW
N
629.8 305 M
629.8 49 L
S
GR
GS
0.873 GC
1 LJ
0.5 LW
N
760 305 M
760 49 L
S
GR
GS
0.873 GC
1 LJ
0.5 LW
N
760 305 M
109 305 L
S
GR
GS
0.873 GC
1 LJ
0.5 LW
N
760 177 M
109 177 L
S
GR
GS
0.873 GC
1 LJ
0.5 LW
N
760 49 M
109 49 L
S
GR
GS
0.149 GC
2 setlinecap
1 LJ
0.5 LW
N
109 305 M
760 305 L
S
GR
GS
0.149 GC
2 setlinecap
1 LJ
0.5 LW
N
109 49 M
760 49 L
S
GR
GS
0.149 GC
2 setlinecap
1 LJ
0.5 LW
N
109 305 M
109 298.49 L
S
GR
GS
0.149 GC
2 setlinecap
1 LJ
0.5 LW
N
239.2 305 M
239.2 298.49 L
S
GR
GS
0.149 GC
2 setlinecap
1 LJ
0.5 LW
N
369.4 305 M
369.4 298.49 L
S
GR
GS
0.149 GC
2 setlinecap
1 LJ
0.5 LW
N
499.6 305 M
499.6 298.49 L
S
GR
GS
0.149 GC
2 setlinecap
1 LJ
0.5 LW
N
629.8 305 M
629.8 298.49 L
S
GR
GS
0.149 GC
2 setlinecap
1 LJ
0.5 LW
N
760 305 M
760 298.49 L
S
GR
GS
0.149 GC
2 setlinecap
1 LJ
0.5 LW
N
109 49 M
109 55.51 L
S
GR
GS
0.149 GC
2 setlinecap
1 LJ
0.5 LW
N
239.2 49 M
239.2 55.51 L
S
GR
GS
0.149 GC
2 setlinecap
1 LJ
0.5 LW
N
369.4 49 M
369.4 55.51 L
S
GR
GS
0.149 GC
2 setlinecap
1 LJ
0.5 LW
N
499.6 49 M
499.6 55.51 L
S
GR
GS
0.149 GC
2 setlinecap
1 LJ
0.5 LW
N
629.8 49 M
629.8 55.51 L
S
GR
GS
0.149 GC
2 setlinecap
1 LJ
0.5 LW
N
760 49 M
760 55.51 L
S
GR
GS
[1 0 0 1 109 313] CT
0.149 GC
/Helvetica 30 F
GS
[1 0 0 1 0 0] CT
-8.5 29 moveto 
1 -1 scale
(0) t 
GR
GR
GS
[1 0 0 1 239.2 313] CT
0.149 GC
/Helvetica 30 F
GS
[1 0 0 1 0 0] CT
-25.5 29 moveto 
1 -1 scale
(200) t 
GR
GR
GS
[1 0 0 1 369.39999 313] CT
0.149 GC
/Helvetica 30 F
GS
[1 0 0 1 0 0] CT
-25.5 29 moveto 
1 -1 scale
(400) t 
GR
GR
GS
[1 0 0 1 499.60001 313] CT
0.149 GC
/Helvetica 30 F
GS
[1 0 0 1 0 0] CT
-25.5 29 moveto 
1 -1 scale
(600) t 
GR
GR
GS
[1 0 0 1 629.79999 313] CT
0.149 GC
/Helvetica 30 F
GS
[1 0 0 1 0 0] CT
-25.5 29 moveto 
1 -1 scale
(800) t 
GR
GR
GS
[1 0 0 1 760 313] CT
0.149 GC
/Helvetica 30 F
GS
[1 0 0 1 0 0] CT
-33.5 29 moveto 
1 -1 scale
(1000) t 
GR
GR
GS
[1 0 0 1 434.50031 350] CT
0.149 GC
/Helvetica 33 F
GS
[1 0 0 1 0 0] CT
-9 32 moveto 
1 -1 scale
(x) t 
GR
GR
GS
0.149 GC
2 setlinecap
1 LJ
0.5 LW
N
109 305 M
109 49 L
S
GR
GS
0.149 GC
2 setlinecap
1 LJ
0.5 LW
N
760 305 M
760 49 L
S
GR
GS
0.149 GC
2 setlinecap
1 LJ
0.5 LW
N
109 305 M
115.51 305 L
S
GR
GS
0.149 GC
2 setlinecap
1 LJ
0.5 LW
N
109 177 M
115.51 177 L
S
GR
GS
0.149 GC
2 setlinecap
1 LJ
0.5 LW
N
109 49 M
115.51 49 L
S
GR
GS
0.149 GC
2 setlinecap
1 LJ
0.5 LW
N
760 305 M
753.49 305 L
S
GR
GS
0.149 GC
2 setlinecap
1 LJ
0.5 LW
N
760 177 M
753.49 177 L
S
GR
GS
0.149 GC
2 setlinecap
1 LJ
0.5 LW
N
760 49 M
753.49 49 L
S
GR
GS
[1 0 0 1 101 305] CT
0.149 GC
/Helvetica 30 F
GS
[1 0 0 1 0 0] CT
-17 11 moveto 
1 -1 scale
(0) t 
GR
GR
GS
[1 0 0 1 101 177] CT
0.149 GC
/Helvetica 30 F
GS
[1 0 0 1 0 0] CT
-42 11 moveto 
1 -1 scale
(0.5) t 
GR
GR
GS
[1 0 0 1 101 49] CT
0.149 GC
/Helvetica 30 F
GS
[1 0 0 1 0 0] CT
-17 11 moveto 
1 -1 scale
(1) t 
GR
GR
GS
[0 -1 1 0 56 176.99988] CT
0.149 GC
/Helvetica 33 F
GS
[1 0 0 1 0 0] CT
-27 -8 moveto 
1 -1 scale
(F\(x\)) t 
GR
GR
GS
[1 0 0 1 434.50043 40.75] CT
/Helvetica-Bold 33 F
GS
[1 0 0 1 0 0] CT
-59.5 -8 moveto 
1 -1 scale
(VeriEye) t 
GR
GR
GS
0 0.447 0.741 RC
1 LJ
6 LW
N
109 305 M
109 286.503 L
109.651 286.503 L
109.651 285.129 L
110.302 285.129 L
110.302 283.86 L
110.953 283.86 L
110.953 282.698 L
111.604 282.698 L
111.604 281.746 L
112.255 281.746 L
112.255 280.478 L
112.906 280.478 L
112.906 279.95 L
113.557 279.95 L
113.557 279.315 L
114.208 279.315 L
114.208 278.787 L
114.859 278.787 L
114.859 278.364 L
115.51 278.364 L
115.51 277.307 L
116.161 277.307 L
116.161 277.096 L
116.812 277.096 L
116.812 276.779 L
117.463 276.779 L
117.463 275.933 L
118.114 275.933 L
118.114 275.405 L
118.765 275.405 L
118.765 275.299 L
120.718 275.299 L
120.718 275.193 L
121.369 275.193 L
121.369 274.876 L
122.02 274.876 L
122.02 274.665 L
123.322 274.665 L
123.322 274.242 L
123.973 274.242 L
123.973 274.031 L
124.624 274.031 L
124.624 273.925 L
125.275 273.925 L
125.275 273.396 L
125.926 273.396 L
125.926 273.079 L
126.577 273.079 L
126.577 272.868 L
127.228 272.868 L
127.228 272.339 L
127.879 272.339 L
127.879 272.234 L
128.53 272.234 L
128.53 271.811 L
129.181 271.811 L
129.181 271.6 L
129.832 271.6 L
129.832 271.282 L
130.483 271.282 L
130.483 270.86 L
131.785 270.86 L
131.785 270.225 L
132.436 270.225 L
132.436 270.014 L
133.087 270.014 L
133.087 269.486 L
133.738 269.486 L
133.738 269.38 L
134.389 269.38 L
134.389 268.957 L
135.04 268.957 L
135.04 268.323 L
135.691 268.323 L
135.691 267.689 L
136.342 267.689 L
136.342 267.583 L
136.993 267.583 L
136.993 267.477 L
137.644 267.477 L
137.644 267.16 L
138.295 267.16 L
138.295 266.526 L
138.946 266.526 L
138.946 265.998 L
139.597 265.998 L
139.597 265.363 L
140.248 265.363 L
140.248 264.729 L
140.899 264.729 L
140.899 264.306 L
142.201 264.306 L
142.201 263.672 L
142.852 263.672 L
142.852 263.144 L
143.503 263.144 L
143.503 262.509 L
144.154 262.509 L
144.154 262.087 L
144.805 262.087 L
144.805 261.981 L
145.456 261.981 L
145.456 260.818 L
146.107 260.818 L
146.107 260.184 L
146.758 260.184 L
146.758 259.656 L
147.409 259.656 L
147.409 259.339 L
148.06 259.339 L
148.06 259.127 L
148.711 259.127 L
148.711 258.704 L
149.362 258.704 L
149.362 258.176 L
150.013 258.176 L
150.013 257.859 L
150.664 257.859 L
150.664 257.647 L
151.315 257.647 L
151.315 257.119 L
151.966 257.119 L
151.966 256.485 L
152.617 256.485 L
152.617 256.168 L
153.268 256.168 L
153.268 255.851 L
153.919 255.851 L
153.919 255.322 L
154.57 255.322 L
154.57 255.005 L
155.221 255.005 L
155.221 254.794 L
155.872 254.794 L
155.872 254.159 L
156.523 254.159 L
156.523 253.631 L
157.174 253.631 L
157.174 253.208 L
157.825 253.208 L
157.825 252.785 L
158.476 252.785 L
158.476 252.257 L
159.127 252.257 L
159.127 251.623 L
159.778 251.623 L
159.778 251.2 L
160.429 251.2 L
160.429 250.988 L
161.08 250.988 L
161.08 250.46 L
161.731 250.46 L
161.731 250.143 L
162.382 250.143 L
162.382 249.931 L
163.033 249.931 L
163.033 249.72 L
163.684 249.72 L
163.684 249.509 L
164.335 249.509 L
164.335 249.403 L
164.986 249.403 L
164.986 248.98 L
165.637 248.98 L
165.637 248.769 L
166.288 248.769 L
166.288 248.663 L
166.939 248.663 L
166.939 248.452 L
168.241 248.452 L
168.241 248.135 L
168.892 248.135 L
168.892 248.029 L
169.543 248.029 L
169.543 247.818 L
170.194 247.818 L
170.194 247.606 L
170.845 247.606 L
170.845 247.395 L
172.147 247.395 L
172.147 247.078 L
172.798 247.078 L
172.798 246.972 L
174.1 246.972 L
174.1 246.761 L
174.751 246.761 L
174.751 246.549 L
175.402 246.549 L
175.402 246.338 L
176.053 246.338 L
176.053 246.232 L
176.704 246.232 L
176.704 245.809 L
177.355 245.809 L
177.355 245.492 L
178.006 245.492 L
178.006 245.175 L
178.657 245.175 L
178.657 244.752 L
179.308 244.752 L
179.308 244.541 L
180.61 244.541 L
180.61 244.435 L
181.261 244.435 L
181.261 244.224 L
181.912 244.224 L
181.912 243.907 L
182.563 243.907 L
182.563 243.695 L
183.214 243.695 L
183.214 243.484 L
184.516 243.484 L
184.516 243.273 L
185.167 243.273 L
185.167 243.061 L
185.818 243.061 L
185.818 242.85 L
186.469 242.85 L
186.469 242.744 L
187.12 242.744 L
187.12 242.638 L
187.771 242.638 L
187.771 242.427 L
188.422 242.427 L
188.422 242.321 L
189.073 242.321 L
189.073 242.004 L
189.724 242.004 L
189.724 241.581 L
190.375 241.581 L
190.375 241.264 L
191.026 241.264 L
191.026 241.053 L
191.677 241.053 L
191.677 240.736 L
192.328 240.736 L
192.328 240.419 L
192.979 240.419 L
192.979 239.89 L
193.63 239.89 L
193.63 239.784 L
194.281 239.784 L
194.281 239.573 L
194.932 239.573 L
194.932 239.15 L
195.583 239.15 L
195.583 239.045 L
196.885 239.045 L
196.885 238.728 L
197.536 238.728 L
197.536 238.622 L
198.187 238.622 L
198.187 237.988 L
199.489 237.988 L
199.489 237.776 L
200.14 237.776 L
200.14 237.248 L
200.791 237.248 L
200.791 236.931 L
201.442 236.931 L
201.442 236.825 L
202.093 236.825 L
202.093 236.508 L
202.744 236.508 L
202.744 236.085 L
203.395 236.085 L
203.395 235.874 L
204.046 235.874 L
204.046 235.451 L
204.697 235.451 L
204.697 235.028 L
205.348 235.028 L
205.348 234.711 L
205.999 234.711 L
205.999 234.394 L
206.65 234.394 L
206.65 234.077 L
207.301 234.077 L
207.301 233.548 L
207.952 233.548 L
207.952 233.231 L
208.603 233.231 L
208.603 232.491 L
209.254 232.491 L
209.254 231.963 L
209.905 231.963 L
209.905 231.646 L
210.556 231.646 L
210.556 231.223 L
211.207 231.223 L
211.207 231.117 L
211.858 231.117 L
211.858 230.906 L
212.509 230.906 L
212.509 230.694 L
213.16 230.694 L
213.16 230.483 L
213.811 230.483 L
213.811 229.955 L
214.462 229.955 L
214.462 229.637 L
215.113 229.637 L
215.113 229.426 L
215.764 229.426 L
215.764 229.109 L
216.415 229.109 L
216.415 229.003 L
217.066 229.003 L
217.066 228.686 L
217.717 228.686 L
217.717 228.263 L
218.368 228.263 L
218.368 227.629 L
219.019 227.629 L
219.019 227.418 L
219.67 227.418 L
219.67 226.995 L
220.321 226.995 L
220.321 226.572 L
220.972 226.572 L
220.972 226.149 L
221.623 226.149 L
221.623 225.832 L
222.274 225.832 L
222.274 225.092 L
223.576 225.092 L
223.576 224.881 L
224.878 224.881 L
224.878 224.564 L
225.529 224.564 L
225.529 223.93 L
226.18 223.93 L
226.18 223.296 L
226.831 223.296 L
226.831 223.084 L
227.482 223.084 L
227.482 222.661 L
228.133 222.661 L
228.133 222.239 L
228.784 222.239 L
228.784 222.027 L
229.435 222.027 L
229.435 221.604 L
230.086 221.604 L
230.086 221.393 L
230.737 221.393 L
230.737 220.97 L
231.388 220.97 L
231.388 220.759 L
232.039 220.759 L
232.039 220.547 L
233.341 220.547 L
233.341 220.336 L
233.992 220.336 L
233.992 220.019 L
234.643 220.019 L
234.643 219.596 L
235.294 219.596 L
235.294 219.279 L
235.945 219.279 L
235.945 219.173 L
236.596 219.173 L
236.596 219.068 L
237.247 219.068 L
237.247 218.539 L
237.898 218.539 L
237.898 218.434 L
238.549 218.434 L
238.549 217.799 L
239.2 217.799 L
239.2 217.482 L
239.851 217.482 L
239.851 217.059 L
240.502 217.059 L
240.502 216.32 L
241.153 216.32 L
241.153 216.002 L
241.804 216.002 L
241.804 215.897 L
242.455 215.897 L
242.455 215.58 L
243.106 215.58 L
243.106 215.157 L
243.757 215.157 L
243.757 215.051 L
244.408 215.051 L
244.408 214.734 L
245.059 214.734 L
245.059 214.523 L
245.71 214.523 L
245.71 214.311 L
246.361 214.311 L
246.361 213.994 L
247.012 213.994 L
247.012 213.043 L
247.663 213.043 L
247.663 212.937 L
248.314 212.937 L
248.314 212.303 L
248.965 212.303 L
248.965 211.986 L
249.616 211.986 L
249.616 211.457 L
250.267 211.457 L
250.267 211.14 L
250.918 211.14 L
250.918 210.823 L
251.569 210.823 L
251.569 210.295 L
252.871 210.295 L
252.871 209.555 L
253.522 209.555 L
253.522 209.344 L
254.173 209.344 L
254.173 209.026 L
254.824 209.026 L
254.824 208.709 L
255.475 208.709 L
255.475 208.498 L
256.126 208.498 L
256.126 208.181 L
256.777 208.181 L
256.777 208.075 L
257.428 208.075 L
257.428 207.969 L
258.079 207.969 L
258.079 207.758 L
258.73 207.758 L
258.73 207.652 L
259.381 207.652 L
259.381 207.124 L
260.032 207.124 L
260.032 207.018 L
260.683 207.018 L
260.683 206.912 L
261.334 206.912 L
261.334 206.701 L
261.985 206.701 L
261.985 206.49 L
262.636 206.49 L
262.636 206.384 L
263.287 206.384 L
263.287 205.961 L
263.938 205.961 L
263.938 205.644 L
264.589 205.644 L
264.589 205.327 L
265.24 205.327 L
265.24 205.116 L
265.891 205.116 L
265.891 204.799 L
266.542 204.799 L
266.542 204.164 L
267.193 204.164 L
267.193 203.847 L
267.844 203.847 L
267.844 203.742 L
268.495 203.742 L
268.495 203.636 L
269.797 203.636 L
269.797 203.319 L
271.099 203.319 L
271.099 203.107 L
271.75 203.107 L
271.75 202.896 L
272.401 202.896 L
272.401 202.79 L
273.052 202.79 L
273.052 202.579 L
273.703 202.579 L
273.703 202.367 L
274.354 202.367 L
274.354 202.156 L
275.005 202.156 L
275.005 201.733 L
275.656 201.733 L
275.656 201.522 L
276.307 201.522 L
276.307 201.099 L
276.958 201.099 L
276.958 200.782 L
277.609 200.782 L
277.609 200.465 L
278.26 200.465 L
278.26 200.042 L
278.911 200.042 L
278.911 199.725 L
279.562 199.725 L
279.562 199.408 L
280.213 199.408 L
280.213 199.197 L
280.864 199.197 L
280.864 198.774 L
281.515 198.774 L
281.515 198.457 L
282.166 198.457 L
282.166 198.245 L
282.817 198.245 L
282.817 197.928 L
283.468 197.928 L
283.468 197.717 L
284.119 197.717 L
284.119 197.505 L
284.77 197.505 L
284.77 197.4 L
285.421 197.4 L
285.421 196.977 L
286.072 196.977 L
286.072 196.66 L
286.723 196.66 L
286.723 196.131 L
287.374 196.131 L
287.374 195.814 L
288.025 195.814 L
288.025 195.708 L
288.676 195.708 L
288.676 195.391 L
289.327 195.391 L
289.327 195.286 L
289.978 195.286 L
289.978 195.074 L
290.629 195.074 L
290.629 194.757 L
291.931 194.757 L
291.931 194.334 L
292.582 194.334 L
292.582 194.229 L
293.233 194.229 L
293.233 194.017 L
293.884 194.017 L
293.884 193.595 L
294.535 193.595 L
294.535 193.489 L
295.186 193.489 L
295.186 193.383 L
295.837 193.383 L
295.837 192.96 L
296.488 192.96 L
296.488 192.432 L
297.139 192.432 L
297.139 191.903 L
297.79 191.903 L
297.79 191.692 L
299.092 191.692 L
299.092 191.269 L
299.743 191.269 L
299.743 191.163 L
300.394 191.163 L
300.394 190.846 L
301.045 190.846 L
301.045 190.635 L
301.696 190.635 L
301.696 190.318 L
302.347 190.318 L
302.347 190.107 L
302.998 190.107 L
302.998 189.895 L
303.649 189.895 L
303.649 189.578 L
304.3 189.578 L
304.3 189.05 L
304.951 189.05 L
304.951 188.415 L
305.602 188.415 L
305.602 188.204 L
306.253 188.204 L
306.253 187.675 L
306.904 187.675 L
306.904 187.464 L
307.555 187.464 L
307.555 187.253 L
308.206 187.253 L
308.206 186.407 L
308.857 186.407 L
308.857 185.773 L
309.508 185.773 L
309.508 185.456 L
310.159 185.456 L
310.159 185.244 L
310.81 185.244 L
310.81 185.033 L
311.461 185.033 L
311.461 184.716 L
312.112 184.716 L
312.112 184.187 L
312.763 184.187 L
312.763 183.765 L
313.414 183.765 L
313.414 183.448 L
314.065 183.448 L
314.065 183.342 L
314.716 183.342 L
314.716 183.025 L
315.367 183.025 L
315.367 182.813 L
316.018 182.813 L
316.018 182.708 L
316.669 182.708 L
316.669 182.179 L
317.32 182.179 L
317.32 181.545 L
317.971 181.545 L
317.971 181.017 L
318.622 181.017 L
318.622 180.594 L
319.273 180.594 L
319.273 180.382 L
319.924 180.382 L
319.924 179.96 L
320.575 179.96 L
320.575 179.642 L
321.226 179.642 L
321.226 179.008 L
321.877 179.008 L
321.877 178.374 L
322.528 178.374 L
322.528 178.163 L
323.179 178.163 L
323.179 177.846 L
323.83 177.846 L
323.83 177.317 L
324.481 177.317 L
324.481 177.106 L
325.132 177.106 L
325.132 176.894 L
325.783 176.894 L
325.783 176.366 L
326.434 176.366 L
326.434 175.837 L
327.085 175.837 L
327.085 175.415 L
327.736 175.415 L
327.736 174.992 L
328.387 174.992 L
328.387 174.675 L
329.038 174.675 L
329.038 174.146 L
329.689 174.146 L
329.689 173.723 L
330.34 173.723 L
330.34 173.195 L
331.642 173.195 L
331.642 172.349 L
332.293 172.349 L
332.293 171.821 L
332.944 171.821 L
332.944 171.398 L
333.595 171.398 L
333.595 171.187 L
334.246 171.187 L
334.246 170.975 L
334.897 170.975 L
334.897 170.552 L
335.548 170.552 L
335.548 170.13 L
336.199 170.13 L
336.199 169.813 L
336.85 169.813 L
336.85 169.495 L
337.501 169.495 L
337.501 168.861 L
338.152 168.861 L
338.152 168.544 L
338.803 168.544 L
338.803 167.699 L
339.454 167.699 L
339.454 167.17 L
340.756 167.17 L
340.756 166.853 L
341.407 166.853 L
341.407 166.325 L
342.058 166.325 L
342.058 165.585 L
342.709 165.585 L
342.709 165.162 L
343.36 165.162 L
343.36 164.95 L
344.011 164.95 L
344.011 164.528 L
344.662 164.528 L
344.662 164.422 L
345.313 164.422 L
345.313 163.682 L
345.964 163.682 L
345.964 163.365 L
347.266 163.365 L
347.266 163.048 L
347.917 163.048 L
347.917 162.942 L
348.568 162.942 L
348.568 162.308 L
349.219 162.308 L
349.219 161.885 L
349.87 161.885 L
349.87 161.462 L
350.521 161.462 L
350.521 161.145 L
351.172 161.145 L
351.172 160.723 L
351.823 160.723 L
351.823 160.511 L
352.474 160.511 L
352.474 160.194 L
353.125 160.194 L
353.125 159.983 L
353.776 159.983 L
353.776 159.56 L
354.427 159.56 L
354.427 158.609 L
355.078 158.609 L
355.078 158.291 L
355.729 158.291 L
355.729 157.552 L
356.38 157.552 L
356.38 157.023 L
357.031 157.023 L
357.031 156.495 L
357.682 156.495 L
357.682 155.966 L
358.333 155.966 L
358.333 155.543 L
358.984 155.543 L
358.984 155.226 L
359.635 155.226 L
359.635 154.803 L
360.286 154.803 L
360.286 154.592 L
360.937 154.592 L
360.937 154.064 L
361.588 154.064 L
361.588 153.641 L
362.239 153.641 L
362.239 153.112 L
362.89 153.112 L
362.89 152.69 L
363.541 152.69 L
363.541 152.055 L
364.192 152.055 L
364.192 151.95 L
364.843 151.95 L
364.843 151.527 L
365.494 151.527 L
365.494 150.998 L
366.145 150.998 L
366.145 150.364 L
366.796 150.364 L
366.796 149.73 L
367.447 149.73 L
367.447 149.201 L
368.098 149.201 L
368.098 148.567 L
368.749 148.567 L
368.749 147.933 L
369.4 147.933 L
369.4 147.722 L
370.051 147.722 L
370.051 147.088 L
370.702 147.088 L
370.702 146.876 L
371.353 146.876 L
371.353 146.242 L
372.004 146.242 L
372.004 146.031 L
372.655 146.031 L
372.655 145.925 L
373.306 145.925 L
373.306 145.713 L
373.957 145.713 L
373.957 145.502 L
374.608 145.502 L
374.608 145.185 L
375.259 145.185 L
375.259 144.445 L
375.91 144.445 L
375.91 143.705 L
376.561 143.705 L
376.561 143.282 L
377.212 143.282 L
377.212 142.965 L
377.863 142.965 L
377.863 142.648 L
378.514 142.648 L
378.514 142.225 L
379.165 142.225 L
379.165 141.591 L
379.816 141.591 L
379.816 141.168 L
380.467 141.168 L
380.467 140.534 L
381.118 140.534 L
381.118 140.217 L
381.769 140.217 L
381.769 139.794 L
382.42 139.794 L
382.42 138.949 L
383.071 138.949 L
383.071 138.42 L
383.722 138.42 L
383.722 137.786 L
384.373 137.786 L
384.373 137.152 L
385.024 137.152 L
385.024 136.941 L
385.675 136.941 L
385.675 136.729 L
386.326 136.729 L
386.326 136.518 L
386.977 136.518 L
386.977 136.201 L
387.628 136.201 L
387.628 135.566 L
388.279 135.566 L
388.279 135.144 L
388.93 135.144 L
388.93 134.932 L
389.581 134.932 L
389.581 134.298 L
390.232 134.298 L
390.232 133.77 L
390.883 133.77 L
390.883 133.135 L
391.534 133.135 L
391.534 132.29 L
392.185 132.29 L
392.185 131.656 L
392.836 131.656 L
392.836 131.339 L
393.487 131.339 L
393.487 130.81 L
394.789 130.81 L
394.789 130.176 L
395.44 130.176 L
395.44 129.33 L
396.091 129.33 L
396.091 129.013 L
396.742 129.013 L
396.742 128.485 L
398.044 128.485 L
398.044 127.956 L
398.695 127.956 L
398.695 127.851 L
399.346 127.851 L
399.346 127.322 L
399.997 127.322 L
399.997 127.216 L
400.648 127.216 L
400.648 126.688 L
401.299 126.688 L
401.299 125.948 L
401.95 125.948 L
401.95 125.208 L
402.601 125.208 L
402.601 124.997 L
403.252 124.997 L
403.252 124.468 L
403.903 124.468 L
403.903 123.834 L
404.554 123.834 L
404.554 123.728 L
405.205 123.728 L
405.205 123.306 L
405.856 123.306 L
405.856 122.777 L
406.507 122.777 L
406.507 122.037 L
407.158 122.037 L
407.158 121.826 L
407.809 121.826 L
407.809 120.98 L
408.46 120.98 L
408.46 120.557 L
409.111 120.557 L
409.111 120.135 L
409.762 120.135 L
409.762 120.029 L
410.413 120.029 L
410.413 119.395 L
411.064 119.395 L
411.064 118.866 L
411.715 118.866 L
411.715 118.549 L
412.366 118.549 L
412.366 118.126 L
413.668 118.126 L
413.668 117.809 L
414.319 117.809 L
414.319 117.281 L
414.97 117.281 L
414.97 116.435 L
415.621 116.435 L
415.621 115.907 L
416.272 115.907 L
416.272 115.695 L
416.923 115.695 L
416.923 115.378 L
417.574 115.378 L
417.574 115.061 L
418.225 115.061 L
418.225 114.744 L
418.876 114.744 L
418.876 114.216 L
419.527 114.216 L
419.527 114.004 L
420.178 114.004 L
420.178 113.793 L
420.829 113.793 L
420.829 113.37 L
421.48 113.37 L
421.48 113.053 L
422.131 113.053 L
422.131 112.419 L
422.782 112.419 L
422.782 111.784 L
423.433 111.784 L
423.433 111.467 L
424.084 111.467 L
424.084 110.939 L
424.735 110.939 L
424.735 110.305 L
425.386 110.305 L
425.386 109.882 L
426.037 109.882 L
426.037 109.459 L
426.688 109.459 L
426.688 108.825 L
427.339 108.825 L
427.339 108.191 L
427.99 108.191 L
427.99 107.768 L
428.641 107.768 L
428.641 107.451 L
429.292 107.451 L
429.292 107.239 L
429.943 107.239 L
429.943 106.817 L
430.594 106.817 L
430.594 105.865 L
431.245 105.865 L
431.245 105.231 L
431.896 105.231 L
431.896 105.126 L
432.547 105.126 L
432.547 104.808 L
433.198 104.808 L
433.198 104.491 L
433.849 104.491 L
433.849 104.28 L
434.5 104.28 L
434.5 103.434 L
435.151 103.434 L
435.151 102.694 L
435.802 102.694 L
435.802 102.272 L
436.453 102.272 L
436.453 101.955 L
437.104 101.955 L
437.104 101.532 L
437.755 101.532 L
437.755 100.898 L
438.406 100.898 L
438.406 100.792 L
439.057 100.792 L
439.057 100.263 L
439.708 100.263 L
439.708 99.735 L
440.359 99.735 L
440.359 99.206 L
441.01 99.206 L
441.01 98.995 L
441.661 98.995 L
441.661 98.678 L
442.312 98.678 L
442.312 98.572 L
442.963 98.572 L
442.963 98.149 L
443.614 98.149 L
443.614 97.938 L
444.265 97.938 L
444.265 97.832 L
444.916 97.832 L
444.916 97.304 L
445.567 97.304 L
445.567 96.775 L
446.218 96.775 L
446.218 96.036 L
446.869 96.036 L
446.869 95.824 L
447.52 95.824 L
447.52 95.507 L
448.171 95.507 L
448.171 95.19 L
448.822 95.19 L
448.822 94.556 L
449.473 94.556 L
449.473 93.816 L
450.124 93.816 L
450.124 93.604 L
450.775 93.604 L
450.775 93.076 L
451.426 93.076 L
451.426 92.547 L
452.077 92.547 L
452.077 92.23 L
452.728 92.23 L
452.728 91.702 L
453.379 91.702 L
453.379 91.491 L
454.03 91.491 L
454.03 91.068 L
454.681 91.068 L
454.681 90.645 L
455.332 90.645 L
455.332 90.116 L
455.983 90.116 L
455.983 89.905 L
456.634 89.905 L
456.634 89.588 L
457.285 89.588 L
457.285 89.377 L
457.936 89.377 L
457.936 89.059 L
458.587 89.059 L
458.587 88.531 L
459.238 88.531 L
459.238 88.32 L
459.889 88.32 L
459.889 88.214 L
461.191 88.214 L
461.191 87.791 L
461.842 87.791 L
461.842 87.368 L
462.493 87.368 L
462.493 86.628 L
463.144 86.628 L
463.144 86.1 L
463.795 86.1 L
463.795 85.677 L
464.446 85.677 L
464.446 85.36 L
465.097 85.36 L
465.097 85.149 L
465.748 85.149 L
465.748 84.832 L
466.399 84.832 L
466.399 84.514 L
467.05 84.514 L
467.05 84.092 L
467.701 84.092 L
467.701 83.88 L
468.352 83.88 L
468.352 83.352 L
469.003 83.352 L
469.003 83.246 L
469.654 83.246 L
469.654 82.823 L
470.305 82.823 L
470.305 82.4 L
470.956 82.4 L
470.956 82.083 L
471.607 82.083 L
471.607 81.661 L
472.258 81.661 L
472.258 81.238 L
472.909 81.238 L
472.909 81.026 L
473.56 81.026 L
473.56 80.709 L
475.513 80.709 L
475.513 80.392 L
476.164 80.392 L
476.164 80.181 L
476.815 80.181 L
476.815 79.969 L
477.466 79.969 L
477.466 79.23 L
478.117 79.23 L
478.117 79.124 L
478.768 79.124 L
478.768 78.807 L
479.419 78.807 L
479.419 78.595 L
480.07 78.595 L
480.07 78.384 L
480.721 78.384 L
480.721 77.961 L
481.372 77.961 L
481.372 77.538 L
482.023 77.538 L
482.023 77.01 L
482.674 77.01 L
482.674 76.799 L
483.325 76.799 L
483.325 76.376 L
483.976 76.376 L
483.976 75.636 L
484.627 75.636 L
484.627 75.424 L
485.278 75.424 L
485.278 75.002 L
485.929 75.002 L
485.929 74.79 L
486.58 74.79 L
486.58 74.262 L
487.231 74.262 L
487.231 74.156 L
487.882 74.156 L
487.882 73.628 L
488.533 73.628 L
488.533 73.31 L
489.184 73.31 L
489.184 73.099 L
489.835 73.099 L
489.835 72.993 L
490.486 72.993 L
490.486 72.888 L
491.137 72.888 L
491.137 72.465 L
491.788 72.465 L
491.788 72.254 L
492.439 72.254 L
492.439 72.042 L
493.09 72.042 L
493.09 71.831 L
493.741 71.831 L
493.741 71.514 L
495.043 71.514 L
495.043 70.985 L
495.694 70.985 L
495.694 70.774 L
496.345 70.774 L
496.345 70.668 L
496.996 70.668 L
496.996 70.562 L
497.647 70.562 L
497.647 70.457 L
498.298 70.457 L
498.298 70.351 L
499.6 70.351 L
499.6 69.928 L
500.251 69.928 L
500.251 69.822 L
500.902 69.822 L
500.902 69.611 L
501.553 69.611 L
501.553 69.083 L
502.204 69.083 L
502.204 68.765 L
502.855 68.765 L
502.855 68.448 L
503.506 68.448 L
503.506 68.131 L
504.157 68.131 L
504.157 67.92 L
504.808 67.92 L
504.808 67.497 L
505.459 67.497 L
505.459 67.074 L
506.11 67.074 L
506.11 66.757 L
507.412 66.757 L
507.412 66.546 L
508.063 66.546 L
508.063 66.44 L
508.714 66.44 L
508.714 66.017 L
509.365 66.017 L
509.365 65.912 L
510.016 65.912 L
510.016 65.7 L
510.667 65.7 L
510.667 65.489 L
511.318 65.489 L
511.318 65.383 L
511.969 65.383 L
511.969 65.277 L
513.271 65.277 L
513.271 64.96 L
513.922 64.96 L
513.922 64.855 L
514.573 64.855 L
514.573 64.538 L
515.224 64.538 L
515.224 64.432 L
515.875 64.432 L
515.875 64.22 L
516.526 64.22 L
516.526 64.009 L
517.177 64.009 L
517.177 63.692 L
517.828 63.692 L
517.828 63.586 L
518.479 63.586 L
518.479 63.163 L
519.13 63.163 L
519.13 63.058 L
519.781 63.058 L
519.781 62.635 L
521.083 62.635 L
521.083 62.318 L
522.385 62.318 L
522.385 62.107 L
523.036 62.107 L
523.036 62.001 L
523.687 62.001 L
523.687 61.895 L
524.338 61.895 L
524.338 61.684 L
525.64 61.684 L
525.64 61.578 L
526.291 61.578 L
526.291 61.472 L
526.942 61.472 L
526.942 61.367 L
528.244 61.367 L
528.244 61.261 L
528.895 61.261 L
528.895 61.05 L
529.546 61.05 L
529.546 60.732 L
530.848 60.732 L
530.848 60.627 L
532.15 60.627 L
532.15 60.415 L
532.801 60.415 L
532.801 60.31 L
534.103 60.31 L
534.103 60.098 L
534.754 60.098 L
534.754 59.675 L
535.405 59.675 L
535.405 59.57 L
536.056 59.57 L
536.056 59.253 L
537.358 59.253 L
537.358 58.936 L
538.009 58.936 L
538.009 58.618 L
539.311 58.618 L
539.311 58.301 L
539.962 58.301 L
539.962 58.09 L
541.915 58.09 L
541.915 57.984 L
543.217 57.984 L
543.217 57.773 L
543.868 57.773 L
543.868 57.667 L
544.519 57.667 L
544.519 57.562 L
545.821 57.562 L
545.821 57.244 L
547.123 57.244 L
547.123 56.927 L
548.425 56.927 L
548.425 56.822 L
549.076 56.822 L
549.076 56.716 L
549.727 56.716 L
549.727 56.505 L
550.378 56.505 L
550.378 56.399 L
551.029 56.399 L
551.029 56.293 L
551.68 56.293 L
551.68 56.082 L
552.331 56.082 L
552.331 55.87 L
552.982 55.87 L
552.982 55.765 L
554.284 55.765 L
554.284 55.659 L
555.586 55.659 L
555.586 55.553 L
557.539 55.553 L
557.539 55.448 L
558.19 55.448 L
558.19 55.342 L
559.492 55.342 L
559.492 55.236 L
560.143 55.236 L
560.143 55.13 L
560.794 55.13 L
560.794 55.025 L
562.096 55.025 L
562.096 54.919 L
562.747 54.919 L
562.747 54.602 L
563.398 54.602 L
563.398 54.391 L
564.049 54.391 L
564.049 54.285 L
565.351 54.285 L
565.351 54.179 L
567.955 54.179 L
567.955 54.073 L
569.908 54.073 L
569.908 53.968 L
573.163 53.968 L
573.163 53.756 L
575.116 53.756 L
575.116 53.651 L
576.418 53.651 L
576.418 53.334 L
577.72 53.334 L
577.72 53.228 L
579.022 53.228 L
579.022 53.122 L
580.975 53.122 L
580.975 52.805 L
581.626 52.805 L
581.626 52.488 L
582.277 52.488 L
582.277 52.382 L
582.928 52.382 L
582.928 52.277 L
584.881 52.277 L
584.881 52.171 L
587.485 52.171 L
587.485 51.854 L
588.136 51.854 L
588.136 51.642 L
588.787 51.642 L
588.787 51.431 L
589.438 51.431 L
589.438 51.22 L
590.089 51.22 L
590.089 50.903 L
593.344 50.903 L
593.344 50.797 L
595.297 50.797 L
595.297 50.691 L
597.901 50.691 L
597.901 50.585 L
601.807 50.585 L
601.807 50.374 L
603.76 50.374 L
603.76 50.268 L
605.062 50.268 L
605.062 50.163 L
606.364 50.163 L
606.364 50.057 L
611.572 50.057 L
611.572 49.951 L
616.129 49.951 L
616.129 49.74 L
616.78 49.74 L
616.78 49.634 L
627.847 49.634 L
627.847 49.528 L
628.498 49.528 L
628.498 49.423 L
631.102 49.423 L
631.102 49.317 L
633.055 49.317 L
633.055 49.211 L
645.424 49.211 L
645.424 49.106 L
662.35 49.106 L
662.35 49 L
S
GR
GS
0.851 0.325 0.098 RC
[6 6] 0 setdash
2 LJ
6 LW
N
109 305 M
109 301.969 L
110.302 301.969 L
110.302 301.693 L
110.953 301.693 L
110.953 301.418 L
114.859 301.418 L
114.859 301.142 L
117.463 301.142 L
117.463 300.867 L
118.114 300.867 L
118.114 300.591 L
121.369 300.591 L
121.369 300.315 L
159.127 300.315 L
159.127 300.04 L
160.429 300.04 L
160.429 299.764 L
162.382 299.764 L
162.382 299.213 L
163.033 299.213 L
163.033 298.662 L
166.939 298.662 L
166.939 298.111 L
167.59 298.111 L
167.59 297.284 L
168.241 297.284 L
168.241 297.009 L
169.543 297.009 L
169.543 296.733 L
170.194 296.733 L
170.194 296.182 L
172.798 296.182 L
172.798 295.631 L
173.449 295.631 L
173.449 295.355 L
174.751 295.355 L
174.751 295.08 L
175.402 295.08 L
175.402 294.804 L
176.053 294.804 L
176.053 294.529 L
178.657 294.529 L
178.657 294.253 L
180.61 294.253 L
180.61 293.977 L
183.865 293.977 L
183.865 293.702 L
184.516 293.702 L
184.516 293.426 L
185.167 293.426 L
185.167 293.151 L
186.469 293.151 L
186.469 292.324 L
187.771 292.324 L
187.771 292.048 L
189.073 292.048 L
189.073 291.497 L
191.026 291.497 L
191.026 291.222 L
191.677 291.222 L
191.677 290.946 L
195.583 290.946 L
195.583 290.119 L
196.885 290.119 L
196.885 289.844 L
198.838 289.844 L
198.838 289.568 L
201.442 289.568 L
201.442 289.017 L
202.093 289.017 L
202.093 288.742 L
202.744 288.742 L
202.744 288.466 L
205.348 288.466 L
205.348 287.915 L
207.952 287.915 L
207.952 287.639 L
209.254 287.639 L
209.254 287.364 L
213.16 287.364 L
213.16 286.813 L
215.113 286.813 L
215.113 286.537 L
215.764 286.537 L
215.764 285.986 L
216.415 285.986 L
216.415 285.71 L
220.321 285.71 L
220.321 285.159 L
220.972 285.159 L
220.972 284.608 L
222.925 284.608 L
222.925 284.057 L
225.529 284.057 L
225.529 283.506 L
226.831 283.506 L
226.831 283.23 L
227.482 283.23 L
227.482 282.955 L
228.784 282.955 L
228.784 282.404 L
229.435 282.404 L
229.435 281.853 L
232.039 281.853 L
232.039 281.577 L
233.341 281.577 L
233.341 281.026 L
234.643 281.026 L
234.643 280.75 L
236.596 280.75 L
236.596 280.475 L
239.2 280.475 L
239.2 280.199 L
241.153 280.199 L
241.153 279.648 L
241.804 279.648 L
241.804 279.372 L
242.455 279.372 L
242.455 279.097 L
243.106 279.097 L
243.106 278.27 L
243.757 278.27 L
243.757 277.995 L
245.059 277.995 L
245.059 277.719 L
245.71 277.719 L
245.71 277.168 L
246.361 277.168 L
246.361 276.341 L
248.314 276.341 L
248.314 276.066 L
248.965 276.066 L
248.965 275.515 L
251.569 275.515 L
251.569 275.239 L
252.22 275.239 L
252.22 274.963 L
254.173 274.963 L
254.173 274.137 L
254.824 274.137 L
254.824 273.586 L
256.126 273.586 L
256.126 272.759 L
256.777 272.759 L
256.777 272.483 L
257.428 272.483 L
257.428 272.208 L
258.079 272.208 L
258.079 271.657 L
258.73 271.657 L
258.73 271.381 L
259.381 271.381 L
259.381 270.83 L
260.032 270.83 L
260.032 270.554 L
260.683 270.554 L
260.683 270.279 L
261.334 270.279 L
261.334 270.003 L
263.938 270.003 L
263.938 269.728 L
265.24 269.728 L
265.24 269.452 L
267.193 269.452 L
267.193 268.901 L
267.844 268.901 L
267.844 268.625 L
269.797 268.625 L
269.797 267.799 L
270.448 267.799 L
270.448 267.523 L
271.099 267.523 L
271.099 266.696 L
271.75 266.696 L
271.75 265.319 L
272.401 265.319 L
272.401 264.767 L
273.703 264.767 L
273.703 264.492 L
274.354 264.492 L
274.354 263.941 L
275.005 263.941 L
275.005 263.665 L
277.609 263.665 L
277.609 263.114 L
278.911 263.114 L
278.911 262.563 L
279.562 262.563 L
279.562 261.461 L
280.213 261.461 L
280.213 261.185 L
280.864 261.185 L
280.864 260.083 L
283.468 260.083 L
283.468 259.532 L
284.119 259.532 L
284.119 259.256 L
285.421 259.256 L
285.421 258.705 L
286.072 258.705 L
286.072 258.43 L
286.723 258.43 L
286.723 257.052 L
287.374 257.052 L
287.374 256.225 L
288.025 256.225 L
288.025 255.674 L
288.676 255.674 L
288.676 254.847 L
289.327 254.847 L
289.327 254.02 L
290.629 254.02 L
290.629 252.918 L
291.28 252.918 L
291.28 252.367 L
292.582 252.367 L
292.582 252.091 L
293.233 252.091 L
293.233 251.816 L
293.884 251.816 L
293.884 250.989 L
294.535 250.989 L
294.535 250.438 L
295.186 250.438 L
295.186 249.611 L
295.837 249.611 L
295.837 249.06 L
296.488 249.06 L
296.488 248.785 L
297.139 248.785 L
297.139 248.234 L
297.79 248.234 L
297.79 246.856 L
299.092 246.856 L
299.092 246.305 L
299.743 246.305 L
299.743 246.029 L
300.394 246.029 L
300.394 245.753 L
301.045 245.753 L
301.045 245.202 L
301.696 245.202 L
301.696 244.651 L
302.347 244.651 L
302.347 244.1 L
304.3 244.1 L
304.3 243.549 L
304.951 243.549 L
304.951 242.998 L
305.602 242.998 L
305.602 242.722 L
306.904 242.722 L
306.904 241.069 L
307.555 241.069 L
307.555 240.518 L
308.206 240.518 L
308.206 240.242 L
309.508 240.242 L
309.508 239.415 L
310.159 239.415 L
310.159 238.864 L
310.81 238.864 L
310.81 238.038 L
311.461 238.038 L
311.461 237.762 L
312.112 237.762 L
312.112 237.211 L
314.065 237.211 L
314.065 236.66 L
314.716 236.66 L
314.716 235.833 L
316.018 235.833 L
316.018 235.282 L
316.669 235.282 L
316.669 234.455 L
317.971 234.455 L
317.971 234.18 L
318.622 234.18 L
318.622 233.904 L
319.273 233.904 L
319.273 233.629 L
319.924 233.629 L
319.924 232.802 L
321.877 232.802 L
321.877 231.975 L
323.179 231.975 L
323.179 231.424 L
323.83 231.424 L
323.83 230.322 L
325.783 230.322 L
325.783 229.495 L
327.085 229.495 L
327.085 228.944 L
327.736 228.944 L
327.736 228.668 L
328.387 228.668 L
328.387 227.842 L
329.038 227.842 L
329.038 227.566 L
330.991 227.566 L
330.991 227.291 L
331.642 227.291 L
331.642 226.188 L
332.293 226.188 L
332.293 225.637 L
332.944 225.637 L
332.944 224.811 L
333.595 224.811 L
333.595 224.535 L
334.246 224.535 L
334.246 223.984 L
335.548 223.984 L
335.548 223.708 L
336.199 223.708 L
336.199 223.433 L
336.85 223.433 L
336.85 222.606 L
337.501 222.606 L
337.501 222.33 L
338.803 222.33 L
338.803 221.779 L
340.105 221.779 L
340.105 221.228 L
340.756 221.228 L
340.756 220.953 L
341.407 220.953 L
341.407 219.85 L
342.058 219.85 L
342.058 219.575 L
342.709 219.575 L
342.709 219.024 L
343.36 219.024 L
343.36 218.473 L
344.011 218.473 L
344.011 218.197 L
344.662 218.197 L
344.662 217.646 L
345.964 217.646 L
345.964 217.37 L
346.615 217.37 L
346.615 217.095 L
347.266 217.095 L
347.266 216.544 L
349.87 216.544 L
349.87 216.268 L
351.823 216.268 L
351.823 215.166 L
352.474 215.166 L
352.474 214.615 L
353.125 214.615 L
353.125 214.339 L
353.776 214.339 L
353.776 214.064 L
354.427 214.064 L
354.427 213.788 L
355.078 213.788 L
355.078 213.237 L
355.729 213.237 L
355.729 212.961 L
356.38 212.961 L
356.38 212.41 L
357.031 212.41 L
357.031 212.135 L
357.682 212.135 L
357.682 211.308 L
358.333 211.308 L
358.333 210.757 L
358.984 210.757 L
358.984 210.481 L
360.286 210.481 L
360.286 209.654 L
360.937 209.654 L
360.937 209.379 L
361.588 209.379 L
361.588 208.552 L
362.239 208.552 L
362.239 208.001 L
363.541 208.001 L
363.541 207.726 L
364.843 207.726 L
364.843 207.174 L
365.494 207.174 L
365.494 206.348 L
366.145 206.348 L
366.145 205.797 L
367.447 205.797 L
367.447 205.521 L
368.098 205.521 L
368.098 205.245 L
368.749 205.245 L
368.749 204.97 L
369.4 204.97 L
369.4 204.694 L
370.051 204.694 L
370.051 204.419 L
371.353 204.419 L
371.353 204.143 L
372.004 204.143 L
372.004 203.868 L
372.655 203.868 L
372.655 203.592 L
373.957 203.592 L
373.957 202.765 L
374.608 202.765 L
374.608 202.49 L
375.259 202.49 L
375.259 202.214 L
375.91 202.214 L
375.91 201.388 L
376.561 201.388 L
376.561 200.561 L
377.212 200.561 L
377.212 200.285 L
377.863 200.285 L
377.863 198.907 L
378.514 198.907 L
378.514 198.632 L
379.816 198.632 L
379.816 198.356 L
381.118 198.356 L
381.118 198.081 L
381.769 198.081 L
381.769 197.254 L
382.42 197.254 L
382.42 196.427 L
383.071 196.427 L
383.071 195.876 L
383.722 195.876 L
383.722 195.325 L
384.373 195.325 L
384.373 194.223 L
386.326 194.223 L
386.326 193.947 L
386.977 193.947 L
386.977 193.672 L
388.279 193.672 L
388.279 192.569 L
388.93 192.569 L
388.93 192.294 L
390.232 192.294 L
390.232 190.916 L
390.883 190.916 L
390.883 189.814 L
391.534 189.814 L
391.534 188.987 L
392.836 188.987 L
392.836 188.712 L
394.138 188.712 L
394.138 188.436 L
394.789 188.436 L
394.789 187.885 L
395.44 187.885 L
395.44 187.609 L
396.091 187.609 L
396.091 187.334 L
396.742 187.334 L
396.742 186.783 L
397.393 186.783 L
397.393 186.231 L
398.044 186.231 L
398.044 185.129 L
398.695 185.129 L
398.695 184.027 L
399.997 184.027 L
399.997 183.751 L
400.648 183.751 L
400.648 182.925 L
401.299 182.925 L
401.299 181.547 L
401.95 181.547 L
401.95 180.996 L
402.601 180.996 L
402.601 180.445 L
403.252 180.445 L
403.252 180.169 L
403.903 180.169 L
403.903 179.067 L
404.554 179.067 L
404.554 178.516 L
405.205 178.516 L
405.205 177.689 L
405.856 177.689 L
405.856 176.311 L
406.507 176.311 L
406.507 175.484 L
407.158 175.484 L
407.158 174.107 L
407.809 174.107 L
407.809 172.729 L
408.46 172.729 L
408.46 171.902 L
409.762 171.902 L
409.762 171.626 L
410.413 171.626 L
410.413 170.524 L
411.064 170.524 L
411.064 169.146 L
411.715 169.146 L
411.715 168.32 L
412.366 168.32 L
412.366 167.493 L
413.017 167.493 L
413.017 166.666 L
414.319 166.666 L
414.319 165.84 L
414.97 165.84 L
414.97 165.013 L
415.621 165.013 L
415.621 164.737 L
416.272 164.737 L
416.272 164.462 L
416.923 164.462 L
416.923 163.084 L
418.225 163.084 L
418.225 162.533 L
418.876 162.533 L
418.876 161.982 L
419.527 161.982 L
419.527 160.604 L
420.178 160.604 L
420.178 159.777 L
420.829 159.777 L
420.829 159.502 L
421.48 159.502 L
421.48 159.226 L
422.131 159.226 L
422.131 158.675 L
422.782 158.675 L
422.782 158.399 L
423.433 158.399 L
423.433 157.573 L
424.084 157.573 L
424.084 156.47 L
424.735 156.47 L
424.735 155.368 L
425.386 155.368 L
425.386 154.817 L
426.037 154.817 L
426.037 153.439 L
426.688 153.439 L
426.688 152.337 L
427.99 152.337 L
427.99 151.51 L
428.641 151.51 L
428.641 150.684 L
429.292 150.684 L
429.292 150.408 L
429.943 150.408 L
429.943 149.306 L
430.594 149.306 L
430.594 148.479 L
431.245 148.479 L
431.245 147.652 L
431.896 147.652 L
431.896 146.826 L
432.547 146.826 L
432.547 146.55 L
433.198 146.55 L
433.198 146.274 L
434.5 146.274 L
434.5 145.448 L
435.802 145.448 L
435.802 145.172 L
436.453 145.172 L
436.453 144.621 L
437.104 144.621 L
437.104 144.346 L
438.406 144.346 L
438.406 143.519 L
439.057 143.519 L
439.057 142.968 L
439.708 142.968 L
439.708 142.141 L
440.359 142.141 L
440.359 141.59 L
441.01 141.59 L
441.01 141.039 L
441.661 141.039 L
441.661 139.661 L
442.312 139.661 L
442.312 139.11 L
443.614 139.11 L
443.614 138.559 L
444.265 138.559 L
444.265 137.732 L
444.916 137.732 L
444.916 137.456 L
446.218 137.456 L
446.218 136.905 L
446.869 136.905 L
446.869 136.63 L
447.52 136.63 L
447.52 135.803 L
448.171 135.803 L
448.171 135.252 L
448.822 135.252 L
448.822 133.874 L
449.473 133.874 L
449.473 133.323 L
450.775 133.323 L
450.775 132.772 L
451.426 132.772 L
451.426 131.945 L
452.728 131.945 L
452.728 131.394 L
453.379 131.394 L
453.379 130.567 L
454.03 130.567 L
454.03 130.016 L
454.681 130.016 L
454.681 129.465 L
455.332 129.465 L
455.332 129.189 L
455.983 129.189 L
455.983 128.914 L
456.634 128.914 L
456.634 128.638 L
457.285 128.638 L
457.285 128.087 L
457.936 128.087 L
457.936 127.536 L
458.587 127.536 L
458.587 125.883 L
459.238 125.883 L
459.238 124.229 L
459.889 124.229 L
459.889 123.954 L
460.54 123.954 L
460.54 123.403 L
461.842 123.403 L
461.842 123.127 L
462.493 123.127 L
462.493 121.749 L
463.144 121.749 L
463.144 120.923 L
463.795 120.923 L
463.795 120.371 L
464.446 120.371 L
464.446 118.994 L
465.097 118.994 L
465.097 118.442 L
465.748 118.442 L
465.748 117.891 L
467.701 117.891 L
467.701 117.616 L
468.352 117.616 L
468.352 116.789 L
469.003 116.789 L
469.003 116.238 L
469.654 116.238 L
469.654 115.687 L
470.305 115.687 L
470.305 114.86 L
470.956 114.86 L
470.956 114.585 L
471.607 114.585 L
471.607 114.309 L
472.258 114.309 L
472.258 113.758 L
472.909 113.758 L
472.909 113.482 L
473.56 113.482 L
473.56 112.656 L
474.211 112.656 L
474.211 111.553 L
474.862 111.553 L
474.862 111.278 L
476.164 111.278 L
476.164 110.727 L
476.815 110.727 L
476.815 109.9 L
477.466 109.9 L
477.466 109.624 L
478.117 109.624 L
478.117 108.522 L
478.768 108.522 L
478.768 107.695 L
479.419 107.695 L
479.419 106.869 L
480.07 106.869 L
480.07 106.042 L
480.721 106.042 L
480.721 105.766 L
481.372 105.766 L
481.372 104.94 L
482.023 104.94 L
482.023 104.664 L
482.674 104.664 L
482.674 103.286 L
483.325 103.286 L
483.325 102.735 L
483.976 102.735 L
483.976 102.46 L
484.627 102.46 L
484.627 101.357 L
485.278 101.357 L
485.278 100.531 L
485.929 100.531 L
485.929 99.428 L
486.58 99.428 L
486.58 99.153 L
487.231 99.153 L
487.231 98.877 L
487.882 98.877 L
487.882 98.326 L
488.533 98.326 L
488.533 98.051 L
489.184 98.051 L
489.184 97.224 L
489.835 97.224 L
489.835 96.948 L
490.486 96.948 L
490.486 96.673 L
491.137 96.673 L
491.137 96.397 L
492.439 96.397 L
492.439 96.122 L
493.09 96.122 L
493.09 95.571 L
493.741 95.571 L
493.741 94.468 L
494.392 94.468 L
494.392 93.642 L
495.043 93.642 L
495.043 93.366 L
495.694 93.366 L
495.694 92.815 L
496.996 92.815 L
496.996 92.539 L
497.647 92.539 L
497.647 91.713 L
498.298 91.713 L
498.298 91.161 L
498.949 91.161 L
498.949 90.886 L
499.6 90.886 L
499.6 89.784 L
500.251 89.784 L
500.251 89.508 L
500.902 89.508 L
500.902 88.681 L
502.204 88.681 L
502.204 88.13 L
502.855 88.13 L
502.855 87.028 L
503.506 87.028 L
503.506 86.752 L
504.157 86.752 L
504.157 85.375 L
504.808 85.375 L
504.808 85.099 L
506.11 85.099 L
506.11 84.548 L
506.761 84.548 L
506.761 84.272 L
508.063 84.272 L
508.063 83.997 L
509.365 83.997 L
509.365 83.446 L
510.016 83.446 L
510.016 82.895 L
510.667 82.895 L
510.667 82.619 L
511.318 82.619 L
511.318 82.068 L
511.969 82.068 L
511.969 81.792 L
512.62 81.792 L
512.62 81.517 L
514.573 81.517 L
514.573 80.966 L
515.224 80.966 L
515.224 80.414 L
515.875 80.414 L
515.875 79.863 L
517.177 79.863 L
517.177 79.037 L
517.828 79.037 L
517.828 78.761 L
518.479 78.761 L
518.479 77.383 L
519.13 77.383 L
519.13 76.557 L
519.781 76.557 L
519.781 76.005 L
520.432 76.005 L
520.432 75.73 L
521.083 75.73 L
521.083 75.454 L
524.338 75.454 L
524.338 74.903 L
524.989 74.903 L
524.989 74.628 L
525.64 74.628 L
525.64 74.352 L
526.291 74.352 L
526.291 73.25 L
526.942 73.25 L
526.942 72.974 L
527.593 72.974 L
527.593 72.699 L
528.895 72.699 L
528.895 72.423 L
530.197 72.423 L
530.197 72.147 L
530.848 72.147 L
530.848 71.872 L
531.499 71.872 L
531.499 71.596 L
532.15 71.596 L
532.15 70.494 L
532.801 70.494 L
532.801 69.943 L
534.103 69.943 L
534.103 69.667 L
534.754 69.667 L
534.754 69.392 L
535.405 69.392 L
535.405 69.116 L
537.358 69.116 L
537.358 68.841 L
539.311 68.841 L
539.311 68.565 L
539.962 68.565 L
539.962 68.29 L
540.613 68.29 L
540.613 68.014 L
541.915 68.014 L
541.915 67.187 L
543.868 67.187 L
543.868 66.636 L
547.123 66.636 L
547.123 66.085 L
547.774 66.085 L
547.774 65.809 L
548.425 65.809 L
548.425 65.534 L
549.076 65.534 L
549.076 65.258 L
552.331 65.258 L
552.331 64.983 L
553.633 64.983 L
553.633 64.707 L
554.935 64.707 L
554.935 64.432 L
555.586 64.432 L
555.586 64.156 L
556.888 64.156 L
556.888 63.605 L
558.19 63.605 L
558.19 63.054 L
558.841 63.054 L
558.841 62.778 L
559.492 62.778 L
559.492 62.227 L
560.143 62.227 L
560.143 61.4 L
561.445 61.4 L
561.445 61.125 L
562.096 61.125 L
562.096 60.849 L
563.398 60.849 L
563.398 60.574 L
564.049 60.574 L
564.049 60.023 L
564.7 60.023 L
564.7 59.747 L
566.002 59.747 L
566.002 59.196 L
567.304 59.196 L
567.304 58.645 L
568.606 58.645 L
568.606 58.369 L
569.908 58.369 L
569.908 58.094 L
573.814 58.094 L
573.814 57.543 L
575.116 57.543 L
575.116 57.267 L
577.72 57.267 L
577.72 56.991 L
579.673 56.991 L
579.673 56.716 L
580.324 56.716 L
580.324 56.44 L
580.975 56.44 L
580.975 56.165 L
581.626 56.165 L
581.626 55.614 L
582.277 55.614 L
582.277 55.338 L
585.532 55.338 L
585.532 55.062 L
588.136 55.062 L
588.136 54.787 L
588.787 54.787 L
588.787 54.511 L
589.438 54.511 L
589.438 54.236 L
594.646 54.236 L
594.646 53.96 L
597.901 53.96 L
597.901 53.409 L
598.552 53.409 L
598.552 53.133 L
599.854 53.133 L
599.854 52.582 L
601.807 52.582 L
601.807 52.307 L
617.431 52.307 L
617.431 52.031 L
618.082 52.031 L
618.082 51.756 L
627.847 51.756 L
627.847 51.48 L
631.102 51.48 L
631.102 51.205 L
637.612 51.205 L
637.612 50.929 L
639.565 50.929 L
639.565 50.653 L
640.216 50.653 L
640.216 50.378 L
644.122 50.378 L
644.122 50.102 L
645.424 50.102 L
645.424 49.827 L
647.377 49.827 L
647.377 49.551 L
648.679 49.551 L
648.679 49.276 L
694.9 49.276 L
694.9 49 L
S
GR
GS
1 GC
N
373 295 M
373 226 L
750 226 L
750 295 L
cp
f
GR
GS
[1 0 0 1 410 244.13139] CT
/Helvetica 27 F
GS
[1 0 0 1 0 0] CT
0 10 moveto 
1 -1 scale
(Cataract \(mean = 312.5723\)) t 
GR
GR
GS
0 0.447 0.741 RC
1 LJ
6 LW
N
377 244.131 M
407 244.131 L
S
GR
GS
[1 0 0 1 410 276.86862] CT
/Helvetica 27 F
GS
[1 0 0 1 0 0] CT
0 10 moveto 
1 -1 scale
(Healthy \(mean = 432.9300\)) t 
GR
GR
GS
0.851 0.325 0.098 RC
[6 6] 0 setdash
2 LJ
6 LW
N
377 276.869 M
407 276.869 L
S
GR
GS
0.149 GC
10.0 ML
0.5 LW
N
373 295 M
373 226 L
750 226 L
750 295 L
cp
S
GR
%%Trailer
%%Pages: 1
%%EOF
