%!PS-Adobe-3.0 EPSF-3.0
%%Creator: (MATLAB, The Mathworks, Inc. Version 9.2.0.538062 \(R2017a\). Operating System: Mac OS X)
%%Title: /Users/trokielewicz/Dropbox/Aplikacje/Texpad/IrisDisease-BookChapter-2016/images/subsets-F-gen-VE.eps
%%CreationDate: 2017-07-25T19:42:33
%%Pages: (atend)
%%BoundingBox: 0 0 960 933
%%LanguageLevel: 3
%%EndComments
%%BeginProlog
%%BeginResource: procset (Apache XML Graphics Std ProcSet) 1.2 0
%%Version: 1.2 0
%%Copyright: (Copyright 2001-2003,2010 The Apache Software Foundation. License terms: http://www.apache.org/licenses/LICENSE-2.0)
/bd{bind def}bind def
/ld{load def}bd
/GR/grestore ld
/M/moveto ld
/LJ/setlinejoin ld
/C/curveto ld
/f/fill ld
/LW/setlinewidth ld
/GC/setgray ld
/t/show ld
/N/newpath ld
/CT/concat ld
/cp/closepath ld
/S/stroke ld
/L/lineto ld
/CC/setcmykcolor ld
/A/ashow ld
/GS/gsave ld
/RC/setrgbcolor ld
/RM/rmoveto ld
/ML/setmiterlimit ld
/re {4 2 roll M
1 index 0 rlineto
0 exch rlineto
neg 0 rlineto
cp } bd
/_ctm matrix def
/_tm matrix def
/BT { _ctm currentmatrix pop matrix _tm copy pop 0 0 moveto } bd
/ET { _ctm setmatrix } bd
/iTm { _ctm setmatrix _tm concat } bd
/Tm { _tm astore pop iTm 0 0 moveto } bd
/ux 0.0 def
/uy 0.0 def
/F {
  /Tp exch def
  /Tf exch def
  Tf findfont Tp scalefont setfont
  /cf Tf def  /cs Tp def
} bd
/ULS {currentpoint /uy exch def /ux exch def} bd
/ULE {
  /Tcx currentpoint pop def
  gsave
  newpath
  cf findfont cs scalefont dup
  /FontMatrix get 0 get /Ts exch def /FontInfo get dup
  /UnderlinePosition get Ts mul /To exch def
  /UnderlineThickness get Ts mul /Tt exch def
  ux uy To add moveto  Tcx uy To add lineto
  Tt setlinewidth stroke
  grestore
} bd
/OLE {
  /Tcx currentpoint pop def
  gsave
  newpath
  cf findfont cs scalefont dup
  /FontMatrix get 0 get /Ts exch def /FontInfo get dup
  /UnderlinePosition get Ts mul /To exch def
  /UnderlineThickness get Ts mul /Tt exch def
  ux uy To add cs add moveto Tcx uy To add cs add lineto
  Tt setlinewidth stroke
  grestore
} bd
/SOE {
  /Tcx currentpoint pop def
  gsave
  newpath
  cf findfont cs scalefont dup
  /FontMatrix get 0 get /Ts exch def /FontInfo get dup
  /UnderlinePosition get Ts mul /To exch def
  /UnderlineThickness get Ts mul /Tt exch def
  ux uy To add cs 10 mul 26 idiv add moveto Tcx uy To add cs 10 mul 26 idiv add lineto
  Tt setlinewidth stroke
  grestore
} bd
/QT {
/Y22 exch store
/X22 exch store
/Y21 exch store
/X21 exch store
currentpoint
/Y21 load 2 mul add 3 div exch
/X21 load 2 mul add 3 div exch
/X21 load 2 mul /X22 load add 3 div
/Y21 load 2 mul /Y22 load add 3 div
/X22 load /Y22 load curveto
} bd
/SSPD {
dup length /d exch dict def
{
/v exch def
/k exch def
currentpagedevice k known {
/cpdv currentpagedevice k get def
v cpdv ne {
/upd false def
/nullv v type /nulltype eq def
/nullcpdv cpdv type /nulltype eq def
nullv nullcpdv or
{
/upd true def
} {
/sametype v type cpdv type eq def
sametype {
v type /arraytype eq {
/vlen v length def
/cpdvlen cpdv length def
vlen cpdvlen eq {
0 1 vlen 1 sub {
/i exch def
/obj v i get def
/cpdobj cpdv i get def
obj cpdobj ne {
/upd true def
exit
} if
} for
} {
/upd true def
} ifelse
} {
v type /dicttype eq {
v {
/dv exch def
/dk exch def
/cpddv cpdv dk get def
dv cpddv ne {
/upd true def
exit
} if
} forall
} {
/upd true def
} ifelse
} ifelse
} if
} ifelse
upd true eq {
d k v put
} if
} if
} if
} forall
d length 0 gt {
d setpagedevice
} if
} bd
/RE { % /NewFontName [NewEncodingArray] /FontName RE -
  findfont dup length dict begin
  {
    1 index /FID ne
    {def} {pop pop} ifelse
  } forall
  /Encoding exch def
  /FontName 1 index def
  currentdict definefont pop
  end
} bind def
%%EndResource
%%BeginResource: procset (Apache XML Graphics EPS ProcSet) 1.0 0
%%Version: 1.0 0
%%Copyright: (Copyright 2002-2003 The Apache Software Foundation. License terms: http://www.apache.org/licenses/LICENSE-2.0)
/BeginEPSF { %def
/b4_Inc_state save def         % Save state for cleanup
/dict_count countdictstack def % Count objects on dict stack
/op_count count 1 sub def      % Count objects on operand stack
userdict begin                 % Push userdict on dict stack
/showpage { } def              % Redefine showpage, { } = null proc
0 setgray 0 setlinecap         % Prepare graphics state
1 setlinewidth 0 setlinejoin
10 setmiterlimit [ ] 0 setdash newpath
/languagelevel where           % If level not equal to 1 then
{pop languagelevel             % set strokeadjust and
1 ne                           % overprint to their defaults.
{false setstrokeadjust false setoverprint
} if
} if
} bd
/EndEPSF { %def
count op_count sub {pop} repeat            % Clean up stacks
countdictstack dict_count sub {end} repeat
b4_Inc_state restore
} bd
%%EndResource
%FOPBeginFontDict
%%IncludeResource: font Courier-Bold
%%IncludeResource: font Helvetica
%%IncludeResource: font Courier-BoldOblique
%%IncludeResource: font Courier-Oblique
%%IncludeResource: font Times-Roman
%%IncludeResource: font Helvetica-BoldOblique
%%IncludeResource: font Helvetica-Bold
%%IncludeResource: font Helvetica-Oblique
%%IncludeResource: font Times-BoldItalic
%%IncludeResource: font Courier
%%IncludeResource: font Times-Italic
%%IncludeResource: font Times-Bold
%%IncludeResource: font Symbol
%%IncludeResource: font ZapfDingbats
%FOPEndFontDict
%%BeginResource: encoding WinAnsiEncoding
/WinAnsiEncoding [
/.notdef /.notdef /.notdef /.notdef /.notdef
/.notdef /.notdef /.notdef /.notdef /.notdef
/.notdef /.notdef /.notdef /.notdef /.notdef
/.notdef /.notdef /.notdef /.notdef /.notdef
/.notdef /.notdef /.notdef /.notdef /.notdef
/.notdef /.notdef /.notdef /.notdef /.notdef
/.notdef /.notdef /space /exclam /quotedbl
/numbersign /dollar /percent /ampersand /quotesingle
/parenleft /parenright /asterisk /plus /comma
/hyphen /period /slash /zero /one
/two /three /four /five /six
/seven /eight /nine /colon /semicolon
/less /equal /greater /question /at
/A /B /C /D /E
/F /G /H /I /J
/K /L /M /N /O
/P /Q /R /S /T
/U /V /W /X /Y
/Z /bracketleft /backslash /bracketright /asciicircum
/underscore /quoteleft /a /b /c
/d /e /f /g /h
/i /j /k /l /m
/n /o /p /q /r
/s /t /u /v /w
/x /y /z /braceleft /bar
/braceright /asciitilde /bullet /Euro /bullet
/quotesinglbase /florin /quotedblbase /ellipsis /dagger
/daggerdbl /circumflex /perthousand /Scaron /guilsinglleft
/OE /bullet /Zcaron /bullet /bullet
/quoteleft /quoteright /quotedblleft /quotedblright /bullet
/endash /emdash /asciitilde /trademark /scaron
/guilsinglright /oe /bullet /zcaron /Ydieresis
/space /exclamdown /cent /sterling /currency
/yen /brokenbar /section /dieresis /copyright
/ordfeminine /guillemotleft /logicalnot /sfthyphen /registered
/macron /degree /plusminus /twosuperior /threesuperior
/acute /mu /paragraph /middot /cedilla
/onesuperior /ordmasculine /guillemotright /onequarter /onehalf
/threequarters /questiondown /Agrave /Aacute /Acircumflex
/Atilde /Adieresis /Aring /AE /Ccedilla
/Egrave /Eacute /Ecircumflex /Edieresis /Igrave
/Iacute /Icircumflex /Idieresis /Eth /Ntilde
/Ograve /Oacute /Ocircumflex /Otilde /Odieresis
/multiply /Oslash /Ugrave /Uacute /Ucircumflex
/Udieresis /Yacute /Thorn /germandbls /agrave
/aacute /acircumflex /atilde /adieresis /aring
/ae /ccedilla /egrave /eacute /ecircumflex
/edieresis /igrave /iacute /icircumflex /idieresis
/eth /ntilde /ograve /oacute /ocircumflex
/otilde /odieresis /divide /oslash /ugrave
/uacute /ucircumflex /udieresis /yacute /thorn
/ydieresis
] def
%%EndResource
%FOPBeginFontReencode
/Courier-Bold findfont
dup length dict begin
  {1 index /FID ne {def} {pop pop} ifelse} forall
  /Encoding WinAnsiEncoding def
  currentdict
end
/Courier-Bold exch definefont pop
/Helvetica findfont
dup length dict begin
  {1 index /FID ne {def} {pop pop} ifelse} forall
  /Encoding WinAnsiEncoding def
  currentdict
end
/Helvetica exch definefont pop
/Courier-BoldOblique findfont
dup length dict begin
  {1 index /FID ne {def} {pop pop} ifelse} forall
  /Encoding WinAnsiEncoding def
  currentdict
end
/Courier-BoldOblique exch definefont pop
/Courier-Oblique findfont
dup length dict begin
  {1 index /FID ne {def} {pop pop} ifelse} forall
  /Encoding WinAnsiEncoding def
  currentdict
end
/Courier-Oblique exch definefont pop
/Times-Roman findfont
dup length dict begin
  {1 index /FID ne {def} {pop pop} ifelse} forall
  /Encoding WinAnsiEncoding def
  currentdict
end
/Times-Roman exch definefont pop
/Helvetica-BoldOblique findfont
dup length dict begin
  {1 index /FID ne {def} {pop pop} ifelse} forall
  /Encoding WinAnsiEncoding def
  currentdict
end
/Helvetica-BoldOblique exch definefont pop
/Helvetica-Bold findfont
dup length dict begin
  {1 index /FID ne {def} {pop pop} ifelse} forall
  /Encoding WinAnsiEncoding def
  currentdict
end
/Helvetica-Bold exch definefont pop
/Helvetica-Oblique findfont
dup length dict begin
  {1 index /FID ne {def} {pop pop} ifelse} forall
  /Encoding WinAnsiEncoding def
  currentdict
end
/Helvetica-Oblique exch definefont pop
/Times-BoldItalic findfont
dup length dict begin
  {1 index /FID ne {def} {pop pop} ifelse} forall
  /Encoding WinAnsiEncoding def
  currentdict
end
/Times-BoldItalic exch definefont pop
/Courier findfont
dup length dict begin
  {1 index /FID ne {def} {pop pop} ifelse} forall
  /Encoding WinAnsiEncoding def
  currentdict
end
/Courier exch definefont pop
/Times-Italic findfont
dup length dict begin
  {1 index /FID ne {def} {pop pop} ifelse} forall
  /Encoding WinAnsiEncoding def
  currentdict
end
/Times-Italic exch definefont pop
/Times-Bold findfont
dup length dict begin
  {1 index /FID ne {def} {pop pop} ifelse} forall
  /Encoding WinAnsiEncoding def
  currentdict
end
/Times-Bold exch definefont pop
%FOPEndFontReencode
%%EndProlog
%%Page: 1 1
%%PageBoundingBox: 0 0 960 933
%%BeginPageSetup
[1 0 0 -1 0 933] CT
%%EndPageSetup
GS
[1.03672 0 0 1.03667 0 0] CT
N
0 0 M
926 0 L
926 900 L
0 900 L
0 0 L
cp
clip
1 GC
N
0 0 926 900 re
f
GR
GS
[1.03672 0 0 1.03667 0 0] CT
1 GC
N
0 0 926 900 re
f
GR
GS
[1.03672 0 0 1.03667 0 0] CT
1 GC
N
120 801 M
838 801 L
838 67 L
120 67 L
cp
f
GR
GS
[1.03672 0 0 1.03667 0 0] CT
0.873 GC
1 LJ
0.482 LW
N
120 801 M
120 67 L
S
GR
GS
[1.03672 0 0 1.03667 0 0] CT
0.873 GC
1 LJ
0.482 LW
N
263.6 801 M
263.6 67 L
S
GR
GS
[1.03672 0 0 1.03667 0 0] CT
0.873 GC
1 LJ
0.482 LW
N
407.2 801 M
407.2 67 L
S
GR
GS
[1.03672 0 0 1.03667 0 0] CT
0.873 GC
1 LJ
0.482 LW
N
550.8 801 M
550.8 67 L
S
GR
GS
[1.03672 0 0 1.03667 0 0] CT
0.873 GC
1 LJ
0.482 LW
N
694.4 801 M
694.4 67 L
S
GR
GS
[1.03672 0 0 1.03667 0 0] CT
0.873 GC
1 LJ
0.482 LW
N
838 801 M
838 67 L
S
GR
GS
[1.03672 0 0 1.03667 0 0] CT
0.873 GC
1 LJ
0.482 LW
N
838 801 M
120 801 L
S
GR
GS
[1.03672 0 0 1.03667 0 0] CT
0.873 GC
1 LJ
0.482 LW
N
838 727.6 M
120 727.6 L
S
GR
GS
[1.03672 0 0 1.03667 0 0] CT
0.873 GC
1 LJ
0.482 LW
N
838 654.2 M
120 654.2 L
S
GR
GS
[1.03672 0 0 1.03667 0 0] CT
0.873 GC
1 LJ
0.482 LW
N
838 580.8 M
120 580.8 L
S
GR
GS
[1.03672 0 0 1.03667 0 0] CT
0.873 GC
1 LJ
0.482 LW
N
838 507.4 M
120 507.4 L
S
GR
GS
[1.03672 0 0 1.03667 0 0] CT
0.873 GC
1 LJ
0.482 LW
N
838 434 M
120 434 L
S
GR
GS
[1.03672 0 0 1.03667 0 0] CT
0.873 GC
1 LJ
0.482 LW
N
838 360.6 M
120 360.6 L
S
GR
GS
[1.03672 0 0 1.03667 0 0] CT
0.873 GC
1 LJ
0.482 LW
N
838 287.2 M
120 287.2 L
S
GR
GS
[1.03672 0 0 1.03667 0 0] CT
0.873 GC
1 LJ
0.482 LW
N
838 213.8 M
120 213.8 L
S
GR
GS
[1.03672 0 0 1.03667 0 0] CT
0.873 GC
1 LJ
0.482 LW
N
838 140.4 M
120 140.4 L
S
GR
GS
[1.03672 0 0 1.03667 0 0] CT
0.873 GC
1 LJ
0.482 LW
N
838 67 M
120 67 L
S
GR
GS
[1.03672 0 0 1.03667 0 0] CT
0.149 GC
2 setlinecap
1 LJ
0.482 LW
N
120 801 M
838 801 L
S
GR
GS
[1.03672 0 0 1.03667 0 0] CT
0.149 GC
2 setlinecap
1 LJ
0.482 LW
N
120 67 M
838 67 L
S
GR
GS
[1.03672 0 0 1.03667 0 0] CT
0.149 GC
2 setlinecap
1 LJ
0.482 LW
N
120 801 M
120 793.66 L
S
GR
GS
[1.03672 0 0 1.03667 0 0] CT
0.149 GC
2 setlinecap
1 LJ
0.482 LW
N
263.6 801 M
263.6 793.66 L
S
GR
GS
[1.03672 0 0 1.03667 0 0] CT
0.149 GC
2 setlinecap
1 LJ
0.482 LW
N
407.2 801 M
407.2 793.66 L
S
GR
GS
[1.03672 0 0 1.03667 0 0] CT
0.149 GC
2 setlinecap
1 LJ
0.482 LW
N
550.8 801 M
550.8 793.66 L
S
GR
GS
[1.03672 0 0 1.03667 0 0] CT
0.149 GC
2 setlinecap
1 LJ
0.482 LW
N
694.4 801 M
694.4 793.66 L
S
GR
GS
[1.03672 0 0 1.03667 0 0] CT
0.149 GC
2 setlinecap
1 LJ
0.482 LW
N
838 801 M
838 793.66 L
S
GR
GS
[1.03672 0 0 1.03667 0 0] CT
0.149 GC
2 setlinecap
1 LJ
0.482 LW
N
120 67 M
120 74.34 L
S
GR
GS
[1.03672 0 0 1.03667 0 0] CT
0.149 GC
2 setlinecap
1 LJ
0.482 LW
N
263.6 67 M
263.6 74.34 L
S
GR
GS
[1.03672 0 0 1.03667 0 0] CT
0.149 GC
2 setlinecap
1 LJ
0.482 LW
N
407.2 67 M
407.2 74.34 L
S
GR
GS
[1.03672 0 0 1.03667 0 0] CT
0.149 GC
2 setlinecap
1 LJ
0.482 LW
N
550.8 67 M
550.8 74.34 L
S
GR
GS
[1.03672 0 0 1.03667 0 0] CT
0.149 GC
2 setlinecap
1 LJ
0.482 LW
N
694.4 67 M
694.4 74.34 L
S
GR
GS
[1.03672 0 0 1.03667 0 0] CT
0.149 GC
2 setlinecap
1 LJ
0.482 LW
N
838 67 M
838 74.34 L
S
GR
GS
[1.03672 0 0 1.03667 124.40605 838.44333] CT
0.149 GC
/Helvetica 28.939 F
GS
[1 0 0 1 0 0] CT
-8.5 28 moveto 
1 -1 scale
(0) t 
GR
GR
GS
[1.03672 0 0 1.03667 273.27862 838.44333] CT
0.149 GC
/Helvetica 28.939 F
GS
[1 0 0 1 0 0] CT
-24.5 28 moveto 
1 -1 scale
(200) t 
GR
GR
GS
[1.03672 0 0 1.03667 422.1512 838.44333] CT
0.149 GC
/Helvetica 28.939 F
GS
[1 0 0 1 0 0] CT
-24.5 28 moveto 
1 -1 scale
(400) t 
GR
GR
GS
[1.03672 0 0 1.03667 571.02375 838.44333] CT
0.149 GC
/Helvetica 28.939 F
GS
[1 0 0 1 0 0] CT
-24.5 28 moveto 
1 -1 scale
(600) t 
GR
GR
GS
[1.03672 0 0 1.03667 719.89635 838.44333] CT
0.149 GC
/Helvetica 28.939 F
GS
[1 0 0 1 0 0] CT
-24.5 28 moveto 
1 -1 scale
(800) t 
GR
GR
GS
[1.03672 0 0 1.03667 868.7689 838.44333] CT
0.149 GC
/Helvetica 28.939 F
GS
[1 0 0 1 0 0] CT
-32.5 28 moveto 
1 -1 scale
(1000) t 
GR
GR
GS
[1.03672 0 0 1.03667 496.58782 875.76333] CT
0.149 GC
/Helvetica 31.833 F
GS
[1 0 0 1 0 0] CT
-8.5 31 moveto 
1 -1 scale
(x) t 
GR
GR
GS
[1.03672 0 0 1.03667 0 0] CT
0.149 GC
2 setlinecap
1 LJ
0.482 LW
N
120 801 M
120 67 L
S
GR
GS
[1.03672 0 0 1.03667 0 0] CT
0.149 GC
2 setlinecap
1 LJ
0.482 LW
N
838 801 M
838 67 L
S
GR
GS
[1.03672 0 0 1.03667 0 0] CT
0.149 GC
2 setlinecap
1 LJ
0.482 LW
N
120 801 M
127.34 801 L
S
GR
GS
[1.03672 0 0 1.03667 0 0] CT
0.149 GC
2 setlinecap
1 LJ
0.482 LW
N
120 727.6 M
127.34 727.6 L
S
GR
GS
[1.03672 0 0 1.03667 0 0] CT
0.149 GC
2 setlinecap
1 LJ
0.482 LW
N
120 654.2 M
127.34 654.2 L
S
GR
GS
[1.03672 0 0 1.03667 0 0] CT
0.149 GC
2 setlinecap
1 LJ
0.482 LW
N
120 580.8 M
127.34 580.8 L
S
GR
GS
[1.03672 0 0 1.03667 0 0] CT
0.149 GC
2 setlinecap
1 LJ
0.482 LW
N
120 507.4 M
127.34 507.4 L
S
GR
GS
[1.03672 0 0 1.03667 0 0] CT
0.149 GC
2 setlinecap
1 LJ
0.482 LW
N
120 434 M
127.34 434 L
S
GR
GS
[1.03672 0 0 1.03667 0 0] CT
0.149 GC
2 setlinecap
1 LJ
0.482 LW
N
120 360.6 M
127.34 360.6 L
S
GR
GS
[1.03672 0 0 1.03667 0 0] CT
0.149 GC
2 setlinecap
1 LJ
0.482 LW
N
120 287.2 M
127.34 287.2 L
S
GR
GS
[1.03672 0 0 1.03667 0 0] CT
0.149 GC
2 setlinecap
1 LJ
0.482 LW
N
120 213.8 M
127.34 213.8 L
S
GR
GS
[1.03672 0 0 1.03667 0 0] CT
0.149 GC
2 setlinecap
1 LJ
0.482 LW
N
120 140.4 M
127.34 140.4 L
S
GR
GS
[1.03672 0 0 1.03667 0 0] CT
0.149 GC
2 setlinecap
1 LJ
0.482 LW
N
120 67 M
127.34 67 L
S
GR
GS
[1.03672 0 0 1.03667 0 0] CT
0.149 GC
2 setlinecap
1 LJ
0.482 LW
N
838 801 M
830.66 801 L
S
GR
GS
[1.03672 0 0 1.03667 0 0] CT
0.149 GC
2 setlinecap
1 LJ
0.482 LW
N
838 727.6 M
830.66 727.6 L
S
GR
GS
[1.03672 0 0 1.03667 0 0] CT
0.149 GC
2 setlinecap
1 LJ
0.482 LW
N
838 654.2 M
830.66 654.2 L
S
GR
GS
[1.03672 0 0 1.03667 0 0] CT
0.149 GC
2 setlinecap
1 LJ
0.482 LW
N
838 580.8 M
830.66 580.8 L
S
GR
GS
[1.03672 0 0 1.03667 0 0] CT
0.149 GC
2 setlinecap
1 LJ
0.482 LW
N
838 507.4 M
830.66 507.4 L
S
GR
GS
[1.03672 0 0 1.03667 0 0] CT
0.149 GC
2 setlinecap
1 LJ
0.482 LW
N
838 434 M
830.66 434 L
S
GR
GS
[1.03672 0 0 1.03667 0 0] CT
0.149 GC
2 setlinecap
1 LJ
0.482 LW
N
838 360.6 M
830.66 360.6 L
S
GR
GS
[1.03672 0 0 1.03667 0 0] CT
0.149 GC
2 setlinecap
1 LJ
0.482 LW
N
838 287.2 M
830.66 287.2 L
S
GR
GS
[1.03672 0 0 1.03667 0 0] CT
0.149 GC
2 setlinecap
1 LJ
0.482 LW
N
838 213.8 M
830.66 213.8 L
S
GR
GS
[1.03672 0 0 1.03667 0 0] CT
0.149 GC
2 setlinecap
1 LJ
0.482 LW
N
838 140.4 M
830.66 140.4 L
S
GR
GS
[1.03672 0 0 1.03667 0 0] CT
0.149 GC
2 setlinecap
1 LJ
0.482 LW
N
838 67 M
830.66 67 L
S
GR
GS
[1.03672 0 0 1.03667 116.33232 830.37] CT
0.149 GC
/Helvetica 28.939 F
GS
[1 0 0 1 0 0] CT
-17 10.5 moveto 
1 -1 scale
(0) t 
GR
GR
GS
[1.03672 0 0 1.03667 116.33232 754.27864] CT
0.149 GC
/Helvetica 28.939 F
GS
[1 0 0 1 0 0] CT
-41 10.5 moveto 
1 -1 scale
(0.1) t 
GR
GR
GS
[1.03672 0 0 1.03667 116.33232 678.18735] CT
0.149 GC
/Helvetica 28.939 F
GS
[1 0 0 1 0 0] CT
-41 10.5 moveto 
1 -1 scale
(0.2) t 
GR
GR
GS
[1.03672 0 0 1.03667 116.33232 602.09599] CT
0.149 GC
/Helvetica 28.939 F
GS
[1 0 0 1 0 0] CT
-41 10.5 moveto 
1 -1 scale
(0.3) t 
GR
GR
GS
[1.03672 0 0 1.03667 116.33232 526.00466] CT
0.149 GC
/Helvetica 28.939 F
GS
[1 0 0 1 0 0] CT
-41 10.5 moveto 
1 -1 scale
(0.4) t 
GR
GR
GS
[1.03672 0 0 1.03667 116.33232 449.91333] CT
0.149 GC
/Helvetica 28.939 F
GS
[1 0 0 1 0 0] CT
-41 10.5 moveto 
1 -1 scale
(0.5) t 
GR
GR
GS
[1.03672 0 0 1.03667 116.33232 373.82197] CT
0.149 GC
/Helvetica 28.939 F
GS
[1 0 0 1 0 0] CT
-41 10.5 moveto 
1 -1 scale
(0.6) t 
GR
GR
GS
[1.03672 0 0 1.03667 116.33232 297.73068] CT
0.149 GC
/Helvetica 28.939 F
GS
[1 0 0 1 0 0] CT
-41 10.5 moveto 
1 -1 scale
(0.7) t 
GR
GR
GS
[1.03672 0 0 1.03667 116.33232 221.63932] CT
0.149 GC
/Helvetica 28.939 F
GS
[1 0 0 1 0 0] CT
-41 10.5 moveto 
1 -1 scale
(0.8) t 
GR
GR
GS
[1.03672 0 0 1.03667 116.33232 145.54803] CT
0.149 GC
/Helvetica 28.939 F
GS
[1 0 0 1 0 0] CT
-41 10.5 moveto 
1 -1 scale
(0.9) t 
GR
GR
GS
[1.03672 0 0 1.03667 116.33232 69.45667] CT
0.149 GC
/Helvetica 28.939 F
GS
[1 0 0 1 0 0] CT
-17 10.5 moveto 
1 -1 scale
(1) t 
GR
GR
GS
[0 -1.03667 1.03672 0 70.71677 449.91299] CT
0.149 GC
/Helvetica 31.833 F
GS
[1 0 0 1 0 0] CT
-26 -7 moveto 
1 -1 scale
(F\(x\)) t 
GR
GR
GS
[1.03672 0 0 1.03667 496.58795 61.20669] CT
/Helvetica-Bold 31.833 F
GS
[1 0 0 1 0 0] CT
-57.5 -7 moveto 
1 -1 scale
(VeriEye) t 
GR
GR
GS
[1.03672 0 0 1.03667 0 0] CT
0 0.447 0.741 RC
1 LJ
5.788 LW
N
120 801 M
120 792.309 L
121.436 792.309 L
121.436 791.519 L
122.154 791.519 L
122.154 790.729 L
126.462 790.729 L
126.462 789.939 L
129.334 789.939 L
129.334 789.149 L
130.052 789.149 L
130.052 788.358 L
133.642 788.358 L
133.642 787.568 L
175.286 787.568 L
175.286 786.778 L
176.722 786.778 L
176.722 785.988 L
178.876 785.988 L
178.876 784.408 L
179.594 784.408 L
179.594 782.828 L
183.902 782.828 L
183.902 781.248 L
184.62 781.248 L
184.62 778.877 L
185.338 778.877 L
185.338 778.087 L
186.774 778.087 L
186.774 777.297 L
187.492 777.297 L
187.492 775.717 L
190.364 775.717 L
190.364 774.137 L
191.082 774.137 L
191.082 773.347 L
192.518 773.347 L
192.518 772.557 L
193.236 772.557 L
193.236 771.766 L
193.954 771.766 L
193.954 770.976 L
196.826 770.976 L
196.826 770.186 L
198.98 770.186 L
198.98 769.396 L
202.57 769.396 L
202.57 768.606 L
203.288 768.606 L
203.288 767.816 L
204.006 767.816 L
204.006 767.026 L
205.442 767.026 L
205.442 764.656 L
206.878 764.656 L
206.878 763.865 L
208.314 763.865 L
208.314 762.285 L
210.468 762.285 L
210.468 761.495 L
211.186 761.495 L
211.186 760.705 L
215.494 760.705 L
215.494 758.335 L
216.93 758.335 L
216.93 757.545 L
219.084 757.545 L
219.084 756.755 L
221.956 756.755 L
221.956 755.174 L
222.674 755.174 L
222.674 754.384 L
223.392 754.384 L
223.392 753.594 L
226.264 753.594 L
226.264 752.014 L
229.136 752.014 L
229.136 751.224 L
230.572 751.224 L
230.572 750.434 L
234.88 750.434 L
234.88 748.854 L
237.034 748.854 L
237.034 748.064 L
237.752 748.064 L
237.752 746.483 L
238.47 746.483 L
238.47 745.693 L
242.778 745.693 L
242.778 744.113 L
243.496 744.113 L
243.496 742.533 L
245.65 742.533 L
245.65 740.953 L
248.522 740.953 L
248.522 739.372 L
249.958 739.372 L
249.958 738.582 L
250.676 738.582 L
250.676 737.792 L
252.112 737.792 L
252.112 736.212 L
252.83 736.212 L
252.83 734.632 L
255.702 734.632 L
255.702 733.842 L
257.138 733.842 L
257.138 732.262 L
258.574 732.262 L
258.574 731.471 L
260.728 731.471 L
260.728 730.681 L
263.6 730.681 L
263.6 729.891 L
265.754 729.891 L
265.754 728.311 L
266.472 728.311 L
266.472 727.521 L
267.19 727.521 L
267.19 726.731 L
267.908 726.731 L
267.908 724.361 L
268.626 724.361 L
268.626 723.57 L
270.062 723.57 L
270.062 722.78 L
270.78 722.78 L
270.78 721.2 L
271.498 721.2 L
271.498 718.83 L
273.652 718.83 L
273.652 718.04 L
274.37 718.04 L
274.37 716.46 L
277.242 716.46 L
277.242 715.67 L
277.96 715.67 L
277.96 714.879 L
280.114 714.879 L
280.114 712.509 L
280.832 712.509 L
280.832 710.929 L
282.268 710.929 L
282.268 708.559 L
282.986 708.559 L
282.986 707.769 L
283.704 707.769 L
283.704 706.978 L
284.422 706.978 L
284.422 705.398 L
285.14 705.398 L
285.14 704.608 L
285.858 704.608 L
285.858 703.028 L
286.576 703.028 L
286.576 702.238 L
287.294 702.238 L
287.294 701.448 L
288.012 701.448 L
288.012 700.658 L
290.884 700.658 L
290.884 699.868 L
292.32 699.868 L
292.32 699.078 L
294.474 699.078 L
294.474 697.497 L
295.192 697.497 L
295.192 696.707 L
297.346 696.707 L
297.346 694.337 L
298.064 694.337 L
298.064 693.547 L
298.782 693.547 L
298.782 691.177 L
299.5 691.177 L
299.5 687.226 L
300.218 687.226 L
300.218 685.646 L
301.654 685.646 L
301.654 684.856 L
302.372 684.856 L
302.372 683.276 L
303.09 683.276 L
303.09 682.485 L
305.962 682.485 L
305.962 680.905 L
307.398 680.905 L
307.398 679.325 L
308.116 679.325 L
308.116 676.165 L
308.834 676.165 L
308.834 675.375 L
309.552 675.375 L
309.552 672.214 L
312.424 672.214 L
312.424 670.634 L
313.142 670.634 L
313.142 669.844 L
314.578 669.844 L
314.578 668.264 L
315.296 668.264 L
315.296 667.474 L
316.014 667.474 L
316.014 663.523 L
316.732 663.523 L
316.732 661.153 L
317.45 661.153 L
317.45 659.573 L
318.168 659.573 L
318.168 657.202 L
318.886 657.202 L
318.886 654.832 L
320.322 654.832 L
320.322 651.672 L
321.04 651.672 L
321.04 650.091 L
322.476 650.091 L
322.476 649.301 L
323.194 649.301 L
323.194 648.511 L
323.912 648.511 L
323.912 646.141 L
324.63 646.141 L
324.63 644.561 L
325.348 644.561 L
325.348 642.191 L
326.066 642.191 L
326.066 640.61 L
326.784 640.61 L
326.784 639.82 L
327.502 639.82 L
327.502 638.24 L
328.22 638.24 L
328.22 634.29 L
329.656 634.29 L
329.656 632.709 L
330.374 632.709 L
330.374 631.919 L
331.092 631.919 L
331.092 631.129 L
331.81 631.129 L
331.81 629.549 L
332.528 629.549 L
332.528 627.969 L
333.246 627.969 L
333.246 626.389 L
335.4 626.389 L
335.4 624.808 L
336.118 624.808 L
336.118 623.228 L
336.836 623.228 L
336.836 622.438 L
338.272 622.438 L
338.272 617.698 L
338.99 617.698 L
338.99 616.117 L
339.708 616.117 L
339.708 615.327 L
341.144 615.327 L
341.144 612.957 L
341.862 612.957 L
341.862 611.377 L
342.58 611.377 L
342.58 609.006 L
343.298 609.006 L
343.298 608.216 L
344.016 608.216 L
344.016 606.636 L
346.17 606.636 L
346.17 605.056 L
346.888 605.056 L
346.888 602.686 L
348.324 602.686 L
348.324 601.105 L
349.042 601.105 L
349.042 598.735 L
350.478 598.735 L
350.478 597.945 L
351.196 597.945 L
351.196 597.155 L
351.914 597.155 L
351.914 596.365 L
352.632 596.365 L
352.632 593.995 L
354.786 593.995 L
354.786 591.624 L
356.222 591.624 L
356.222 590.044 L
356.94 590.044 L
356.94 586.884 L
359.094 586.884 L
359.094 584.513 L
360.53 584.513 L
360.53 582.933 L
361.248 582.933 L
361.248 582.143 L
361.966 582.143 L
361.966 579.773 L
362.684 579.773 L
362.684 578.983 L
364.838 578.983 L
364.838 578.193 L
365.556 578.193 L
365.556 575.032 L
366.274 575.032 L
366.274 573.452 L
366.992 573.452 L
366.992 571.082 L
367.71 571.082 L
367.71 570.292 L
368.428 570.292 L
368.428 568.712 L
369.864 568.712 L
369.864 567.921 L
370.582 567.921 L
370.582 567.131 L
371.3 567.131 L
371.3 564.761 L
372.018 564.761 L
372.018 563.971 L
373.454 563.971 L
373.454 562.391 L
374.89 562.391 L
374.89 560.811 L
375.608 560.811 L
375.608 560.02 L
376.326 560.02 L
376.326 556.86 L
377.044 556.86 L
377.044 556.07 L
377.762 556.07 L
377.762 554.49 L
378.48 554.49 L
378.48 552.91 L
379.198 552.91 L
379.198 552.119 L
379.916 552.119 L
379.916 550.539 L
381.352 550.539 L
381.352 549.749 L
382.07 549.749 L
382.07 548.959 L
382.788 548.959 L
382.788 547.379 L
385.66 547.379 L
385.66 546.589 L
387.814 546.589 L
387.814 543.428 L
388.532 543.428 L
388.532 541.848 L
389.25 541.848 L
389.25 541.058 L
389.968 541.058 L
389.968 540.268 L
390.686 540.268 L
390.686 539.478 L
391.404 539.478 L
391.404 537.898 L
392.122 537.898 L
392.122 537.108 L
392.84 537.108 L
392.84 535.527 L
393.558 535.527 L
393.558 534.737 L
394.276 534.737 L
394.276 532.367 L
394.994 532.367 L
394.994 530.787 L
395.712 530.787 L
395.712 529.997 L
397.148 529.997 L
397.148 527.626 L
397.866 527.626 L
397.866 526.836 L
398.584 526.836 L
398.584 524.466 L
399.302 524.466 L
399.302 522.886 L
400.738 522.886 L
400.738 522.096 L
402.174 522.096 L
402.174 520.516 L
402.892 520.516 L
402.892 518.145 L
403.61 518.145 L
403.61 516.565 L
405.046 516.565 L
405.046 515.775 L
405.764 515.775 L
405.764 514.985 L
406.482 514.985 L
406.482 514.195 L
407.2 514.195 L
407.2 513.405 L
407.918 513.405 L
407.918 512.615 L
409.354 512.615 L
409.354 511.825 L
410.072 511.825 L
410.072 511.034 L
410.79 511.034 L
410.79 510.244 L
412.226 510.244 L
412.226 507.874 L
412.944 507.874 L
412.944 507.084 L
413.662 507.084 L
413.662 506.294 L
414.38 506.294 L
414.38 503.924 L
415.098 503.924 L
415.098 501.553 L
415.816 501.553 L
415.816 500.763 L
416.534 500.763 L
416.534 496.813 L
417.252 496.813 L
417.252 496.023 L
418.688 496.023 L
418.688 495.233 L
420.124 495.233 L
420.124 494.442 L
420.842 494.442 L
420.842 492.072 L
421.56 492.072 L
421.56 489.702 L
422.278 489.702 L
422.278 488.122 L
422.996 488.122 L
422.996 486.541 L
423.714 486.541 L
423.714 483.381 L
425.868 483.381 L
425.868 482.591 L
426.586 482.591 L
426.586 481.801 L
428.022 481.801 L
428.022 478.64 L
428.74 478.64 L
428.74 477.85 L
430.176 477.85 L
430.176 473.9 L
430.894 473.9 L
430.894 470.74 L
431.612 470.74 L
431.612 468.369 L
433.048 468.369 L
433.048 467.579 L
434.484 467.579 L
434.484 466.789 L
435.202 466.789 L
435.202 465.209 L
435.92 465.209 L
435.92 464.419 L
436.638 464.419 L
436.638 463.629 L
437.356 463.629 L
437.356 462.048 L
438.074 462.048 L
438.074 460.468 L
438.792 460.468 L
438.792 457.308 L
439.51 457.308 L
439.51 454.147 L
440.946 454.147 L
440.946 453.357 L
441.664 453.357 L
441.664 450.987 L
442.382 450.987 L
442.382 447.037 L
443.1 447.037 L
443.1 445.456 L
443.818 445.456 L
443.818 443.876 L
444.536 443.876 L
444.536 443.086 L
445.254 443.086 L
445.254 439.926 L
445.972 439.926 L
445.972 438.346 L
446.69 438.346 L
446.69 435.975 L
447.408 435.975 L
447.408 432.025 L
448.126 432.025 L
448.126 429.654 L
448.844 429.654 L
448.844 425.704 L
449.562 425.704 L
449.562 421.754 L
450.28 421.754 L
450.28 419.383 L
451.716 419.383 L
451.716 418.593 L
452.434 418.593 L
452.434 415.433 L
453.152 415.433 L
453.152 411.482 L
453.87 411.482 L
453.87 409.112 L
454.588 409.112 L
454.588 406.742 L
455.306 406.742 L
455.306 404.371 L
456.742 404.371 L
456.742 402.001 L
457.46 402.001 L
457.46 399.631 L
458.178 399.631 L
458.178 398.841 L
458.896 398.841 L
458.896 398.051 L
459.614 398.051 L
459.614 394.1 L
461.05 394.1 L
461.05 392.52 L
461.768 392.52 L
461.768 390.94 L
462.486 390.94 L
462.486 386.989 L
463.204 386.989 L
463.204 384.619 L
463.922 384.619 L
463.922 383.829 L
464.64 383.829 L
464.64 383.039 L
465.358 383.039 L
465.358 381.459 L
466.076 381.459 L
466.076 380.668 L
466.794 380.668 L
466.794 378.298 L
467.512 378.298 L
467.512 375.138 L
468.23 375.138 L
468.23 371.977 L
468.948 371.977 L
468.948 370.397 L
469.666 370.397 L
469.666 366.447 L
470.384 366.447 L
470.384 363.286 L
471.82 363.286 L
471.82 360.916 L
472.538 360.916 L
472.538 358.546 L
473.256 358.546 L
473.256 357.756 L
473.974 357.756 L
473.974 354.595 L
474.692 354.595 L
474.692 352.225 L
475.41 352.225 L
475.41 349.855 L
476.128 349.855 L
476.128 347.484 L
476.846 347.484 L
476.846 346.694 L
477.564 346.694 L
477.564 345.904 L
479 345.904 L
479 343.534 L
480.436 343.534 L
480.436 342.744 L
481.154 342.744 L
481.154 341.164 L
481.872 341.164 L
481.872 340.374 L
483.308 340.374 L
483.308 338.003 L
484.026 338.003 L
484.026 336.423 L
484.744 336.423 L
484.744 334.053 L
485.462 334.053 L
485.462 332.473 L
486.18 332.473 L
486.18 330.892 L
486.898 330.892 L
486.898 326.942 L
487.616 326.942 L
487.616 325.362 L
489.052 325.362 L
489.052 323.781 L
489.77 323.781 L
489.77 321.411 L
490.488 321.411 L
490.488 320.621 L
491.924 320.621 L
491.924 319.041 L
492.642 319.041 L
492.642 318.251 L
493.36 318.251 L
493.36 315.88 L
494.078 315.88 L
494.078 314.3 L
494.796 314.3 L
494.796 310.35 L
495.514 310.35 L
495.514 308.77 L
496.95 308.77 L
496.95 307.189 L
497.668 307.189 L
497.668 304.819 L
499.104 304.819 L
499.104 303.239 L
499.822 303.239 L
499.822 300.869 L
500.54 300.869 L
500.54 299.288 L
501.258 299.288 L
501.258 297.708 L
501.976 297.708 L
501.976 296.918 L
502.694 296.918 L
502.694 296.128 L
503.412 296.128 L
503.412 295.338 L
504.13 295.338 L
504.13 293.758 L
504.848 293.758 L
504.848 292.178 L
505.566 292.178 L
505.566 287.437 L
506.284 287.437 L
506.284 282.696 L
507.002 282.696 L
507.002 281.906 L
507.72 281.906 L
507.72 280.326 L
509.156 280.326 L
509.156 279.536 L
509.874 279.536 L
509.874 275.586 L
510.592 275.586 L
510.592 273.215 L
511.31 273.215 L
511.31 271.635 L
512.028 271.635 L
512.028 267.685 L
512.746 267.685 L
512.746 266.104 L
513.464 266.104 L
513.464 264.524 L
515.618 264.524 L
515.618 263.734 L
516.336 263.734 L
516.336 261.364 L
517.054 261.364 L
517.054 259.784 L
517.772 259.784 L
517.772 258.203 L
518.49 258.203 L
518.49 255.833 L
519.208 255.833 L
519.208 255.043 L
519.926 255.043 L
519.926 254.253 L
520.644 254.253 L
520.644 252.673 L
521.362 252.673 L
521.362 251.883 L
522.08 251.883 L
522.08 249.512 L
522.798 249.512 L
522.798 246.352 L
523.516 246.352 L
523.516 245.562 L
524.952 245.562 L
524.952 243.982 L
525.67 243.982 L
525.67 241.611 L
526.388 241.611 L
526.388 240.821 L
527.106 240.821 L
527.106 237.661 L
527.824 237.661 L
527.824 235.291 L
528.542 235.291 L
528.542 232.92 L
529.26 232.92 L
529.26 230.55 L
529.978 230.55 L
529.978 229.76 L
530.696 229.76 L
530.696 227.39 L
531.414 227.39 L
531.414 226.6 L
532.132 226.6 L
532.132 222.649 L
532.85 222.649 L
532.85 221.069 L
533.568 221.069 L
533.568 220.279 L
534.286 220.279 L
534.286 217.118 L
535.004 217.118 L
535.004 214.748 L
535.722 214.748 L
535.722 211.588 L
536.44 211.588 L
536.44 210.798 L
537.158 210.798 L
537.158 210.008 L
537.876 210.008 L
537.876 208.427 L
538.594 208.427 L
538.594 207.637 L
539.312 207.637 L
539.312 205.267 L
540.03 205.267 L
540.03 204.477 L
540.748 204.477 L
540.748 203.687 L
541.466 203.687 L
541.466 202.897 L
542.902 202.897 L
542.902 202.107 L
543.62 202.107 L
543.62 200.526 L
544.338 200.526 L
544.338 197.366 L
545.056 197.366 L
545.056 194.996 L
545.774 194.996 L
545.774 194.206 L
546.492 194.206 L
546.492 192.625 L
547.928 192.625 L
547.928 191.835 L
548.646 191.835 L
548.646 189.465 L
549.364 189.465 L
549.364 187.885 L
550.082 187.885 L
550.082 187.095 L
550.8 187.095 L
550.8 183.934 L
551.518 183.934 L
551.518 183.144 L
552.236 183.144 L
552.236 180.774 L
553.672 180.774 L
553.672 179.194 L
554.39 179.194 L
554.39 176.033 L
555.108 176.033 L
555.108 175.243 L
555.826 175.243 L
555.826 171.293 L
556.544 171.293 L
556.544 170.503 L
557.98 170.503 L
557.98 168.922 L
558.698 168.922 L
558.698 168.132 L
560.134 168.132 L
560.134 167.342 L
561.57 167.342 L
561.57 165.762 L
562.288 165.762 L
562.288 164.182 L
563.006 164.182 L
563.006 163.392 L
563.724 163.392 L
563.724 161.812 L
564.442 161.812 L
564.442 161.022 L
565.16 161.022 L
565.16 160.231 L
567.314 160.231 L
567.314 158.651 L
568.032 158.651 L
568.032 157.071 L
568.75 157.071 L
568.75 155.491 L
570.186 155.491 L
570.186 153.121 L
570.904 153.121 L
570.904 152.33 L
571.622 152.33 L
571.622 148.38 L
572.34 148.38 L
572.34 146.01 L
573.058 146.01 L
573.058 144.43 L
573.776 144.43 L
573.776 143.639 L
574.494 143.639 L
574.494 142.849 L
578.084 142.849 L
578.084 141.269 L
578.802 141.269 L
578.802 140.479 L
579.52 140.479 L
579.52 139.689 L
580.238 139.689 L
580.238 136.529 L
580.956 136.529 L
580.956 135.738 L
581.674 135.738 L
581.674 134.948 L
583.11 134.948 L
583.11 134.158 L
584.546 134.158 L
584.546 133.368 L
585.264 133.368 L
585.264 132.578 L
585.982 132.578 L
585.982 131.788 L
586.7 131.788 L
586.7 128.628 L
587.418 128.628 L
587.418 127.047 L
588.854 127.047 L
588.854 126.257 L
589.572 126.257 L
589.572 125.467 L
590.29 125.467 L
590.29 124.677 L
592.444 124.677 L
592.444 123.887 L
594.598 123.887 L
594.598 123.097 L
595.316 123.097 L
595.316 122.307 L
596.034 122.307 L
596.034 121.517 L
597.47 121.517 L
597.47 119.146 L
599.624 119.146 L
599.624 117.566 L
603.214 117.566 L
603.214 115.986 L
603.932 115.986 L
603.932 115.196 L
604.65 115.196 L
604.65 114.406 L
605.368 114.406 L
605.368 113.616 L
608.958 113.616 L
608.958 112.826 L
610.394 112.826 L
610.394 112.036 L
611.83 112.036 L
611.83 111.245 L
612.548 111.245 L
612.548 110.455 L
613.984 110.455 L
613.984 108.875 L
615.42 108.875 L
615.42 107.295 L
616.138 107.295 L
616.138 106.505 L
616.856 106.505 L
616.856 104.925 L
617.574 104.925 L
617.574 102.554 L
619.01 102.554 L
619.01 101.764 L
619.728 101.764 L
619.728 100.974 L
621.164 100.974 L
621.164 100.184 L
621.882 100.184 L
621.882 98.604 L
622.6 98.604 L
622.6 97.814 L
624.036 97.814 L
624.036 96.234 L
625.472 96.234 L
625.472 94.653 L
626.908 94.653 L
626.908 93.863 L
628.344 93.863 L
628.344 93.073 L
632.652 93.073 L
632.652 91.493 L
634.088 91.493 L
634.088 90.703 L
636.96 90.703 L
636.96 89.913 L
639.114 89.913 L
639.114 89.123 L
639.832 89.123 L
639.832 88.333 L
640.55 88.333 L
640.55 87.543 L
641.268 87.543 L
641.268 85.962 L
641.986 85.962 L
641.986 85.172 L
645.576 85.172 L
645.576 84.382 L
648.448 84.382 L
648.448 83.592 L
649.166 83.592 L
649.166 82.802 L
649.884 82.802 L
649.884 82.012 L
655.628 82.012 L
655.628 81.222 L
659.218 81.222 L
659.218 79.642 L
659.936 79.642 L
659.936 78.851 L
661.372 78.851 L
661.372 77.271 L
663.526 77.271 L
663.526 76.481 L
680.758 76.481 L
680.758 75.691 L
681.476 75.691 L
681.476 74.901 L
692.246 74.901 L
692.246 74.111 L
695.836 74.111 L
695.836 73.321 L
703.016 73.321 L
703.016 72.531 L
705.17 72.531 L
705.17 71.741 L
705.888 71.741 L
705.888 70.95 L
710.196 70.95 L
710.196 70.16 L
711.632 70.16 L
711.632 69.37 L
713.786 69.37 L
713.786 68.58 L
715.222 68.58 L
715.222 67.79 L
766.2 67.79 L
766.2 67 L
S
GR
GS
[1.03672 0 0 1.03667 0 0] CT
0.851 0.325 0.098 RC
1 LJ
5.788 LW
N
120 801 M
120 743.953 L
120.718 743.953 L
120.718 740.626 L
121.436 740.626 L
121.436 737.773 L
122.154 737.773 L
122.154 737.298 L
123.59 737.298 L
123.59 736.347 L
124.308 736.347 L
124.308 735.872 L
125.026 735.872 L
125.026 734.921 L
125.744 734.921 L
125.744 733.97 L
126.462 733.97 L
126.462 731.593 L
127.898 731.593 L
127.898 730.642 L
128.616 730.642 L
128.616 730.167 L
129.334 730.167 L
129.334 728.266 L
130.052 728.266 L
130.052 726.839 L
132.206 726.839 L
132.206 726.364 L
132.924 726.364 L
132.924 725.889 L
135.078 725.889 L
135.078 724.462 L
135.796 724.462 L
135.796 723.036 L
136.514 723.036 L
136.514 721.61 L
137.232 721.61 L
137.232 721.135 L
137.95 721.135 L
137.95 720.659 L
138.668 720.659 L
138.668 719.233 L
139.386 719.233 L
139.386 718.282 L
140.104 718.282 L
140.104 716.856 L
141.54 716.856 L
141.54 715.905 L
142.258 715.905 L
142.258 715.43 L
142.976 715.43 L
142.976 714.479 L
143.694 714.479 L
143.694 714.004 L
144.412 714.004 L
144.412 713.529 L
148.002 713.529 L
148.002 712.578 L
148.72 712.578 L
148.72 712.102 L
149.438 712.102 L
149.438 711.627 L
150.156 711.627 L
150.156 711.152 L
150.874 711.152 L
150.874 710.676 L
151.592 710.676 L
151.592 710.201 L
152.31 710.201 L
152.31 709.725 L
153.028 709.725 L
153.028 708.299 L
153.746 708.299 L
153.746 707.348 L
155.9 707.348 L
155.9 706.873 L
156.618 706.873 L
156.618 706.398 L
157.336 706.398 L
157.336 705.447 L
158.054 705.447 L
158.054 704.021 L
160.208 704.021 L
160.208 703.07 L
160.926 703.07 L
160.926 701.644 L
161.644 701.644 L
161.644 701.168 L
162.362 701.168 L
162.362 700.693 L
163.08 700.693 L
163.08 699.742 L
163.798 699.742 L
163.798 699.267 L
164.516 699.267 L
164.516 698.791 L
165.234 698.791 L
165.234 698.316 L
168.824 698.316 L
168.824 697.841 L
170.978 697.841 L
170.978 697.365 L
173.132 697.365 L
173.132 696.89 L
173.85 696.89 L
173.85 695.939 L
174.568 695.939 L
174.568 695.464 L
177.44 695.464 L
177.44 694.038 L
178.876 694.038 L
178.876 693.562 L
179.594 693.562 L
179.594 693.087 L
180.312 693.087 L
180.312 692.611 L
181.03 692.611 L
181.03 692.136 L
182.466 692.136 L
182.466 690.234 L
183.184 690.234 L
183.184 689.284 L
183.902 689.284 L
183.902 687.858 L
184.62 687.858 L
184.62 687.382 L
185.338 687.382 L
185.338 686.907 L
186.056 686.907 L
186.056 686.431 L
186.774 686.431 L
186.774 685.005 L
187.492 685.005 L
187.492 684.53 L
188.21 684.53 L
188.21 684.054 L
188.928 684.054 L
188.928 683.579 L
189.646 683.579 L
189.646 682.153 L
190.364 682.153 L
190.364 680.251 L
191.082 680.251 L
191.082 679.776 L
191.8 679.776 L
191.8 679.301 L
192.518 679.301 L
192.518 675.497 L
193.236 675.497 L
193.236 675.022 L
193.954 675.022 L
193.954 673.12 L
194.672 673.12 L
194.672 672.645 L
195.39 672.645 L
195.39 671.219 L
196.826 671.219 L
196.826 670.744 L
198.262 670.744 L
198.262 669.793 L
198.98 669.793 L
198.98 669.317 L
199.698 669.317 L
199.698 668.367 L
200.416 668.367 L
200.416 667.891 L
201.134 667.891 L
201.134 666.465 L
202.57 666.465 L
202.57 665.514 L
203.288 665.514 L
203.288 664.563 L
204.006 664.563 L
204.006 664.088 L
204.724 664.088 L
204.724 663.613 L
206.878 663.613 L
206.878 663.137 L
207.596 663.137 L
207.596 662.662 L
208.314 662.662 L
208.314 661.711 L
209.75 661.711 L
209.75 661.236 L
211.186 661.236 L
211.186 660.285 L
211.904 660.285 L
211.904 659.81 L
212.622 659.81 L
212.622 658.859 L
213.34 658.859 L
213.34 657.908 L
214.776 657.908 L
214.776 656.957 L
215.494 656.957 L
215.494 656.482 L
216.93 656.482 L
216.93 656.006 L
219.084 656.006 L
219.084 655.531 L
221.238 655.531 L
221.238 655.056 L
222.674 655.056 L
222.674 654.105 L
223.392 654.105 L
223.392 653.63 L
224.11 653.63 L
224.11 652.679 L
224.828 652.679 L
224.828 652.203 L
225.546 652.203 L
225.546 651.728 L
226.264 651.728 L
226.264 651.253 L
226.982 651.253 L
226.982 649.826 L
228.418 649.826 L
228.418 649.351 L
229.854 649.351 L
229.854 647.449 L
231.29 647.449 L
231.29 646.023 L
232.008 646.023 L
232.008 645.548 L
232.726 645.548 L
232.726 644.122 L
233.444 644.122 L
233.444 643.171 L
234.88 643.171 L
234.88 642.22 L
235.598 642.22 L
235.598 640.794 L
236.316 640.794 L
236.316 640.319 L
237.752 640.319 L
237.752 639.843 L
238.47 639.843 L
238.47 637.942 L
239.188 637.942 L
239.188 636.991 L
239.906 636.991 L
239.906 636.516 L
240.624 636.516 L
240.624 636.04 L
241.342 636.04 L
241.342 634.614 L
242.06 634.614 L
242.06 633.663 L
242.778 633.663 L
242.778 633.188 L
243.496 633.188 L
243.496 631.762 L
244.214 631.762 L
244.214 631.286 L
244.932 631.286 L
244.932 629.86 L
245.65 629.86 L
245.65 629.385 L
246.368 629.385 L
246.368 627.008 L
247.086 627.008 L
247.086 625.106 L
247.804 625.106 L
247.804 624.155 L
248.522 624.155 L
248.522 623.205 L
249.24 623.205 L
249.24 622.729 L
249.958 622.729 L
249.958 622.254 L
250.676 622.254 L
250.676 620.352 L
251.394 620.352 L
251.394 619.877 L
252.112 619.877 L
252.112 617.975 L
252.83 617.975 L
252.83 616.074 L
253.548 616.074 L
253.548 615.123 L
254.266 615.123 L
254.266 614.172 L
254.984 614.172 L
254.984 613.221 L
255.702 613.221 L
255.702 612.271 L
257.138 612.271 L
257.138 611.32 L
257.856 611.32 L
257.856 609.894 L
258.574 609.894 L
258.574 608.943 L
259.292 608.943 L
259.292 606.566 L
260.01 606.566 L
260.01 604.664 L
260.728 604.664 L
260.728 603.714 L
261.446 603.714 L
261.446 601.812 L
262.164 601.812 L
262.164 599.435 L
262.882 599.435 L
262.882 598.484 L
263.6 598.484 L
263.6 598.009 L
264.318 598.009 L
264.318 597.534 L
265.036 597.534 L
265.036 596.107 L
265.754 596.107 L
265.754 595.632 L
266.472 595.632 L
266.472 595.157 L
267.19 595.157 L
267.19 593.255 L
267.908 593.255 L
267.908 591.354 L
268.626 591.354 L
268.626 590.403 L
269.344 590.403 L
269.344 587.551 L
270.062 587.551 L
270.062 586.124 L
270.78 586.124 L
270.78 584.223 L
271.498 584.223 L
271.498 583.272 L
272.216 583.272 L
272.216 580.895 L
272.934 580.895 L
272.934 578.994 L
273.652 578.994 L
273.652 578.043 L
274.37 578.043 L
274.37 575.666 L
275.088 575.666 L
275.088 575.19 L
275.806 575.19 L
275.806 574.715 L
276.524 574.715 L
276.524 573.764 L
277.242 573.764 L
277.242 571.863 L
277.96 571.863 L
277.96 570.437 L
278.678 570.437 L
278.678 569.01 L
279.396 569.01 L
279.396 567.109 L
280.114 567.109 L
280.114 565.207 L
280.832 565.207 L
280.832 564.732 L
281.55 564.732 L
281.55 563.781 L
282.268 563.781 L
282.268 561.88 L
282.986 561.88 L
282.986 559.978 L
283.704 559.978 L
283.704 558.552 L
284.422 558.552 L
284.422 558.076 L
285.14 558.076 L
285.14 557.126 L
285.858 557.126 L
285.858 556.65 L
286.576 556.65 L
286.576 554.273 L
287.294 554.273 L
287.294 553.798 L
288.012 553.798 L
288.012 552.372 L
288.73 552.372 L
288.73 551.421 L
289.448 551.421 L
289.448 550.946 L
290.166 550.946 L
290.166 550.47 L
290.884 550.47 L
290.884 549.044 L
291.602 549.044 L
291.602 548.093 L
292.32 548.093 L
292.32 546.192 L
293.038 546.192 L
293.038 544.766 L
293.756 544.766 L
293.756 543.815 L
294.474 543.815 L
294.474 542.864 L
295.192 542.864 L
295.192 542.389 L
296.628 542.389 L
296.628 541.913 L
297.346 541.913 L
297.346 541.438 L
298.064 541.438 L
298.064 540.012 L
298.782 540.012 L
298.782 539.061 L
300.218 539.061 L
300.218 538.11 L
300.936 538.11 L
300.936 536.684 L
302.372 536.684 L
302.372 536.209 L
303.09 536.209 L
303.09 535.258 L
303.808 535.258 L
303.808 534.307 L
304.526 534.307 L
304.526 533.356 L
305.244 533.356 L
305.244 532.405 L
305.962 532.405 L
305.962 530.504 L
306.68 530.504 L
306.68 530.029 L
307.398 530.029 L
307.398 529.078 L
308.834 529.078 L
308.834 528.602 L
309.552 528.602 L
309.552 528.127 L
310.27 528.127 L
310.27 526.225 L
310.988 526.225 L
310.988 525.75 L
311.706 525.75 L
311.706 524.799 L
312.424 524.799 L
312.424 524.324 L
313.142 524.324 L
313.142 521.947 L
313.86 521.947 L
313.86 520.521 L
316.014 520.521 L
316.014 519.57 L
316.732 519.57 L
316.732 517.668 L
317.45 517.668 L
317.45 516.242 L
318.886 516.242 L
318.886 515.291 L
319.604 515.291 L
319.604 513.865 L
320.322 513.865 L
320.322 513.39 L
321.04 513.39 L
321.04 512.914 L
321.758 512.914 L
321.758 511.964 L
322.476 511.964 L
322.476 510.538 L
323.194 510.538 L
323.194 510.062 L
323.912 510.062 L
323.912 508.636 L
324.63 508.636 L
324.63 506.734 L
325.348 506.734 L
325.348 505.784 L
326.066 505.784 L
326.066 504.358 L
328.22 504.358 L
328.22 502.931 L
328.938 502.931 L
328.938 502.456 L
331.092 502.456 L
331.092 501.981 L
331.81 501.981 L
331.81 501.03 L
333.246 501.03 L
333.246 498.653 L
333.964 498.653 L
333.964 497.702 L
334.682 497.702 L
334.682 496.751 L
335.4 496.751 L
335.4 495.801 L
336.836 495.801 L
336.836 494.374 L
337.554 494.374 L
337.554 492.948 L
338.272 492.948 L
338.272 491.997 L
338.99 491.997 L
338.99 490.096 L
339.708 490.096 L
339.708 488.194 L
340.426 488.194 L
340.426 487.244 L
341.144 487.244 L
341.144 485.817 L
341.862 485.817 L
341.862 485.342 L
342.58 485.342 L
342.58 483.916 L
343.298 483.916 L
343.298 482.014 L
344.016 482.014 L
344.016 480.588 L
344.734 480.588 L
344.734 478.211 L
345.452 478.211 L
345.452 476.31 L
346.17 476.31 L
346.17 474.883 L
346.888 474.883 L
346.888 473.933 L
348.324 473.933 L
348.324 473.457 L
349.042 473.457 L
349.042 472.031 L
350.478 472.031 L
350.478 470.605 L
351.914 470.605 L
351.914 469.179 L
352.632 469.179 L
352.632 468.703 L
353.35 468.703 L
353.35 467.277 L
354.068 467.277 L
354.068 464.9 L
354.786 464.9 L
354.786 463.474 L
355.504 463.474 L
355.504 462.048 L
356.222 462.048 L
356.222 461.097 L
357.658 461.097 L
357.658 460.146 L
358.376 460.146 L
358.376 459.671 L
359.094 459.671 L
359.094 457.769 L
359.812 457.769 L
359.812 456.819 L
360.53 456.819 L
360.53 456.343 L
361.248 456.343 L
361.248 455.392 L
361.966 455.392 L
361.966 454.917 L
362.684 454.917 L
362.684 454.442 L
363.402 454.442 L
363.402 451.589 L
364.12 451.589 L
364.12 450.639 L
364.838 450.639 L
364.838 448.737 L
365.556 448.737 L
365.556 448.262 L
366.274 448.262 L
366.274 447.311 L
366.992 447.311 L
366.992 445.409 L
367.71 445.409 L
367.71 443.983 L
368.428 443.983 L
368.428 443.032 L
369.146 443.032 L
369.146 440.18 L
369.864 440.18 L
369.864 438.279 L
370.582 438.279 L
370.582 437.328 L
371.3 437.328 L
371.3 434.951 L
372.018 434.951 L
372.018 434.475 L
373.454 434.475 L
373.454 433.525 L
374.172 433.525 L
374.172 432.098 L
374.89 432.098 L
374.89 431.148 L
375.608 431.148 L
375.608 430.197 L
376.326 430.197 L
376.326 429.246 L
377.044 429.246 L
377.044 428.771 L
377.762 428.771 L
377.762 426.394 L
378.48 426.394 L
378.48 425.918 L
379.198 425.918 L
379.198 424.017 L
379.916 424.017 L
379.916 423.066 L
380.634 423.066 L
380.634 421.165 L
382.07 421.165 L
382.07 418.788 L
382.788 418.788 L
382.788 417.837 L
383.506 417.837 L
383.506 416.411 L
384.942 416.411 L
384.942 414.509 L
385.66 414.509 L
385.66 413.083 L
386.378 413.083 L
386.378 411.657 L
387.096 411.657 L
387.096 410.231 L
387.814 410.231 L
387.814 408.804 L
388.532 408.804 L
388.532 407.854 L
389.25 407.854 L
389.25 405.952 L
389.968 405.952 L
389.968 404.526 L
390.686 404.526 L
390.686 403.1 L
391.404 403.1 L
391.404 402.624 L
392.122 402.624 L
392.122 401.674 L
392.84 401.674 L
392.84 400.247 L
393.558 400.247 L
393.558 398.346 L
394.994 398.346 L
394.994 397.395 L
395.712 397.395 L
395.712 396.444 L
396.43 396.444 L
396.43 394.543 L
397.148 394.543 L
397.148 394.067 L
397.866 394.067 L
397.866 391.69 L
398.584 391.69 L
398.584 390.74 L
399.302 390.74 L
399.302 389.789 L
400.02 389.789 L
400.02 388.838 L
400.738 388.838 L
400.738 387.412 L
401.456 387.412 L
401.456 386.937 L
402.174 386.937 L
402.174 386.461 L
402.892 386.461 L
402.892 385.986 L
403.61 385.986 L
403.61 385.035 L
404.328 385.035 L
404.328 384.084 L
405.046 384.084 L
405.046 382.658 L
405.764 382.658 L
405.764 382.183 L
407.2 382.183 L
407.2 380.756 L
407.918 380.756 L
407.918 378.855 L
408.636 378.855 L
408.636 375.052 L
410.072 375.052 L
410.072 374.576 L
411.508 374.576 L
411.508 374.101 L
412.226 374.101 L
412.226 373.15 L
412.944 373.15 L
412.944 372.199 L
413.662 372.199 L
413.662 370.773 L
414.38 370.773 L
414.38 369.347 L
415.098 369.347 L
415.098 368.396 L
415.816 368.396 L
415.816 366.97 L
416.534 366.97 L
416.534 364.593 L
417.252 364.593 L
417.252 361.741 L
417.97 361.741 L
417.97 357.462 L
418.688 357.462 L
418.688 356.512 L
419.406 356.512 L
419.406 355.561 L
420.124 355.561 L
420.124 355.085 L
421.56 355.085 L
421.56 354.135 L
422.278 354.135 L
422.278 353.184 L
422.996 353.184 L
422.996 352.233 L
423.714 352.233 L
423.714 348.43 L
424.432 348.43 L
424.432 346.529 L
425.15 346.529 L
425.15 344.627 L
425.868 344.627 L
425.868 344.152 L
426.586 344.152 L
426.586 342.25 L
427.304 342.25 L
427.304 340.348 L
428.022 340.348 L
428.022 337.971 L
428.74 337.971 L
428.74 336.07 L
429.458 336.07 L
429.458 335.119 L
430.176 335.119 L
430.176 332.742 L
430.894 332.742 L
430.894 330.365 L
431.612 330.365 L
431.612 327.513 L
432.33 327.513 L
432.33 325.611 L
433.048 325.611 L
433.048 324.185 L
433.766 324.185 L
433.766 322.759 L
434.484 322.759 L
434.484 320.858 L
435.202 320.858 L
435.202 318.481 L
435.92 318.481 L
435.92 317.054 L
436.638 317.054 L
436.638 315.628 L
437.356 315.628 L
437.356 313.251 L
438.074 313.251 L
438.074 311.825 L
438.792 311.825 L
438.792 310.874 L
439.51 310.874 L
439.51 309.924 L
440.228 309.924 L
440.228 308.497 L
440.946 308.497 L
440.946 307.071 L
441.664 307.071 L
441.664 305.17 L
442.382 305.17 L
442.382 304.694 L
443.1 304.694 L
443.1 304.219 L
444.536 304.219 L
444.536 303.268 L
445.972 303.268 L
445.972 302.317 L
446.69 302.317 L
446.69 301.367 L
447.408 301.367 L
447.408 298.514 L
448.126 298.514 L
448.126 297.563 L
448.844 297.563 L
448.844 296.137 L
449.562 296.137 L
449.562 293.76 L
450.28 293.76 L
450.28 292.334 L
450.998 292.334 L
450.998 291.383 L
451.716 291.383 L
451.716 289.482 L
452.434 289.482 L
452.434 288.531 L
453.152 288.531 L
453.152 286.63 L
453.87 286.63 L
453.87 284.253 L
454.588 284.253 L
454.588 280.925 L
455.306 280.925 L
455.306 279.499 L
456.024 279.499 L
456.024 279.023 L
456.742 279.023 L
456.742 277.597 L
457.46 277.597 L
457.46 276.646 L
458.178 276.646 L
458.178 275.696 L
458.896 275.696 L
458.896 273.794 L
460.332 273.794 L
460.332 273.319 L
461.05 273.319 L
461.05 270.942 L
461.768 270.942 L
461.768 270.466 L
462.486 270.466 L
462.486 269.04 L
463.204 269.04 L
463.204 268.565 L
463.922 268.565 L
463.922 266.663 L
464.64 266.663 L
464.64 265.712 L
465.358 265.712 L
465.358 264.286 L
466.076 264.286 L
466.076 262.86 L
466.794 262.86 L
466.794 261.909 L
467.512 261.909 L
467.512 259.532 L
468.23 259.532 L
468.23 259.057 L
468.948 259.057 L
468.948 257.631 L
469.666 257.631 L
469.666 257.155 L
470.384 257.155 L
470.384 255.254 L
471.102 255.254 L
471.102 253.828 L
471.82 253.828 L
471.82 252.877 L
472.538 252.877 L
472.538 252.402 L
473.256 252.402 L
473.256 251.451 L
473.974 251.451 L
473.974 250.5 L
474.692 250.5 L
474.692 250.025 L
475.41 250.025 L
475.41 249.074 L
478.282 249.074 L
478.282 248.598 L
479 248.598 L
479 247.648 L
479.718 247.648 L
479.718 244.795 L
480.436 244.795 L
480.436 243.845 L
481.154 243.845 L
481.154 243.369 L
481.872 243.369 L
481.872 242.894 L
482.59 242.894 L
482.59 241.468 L
483.308 241.468 L
483.308 240.992 L
484.026 240.992 L
484.026 239.566 L
484.744 239.566 L
484.744 238.615 L
485.462 238.615 L
485.462 236.238 L
486.898 236.238 L
486.898 234.337 L
487.616 234.337 L
487.616 232.435 L
488.334 232.435 L
488.334 231.009 L
489.052 231.009 L
489.052 228.632 L
489.77 228.632 L
489.77 227.206 L
490.488 227.206 L
490.488 225.304 L
491.206 225.304 L
491.206 223.878 L
491.924 223.878 L
491.924 222.927 L
492.642 222.927 L
492.642 221.501 L
493.36 221.501 L
493.36 220.551 L
494.078 220.551 L
494.078 220.075 L
494.796 220.075 L
494.796 219.124 L
495.514 219.124 L
495.514 217.223 L
496.95 217.223 L
496.95 215.321 L
497.668 215.321 L
497.668 214.37 L
498.386 214.37 L
498.386 212.469 L
499.104 212.469 L
499.104 210.092 L
499.822 210.092 L
499.822 209.617 L
500.54 209.617 L
500.54 209.141 L
501.976 209.141 L
501.976 208.19 L
502.694 208.19 L
502.694 207.715 L
503.412 207.715 L
503.412 207.24 L
504.848 207.24 L
504.848 206.764 L
505.566 206.764 L
505.566 205.813 L
506.284 205.813 L
506.284 203.912 L
507.002 203.912 L
507.002 201.535 L
507.72 201.535 L
507.72 200.584 L
508.438 200.584 L
508.438 199.158 L
509.156 199.158 L
509.156 198.207 L
509.874 198.207 L
509.874 197.732 L
510.592 197.732 L
510.592 197.256 L
511.31 197.256 L
511.31 195.355 L
512.028 195.355 L
512.028 193.453 L
512.746 193.453 L
512.746 192.978 L
513.464 192.978 L
513.464 192.027 L
514.182 192.027 L
514.182 191.552 L
514.9 191.552 L
514.9 190.601 L
515.618 190.601 L
515.618 189.175 L
516.336 189.175 L
516.336 188.699 L
517.054 188.699 L
517.054 188.224 L
517.772 188.224 L
517.772 187.749 L
519.208 187.749 L
519.208 187.273 L
520.644 187.273 L
520.644 186.798 L
521.362 186.798 L
521.362 186.323 L
522.08 186.323 L
522.08 185.847 L
522.798 185.847 L
522.798 184.421 L
523.516 184.421 L
523.516 182.995 L
524.234 182.995 L
524.234 181.569 L
524.952 181.569 L
524.952 179.667 L
525.67 179.667 L
525.67 179.192 L
526.388 179.192 L
526.388 178.716 L
527.106 178.716 L
527.106 177.29 L
527.824 177.29 L
527.824 176.339 L
528.542 176.339 L
528.542 174.913 L
529.26 174.913 L
529.26 174.438 L
529.978 174.438 L
529.978 173.962 L
530.696 173.962 L
530.696 173.487 L
531.414 173.487 L
531.414 173.012 L
532.85 173.012 L
532.85 170.635 L
533.568 170.635 L
533.568 169.209 L
535.004 169.209 L
535.004 168.258 L
535.722 168.258 L
535.722 166.356 L
536.44 166.356 L
536.44 164.93 L
537.158 164.93 L
537.158 163.979 L
538.594 163.979 L
538.594 161.602 L
539.312 161.602 L
539.312 161.127 L
540.03 161.127 L
540.03 160.176 L
541.466 160.176 L
541.466 158.75 L
542.184 158.75 L
542.184 158.275 L
542.902 158.275 L
542.902 157.799 L
543.62 157.799 L
543.62 157.324 L
546.492 157.324 L
546.492 156.373 L
547.21 156.373 L
547.21 154.947 L
547.928 154.947 L
547.928 154.471 L
548.646 154.471 L
548.646 153.521 L
550.082 153.521 L
550.082 151.144 L
550.8 151.144 L
550.8 149.718 L
551.518 149.718 L
551.518 148.291 L
552.236 148.291 L
552.236 147.341 L
552.954 147.341 L
552.954 146.39 L
553.672 146.39 L
553.672 145.915 L
554.39 145.915 L
554.39 144.964 L
555.108 144.964 L
555.108 144.013 L
555.826 144.013 L
555.826 142.587 L
556.544 142.587 L
556.544 141.636 L
557.98 141.636 L
557.98 141.161 L
558.698 141.161 L
558.698 140.685 L
560.134 140.685 L
560.134 140.21 L
561.57 140.21 L
561.57 139.734 L
562.288 139.734 L
562.288 139.259 L
563.006 139.259 L
563.006 136.407 L
563.724 136.407 L
563.724 135.931 L
565.878 135.931 L
565.878 134.505 L
566.596 134.505 L
566.596 133.079 L
567.314 133.079 L
567.314 132.128 L
568.75 132.128 L
568.75 131.177 L
569.468 131.177 L
569.468 130.702 L
570.904 130.702 L
570.904 129.276 L
571.622 129.276 L
571.622 127.85 L
572.34 127.85 L
572.34 126.899 L
573.776 126.899 L
573.776 126.424 L
575.212 126.424 L
575.212 125.473 L
575.93 125.473 L
575.93 124.522 L
576.648 124.522 L
576.648 122.62 L
577.366 122.62 L
577.366 121.194 L
578.084 121.194 L
578.084 120.244 L
578.802 120.244 L
578.802 119.768 L
579.52 119.768 L
579.52 119.293 L
580.238 119.293 L
580.238 117.867 L
580.956 117.867 L
580.956 116.916 L
581.674 116.916 L
581.674 115.49 L
582.392 115.49 L
582.392 115.014 L
583.11 115.014 L
583.11 114.063 L
583.828 114.063 L
583.828 113.588 L
584.546 113.588 L
584.546 112.637 L
585.264 112.637 L
585.264 112.162 L
586.7 112.162 L
586.7 111.687 L
587.418 111.687 L
587.418 110.736 L
588.136 110.736 L
588.136 110.26 L
588.854 110.26 L
588.854 109.785 L
589.572 109.785 L
589.572 108.834 L
590.29 108.834 L
590.29 108.359 L
591.008 108.359 L
591.008 107.883 L
591.726 107.883 L
591.726 107.408 L
593.88 107.408 L
593.88 105.982 L
594.598 105.982 L
594.598 105.031 L
595.316 105.031 L
595.316 103.605 L
596.034 103.605 L
596.034 103.13 L
597.47 103.13 L
597.47 102.179 L
599.624 102.179 L
599.624 101.703 L
601.778 101.703 L
601.778 100.753 L
602.496 100.753 L
602.496 100.277 L
604.65 100.277 L
604.65 99.802 L
605.368 99.802 L
605.368 99.326 L
606.086 99.326 L
606.086 98.851 L
607.522 98.851 L
607.522 98.376 L
608.24 98.376 L
608.24 97.9 L
608.958 97.9 L
608.958 97.425 L
609.676 97.425 L
609.676 96.95 L
612.548 96.95 L
612.548 96.474 L
613.984 96.474 L
613.984 95.999 L
614.702 95.999 L
614.702 95.523 L
615.42 95.523 L
615.42 95.048 L
617.574 95.048 L
617.574 94.097 L
618.292 94.097 L
618.292 93.146 L
619.01 93.146 L
619.01 92.196 L
619.728 92.196 L
619.728 91.72 L
621.882 91.72 L
621.882 91.245 L
623.318 91.245 L
623.318 90.769 L
625.472 90.769 L
625.472 90.294 L
626.908 90.294 L
626.908 89.819 L
628.344 89.819 L
628.344 88.392 L
629.78 88.392 L
629.78 87.917 L
631.216 87.917 L
631.216 87.442 L
631.934 87.442 L
631.934 86.491 L
634.088 86.491 L
634.088 85.54 L
635.524 85.54 L
635.524 85.065 L
636.242 85.065 L
636.242 84.114 L
638.396 84.114 L
638.396 83.639 L
641.268 83.639 L
641.268 83.163 L
641.986 83.163 L
641.986 82.212 L
644.858 82.212 L
644.858 81.737 L
645.576 81.737 L
645.576 81.262 L
648.448 81.262 L
648.448 80.786 L
652.038 80.786 L
652.038 80.311 L
653.474 80.311 L
653.474 79.835 L
654.192 79.835 L
654.192 79.36 L
658.5 79.36 L
658.5 78.885 L
659.936 78.885 L
659.936 78.409 L
663.526 78.409 L
663.526 77.459 L
666.398 77.459 L
666.398 76.983 L
670.706 76.983 L
670.706 76.508 L
673.578 76.508 L
673.578 76.032 L
675.014 76.032 L
675.014 75.557 L
678.604 75.557 L
678.604 75.082 L
685.784 75.082 L
685.784 74.606 L
697.99 74.606 L
697.99 74.131 L
699.426 74.131 L
699.426 73.655 L
710.196 73.655 L
710.196 73.18 L
713.068 73.18 L
713.068 72.705 L
714.504 72.705 L
714.504 72.229 L
715.94 72.229 L
715.94 71.754 L
721.684 71.754 L
721.684 71.279 L
725.274 71.279 L
725.274 70.803 L
729.582 70.803 L
729.582 70.328 L
736.044 70.328 L
736.044 69.852 L
738.198 69.852 L
738.198 69.377 L
741.07 69.377 L
741.07 68.902 L
742.506 68.902 L
742.506 68.426 L
748.25 68.426 L
748.25 67.951 L
761.174 67.951 L
761.174 67.475 L
766.2 67.475 L
766.2 67 L
S
GR
GS
[1.03672 0 0 1.03667 0 0] CT
0.929 0.694 0.125 RC
[20 20] 0 setdash
2 LJ
5.788 LW
N
120 801 M
120 644.939 L
120.718 644.939 L
120.718 636.936 L
121.436 636.936 L
121.436 631.22 L
122.154 631.22 L
122.154 626.646 L
122.872 626.646 L
122.872 622.073 L
123.59 622.073 L
123.59 616.357 L
124.308 616.357 L
124.308 611.212 L
125.026 611.212 L
125.026 604.352 L
125.744 604.352 L
125.744 599.779 L
126.462 599.779 L
126.462 596.921 L
127.18 596.921 L
127.18 593.491 L
127.898 593.491 L
127.898 589.489 L
128.616 589.489 L
128.616 584.916 L
129.334 584.916 L
129.334 581.486 L
130.052 581.486 L
130.052 578.056 L
130.77 578.056 L
130.77 576.913 L
131.488 576.913 L
131.488 575.769 L
132.206 575.769 L
132.206 575.198 L
132.924 575.198 L
132.924 573.483 L
133.642 573.483 L
133.642 570.053 L
134.36 570.053 L
134.36 567.766 L
135.078 567.766 L
135.078 560.907 L
135.796 560.907 L
135.796 556.905 L
136.514 556.905 L
136.514 553.475 L
137.232 553.475 L
137.232 551.76 L
137.95 551.76 L
137.95 546.615 L
138.668 546.615 L
138.668 544.9 L
139.386 544.9 L
139.386 543.185 L
140.104 543.185 L
140.104 541.47 L
140.822 541.47 L
140.822 536.897 L
141.54 536.897 L
141.54 534.611 L
142.258 534.611 L
142.258 529.466 L
142.976 529.466 L
142.976 527.751 L
143.694 527.751 L
143.694 523.749 L
144.412 523.749 L
144.412 522.606 L
145.13 522.606 L
145.13 519.748 L
145.848 519.748 L
145.848 515.746 L
147.284 515.746 L
147.284 515.174 L
148.002 515.174 L
148.002 512.888 L
148.72 512.888 L
148.72 510.03 L
149.438 510.03 L
149.438 508.315 L
150.156 508.315 L
150.156 506.028 L
150.874 506.028 L
150.874 505.456 L
151.592 505.456 L
151.592 503.17 L
152.31 503.17 L
152.31 499.168 L
153.028 499.168 L
153.028 498.597 L
153.746 498.597 L
153.746 497.453 L
155.182 497.453 L
155.182 494.595 L
155.9 494.595 L
155.9 493.452 L
156.618 493.452 L
156.618 492.88 L
157.336 492.88 L
157.336 491.165 L
158.054 491.165 L
158.054 490.593 L
159.49 490.593 L
159.49 488.307 L
160.208 488.307 L
160.208 487.164 L
161.644 487.164 L
161.644 482.59 L
163.08 482.59 L
163.08 480.875 L
163.798 480.875 L
163.798 480.304 L
164.516 480.304 L
164.516 479.732 L
165.234 479.732 L
165.234 478.589 L
165.952 478.589 L
165.952 478.017 L
166.67 478.017 L
166.67 477.445 L
167.388 477.445 L
167.388 476.874 L
168.106 476.874 L
168.106 476.302 L
169.542 476.302 L
169.542 475.731 L
170.26 475.731 L
170.26 474.587 L
171.696 474.587 L
171.696 474.016 L
173.85 474.016 L
173.85 472.872 L
174.568 472.872 L
174.568 472.301 L
175.286 472.301 L
175.286 471.729 L
176.004 471.729 L
176.004 470.014 L
176.722 470.014 L
176.722 468.871 L
177.44 468.871 L
177.44 468.299 L
178.158 468.299 L
178.158 467.727 L
179.594 467.727 L
179.594 467.156 L
180.312 467.156 L
180.312 466.584 L
181.03 466.584 L
181.03 466.012 L
182.466 466.012 L
182.466 464.869 L
183.184 464.869 L
183.184 463.726 L
183.902 463.726 L
183.902 462.011 L
184.62 462.011 L
184.62 461.439 L
185.338 461.439 L
185.338 459.724 L
186.056 459.724 L
186.056 459.153 L
186.774 459.153 L
186.774 458.009 L
187.492 458.009 L
187.492 457.438 L
188.21 457.438 L
188.21 456.294 L
188.928 456.294 L
188.928 455.151 L
189.646 455.151 L
189.646 454.008 L
190.364 454.008 L
190.364 452.864 L
191.8 452.864 L
191.8 452.293 L
192.518 452.293 L
192.518 450.578 L
193.236 450.578 L
193.236 449.435 L
193.954 449.435 L
193.954 447.72 L
196.826 447.72 L
196.826 446.005 L
198.262 446.005 L
198.262 445.433 L
198.98 445.433 L
198.98 444.29 L
200.416 444.29 L
200.416 443.718 L
201.852 443.718 L
201.852 443.146 L
202.57 443.146 L
202.57 442.575 L
203.288 442.575 L
203.288 441.431 L
207.596 441.431 L
207.596 440.86 L
208.314 440.86 L
208.314 440.288 L
209.032 440.288 L
209.032 438.573 L
210.468 438.573 L
210.468 436.858 L
211.186 436.858 L
211.186 435.715 L
212.622 435.715 L
212.622 434.572 L
213.34 434.572 L
213.34 434 L
214.058 434 L
214.058 433.428 L
214.776 433.428 L
214.776 432.857 L
215.494 432.857 L
215.494 432.285 L
216.212 432.285 L
216.212 431.142 L
216.93 431.142 L
216.93 429.998 L
217.648 429.998 L
217.648 429.427 L
218.366 429.427 L
218.366 428.283 L
219.084 428.283 L
219.084 427.712 L
219.802 427.712 L
219.802 426.569 L
220.52 426.569 L
220.52 425.997 L
221.238 425.997 L
221.238 425.425 L
221.956 425.425 L
221.956 424.854 L
223.392 424.854 L
223.392 424.282 L
224.11 424.282 L
224.11 423.139 L
225.546 423.139 L
225.546 421.995 L
226.264 421.995 L
226.264 421.424 L
226.982 421.424 L
226.982 420.852 L
227.7 420.852 L
227.7 420.28 L
229.136 420.28 L
229.136 419.709 L
229.854 419.709 L
229.854 418.565 L
230.572 418.565 L
230.572 416.85 L
231.29 416.85 L
231.29 415.136 L
232.726 415.136 L
232.726 414.564 L
233.444 414.564 L
233.444 413.421 L
234.162 413.421 L
234.162 412.277 L
234.88 412.277 L
234.88 411.706 L
237.034 411.706 L
237.034 411.134 L
237.752 411.134 L
237.752 409.419 L
238.47 409.419 L
238.47 408.847 L
239.188 408.847 L
239.188 408.276 L
240.624 408.276 L
240.624 407.704 L
241.342 407.704 L
241.342 407.132 L
242.06 407.132 L
242.06 405.989 L
242.778 405.989 L
242.778 403.703 L
244.214 403.703 L
244.214 402.559 L
244.932 402.559 L
244.932 401.416 L
245.65 401.416 L
245.65 399.701 L
246.368 399.701 L
246.368 397.414 L
247.086 397.414 L
247.086 396.843 L
247.804 396.843 L
247.804 395.699 L
248.522 395.699 L
248.522 395.128 L
249.24 395.128 L
249.24 393.984 L
249.958 393.984 L
249.958 389.983 L
250.676 389.983 L
250.676 388.268 L
251.394 388.268 L
251.394 386.553 L
252.112 386.553 L
252.112 384.266 L
253.548 384.266 L
253.548 383.695 L
254.266 383.695 L
254.266 381.98 L
254.984 381.98 L
254.984 380.265 L
255.702 380.265 L
255.702 379.693 L
256.42 379.693 L
256.42 375.692 L
257.138 375.692 L
257.138 372.833 L
257.856 372.833 L
257.856 370.547 L
258.574 370.547 L
258.574 369.403 L
259.292 369.403 L
259.292 365.974 L
260.01 365.974 L
260.01 364.83 L
260.728 364.83 L
260.728 363.115 L
261.446 363.115 L
261.446 359.685 L
262.164 359.685 L
262.164 357.97 L
262.882 357.97 L
262.882 355.112 L
264.318 355.112 L
264.318 351.682 L
265.036 351.682 L
265.036 351.111 L
265.754 351.111 L
265.754 348.824 L
267.19 348.824 L
267.19 347.109 L
267.908 347.109 L
267.908 344.822 L
268.626 344.822 L
268.626 343.107 L
269.344 343.107 L
269.344 341.393 L
270.062 341.393 L
270.062 340.821 L
270.78 340.821 L
270.78 338.534 L
271.498 338.534 L
271.498 337.391 L
272.216 337.391 L
272.216 335.676 L
272.934 335.676 L
272.934 335.104 L
273.652 335.104 L
273.652 333.389 L
274.37 333.389 L
274.37 331.103 L
275.088 331.103 L
275.088 328.816 L
275.806 328.816 L
275.806 327.101 L
276.524 327.101 L
276.524 325.386 L
277.242 325.386 L
277.242 322.528 L
277.96 322.528 L
277.96 321.956 L
278.678 321.956 L
278.678 320.813 L
279.396 320.813 L
279.396 320.241 L
280.114 320.241 L
280.114 319.098 L
280.832 319.098 L
280.832 316.812 L
281.55 316.812 L
281.55 314.525 L
282.268 314.525 L
282.268 313.953 L
282.986 313.953 L
282.986 312.81 L
284.422 312.81 L
284.422 310.523 L
285.14 310.523 L
285.14 309.38 L
285.858 309.38 L
285.858 308.237 L
287.294 308.237 L
287.294 307.665 L
288.012 307.665 L
288.012 305.95 L
288.73 305.95 L
288.73 304.235 L
289.448 304.235 L
289.448 301.949 L
290.166 301.949 L
290.166 300.805 L
290.884 300.805 L
290.884 298.519 L
291.602 298.519 L
291.602 296.804 L
292.32 296.804 L
292.32 296.232 L
293.038 296.232 L
293.038 295.089 L
293.756 295.089 L
293.756 294.517 L
295.192 294.517 L
295.192 293.374 L
295.91 293.374 L
295.91 292.802 L
296.628 292.802 L
296.628 290.516 L
297.346 290.516 L
297.346 289.372 L
298.064 289.372 L
298.064 287.657 L
298.782 287.657 L
298.782 287.086 L
299.5 287.086 L
299.5 286.514 L
300.936 286.514 L
300.936 285.371 L
301.654 285.371 L
301.654 283.084 L
302.372 283.084 L
302.372 282.512 L
303.09 282.512 L
303.09 281.369 L
303.808 281.369 L
303.808 280.226 L
304.526 280.226 L
304.526 279.654 L
305.244 279.654 L
305.244 277.939 L
305.962 277.939 L
305.962 276.796 L
306.68 276.796 L
306.68 276.224 L
307.398 276.224 L
307.398 275.653 L
308.116 275.653 L
308.116 275.081 L
308.834 275.081 L
308.834 274.509 L
309.552 274.509 L
309.552 272.794 L
310.27 272.794 L
310.27 272.223 L
310.988 272.223 L
310.988 271.651 L
313.142 271.651 L
313.142 271.079 L
313.86 271.079 L
313.86 269.936 L
314.578 269.936 L
314.578 269.364 L
315.296 269.364 L
315.296 268.793 L
316.014 268.793 L
316.014 267.65 L
316.732 267.65 L
316.732 266.506 L
317.45 266.506 L
317.45 265.935 L
318.168 265.935 L
318.168 264.791 L
321.758 264.791 L
321.758 263.648 L
322.476 263.648 L
322.476 261.933 L
323.194 261.933 L
323.194 260.79 L
323.912 260.79 L
323.912 259.646 L
325.348 259.646 L
325.348 257.931 L
326.066 257.931 L
326.066 256.788 L
326.784 256.788 L
326.784 254.502 L
328.22 254.502 L
328.22 253.93 L
328.938 253.93 L
328.938 252.215 L
329.656 252.215 L
329.656 251.643 L
330.374 251.643 L
330.374 251.072 L
331.092 251.072 L
331.092 250.5 L
331.81 250.5 L
331.81 249.928 L
333.246 249.928 L
333.246 249.357 L
335.4 249.357 L
335.4 248.785 L
337.554 248.785 L
337.554 247.642 L
338.272 247.642 L
338.272 245.927 L
338.99 245.927 L
338.99 244.783 L
339.708 244.783 L
339.708 243.64 L
340.426 243.64 L
340.426 241.925 L
341.144 241.925 L
341.144 240.782 L
341.862 240.782 L
341.862 239.639 L
342.58 239.639 L
342.58 237.924 L
343.298 237.924 L
343.298 236.209 L
344.016 236.209 L
344.016 235.637 L
344.734 235.637 L
344.734 233.922 L
345.452 233.922 L
345.452 232.779 L
346.17 232.779 L
346.17 231.636 L
346.888 231.636 L
346.888 231.064 L
347.606 231.064 L
347.606 229.349 L
348.324 229.349 L
348.324 228.777 L
349.042 228.777 L
349.042 228.206 L
349.76 228.206 L
349.76 227.062 L
350.478 227.062 L
350.478 225.919 L
352.632 225.919 L
352.632 225.347 L
353.35 225.347 L
353.35 224.776 L
354.786 224.776 L
354.786 223.061 L
355.504 223.061 L
355.504 222.489 L
356.94 222.489 L
356.94 221.917 L
357.658 221.917 L
357.658 221.346 L
358.376 221.346 L
358.376 220.774 L
359.094 220.774 L
359.094 219.631 L
359.812 219.631 L
359.812 219.059 L
361.248 219.059 L
361.248 218.488 L
361.966 218.488 L
361.966 217.344 L
363.402 217.344 L
363.402 216.773 L
364.12 216.773 L
364.12 215.058 L
364.838 215.058 L
364.838 213.343 L
366.274 213.343 L
366.274 212.199 L
366.992 212.199 L
366.992 211.628 L
368.428 211.628 L
368.428 209.913 L
369.146 209.913 L
369.146 207.626 L
372.018 207.626 L
372.018 207.055 L
372.736 207.055 L
372.736 205.911 L
373.454 205.911 L
373.454 205.34 L
374.172 205.34 L
374.172 204.768 L
374.89 204.768 L
374.89 204.196 L
375.608 204.196 L
375.608 203.053 L
376.326 203.053 L
376.326 201.91 L
377.044 201.91 L
377.044 201.338 L
377.762 201.338 L
377.762 200.195 L
378.48 200.195 L
378.48 199.623 L
379.198 199.623 L
379.198 198.48 L
379.916 198.48 L
379.916 197.336 L
381.352 197.336 L
381.352 196.765 L
382.788 196.765 L
382.788 196.193 L
384.942 196.193 L
384.942 195.622 L
385.66 195.622 L
385.66 193.335 L
387.096 193.335 L
387.096 192.763 L
387.814 192.763 L
387.814 191.62 L
388.532 191.62 L
388.532 191.048 L
389.25 191.048 L
389.25 190.477 L
389.968 190.477 L
389.968 189.333 L
391.404 189.333 L
391.404 188.19 L
392.84 188.19 L
392.84 187.618 L
393.558 187.618 L
393.558 186.475 L
394.276 186.475 L
394.276 185.903 L
395.712 185.903 L
395.712 185.332 L
397.148 185.332 L
397.148 184.188 L
399.302 184.188 L
399.302 183.045 L
400.02 183.045 L
400.02 181.902 L
402.892 181.902 L
402.892 181.33 L
403.61 181.33 L
403.61 180.187 L
404.328 180.187 L
404.328 179.044 L
405.046 179.044 L
405.046 178.472 L
405.764 178.472 L
405.764 177.9 L
407.2 177.9 L
407.2 177.329 L
407.918 177.329 L
407.918 176.185 L
410.072 176.185 L
410.072 175.614 L
410.79 175.614 L
410.79 175.042 L
412.226 175.042 L
412.226 173.327 L
412.944 173.327 L
412.944 172.184 L
413.662 172.184 L
413.662 171.612 L
414.38 171.612 L
414.38 171.04 L
415.098 171.04 L
415.098 170.469 L
415.816 170.469 L
415.816 168.182 L
416.534 168.182 L
416.534 167.611 L
417.252 167.611 L
417.252 166.467 L
417.97 166.467 L
417.97 165.896 L
418.688 165.896 L
418.688 164.181 L
419.406 164.181 L
419.406 163.609 L
420.124 163.609 L
420.124 161.894 L
420.842 161.894 L
420.842 161.322 L
421.56 161.322 L
421.56 160.751 L
422.278 160.751 L
422.278 159.607 L
423.714 159.607 L
423.714 159.036 L
425.15 159.036 L
425.15 158.464 L
426.586 158.464 L
426.586 157.893 L
427.304 157.893 L
427.304 157.321 L
432.33 157.321 L
432.33 156.749 L
433.766 156.749 L
433.766 156.178 L
436.638 156.178 L
436.638 155.606 L
437.356 155.606 L
437.356 155.034 L
438.074 155.034 L
438.074 154.463 L
438.792 154.463 L
438.792 153.891 L
441.664 153.891 L
441.664 153.319 L
442.382 153.319 L
442.382 152.748 L
443.1 152.748 L
443.1 151.604 L
443.818 151.604 L
443.818 149.889 L
447.408 149.889 L
447.408 148.746 L
449.562 148.746 L
449.562 148.174 L
450.28 148.174 L
450.28 147.031 L
450.998 147.031 L
450.998 146.46 L
453.152 146.46 L
453.152 145.316 L
453.87 145.316 L
453.87 143.601 L
454.588 143.601 L
454.588 143.03 L
457.46 143.03 L
457.46 142.458 L
458.178 142.458 L
458.178 141.886 L
458.896 141.886 L
458.896 140.743 L
460.332 140.743 L
460.332 139.6 L
461.768 139.6 L
461.768 139.028 L
462.486 139.028 L
462.486 138.456 L
463.204 138.456 L
463.204 137.885 L
464.64 137.885 L
464.64 136.17 L
465.358 136.17 L
465.358 135.598 L
466.076 135.598 L
466.076 135.026 L
466.794 135.026 L
466.794 134.455 L
467.512 134.455 L
467.512 133.883 L
468.23 133.883 L
468.23 132.74 L
471.102 132.74 L
471.102 131.597 L
471.82 131.597 L
471.82 129.882 L
475.41 129.882 L
475.41 129.31 L
478.282 129.31 L
478.282 128.738 L
480.436 128.738 L
480.436 128.167 L
481.872 128.167 L
481.872 127.595 L
482.59 127.595 L
482.59 127.023 L
484.026 127.023 L
484.026 126.452 L
484.744 126.452 L
484.744 125.88 L
486.18 125.88 L
486.18 125.308 L
486.898 125.308 L
486.898 124.737 L
489.052 124.737 L
489.052 124.165 L
490.488 124.165 L
490.488 123.593 L
493.36 123.593 L
493.36 122.45 L
494.078 122.45 L
494.078 121.878 L
496.95 121.878 L
496.95 121.307 L
498.386 121.307 L
498.386 120.735 L
499.104 120.735 L
499.104 120.164 L
499.822 120.164 L
499.822 119.592 L
501.976 119.592 L
501.976 119.02 L
503.412 119.02 L
503.412 118.449 L
507.002 118.449 L
507.002 117.877 L
509.874 117.877 L
509.874 117.305 L
511.31 117.305 L
511.31 116.734 L
512.746 116.734 L
512.746 116.162 L
513.464 116.162 L
513.464 115.59 L
517.772 115.59 L
517.772 115.019 L
518.49 115.019 L
518.49 113.875 L
521.362 113.875 L
521.362 112.16 L
522.08 112.16 L
522.08 111.589 L
522.798 111.589 L
522.798 110.445 L
528.542 110.445 L
528.542 109.874 L
529.26 109.874 L
529.26 109.302 L
530.696 109.302 L
530.696 108.731 L
532.132 108.731 L
532.132 108.159 L
536.44 108.159 L
536.44 107.587 L
540.03 107.587 L
540.03 107.016 L
544.338 107.016 L
544.338 106.444 L
545.056 106.444 L
545.056 105.872 L
546.492 105.872 L
546.492 105.301 L
547.21 105.301 L
547.21 104.729 L
547.928 104.729 L
547.928 103.586 L
548.646 103.586 L
548.646 102.442 L
549.364 102.442 L
549.364 101.871 L
550.8 101.871 L
550.8 101.299 L
555.108 101.299 L
555.108 100.727 L
555.826 100.727 L
555.826 100.156 L
558.698 100.156 L
558.698 99.584 L
560.134 99.584 L
560.134 98.441 L
562.288 98.441 L
562.288 97.297 L
569.468 97.297 L
569.468 96.726 L
573.058 96.726 L
573.058 95.011 L
573.776 95.011 L
573.776 94.439 L
575.212 94.439 L
575.212 93.868 L
575.93 93.868 L
575.93 93.296 L
576.648 93.296 L
576.648 92.724 L
578.802 92.724 L
578.802 91.581 L
579.52 91.581 L
579.52 89.294 L
580.238 89.294 L
580.238 88.723 L
585.982 88.723 L
585.982 88.151 L
586.7 88.151 L
586.7 87.008 L
589.572 87.008 L
589.572 86.436 L
590.29 86.436 L
590.29 85.293 L
591.008 85.293 L
591.008 84.721 L
594.598 84.721 L
594.598 84.15 L
596.034 84.15 L
596.034 83.006 L
596.752 83.006 L
596.752 82.435 L
598.188 82.435 L
598.188 81.291 L
603.214 81.291 L
603.214 80.72 L
604.65 80.72 L
604.65 80.148 L
605.368 80.148 L
605.368 79.576 L
606.086 79.576 L
606.086 79.005 L
607.522 79.005 L
607.522 78.433 L
608.958 78.433 L
608.958 77.861 L
609.676 77.861 L
609.676 77.29 L
611.83 77.29 L
611.83 76.718 L
616.138 76.718 L
616.138 76.146 L
619.728 76.146 L
619.728 75.575 L
631.934 75.575 L
631.934 75.003 L
633.37 75.003 L
633.37 74.431 L
636.242 74.431 L
636.242 73.86 L
639.832 73.86 L
639.832 73.288 L
652.038 73.288 L
652.038 72.145 L
662.808 72.145 L
662.808 71.002 L
664.244 71.002 L
664.244 70.43 L
668.552 70.43 L
668.552 69.858 L
682.194 69.858 L
682.194 69.287 L
690.81 69.287 L
690.81 68.715 L
708.042 68.715 L
708.042 68.143 L
728.864 68.143 L
728.864 67.572 L
735.326 67.572 L
735.326 67 L
S
GR
GS
[1.03672 0 0 1.03667 0 0] CT
0.494 0.184 0.557 RC
[5 5] 0 setdash
2 LJ
5.788 LW
N
120.718 801 M
120.718 796.469 L
122.154 796.469 L
122.154 791.938 L
123.59 791.938 L
123.59 787.407 L
127.898 787.407 L
127.898 782.877 L
129.334 782.877 L
129.334 778.346 L
142.258 778.346 L
142.258 773.815 L
151.592 773.815 L
151.592 769.284 L
214.058 769.284 L
214.058 764.753 L
234.88 764.753 L
234.88 760.222 L
262.882 760.222 L
262.882 755.691 L
268.626 755.691 L
268.626 751.161 L
275.088 751.161 L
275.088 746.63 L
321.758 746.63 L
321.758 742.099 L
333.246 742.099 L
333.246 737.568 L
346.17 737.568 L
346.17 733.037 L
349.042 733.037 L
349.042 728.506 L
349.76 728.506 L
349.76 723.975 L
353.35 723.975 L
353.35 719.444 L
364.12 719.444 L
364.12 714.914 L
366.274 714.914 L
366.274 710.383 L
372.018 710.383 L
372.018 705.852 L
372.736 705.852 L
372.736 701.321 L
379.916 701.321 L
379.916 696.79 L
382.788 696.79 L
382.788 692.259 L
389.25 692.259 L
389.25 687.728 L
391.404 687.728 L
391.404 683.198 L
392.84 683.198 L
392.84 678.667 L
395.712 678.667 L
395.712 674.136 L
397.866 674.136 L
397.866 669.605 L
404.328 669.605 L
404.328 665.074 L
407.2 665.074 L
407.2 660.543 L
407.918 660.543 L
407.918 656.012 L
413.662 656.012 L
413.662 651.482 L
415.098 651.482 L
415.098 646.951 L
417.252 646.951 L
417.252 642.42 L
420.842 642.42 L
420.842 633.358 L
421.56 633.358 L
421.56 628.827 L
423.714 628.827 L
423.714 619.765 L
426.586 619.765 L
426.586 615.235 L
428.74 615.235 L
428.74 610.704 L
431.612 610.704 L
431.612 606.173 L
432.33 606.173 L
432.33 592.58 L
433.766 592.58 L
433.766 583.518 L
434.484 583.518 L
434.484 578.988 L
435.92 578.988 L
435.92 574.457 L
438.074 574.457 L
438.074 569.926 L
439.51 569.926 L
439.51 565.395 L
440.946 565.395 L
440.946 560.864 L
443.1 560.864 L
443.1 556.333 L
443.818 556.333 L
443.818 551.802 L
445.254 551.802 L
445.254 547.272 L
448.126 547.272 L
448.126 538.21 L
449.562 538.21 L
449.562 529.148 L
450.28 529.148 L
450.28 524.617 L
450.998 524.617 L
450.998 520.086 L
453.152 520.086 L
453.152 511.025 L
458.178 511.025 L
458.178 506.494 L
460.332 506.494 L
460.332 501.963 L
462.486 501.963 L
462.486 497.432 L
464.64 497.432 L
464.64 492.901 L
466.076 492.901 L
466.076 488.37 L
468.23 488.37 L
468.23 483.84 L
468.948 483.84 L
468.948 479.309 L
469.666 479.309 L
469.666 470.247 L
471.82 470.247 L
471.82 465.716 L
473.256 465.716 L
473.256 461.185 L
474.692 461.185 L
474.692 452.123 L
476.128 452.123 L
476.128 447.593 L
478.282 447.593 L
478.282 443.062 L
481.872 443.062 L
481.872 438.531 L
483.308 438.531 L
483.308 429.469 L
484.744 429.469 L
484.744 420.407 L
485.462 420.407 L
485.462 411.346 L
487.616 411.346 L
487.616 406.815 L
488.334 406.815 L
488.334 402.284 L
489.77 402.284 L
489.77 397.753 L
491.206 397.753 L
491.206 393.222 L
493.36 393.222 L
493.36 388.691 L
494.078 388.691 L
494.078 379.63 L
496.95 379.63 L
496.95 375.099 L
498.386 375.099 L
498.386 370.568 L
500.54 370.568 L
500.54 366.037 L
501.258 366.037 L
501.258 361.506 L
501.976 361.506 L
501.976 356.975 L
502.694 356.975 L
502.694 352.444 L
503.412 352.444 L
503.412 343.383 L
505.566 343.383 L
505.566 338.852 L
508.438 338.852 L
508.438 334.321 L
509.156 334.321 L
509.156 329.79 L
510.592 329.79 L
510.592 325.259 L
512.746 325.259 L
512.746 320.728 L
515.618 320.728 L
515.618 316.198 L
517.054 316.198 L
517.054 311.667 L
521.362 311.667 L
521.362 307.136 L
524.952 307.136 L
524.952 302.605 L
525.67 302.605 L
525.67 298.074 L
527.106 298.074 L
527.106 284.481 L
528.542 284.481 L
528.542 279.951 L
529.26 279.951 L
529.26 275.42 L
532.132 275.42 L
532.132 266.358 L
532.85 266.358 L
532.85 257.296 L
537.158 257.296 L
537.158 248.235 L
539.312 248.235 L
539.312 243.704 L
541.466 243.704 L
541.466 234.642 L
542.184 234.642 L
542.184 230.111 L
544.338 230.111 L
544.338 225.58 L
545.056 225.58 L
545.056 221.049 L
545.774 221.049 L
545.774 216.519 L
546.492 216.519 L
546.492 207.457 L
549.364 207.457 L
549.364 202.926 L
553.672 202.926 L
553.672 198.395 L
555.826 198.395 L
555.826 193.864 L
557.262 193.864 L
557.262 189.333 L
557.98 189.333 L
557.98 184.802 L
560.134 184.802 L
560.134 180.272 L
561.57 180.272 L
561.57 175.741 L
563.724 175.741 L
563.724 171.21 L
570.186 171.21 L
570.186 166.679 L
577.366 166.679 L
577.366 162.148 L
581.674 162.148 L
581.674 157.617 L
583.828 157.617 L
583.828 153.086 L
595.316 153.086 L
595.316 148.556 L
596.034 148.556 L
596.034 144.025 L
600.342 144.025 L
600.342 139.494 L
605.368 139.494 L
605.368 134.963 L
610.394 134.963 L
610.394 130.432 L
611.83 130.432 L
611.83 125.901 L
612.548 125.901 L
612.548 121.37 L
614.702 121.37 L
614.702 116.84 L
615.42 116.84 L
615.42 112.309 L
622.6 112.309 L
622.6 107.778 L
623.318 107.778 L
623.318 103.247 L
648.448 103.247 L
648.448 98.716 L
659.936 98.716 L
659.936 94.185 L
661.372 94.185 L
661.372 89.654 L
664.244 89.654 L
664.244 85.123 L
670.706 85.123 L
670.706 80.593 L
687.938 80.593 L
687.938 76.062 L
697.99 76.062 L
697.99 71.531 L
704.452 71.531 L
704.452 67 L
S
GR
GS
[1.03672 0 0 1.03667 0 0] CT
0.467 0.675 0.188 RC
[20 5 10 5] 0 setdash
2 LJ
5.788 LW
N
120 801 M
120 723.522 L
120.718 723.522 L
120.718 719.444 L
121.436 719.444 L
121.436 715.367 L
122.154 715.367 L
122.154 713.328 L
122.872 713.328 L
122.872 708.231 L
123.59 708.231 L
123.59 698.036 L
124.308 698.036 L
124.308 695.997 L
125.026 695.997 L
125.026 689.881 L
125.744 689.881 L
125.744 683.764 L
126.462 683.764 L
126.462 676.628 L
127.18 676.628 L
127.18 672.55 L
127.898 672.55 L
127.898 668.472 L
128.616 668.472 L
128.616 666.433 L
129.334 666.433 L
129.334 662.356 L
130.052 662.356 L
130.052 659.297 L
131.488 659.297 L
131.488 658.278 L
132.206 658.278 L
132.206 655.219 L
132.924 655.219 L
132.924 651.142 L
133.642 651.142 L
133.642 648.083 L
134.36 648.083 L
134.36 644.006 L
135.796 644.006 L
135.796 639.928 L
136.514 639.928 L
136.514 638.908 L
137.232 638.908 L
137.232 636.869 L
137.95 636.869 L
137.95 634.831 L
138.668 634.831 L
138.668 633.811 L
139.386 633.811 L
139.386 631.772 L
140.104 631.772 L
140.104 630.753 L
140.822 630.753 L
140.822 629.733 L
141.54 629.733 L
141.54 626.675 L
142.258 626.675 L
142.258 623.617 L
142.976 623.617 L
142.976 622.597 L
143.694 622.597 L
143.694 619.539 L
144.412 619.539 L
144.412 618.519 L
145.13 618.519 L
145.13 614.442 L
145.848 614.442 L
145.848 613.422 L
146.566 613.422 L
146.566 610.364 L
147.284 610.364 L
147.284 608.325 L
148.002 608.325 L
148.002 605.267 L
148.72 605.267 L
148.72 602.208 L
149.438 602.208 L
149.438 599.15 L
150.874 599.15 L
150.874 596.092 L
152.31 596.092 L
152.31 594.053 L
153.028 594.053 L
153.028 593.033 L
153.746 593.033 L
153.746 589.975 L
154.464 589.975 L
154.464 586.917 L
155.9 586.917 L
155.9 585.897 L
157.336 585.897 L
157.336 584.878 L
158.054 584.878 L
158.054 583.858 L
158.772 583.858 L
158.772 581.819 L
159.49 581.819 L
159.49 580.8 L
160.926 580.8 L
160.926 578.761 L
161.644 578.761 L
161.644 575.703 L
162.362 575.703 L
162.362 570.606 L
163.08 570.606 L
163.08 567.547 L
163.798 567.547 L
163.798 564.489 L
164.516 564.489 L
164.516 561.431 L
165.234 561.431 L
165.234 558.372 L
165.952 558.372 L
165.952 556.333 L
166.67 556.333 L
166.67 553.275 L
167.388 553.275 L
167.388 551.236 L
168.106 551.236 L
168.106 547.158 L
168.824 547.158 L
168.824 545.119 L
169.542 545.119 L
169.542 543.081 L
170.26 543.081 L
170.26 541.042 L
170.978 541.042 L
170.978 536.964 L
171.696 536.964 L
171.696 534.925 L
172.414 534.925 L
172.414 531.867 L
173.132 531.867 L
173.132 530.847 L
173.85 530.847 L
173.85 529.828 L
174.568 529.828 L
174.568 526.769 L
175.286 526.769 L
175.286 524.731 L
176.004 524.731 L
176.004 523.711 L
176.722 523.711 L
176.722 519.633 L
178.158 519.633 L
178.158 516.575 L
178.876 516.575 L
178.876 515.556 L
179.594 515.556 L
179.594 513.517 L
180.312 513.517 L
180.312 507.4 L
181.03 507.4 L
181.03 506.381 L
181.748 506.381 L
181.748 504.342 L
182.466 504.342 L
182.466 500.264 L
183.184 500.264 L
183.184 499.244 L
185.338 499.244 L
185.338 498.225 L
186.774 498.225 L
186.774 497.206 L
188.21 497.206 L
188.21 495.167 L
190.364 495.167 L
190.364 494.147 L
191.082 494.147 L
191.082 493.128 L
191.8 493.128 L
191.8 491.089 L
192.518 491.089 L
192.518 490.069 L
193.236 490.069 L
193.236 489.05 L
193.954 489.05 L
193.954 488.031 L
194.672 488.031 L
194.672 485.992 L
195.39 485.992 L
195.39 483.953 L
196.826 483.953 L
196.826 482.933 L
198.98 482.933 L
198.98 481.914 L
199.698 481.914 L
199.698 476.817 L
200.416 476.817 L
200.416 474.778 L
201.134 474.778 L
201.134 473.758 L
204.006 473.758 L
204.006 472.739 L
206.16 472.739 L
206.16 471.719 L
206.878 471.719 L
206.878 470.7 L
209.032 470.7 L
209.032 468.661 L
209.75 468.661 L
209.75 467.642 L
210.468 467.642 L
210.468 465.603 L
211.904 465.603 L
211.904 464.583 L
212.622 464.583 L
212.622 463.564 L
214.058 463.564 L
214.058 460.506 L
214.776 460.506 L
214.776 459.486 L
215.494 459.486 L
215.494 458.467 L
216.212 458.467 L
216.212 457.447 L
216.93 457.447 L
216.93 456.428 L
218.366 456.428 L
218.366 453.369 L
220.52 453.369 L
220.52 452.35 L
221.238 452.35 L
221.238 451.331 L
222.674 451.331 L
222.674 450.311 L
225.546 450.311 L
225.546 449.292 L
226.982 449.292 L
226.982 448.272 L
231.29 448.272 L
231.29 447.253 L
240.624 447.253 L
240.624 445.214 L
241.342 445.214 L
241.342 444.194 L
244.214 444.194 L
244.214 443.175 L
244.932 443.175 L
244.932 441.136 L
245.65 441.136 L
245.65 440.117 L
247.086 440.117 L
247.086 439.097 L
247.804 439.097 L
247.804 438.078 L
249.958 438.078 L
249.958 437.058 L
252.112 437.058 L
252.112 436.039 L
253.548 436.039 L
253.548 434 L
254.266 434 L
254.266 432.981 L
256.42 432.981 L
256.42 431.961 L
257.138 431.961 L
257.138 428.903 L
257.856 428.903 L
257.856 427.883 L
258.574 427.883 L
258.574 426.864 L
263.6 426.864 L
263.6 424.825 L
264.318 424.825 L
264.318 423.806 L
265.036 423.806 L
265.036 422.786 L
265.754 422.786 L
265.754 421.767 L
266.472 421.767 L
266.472 420.747 L
267.19 420.747 L
267.19 419.728 L
270.78 419.728 L
270.78 418.708 L
272.216 418.708 L
272.216 417.689 L
275.088 417.689 L
275.088 416.669 L
275.806 416.669 L
275.806 415.65 L
276.524 415.65 L
276.524 414.631 L
277.96 414.631 L
277.96 412.592 L
278.678 412.592 L
278.678 410.553 L
279.396 410.553 L
279.396 409.533 L
280.114 409.533 L
280.114 408.514 L
282.268 408.514 L
282.268 406.475 L
283.704 406.475 L
283.704 405.456 L
287.294 405.456 L
287.294 403.417 L
288.012 403.417 L
288.012 402.397 L
290.166 402.397 L
290.166 401.378 L
290.884 401.378 L
290.884 400.358 L
292.32 400.358 L
292.32 398.319 L
293.756 398.319 L
293.756 396.281 L
294.474 396.281 L
294.474 395.261 L
295.192 395.261 L
295.192 393.222 L
297.346 393.222 L
297.346 392.203 L
298.064 392.203 L
298.064 391.183 L
298.782 391.183 L
298.782 390.164 L
299.5 390.164 L
299.5 389.144 L
300.936 389.144 L
300.936 386.086 L
301.654 386.086 L
301.654 385.067 L
302.372 385.067 L
302.372 384.047 L
303.09 384.047 L
303.09 382.008 L
303.808 382.008 L
303.808 380.989 L
307.398 380.989 L
307.398 379.969 L
308.116 379.969 L
308.116 377.931 L
308.834 377.931 L
308.834 376.911 L
309.552 376.911 L
309.552 375.892 L
310.27 375.892 L
310.27 373.853 L
311.706 373.853 L
311.706 369.775 L
313.86 369.775 L
313.86 368.756 L
315.296 368.756 L
315.296 367.736 L
316.014 367.736 L
316.014 365.697 L
318.168 365.697 L
318.168 364.678 L
318.886 364.678 L
318.886 363.658 L
320.322 363.658 L
320.322 362.639 L
321.758 362.639 L
321.758 360.6 L
322.476 360.6 L
322.476 358.561 L
323.194 358.561 L
323.194 356.522 L
323.912 356.522 L
323.912 354.483 L
324.63 354.483 L
324.63 353.464 L
325.348 353.464 L
325.348 350.406 L
326.784 350.406 L
326.784 349.386 L
327.502 349.386 L
327.502 347.347 L
328.22 347.347 L
328.22 343.269 L
329.656 343.269 L
329.656 342.25 L
330.374 342.25 L
330.374 340.211 L
331.092 340.211 L
331.092 338.172 L
331.81 338.172 L
331.81 337.153 L
333.246 337.153 L
333.246 334.094 L
333.964 334.094 L
333.964 332.056 L
334.682 332.056 L
334.682 330.017 L
336.118 330.017 L
336.118 328.997 L
336.836 328.997 L
336.836 326.958 L
338.272 326.958 L
338.272 325.939 L
340.426 325.939 L
340.426 324.919 L
341.862 324.919 L
341.862 321.861 L
342.58 321.861 L
342.58 320.842 L
343.298 320.842 L
343.298 318.803 L
344.734 318.803 L
344.734 317.783 L
345.452 317.783 L
345.452 316.764 L
346.17 316.764 L
346.17 315.744 L
347.606 315.744 L
347.606 313.706 L
349.76 313.706 L
349.76 312.686 L
350.478 312.686 L
350.478 310.647 L
351.196 310.647 L
351.196 309.628 L
351.914 309.628 L
351.914 306.569 L
352.632 306.569 L
352.632 305.55 L
354.786 305.55 L
354.786 303.511 L
356.222 303.511 L
356.222 300.453 L
356.94 300.453 L
356.94 298.414 L
358.376 298.414 L
358.376 297.394 L
359.094 297.394 L
359.094 295.356 L
359.812 295.356 L
359.812 294.336 L
360.53 294.336 L
360.53 293.317 L
361.248 293.317 L
361.248 290.258 L
361.966 290.258 L
361.966 289.239 L
362.684 289.239 L
362.684 288.219 L
363.402 288.219 L
363.402 285.161 L
364.12 285.161 L
364.12 284.142 L
364.838 284.142 L
364.838 283.122 L
365.556 283.122 L
365.556 282.103 L
366.274 282.103 L
366.274 281.083 L
366.992 281.083 L
366.992 280.064 L
367.71 280.064 L
367.71 279.044 L
368.428 279.044 L
368.428 274.967 L
369.146 274.967 L
369.146 273.947 L
370.582 273.947 L
370.582 271.908 L
371.3 271.908 L
371.3 270.889 L
372.018 270.889 L
372.018 269.869 L
372.736 269.869 L
372.736 268.85 L
373.454 268.85 L
373.454 267.831 L
374.172 267.831 L
374.172 266.811 L
378.48 266.811 L
378.48 265.792 L
379.198 265.792 L
379.198 263.753 L
380.634 263.753 L
380.634 260.694 L
382.07 260.694 L
382.07 257.636 L
382.788 257.636 L
382.788 255.597 L
384.224 255.597 L
384.224 254.578 L
384.942 254.578 L
384.942 251.519 L
385.66 251.519 L
385.66 249.481 L
387.096 249.481 L
387.096 247.442 L
387.814 247.442 L
387.814 243.364 L
389.25 243.364 L
389.25 242.344 L
389.968 242.344 L
389.968 239.286 L
390.686 239.286 L
390.686 238.267 L
392.84 238.267 L
392.84 235.208 L
393.558 235.208 L
393.558 234.189 L
394.276 234.189 L
394.276 233.169 L
394.994 233.169 L
394.994 230.111 L
396.43 230.111 L
396.43 229.092 L
397.148 229.092 L
397.148 226.033 L
397.866 226.033 L
397.866 225.014 L
400.02 225.014 L
400.02 222.975 L
403.61 222.975 L
403.61 221.956 L
404.328 221.956 L
404.328 220.936 L
405.046 220.936 L
405.046 218.897 L
406.482 218.897 L
406.482 217.878 L
407.2 217.878 L
407.2 214.819 L
408.636 214.819 L
408.636 213.8 L
414.38 213.8 L
414.38 212.781 L
416.534 212.781 L
416.534 210.742 L
417.97 210.742 L
417.97 209.722 L
419.406 209.722 L
419.406 208.703 L
420.124 208.703 L
420.124 207.683 L
420.842 207.683 L
420.842 206.664 L
421.56 206.664 L
421.56 205.644 L
422.278 205.644 L
422.278 204.625 L
422.996 204.625 L
422.996 203.606 L
423.714 203.606 L
423.714 201.567 L
425.15 201.567 L
425.15 200.547 L
427.304 200.547 L
427.304 198.508 L
428.022 198.508 L
428.022 195.45 L
428.74 195.45 L
428.74 193.411 L
430.176 193.411 L
430.176 192.392 L
432.33 192.392 L
432.33 190.353 L
433.048 190.353 L
433.048 189.333 L
433.766 189.333 L
433.766 188.314 L
434.484 188.314 L
434.484 187.294 L
435.92 187.294 L
435.92 186.275 L
436.638 186.275 L
436.638 185.256 L
437.356 185.256 L
437.356 184.236 L
439.51 184.236 L
439.51 183.217 L
440.946 183.217 L
440.946 181.178 L
441.664 181.178 L
441.664 179.139 L
442.382 179.139 L
442.382 177.1 L
443.1 177.1 L
443.1 176.081 L
443.818 176.081 L
443.818 175.061 L
444.536 175.061 L
444.536 174.042 L
445.972 174.042 L
445.972 173.022 L
446.69 173.022 L
446.69 172.003 L
447.408 172.003 L
447.408 169.964 L
449.562 169.964 L
449.562 168.944 L
450.28 168.944 L
450.28 167.925 L
450.998 167.925 L
450.998 166.906 L
452.434 166.906 L
452.434 164.867 L
453.152 164.867 L
453.152 163.847 L
453.87 163.847 L
453.87 162.828 L
454.588 162.828 L
454.588 160.789 L
456.024 160.789 L
456.024 159.769 L
457.46 159.769 L
457.46 158.75 L
458.178 158.75 L
458.178 157.731 L
461.05 157.731 L
461.05 156.711 L
461.768 156.711 L
461.768 155.692 L
463.922 155.692 L
463.922 154.672 L
466.076 154.672 L
466.076 153.653 L
467.512 153.653 L
467.512 152.633 L
469.666 152.633 L
469.666 150.594 L
470.384 150.594 L
470.384 149.575 L
471.102 149.575 L
471.102 148.556 L
471.82 148.556 L
471.82 147.536 L
473.974 147.536 L
473.974 145.497 L
476.128 145.497 L
476.128 144.478 L
476.846 144.478 L
476.846 143.458 L
477.564 143.458 L
477.564 142.439 L
478.282 142.439 L
478.282 140.4 L
481.154 140.4 L
481.154 138.361 L
482.59 138.361 L
482.59 137.342 L
485.462 137.342 L
485.462 136.322 L
486.898 136.322 L
486.898 135.303 L
488.334 135.303 L
488.334 134.283 L
489.77 134.283 L
489.77 133.264 L
490.488 133.264 L
490.488 129.186 L
491.924 129.186 L
491.924 126.128 L
492.642 126.128 L
492.642 125.108 L
493.36 125.108 L
493.36 122.05 L
496.95 122.05 L
496.95 118.992 L
498.386 118.992 L
498.386 117.972 L
499.822 117.972 L
499.822 116.953 L
501.258 116.953 L
501.258 114.914 L
501.976 114.914 L
501.976 113.894 L
502.694 113.894 L
502.694 111.856 L
504.848 111.856 L
504.848 110.836 L
507.002 110.836 L
507.002 109.817 L
509.156 109.817 L
509.156 107.778 L
509.874 107.778 L
509.874 106.758 L
510.592 106.758 L
510.592 105.739 L
512.028 105.739 L
512.028 104.719 L
512.746 104.719 L
512.746 103.7 L
513.464 103.7 L
513.464 102.681 L
516.336 102.681 L
516.336 101.661 L
517.772 101.661 L
517.772 100.642 L
519.208 100.642 L
519.208 99.622 L
519.926 99.622 L
519.926 98.603 L
520.644 98.603 L
520.644 97.583 L
522.08 97.583 L
522.08 96.564 L
523.516 96.564 L
523.516 95.544 L
526.388 95.544 L
526.388 93.506 L
528.542 93.506 L
528.542 91.467 L
529.26 91.467 L
529.26 90.447 L
529.978 90.447 L
529.978 88.408 L
531.414 88.408 L
531.414 86.369 L
533.568 86.369 L
533.568 85.35 L
534.286 85.35 L
534.286 84.331 L
537.876 84.331 L
537.876 83.311 L
539.312 83.311 L
539.312 82.292 L
540.03 82.292 L
540.03 81.272 L
545.774 81.272 L
545.774 80.253 L
546.492 80.253 L
546.492 78.214 L
555.826 78.214 L
555.826 77.194 L
557.98 77.194 L
557.98 76.175 L
565.878 76.175 L
565.878 75.156 L
566.596 75.156 L
566.596 74.136 L
568.032 74.136 L
568.032 72.097 L
591.726 72.097 L
591.726 71.078 L
622.6 71.078 L
622.6 70.058 L
659.936 70.058 L
659.936 69.039 L
672.86 69.039 L
672.86 68.019 L
675.732 68.019 L
675.732 67 L
S
GR
GS
[1.03672 0 0 1.03667 0 0] CT
1 GC
N
413 791 M
413 630 L
828 630 L
828 791 L
cp
f
GR
GS
[1.03672 0 0 1.03667 466.52268 671.24167] CT
/Helvetica 26.045 F
GS
[1 0 0 1 0 0] CT
0 9.5 moveto 
1 -1 scale
(Healthy \(mean = 432.9300\)) t 
GR
GR
GS
[1.03672 0 0 1.03667 0 0] CT
0 0.447 0.741 RC
1 LJ
5.788 LW
N
417 647.5 M
447 647.5 L
S
GR
GS
[1.03672 0 0 1.03667 466.52268 703.89667] CT
/Helvetica 26.045 F
GS
[1 0 0 1 0 0] CT
0 9.5 moveto 
1 -1 scale
(Clear \(mean = 340.4462\)) t 
GR
GR
GS
[1.03672 0 0 1.03667 0 0] CT
0.851 0.325 0.098 RC
1 LJ
5.788 LW
N
417 679 M
447 679 L
S
GR
GS
[1.03672 0 0 1.03667 466.52268 736.55167] CT
/Helvetica 26.045 F
GS
[1 0 0 1 0 0] CT
0 9.5 moveto 
1 -1 scale
(Geometry \(mean = 180.0896\)) t 
GR
GR
GS
[1.03672 0 0 1.03667 0 0] CT
0.929 0.694 0.125 RC
[20 20] 0 setdash
2 LJ
5.788 LW
N
417 710.5 M
447 710.5 L
S
GR
GS
[1.03672 0 0 1.03667 466.52268 769.20667] CT
/Helvetica 26.045 F
GS
[1 0 0 1 0 0] CT
0 9.5 moveto 
1 -1 scale
(Tissue \(mean = 488.1420\)) t 
GR
GR
GS
[1.03672 0 0 1.03667 0 0] CT
0.494 0.184 0.557 RC
[5 5] 0 setdash
2 LJ
5.788 LW
N
417 742 M
447 742 L
S
GR
GS
[1.03672 0 0 1.03667 466.52268 801.86167] CT
/Helvetica 26.045 F
GS
[1 0 0 1 0 0] CT
0 9.5 moveto 
1 -1 scale
(Obstructions \(mean = 216.8181\)) t 
GR
GR
GS
[1.03672 0 0 1.03667 0 0] CT
0.467 0.675 0.188 RC
[20 5 10 5] 0 setdash
2 LJ
5.788 LW
N
417 773.5 M
447 773.5 L
S
GR
GS
[1.03672 0 0 1.03667 0 0] CT
0.149 GC
10.0 ML
0.482 LW
N
413 791 M
413 630 L
828 630 L
828 791 L
cp
S
GR
%%Trailer
%%Pages: 1
%%EOF
