%!PS-Adobe-3.0 EPSF-3.0
%%Creator: (MATLAB, The Mathworks, Inc. Version 9.2.0.538062 \(R2017a\). Operating System: Mac OS X)
%%Title: /Users/trokielewicz/Dropbox/Aplikacje/Texpad/IrisDisease-BookChapter-2016/images/subsets-ROC-VE.eps
%%CreationDate: 2017-07-25T14:05:26
%%Pages: (atend)
%%BoundingBox: 0 0 960 900
%%LanguageLevel: 3
%%EndComments
%%BeginProlog
%%BeginResource: procset (Apache XML Graphics Std ProcSet) 1.2 0
%%Version: 1.2 0
%%Copyright: (Copyright 2001-2003,2010 The Apache Software Foundation. License terms: http://www.apache.org/licenses/LICENSE-2.0)
/bd{bind def}bind def
/ld{load def}bd
/GR/grestore ld
/M/moveto ld
/LJ/setlinejoin ld
/C/curveto ld
/f/fill ld
/LW/setlinewidth ld
/GC/setgray ld
/t/show ld
/N/newpath ld
/CT/concat ld
/cp/closepath ld
/S/stroke ld
/L/lineto ld
/CC/setcmykcolor ld
/A/ashow ld
/GS/gsave ld
/RC/setrgbcolor ld
/RM/rmoveto ld
/ML/setmiterlimit ld
/re {4 2 roll M
1 index 0 rlineto
0 exch rlineto
neg 0 rlineto
cp } bd
/_ctm matrix def
/_tm matrix def
/BT { _ctm currentmatrix pop matrix _tm copy pop 0 0 moveto } bd
/ET { _ctm setmatrix } bd
/iTm { _ctm setmatrix _tm concat } bd
/Tm { _tm astore pop iTm 0 0 moveto } bd
/ux 0.0 def
/uy 0.0 def
/F {
  /Tp exch def
  /Tf exch def
  Tf findfont Tp scalefont setfont
  /cf Tf def  /cs Tp def
} bd
/ULS {currentpoint /uy exch def /ux exch def} bd
/ULE {
  /Tcx currentpoint pop def
  gsave
  newpath
  cf findfont cs scalefont dup
  /FontMatrix get 0 get /Ts exch def /FontInfo get dup
  /UnderlinePosition get Ts mul /To exch def
  /UnderlineThickness get Ts mul /Tt exch def
  ux uy To add moveto  Tcx uy To add lineto
  Tt setlinewidth stroke
  grestore
} bd
/OLE {
  /Tcx currentpoint pop def
  gsave
  newpath
  cf findfont cs scalefont dup
  /FontMatrix get 0 get /Ts exch def /FontInfo get dup
  /UnderlinePosition get Ts mul /To exch def
  /UnderlineThickness get Ts mul /Tt exch def
  ux uy To add cs add moveto Tcx uy To add cs add lineto
  Tt setlinewidth stroke
  grestore
} bd
/SOE {
  /Tcx currentpoint pop def
  gsave
  newpath
  cf findfont cs scalefont dup
  /FontMatrix get 0 get /Ts exch def /FontInfo get dup
  /UnderlinePosition get Ts mul /To exch def
  /UnderlineThickness get Ts mul /Tt exch def
  ux uy To add cs 10 mul 26 idiv add moveto Tcx uy To add cs 10 mul 26 idiv add lineto
  Tt setlinewidth stroke
  grestore
} bd
/QT {
/Y22 exch store
/X22 exch store
/Y21 exch store
/X21 exch store
currentpoint
/Y21 load 2 mul add 3 div exch
/X21 load 2 mul add 3 div exch
/X21 load 2 mul /X22 load add 3 div
/Y21 load 2 mul /Y22 load add 3 div
/X22 load /Y22 load curveto
} bd
/SSPD {
dup length /d exch dict def
{
/v exch def
/k exch def
currentpagedevice k known {
/cpdv currentpagedevice k get def
v cpdv ne {
/upd false def
/nullv v type /nulltype eq def
/nullcpdv cpdv type /nulltype eq def
nullv nullcpdv or
{
/upd true def
} {
/sametype v type cpdv type eq def
sametype {
v type /arraytype eq {
/vlen v length def
/cpdvlen cpdv length def
vlen cpdvlen eq {
0 1 vlen 1 sub {
/i exch def
/obj v i get def
/cpdobj cpdv i get def
obj cpdobj ne {
/upd true def
exit
} if
} for
} {
/upd true def
} ifelse
} {
v type /dicttype eq {
v {
/dv exch def
/dk exch def
/cpddv cpdv dk get def
dv cpddv ne {
/upd true def
exit
} if
} forall
} {
/upd true def
} ifelse
} ifelse
} if
} ifelse
upd true eq {
d k v put
} if
} if
} if
} forall
d length 0 gt {
d setpagedevice
} if
} bd
/RE { % /NewFontName [NewEncodingArray] /FontName RE -
  findfont dup length dict begin
  {
    1 index /FID ne
    {def} {pop pop} ifelse
  } forall
  /Encoding exch def
  /FontName 1 index def
  currentdict definefont pop
  end
} bind def
%%EndResource
%%BeginResource: procset (Apache XML Graphics EPS ProcSet) 1.0 0
%%Version: 1.0 0
%%Copyright: (Copyright 2002-2003 The Apache Software Foundation. License terms: http://www.apache.org/licenses/LICENSE-2.0)
/BeginEPSF { %def
/b4_Inc_state save def         % Save state for cleanup
/dict_count countdictstack def % Count objects on dict stack
/op_count count 1 sub def      % Count objects on operand stack
userdict begin                 % Push userdict on dict stack
/showpage { } def              % Redefine showpage, { } = null proc
0 setgray 0 setlinecap         % Prepare graphics state
1 setlinewidth 0 setlinejoin
10 setmiterlimit [ ] 0 setdash newpath
/languagelevel where           % If level not equal to 1 then
{pop languagelevel             % set strokeadjust and
1 ne                           % overprint to their defaults.
{false setstrokeadjust false setoverprint
} if
} if
} bd
/EndEPSF { %def
count op_count sub {pop} repeat            % Clean up stacks
countdictstack dict_count sub {end} repeat
b4_Inc_state restore
} bd
%%EndResource
%FOPBeginFontDict
%%IncludeResource: font Courier-Bold
%%IncludeResource: font Helvetica
%%IncludeResource: font Courier-BoldOblique
%%IncludeResource: font Courier-Oblique
%%IncludeResource: font Times-Roman
%%IncludeResource: font Helvetica-BoldOblique
%%IncludeResource: font Helvetica-Bold
%%IncludeResource: font Helvetica-Oblique
%%IncludeResource: font Times-BoldItalic
%%IncludeResource: font Courier
%%IncludeResource: font Times-Italic
%%IncludeResource: font Times-Bold
%%IncludeResource: font Symbol
%%IncludeResource: font ZapfDingbats
%FOPEndFontDict
%%BeginResource: encoding WinAnsiEncoding
/WinAnsiEncoding [
/.notdef /.notdef /.notdef /.notdef /.notdef
/.notdef /.notdef /.notdef /.notdef /.notdef
/.notdef /.notdef /.notdef /.notdef /.notdef
/.notdef /.notdef /.notdef /.notdef /.notdef
/.notdef /.notdef /.notdef /.notdef /.notdef
/.notdef /.notdef /.notdef /.notdef /.notdef
/.notdef /.notdef /space /exclam /quotedbl
/numbersign /dollar /percent /ampersand /quotesingle
/parenleft /parenright /asterisk /plus /comma
/hyphen /period /slash /zero /one
/two /three /four /five /six
/seven /eight /nine /colon /semicolon
/less /equal /greater /question /at
/A /B /C /D /E
/F /G /H /I /J
/K /L /M /N /O
/P /Q /R /S /T
/U /V /W /X /Y
/Z /bracketleft /backslash /bracketright /asciicircum
/underscore /quoteleft /a /b /c
/d /e /f /g /h
/i /j /k /l /m
/n /o /p /q /r
/s /t /u /v /w
/x /y /z /braceleft /bar
/braceright /asciitilde /bullet /Euro /bullet
/quotesinglbase /florin /quotedblbase /ellipsis /dagger
/daggerdbl /circumflex /perthousand /Scaron /guilsinglleft
/OE /bullet /Zcaron /bullet /bullet
/quoteleft /quoteright /quotedblleft /quotedblright /bullet
/endash /emdash /asciitilde /trademark /scaron
/guilsinglright /oe /bullet /zcaron /Ydieresis
/space /exclamdown /cent /sterling /currency
/yen /brokenbar /section /dieresis /copyright
/ordfeminine /guillemotleft /logicalnot /sfthyphen /registered
/macron /degree /plusminus /twosuperior /threesuperior
/acute /mu /paragraph /middot /cedilla
/onesuperior /ordmasculine /guillemotright /onequarter /onehalf
/threequarters /questiondown /Agrave /Aacute /Acircumflex
/Atilde /Adieresis /Aring /AE /Ccedilla
/Egrave /Eacute /Ecircumflex /Edieresis /Igrave
/Iacute /Icircumflex /Idieresis /Eth /Ntilde
/Ograve /Oacute /Ocircumflex /Otilde /Odieresis
/multiply /Oslash /Ugrave /Uacute /Ucircumflex
/Udieresis /Yacute /Thorn /germandbls /agrave
/aacute /acircumflex /atilde /adieresis /aring
/ae /ccedilla /egrave /eacute /ecircumflex
/edieresis /igrave /iacute /icircumflex /idieresis
/eth /ntilde /ograve /oacute /ocircumflex
/otilde /odieresis /divide /oslash /ugrave
/uacute /ucircumflex /udieresis /yacute /thorn
/ydieresis
] def
%%EndResource
%FOPBeginFontReencode
/Courier-Bold findfont
dup length dict begin
  {1 index /FID ne {def} {pop pop} ifelse} forall
  /Encoding WinAnsiEncoding def
  currentdict
end
/Courier-Bold exch definefont pop
/Helvetica findfont
dup length dict begin
  {1 index /FID ne {def} {pop pop} ifelse} forall
  /Encoding WinAnsiEncoding def
  currentdict
end
/Helvetica exch definefont pop
/Courier-BoldOblique findfont
dup length dict begin
  {1 index /FID ne {def} {pop pop} ifelse} forall
  /Encoding WinAnsiEncoding def
  currentdict
end
/Courier-BoldOblique exch definefont pop
/Courier-Oblique findfont
dup length dict begin
  {1 index /FID ne {def} {pop pop} ifelse} forall
  /Encoding WinAnsiEncoding def
  currentdict
end
/Courier-Oblique exch definefont pop
/Times-Roman findfont
dup length dict begin
  {1 index /FID ne {def} {pop pop} ifelse} forall
  /Encoding WinAnsiEncoding def
  currentdict
end
/Times-Roman exch definefont pop
/Helvetica-BoldOblique findfont
dup length dict begin
  {1 index /FID ne {def} {pop pop} ifelse} forall
  /Encoding WinAnsiEncoding def
  currentdict
end
/Helvetica-BoldOblique exch definefont pop
/Helvetica-Bold findfont
dup length dict begin
  {1 index /FID ne {def} {pop pop} ifelse} forall
  /Encoding WinAnsiEncoding def
  currentdict
end
/Helvetica-Bold exch definefont pop
/Helvetica-Oblique findfont
dup length dict begin
  {1 index /FID ne {def} {pop pop} ifelse} forall
  /Encoding WinAnsiEncoding def
  currentdict
end
/Helvetica-Oblique exch definefont pop
/Times-BoldItalic findfont
dup length dict begin
  {1 index /FID ne {def} {pop pop} ifelse} forall
  /Encoding WinAnsiEncoding def
  currentdict
end
/Times-BoldItalic exch definefont pop
/Courier findfont
dup length dict begin
  {1 index /FID ne {def} {pop pop} ifelse} forall
  /Encoding WinAnsiEncoding def
  currentdict
end
/Courier exch definefont pop
/Times-Italic findfont
dup length dict begin
  {1 index /FID ne {def} {pop pop} ifelse} forall
  /Encoding WinAnsiEncoding def
  currentdict
end
/Times-Italic exch definefont pop
/Times-Bold findfont
dup length dict begin
  {1 index /FID ne {def} {pop pop} ifelse} forall
  /Encoding WinAnsiEncoding def
  currentdict
end
/Times-Bold exch definefont pop
%FOPEndFontReencode
%%EndProlog
%%Page: 1 1
%%PageBoundingBox: 0 0 960 900
%%BeginPageSetup
[1 0 0 -1 0 900] CT
%%EndPageSetup
GS
1 GC
N
0 0 960 900 re
f
GR
GS
1 GC
N
0 0 960 900 re
f
GR
GS
1 GC
N
125 801 M
869 801 L
869 67 L
125 67 L
cp
f
GR
GS
0.873 GC
1 LJ
0.5 LW
N
273.74 801 M
273.74 67 L
S
GR
GS
0.873 GC
1 LJ
0.5 LW
N
422.555 801 M
422.555 67 L
S
GR
GS
0.873 GC
1 LJ
0.5 LW
N
571.37 801 M
571.37 67 L
S
GR
GS
0.873 GC
1 LJ
0.5 LW
N
720.185 801 M
720.185 67 L
S
GR
GS
0.873 GC
1 LJ
0.5 LW
N
869 801 M
869 67 L
S
GR
GS
0.873 GC
1 LJ
0.5 LW
N
869 801 M
125 801 L
S
GR
GS
0.873 GC
1 LJ
0.5 LW
N
869 654.2 M
125 654.2 L
S
GR
GS
0.873 GC
1 LJ
0.5 LW
N
869 507.4 M
125 507.4 L
S
GR
GS
0.873 GC
1 LJ
0.5 LW
N
869 360.6 M
125 360.6 L
S
GR
GS
0.873 GC
1 LJ
0.5 LW
N
869 213.8 M
125 213.8 L
S
GR
GS
0.873 GC
1 LJ
0.5 LW
N
869 67 M
125 67 L
S
GR
GS
0.149 GC
2 setlinecap
1 LJ
0.5 LW
N
125 801 M
869 801 L
S
GR
GS
0.149 GC
2 setlinecap
1 LJ
0.5 LW
N
125 67 M
869 67 L
S
GR
GS
0.149 GC
2 setlinecap
1 LJ
0.5 LW
N
273.74 801 M
273.74 793.56 L
S
GR
GS
0.149 GC
2 setlinecap
1 LJ
0.5 LW
N
422.555 801 M
422.555 793.56 L
S
GR
GS
0.149 GC
2 setlinecap
1 LJ
0.5 LW
N
571.37 801 M
571.37 793.56 L
S
GR
GS
0.149 GC
2 setlinecap
1 LJ
0.5 LW
N
720.185 801 M
720.185 793.56 L
S
GR
GS
0.149 GC
2 setlinecap
1 LJ
0.5 LW
N
869 801 M
869 793.56 L
S
GR
GS
0.149 GC
2 setlinecap
1 LJ
0.5 LW
N
273.74 67 M
273.74 74.44 L
S
GR
GS
0.149 GC
2 setlinecap
1 LJ
0.5 LW
N
422.555 67 M
422.555 74.44 L
S
GR
GS
0.149 GC
2 setlinecap
1 LJ
0.5 LW
N
571.37 67 M
571.37 74.44 L
S
GR
GS
0.149 GC
2 setlinecap
1 LJ
0.5 LW
N
720.185 67 M
720.185 74.44 L
S
GR
GS
0.149 GC
2 setlinecap
1 LJ
0.5 LW
N
869 67 M
869 74.44 L
S
GR
GS
[1 0 0 1 273.74048 808.99994] CT
0.149 GC
/Helvetica 30 F
GS
[1 0 0 1 0 0] CT
-21 29 moveto 
1 -1 scale
(0.2) t 
GR
GR
GS
[1 0 0 1 422.55536 808.99994] CT
0.149 GC
/Helvetica 30 F
GS
[1 0 0 1 0 0] CT
-21 29 moveto 
1 -1 scale
(0.4) t 
GR
GR
GS
[1 0 0 1 571.37024 808.99994] CT
0.149 GC
/Helvetica 30 F
GS
[1 0 0 1 0 0] CT
-21 29 moveto 
1 -1 scale
(0.6) t 
GR
GR
GS
[1 0 0 1 720.18512 808.99994] CT
0.149 GC
/Helvetica 30 F
GS
[1 0 0 1 0 0] CT
-21 29 moveto 
1 -1 scale
(0.8) t 
GR
GR
GS
[1 0 0 1 869 808.99994] CT
0.149 GC
/Helvetica 30 F
GS
[1 0 0 1 0 0] CT
-8.5 29 moveto 
1 -1 scale
(1) t 
GR
GR
GS
[1 0 0 1 497.00037 846] CT
0.149 GC
/Helvetica 33 F
GS
[1 0 0 1 0 0] CT
-134 32 moveto 
1 -1 scale
(False positive rate) t 
GR
GR
GS
0.149 GC
2 setlinecap
1 LJ
0.5 LW
N
125 801 M
125 67 L
S
GR
GS
0.149 GC
2 setlinecap
1 LJ
0.5 LW
N
869 801 M
869 67 L
S
GR
GS
0.149 GC
2 setlinecap
1 LJ
0.5 LW
N
125 801 M
132.44 801 L
S
GR
GS
0.149 GC
2 setlinecap
1 LJ
0.5 LW
N
125 654.2 M
132.44 654.2 L
S
GR
GS
0.149 GC
2 setlinecap
1 LJ
0.5 LW
N
125 507.4 M
132.44 507.4 L
S
GR
GS
0.149 GC
2 setlinecap
1 LJ
0.5 LW
N
125 360.6 M
132.44 360.6 L
S
GR
GS
0.149 GC
2 setlinecap
1 LJ
0.5 LW
N
125 213.8 M
132.44 213.8 L
S
GR
GS
0.149 GC
2 setlinecap
1 LJ
0.5 LW
N
125 67 M
132.44 67 L
S
GR
GS
0.149 GC
2 setlinecap
1 LJ
0.5 LW
N
869 801 M
861.56 801 L
S
GR
GS
0.149 GC
2 setlinecap
1 LJ
0.5 LW
N
869 654.2 M
861.56 654.2 L
S
GR
GS
0.149 GC
2 setlinecap
1 LJ
0.5 LW
N
869 507.4 M
861.56 507.4 L
S
GR
GS
0.149 GC
2 setlinecap
1 LJ
0.5 LW
N
869 360.6 M
861.56 360.6 L
S
GR
GS
0.149 GC
2 setlinecap
1 LJ
0.5 LW
N
869 213.8 M
861.56 213.8 L
S
GR
GS
0.149 GC
2 setlinecap
1 LJ
0.5 LW
N
869 67 M
861.56 67 L
S
GR
GS
[1 0 0 1 117 801] CT
0.149 GC
/Helvetica 30 F
GS
[1 0 0 1 0 0] CT
-59 11 moveto 
1 -1 scale
(0.75) t 
GR
GR
GS
[1 0 0 1 117 654.19995] CT
0.149 GC
/Helvetica 30 F
GS
[1 0 0 1 0 0] CT
-42 11 moveto 
1 -1 scale
(0.8) t 
GR
GR
GS
[1 0 0 1 117 507.39993] CT
0.149 GC
/Helvetica 30 F
GS
[1 0 0 1 0 0] CT
-59 11 moveto 
1 -1 scale
(0.85) t 
GR
GR
GS
[1 0 0 1 117 360.60007] CT
0.149 GC
/Helvetica 30 F
GS
[1 0 0 1 0 0] CT
-42 11 moveto 
1 -1 scale
(0.9) t 
GR
GR
GS
[1 0 0 1 117 213.80003] CT
0.149 GC
/Helvetica 30 F
GS
[1 0 0 1 0 0] CT
-59 11 moveto 
1 -1 scale
(0.95) t 
GR
GR
GS
[1 0 0 1 117 67] CT
0.149 GC
/Helvetica 30 F
GS
[1 0 0 1 0 0] CT
-17 11 moveto 
1 -1 scale
(1) t 
GR
GR
GS
[0 -1 1 0 55 433.99966] CT
0.149 GC
/Helvetica 33 F
GS
[1 0 0 1 0 0] CT
-128 -8 moveto 
1 -1 scale
(True positive rate) t 
GR
GR
GS
[1 0 0 1 497.00049 58.74984] CT
/Helvetica-Bold 33 F
GS
[1 0 0 1 0 0] CT
-59.5 -8 moveto 
1 -1 scale
(VeriEye) t 
GR
GR
GS
0 0.447 0.741 RC
1 LJ
6 LW
N
869 67 M
456.81 101.764 L
456.81 101.764 L
421.667 101.764 L
421.667 101.764 L
387.854 104.925 L
387.854 104.925 L
354.972 108.085 L
354.972 108.085 L
324.561 108.085 L
324.561 108.085 L
296.543 108.085 L
296.543 108.085 L
270.492 108.085 L
270.492 108.085 L
247.445 108.085 L
247.445 108.085 L
225.913 108.085 L
225.913 108.085 L
208.608 111.245 L
208.608 111.245 L
192.499 111.245 L
192.499 111.245 L
179.048 111.245 L
179.048 111.245 L
168.362 111.245 L
168.362 111.245 L
159.43 114.406 L
159.43 114.406 L
151.96 117.566 L
151.96 117.566 L
150.285 117.566 L
150.285 117.566 L
149.142 117.566 L
149.142 117.566 L
147.228 117.566 L
147.228 117.566 L
143.799 117.566 L
143.799 117.566 L
140.742 120.727 L
140.742 120.727 L
137.712 120.727 L
137.712 120.727 L
135.505 120.727 L
135.505 120.727 L
133.14 120.727 L
133.14 120.727 L
131.226 120.727 L
131.226 120.727 L
129.923 120.727 L
129.923 120.727 L
128.886 120.727 L
128.195 120.727 L
127.291 120.727 L
126.361 120.727 L
125.989 120.727 L
125.055 801.088 L
S
GR
GS
0.851 0.325 0.098 RC
1 LJ
6 LW
N
869 67 M
441.277 295.187 L
441.277 295.187 L
406.997 308.497 L
406.997 308.497 L
372.736 319.907 L
372.736 319.907 L
341.46 321.808 L
341.46 321.808 L
311.736 321.808 L
311.736 321.808 L
284.159 325.611 L
284.159 325.611 L
259.532 327.513 L
259.532 327.513 L
237.611 331.316 L
237.611 331.316 L
218.741 335.119 L
218.741 335.119 L
202.741 344.627 L
202.741 344.627 L
189.022 344.627 L
189.022 344.627 L
177.183 348.43 L
177.183 348.43 L
167.482 350.332 L
167.482 350.332 L
159.498 357.938 L
159.498 357.938 L
152.791 363.642 L
152.791 363.642 L
150.728 363.642 L
150.728 363.642 L
149.699 363.642 L
149.699 363.642 L
147.592 365.544 L
147.592 365.544 L
144.598 367.446 L
144.598 367.446 L
141.453 367.446 L
141.453 367.446 L
138.268 367.446 L
138.268 367.446 L
135.638 373.15 L
135.638 373.15 L
133.247 378.855 L
133.247 378.855 L
131.459 384.56 L
131.459 384.56 L
129.911 386.461 L
129.911 386.461 L
128.674 388.363 L
127.769 394.067 L
127.769 394.067 L
127.17 397.871 L
126.638 403.575 L
126.225 403.575 L
125.924 407.378 L
125.123 801.088 L
S
GR
GS
0.929 0.694 0.125 RC
[24 24] 0 setdash
2 LJ
6 LW
N
869 67 M
333.277 691.243 L
333.277 691.243 L
305.115 723.256 L
305.115 723.256 L
278.454 746.121 L
278.454 746.121 L
255.52 764.414 L
255.52 764.414 L
234.609 782.707 L
234.609 782.707 L
219.747 801.088 L
S
GR
GS
0.494 0.184 0.557 RC
[6 6] 0 setdash
2 LJ
6 LW
N
869 67 M
426.518 67 L
396.432 85.123 L
367.08 85.123 L
331.858 103.247 L
302.505 103.247 L
302.505 103.247 L
270.952 121.37 L
248.938 121.37 L
229.125 121.37 L
214.449 121.37 L
214.449 121.37 L
195.371 121.37 L
180.694 121.37 L
167.486 139.494 L
160.148 139.494 L
160.148 139.494 L
151.342 157.617 L
139.602 157.617 L
137.4 157.617 L
137.4 157.617 L
137.4 157.617 L
136.666 157.617 L
135.199 157.617 L
132.264 157.617 L
130.796 157.617 L
130.796 157.617 L
127.127 157.617 L
125.659 157.617 L
125.659 157.617 L
125.659 157.617 L
125.659 157.617 L
124.926 157.617 L
124.926 157.617 L
124.926 157.617 L
124.926 157.617 L
124.926 157.617 L
124.926 157.617 L
124.926 157.617 L
124.926 175.741 L
124.926 175.741 L
124.926 175.741 L
124.926 175.741 L
124.926 175.741 L
124.926 175.741 L
124.926 175.741 L
124.926 175.741 L
124.926 175.741 L
124.926 175.741 L
124.926 175.741 L
124.926 175.741 L
124.926 175.741 L
124.926 175.741 L
124.926 175.741 L
124.926 175.741 L
124.926 193.864 L
124.926 193.864 L
124.926 193.864 L
124.926 193.864 L
124.926 193.864 L
124.926 193.864 L
124.926 193.864 L
124.926 193.864 L
124.926 193.864 L
124.926 193.864 L
124.926 193.864 L
124.926 193.864 L
124.926 193.864 L
124.926 193.864 L
124.926 193.864 L
124.926 193.864 L
124.926 193.864 L
124.926 193.864 L
124.926 193.864 L
124.926 193.864 L
124.926 193.864 L
124.926 193.864 L
124.926 193.864 L
124.926 193.864 L
124.926 193.864 L
124.926 193.864 L
124.926 193.864 L
124.926 193.864 L
124.926 193.864 L
124.926 193.864 L
124.926 193.864 L
124.926 193.864 L
124.926 193.864 L
124.926 193.864 L
124.926 193.864 L
124.926 193.864 L
124.926 193.864 L
124.926 193.864 L
124.926 193.864 L
124.926 193.864 L
124.926 193.864 L
124.926 193.864 L
124.926 193.864 L
124.926 193.864 L
124.926 193.864 L
124.926 193.864 L
124.926 193.864 L
124.926 193.864 L
124.926 193.864 L
124.926 193.864 L
124.926 193.864 L
124.926 193.864 L
124.926 193.864 L
124.926 193.864 L
124.926 193.864 L
124.926 193.864 L
124.926 193.864 L
124.926 193.864 L
124.926 193.864 L
124.926 193.864 L
124.926 193.864 L
124.926 193.864 L
124.926 193.864 L
124.926 193.864 L
124.926 193.864 L
124.926 193.864 L
124.926 193.864 L
124.926 193.864 L
124.926 193.864 L
124.926 193.864 L
124.926 193.864 L
124.926 193.864 L
124.926 193.864 L
124.926 193.864 L
124.926 193.864 L
124.926 193.864 L
124.926 193.864 L
124.926 193.864 L
124.926 193.864 L
124.926 193.864 L
124.926 193.864 L
124.926 193.864 L
124.926 193.864 L
124.926 193.864 L
124.926 193.864 L
124.926 193.864 L
124.926 193.864 L
124.926 193.864 L
124.926 193.864 L
124.926 193.864 L
124.926 193.864 L
124.926 193.864 L
124.926 193.864 L
124.926 193.864 L
124.926 193.864 L
124.926 193.864 L
124.926 193.864 L
124.926 193.864 L
124.926 193.864 L
124.926 193.864 L
124.926 193.864 L
124.926 193.864 L
124.926 193.864 L
124.926 193.864 L
124.926 193.864 L
124.926 193.864 L
124.926 193.864 L
124.926 193.864 L
124.926 193.864 L
124.926 211.988 L
124.926 211.988 L
124.926 211.988 L
124.926 211.988 L
124.926 211.988 L
124.926 211.988 L
124.926 211.988 L
124.926 211.988 L
124.926 211.988 L
124.926 211.988 L
124.926 211.988 L
124.926 211.988 L
124.926 211.988 L
124.926 211.988 L
124.926 211.988 L
124.926 211.988 L
124.926 211.988 L
124.926 211.988 L
124.926 211.988 L
124.926 211.988 L
124.926 211.988 L
124.926 211.988 L
124.926 211.988 L
124.926 211.988 L
124.926 211.988 L
124.926 211.988 L
124.926 211.988 L
124.926 211.988 L
124.926 211.988 L
124.926 211.988 L
124.926 211.988 L
124.926 211.988 L
124.926 211.988 L
124.926 211.988 L
124.926 211.988 L
124.926 211.988 L
124.926 230.111 L
124.926 230.111 L
124.926 230.111 L
124.926 230.111 L
124.926 230.111 L
124.926 230.111 L
124.926 230.111 L
124.926 230.111 L
124.926 230.111 L
124.926 230.111 L
124.926 230.111 L
124.926 230.111 L
124.926 230.111 L
124.926 230.111 L
124.926 230.111 L
124.926 230.111 L
124.926 230.111 L
124.926 230.111 L
124.926 230.111 L
124.926 230.111 L
124.926 230.111 L
124.926 230.111 L
124.926 230.111 L
124.926 230.111 L
124.926 230.111 L
124.926 230.111 L
124.926 230.111 L
124.926 230.111 L
124.926 230.111 L
124.926 230.111 L
124.926 230.111 L
124.926 230.111 L
124.926 230.111 L
124.926 230.111 L
124.926 230.111 L
124.926 230.111 L
124.926 230.111 L
124.926 230.111 L
124.926 230.111 L
124.926 230.111 L
124.926 230.111 L
124.926 230.111 L
124.926 230.111 L
124.926 230.111 L
124.926 230.111 L
124.926 230.111 L
124.926 230.111 L
124.926 230.111 L
124.926 248.235 L
124.926 248.235 L
124.926 248.235 L
124.926 248.235 L
124.926 248.235 L
124.926 248.235 L
124.926 248.235 L
124.926 248.235 L
124.926 248.235 L
124.926 248.235 L
124.926 266.358 L
124.926 266.358 L
124.926 266.358 L
124.926 266.358 L
124.926 266.358 L
124.926 266.358 L
124.926 266.358 L
124.926 266.358 L
124.926 266.358 L
124.926 266.358 L
124.926 266.358 L
124.926 266.358 L
124.926 284.482 L
124.926 284.482 L
124.926 284.482 L
124.926 284.482 L
124.926 284.482 L
124.926 284.482 L
124.926 284.482 L
124.926 284.482 L
124.926 284.482 L
124.926 284.482 L
124.926 284.482 L
124.926 284.482 L
124.926 284.482 L
124.926 284.482 L
124.926 284.482 L
124.926 284.482 L
124.926 284.482 L
124.926 284.482 L
124.926 284.482 L
124.926 284.482 L
124.926 284.482 L
124.926 284.482 L
124.926 284.482 L
124.926 284.482 L
124.926 284.482 L
124.926 284.482 L
124.926 284.482 L
124.926 284.482 L
124.926 284.482 L
124.926 284.482 L
124.926 284.482 L
124.926 284.482 L
124.926 284.482 L
124.926 284.482 L
124.926 284.482 L
124.926 284.482 L
124.926 284.482 L
124.926 284.482 L
124.926 284.482 L
124.926 284.482 L
124.926 284.482 L
124.926 284.482 L
124.926 284.482 L
124.926 284.482 L
124.926 284.482 L
124.926 284.482 L
124.926 284.482 L
124.926 284.482 L
124.926 284.482 L
124.926 284.482 L
124.926 284.482 L
124.926 284.482 L
124.926 284.482 L
124.926 284.482 L
124.926 284.482 L
124.926 284.482 L
124.926 284.482 L
124.926 284.482 L
124.926 284.482 L
124.926 284.482 L
124.926 284.482 L
124.926 284.482 L
124.926 284.482 L
124.926 284.482 L
124.926 284.482 L
124.926 284.482 L
124.926 284.482 L
124.926 284.482 L
124.926 284.482 L
124.926 284.482 L
124.926 284.482 L
124.926 284.482 L
124.926 284.482 L
124.926 284.482 L
124.926 284.482 L
124.926 284.482 L
124.926 284.482 L
124.926 284.482 L
124.926 284.482 L
124.926 284.482 L
124.926 284.482 L
124.926 302.605 L
124.926 302.605 L
124.926 302.605 L
124.926 302.605 L
124.926 302.605 L
124.926 302.605 L
124.926 302.605 L
124.926 302.605 L
124.926 302.605 L
124.926 302.605 L
124.926 302.605 L
124.926 302.605 L
124.926 302.605 L
124.926 302.605 L
124.926 302.605 L
124.926 302.605 L
124.926 302.605 L
124.926 302.605 L
124.926 302.605 L
124.926 320.728 L
124.926 320.728 L
124.926 320.728 L
124.926 320.728 L
124.926 320.728 L
124.926 320.728 L
124.926 320.728 L
124.926 320.728 L
124.926 320.728 L
124.926 320.728 L
124.926 320.728 L
124.926 320.728 L
124.926 320.728 L
124.926 320.728 L
124.926 320.728 L
124.926 320.728 L
124.926 320.728 L
124.926 320.728 L
124.926 320.728 L
124.926 320.728 L
124.926 320.728 L
124.926 320.728 L
124.926 320.728 L
124.926 338.852 L
124.926 338.852 L
124.926 338.852 L
124.926 338.852 L
124.926 338.852 L
124.926 356.975 L
124.926 375.099 L
124.926 375.099 L
124.926 375.099 L
124.926 375.099 L
124.926 375.099 L
124.926 375.099 L
124.926 393.222 L
124.926 393.222 L
124.926 393.222 L
124.926 393.222 L
124.926 393.222 L
124.926 393.222 L
124.926 393.222 L
124.926 393.222 L
124.926 393.222 L
124.926 393.222 L
124.926 393.222 L
124.926 393.222 L
124.926 393.222 L
124.926 393.222 L
124.926 393.222 L
124.926 393.222 L
124.926 393.222 L
124.926 393.222 L
124.926 393.222 L
124.926 411.346 L
124.926 411.346 L
124.926 411.346 L
124.926 411.346 L
124.926 429.469 L
124.926 429.469 L
124.926 429.469 L
124.926 429.469 L
124.926 429.469 L
124.926 429.469 L
124.926 429.469 L
124.926 429.469 L
124.926 429.469 L
124.926 429.469 L
124.926 447.593 L
124.926 465.716 L
124.926 465.716 L
124.926 465.716 L
124.926 465.716 L
124.926 465.716 L
124.926 465.716 L
124.926 465.716 L
124.926 465.716 L
124.926 465.716 L
124.926 465.716 L
124.926 465.716 L
124.926 465.716 L
124.926 483.839 L
124.926 483.839 L
124.926 483.839 L
124.926 483.839 L
124.926 483.839 L
124.926 501.963 L
124.926 501.963 L
124.926 501.963 L
124.926 501.963 L
124.926 501.963 L
124.926 501.963 L
124.926 501.963 L
124.926 501.963 L
124.926 501.963 L
124.926 501.963 L
124.926 501.963 L
124.926 501.963 L
124.926 520.086 L
124.926 520.086 L
124.926 520.086 L
124.926 538.21 L
124.926 538.21 L
124.926 538.21 L
124.926 556.333 L
124.926 556.333 L
124.926 556.333 L
124.926 556.333 L
124.926 556.333 L
124.926 574.457 L
124.926 574.457 L
124.926 574.457 L
124.926 574.457 L
124.926 592.58 L
124.926 592.58 L
124.926 592.58 L
124.926 592.58 L
124.926 592.58 L
124.926 592.58 L
124.926 592.58 L
124.926 592.58 L
124.926 592.58 L
124.926 592.58 L
124.926 592.58 L
124.926 610.704 L
124.926 610.704 L
124.926 610.704 L
124.926 610.704 L
124.926 610.704 L
124.926 628.827 L
124.926 646.951 L
124.926 646.951 L
124.926 646.951 L
124.926 646.951 L
124.926 646.951 L
124.926 646.951 L
124.926 646.951 L
124.926 646.951 L
124.926 646.951 L
124.926 646.951 L
124.926 665.074 L
124.926 665.074 L
124.926 683.198 L
124.926 683.198 L
124.926 683.198 L
124.926 683.198 L
124.926 701.321 L
124.926 701.321 L
124.926 701.321 L
124.926 701.321 L
124.926 701.321 L
124.926 701.321 L
124.926 737.568 L
124.926 737.568 L
124.926 755.691 L
124.926 755.691 L
124.926 755.691 L
124.926 791.938 L
124.926 791.938 L
124.926 791.938 L
124.926 791.938 L
124.926 791.938 L
124.926 801.088 L
S
GR
GS
0.467 0.675 0.188 RC
[24 6 12 6] 0 setdash
2 LJ
6 LW
N
869 67 M
355.977 376.911 L
355.977 376.911 L
325.474 393.222 L
325.474 393.222 L
296.428 409.533 L
296.428 409.533 L
273.572 417.689 L
273.572 417.689 L
250.549 438.078 L
250.549 438.078 L
231.558 478.856 L
231.558 478.856 L
214.192 487.011 L
214.192 487.011 L
197.61 511.478 L
197.61 511.478 L
184.026 535.944 L
184.026 535.944 L
172.822 564.489 L
172.822 564.489 L
164.027 580.8 L
164.027 580.8 L
155.988 597.111 L
155.988 597.111 L
150.106 605.267 L
150.106 605.267 L
145.12 621.578 L
145.12 621.578 L
141.199 633.811 L
141.199 633.811 L
140.023 633.811 L
140.023 633.811 L
139.238 637.889 L
139.238 637.889 L
137.866 650.122 L
137.866 650.122 L
136.241 666.433 L
136.241 666.433 L
134.141 678.667 L
134.141 678.667 L
132.656 694.978 L
132.656 694.978 L
131.256 694.978 L
131.256 694.978 L
129.771 711.289 L
129.771 711.289 L
128.539 715.367 L
127.979 723.522 L
127.979 723.522 L
127.166 731.678 L
126.046 752.067 L
126.046 752.067 L
125.822 764.3 L
125.577 801.088 L
S
GR
GS
1 GC
N
364 791 M
364 625 L
859 625 L
859 791 L
cp
f
GR
GS
[1 0 0 1 401 643] CT
/Helvetica 27 F
GS
[1 0 0 1 0 0] CT
0 10 moveto 
1 -1 scale
(Healthy eyes subset \(EER = 0.0177\)) t 
GR
GR
GS
0 0.447 0.741 RC
1 LJ
6 LW
N
368 643 M
398 643 L
S
GR
GS
[1 0 0 1 401 675.5] CT
/Helvetica 27 F
GS
[1 0 0 1 0 0] CT
0 10 moveto 
1 -1 scale
("Clear" subset \(EER = 0.0904\)) t 
GR
GR
GS
0.851 0.325 0.098 RC
1 LJ
6 LW
N
368 675.5 M
398 675.5 L
S
GR
GS
[1 0 0 1 401 708] CT
/Helvetica 27 F
GS
[1 0 0 1 0 0] CT
0 10 moveto 
1 -1 scale
("Geometry" subset \(EER = 0.2328\)) t 
GR
GR
GS
0.929 0.694 0.125 RC
[24 24] 0 setdash
2 LJ
6 LW
N
368 708 M
398 708 L
S
GR
GS
[1 0 0 1 401 740.5] CT
/Helvetica 27 F
GS
[1 0 0 1 0 0] CT
0 10 moveto 
1 -1 scale
("Tissue" subset \(EER = 0.0332\)) t 
GR
GR
GS
0.494 0.184 0.557 RC
[6 6] 0 setdash
2 LJ
6 LW
N
368 740.5 M
398 740.5 L
S
GR
GS
[1 0 0 1 401 773] CT
/Helvetica 27 F
GS
[1 0 0 1 0 0] CT
0 10 moveto 
1 -1 scale
("Obstructions" subset \(EER = 0.1418\)) t 
GR
GR
GS
0.467 0.675 0.188 RC
[24 6 12 6] 0 setdash
2 LJ
6 LW
N
368 773 M
398 773 L
S
GR
GS
0.149 GC
10.0 ML
0.5 LW
N
364 791 M
364 625 L
859 625 L
859 791 L
cp
S
GR
%%Trailer
%%Pages: 1
%%EOF
