%!PS-Adobe-3.0 EPSF-3.0
%%Creator: (MATLAB, The Mathworks, Inc. Version 9.2.0.538062 \(R2017a\). Operating System: Mac OS X)
%%Title: /Users/trokielewicz/Dropbox/Aplikacje/Texpad/IrisDisease-BookChapter-2016/images/subsets-F-imp-VE.eps
%%CreationDate: 2017-07-25T19:36:15
%%Pages: (atend)
%%BoundingBox: 0 0 960 933
%%LanguageLevel: 3
%%EndComments
%%BeginProlog
%%BeginResource: procset (Apache XML Graphics Std ProcSet) 1.2 0
%%Version: 1.2 0
%%Copyright: (Copyright 2001-2003,2010 The Apache Software Foundation. License terms: http://www.apache.org/licenses/LICENSE-2.0)
/bd{bind def}bind def
/ld{load def}bd
/GR/grestore ld
/M/moveto ld
/LJ/setlinejoin ld
/C/curveto ld
/f/fill ld
/LW/setlinewidth ld
/GC/setgray ld
/t/show ld
/N/newpath ld
/CT/concat ld
/cp/closepath ld
/S/stroke ld
/L/lineto ld
/CC/setcmykcolor ld
/A/ashow ld
/GS/gsave ld
/RC/setrgbcolor ld
/RM/rmoveto ld
/ML/setmiterlimit ld
/re {4 2 roll M
1 index 0 rlineto
0 exch rlineto
neg 0 rlineto
cp } bd
/_ctm matrix def
/_tm matrix def
/BT { _ctm currentmatrix pop matrix _tm copy pop 0 0 moveto } bd
/ET { _ctm setmatrix } bd
/iTm { _ctm setmatrix _tm concat } bd
/Tm { _tm astore pop iTm 0 0 moveto } bd
/ux 0.0 def
/uy 0.0 def
/F {
  /Tp exch def
  /Tf exch def
  Tf findfont Tp scalefont setfont
  /cf Tf def  /cs Tp def
} bd
/ULS {currentpoint /uy exch def /ux exch def} bd
/ULE {
  /Tcx currentpoint pop def
  gsave
  newpath
  cf findfont cs scalefont dup
  /FontMatrix get 0 get /Ts exch def /FontInfo get dup
  /UnderlinePosition get Ts mul /To exch def
  /UnderlineThickness get Ts mul /Tt exch def
  ux uy To add moveto  Tcx uy To add lineto
  Tt setlinewidth stroke
  grestore
} bd
/OLE {
  /Tcx currentpoint pop def
  gsave
  newpath
  cf findfont cs scalefont dup
  /FontMatrix get 0 get /Ts exch def /FontInfo get dup
  /UnderlinePosition get Ts mul /To exch def
  /UnderlineThickness get Ts mul /Tt exch def
  ux uy To add cs add moveto Tcx uy To add cs add lineto
  Tt setlinewidth stroke
  grestore
} bd
/SOE {
  /Tcx currentpoint pop def
  gsave
  newpath
  cf findfont cs scalefont dup
  /FontMatrix get 0 get /Ts exch def /FontInfo get dup
  /UnderlinePosition get Ts mul /To exch def
  /UnderlineThickness get Ts mul /Tt exch def
  ux uy To add cs 10 mul 26 idiv add moveto Tcx uy To add cs 10 mul 26 idiv add lineto
  Tt setlinewidth stroke
  grestore
} bd
/QT {
/Y22 exch store
/X22 exch store
/Y21 exch store
/X21 exch store
currentpoint
/Y21 load 2 mul add 3 div exch
/X21 load 2 mul add 3 div exch
/X21 load 2 mul /X22 load add 3 div
/Y21 load 2 mul /Y22 load add 3 div
/X22 load /Y22 load curveto
} bd
/SSPD {
dup length /d exch dict def
{
/v exch def
/k exch def
currentpagedevice k known {
/cpdv currentpagedevice k get def
v cpdv ne {
/upd false def
/nullv v type /nulltype eq def
/nullcpdv cpdv type /nulltype eq def
nullv nullcpdv or
{
/upd true def
} {
/sametype v type cpdv type eq def
sametype {
v type /arraytype eq {
/vlen v length def
/cpdvlen cpdv length def
vlen cpdvlen eq {
0 1 vlen 1 sub {
/i exch def
/obj v i get def
/cpdobj cpdv i get def
obj cpdobj ne {
/upd true def
exit
} if
} for
} {
/upd true def
} ifelse
} {
v type /dicttype eq {
v {
/dv exch def
/dk exch def
/cpddv cpdv dk get def
dv cpddv ne {
/upd true def
exit
} if
} forall
} {
/upd true def
} ifelse
} ifelse
} if
} ifelse
upd true eq {
d k v put
} if
} if
} if
} forall
d length 0 gt {
d setpagedevice
} if
} bd
/RE { % /NewFontName [NewEncodingArray] /FontName RE -
  findfont dup length dict begin
  {
    1 index /FID ne
    {def} {pop pop} ifelse
  } forall
  /Encoding exch def
  /FontName 1 index def
  currentdict definefont pop
  end
} bind def
%%EndResource
%%BeginResource: procset (Apache XML Graphics EPS ProcSet) 1.0 0
%%Version: 1.0 0
%%Copyright: (Copyright 2002-2003 The Apache Software Foundation. License terms: http://www.apache.org/licenses/LICENSE-2.0)
/BeginEPSF { %def
/b4_Inc_state save def         % Save state for cleanup
/dict_count countdictstack def % Count objects on dict stack
/op_count count 1 sub def      % Count objects on operand stack
userdict begin                 % Push userdict on dict stack
/showpage { } def              % Redefine showpage, { } = null proc
0 setgray 0 setlinecap         % Prepare graphics state
1 setlinewidth 0 setlinejoin
10 setmiterlimit [ ] 0 setdash newpath
/languagelevel where           % If level not equal to 1 then
{pop languagelevel             % set strokeadjust and
1 ne                           % overprint to their defaults.
{false setstrokeadjust false setoverprint
} if
} if
} bd
/EndEPSF { %def
count op_count sub {pop} repeat            % Clean up stacks
countdictstack dict_count sub {end} repeat
b4_Inc_state restore
} bd
%%EndResource
%FOPBeginFontDict
%%IncludeResource: font Courier-Bold
%%IncludeResource: font Helvetica
%%IncludeResource: font Courier-BoldOblique
%%IncludeResource: font Courier-Oblique
%%IncludeResource: font Times-Roman
%%IncludeResource: font Helvetica-BoldOblique
%%IncludeResource: font Helvetica-Bold
%%IncludeResource: font Helvetica-Oblique
%%IncludeResource: font Times-BoldItalic
%%IncludeResource: font Courier
%%IncludeResource: font Times-Italic
%%IncludeResource: font Times-Bold
%%IncludeResource: font Symbol
%%IncludeResource: font ZapfDingbats
%FOPEndFontDict
%%BeginResource: encoding WinAnsiEncoding
/WinAnsiEncoding [
/.notdef /.notdef /.notdef /.notdef /.notdef
/.notdef /.notdef /.notdef /.notdef /.notdef
/.notdef /.notdef /.notdef /.notdef /.notdef
/.notdef /.notdef /.notdef /.notdef /.notdef
/.notdef /.notdef /.notdef /.notdef /.notdef
/.notdef /.notdef /.notdef /.notdef /.notdef
/.notdef /.notdef /space /exclam /quotedbl
/numbersign /dollar /percent /ampersand /quotesingle
/parenleft /parenright /asterisk /plus /comma
/hyphen /period /slash /zero /one
/two /three /four /five /six
/seven /eight /nine /colon /semicolon
/less /equal /greater /question /at
/A /B /C /D /E
/F /G /H /I /J
/K /L /M /N /O
/P /Q /R /S /T
/U /V /W /X /Y
/Z /bracketleft /backslash /bracketright /asciicircum
/underscore /quoteleft /a /b /c
/d /e /f /g /h
/i /j /k /l /m
/n /o /p /q /r
/s /t /u /v /w
/x /y /z /braceleft /bar
/braceright /asciitilde /bullet /Euro /bullet
/quotesinglbase /florin /quotedblbase /ellipsis /dagger
/daggerdbl /circumflex /perthousand /Scaron /guilsinglleft
/OE /bullet /Zcaron /bullet /bullet
/quoteleft /quoteright /quotedblleft /quotedblright /bullet
/endash /emdash /asciitilde /trademark /scaron
/guilsinglright /oe /bullet /zcaron /Ydieresis
/space /exclamdown /cent /sterling /currency
/yen /brokenbar /section /dieresis /copyright
/ordfeminine /guillemotleft /logicalnot /sfthyphen /registered
/macron /degree /plusminus /twosuperior /threesuperior
/acute /mu /paragraph /middot /cedilla
/onesuperior /ordmasculine /guillemotright /onequarter /onehalf
/threequarters /questiondown /Agrave /Aacute /Acircumflex
/Atilde /Adieresis /Aring /AE /Ccedilla
/Egrave /Eacute /Ecircumflex /Edieresis /Igrave
/Iacute /Icircumflex /Idieresis /Eth /Ntilde
/Ograve /Oacute /Ocircumflex /Otilde /Odieresis
/multiply /Oslash /Ugrave /Uacute /Ucircumflex
/Udieresis /Yacute /Thorn /germandbls /agrave
/aacute /acircumflex /atilde /adieresis /aring
/ae /ccedilla /egrave /eacute /ecircumflex
/edieresis /igrave /iacute /icircumflex /idieresis
/eth /ntilde /ograve /oacute /ocircumflex
/otilde /odieresis /divide /oslash /ugrave
/uacute /ucircumflex /udieresis /yacute /thorn
/ydieresis
] def
%%EndResource
%FOPBeginFontReencode
/Courier-Bold findfont
dup length dict begin
  {1 index /FID ne {def} {pop pop} ifelse} forall
  /Encoding WinAnsiEncoding def
  currentdict
end
/Courier-Bold exch definefont pop
/Helvetica findfont
dup length dict begin
  {1 index /FID ne {def} {pop pop} ifelse} forall
  /Encoding WinAnsiEncoding def
  currentdict
end
/Helvetica exch definefont pop
/Courier-BoldOblique findfont
dup length dict begin
  {1 index /FID ne {def} {pop pop} ifelse} forall
  /Encoding WinAnsiEncoding def
  currentdict
end
/Courier-BoldOblique exch definefont pop
/Courier-Oblique findfont
dup length dict begin
  {1 index /FID ne {def} {pop pop} ifelse} forall
  /Encoding WinAnsiEncoding def
  currentdict
end
/Courier-Oblique exch definefont pop
/Times-Roman findfont
dup length dict begin
  {1 index /FID ne {def} {pop pop} ifelse} forall
  /Encoding WinAnsiEncoding def
  currentdict
end
/Times-Roman exch definefont pop
/Helvetica-BoldOblique findfont
dup length dict begin
  {1 index /FID ne {def} {pop pop} ifelse} forall
  /Encoding WinAnsiEncoding def
  currentdict
end
/Helvetica-BoldOblique exch definefont pop
/Helvetica-Bold findfont
dup length dict begin
  {1 index /FID ne {def} {pop pop} ifelse} forall
  /Encoding WinAnsiEncoding def
  currentdict
end
/Helvetica-Bold exch definefont pop
/Helvetica-Oblique findfont
dup length dict begin
  {1 index /FID ne {def} {pop pop} ifelse} forall
  /Encoding WinAnsiEncoding def
  currentdict
end
/Helvetica-Oblique exch definefont pop
/Times-BoldItalic findfont
dup length dict begin
  {1 index /FID ne {def} {pop pop} ifelse} forall
  /Encoding WinAnsiEncoding def
  currentdict
end
/Times-BoldItalic exch definefont pop
/Courier findfont
dup length dict begin
  {1 index /FID ne {def} {pop pop} ifelse} forall
  /Encoding WinAnsiEncoding def
  currentdict
end
/Courier exch definefont pop
/Times-Italic findfont
dup length dict begin
  {1 index /FID ne {def} {pop pop} ifelse} forall
  /Encoding WinAnsiEncoding def
  currentdict
end
/Times-Italic exch definefont pop
/Times-Bold findfont
dup length dict begin
  {1 index /FID ne {def} {pop pop} ifelse} forall
  /Encoding WinAnsiEncoding def
  currentdict
end
/Times-Bold exch definefont pop
%FOPEndFontReencode
%%EndProlog
%%Page: 1 1
%%PageBoundingBox: 0 0 960 933
%%BeginPageSetup
[1 0 0 -1 0 933] CT
%%EndPageSetup
GS
[1.03672 0 0 1.03667 0 0] CT
N
0 0 M
926 0 L
926 900 L
0 900 L
0 0 L
cp
clip
1 GC
N
0 0 926 900 re
f
GR
GS
[1.03672 0 0 1.03667 0 0] CT
1 GC
N
0 0 926 900 re
f
GR
GS
[1.03672 0 0 1.03667 0 0] CT
1 GC
N
120 801 M
838 801 L
838 67 L
120 67 L
cp
f
GR
GS
[1.03672 0 0 1.03667 0 0] CT
0.873 GC
1 LJ
0.482 LW
N
120 801 M
120 67 L
S
GR
GS
[1.03672 0 0 1.03667 0 0] CT
0.873 GC
1 LJ
0.482 LW
N
239.667 801 M
239.667 67 L
S
GR
GS
[1.03672 0 0 1.03667 0 0] CT
0.873 GC
1 LJ
0.482 LW
N
359.333 801 M
359.333 67 L
S
GR
GS
[1.03672 0 0 1.03667 0 0] CT
0.873 GC
1 LJ
0.482 LW
N
479 801 M
479 67 L
S
GR
GS
[1.03672 0 0 1.03667 0 0] CT
0.873 GC
1 LJ
0.482 LW
N
598.667 801 M
598.667 67 L
S
GR
GS
[1.03672 0 0 1.03667 0 0] CT
0.873 GC
1 LJ
0.482 LW
N
718.333 801 M
718.333 67 L
S
GR
GS
[1.03672 0 0 1.03667 0 0] CT
0.873 GC
1 LJ
0.482 LW
N
838 801 M
838 67 L
S
GR
GS
[1.03672 0 0 1.03667 0 0] CT
0.873 GC
1 LJ
0.482 LW
N
838 801 M
120 801 L
S
GR
GS
[1.03672 0 0 1.03667 0 0] CT
0.873 GC
1 LJ
0.482 LW
N
838 727.6 M
120 727.6 L
S
GR
GS
[1.03672 0 0 1.03667 0 0] CT
0.873 GC
1 LJ
0.482 LW
N
838 654.2 M
120 654.2 L
S
GR
GS
[1.03672 0 0 1.03667 0 0] CT
0.873 GC
1 LJ
0.482 LW
N
838 580.8 M
120 580.8 L
S
GR
GS
[1.03672 0 0 1.03667 0 0] CT
0.873 GC
1 LJ
0.482 LW
N
838 507.4 M
120 507.4 L
S
GR
GS
[1.03672 0 0 1.03667 0 0] CT
0.873 GC
1 LJ
0.482 LW
N
838 434 M
120 434 L
S
GR
GS
[1.03672 0 0 1.03667 0 0] CT
0.873 GC
1 LJ
0.482 LW
N
838 360.6 M
120 360.6 L
S
GR
GS
[1.03672 0 0 1.03667 0 0] CT
0.873 GC
1 LJ
0.482 LW
N
838 287.2 M
120 287.2 L
S
GR
GS
[1.03672 0 0 1.03667 0 0] CT
0.873 GC
1 LJ
0.482 LW
N
838 213.8 M
120 213.8 L
S
GR
GS
[1.03672 0 0 1.03667 0 0] CT
0.873 GC
1 LJ
0.482 LW
N
838 140.4 M
120 140.4 L
S
GR
GS
[1.03672 0 0 1.03667 0 0] CT
0.873 GC
1 LJ
0.482 LW
N
838 67 M
120 67 L
S
GR
GS
[1.03672 0 0 1.03667 0 0] CT
0.149 GC
2 setlinecap
1 LJ
0.482 LW
N
120 801 M
838 801 L
S
GR
GS
[1.03672 0 0 1.03667 0 0] CT
0.149 GC
2 setlinecap
1 LJ
0.482 LW
N
120 67 M
838 67 L
S
GR
GS
[1.03672 0 0 1.03667 0 0] CT
0.149 GC
2 setlinecap
1 LJ
0.482 LW
N
120 801 M
120 793.66 L
S
GR
GS
[1.03672 0 0 1.03667 0 0] CT
0.149 GC
2 setlinecap
1 LJ
0.482 LW
N
239.667 801 M
239.667 793.66 L
S
GR
GS
[1.03672 0 0 1.03667 0 0] CT
0.149 GC
2 setlinecap
1 LJ
0.482 LW
N
359.333 801 M
359.333 793.66 L
S
GR
GS
[1.03672 0 0 1.03667 0 0] CT
0.149 GC
2 setlinecap
1 LJ
0.482 LW
N
479 801 M
479 793.66 L
S
GR
GS
[1.03672 0 0 1.03667 0 0] CT
0.149 GC
2 setlinecap
1 LJ
0.482 LW
N
598.667 801 M
598.667 793.66 L
S
GR
GS
[1.03672 0 0 1.03667 0 0] CT
0.149 GC
2 setlinecap
1 LJ
0.482 LW
N
718.333 801 M
718.333 793.66 L
S
GR
GS
[1.03672 0 0 1.03667 0 0] CT
0.149 GC
2 setlinecap
1 LJ
0.482 LW
N
838 801 M
838 793.66 L
S
GR
GS
[1.03672 0 0 1.03667 0 0] CT
0.149 GC
2 setlinecap
1 LJ
0.482 LW
N
120 67 M
120 74.34 L
S
GR
GS
[1.03672 0 0 1.03667 0 0] CT
0.149 GC
2 setlinecap
1 LJ
0.482 LW
N
239.667 67 M
239.667 74.34 L
S
GR
GS
[1.03672 0 0 1.03667 0 0] CT
0.149 GC
2 setlinecap
1 LJ
0.482 LW
N
359.333 67 M
359.333 74.34 L
S
GR
GS
[1.03672 0 0 1.03667 0 0] CT
0.149 GC
2 setlinecap
1 LJ
0.482 LW
N
479 67 M
479 74.34 L
S
GR
GS
[1.03672 0 0 1.03667 0 0] CT
0.149 GC
2 setlinecap
1 LJ
0.482 LW
N
598.667 67 M
598.667 74.34 L
S
GR
GS
[1.03672 0 0 1.03667 0 0] CT
0.149 GC
2 setlinecap
1 LJ
0.482 LW
N
718.333 67 M
718.333 74.34 L
S
GR
GS
[1.03672 0 0 1.03667 0 0] CT
0.149 GC
2 setlinecap
1 LJ
0.482 LW
N
838 67 M
838 74.34 L
S
GR
GS
[1.03672 0 0 1.03667 124.40605 838.44333] CT
0.149 GC
/Helvetica 28.939 F
GS
[1 0 0 1 0 0] CT
-8.5 28 moveto 
1 -1 scale
(0) t 
GR
GR
GS
[1.03672 0 0 1.03667 248.46653 838.44333] CT
0.149 GC
/Helvetica 28.939 F
GS
[1 0 0 1 0 0] CT
-16.5 28 moveto 
1 -1 scale
(10) t 
GR
GR
GS
[1.03672 0 0 1.03667 372.52701 838.44333] CT
0.149 GC
/Helvetica 28.939 F
GS
[1 0 0 1 0 0] CT
-16.5 28 moveto 
1 -1 scale
(20) t 
GR
GR
GS
[1.03672 0 0 1.03667 496.58747 838.44333] CT
0.149 GC
/Helvetica 28.939 F
GS
[1 0 0 1 0 0] CT
-16.5 28 moveto 
1 -1 scale
(30) t 
GR
GR
GS
[1.03672 0 0 1.03667 620.64797 838.44333] CT
0.149 GC
/Helvetica 28.939 F
GS
[1 0 0 1 0 0] CT
-16.5 28 moveto 
1 -1 scale
(40) t 
GR
GR
GS
[1.03672 0 0 1.03667 744.7084 838.44333] CT
0.149 GC
/Helvetica 28.939 F
GS
[1 0 0 1 0 0] CT
-16.5 28 moveto 
1 -1 scale
(50) t 
GR
GR
GS
[1.03672 0 0 1.03667 868.7689 838.44333] CT
0.149 GC
/Helvetica 28.939 F
GS
[1 0 0 1 0 0] CT
-16.5 28 moveto 
1 -1 scale
(60) t 
GR
GR
GS
[1.03672 0 0 1.03667 496.58782 875.76333] CT
0.149 GC
/Helvetica 31.833 F
GS
[1 0 0 1 0 0] CT
-8.5 31 moveto 
1 -1 scale
(x) t 
GR
GR
GS
[1.03672 0 0 1.03667 0 0] CT
0.149 GC
2 setlinecap
1 LJ
0.482 LW
N
120 801 M
120 67 L
S
GR
GS
[1.03672 0 0 1.03667 0 0] CT
0.149 GC
2 setlinecap
1 LJ
0.482 LW
N
838 801 M
838 67 L
S
GR
GS
[1.03672 0 0 1.03667 0 0] CT
0.149 GC
2 setlinecap
1 LJ
0.482 LW
N
120 801 M
127.34 801 L
S
GR
GS
[1.03672 0 0 1.03667 0 0] CT
0.149 GC
2 setlinecap
1 LJ
0.482 LW
N
120 727.6 M
127.34 727.6 L
S
GR
GS
[1.03672 0 0 1.03667 0 0] CT
0.149 GC
2 setlinecap
1 LJ
0.482 LW
N
120 654.2 M
127.34 654.2 L
S
GR
GS
[1.03672 0 0 1.03667 0 0] CT
0.149 GC
2 setlinecap
1 LJ
0.482 LW
N
120 580.8 M
127.34 580.8 L
S
GR
GS
[1.03672 0 0 1.03667 0 0] CT
0.149 GC
2 setlinecap
1 LJ
0.482 LW
N
120 507.4 M
127.34 507.4 L
S
GR
GS
[1.03672 0 0 1.03667 0 0] CT
0.149 GC
2 setlinecap
1 LJ
0.482 LW
N
120 434 M
127.34 434 L
S
GR
GS
[1.03672 0 0 1.03667 0 0] CT
0.149 GC
2 setlinecap
1 LJ
0.482 LW
N
120 360.6 M
127.34 360.6 L
S
GR
GS
[1.03672 0 0 1.03667 0 0] CT
0.149 GC
2 setlinecap
1 LJ
0.482 LW
N
120 287.2 M
127.34 287.2 L
S
GR
GS
[1.03672 0 0 1.03667 0 0] CT
0.149 GC
2 setlinecap
1 LJ
0.482 LW
N
120 213.8 M
127.34 213.8 L
S
GR
GS
[1.03672 0 0 1.03667 0 0] CT
0.149 GC
2 setlinecap
1 LJ
0.482 LW
N
120 140.4 M
127.34 140.4 L
S
GR
GS
[1.03672 0 0 1.03667 0 0] CT
0.149 GC
2 setlinecap
1 LJ
0.482 LW
N
120 67 M
127.34 67 L
S
GR
GS
[1.03672 0 0 1.03667 0 0] CT
0.149 GC
2 setlinecap
1 LJ
0.482 LW
N
838 801 M
830.66 801 L
S
GR
GS
[1.03672 0 0 1.03667 0 0] CT
0.149 GC
2 setlinecap
1 LJ
0.482 LW
N
838 727.6 M
830.66 727.6 L
S
GR
GS
[1.03672 0 0 1.03667 0 0] CT
0.149 GC
2 setlinecap
1 LJ
0.482 LW
N
838 654.2 M
830.66 654.2 L
S
GR
GS
[1.03672 0 0 1.03667 0 0] CT
0.149 GC
2 setlinecap
1 LJ
0.482 LW
N
838 580.8 M
830.66 580.8 L
S
GR
GS
[1.03672 0 0 1.03667 0 0] CT
0.149 GC
2 setlinecap
1 LJ
0.482 LW
N
838 507.4 M
830.66 507.4 L
S
GR
GS
[1.03672 0 0 1.03667 0 0] CT
0.149 GC
2 setlinecap
1 LJ
0.482 LW
N
838 434 M
830.66 434 L
S
GR
GS
[1.03672 0 0 1.03667 0 0] CT
0.149 GC
2 setlinecap
1 LJ
0.482 LW
N
838 360.6 M
830.66 360.6 L
S
GR
GS
[1.03672 0 0 1.03667 0 0] CT
0.149 GC
2 setlinecap
1 LJ
0.482 LW
N
838 287.2 M
830.66 287.2 L
S
GR
GS
[1.03672 0 0 1.03667 0 0] CT
0.149 GC
2 setlinecap
1 LJ
0.482 LW
N
838 213.8 M
830.66 213.8 L
S
GR
GS
[1.03672 0 0 1.03667 0 0] CT
0.149 GC
2 setlinecap
1 LJ
0.482 LW
N
838 140.4 M
830.66 140.4 L
S
GR
GS
[1.03672 0 0 1.03667 0 0] CT
0.149 GC
2 setlinecap
1 LJ
0.482 LW
N
838 67 M
830.66 67 L
S
GR
GS
[1.03672 0 0 1.03667 116.33232 830.37] CT
0.149 GC
/Helvetica 28.939 F
GS
[1 0 0 1 0 0] CT
-17 10.5 moveto 
1 -1 scale
(0) t 
GR
GR
GS
[1.03672 0 0 1.03667 116.33232 754.27864] CT
0.149 GC
/Helvetica 28.939 F
GS
[1 0 0 1 0 0] CT
-41 10.5 moveto 
1 -1 scale
(0.1) t 
GR
GR
GS
[1.03672 0 0 1.03667 116.33232 678.18735] CT
0.149 GC
/Helvetica 28.939 F
GS
[1 0 0 1 0 0] CT
-41 10.5 moveto 
1 -1 scale
(0.2) t 
GR
GR
GS
[1.03672 0 0 1.03667 116.33232 602.09599] CT
0.149 GC
/Helvetica 28.939 F
GS
[1 0 0 1 0 0] CT
-41 10.5 moveto 
1 -1 scale
(0.3) t 
GR
GR
GS
[1.03672 0 0 1.03667 116.33232 526.00466] CT
0.149 GC
/Helvetica 28.939 F
GS
[1 0 0 1 0 0] CT
-41 10.5 moveto 
1 -1 scale
(0.4) t 
GR
GR
GS
[1.03672 0 0 1.03667 116.33232 449.91333] CT
0.149 GC
/Helvetica 28.939 F
GS
[1 0 0 1 0 0] CT
-41 10.5 moveto 
1 -1 scale
(0.5) t 
GR
GR
GS
[1.03672 0 0 1.03667 116.33232 373.82197] CT
0.149 GC
/Helvetica 28.939 F
GS
[1 0 0 1 0 0] CT
-41 10.5 moveto 
1 -1 scale
(0.6) t 
GR
GR
GS
[1.03672 0 0 1.03667 116.33232 297.73068] CT
0.149 GC
/Helvetica 28.939 F
GS
[1 0 0 1 0 0] CT
-41 10.5 moveto 
1 -1 scale
(0.7) t 
GR
GR
GS
[1.03672 0 0 1.03667 116.33232 221.63932] CT
0.149 GC
/Helvetica 28.939 F
GS
[1 0 0 1 0 0] CT
-41 10.5 moveto 
1 -1 scale
(0.8) t 
GR
GR
GS
[1.03672 0 0 1.03667 116.33232 145.54803] CT
0.149 GC
/Helvetica 28.939 F
GS
[1 0 0 1 0 0] CT
-41 10.5 moveto 
1 -1 scale
(0.9) t 
GR
GR
GS
[1.03672 0 0 1.03667 116.33232 69.45667] CT
0.149 GC
/Helvetica 28.939 F
GS
[1 0 0 1 0 0] CT
-17 10.5 moveto 
1 -1 scale
(1) t 
GR
GR
GS
[0 -1.03667 1.03672 0 70.71677 449.91299] CT
0.149 GC
/Helvetica 31.833 F
GS
[1 0 0 1 0 0] CT
-26 -7 moveto 
1 -1 scale
(F\(x\)) t 
GR
GR
GS
[1.03672 0 0 1.03667 496.58795 61.20669] CT
/Helvetica-Bold 31.833 F
GS
[1 0 0 1 0 0] CT
-57.5 -7 moveto 
1 -1 scale
(VeriEye) t 
GR
GR
GS
[1.03672 0 0 1.03667 0 0] CT
0 0.447 0.741 RC
1 LJ
5.788 LW
N
120 801 M
120 394.391 L
131.967 394.391 L
131.967 359.724 L
143.933 359.724 L
143.933 326.369 L
155.9 326.369 L
155.9 293.931 L
167.867 293.931 L
167.867 263.933 L
179.833 263.933 L
179.833 236.294 L
191.8 236.294 L
191.8 210.596 L
203.767 210.596 L
203.767 187.861 L
215.733 187.861 L
215.733 166.62 L
227.7 166.62 L
227.7 149.549 L
239.667 149.549 L
239.667 133.658 L
251.633 133.658 L
251.633 120.389 L
263.6 120.389 L
263.6 109.848 L
275.567 109.848 L
275.567 101.037 L
287.533 101.037 L
287.533 93.668 L
299.5 93.668 L
299.5 92.016 L
311.467 92.016 L
311.467 90.889 L
323.433 90.889 L
323.433 89.001 L
335.4 89.001 L
335.4 85.618 L
347.367 85.618 L
347.367 82.602 L
359.333 82.602 L
359.333 79.613 L
371.3 79.613 L
371.3 77.437 L
383.267 77.437 L
383.267 75.103 L
395.233 75.103 L
395.233 73.215 L
407.2 73.215 L
407.2 71.93 L
419.167 71.93 L
419.167 70.907 L
431.133 70.907 L
431.133 70.225 L
443.1 70.225 L
443.1 69.334 L
455.067 69.334 L
455.067 68.888 L
467.033 68.888 L
467.033 68.416 L
479 68.416 L
479 68.049 L
490.967 68.049 L
490.967 67.839 L
502.933 67.839 L
502.933 67.708 L
514.9 67.708 L
514.9 67.498 L
526.867 67.498 L
526.867 67.446 L
538.833 67.446 L
538.833 67.288 L
562.767 67.288 L
562.767 67.236 L
574.733 67.236 L
574.733 67.184 L
598.667 67.184 L
598.667 67.105 L
610.633 67.105 L
610.633 67 L
S
GR
GS
[1.03672 0 0 1.03667 0 0] CT
0.851 0.325 0.098 RC
1 LJ
5.788 LW
N
120 801 M
120 379.068 L
131.967 379.068 L
131.967 345.253 L
143.933 345.253 L
143.933 311.455 L
155.9 311.455 L
155.9 280.602 L
167.867 280.602 L
167.867 251.281 L
179.833 251.281 L
179.833 224.078 L
191.8 224.078 L
191.8 199.784 L
203.767 199.784 L
203.767 178.159 L
215.733 178.159 L
215.733 159.545 L
227.7 159.545 L
227.7 143.762 L
239.667 143.762 L
239.667 130.228 L
251.633 130.228 L
251.633 118.55 L
263.6 118.55 L
263.6 108.98 L
275.567 108.98 L
275.567 101.104 L
287.533 101.104 L
287.533 94.488 L
299.5 94.488 L
299.5 92.453 L
311.467 92.453 L
311.467 91.438 L
323.433 91.438 L
323.433 89.36 L
335.4 89.36 L
335.4 86.406 L
347.367 86.406 L
347.367 83.304 L
359.333 83.304 L
359.333 80.162 L
371.3 80.162 L
371.3 77.567 L
383.267 77.567 L
383.267 75.209 L
395.233 75.209 L
395.233 73.445 L
407.2 73.445 L
407.2 71.918 L
419.167 71.918 L
419.167 70.697 L
431.133 70.697 L
431.133 69.805 L
443.1 69.805 L
443.1 69.214 L
455.067 69.214 L
455.067 68.689 L
467.033 68.689 L
467.033 68.282 L
479 68.282 L
479 67.985 L
490.967 67.985 L
490.967 67.761 L
502.933 67.761 L
502.933 67.578 L
514.9 67.578 L
514.9 67.424 L
526.867 67.424 L
526.867 67.337 L
538.833 67.337 L
538.833 67.236 L
550.8 67.236 L
550.8 67.179 L
562.767 67.179 L
562.767 67.136 L
574.733 67.136 L
574.733 67.101 L
586.7 67.101 L
586.7 67.074 L
598.667 67.074 L
598.667 67.044 L
610.633 67.044 L
610.633 67.035 L
634.567 67.035 L
634.567 67.013 L
646.533 67.013 L
646.533 67.009 L
670.467 67.009 L
670.467 67.004 L
682.433 67.004 L
682.433 67 L
S
GR
GS
[1.03672 0 0 1.03667 0 0] CT
0.929 0.694 0.125 RC
[20 20] 0 setdash
2 LJ
5.788 LW
N
120 801 M
120 272.53 L
131.967 272.53 L
131.967 244.75 L
143.933 244.75 L
143.933 218.45 L
155.9 218.45 L
155.9 195.826 L
167.867 195.826 L
167.867 175.198 L
179.833 175.198 L
179.833 156.96 L
191.8 156.96 L
191.8 141.139 L
203.767 141.139 L
203.767 127.718 L
215.733 127.718 L
215.733 116.209 L
227.7 116.209 L
227.7 107.016 L
239.667 107.016 L
239.667 99.147 L
251.633 99.147 L
251.633 92.841 L
263.6 92.841 L
263.6 87.978 L
275.567 87.978 L
275.567 83.869 L
287.533 83.869 L
287.533 80.403 L
299.5 80.403 L
299.5 79.456 L
311.467 79.456 L
311.467 78.96 L
323.433 78.96 L
323.433 77.912 L
335.4 77.912 L
335.4 76.524 L
347.367 76.524 L
347.367 75.025 L
359.333 75.025 L
359.333 73.757 L
371.3 73.757 L
371.3 72.479 L
383.267 72.479 L
383.267 71.302 L
395.233 71.302 L
395.233 70.41 L
407.2 70.41 L
407.2 69.62 L
419.167 69.62 L
419.167 69.114 L
431.133 69.114 L
431.133 68.774 L
443.1 68.774 L
443.1 68.434 L
455.067 68.434 L
455.067 68.195 L
467.033 68.195 L
467.033 67.965 L
479 67.965 L
479 67.781 L
490.967 67.781 L
490.967 67.643 L
502.933 67.643 L
502.933 67.542 L
514.9 67.542 L
514.9 67.441 L
526.867 67.441 L
526.867 67.34 L
538.833 67.34 L
538.833 67.285 L
550.8 67.285 L
550.8 67.23 L
562.767 67.23 L
562.767 67.193 L
574.733 67.193 L
574.733 67.129 L
598.667 67.129 L
598.667 67.092 L
610.633 67.092 L
610.633 67.074 L
622.6 67.074 L
622.6 67.055 L
646.533 67.055 L
646.533 67.046 L
658.5 67.046 L
658.5 67.037 L
670.467 67.037 L
670.467 67.018 L
694.4 67.018 L
694.4 67.009 L
742.267 67.009 L
742.267 67 L
S
GR
GS
[1.03672 0 0 1.03667 0 0] CT
0.494 0.184 0.557 RC
[5 5] 0 setdash
2 LJ
5.788 LW
N
120 801 M
120 364.509 L
131.967 364.509 L
131.967 334.83 L
143.933 334.83 L
143.933 305.876 L
155.9 305.876 L
155.9 271.13 L
167.867 271.13 L
167.867 242.176 L
179.833 242.176 L
179.833 211.049 L
191.8 211.049 L
191.8 189.333 L
203.767 189.333 L
203.767 169.789 L
215.733 169.789 L
215.733 155.312 L
227.7 155.312 L
227.7 136.491 L
239.667 136.491 L
239.667 122.014 L
251.633 122.014 L
251.633 108.984 L
263.6 108.984 L
263.6 101.746 L
275.567 101.746 L
275.567 93.059 L
287.533 93.059 L
287.533 81.477 L
299.5 81.477 L
299.5 79.306 L
323.433 79.306 L
323.433 78.582 L
335.4 78.582 L
335.4 77.134 L
347.367 77.134 L
347.367 74.239 L
359.333 74.239 L
359.333 72.791 L
371.3 72.791 L
371.3 69.172 L
383.267 69.172 L
383.267 67.724 L
419.167 67.724 L
419.167 67 L
S
GR
GS
[1.03672 0 0 1.03667 0 0] CT
0.467 0.675 0.188 RC
[20 5 10 5] 0 setdash
2 LJ
5.788 LW
N
120 801 M
120 294.923 L
131.967 294.923 L
131.967 264.833 L
143.933 264.833 L
143.933 236.181 L
155.9 236.181 L
155.9 213.634 L
167.867 213.634 L
167.867 190.922 L
179.833 190.922 L
179.833 172.189 L
191.8 172.189 L
191.8 155.058 L
203.767 155.058 L
203.767 138.701 L
215.733 138.701 L
215.733 125.3 L
227.7 125.3 L
227.7 114.248 L
239.667 114.248 L
239.667 105.572 L
251.633 105.572 L
251.633 97.642 L
263.6 97.642 L
263.6 91.84 L
275.567 91.84 L
275.567 86.921 L
287.533 86.921 L
287.533 83.053 L
299.5 83.053 L
299.5 81.893 L
311.467 81.893 L
311.467 81.119 L
323.433 81.119 L
323.433 79.765 L
335.4 79.765 L
335.4 78.163 L
347.367 78.163 L
347.367 76.09 L
359.333 76.09 L
359.333 74.626 L
371.3 74.626 L
371.3 73.244 L
383.267 73.244 L
383.267 71.78 L
395.233 71.78 L
395.233 70.564 L
407.2 70.564 L
407.2 70.012 L
419.167 70.012 L
419.167 69.21 L
431.133 69.21 L
431.133 68.962 L
443.1 68.962 L
443.1 68.658 L
455.067 68.658 L
455.067 68.326 L
467.033 68.326 L
467.033 68.105 L
479 68.105 L
479 67.884 L
490.967 67.884 L
490.967 67.691 L
502.933 67.691 L
502.933 67.608 L
514.9 67.608 L
514.9 67.442 L
526.867 67.442 L
526.867 67.387 L
538.833 67.387 L
538.833 67.304 L
550.8 67.304 L
550.8 67.276 L
562.767 67.276 L
562.767 67.221 L
574.733 67.221 L
574.733 67.193 L
586.7 67.193 L
586.7 67.111 L
598.667 67.111 L
598.667 67.083 L
622.6 67.083 L
622.6 67.055 L
634.567 67.055 L
634.567 67.028 L
646.533 67.028 L
646.533 67 L
S
GR
GS
[1.03672 0 0 1.03667 0 0] CT
1 GC
N
409 781 M
409 620 L
795 620 L
795 781 L
cp
f
GR
GS
[1.03672 0 0 1.03667 462.37581 660.875] CT
/Helvetica 26.045 F
GS
[1 0 0 1 0 0] CT
0 9.5 moveto 
1 -1 scale
(Healthy \(mean = 3.1443\)) t 
GR
GR
GS
[1.03672 0 0 1.03667 0 0] CT
0 0.447 0.741 RC
1 LJ
5.788 LW
N
413 637.5 M
443 637.5 L
S
GR
GS
[1.03672 0 0 1.03667 462.37581 693.53] CT
/Helvetica 26.045 F
GS
[1 0 0 1 0 0] CT
0 9.5 moveto 
1 -1 scale
(Clear \(mean = 2.9813\)) t 
GR
GR
GS
[1.03672 0 0 1.03667 0 0] CT
0.851 0.325 0.098 RC
1 LJ
5.788 LW
N
413 669 M
443 669 L
S
GR
GS
[1.03672 0 0 1.03667 462.37581 726.185] CT
/Helvetica 26.045 F
GS
[1 0 0 1 0 0] CT
0 9.5 moveto 
1 -1 scale
(Geometry \(mean = 1.7467\)) t 
GR
GR
GS
[1.03672 0 0 1.03667 0 0] CT
0.929 0.694 0.125 RC
[20 20] 0 setdash
2 LJ
5.788 LW
N
413 700.5 M
443 700.5 L
S
GR
GS
[1.03672 0 0 1.03667 462.37581 758.84] CT
/Helvetica 26.045 F
GS
[1 0 0 1 0 0] CT
0 9.5 moveto 
1 -1 scale
(Tissue \(mean = 2.6519\)) t 
GR
GR
GS
[1.03672 0 0 1.03667 0 0] CT
0.494 0.184 0.557 RC
[5 5] 0 setdash
2 LJ
5.788 LW
N
413 732 M
443 732 L
S
GR
GS
[1.03672 0 0 1.03667 462.37581 791.495] CT
/Helvetica 26.045 F
GS
[1 0 0 1 0 0] CT
0 9.5 moveto 
1 -1 scale
(Obstructions \(mean = 1.9971\)) t 
GR
GR
GS
[1.03672 0 0 1.03667 0 0] CT
0.467 0.675 0.188 RC
[20 5 10 5] 0 setdash
2 LJ
5.788 LW
N
413 763.5 M
443 763.5 L
S
GR
GS
[1.03672 0 0 1.03667 0 0] CT
0.149 GC
10.0 ML
0.482 LW
N
409 781 M
409 620 L
795 620 L
795 781 L
cp
S
GR
%%Trailer
%%Pages: 1
%%EOF
