%!PS-Adobe-3.0 EPSF-3.0
%%Creator: (MATLAB, The Mathworks, Inc. Version 9.2.0.538062 \(R2017a\). Operating System: Mac OS X)
%%Title: /Users/trokielewicz/Dropbox/Aplikacje/Texpad/IrisDisease-BookChapter-2016/images/subsets-F-imp-ML.eps
%%CreationDate: 2017-07-25T19:34:28
%%Pages: (atend)
%%BoundingBox: 0 0 960 933
%%LanguageLevel: 3
%%EndComments
%%BeginProlog
%%BeginResource: procset (Apache XML Graphics Std ProcSet) 1.2 0
%%Version: 1.2 0
%%Copyright: (Copyright 2001-2003,2010 The Apache Software Foundation. License terms: http://www.apache.org/licenses/LICENSE-2.0)
/bd{bind def}bind def
/ld{load def}bd
/GR/grestore ld
/M/moveto ld
/LJ/setlinejoin ld
/C/curveto ld
/f/fill ld
/LW/setlinewidth ld
/GC/setgray ld
/t/show ld
/N/newpath ld
/CT/concat ld
/cp/closepath ld
/S/stroke ld
/L/lineto ld
/CC/setcmykcolor ld
/A/ashow ld
/GS/gsave ld
/RC/setrgbcolor ld
/RM/rmoveto ld
/ML/setmiterlimit ld
/re {4 2 roll M
1 index 0 rlineto
0 exch rlineto
neg 0 rlineto
cp } bd
/_ctm matrix def
/_tm matrix def
/BT { _ctm currentmatrix pop matrix _tm copy pop 0 0 moveto } bd
/ET { _ctm setmatrix } bd
/iTm { _ctm setmatrix _tm concat } bd
/Tm { _tm astore pop iTm 0 0 moveto } bd
/ux 0.0 def
/uy 0.0 def
/F {
  /Tp exch def
  /Tf exch def
  Tf findfont Tp scalefont setfont
  /cf Tf def  /cs Tp def
} bd
/ULS {currentpoint /uy exch def /ux exch def} bd
/ULE {
  /Tcx currentpoint pop def
  gsave
  newpath
  cf findfont cs scalefont dup
  /FontMatrix get 0 get /Ts exch def /FontInfo get dup
  /UnderlinePosition get Ts mul /To exch def
  /UnderlineThickness get Ts mul /Tt exch def
  ux uy To add moveto  Tcx uy To add lineto
  Tt setlinewidth stroke
  grestore
} bd
/OLE {
  /Tcx currentpoint pop def
  gsave
  newpath
  cf findfont cs scalefont dup
  /FontMatrix get 0 get /Ts exch def /FontInfo get dup
  /UnderlinePosition get Ts mul /To exch def
  /UnderlineThickness get Ts mul /Tt exch def
  ux uy To add cs add moveto Tcx uy To add cs add lineto
  Tt setlinewidth stroke
  grestore
} bd
/SOE {
  /Tcx currentpoint pop def
  gsave
  newpath
  cf findfont cs scalefont dup
  /FontMatrix get 0 get /Ts exch def /FontInfo get dup
  /UnderlinePosition get Ts mul /To exch def
  /UnderlineThickness get Ts mul /Tt exch def
  ux uy To add cs 10 mul 26 idiv add moveto Tcx uy To add cs 10 mul 26 idiv add lineto
  Tt setlinewidth stroke
  grestore
} bd
/QT {
/Y22 exch store
/X22 exch store
/Y21 exch store
/X21 exch store
currentpoint
/Y21 load 2 mul add 3 div exch
/X21 load 2 mul add 3 div exch
/X21 load 2 mul /X22 load add 3 div
/Y21 load 2 mul /Y22 load add 3 div
/X22 load /Y22 load curveto
} bd
/SSPD {
dup length /d exch dict def
{
/v exch def
/k exch def
currentpagedevice k known {
/cpdv currentpagedevice k get def
v cpdv ne {
/upd false def
/nullv v type /nulltype eq def
/nullcpdv cpdv type /nulltype eq def
nullv nullcpdv or
{
/upd true def
} {
/sametype v type cpdv type eq def
sametype {
v type /arraytype eq {
/vlen v length def
/cpdvlen cpdv length def
vlen cpdvlen eq {
0 1 vlen 1 sub {
/i exch def
/obj v i get def
/cpdobj cpdv i get def
obj cpdobj ne {
/upd true def
exit
} if
} for
} {
/upd true def
} ifelse
} {
v type /dicttype eq {
v {
/dv exch def
/dk exch def
/cpddv cpdv dk get def
dv cpddv ne {
/upd true def
exit
} if
} forall
} {
/upd true def
} ifelse
} ifelse
} if
} ifelse
upd true eq {
d k v put
} if
} if
} if
} forall
d length 0 gt {
d setpagedevice
} if
} bd
/RE { % /NewFontName [NewEncodingArray] /FontName RE -
  findfont dup length dict begin
  {
    1 index /FID ne
    {def} {pop pop} ifelse
  } forall
  /Encoding exch def
  /FontName 1 index def
  currentdict definefont pop
  end
} bind def
%%EndResource
%%BeginResource: procset (Apache XML Graphics EPS ProcSet) 1.0 0
%%Version: 1.0 0
%%Copyright: (Copyright 2002-2003 The Apache Software Foundation. License terms: http://www.apache.org/licenses/LICENSE-2.0)
/BeginEPSF { %def
/b4_Inc_state save def         % Save state for cleanup
/dict_count countdictstack def % Count objects on dict stack
/op_count count 1 sub def      % Count objects on operand stack
userdict begin                 % Push userdict on dict stack
/showpage { } def              % Redefine showpage, { } = null proc
0 setgray 0 setlinecap         % Prepare graphics state
1 setlinewidth 0 setlinejoin
10 setmiterlimit [ ] 0 setdash newpath
/languagelevel where           % If level not equal to 1 then
{pop languagelevel             % set strokeadjust and
1 ne                           % overprint to their defaults.
{false setstrokeadjust false setoverprint
} if
} if
} bd
/EndEPSF { %def
count op_count sub {pop} repeat            % Clean up stacks
countdictstack dict_count sub {end} repeat
b4_Inc_state restore
} bd
%%EndResource
%FOPBeginFontDict
%%IncludeResource: font Courier-Bold
%%IncludeResource: font Helvetica
%%IncludeResource: font Courier-BoldOblique
%%IncludeResource: font Courier-Oblique
%%IncludeResource: font Times-Roman
%%IncludeResource: font Helvetica-BoldOblique
%%IncludeResource: font Helvetica-Bold
%%IncludeResource: font Helvetica-Oblique
%%IncludeResource: font Times-BoldItalic
%%IncludeResource: font Courier
%%IncludeResource: font Times-Italic
%%IncludeResource: font Times-Bold
%%IncludeResource: font Symbol
%%IncludeResource: font ZapfDingbats
%FOPEndFontDict
%%BeginResource: encoding WinAnsiEncoding
/WinAnsiEncoding [
/.notdef /.notdef /.notdef /.notdef /.notdef
/.notdef /.notdef /.notdef /.notdef /.notdef
/.notdef /.notdef /.notdef /.notdef /.notdef
/.notdef /.notdef /.notdef /.notdef /.notdef
/.notdef /.notdef /.notdef /.notdef /.notdef
/.notdef /.notdef /.notdef /.notdef /.notdef
/.notdef /.notdef /space /exclam /quotedbl
/numbersign /dollar /percent /ampersand /quotesingle
/parenleft /parenright /asterisk /plus /comma
/hyphen /period /slash /zero /one
/two /three /four /five /six
/seven /eight /nine /colon /semicolon
/less /equal /greater /question /at
/A /B /C /D /E
/F /G /H /I /J
/K /L /M /N /O
/P /Q /R /S /T
/U /V /W /X /Y
/Z /bracketleft /backslash /bracketright /asciicircum
/underscore /quoteleft /a /b /c
/d /e /f /g /h
/i /j /k /l /m
/n /o /p /q /r
/s /t /u /v /w
/x /y /z /braceleft /bar
/braceright /asciitilde /bullet /Euro /bullet
/quotesinglbase /florin /quotedblbase /ellipsis /dagger
/daggerdbl /circumflex /perthousand /Scaron /guilsinglleft
/OE /bullet /Zcaron /bullet /bullet
/quoteleft /quoteright /quotedblleft /quotedblright /bullet
/endash /emdash /asciitilde /trademark /scaron
/guilsinglright /oe /bullet /zcaron /Ydieresis
/space /exclamdown /cent /sterling /currency
/yen /brokenbar /section /dieresis /copyright
/ordfeminine /guillemotleft /logicalnot /sfthyphen /registered
/macron /degree /plusminus /twosuperior /threesuperior
/acute /mu /paragraph /middot /cedilla
/onesuperior /ordmasculine /guillemotright /onequarter /onehalf
/threequarters /questiondown /Agrave /Aacute /Acircumflex
/Atilde /Adieresis /Aring /AE /Ccedilla
/Egrave /Eacute /Ecircumflex /Edieresis /Igrave
/Iacute /Icircumflex /Idieresis /Eth /Ntilde
/Ograve /Oacute /Ocircumflex /Otilde /Odieresis
/multiply /Oslash /Ugrave /Uacute /Ucircumflex
/Udieresis /Yacute /Thorn /germandbls /agrave
/aacute /acircumflex /atilde /adieresis /aring
/ae /ccedilla /egrave /eacute /ecircumflex
/edieresis /igrave /iacute /icircumflex /idieresis
/eth /ntilde /ograve /oacute /ocircumflex
/otilde /odieresis /divide /oslash /ugrave
/uacute /ucircumflex /udieresis /yacute /thorn
/ydieresis
] def
%%EndResource
%FOPBeginFontReencode
/Courier-Bold findfont
dup length dict begin
  {1 index /FID ne {def} {pop pop} ifelse} forall
  /Encoding WinAnsiEncoding def
  currentdict
end
/Courier-Bold exch definefont pop
/Helvetica findfont
dup length dict begin
  {1 index /FID ne {def} {pop pop} ifelse} forall
  /Encoding WinAnsiEncoding def
  currentdict
end
/Helvetica exch definefont pop
/Courier-BoldOblique findfont
dup length dict begin
  {1 index /FID ne {def} {pop pop} ifelse} forall
  /Encoding WinAnsiEncoding def
  currentdict
end
/Courier-BoldOblique exch definefont pop
/Courier-Oblique findfont
dup length dict begin
  {1 index /FID ne {def} {pop pop} ifelse} forall
  /Encoding WinAnsiEncoding def
  currentdict
end
/Courier-Oblique exch definefont pop
/Times-Roman findfont
dup length dict begin
  {1 index /FID ne {def} {pop pop} ifelse} forall
  /Encoding WinAnsiEncoding def
  currentdict
end
/Times-Roman exch definefont pop
/Helvetica-BoldOblique findfont
dup length dict begin
  {1 index /FID ne {def} {pop pop} ifelse} forall
  /Encoding WinAnsiEncoding def
  currentdict
end
/Helvetica-BoldOblique exch definefont pop
/Helvetica-Bold findfont
dup length dict begin
  {1 index /FID ne {def} {pop pop} ifelse} forall
  /Encoding WinAnsiEncoding def
  currentdict
end
/Helvetica-Bold exch definefont pop
/Helvetica-Oblique findfont
dup length dict begin
  {1 index /FID ne {def} {pop pop} ifelse} forall
  /Encoding WinAnsiEncoding def
  currentdict
end
/Helvetica-Oblique exch definefont pop
/Times-BoldItalic findfont
dup length dict begin
  {1 index /FID ne {def} {pop pop} ifelse} forall
  /Encoding WinAnsiEncoding def
  currentdict
end
/Times-BoldItalic exch definefont pop
/Courier findfont
dup length dict begin
  {1 index /FID ne {def} {pop pop} ifelse} forall
  /Encoding WinAnsiEncoding def
  currentdict
end
/Courier exch definefont pop
/Times-Italic findfont
dup length dict begin
  {1 index /FID ne {def} {pop pop} ifelse} forall
  /Encoding WinAnsiEncoding def
  currentdict
end
/Times-Italic exch definefont pop
/Times-Bold findfont
dup length dict begin
  {1 index /FID ne {def} {pop pop} ifelse} forall
  /Encoding WinAnsiEncoding def
  currentdict
end
/Times-Bold exch definefont pop
%FOPEndFontReencode
%%EndProlog
%%Page: 1 1
%%PageBoundingBox: 0 0 960 933
%%BeginPageSetup
[1 0 0 -1 0 933] CT
%%EndPageSetup
GS
[1.03672 0 0 1.03667 0 0] CT
N
0 0 M
926 0 L
926 900 L
0 900 L
0 0 L
cp
clip
1 GC
N
0 0 926 900 re
f
GR
GS
[1.03672 0 0 1.03667 0 0] CT
1 GC
N
0 0 926 900 re
f
GR
GS
[1.03672 0 0 1.03667 0 0] CT
1 GC
N
120 801 M
838 801 L
838 67 L
120 67 L
cp
f
GR
GS
[1.03672 0 0 1.03667 0 0] CT
0.873 GC
1 LJ
0.482 LW
N
120 801 M
120 67 L
S
GR
GS
[1.03672 0 0 1.03667 0 0] CT
0.873 GC
1 LJ
0.482 LW
N
299.5 801 M
299.5 67 L
S
GR
GS
[1.03672 0 0 1.03667 0 0] CT
0.873 GC
1 LJ
0.482 LW
N
479 801 M
479 67 L
S
GR
GS
[1.03672 0 0 1.03667 0 0] CT
0.873 GC
1 LJ
0.482 LW
N
658.5 801 M
658.5 67 L
S
GR
GS
[1.03672 0 0 1.03667 0 0] CT
0.873 GC
1 LJ
0.482 LW
N
838 801 M
838 67 L
S
GR
GS
[1.03672 0 0 1.03667 0 0] CT
0.873 GC
1 LJ
0.482 LW
N
838 801 M
120 801 L
S
GR
GS
[1.03672 0 0 1.03667 0 0] CT
0.873 GC
1 LJ
0.482 LW
N
838 727.6 M
120 727.6 L
S
GR
GS
[1.03672 0 0 1.03667 0 0] CT
0.873 GC
1 LJ
0.482 LW
N
838 654.2 M
120 654.2 L
S
GR
GS
[1.03672 0 0 1.03667 0 0] CT
0.873 GC
1 LJ
0.482 LW
N
838 580.8 M
120 580.8 L
S
GR
GS
[1.03672 0 0 1.03667 0 0] CT
0.873 GC
1 LJ
0.482 LW
N
838 507.4 M
120 507.4 L
S
GR
GS
[1.03672 0 0 1.03667 0 0] CT
0.873 GC
1 LJ
0.482 LW
N
838 434 M
120 434 L
S
GR
GS
[1.03672 0 0 1.03667 0 0] CT
0.873 GC
1 LJ
0.482 LW
N
838 360.6 M
120 360.6 L
S
GR
GS
[1.03672 0 0 1.03667 0 0] CT
0.873 GC
1 LJ
0.482 LW
N
838 287.2 M
120 287.2 L
S
GR
GS
[1.03672 0 0 1.03667 0 0] CT
0.873 GC
1 LJ
0.482 LW
N
838 213.8 M
120 213.8 L
S
GR
GS
[1.03672 0 0 1.03667 0 0] CT
0.873 GC
1 LJ
0.482 LW
N
838 140.4 M
120 140.4 L
S
GR
GS
[1.03672 0 0 1.03667 0 0] CT
0.873 GC
1 LJ
0.482 LW
N
838 67 M
120 67 L
S
GR
GS
[1.03672 0 0 1.03667 0 0] CT
0.149 GC
2 setlinecap
1 LJ
0.482 LW
N
120 801 M
838 801 L
S
GR
GS
[1.03672 0 0 1.03667 0 0] CT
0.149 GC
2 setlinecap
1 LJ
0.482 LW
N
120 67 M
838 67 L
S
GR
GS
[1.03672 0 0 1.03667 0 0] CT
0.149 GC
2 setlinecap
1 LJ
0.482 LW
N
120 801 M
120 793.66 L
S
GR
GS
[1.03672 0 0 1.03667 0 0] CT
0.149 GC
2 setlinecap
1 LJ
0.482 LW
N
299.5 801 M
299.5 793.66 L
S
GR
GS
[1.03672 0 0 1.03667 0 0] CT
0.149 GC
2 setlinecap
1 LJ
0.482 LW
N
479 801 M
479 793.66 L
S
GR
GS
[1.03672 0 0 1.03667 0 0] CT
0.149 GC
2 setlinecap
1 LJ
0.482 LW
N
658.5 801 M
658.5 793.66 L
S
GR
GS
[1.03672 0 0 1.03667 0 0] CT
0.149 GC
2 setlinecap
1 LJ
0.482 LW
N
838 801 M
838 793.66 L
S
GR
GS
[1.03672 0 0 1.03667 0 0] CT
0.149 GC
2 setlinecap
1 LJ
0.482 LW
N
120 67 M
120 74.34 L
S
GR
GS
[1.03672 0 0 1.03667 0 0] CT
0.149 GC
2 setlinecap
1 LJ
0.482 LW
N
299.5 67 M
299.5 74.34 L
S
GR
GS
[1.03672 0 0 1.03667 0 0] CT
0.149 GC
2 setlinecap
1 LJ
0.482 LW
N
479 67 M
479 74.34 L
S
GR
GS
[1.03672 0 0 1.03667 0 0] CT
0.149 GC
2 setlinecap
1 LJ
0.482 LW
N
658.5 67 M
658.5 74.34 L
S
GR
GS
[1.03672 0 0 1.03667 0 0] CT
0.149 GC
2 setlinecap
1 LJ
0.482 LW
N
838 67 M
838 74.34 L
S
GR
GS
[1.03672 0 0 1.03667 124.40605 838.44333] CT
0.149 GC
/Helvetica 28.939 F
GS
[1 0 0 1 0 0] CT
-8.5 28 moveto 
1 -1 scale
(0) t 
GR
GR
GS
[1.03672 0 0 1.03667 310.49676 838.44333] CT
0.149 GC
/Helvetica 28.939 F
GS
[1 0 0 1 0 0] CT
-20.5 28 moveto 
1 -1 scale
(0.2) t 
GR
GR
GS
[1.03672 0 0 1.03667 496.58747 838.44333] CT
0.149 GC
/Helvetica 28.939 F
GS
[1 0 0 1 0 0] CT
-20.5 28 moveto 
1 -1 scale
(0.4) t 
GR
GR
GS
[1.03672 0 0 1.03667 682.67819 838.44333] CT
0.149 GC
/Helvetica 28.939 F
GS
[1 0 0 1 0 0] CT
-20.5 28 moveto 
1 -1 scale
(0.6) t 
GR
GR
GS
[1.03672 0 0 1.03667 868.7689 838.44333] CT
0.149 GC
/Helvetica 28.939 F
GS
[1 0 0 1 0 0] CT
-20.5 28 moveto 
1 -1 scale
(0.8) t 
GR
GR
GS
[1.03672 0 0 1.03667 496.58785 875.76333] CT
0.149 GC
/Helvetica 31.833 F
GS
[1 0 0 1 0 0] CT
-8.5 31 moveto 
1 -1 scale
(x) t 
GR
GR
GS
[1.03672 0 0 1.03667 0 0] CT
0.149 GC
2 setlinecap
1 LJ
0.482 LW
N
120 801 M
120 67 L
S
GR
GS
[1.03672 0 0 1.03667 0 0] CT
0.149 GC
2 setlinecap
1 LJ
0.482 LW
N
838 801 M
838 67 L
S
GR
GS
[1.03672 0 0 1.03667 0 0] CT
0.149 GC
2 setlinecap
1 LJ
0.482 LW
N
120 801 M
127.34 801 L
S
GR
GS
[1.03672 0 0 1.03667 0 0] CT
0.149 GC
2 setlinecap
1 LJ
0.482 LW
N
120 727.6 M
127.34 727.6 L
S
GR
GS
[1.03672 0 0 1.03667 0 0] CT
0.149 GC
2 setlinecap
1 LJ
0.482 LW
N
120 654.2 M
127.34 654.2 L
S
GR
GS
[1.03672 0 0 1.03667 0 0] CT
0.149 GC
2 setlinecap
1 LJ
0.482 LW
N
120 580.8 M
127.34 580.8 L
S
GR
GS
[1.03672 0 0 1.03667 0 0] CT
0.149 GC
2 setlinecap
1 LJ
0.482 LW
N
120 507.4 M
127.34 507.4 L
S
GR
GS
[1.03672 0 0 1.03667 0 0] CT
0.149 GC
2 setlinecap
1 LJ
0.482 LW
N
120 434 M
127.34 434 L
S
GR
GS
[1.03672 0 0 1.03667 0 0] CT
0.149 GC
2 setlinecap
1 LJ
0.482 LW
N
120 360.6 M
127.34 360.6 L
S
GR
GS
[1.03672 0 0 1.03667 0 0] CT
0.149 GC
2 setlinecap
1 LJ
0.482 LW
N
120 287.2 M
127.34 287.2 L
S
GR
GS
[1.03672 0 0 1.03667 0 0] CT
0.149 GC
2 setlinecap
1 LJ
0.482 LW
N
120 213.8 M
127.34 213.8 L
S
GR
GS
[1.03672 0 0 1.03667 0 0] CT
0.149 GC
2 setlinecap
1 LJ
0.482 LW
N
120 140.4 M
127.34 140.4 L
S
GR
GS
[1.03672 0 0 1.03667 0 0] CT
0.149 GC
2 setlinecap
1 LJ
0.482 LW
N
120 67 M
127.34 67 L
S
GR
GS
[1.03672 0 0 1.03667 0 0] CT
0.149 GC
2 setlinecap
1 LJ
0.482 LW
N
838 801 M
830.66 801 L
S
GR
GS
[1.03672 0 0 1.03667 0 0] CT
0.149 GC
2 setlinecap
1 LJ
0.482 LW
N
838 727.6 M
830.66 727.6 L
S
GR
GS
[1.03672 0 0 1.03667 0 0] CT
0.149 GC
2 setlinecap
1 LJ
0.482 LW
N
838 654.2 M
830.66 654.2 L
S
GR
GS
[1.03672 0 0 1.03667 0 0] CT
0.149 GC
2 setlinecap
1 LJ
0.482 LW
N
838 580.8 M
830.66 580.8 L
S
GR
GS
[1.03672 0 0 1.03667 0 0] CT
0.149 GC
2 setlinecap
1 LJ
0.482 LW
N
838 507.4 M
830.66 507.4 L
S
GR
GS
[1.03672 0 0 1.03667 0 0] CT
0.149 GC
2 setlinecap
1 LJ
0.482 LW
N
838 434 M
830.66 434 L
S
GR
GS
[1.03672 0 0 1.03667 0 0] CT
0.149 GC
2 setlinecap
1 LJ
0.482 LW
N
838 360.6 M
830.66 360.6 L
S
GR
GS
[1.03672 0 0 1.03667 0 0] CT
0.149 GC
2 setlinecap
1 LJ
0.482 LW
N
838 287.2 M
830.66 287.2 L
S
GR
GS
[1.03672 0 0 1.03667 0 0] CT
0.149 GC
2 setlinecap
1 LJ
0.482 LW
N
838 213.8 M
830.66 213.8 L
S
GR
GS
[1.03672 0 0 1.03667 0 0] CT
0.149 GC
2 setlinecap
1 LJ
0.482 LW
N
838 140.4 M
830.66 140.4 L
S
GR
GS
[1.03672 0 0 1.03667 0 0] CT
0.149 GC
2 setlinecap
1 LJ
0.482 LW
N
838 67 M
830.66 67 L
S
GR
GS
[1.03672 0 0 1.03667 116.33232 830.37] CT
0.149 GC
/Helvetica 28.939 F
GS
[1 0 0 1 0 0] CT
-17 10.5 moveto 
1 -1 scale
(0) t 
GR
GR
GS
[1.03672 0 0 1.03667 116.33232 754.27864] CT
0.149 GC
/Helvetica 28.939 F
GS
[1 0 0 1 0 0] CT
-41 10.5 moveto 
1 -1 scale
(0.1) t 
GR
GR
GS
[1.03672 0 0 1.03667 116.33232 678.18735] CT
0.149 GC
/Helvetica 28.939 F
GS
[1 0 0 1 0 0] CT
-41 10.5 moveto 
1 -1 scale
(0.2) t 
GR
GR
GS
[1.03672 0 0 1.03667 116.33232 602.09599] CT
0.149 GC
/Helvetica 28.939 F
GS
[1 0 0 1 0 0] CT
-41 10.5 moveto 
1 -1 scale
(0.3) t 
GR
GR
GS
[1.03672 0 0 1.03667 116.33232 526.00466] CT
0.149 GC
/Helvetica 28.939 F
GS
[1 0 0 1 0 0] CT
-41 10.5 moveto 
1 -1 scale
(0.4) t 
GR
GR
GS
[1.03672 0 0 1.03667 116.33232 449.91333] CT
0.149 GC
/Helvetica 28.939 F
GS
[1 0 0 1 0 0] CT
-41 10.5 moveto 
1 -1 scale
(0.5) t 
GR
GR
GS
[1.03672 0 0 1.03667 116.33232 373.82197] CT
0.149 GC
/Helvetica 28.939 F
GS
[1 0 0 1 0 0] CT
-41 10.5 moveto 
1 -1 scale
(0.6) t 
GR
GR
GS
[1.03672 0 0 1.03667 116.33232 297.73068] CT
0.149 GC
/Helvetica 28.939 F
GS
[1 0 0 1 0 0] CT
-41 10.5 moveto 
1 -1 scale
(0.7) t 
GR
GR
GS
[1.03672 0 0 1.03667 116.33232 221.63932] CT
0.149 GC
/Helvetica 28.939 F
GS
[1 0 0 1 0 0] CT
-41 10.5 moveto 
1 -1 scale
(0.8) t 
GR
GR
GS
[1.03672 0 0 1.03667 116.33232 145.54803] CT
0.149 GC
/Helvetica 28.939 F
GS
[1 0 0 1 0 0] CT
-41 10.5 moveto 
1 -1 scale
(0.9) t 
GR
GR
GS
[1.03672 0 0 1.03667 116.33232 69.45667] CT
0.149 GC
/Helvetica 28.939 F
GS
[1 0 0 1 0 0] CT
-17 10.5 moveto 
1 -1 scale
(1) t 
GR
GR
GS
[0 -1.03667 1.03672 0 70.71677 449.91299] CT
0.149 GC
/Helvetica 31.833 F
GS
[1 0 0 1 0 0] CT
-26 -7 moveto 
1 -1 scale
(F\(x\)) t 
GR
GR
GS
[1.03672 0 0 1.03667 496.58795 61.20669] CT
/Helvetica-Bold 31.833 F
GS
[1 0 0 1 0 0] CT
-57 -7 moveto 
1 -1 scale
(MIRLIN) t 
GR
GR
GS
[1.03672 0 0 1.03667 0 0] CT
0 0.447 0.741 RC
1 LJ
5.788 LW
N
317.037 801 M
317.037 800.973 L
328.554 800.973 L
328.554 800.945 L
331.184 800.945 L
331.184 800.918 L
336.24 800.918 L
336.24 800.891 L
337.773 800.891 L
337.773 800.863 L
338.865 800.863 L
339.432 800.808 L
339.987 800.808 L
340.343 800.754 L
341.809 800.754 L
342.069 800.699 L
343.103 800.699 L
343.977 800.59 L
344.002 800.59 L
344.825 800.48 L
346.761 800.48 L
346.761 800.453 L
347.315 800.453 L
347.315 800.425 L
348.898 800.425 L
349.485 800.234 L
351.553 800.234 L
352.462 800.097 L
352.851 800.097 L
353.764 799.96 L
354.669 799.96 L
355.45 799.769 L
355.609 799.769 L
356.487 799.632 L
357.074 799.632 L
358.24 799.441 L
358.553 799.441 L
359.639 799.058 L
360.069 799.058 L
361.236 798.866 L
361.497 798.866 L
362.555 798.593 L
362.857 798.593 L
364.231 798.483 L
364.308 798.483 L
365.69 798.21 L
366.045 798.21 L
367.104 797.854 L
367.23 797.854 L
368.477 797.608 L
368.688 797.608 L
369.967 797.334 L
370.136 797.334 L
371.486 796.951 L
371.678 796.951 L
372.96 796.486 L
373.013 796.486 L
374.38 795.939 L
374.582 795.939 L
375.64 795.364 L
375.94 795.364 L
377.264 794.954 L
377.512 794.954 L
378.754 794.407 L
378.869 794.407 L
380.264 793.887 L
380.432 793.887 L
381.711 793.285 L
381.799 793.285 L
383.037 792.629 L
383.192 792.629 L
384.619 791.644 L
384.71 791.644 L
386.066 790.577 L
386.079 790.577 L
387.517 789.4 L
387.555 789.4 L
388.911 788.525 L
388.985 788.525 L
390.423 787.349 L
390.436 787.349 L
391.811 786.2 L
391.925 786.2 L
393.325 784.722 L
393.395 784.722 L
394.755 783.026 L
394.796 783.026 L
396.229 781.549 L
396.242 781.549 L
397.673 779.935 L
397.701 779.935 L
399.096 778.266 L
399.163 778.266 L
400.519 776.433 L
400.637 776.433 L
402.037 774.737 L
402.051 774.737 L
403.482 772.904 L
403.524 772.904 L
404.942 770.907 L
404.952 770.907 L
406.372 768.828 L
406.4 768.828 L
407.815 766.448 L
407.861 766.448 L
409.285 763.767 L
409.332 763.767 L
410.734 761.25 L
410.756 761.25 L
412.199 757.912 L
412.201 757.912 L
413.649 754.082 L
413.666 754.082 L
415.097 751.51 L
415.112 751.51 L
416.554 748.392 L
416.556 748.392 L
417.986 744.999 L
418.092 744.999 L
419.436 741.716 L
419.48 741.716 L
420.902 738.324 L
420.934 738.324 L
422.357 734.138 L
422.366 734.138 L
423.805 729.98 L
423.815 729.98 L
425.24 725.548 L
425.272 725.548 L
426.714 721.28 L
426.715 721.28 L
428.164 716.52 L
428.179 716.52 L
429.578 711.815 L
429.619 711.815 L
431.065 707.082 L
431.077 707.082 L
432.52 702.376 L
432.522 702.376 L
433.971 696.549 L
433.98 696.549 L
435.406 691.023 L
435.427 691.023 L
436.867 685.688 L
436.877 685.688 L
438.324 678.822 L
438.332 678.822 L
439.771 672.995 L
439.781 672.995 L
441.229 666.976 L
441.235 666.976 L
442.676 660.246 L
442.693 660.246 L
444.124 653.79 L
444.143 653.79 L
445.58 646.403 L
445.591 646.403 L
447.03 639.892 L
447.036 639.892 L
448.47 633.162 L
448.498 633.162 L
449.936 626.35 L
449.938 626.35 L
451.388 618.936 L
451.389 618.936 L
452.839 611.304 L
452.841 611.304 L
454.281 603.206 L
454.293 603.206 L
455.74 595.163 L
455.749 595.163 L
457.194 587.913 L
457.199 587.913 L
458.644 579.87 L
458.657 579.87 L
460.092 572.565 L
460.102 572.565 L
461.547 564.303 L
461.551 564.303 L
462.999 556.042 L
463.004 556.042 L
464.45 547.889 L
464.454 547.889 L
465.9 539.162 L
465.905 539.162 L
467.353 530.49 L
467.356 530.49 L
468.8 522.802 L
468.81 522.802 L
470.247 513.966 L
470.257 513.966 L
471.692 505.047 L
471.71 505.047 L
473.159 495.308 L
473.162 495.308 L
474.609 486.745 L
474.618 486.745 L
476.061 477.936 L
476.063 477.936 L
477.498 469.346 L
477.517 469.346 L
478.952 460.673 L
478.969 460.673 L
480.416 451.098 L
480.423 451.098 L
481.859 441.277 L
481.868 441.277 L
483.32 431.784 L
483.327 431.784 L
484.77 423.303 L
484.779 423.303 L
486.222 414.166 L
486.223 414.166 L
487.672 404.481 L
487.683 404.481 L
489.125 394.852 L
489.128 394.852 L
490.572 385.769 L
490.58 385.769 L
492.025 376.331 L
492.031 376.331 L
493.475 367.603 L
493.48 367.603 L
494.93 359.287 L
494.932 359.287 L
496.379 351.244 L
496.389 351.244 L
497.83 342.188 L
497.835 342.188 L
499.279 334.009 L
499.285 334.009 L
500.737 324.926 L
500.739 324.926 L
502.181 316.828 L
502.194 316.828 L
503.636 309.305 L
503.648 309.305 L
505.064 301.782 L
505.091 301.782 L
506.536 294.039 L
506.542 294.039 L
507.986 286.489 L
507.994 286.489 L
509.442 278.829 L
509.446 278.829 L
510.894 271.305 L
510.911 271.305 L
512.34 263.782 L
512.352 263.782 L
513.798 257.052 L
513.808 257.052 L
515.249 249.912 L
515.255 249.912 L
516.697 243.045 L
516.705 243.045 L
518.151 235.932 L
518.161 235.932 L
519.604 229.366 L
519.606 229.366 L
521.039 222.691 L
521.059 222.691 L
522.505 216.426 L
522.511 216.426 L
523.954 209.943 L
523.961 209.943 L
525.408 204.526 L
525.412 204.526 L
526.815 198.617 L
526.863 198.617 L
528.309 192.571 L
528.317 192.571 L
529.761 187.181 L
529.766 187.181 L
531.215 182.284 L
531.217 182.284 L
532.618 177.387 L
532.668 177.387 L
534.112 172.189 L
534.124 172.189 L
535.565 167.019 L
535.571 167.019 L
537.003 162.259 L
537.034 162.259 L
538.452 157.963 L
538.486 157.963 L
539.922 153.176 L
539.925 153.176 L
541.368 148.197 L
541.391 148.197 L
542.825 143.956 L
542.845 143.956 L
544.275 140.674 L
544.295 140.674 L
545.71 136.57 L
545.734 136.57 L
547.172 132.849 L
547.206 132.849 L
548.625 129.676 L
548.64 129.676 L
550.078 125.791 L
550.106 125.791 L
551.519 122.481 L
551.548 122.481 L
552.959 119.362 L
552.993 119.362 L
554.436 116.161 L
554.546 116.161 L
555.884 113.836 L
555.91 113.836 L
557.339 111.1 L
557.352 111.1 L
558.76 108.282 L
558.813 108.282 L
560.244 105.765 L
560.254 105.765 L
561.693 103.44 L
561.722 103.44 L
563.125 101.142 L
563.178 101.142 L
564.596 99.118 L
564.644 99.118 L
565.991 97.23 L
566.052 97.23 L
567.492 95.342 L
567.514 95.342 L
568.944 93.701 L
568.991 93.701 L
570.395 91.923 L
570.414 91.923 L
571.846 90.117 L
572.005 90.117 L
573.25 89.16 L
573.343 89.16 L
574.741 87.573 L
574.8 87.573 L
576.197 85.986 L
576.292 85.986 L
577.657 84.864 L
577.689 84.864 L
579.082 83.661 L
579.156 83.661 L
580.54 82.32 L
580.568 82.32 L
582.012 81.281 L
582.051 81.281 L
583.409 80.186 L
583.507 80.186 L
584.904 79.338 L
584.94 79.338 L
586.32 78.654 L
586.392 78.654 L
587.702 77.888 L
587.898 77.888 L
589.223 77.314 L
589.334 77.314 L
590.671 76.657 L
590.781 76.657 L
592.112 75.919 L
592.332 75.919 L
593.623 75.207 L
593.648 75.207 L
595.076 74.742 L
595.086 74.742 L
596.486 74.222 L
596.611 74.222 L
597.965 73.812 L
598.035 73.812 L
599.349 73.32 L
599.973 73.32 L
600.823 72.991 L
601.171 72.991 L
602.041 72.581 L
602.384 72.581 L
603.708 72.198 L
603.919 72.198 L
605.229 71.87 L
605.509 71.87 L
606.68 71.432 L
606.756 71.432 L
607.973 71.186 L
608.238 71.186 L
609.545 70.83 L
609.638 70.83 L
610.775 70.611 L
611.167 70.611 L
612.437 70.365 L
612.664 70.365 L
613.744 70.064 L
614.133 70.064 L
615.384 69.9 L
615.599 69.9 L
616.77 69.681 L
617.014 69.681 L
617.281 69.599 L
618.481 69.599 L
619.373 69.462 L
619.925 69.462 L
621.068 69.161 L
621.247 69.161 L
622.132 68.97 L
622.709 68.97 L
623.778 68.915 L
624.495 68.915 L
625.435 68.641 L
625.905 68.641 L
626.366 68.587 L
627.104 68.587 L
628.066 68.505 L
628.561 68.505 L
629.643 68.258 L
631.004 68.258 L
631.328 68.176 L
631.419 68.176 L
632.599 68.067 L
632.836 68.067 L
634.147 67.958 L
634.501 67.958 L
635.529 67.875 L
636.017 67.875 L
637.095 67.684 L
638.69 67.684 L
639.847 67.602 L
643.347 67.602 L
643.776 67.547 L
644.989 67.547 L
644.989 67.52 L
647.443 67.52 L
647.443 67.492 L
650.418 67.492 L
650.574 67.438 L
653.032 67.438 L
653.032 67.41 L
655.512 67.41 L
655.947 67.356 L
657.173 67.356 L
657.173 67.328 L
657.521 67.328 L
657.926 67.274 L
659.553 67.274 L
659.553 67.246 L
660.58 67.246 L
661.656 67.164 L
663.015 67.164 L
663.015 67.137 L
666.01 67.137 L
666.01 67.109 L
667.035 67.109 L
667.51 67.055 L
677.074 67.055 L
677.074 67.027 L
682.904 67.027 L
682.904 67 L
S
GR
GS
[1.03672 0 0 1.03667 0 0] CT
0.851 0.325 0.098 RC
1 LJ
5.788 LW
N
270.45 801 M
270.45 800.995 L
278.993 800.995 L
280.052 800.985 L
288.971 800.985 L
288.971 800.98 L
290.858 800.98 L
290.858 800.976 L
292.009 800.976 L
292.857 800.951 L
295.004 800.951 L
295.838 800.936 L
297.307 800.936 L
297.307 800.932 L
301.264 800.932 L
301.892 800.922 L
302.455 800.922 L
302.617 800.912 L
303.497 800.912 L
304.784 800.897 L
306.367 800.897 L
307.644 800.868 L
308.036 800.868 L
309.004 800.853 L
309.153 800.853 L
310.15 800.839 L
310.886 800.839 L
311.593 800.829 L
312.875 800.829 L
312.875 800.824 L
313.804 800.824 L
314.74 800.804 L
315.116 800.804 L
316.354 800.775 L
316.575 800.775 L
317.421 800.726 L
318.73 800.726 L
319.2 800.712 L
319.451 800.712 L
320.479 800.658 L
320.845 800.658 L
322.061 800.624 L
322.338 800.624 L
323.404 800.589 L
323.89 800.589 L
325.096 800.56 L
325.174 800.56 L
326.529 800.492 L
326.622 800.492 L
327.82 800.443 L
328.268 800.443 L
329.424 800.418 L
329.655 800.418 L
330.803 800.369 L
331.076 800.369 L
332.37 800.33 L
332.398 800.33 L
333.36 800.281 L
333.882 800.281 L
335.212 800.203 L
335.413 800.203 L
336.571 800.135 L
337.01 800.135 L
337.996 800.066 L
338.293 800.066 L
339.625 799.944 L
339.697 799.944 L
341.048 799.807 L
341.102 799.807 L
342.481 799.685 L
342.552 799.685 L
343.954 799.582 L
344.019 799.582 L
345.435 799.46 L
345.482 799.46 L
346.884 799.308 L
346.997 799.308 L
348.322 799.132 L
348.422 799.132 L
349.782 798.927 L
349.802 798.927 L
351.128 798.712 L
351.264 798.712 L
352.676 798.507 L
352.742 798.507 L
354.139 798.277 L
354.148 798.277 L
355.586 798.013 L
355.636 798.013 L
357.037 797.68 L
357.085 797.68 L
358.492 797.358 L
358.5 797.358 L
359.937 797.03 L
359.985 797.03 L
361.371 796.678 L
361.402 796.678 L
362.844 796.184 L
362.871 796.184 L
364.304 795.72 L
364.305 795.72 L
365.755 795.27 L
365.779 795.27 L
367.201 794.713 L
367.211 794.713 L
368.65 794.102 L
368.669 794.102 L
370.099 793.554 L
370.11 793.554 L
371.522 792.865 L
371.569 792.865 L
373 792.131 L
373.045 792.131 L
374.448 791.447 L
374.479 791.447 L
375.905 790.611 L
375.932 790.611 L
377.359 789.794 L
377.371 789.794 L
378.809 788.929 L
378.819 788.929 L
380.268 787.902 L
380.28 787.902 L
381.709 786.998 L
381.725 786.998 L
383.169 785.927 L
383.182 785.927 L
384.615 784.715 L
384.624 784.715 L
386.071 783.453 L
386.081 783.453 L
387.526 782.172 L
387.529 782.172 L
388.977 780.877 L
388.983 780.877 L
390.428 779.469 L
390.432 779.469 L
391.881 777.924 L
391.881 777.924 L
393.327 776.281 L
393.335 776.281 L
394.781 774.443 L
394.785 774.443 L
396.234 772.521 L
396.235 772.521 L
397.686 770.717 L
397.689 770.717 L
399.136 768.63 L
399.14 768.63 L
400.585 766.503 L
400.594 766.503 L
402.04 764.322 L
402.041 764.322 L
403.489 761.77 L
403.493 761.77 L
404.936 759.12 L
404.944 759.12 L
406.394 756.661 L
406.397 756.661 L
407.845 753.786 L
407.852 753.786 L
409.291 750.604 L
409.3 750.604 L
410.749 747.68 L
410.754 747.68 L
412.197 744.556 L
412.202 744.556 L
413.649 741.197 L
413.652 741.197 L
415.102 737.843 L
415.104 737.843 L
416.554 734.387 L
416.557 734.387 L
418.005 730.553 L
418.007 730.553 L
419.454 726.784 L
419.458 726.784 L
420.904 722.809 L
420.91 722.809 L
422.356 718.776 L
422.363 718.776 L
423.811 714.341 L
423.815 714.341 L
425.263 709.55 L
425.264 709.55 L
426.713 705.028 L
426.715 705.028 L
428.166 700.256 L
428.167 700.256 L
429.615 695.386 L
429.62 695.386 L
431.067 690.297 L
431.069 690.297 L
432.52 684.885 L
432.521 684.885 L
433.971 679.15 L
433.973 679.15 L
435.422 673.391 L
435.425 673.391 L
436.873 667.568 L
436.876 667.568 L
438.324 661.823 L
438.327 661.823 L
439.777 655.472 L
439.778 655.472 L
441.229 649.077 L
441.231 649.077 L
442.68 642.433 L
442.681 642.433 L
444.131 635.652 L
444.132 635.652 L
445.582 628.641 L
445.584 628.641 L
447.034 621.586 L
447.036 621.586 L
448.483 614.468 L
448.486 614.468 L
449.937 607.378 L
449.94 607.378 L
451.388 600.128 L
451.389 600.128 L
452.84 592.408 L
452.841 592.408 L
454.29 585.016 L
454.294 585.016 L
455.742 577.262 L
455.745 577.262 L
457.194 569.654 L
457.195 569.654 L
458.645 561.499 L
458.646 561.499 L
460.097 553.423 L
460.099 553.423 L
461.548 545.63 L
461.549 545.63 L
462.998 537.592 L
463 537.592 L
464.451 529.505 L
464.452 529.505 L
465.903 521.214 L
465.904 521.214 L
467.354 512.79 L
467.355 512.79 L
468.805 504.268 L
468.806 504.268 L
470.257 495.619 L
470.258 495.619 L
471.708 487.088 L
471.71 487.088 L
473.158 478.488 L
473.16 478.488 L
474.611 470.23 L
474.612 470.23 L
476.06 461.425 L
476.063 461.425 L
477.513 452.728 L
477.515 452.728 L
478.964 444.118 L
478.966 444.118 L
480.415 435.151 L
480.418 435.151 L
481.867 426.331 L
481.868 426.331 L
483.32 417.707 L
483.322 417.707 L
484.77 409.024 L
484.772 409.024 L
486.222 400.459 L
486.225 400.459 L
487.673 391.815 L
487.677 391.815 L
489.125 382.98 L
489.127 382.98 L
490.576 374.703 L
490.578 374.703 L
492.028 366.24 L
492.029 366.24 L
493.478 358.281 L
493.48 358.281 L
494.929 349.832 L
494.932 349.832 L
496.38 341.716 L
496.383 341.716 L
497.833 333.708 L
497.836 333.708 L
499.284 325.871 L
499.287 325.871 L
500.735 318.2 L
500.739 318.2 L
502.188 310.246 L
502.19 310.246 L
503.637 302.54 L
503.643 302.54 L
505.09 294.865 L
505.091 294.865 L
506.541 287.482 L
506.543 287.482 L
507.992 279.787 L
507.994 279.787 L
509.444 272.355 L
509.446 272.355 L
510.896 265.076 L
510.897 265.076 L
512.344 258.417 L
512.351 258.417 L
513.799 251.513 L
513.801 251.513 L
515.25 244.576 L
515.251 244.576 L
516.702 237.931 L
516.704 237.931 L
518.153 231.546 L
518.155 231.546 L
519.603 225.107 L
519.607 225.107 L
521.055 218.688 L
521.057 218.688 L
522.506 212.445 L
522.509 212.445 L
523.958 206.832 L
523.959 206.832 L
525.41 201.332 L
525.412 201.332 L
526.861 195.724 L
526.865 195.724 L
528.312 190.18 L
528.314 190.18 L
529.763 184.91 L
529.77 184.91 L
531.216 179.664 L
531.217 179.664 L
532.661 174.833 L
532.668 174.833 L
534.116 170.13 L
534.122 170.13 L
535.57 165.524 L
535.571 165.524 L
537.022 160.826 L
537.022 160.826 L
538.473 156.602 L
538.476 156.602 L
539.924 152.348 L
539.928 152.348 L
541.375 148.638 L
541.379 148.638 L
542.828 144.531 L
542.828 144.531 L
544.276 140.659 L
544.291 140.659 L
545.73 137.153 L
545.731 137.153 L
547.181 133.745 L
547.183 133.745 L
548.631 130.621 L
548.633 130.621 L
550.084 127.316 L
550.085 127.316 L
551.535 124.197 L
551.539 124.197 L
552.983 121.21 L
552.988 121.21 L
554.438 118.565 L
554.443 118.565 L
555.888 115.905 L
555.893 115.905 L
557.34 113.554 L
557.343 113.554 L
558.79 110.992 L
558.801 110.992 L
560.234 108.811 L
560.253 108.811 L
561.693 106.509 L
561.697 106.509 L
563.142 104.235 L
563.152 104.235 L
564.595 102.187 L
564.6 102.187 L
566.043 100.216 L
566.051 100.216 L
567.492 98.173 L
567.502 98.173 L
568.95 96.359 L
568.956 96.359 L
570.399 94.677 L
570.406 94.677 L
571.853 92.941 L
571.86 92.941 L
573.306 91.367 L
573.324 91.367 L
574.753 90.042 L
574.76 90.042 L
576.21 88.761 L
576.22 88.761 L
577.659 87.588 L
577.663 87.588 L
579.101 86.317 L
579.113 86.317 L
580.563 85.143 L
580.569 85.143 L
582.013 83.95 L
582.029 83.95 L
583.457 82.845 L
583.47 82.845 L
584.908 81.667 L
584.921 81.667 L
586.367 80.719 L
586.373 80.719 L
587.817 79.819 L
587.833 79.819 L
589.272 78.91 L
589.281 78.91 L
590.717 78.201 L
590.735 78.201 L
592.126 77.492 L
592.196 77.492 L
593.619 76.822 L
593.63 76.822 L
595.078 76.099 L
595.089 76.099 L
596.524 75.458 L
596.541 75.458 L
597.976 74.969 L
597.983 74.969 L
599.43 74.402 L
599.458 74.402 L
600.846 73.938 L
600.891 73.938 L
602.301 73.429 L
602.342 73.429 L
603.769 72.901 L
603.795 72.901 L
605.224 72.515 L
605.284 72.515 L
606.687 72.182 L
606.727 72.182 L
608.131 71.767 L
608.19 71.767 L
609.585 71.478 L
609.595 71.478 L
611.014 71.185 L
611.057 71.185 L
612.492 70.867 L
612.51 70.867 L
613.945 70.593 L
613.953 70.593 L
615.357 70.369 L
615.424 70.369 L
616.824 70.109 L
616.869 70.109 L
618.292 69.924 L
618.35 69.924 L
619.732 69.733 L
619.754 69.733 L
621.189 69.547 L
621.239 69.547 L
622.627 69.342 L
622.67 69.342 L
624.1 69.176 L
624.112 69.176 L
625.543 68.946 L
625.6 68.946 L
626.922 68.765 L
627.188 68.765 L
628.442 68.618 L
628.465 68.618 L
629.903 68.506 L
629.924 68.506 L
631.318 68.413 L
631.385 68.413 L
632.804 68.301 L
632.963 68.301 L
634.259 68.198 L
634.525 68.198 L
635.6 68.105 L
635.779 68.105 L
637.009 67.983 L
637.279 67.983 L
638.526 67.885 L
638.823 67.885 L
639.93 67.787 L
640.088 67.787 L
641.356 67.724 L
641.549 67.724 L
642.857 67.626 L
642.989 67.626 L
644.259 67.572 L
644.529 67.572 L
645.83 67.499 L
646.246 67.499 L
647.284 67.45 L
647.392 67.45 L
648.767 67.401 L
648.829 67.401 L
650.048 67.342 L
650.545 67.342 L
651.389 67.328 L
652.352 67.328 L
653.005 67.308 L
653.373 67.308 L
654.218 67.284 L
654.896 67.284 L
655.768 67.254 L
656.149 67.254 L
657.201 67.235 L
657.543 67.235 L
658.819 67.21 L
658.985 67.21 L
659.662 67.2 L
660.759 67.2 L
661.206 67.186 L
662.44 67.186 L
662.44 67.181 L
663.984 67.181 L
664.041 67.171 L
665.46 67.171 L
666.11 67.156 L
666.668 67.156 L
666.746 67.147 L
667.78 67.147 L
668.943 67.137 L
669.563 67.137 L
670.412 67.117 L
671.728 67.117 L
671.728 67.112 L
672.502 67.112 L
672.852 67.093 L
675.415 67.093 L
675.415 67.088 L
677.295 67.088 L
677.295 67.083 L
678.845 67.083 L
678.855 67.073 L
680.207 67.073 L
680.5 67.064 L
681.239 67.064 L
681.239 67.059 L
682.398 67.059 L
683.385 67.049 L
686.763 67.049 L
687.823 67.034 L
689.365 67.034 L
689.365 67.029 L
691.996 67.029 L
691.996 67.024 L
692.483 67.024 L
693.057 67.015 L
700.408 67.015 L
700.408 67.01 L
702.612 67.01 L
702.612 67.005 L
737.012 67.005 L
737.012 67 L
S
GR
GS
[1.03672 0 0 1.03667 0 0] CT
0.929 0.694 0.125 RC
[20 20] 0 setdash
2 LJ
5.788 LW
N
183.763 801 M
183.763 800.987 L
206.319 800.987 L
206.319 800.975 L
228.869 800.975 L
228.869 800.962 L
235.123 800.962 L
235.123 800.949 L
240.454 800.949 L
240.454 800.937 L
241.366 800.937 L
241.366 800.924 L
259.31 800.924 L
259.31 800.911 L
262.842 800.911 L
262.842 800.899 L
266.597 800.899 L
266.597 800.886 L
269.649 800.886 L
269.649 800.873 L
272.953 800.873 L
272.953 800.861 L
274.444 800.861 L
274.444 800.848 L
275.907 800.848 L
276.559 800.823 L
277.279 800.823 L
277.96 800.785 L
278.84 800.785 L
278.84 800.772 L
282.079 800.772 L
282.079 800.759 L
283.775 800.759 L
283.775 800.747 L
285.728 800.747 L
285.728 800.734 L
286.182 800.734 L
286.182 800.721 L
287.753 800.721 L
288.721 800.683 L
290.026 800.683 L
290.026 800.671 L
291.66 800.671 L
291.66 800.658 L
291.789 800.658 L
292.77 800.62 L
295.034 800.62 L
295.358 800.595 L
296.445 800.595 L
297.035 800.544 L
297.56 800.544 L
298.487 800.506 L
299.014 800.506 L
300.312 800.468 L
300.895 800.468 L
301.584 800.417 L
303.712 800.417 L
304.138 800.379 L
304.887 800.379 L
305.746 800.329 L
306.535 800.329 L
307.385 800.278 L
308.061 800.278 L
309.118 800.215 L
309.258 800.215 L
310.345 800.151 L
310.716 800.151 L
311.731 800.101 L
312.174 800.101 L
313.491 800.063 L
313.584 800.063 L
314.928 799.987 L
315.255 799.987 L
316.386 799.885 L
316.598 799.885 L
317.246 799.797 L
317.976 799.797 L
319.169 799.695 L
319.42 799.695 L
320.656 799.531 L
320.821 799.531 L
322.213 799.391 L
322.34 799.391 L
323.636 799.265 L
323.695 799.265 L
324.888 799.189 L
325.281 799.189 L
326.531 799.049 L
326.69 799.049 L
327.698 798.923 L
328.094 798.923 L
329.336 798.745 L
329.521 798.745 L
330.657 798.594 L
331.387 798.594 L
332.331 798.416 L
332.426 798.416 L
333.787 798.226 L
333.825 798.226 L
335.222 798.112 L
335.362 798.112 L
336.64 797.96 L
336.756 797.96 L
337.956 797.77 L
338.316 797.77 L
339.592 797.656 L
339.696 797.656 L
340.982 797.492 L
341.201 797.492 L
342.462 797.276 L
342.574 797.276 L
343.972 796.985 L
344.221 796.985 L
345.414 796.808 L
345.462 796.808 L
346.846 796.542 L
346.956 796.542 L
348.323 796.2 L
348.387 796.2 L
349.773 795.896 L
349.854 795.896 L
351.213 795.604 L
351.314 795.604 L
352.66 795.098 L
352.695 795.098 L
354.059 794.566 L
354.158 794.566 L
355.58 794.11 L
355.657 794.11 L
357.029 793.591 L
357.181 793.591 L
358.479 793.084 L
358.615 793.084 L
359.949 792.641 L
359.961 792.641 L
361.398 791.969 L
361.449 791.969 L
362.808 791.298 L
362.875 791.298 L
364.293 790.602 L
364.357 790.602 L
365.746 789.943 L
365.784 789.943 L
367.199 789.082 L
367.215 789.082 L
368.646 788.106 L
368.755 788.106 L
370.074 787.042 L
370.111 787.042 L
371.545 786.156 L
371.565 786.156 L
373.011 785.193 L
373.041 785.193 L
374.46 784.003 L
374.471 784.003 L
375.909 782.799 L
375.922 782.799 L
377.361 781.634 L
377.374 781.634 L
378.8 780.241 L
378.824 780.241 L
380.253 778.936 L
380.27 778.936 L
381.719 777.467 L
381.746 777.467 L
383.167 775.909 L
383.183 775.909 L
384.615 774.161 L
384.626 774.161 L
386.072 772.502 L
386.095 772.502 L
387.519 770.64 L
387.551 770.64 L
388.97 768.842 L
388.988 768.842 L
390.425 767.107 L
390.454 767.107 L
391.868 764.941 L
391.894 764.941 L
393.313 762.902 L
393.345 762.902 L
394.782 760.711 L
394.798 760.711 L
396.203 758.443 L
396.238 758.443 L
397.683 756.113 L
397.692 756.113 L
399.134 753.39 L
399.147 753.39 L
400.581 750.781 L
400.612 750.781 L
402.036 747.982 L
402.06 747.982 L
403.483 744.967 L
403.499 744.967 L
404.936 741.991 L
404.945 741.991 L
406.391 739.052 L
406.397 739.052 L
407.845 735.62 L
407.847 735.62 L
409.281 732.428 L
409.323 732.428 L
410.743 728.882 L
410.753 728.882 L
412.196 725.209 L
412.201 725.209 L
413.636 721.928 L
413.655 721.928 L
415.102 718.179 L
415.122 718.179 L
416.54 714.367 L
416.567 714.367 L
418.004 710.719 L
418.014 710.719 L
419.454 706.286 L
419.462 706.286 L
420.901 702.297 L
420.911 702.297 L
422.357 698.016 L
422.363 698.016 L
423.806 693.621 L
423.813 693.621 L
425.26 688.529 L
425.269 688.529 L
426.71 683.944 L
426.716 683.944 L
428.166 679.042 L
428.175 679.042 L
429.617 673.964 L
429.618 673.964 L
431.063 668.327 L
431.074 668.327 L
432.52 663.02 L
432.527 663.02 L
433.968 656.992 L
433.977 656.992 L
435.423 651.368 L
435.425 651.368 L
436.865 645.909 L
436.876 645.909 L
438.324 640.146 L
438.326 640.146 L
439.775 634.282 L
439.779 634.282 L
441.22 628.988 L
441.232 628.988 L
442.675 623.339 L
442.683 623.339 L
444.128 617.259 L
444.133 617.259 L
445.578 611.142 L
445.585 611.142 L
447.03 604.695 L
447.04 604.695 L
448.484 597.906 L
448.495 597.906 L
449.937 591.852 L
449.939 591.852 L
451.388 585.608 L
451.391 585.608 L
452.84 578.87 L
452.85 578.87 L
454.29 571.942 L
454.292 571.942 L
455.73 564.9 L
455.743 564.9 L
457.193 557.667 L
457.196 557.667 L
458.645 550.347 L
458.649 550.347 L
460.088 543.419 L
460.1 543.419 L
461.548 536.604 L
461.55 536.604 L
462.999 529.372 L
463 529.372 L
464.451 522.178 L
464.452 522.178 L
465.896 515.098 L
465.905 515.098 L
467.35 507.334 L
467.359 507.334 L
468.803 499.215 L
468.806 499.215 L
470.25 491.667 L
470.26 491.667 L
471.708 484.042 L
471.716 484.042 L
473.156 476.405 L
473.16 476.405 L
474.608 468.932 L
474.612 468.932 L
476.062 461.193 L
476.068 461.193 L
477.512 453.505 L
477.515 453.505 L
478.963 445.69 L
478.968 445.69 L
480.416 437.926 L
480.419 437.926 L
481.867 429.922 L
481.869 429.922 L
483.318 421.816 L
483.321 421.816 L
484.77 413.976 L
484.775 413.976 L
486.222 406.642 L
486.224 406.642 L
487.673 398.979 L
487.677 398.979 L
489.111 391.291 L
489.127 391.291 L
490.571 383.641 L
490.577 383.641 L
492.024 375.966 L
492.03 375.966 L
493.477 368.633 L
493.483 368.633 L
494.931 361.375 L
494.932 361.375 L
496.381 354.016 L
496.385 354.016 L
497.832 346.43 L
497.835 346.43 L
499.278 340.173 L
499.286 340.173 L
500.737 332.7 L
500.74 332.7 L
502.185 326.507 L
502.191 326.507 L
503.638 319.604 L
503.642 319.604 L
505.087 313.03 L
505.093 313.03 L
506.542 305.963 L
506.543 305.963 L
507.987 299.795 L
507.996 299.795 L
509.445 293.69 L
509.449 293.69 L
510.895 287.332 L
510.901 287.332 L
512.341 280.961 L
512.355 280.961 L
513.799 274.273 L
513.801 274.273 L
515.246 268.739 L
515.252 268.739 L
516.701 262.456 L
516.703 262.456 L
518.149 256.567 L
518.154 256.567 L
519.6 250.513 L
519.608 250.513 L
521.052 244.471 L
521.06 244.471 L
522.503 238.911 L
522.51 238.911 L
523.951 232.907 L
523.961 232.907 L
525.41 227.36 L
525.413 227.36 L
526.86 222.104 L
526.864 222.104 L
528.313 217.101 L
528.322 217.101 L
529.763 211.832 L
529.77 211.832 L
531.216 206.563 L
531.217 206.563 L
532.653 201.813 L
532.668 201.813 L
534.115 197.317 L
534.12 197.317 L
535.567 192.137 L
535.577 192.137 L
537.022 187.818 L
537.033 187.818 L
538.473 183.397 L
538.492 183.397 L
539.921 178.99 L
539.928 178.99 L
541.37 174.873 L
541.377 174.873 L
542.821 170.605 L
542.845 170.605 L
544.279 166.78 L
544.281 166.78 L
545.723 162.74 L
545.738 162.74 L
547.177 159.067 L
547.183 159.067 L
548.618 155.406 L
548.633 155.406 L
550.075 151.936 L
550.086 151.936 L
551.526 148.668 L
551.538 148.668 L
552.983 145.134 L
552.99 145.134 L
554.438 141.525 L
554.441 141.525 L
555.883 138.536 L
555.913 138.536 L
557.339 135.622 L
557.343 135.622 L
558.781 132.722 L
558.795 132.722 L
560.24 129.923 L
560.249 129.923 L
561.67 127.073 L
561.697 127.073 L
563.145 124.173 L
563.148 124.173 L
564.593 121.754 L
564.604 121.754 L
566.044 119.385 L
566.051 119.385 L
567.487 117.511 L
567.503 117.511 L
568.938 115.471 L
568.955 115.471 L
570.401 113.432 L
570.409 113.432 L
571.851 111.216 L
571.865 111.216 L
573.3 109.088 L
573.313 109.088 L
574.756 107.213 L
574.772 107.213 L
576.183 105.567 L
576.22 105.567 L
577.63 103.933 L
577.662 103.933 L
579.104 101.932 L
579.126 101.932 L
580.563 100.222 L
580.571 100.222 L
582.008 98.677 L
582.023 98.677 L
583.458 97.157 L
583.469 97.157 L
584.899 95.814 L
584.922 95.814 L
586.365 94.358 L
586.378 94.358 L
587.814 93.205 L
587.826 93.205 L
589.265 91.875 L
589.287 91.875 L
590.722 90.672 L
590.739 90.672 L
592.168 89.406 L
592.184 89.406 L
593.614 88.19 L
593.634 88.19 L
595.071 87.214 L
595.086 87.214 L
596.523 86.201 L
596.534 86.201 L
597.916 85.277 L
597.99 85.277 L
599.399 84.428 L
599.434 84.428 L
600.88 83.427 L
600.89 83.427 L
602.328 82.604 L
602.343 82.604 L
603.784 81.781 L
603.835 81.781 L
605.229 81.034 L
605.239 81.034 L
606.689 80.299 L
606.695 80.299 L
608.131 79.577 L
608.147 79.577 L
609.511 79.007 L
609.629 79.007 L
611.007 78.386 L
611.049 78.386 L
612.479 77.804 L
612.61 77.804 L
613.92 77.31 L
613.953 77.31 L
615.341 76.816 L
615.493 76.816 L
616.816 76.284 L
616.861 76.284 L
618.298 75.815 L
618.309 75.815 L
619.65 75.347 L
619.776 75.347 L
621.132 74.916 L
621.229 74.916 L
622.623 74.447 L
622.707 74.447 L
624.052 73.979 L
624.144 73.979 L
625.522 73.611 L
625.634 73.611 L
626.889 73.232 L
627.07 73.232 L
628.453 72.801 L
628.533 72.801 L
629.837 72.522 L
630.045 72.522 L
631.147 72.282 L
631.382 72.282 L
632.792 71.965 L
632.982 71.965 L
634.25 71.661 L
634.299 71.661 L
635.695 71.395 L
635.802 71.395 L
637.113 71.192 L
637.304 71.192 L
638.62 70.914 L
638.732 70.914 L
639.969 70.8 L
640.136 70.8 L
641.456 70.673 L
641.683 70.673 L
642.963 70.407 L
642.977 70.407 L
644.335 70.268 L
644.461 70.268 L
645.753 70.116 L
646.062 70.116 L
647.303 69.938 L
647.349 69.938 L
648.737 69.774 L
648.856 69.774 L
649.983 69.571 L
650.332 69.571 L
651.674 69.368 L
651.692 69.368 L
652.978 69.204 L
653.265 69.204 L
654.403 69.115 L
654.871 69.115 L
655.967 69.001 L
656.145 69.001 L
657.448 68.849 L
657.746 68.849 L
658.933 68.748 L
659.38 68.748 L
660.158 68.697 L
660.43 68.697 L
661.298 68.558 L
662.148 68.558 L
662.854 68.495 L
663.398 68.495 L
664.565 68.381 L
664.859 68.381 L
665.774 68.33 L
666.265 68.33 L
667.373 68.267 L
667.692 68.267 L
667.919 68.229 L
669.625 68.229 L
670.512 68.178 L
670.737 68.178 L
671.979 68.077 L
672.085 68.077 L
673.041 68.013 L
673.705 68.013 L
674.549 67.963 L
675.558 67.963 L
676.318 67.912 L
676.778 67.912 L
677.524 67.874 L
677.815 67.874 L
678.879 67.811 L
679.304 67.811 L
680.244 67.785 L
680.751 67.785 L
681.688 67.735 L
682.183 67.735 L
683.402 67.671 L
683.791 67.671 L
684.72 67.621 L
685.344 67.621 L
686.502 67.595 L
687.01 67.595 L
687.916 67.57 L
689.971 67.57 L
689.971 67.557 L
691.515 67.557 L
691.515 67.545 L
692.496 67.545 L
692.496 67.532 L
694.128 67.532 L
695.136 67.443 L
696.167 67.443 L
696.591 67.405 L
697.206 67.405 L
697.465 67.367 L
698.244 67.367 L
699.253 67.329 L
701.009 67.329 L
701.009 67.317 L
701.196 67.317 L
701.339 67.291 L
703.5 67.291 L
703.5 67.279 L
704.613 67.279 L
704.613 67.266 L
707.989 67.266 L
708.068 67.241 L
709.4 67.241 L
709.4 67.228 L
710.588 67.228 L
710.638 67.19 L
712.982 67.19 L
712.983 67.165 L
715.209 67.165 L
715.209 67.152 L
720.366 67.152 L
720.366 67.139 L
721.361 67.139 L
721.361 67.127 L
724.757 67.127 L
724.757 67.114 L
725.954 67.114 L
725.954 67.101 L
729.887 67.101 L
729.887 67.089 L
730.977 67.089 L
730.977 67.076 L
734.393 67.076 L
734.393 67.063 L
734.684 67.063 L
734.684 67.051 L
739.485 67.051 L
739.485 67.038 L
743.353 67.038 L
743.353 67.025 L
755.028 67.025 L
755.822 67 L
S
GR
GS
[1.03672 0 0 1.03667 0 0] CT
0.494 0.184 0.557 RC
[5 5] 0 setdash
2 LJ
5.788 LW
N
377.41 801 M
377.41 800.244 L
377.491 800.244 L
377.491 799.488 L
379.658 799.488 L
379.658 798.732 L
380.094 798.732 L
380.094 797.976 L
383.645 797.976 L
383.645 797.22 L
387.792 797.22 L
387.792 796.464 L
387.86 796.464 L
387.86 795.709 L
388.657 795.709 L
388.657 794.953 L
391.524 794.953 L
391.524 794.197 L
394.266 794.197 L
394.266 793.441 L
398.659 793.441 L
398.659 792.685 L
400.169 792.685 L
400.169 791.929 L
401.212 791.929 L
401.212 791.173 L
405.815 791.173 L
405.815 790.417 L
407.028 790.417 L
407.028 789.661 L
407.238 789.661 L
407.238 788.905 L
408.304 788.905 L
408.304 788.149 L
408.851 788.149 L
408.851 787.393 L
409.264 787.393 L
409.264 786.638 L
410.162 786.638 L
410.162 785.882 L
410.447 785.882 L
410.447 785.126 L
410.537 785.126 L
410.537 784.37 L
410.855 784.37 L
410.855 783.614 L
411.098 783.614 L
411.098 782.858 L
411.758 782.858 L
411.758 782.102 L
411.776 782.102 L
411.776 781.346 L
412.288 781.346 L
412.288 780.59 L
412.844 780.59 L
412.844 779.834 L
413.355 779.834 L
413.355 779.078 L
413.745 779.078 L
413.745 778.322 L
414.658 778.322 L
414.658 777.566 L
414.669 777.566 L
414.669 776.81 L
415.514 776.81 L
415.514 776.055 L
415.82 776.055 L
415.82 775.299 L
416.341 775.299 L
416.341 774.543 L
416.403 774.543 L
416.403 773.787 L
416.595 773.787 L
416.595 773.031 L
416.867 773.031 L
416.867 772.275 L
417.255 772.275 L
417.255 771.519 L
417.361 771.519 L
417.361 770.763 L
417.468 770.763 L
417.468 770.007 L
417.985 770.007 L
417.985 769.251 L
418.713 769.251 L
418.713 768.495 L
418.917 768.495 L
418.917 767.739 L
419.119 767.739 L
419.119 766.984 L
419.532 766.984 L
419.532 766.228 L
420.044 766.228 L
420.044 765.472 L
420.24 765.472 L
420.24 764.716 L
420.4 764.716 L
420.4 763.96 L
420.783 763.96 L
420.783 763.204 L
421.59 763.204 L
421.59 762.448 L
421.596 762.448 L
421.596 761.692 L
421.599 761.692 L
421.599 760.936 L
422.519 760.936 L
422.519 760.18 L
422.654 760.18 L
422.654 759.424 L
422.788 759.424 L
422.788 758.668 L
422.942 758.668 L
422.942 757.912 L
423.441 757.912 L
423.441 757.157 L
423.518 757.157 L
423.518 756.401 L
423.635 756.401 L
423.635 755.645 L
423.985 755.645 L
423.985 754.889 L
424.009 754.889 L
424.009 754.133 L
424.338 754.133 L
424.338 753.377 L
424.536 753.377 L
424.536 752.621 L
425.552 752.621 L
425.552 751.865 L
425.961 751.865 L
425.961 751.109 L
426.926 751.109 L
426.926 750.353 L
427.247 750.353 L
427.247 749.597 L
427.399 749.597 L
427.399 748.841 L
427.986 748.841 L
427.986 748.086 L
428.204 748.086 L
428.204 747.33 L
428.303 747.33 L
428.303 746.574 L
428.692 746.574 L
428.692 745.818 L
428.823 745.818 L
428.823 745.062 L
428.955 745.062 L
428.955 744.306 L
429.164 744.306 L
429.164 743.55 L
429.193 743.55 L
429.193 742.794 L
430.035 742.794 L
430.035 742.038 L
430.066 742.038 L
430.066 741.282 L
430.948 741.282 L
430.948 740.526 L
431.213 740.526 L
431.213 739.77 L
431.688 739.77 L
431.688 739.014 L
432.395 739.014 L
432.395 738.258 L
432.588 738.258 L
432.588 737.503 L
433.087 737.503 L
433.087 736.747 L
433.186 736.747 L
433.186 735.991 L
433.576 735.991 L
433.576 735.235 L
433.647 735.235 L
433.647 734.479 L
433.844 734.479 L
433.844 733.723 L
433.931 733.723 L
433.931 732.967 L
434.534 732.967 L
434.534 732.211 L
434.727 732.211 L
434.727 731.455 L
434.827 731.455 L
434.827 730.699 L
434.893 730.699 L
434.893 729.943 L
435.109 729.943 L
435.109 729.187 L
435.318 729.187 L
435.318 728.432 L
435.779 728.432 L
435.779 727.676 L
436.749 727.676 L
436.749 726.92 L
437.049 726.92 L
437.049 726.164 L
437.096 726.164 L
437.096 725.408 L
437.173 725.408 L
437.173 724.652 L
437.376 724.652 L
437.376 723.896 L
437.532 723.896 L
437.532 723.14 L
437.9 723.14 L
437.9 722.384 L
437.95 722.384 L
437.95 721.628 L
437.958 721.628 L
437.958 720.872 L
438.46 720.872 L
438.46 720.116 L
438.564 720.116 L
438.564 719.36 L
438.875 719.36 L
438.875 718.605 L
438.929 718.605 L
438.929 717.849 L
438.975 717.849 L
438.975 717.093 L
439.145 717.093 L
439.145 716.337 L
439.198 716.337 L
439.198 715.581 L
439.473 715.581 L
439.473 714.825 L
439.696 714.825 L
439.696 714.069 L
439.764 714.069 L
439.764 713.313 L
440.118 713.313 L
440.118 712.557 L
440.811 712.557 L
440.811 711.801 L
441.028 711.801 L
441.028 711.045 L
441.189 711.045 L
441.189 710.289 L
441.47 710.289 L
441.47 709.533 L
441.704 709.533 L
441.704 708.778 L
441.725 708.778 L
441.725 708.022 L
441.829 708.022 L
441.829 707.266 L
441.99 707.266 L
441.99 706.51 L
442.183 706.51 L
442.183 705.754 L
442.229 705.754 L
442.229 704.998 L
442.425 704.998 L
442.425 704.242 L
442.448 704.242 L
442.448 703.486 L
442.732 703.486 L
442.732 702.73 L
442.761 702.73 L
442.761 701.974 L
442.843 701.974 L
442.843 701.218 L
442.87 701.218 L
442.87 700.462 L
442.924 700.462 L
442.924 699.706 L
443.255 699.706 L
443.255 698.951 L
443.485 698.951 L
443.485 698.195 L
443.537 698.195 L
443.537 697.439 L
443.979 697.439 L
443.979 696.683 L
444.024 696.683 L
444.024 695.171 L
444.657 695.171 L
444.657 694.415 L
444.878 694.415 L
444.878 693.659 L
445.152 693.659 L
445.152 692.903 L
445.195 692.903 L
445.195 692.147 L
445.279 692.147 L
445.279 691.391 L
445.442 691.391 L
445.442 690.635 L
445.668 690.635 L
445.668 689.88 L
445.738 689.88 L
445.738 689.124 L
445.793 689.124 L
445.793 688.368 L
446.023 688.368 L
446.023 687.612 L
446.391 687.612 L
446.391 686.856 L
446.515 686.856 L
446.515 686.1 L
446.604 686.1 L
446.604 685.344 L
446.722 685.344 L
446.722 684.588 L
446.981 684.588 L
446.981 683.832 L
447.218 683.832 L
447.218 683.076 L
447.49 683.076 L
447.49 682.32 L
447.578 682.32 L
447.578 681.564 L
448.071 681.564 L
448.071 680.808 L
448.126 680.808 L
448.126 680.053 L
448.174 680.053 L
448.174 679.297 L
448.691 679.297 L
448.691 678.541 L
448.729 678.541 L
448.729 677.785 L
448.758 677.785 L
448.758 677.029 L
448.875 677.029 L
448.875 676.273 L
448.898 676.273 L
448.898 675.517 L
449.152 675.517 L
449.152 674.761 L
449.533 674.761 L
449.533 674.005 L
449.637 674.005 L
449.637 673.249 L
449.763 673.249 L
449.763 672.493 L
450.103 672.493 L
450.103 671.737 L
450.252 671.737 L
450.252 670.981 L
450.388 670.981 L
450.388 670.226 L
450.713 670.226 L
450.713 669.47 L
450.844 669.47 L
450.844 668.714 L
450.879 668.714 L
450.879 667.958 L
451.145 667.958 L
451.145 667.202 L
451.21 667.202 L
451.21 666.446 L
451.686 666.446 L
451.686 665.69 L
451.85 665.69 L
451.85 664.934 L
451.899 664.934 L
451.899 664.178 L
451.915 664.178 L
451.915 663.422 L
452.14 663.422 L
452.14 662.666 L
452.158 662.666 L
452.158 661.91 L
452.253 661.91 L
452.253 661.154 L
452.27 661.154 L
452.27 660.399 L
452.43 660.399 L
452.43 659.643 L
452.578 659.643 L
452.578 658.887 L
452.71 658.887 L
452.71 658.131 L
452.827 658.131 L
452.827 657.375 L
453.034 657.375 L
453.034 656.619 L
453.158 656.619 L
453.158 655.863 L
453.281 655.863 L
453.281 655.107 L
453.36 655.107 L
453.36 654.351 L
453.463 654.351 L
453.463 653.595 L
453.519 653.595 L
453.519 652.839 L
453.533 652.839 L
453.533 652.083 L
453.666 652.083 L
453.666 651.328 L
453.742 651.328 L
453.742 650.572 L
453.86 650.572 L
453.86 649.816 L
453.893 649.816 L
453.893 649.06 L
453.917 649.06 L
453.917 648.304 L
454.211 648.304 L
454.211 647.548 L
454.237 647.548 L
454.237 646.792 L
454.725 646.792 L
454.725 646.036 L
454.733 646.036 L
454.733 645.28 L
454.957 645.28 L
454.957 644.524 L
455.411 644.524 L
455.411 643.768 L
455.634 643.768 L
455.634 643.012 L
455.705 643.012 L
455.705 642.256 L
455.782 642.256 L
455.782 641.5 L
455.872 641.5 L
455.872 640.745 L
455.9 640.745 L
455.9 639.989 L
455.981 639.989 L
455.981 639.233 L
456.926 639.233 L
456.926 638.477 L
457.231 638.477 L
457.231 637.721 L
457.256 637.721 L
457.256 636.965 L
457.279 636.965 L
457.279 636.209 L
457.309 636.209 L
457.309 635.453 L
457.368 635.453 L
457.368 634.697 L
457.874 634.697 L
457.874 633.941 L
458.206 633.941 L
458.206 633.185 L
458.279 633.185 L
458.279 632.429 L
458.463 632.429 L
458.463 631.674 L
458.629 631.674 L
458.629 630.918 L
458.709 630.918 L
458.709 630.162 L
458.725 630.162 L
458.725 629.406 L
458.787 629.406 L
458.787 628.65 L
458.838 628.65 L
458.838 627.894 L
458.894 627.894 L
458.894 627.138 L
459.1 627.138 L
459.1 626.382 L
459.114 626.382 L
459.114 625.626 L
459.245 625.626 L
459.245 624.87 L
459.295 624.87 L
459.295 624.114 L
459.503 624.114 L
459.503 623.358 L
459.544 623.358 L
459.544 622.602 L
460.253 622.602 L
460.253 621.847 L
460.258 621.847 L
460.258 621.091 L
460.297 621.091 L
460.297 620.335 L
460.887 620.335 L
460.887 619.579 L
460.986 619.579 L
460.986 618.823 L
461.206 618.823 L
461.206 618.067 L
461.32 618.067 L
461.32 617.311 L
461.51 617.311 L
461.51 616.555 L
461.555 616.555 L
461.555 615.799 L
461.609 615.799 L
461.609 615.043 L
461.63 615.043 L
461.63 614.287 L
461.68 614.287 L
461.68 613.531 L
461.698 613.531 L
461.698 612.775 L
461.717 612.775 L
461.717 612.02 L
461.876 612.02 L
461.876 611.264 L
461.982 611.264 L
461.982 610.508 L
462.331 610.508 L
462.331 609.752 L
462.709 609.752 L
462.709 608.996 L
462.967 608.996 L
462.967 608.24 L
463.05 608.24 L
463.05 607.484 L
463.377 607.484 L
463.377 606.728 L
463.431 606.728 L
463.431 605.972 L
463.796 605.972 L
463.796 605.216 L
463.852 605.216 L
463.852 604.46 L
464.03 604.46 L
464.03 603.704 L
464.108 603.704 L
464.108 602.948 L
464.473 602.948 L
464.473 602.193 L
464.474 602.193 L
464.474 601.437 L
464.539 601.437 L
464.539 600.681 L
464.543 600.681 L
464.543 599.925 L
464.552 599.925 L
464.552 599.169 L
464.643 599.169 L
464.643 598.413 L
464.907 598.413 L
464.907 597.657 L
464.953 597.657 L
464.953 596.901 L
464.986 596.901 L
464.986 596.145 L
465.217 596.145 L
465.217 595.389 L
465.478 595.389 L
465.478 594.633 L
465.601 594.633 L
465.601 593.877 L
465.717 593.877 L
465.717 593.122 L
465.757 593.122 L
465.757 592.366 L
465.812 592.366 L
465.812 591.61 L
465.866 591.61 L
465.866 590.854 L
466.276 590.854 L
466.276 590.098 L
466.359 590.098 L
466.359 589.342 L
466.41 589.342 L
466.41 588.586 L
466.482 588.586 L
466.482 587.83 L
466.571 587.83 L
466.571 587.074 L
466.751 587.074 L
466.751 586.318 L
467.014 586.318 L
467.014 585.562 L
467.216 585.562 L
467.216 584.806 L
467.298 584.806 L
467.298 584.05 L
467.324 584.05 L
467.324 583.295 L
467.509 583.295 L
467.509 582.539 L
467.618 582.539 L
467.618 581.783 L
467.643 581.783 L
467.643 581.027 L
467.838 581.027 L
467.838 580.271 L
467.955 580.271 L
467.955 579.515 L
467.994 579.515 L
467.994 578.759 L
468.072 578.759 L
468.072 578.003 L
468.138 578.003 L
468.138 577.247 L
468.241 577.247 L
468.241 576.491 L
468.304 576.491 L
468.304 575.735 L
468.366 575.735 L
468.366 574.979 L
468.447 574.979 L
468.447 574.223 L
468.999 574.223 L
468.999 573.468 L
469.393 573.468 L
469.393 572.712 L
469.431 572.712 L
469.431 571.956 L
469.692 571.956 L
469.692 571.2 L
469.703 571.2 L
469.703 570.444 L
469.854 570.444 L
469.854 569.688 L
469.877 569.688 L
469.877 568.932 L
470.146 568.932 L
470.146 568.176 L
470.423 568.176 L
470.423 567.42 L
470.614 567.42 L
470.614 566.664 L
470.835 566.664 L
470.835 565.908 L
471.019 565.908 L
471.019 565.152 L
471.034 565.152 L
471.034 564.396 L
471.057 564.396 L
471.057 563.641 L
471.179 563.641 L
471.179 562.885 L
471.591 562.885 L
471.591 562.129 L
471.627 562.129 L
471.627 561.373 L
471.645 561.373 L
471.645 560.617 L
471.719 560.617 L
471.719 559.861 L
471.946 559.861 L
471.946 559.105 L
472.388 559.105 L
472.388 558.349 L
472.611 558.349 L
472.611 557.593 L
472.693 557.593 L
472.693 556.837 L
472.76 556.837 L
472.76 556.081 L
472.802 556.081 L
472.802 555.325 L
473.004 555.325 L
473.004 554.57 L
473.218 554.57 L
473.218 553.814 L
473.252 553.814 L
473.252 553.058 L
473.327 553.058 L
473.327 552.302 L
473.339 552.302 L
473.339 551.546 L
473.899 551.546 L
473.899 550.79 L
474.007 550.79 L
474.007 550.034 L
474.033 550.034 L
474.033 549.278 L
474.053 549.278 L
474.053 548.522 L
474.39 548.522 L
474.39 547.766 L
474.436 547.766 L
474.436 547.01 L
474.438 547.01 L
474.438 546.254 L
474.465 546.254 L
474.465 545.498 L
474.54 545.498 L
474.54 544.743 L
474.707 544.743 L
474.707 543.987 L
474.842 543.987 L
474.842 543.231 L
474.911 543.231 L
474.911 542.475 L
475.047 542.475 L
475.047 541.719 L
475.226 541.719 L
475.226 540.963 L
475.394 540.963 L
475.394 540.207 L
475.443 540.207 L
475.443 539.451 L
475.514 539.451 L
475.514 538.695 L
475.532 538.695 L
475.532 537.939 L
475.604 537.939 L
475.604 537.183 L
475.693 537.183 L
475.693 536.427 L
475.703 536.427 L
475.703 535.671 L
475.952 535.671 L
475.952 534.916 L
476.018 534.916 L
476.018 534.16 L
476.303 534.16 L
476.303 533.404 L
476.751 533.404 L
476.751 532.648 L
476.816 532.648 L
476.816 531.892 L
476.832 531.892 L
476.832 531.136 L
477.06 531.136 L
477.06 530.38 L
477.099 530.38 L
477.099 529.624 L
477.506 529.624 L
477.506 528.868 L
477.541 528.868 L
477.541 528.112 L
477.859 528.112 L
477.859 527.356 L
477.91 527.356 L
477.91 526.6 L
478.001 526.6 L
478.001 525.844 L
478.4 525.844 L
478.4 525.089 L
478.416 525.089 L
478.416 524.333 L
478.549 524.333 L
478.549 523.577 L
478.707 523.577 L
478.707 522.821 L
478.867 522.821 L
478.867 522.065 L
478.895 522.065 L
478.895 521.309 L
478.914 521.309 L
478.914 520.553 L
479.214 520.553 L
479.214 519.797 L
479.442 519.797 L
479.442 519.041 L
479.469 519.041 L
479.469 518.285 L
479.495 518.285 L
479.495 517.529 L
479.533 517.529 L
479.533 516.773 L
479.541 516.773 L
479.541 516.018 L
479.847 516.018 L
479.847 515.262 L
479.856 515.262 L
479.856 514.506 L
479.914 514.506 L
479.914 513.75 L
480.055 513.75 L
480.055 512.994 L
480.099 512.994 L
480.099 512.238 L
480.17 512.238 L
480.17 511.482 L
480.177 511.482 L
480.177 510.726 L
480.409 510.726 L
480.409 509.97 L
480.826 509.97 L
480.826 509.214 L
480.947 509.214 L
480.947 508.458 L
480.998 508.458 L
480.998 507.702 L
481.04 507.702 L
481.04 506.946 L
481.118 506.946 L
481.118 506.191 L
481.17 506.191 L
481.17 505.435 L
481.179 505.435 L
481.179 504.679 L
481.197 504.679 L
481.197 503.923 L
481.214 503.923 L
481.214 503.167 L
481.358 503.167 L
481.358 502.411 L
481.522 502.411 L
481.522 501.655 L
481.728 501.655 L
481.728 500.899 L
481.813 500.899 L
481.813 500.143 L
482.092 500.143 L
482.092 499.387 L
482.123 499.387 L
482.123 498.631 L
482.234 498.631 L
482.234 497.875 L
482.303 497.875 L
482.303 497.119 L
482.322 497.119 L
482.322 496.364 L
482.346 496.364 L
482.346 495.608 L
482.423 495.608 L
482.423 494.852 L
482.466 494.852 L
482.466 494.096 L
482.556 494.096 L
482.556 493.34 L
482.875 493.34 L
482.875 492.584 L
482.981 492.584 L
482.981 491.828 L
483.006 491.828 L
483.006 491.072 L
483.029 491.072 L
483.029 490.316 L
483.181 490.316 L
483.181 489.56 L
483.356 489.56 L
483.356 488.804 L
483.426 488.804 L
483.426 488.048 L
483.517 488.048 L
483.517 487.292 L
483.64 487.292 L
483.64 486.537 L
483.65 486.537 L
483.65 485.781 L
483.774 485.781 L
483.774 485.025 L
483.931 485.025 L
483.931 484.269 L
484.012 484.269 L
484.012 483.513 L
484.113 483.513 L
484.113 482.757 L
484.247 482.757 L
484.247 482.001 L
484.329 482.001 L
484.329 481.245 L
484.525 481.245 L
484.525 480.489 L
484.86 480.489 L
484.86 479.733 L
485.001 479.733 L
485.001 478.977 L
485.498 478.977 L
485.498 478.221 L
485.554 478.221 L
485.554 477.466 L
485.634 477.466 L
485.634 476.71 L
486.009 476.71 L
486.009 475.954 L
486.048 475.954 L
486.048 475.198 L
486.086 475.198 L
486.086 474.442 L
486.181 474.442 L
486.181 473.686 L
486.285 473.686 L
486.285 472.93 L
486.34 472.93 L
486.34 472.174 L
486.369 472.174 L
486.369 471.418 L
486.564 471.418 L
486.564 470.662 L
486.687 470.662 L
486.687 469.906 L
487.153 469.906 L
487.153 469.15 L
487.399 469.15 L
487.399 468.394 L
487.629 468.394 L
487.629 467.639 L
487.7 467.639 L
487.7 466.883 L
487.822 466.883 L
487.822 466.127 L
487.922 466.127 L
487.922 465.371 L
488.017 465.371 L
488.017 464.615 L
488.916 464.615 L
488.916 463.859 L
489.151 463.859 L
489.151 463.103 L
489.679 463.103 L
489.679 462.347 L
489.904 462.347 L
489.904 461.591 L
490.069 461.591 L
490.069 460.835 L
490.074 460.835 L
490.074 460.079 L
490.168 460.079 L
490.168 459.323 L
490.584 459.323 L
490.584 458.567 L
490.789 458.567 L
490.789 457.812 L
491.129 457.812 L
491.129 457.056 L
491.184 457.056 L
491.184 456.3 L
491.19 456.3 L
491.19 455.544 L
491.411 455.544 L
491.411 454.788 L
491.962 454.788 L
491.962 454.032 L
491.999 454.032 L
491.999 453.276 L
492.251 453.276 L
492.251 452.52 L
492.604 452.52 L
492.604 451.764 L
492.625 451.764 L
492.625 451.008 L
492.902 451.008 L
492.902 450.252 L
492.924 450.252 L
492.924 449.496 L
493.207 449.496 L
493.207 448.74 L
493.225 448.74 L
493.225 447.985 L
493.236 447.985 L
493.236 447.229 L
493.303 447.229 L
493.303 446.473 L
493.368 446.473 L
493.368 445.717 L
493.559 445.717 L
493.559 444.961 L
493.595 444.961 L
493.595 444.205 L
493.666 444.205 L
493.666 443.449 L
493.942 443.449 L
493.942 442.693 L
493.955 442.693 L
493.955 441.937 L
494.004 441.937 L
494.004 441.181 L
494.012 441.181 L
494.012 440.425 L
494.015 440.425 L
494.015 439.669 L
494.022 439.669 L
494.022 438.913 L
494.059 438.913 L
494.059 438.158 L
494.15 438.158 L
494.15 437.402 L
494.596 437.402 L
494.596 436.646 L
495.485 436.646 L
495.485 435.89 L
495.606 435.89 L
495.606 435.134 L
495.665 435.134 L
495.665 434.378 L
495.701 434.378 L
495.701 433.622 L
495.703 433.622 L
495.703 432.866 L
495.781 432.866 L
495.781 432.11 L
495.938 432.11 L
495.938 431.354 L
496.132 431.354 L
496.132 430.598 L
496.362 430.598 L
496.362 429.842 L
496.368 429.842 L
496.368 429.087 L
496.565 429.087 L
496.565 428.331 L
496.647 428.331 L
496.647 427.575 L
496.657 427.575 L
496.657 426.819 L
496.696 426.819 L
496.696 426.063 L
496.904 426.063 L
496.904 425.307 L
496.954 425.307 L
496.954 424.551 L
497.058 424.551 L
497.058 423.795 L
497.121 423.795 L
497.121 423.039 L
497.311 423.039 L
497.311 422.283 L
497.844 422.283 L
497.844 421.527 L
497.884 421.527 L
497.884 420.771 L
497.971 420.771 L
497.971 420.015 L
498.159 420.015 L
498.159 419.26 L
498.276 419.26 L
498.276 418.504 L
498.335 418.504 L
498.335 417.748 L
498.38 417.748 L
498.38 416.992 L
498.734 416.992 L
498.734 416.236 L
498.897 416.236 L
498.897 415.48 L
498.95 415.48 L
498.95 414.724 L
498.991 414.724 L
498.991 413.968 L
499.004 413.968 L
499.004 413.212 L
499.034 413.212 L
499.034 412.456 L
499.279 412.456 L
499.279 411.7 L
499.358 411.7 L
499.358 410.944 L
499.547 410.944 L
499.547 410.188 L
499.59 410.188 L
499.59 409.433 L
499.634 409.433 L
499.634 408.677 L
499.846 408.677 L
499.846 407.921 L
499.944 407.921 L
499.944 407.165 L
499.953 407.165 L
499.953 406.409 L
500.481 406.409 L
500.481 405.653 L
500.487 405.653 L
500.487 404.897 L
500.545 404.897 L
500.545 404.141 L
500.637 404.141 L
500.637 403.385 L
500.71 403.385 L
500.71 402.629 L
500.748 402.629 L
500.748 401.873 L
500.839 401.873 L
500.839 401.117 L
501.306 401.117 L
501.306 400.361 L
501.824 400.361 L
501.824 399.606 L
502.122 399.606 L
502.122 398.85 L
502.158 398.85 L
502.158 398.094 L
502.305 398.094 L
502.305 397.338 L
502.334 397.338 L
502.334 396.582 L
502.495 396.582 L
502.495 395.826 L
502.546 395.826 L
502.546 395.07 L
502.669 395.07 L
502.669 394.314 L
502.681 394.314 L
502.681 393.558 L
502.736 393.558 L
502.736 392.802 L
502.777 392.802 L
502.777 392.046 L
502.889 392.046 L
502.889 391.29 L
502.959 391.29 L
502.959 390.535 L
503.133 390.535 L
503.133 389.779 L
503.218 389.779 L
503.218 389.023 L
503.224 389.023 L
503.224 388.267 L
503.372 388.267 L
503.372 387.511 L
503.616 387.511 L
503.616 386.755 L
503.818 386.755 L
503.818 385.999 L
503.996 385.999 L
503.996 385.243 L
504.159 385.243 L
504.159 384.487 L
504.499 384.487 L
504.499 383.731 L
504.613 383.731 L
504.613 382.975 L
504.774 382.975 L
504.774 382.219 L
504.841 382.219 L
504.841 381.463 L
504.853 381.463 L
504.853 380.708 L
504.868 380.708 L
504.868 379.952 L
504.879 379.952 L
504.879 379.196 L
504.9 379.196 L
504.9 378.44 L
504.987 378.44 L
504.987 377.684 L
505.049 377.684 L
505.049 376.928 L
505.558 376.928 L
505.558 376.172 L
505.792 376.172 L
505.792 375.416 L
505.904 375.416 L
505.904 374.66 L
506.111 374.66 L
506.111 373.904 L
506.394 373.904 L
506.394 373.148 L
506.706 373.148 L
506.706 372.392 L
506.913 372.392 L
506.913 371.636 L
507.105 371.636 L
507.105 370.881 L
507.186 370.881 L
507.186 370.125 L
507.19 370.125 L
507.19 369.369 L
507.208 369.369 L
507.208 368.613 L
507.373 368.613 L
507.373 367.857 L
507.401 367.857 L
507.401 367.101 L
507.478 367.101 L
507.478 366.345 L
507.742 366.345 L
507.742 365.589 L
507.928 365.589 L
507.928 364.833 L
508.016 364.833 L
508.016 364.077 L
508.031 364.077 L
508.031 363.321 L
508.521 363.321 L
508.521 362.565 L
508.653 362.565 L
508.653 361.809 L
508.687 361.809 L
508.687 361.054 L
508.753 361.054 L
508.753 360.298 L
508.76 360.298 L
508.76 359.542 L
508.789 359.542 L
508.789 358.786 L
508.888 358.786 L
508.888 358.03 L
508.938 358.03 L
508.938 357.274 L
508.997 357.274 L
508.997 356.518 L
509.015 356.518 L
509.015 355.762 L
509.144 355.762 L
509.144 355.006 L
509.281 355.006 L
509.281 354.25 L
509.305 354.25 L
509.305 353.494 L
509.479 353.494 L
509.479 352.738 L
509.484 352.738 L
509.484 351.982 L
510.137 351.982 L
510.137 351.227 L
510.474 351.227 L
510.474 350.471 L
510.483 350.471 L
510.483 349.715 L
510.539 349.715 L
510.539 348.959 L
510.563 348.959 L
510.563 348.203 L
510.64 348.203 L
510.64 347.447 L
510.749 347.447 L
510.749 346.691 L
510.782 346.691 L
510.782 345.935 L
510.815 345.935 L
510.815 345.179 L
510.958 345.179 L
510.958 344.423 L
511.014 344.423 L
511.014 343.667 L
511.137 343.667 L
511.137 342.911 L
511.187 342.911 L
511.187 342.155 L
511.419 342.155 L
511.419 341.4 L
511.435 341.4 L
511.435 340.644 L
511.709 340.644 L
511.709 339.888 L
511.742 339.888 L
511.742 339.132 L
512.337 339.132 L
512.337 338.376 L
512.645 338.376 L
512.645 337.62 L
512.698 337.62 L
512.698 336.864 L
512.703 336.864 L
512.703 336.108 L
513.066 336.108 L
513.066 335.352 L
513.293 335.352 L
513.293 334.596 L
513.295 334.596 L
513.295 333.84 L
513.588 333.84 L
513.588 333.084 L
513.641 333.084 L
513.641 332.328 L
513.747 332.328 L
513.747 331.573 L
513.906 331.573 L
513.906 330.817 L
514.019 330.817 L
514.019 330.061 L
514.253 330.061 L
514.253 329.305 L
514.36 329.305 L
514.36 328.549 L
514.569 328.549 L
514.569 327.793 L
514.893 327.793 L
514.893 327.037 L
514.958 327.037 L
514.958 326.281 L
514.993 326.281 L
514.993 325.525 L
515.078 325.525 L
515.078 324.769 L
516.171 324.769 L
516.171 324.013 L
516.29 324.013 L
516.29 323.257 L
516.729 323.257 L
516.729 322.502 L
517.204 322.502 L
517.204 321.746 L
517.21 321.746 L
517.21 320.99 L
517.279 320.99 L
517.279 320.234 L
517.288 320.234 L
517.288 319.478 L
517.601 319.478 L
517.601 318.722 L
517.876 318.722 L
517.876 317.966 L
518.111 317.966 L
518.111 317.21 L
518.178 317.21 L
518.178 316.454 L
518.22 316.454 L
518.22 315.698 L
518.507 315.698 L
518.507 314.942 L
518.524 314.942 L
518.524 314.186 L
518.636 314.186 L
518.636 313.43 L
518.677 313.43 L
518.677 312.675 L
518.821 312.675 L
518.821 311.919 L
518.935 311.919 L
518.935 311.163 L
518.936 311.163 L
518.936 310.407 L
518.937 310.407 L
518.937 309.651 L
518.96 309.651 L
518.96 308.895 L
519.192 308.895 L
519.192 308.139 L
519.3 308.139 L
519.3 307.383 L
519.405 307.383 L
519.405 306.627 L
519.614 306.627 L
519.614 305.871 L
519.691 305.871 L
519.691 305.115 L
519.812 305.115 L
519.812 304.359 L
519.99 304.359 L
519.99 303.604 L
520.08 303.604 L
520.08 302.848 L
520.524 302.848 L
520.524 302.092 L
520.907 302.092 L
520.907 301.336 L
521.152 301.336 L
521.152 300.58 L
521.188 300.58 L
521.188 299.824 L
521.572 299.824 L
521.572 299.068 L
521.921 299.068 L
521.921 298.312 L
522.041 298.312 L
522.041 297.556 L
522.046 297.556 L
522.046 296.8 L
522.339 296.8 L
522.339 296.044 L
522.461 296.044 L
522.461 295.288 L
522.561 295.288 L
522.561 294.532 L
522.747 294.532 L
522.747 293.777 L
523.056 293.777 L
523.056 293.021 L
523.356 293.021 L
523.356 292.265 L
523.48 292.265 L
523.48 291.509 L
523.667 291.509 L
523.667 290.753 L
524.869 290.753 L
524.869 289.997 L
524.881 289.997 L
524.881 289.241 L
525.088 289.241 L
525.088 288.485 L
525.167 288.485 L
525.167 287.729 L
525.371 287.729 L
525.371 286.973 L
525.409 286.973 L
525.409 286.217 L
526.019 286.217 L
526.019 285.461 L
526.753 285.461 L
526.753 284.705 L
527.54 284.705 L
527.54 283.95 L
527.618 283.95 L
527.618 283.194 L
527.645 283.194 L
527.645 282.438 L
528.012 282.438 L
528.012 281.682 L
528.282 281.682 L
528.282 280.926 L
528.518 280.926 L
528.518 280.17 L
528.751 280.17 L
528.751 279.414 L
528.792 279.414 L
528.792 278.658 L
529.049 278.658 L
529.049 277.902 L
529.135 277.902 L
529.135 277.146 L
529.172 277.146 L
529.172 276.39 L
529.22 276.39 L
529.22 275.634 L
529.544 275.634 L
529.544 274.878 L
529.96 274.878 L
529.96 274.123 L
530.004 274.123 L
530.004 273.367 L
530.089 273.367 L
530.089 272.611 L
530.138 272.611 L
530.138 271.855 L
530.154 271.855 L
530.154 271.099 L
530.359 271.099 L
530.359 270.343 L
530.877 270.343 L
530.877 269.587 L
531.172 269.587 L
531.172 268.831 L
531.28 268.831 L
531.28 268.075 L
531.312 268.075 L
531.312 267.319 L
531.386 267.319 L
531.386 266.563 L
531.403 266.563 L
531.403 265.807 L
531.418 265.807 L
531.418 265.051 L
531.646 265.051 L
531.646 264.296 L
531.683 264.296 L
531.683 263.54 L
531.725 263.54 L
531.725 262.784 L
531.756 262.784 L
531.756 262.028 L
531.896 262.028 L
531.896 261.272 L
531.992 261.272 L
531.992 260.516 L
532.314 260.516 L
532.314 259.76 L
532.355 259.76 L
532.355 259.004 L
532.492 259.004 L
532.492 258.248 L
532.563 258.248 L
532.563 257.492 L
532.85 257.492 L
532.85 256.736 L
532.878 256.736 L
532.878 255.98 L
532.997 255.98 L
532.997 255.225 L
533.274 255.225 L
533.274 254.469 L
533.339 254.469 L
533.339 253.713 L
533.703 253.713 L
533.703 252.957 L
533.74 252.957 L
533.74 252.201 L
533.881 252.201 L
533.881 251.445 L
534.098 251.445 L
534.098 250.689 L
534.297 250.689 L
534.297 249.933 L
534.839 249.933 L
534.839 249.177 L
535.611 249.177 L
535.611 248.421 L
535.721 248.421 L
535.721 247.665 L
535.824 247.665 L
535.824 246.909 L
535.9 246.909 L
535.9 246.153 L
535.933 246.153 L
535.933 245.398 L
536.081 245.398 L
536.081 244.642 L
536.439 244.642 L
536.439 243.886 L
536.462 243.886 L
536.462 243.13 L
536.593 243.13 L
536.593 242.374 L
536.707 242.374 L
536.707 241.618 L
536.748 241.618 L
536.748 240.862 L
537.012 240.862 L
537.012 240.106 L
537.137 240.106 L
537.137 239.35 L
537.461 239.35 L
537.461 238.594 L
537.598 238.594 L
537.598 237.838 L
537.663 237.838 L
537.663 237.082 L
537.705 237.082 L
537.705 236.326 L
537.757 236.326 L
537.757 235.571 L
538.011 235.571 L
538.011 234.815 L
538.06 234.815 L
538.06 234.059 L
538.762 234.059 L
538.762 233.303 L
538.827 233.303 L
538.827 232.547 L
539.124 232.547 L
539.124 231.791 L
539.406 231.791 L
539.406 231.035 L
539.486 231.035 L
539.486 230.279 L
539.544 230.279 L
539.544 229.523 L
539.642 229.523 L
539.642 228.767 L
540.229 228.767 L
540.229 228.011 L
540.296 228.011 L
540.296 227.255 L
540.316 227.255 L
540.316 226.499 L
540.324 226.499 L
540.324 225.744 L
540.366 225.744 L
540.366 224.988 L
540.419 224.988 L
540.419 224.232 L
540.764 224.232 L
540.764 223.476 L
540.769 223.476 L
540.769 222.72 L
541.297 222.72 L
541.297 221.964 L
541.408 221.964 L
541.408 221.208 L
541.562 221.208 L
541.562 220.452 L
541.584 220.452 L
541.584 219.696 L
541.944 219.696 L
541.944 218.94 L
541.972 218.94 L
541.972 218.184 L
542.065 218.184 L
542.065 217.428 L
542.775 217.428 L
542.775 216.673 L
543.721 216.673 L
543.721 215.917 L
543.826 215.917 L
543.826 215.161 L
544.931 215.161 L
544.931 214.405 L
545.061 214.405 L
545.061 213.649 L
545.467 213.649 L
545.467 212.893 L
545.986 212.893 L
545.986 212.137 L
546.175 212.137 L
546.175 211.381 L
546.647 211.381 L
546.647 210.625 L
546.879 210.625 L
546.879 209.869 L
547.257 209.869 L
547.257 209.113 L
547.297 209.113 L
547.297 208.357 L
547.743 208.357 L
547.743 207.601 L
548.19 207.601 L
548.19 206.846 L
548.732 206.846 L
548.732 206.09 L
548.79 206.09 L
548.79 205.334 L
548.899 205.334 L
548.899 204.578 L
549.138 204.578 L
549.138 203.822 L
549.339 203.822 L
549.339 203.066 L
549.398 203.066 L
549.398 202.31 L
549.528 202.31 L
549.528 201.554 L
549.702 201.554 L
549.702 200.798 L
549.958 200.798 L
549.958 200.042 L
550.127 200.042 L
550.127 199.286 L
550.42 199.286 L
550.42 198.53 L
551.256 198.53 L
551.256 197.774 L
551.321 197.774 L
551.321 197.019 L
551.417 197.019 L
551.417 196.263 L
552.165 196.263 L
552.165 195.507 L
552.186 195.507 L
552.186 194.751 L
552.332 194.751 L
552.332 193.995 L
552.673 193.995 L
552.673 193.239 L
552.812 193.239 L
552.812 192.483 L
552.88 192.483 L
552.88 191.727 L
553.254 191.727 L
553.254 190.971 L
553.643 190.971 L
553.643 190.215 L
553.809 190.215 L
553.809 189.459 L
554.41 189.459 L
554.41 188.703 L
554.571 188.703 L
554.571 187.947 L
554.708 187.947 L
554.708 187.192 L
555.375 187.192 L
555.375 186.436 L
555.396 186.436 L
555.396 185.68 L
555.555 185.68 L
555.555 184.924 L
555.673 184.924 L
555.673 184.168 L
556.098 184.168 L
556.098 183.412 L
556.141 183.412 L
556.141 182.656 L
557.047 182.656 L
557.047 181.9 L
557.179 181.9 L
557.179 181.144 L
557.185 181.144 L
557.185 180.388 L
557.23 180.388 L
557.23 179.632 L
557.249 179.632 L
557.249 178.876 L
557.45 178.876 L
557.45 178.12 L
557.803 178.12 L
557.803 177.365 L
558.148 177.365 L
558.148 176.609 L
558.325 176.609 L
558.325 175.853 L
558.527 175.853 L
558.527 175.097 L
558.843 175.097 L
558.843 174.341 L
559.895 174.341 L
559.895 173.585 L
560.092 173.585 L
560.092 172.829 L
560.097 172.829 L
560.097 172.073 L
560.159 172.073 L
560.159 171.317 L
560.226 171.317 L
560.226 170.561 L
560.273 170.561 L
560.273 169.805 L
560.577 169.805 L
560.577 169.049 L
560.715 169.049 L
560.715 168.294 L
560.734 168.294 L
560.734 167.538 L
561.006 167.538 L
561.006 166.782 L
561.153 166.782 L
561.153 166.026 L
561.627 166.026 L
561.627 165.27 L
561.63 165.27 L
561.63 164.514 L
561.714 164.514 L
561.714 163.758 L
561.776 163.758 L
561.776 163.002 L
561.845 163.002 L
561.845 162.246 L
561.94 162.246 L
561.94 161.49 L
562.243 161.49 L
562.243 160.734 L
562.365 160.734 L
562.365 159.978 L
562.396 159.978 L
562.396 159.222 L
562.458 159.222 L
562.458 158.467 L
562.686 158.467 L
562.686 157.711 L
563.08 157.711 L
563.08 156.955 L
563.825 156.955 L
563.825 156.199 L
564.021 156.199 L
564.021 155.443 L
564.249 155.443 L
564.249 154.687 L
565.322 154.687 L
565.322 153.931 L
566.075 153.931 L
566.075 153.175 L
566.198 153.175 L
566.198 152.419 L
566.767 152.419 L
566.767 151.663 L
567.11 151.663 L
567.11 150.907 L
567.262 150.907 L
567.262 150.151 L
567.331 150.151 L
567.331 149.395 L
567.573 149.395 L
567.573 148.64 L
567.984 148.64 L
567.984 147.884 L
568.383 147.884 L
568.383 147.128 L
569.601 147.128 L
569.601 146.372 L
569.622 146.372 L
569.622 145.616 L
569.961 145.616 L
569.961 144.86 L
570.419 144.86 L
570.419 144.104 L
570.518 144.104 L
570.518 143.348 L
570.54 143.348 L
570.54 142.592 L
572.684 142.592 L
572.684 141.836 L
572.741 141.836 L
572.741 141.08 L
572.916 141.08 L
572.916 140.324 L
573.098 140.324 L
573.098 139.568 L
573.159 139.568 L
573.159 138.813 L
573.884 138.813 L
573.884 138.057 L
574.048 138.057 L
574.048 137.301 L
574.908 137.301 L
574.908 136.545 L
575.068 136.545 L
575.068 135.789 L
575.079 135.789 L
575.079 135.033 L
575.159 135.033 L
575.159 134.277 L
575.836 134.277 L
575.836 133.521 L
576.489 133.521 L
576.489 132.765 L
576.756 132.765 L
576.756 132.009 L
576.777 132.009 L
576.777 131.253 L
577.358 131.253 L
577.358 130.497 L
577.474 130.497 L
577.474 129.742 L
577.522 129.742 L
577.522 128.986 L
577.538 128.986 L
577.538 128.23 L
577.76 128.23 L
577.76 127.474 L
577.854 127.474 L
577.854 126.718 L
578.233 126.718 L
578.233 125.962 L
578.242 125.962 L
578.242 125.206 L
578.469 125.206 L
578.469 124.45 L
578.533 124.45 L
578.533 123.694 L
578.946 123.694 L
578.946 122.938 L
579.203 122.938 L
579.203 122.182 L
579.224 122.182 L
579.224 121.426 L
579.603 121.426 L
579.603 120.67 L
579.655 120.67 L
579.655 119.915 L
580.109 119.915 L
580.109 119.159 L
580.689 119.159 L
580.689 118.403 L
581.206 118.403 L
581.206 117.647 L
581.477 117.647 L
581.477 116.891 L
582.285 116.891 L
582.285 116.135 L
583.092 116.135 L
583.092 115.379 L
583.326 115.379 L
583.326 114.623 L
583.386 114.623 L
583.386 113.867 L
583.769 113.867 L
583.769 113.111 L
583.78 113.111 L
583.78 112.355 L
583.905 112.355 L
583.905 111.599 L
584.016 111.599 L
584.016 110.843 L
584.067 110.843 L
584.067 110.088 L
584.385 110.088 L
584.385 109.332 L
584.918 109.332 L
584.918 108.576 L
585.18 108.576 L
585.18 107.82 L
585.679 107.82 L
585.679 107.064 L
586.086 107.064 L
586.086 106.308 L
586.835 106.308 L
586.835 105.552 L
588.315 105.552 L
588.315 104.796 L
588.919 104.796 L
588.919 104.04 L
589.642 104.04 L
589.642 103.284 L
589.938 103.284 L
589.938 102.528 L
589.974 102.528 L
589.974 101.772 L
591.049 101.772 L
591.049 101.016 L
591.505 101.016 L
591.505 100.261 L
591.593 100.261 L
591.593 99.505 L
592.271 99.505 L
592.271 98.749 L
592.924 98.749 L
592.924 97.993 L
593.571 97.993 L
593.571 97.237 L
593.605 97.237 L
593.605 96.481 L
594.797 96.481 L
594.797 95.725 L
596.19 95.725 L
596.19 94.969 L
597.802 94.969 L
597.802 94.213 L
600.788 94.213 L
600.788 93.457 L
601.165 93.457 L
601.165 92.701 L
602.612 92.701 L
602.612 91.945 L
602.639 91.945 L
602.639 91.189 L
602.894 91.189 L
602.894 90.434 L
603.037 90.434 L
603.037 89.678 L
604.263 89.678 L
604.263 88.922 L
605.71 88.922 L
605.71 88.166 L
605.797 88.166 L
605.797 87.41 L
607.687 87.41 L
607.687 86.654 L
607.7 86.654 L
607.7 85.898 L
608.983 85.898 L
608.983 85.142 L
609.54 85.142 L
609.54 84.386 L
611.527 84.386 L
611.527 83.63 L
611.75 83.63 L
611.75 82.874 L
611.993 82.874 L
611.993 82.118 L
612.657 82.118 L
612.657 81.362 L
613.711 81.362 L
613.711 80.607 L
614.265 80.607 L
614.265 79.851 L
614.654 79.851 L
614.654 79.095 L
615.021 79.095 L
615.021 78.339 L
616.401 78.339 L
616.401 77.583 L
618.926 77.583 L
618.926 76.827 L
621.023 76.827 L
621.023 76.071 L
621.713 76.071 L
621.713 75.315 L
623.433 75.315 L
623.433 74.559 L
624.618 74.559 L
624.618 73.803 L
628.201 73.803 L
628.201 73.047 L
632.256 73.047 L
632.256 72.291 L
636.176 72.291 L
636.176 71.536 L
638.435 71.536 L
638.435 70.78 L
640.537 70.78 L
640.537 70.024 L
642.111 70.024 L
642.111 69.268 L
655.651 69.268 L
655.651 68.512 L
656.881 68.512 L
656.881 67.756 L
667.477 67.756 L
667.477 67 L
S
GR
GS
[1.03672 0 0 1.03667 0 0] CT
0.467 0.675 0.188 RC
[20 5 10 5] 0 setdash
2 LJ
5.788 LW
N
192.16 801 M
192.16 800.959 L
210.152 800.959 L
210.152 800.917 L
215.015 800.917 L
215.367 800.834 L
221.917 800.834 L
221.917 800.793 L
222.553 800.793 L
222.553 800.751 L
224.12 800.751 L
224.12 800.71 L
228.222 800.71 L
228.222 800.669 L
235.534 800.669 L
236.36 800.586 L
240.482 800.586 L
240.482 800.544 L
241.161 800.544 L
241.161 800.503 L
250.154 800.503 L
250.154 800.461 L
251.324 800.461 L
252.109 800.337 L
255.652 800.337 L
256.248 800.254 L
257.901 800.254 L
257.901 800.213 L
258.454 800.213 L
258.454 800.171 L
262.203 800.171 L
262.249 800.089 L
263.376 800.089 L
263.376 800.047 L
266.998 800.047 L
266.998 800.006 L
269.357 800.006 L
269.357 799.964 L
269.996 799.964 L
271.001 799.881 L
273.051 799.881 L
274.058 799.757 L
275.642 799.757 L
275.642 799.716 L
276.547 799.716 L
277.077 799.591 L
278.897 799.591 L
279.447 799.509 L
280.343 799.509 L
280.343 799.467 L
281.975 799.467 L
281.975 799.426 L
284.305 799.426 L
284.305 799.384 L
285.68 799.384 L
285.68 799.343 L
287.675 799.343 L
288.043 799.26 L
290.033 799.26 L
290.033 799.219 L
290.87 799.219 L
291.353 799.053 L
293.399 799.053 L
293.399 799.012 L
294.714 799.012 L
295.102 798.846 L
296.145 798.846 L
296.753 798.639 L
297.84 798.639 L
298.699 798.514 L
299.764 798.514 L
300.344 798.349 L
300.608 798.349 L
301.766 798.266 L
302.309 798.266 L
303.09 798.142 L
304.105 798.142 L
304.723 798.017 L
304.81 798.017 L
304.81 797.976 L
306.273 797.976 L
306.886 797.81 L
308.708 797.81 L
308.708 797.769 L
310.496 797.769 L
310.496 797.727 L
310.719 797.727 L
311.007 797.603 L
313.066 797.603 L
313.066 797.562 L
314.506 797.562 L
314.506 797.52 L
315.553 797.52 L
315.988 797.354 L
316.556 797.354 L
317.094 797.23 L
317.928 797.23 L
318.416 797.147 L
319.341 797.147 L
320.731 796.982 L
322.078 796.982 L
322.078 796.94 L
322.238 796.94 L
323.186 796.733 L
323.77 796.733 L
324.544 796.567 L
325.261 796.567 L
326.403 796.443 L
326.988 796.443 L
327.841 796.195 L
328.463 796.195 L
329.412 795.987 L
329.534 795.987 L
330.754 795.863 L
331.15 795.863 L
332.195 795.739 L
332.62 795.739 L
332.875 795.656 L
334.126 795.656 L
334.692 795.532 L
335.359 795.532 L
336.719 795.325 L
336.762 795.325 L
338.136 795.117 L
338.382 795.117 L
339.001 794.993 L
339.704 794.993 L
340.967 794.662 L
342.383 794.662 L
342.383 794.62 L
343.001 794.62 L
343.53 794.496 L
344.154 794.496 L
345.12 794.165 L
345.557 794.165 L
346.128 793.957 L
346.91 793.957 L
348.324 793.709 L
348.439 793.709 L
349.778 793.253 L
349.906 793.253 L
350.789 792.922 L
351.257 792.922 L
352.683 792.425 L
352.92 792.425 L
354.122 792.052 L
354.239 792.052 L
355.385 791.762 L
355.605 791.762 L
356.934 791.016 L
357.104 791.016 L
358.409 790.27 L
358.595 790.27 L
359.86 789.732 L
360.099 789.732 L
361.292 789.359 L
361.481 789.359 L
362.806 788.613 L
362.983 788.613 L
364.261 788.116 L
364.342 788.116 L
365.689 787.329 L
365.802 787.329 L
367.091 786.501 L
367.287 786.501 L
368.64 785.672 L
368.694 785.672 L
370.021 784.636 L
370.148 784.636 L
371.538 783.891 L
371.739 783.891 L
372.964 783.269 L
373.071 783.269 L
374.287 782.524 L
374.492 782.524 L
375.86 781.737 L
375.971 781.737 L
377.324 781.074 L
377.417 781.074 L
378.578 780.038 L
378.829 780.038 L
380.173 779.085 L
380.397 779.085 L
381.648 777.967 L
381.727 777.967 L
383.169 776.558 L
383.237 776.558 L
384.614 775.315 L
384.676 775.315 L
386.072 773.99 L
386.081 773.99 L
387.512 772.291 L
387.618 772.291 L
388.923 770.924 L
388.983 770.924 L
390.39 769.101 L
390.458 769.101 L
391.794 767.486 L
391.892 767.486 L
393.32 765.332 L
393.337 765.332 L
394.783 763.467 L
394.799 763.467 L
396.19 761.479 L
396.254 761.479 L
397.625 759.49 L
397.717 759.49 L
399.13 757.129 L
399.149 757.129 L
400.528 755.265 L
400.597 755.265 L
402.03 753.069 L
402.042 753.069 L
403.48 750.542 L
403.552 750.542 L
404.942 748.347 L
404.953 748.347 L
406.367 745.654 L
406.426 745.654 L
407.824 743.21 L
407.853 743.21 L
409.29 740.724 L
409.301 740.724 L
410.748 738.321 L
410.757 738.321 L
412.178 735.421 L
412.207 735.421 L
413.615 732.811 L
413.722 732.811 L
415.083 729.704 L
415.109 729.704 L
416.544 726.225 L
416.567 726.225 L
417.993 722.455 L
418.03 722.455 L
419.454 719.389 L
419.521 719.389 L
420.864 716.034 L
420.917 716.034 L
422.355 712.761 L
422.361 712.761 L
423.79 708.825 L
423.867 708.825 L
425.239 704.931 L
425.267 704.931 L
426.711 700.913 L
426.72 700.913 L
428.162 696.646 L
428.184 696.646 L
429.614 693.249 L
429.651 693.249 L
431.047 688.443 L
431.069 688.443 L
432.519 684.425 L
432.544 684.425 L
433.955 679.909 L
433.983 679.909 L
435.404 675.808 L
435.439 675.808 L
436.872 671.086 L
436.896 671.086 L
438.325 665.369 L
438.326 665.369 L
439.761 659.403 L
439.782 659.403 L
441.204 654.432 L
441.231 654.432 L
442.679 648.425 L
442.682 648.425 L
444.129 643.04 L
444.134 643.04 L
445.574 636.95 L
445.594 636.95 L
447.024 630.694 L
447.087 630.694 L
448.476 624.812 L
448.497 624.812 L
449.929 619.509 L
449.97 619.509 L
451.36 613.295 L
451.39 613.295 L
452.819 607.537 L
452.855 607.537 L
454.289 601.406 L
454.293 601.406 L
455.741 594.57 L
455.75 594.57 L
457.187 588.356 L
457.207 588.356 L
458.629 582.225 L
458.65 582.225 L
460.092 575.348 L
460.109 575.348 L
461.546 569.466 L
461.566 569.466 L
462.998 562.506 L
463.019 562.506 L
464.431 556.582 L
464.452 556.582 L
465.896 549.829 L
465.917 549.829 L
467.354 543.325 L
467.358 543.325 L
468.78 536.407 L
468.819 536.407 L
470.243 529.737 L
470.262 529.737 L
471.708 522.985 L
471.717 522.985 L
473.158 516.398 L
473.164 516.398 L
474.597 508.278 L
474.612 508.278 L
476.058 501.111 L
476.076 501.111 L
477.513 493.572 L
477.521 493.572 L
478.961 486.612 L
478.973 486.612 L
480.412 479.238 L
480.423 479.238 L
481.867 472.444 L
481.872 472.444 L
483.317 465.65 L
483.321 465.65 L
484.766 458.856 L
484.784 458.856 L
486.215 450.944 L
486.227 450.944 L
487.671 444.232 L
487.674 444.232 L
489.121 436.983 L
489.13 436.983 L
490.57 430.064 L
490.577 430.064 L
492.01 422.152 L
492.033 422.152 L
493.476 414.529 L
493.481 414.529 L
494.923 406.948 L
494.953 406.948 L
496.352 400.279 L
496.391 400.279 L
497.821 393.816 L
497.834 393.816 L
499.282 386.401 L
499.292 386.401 L
500.719 379.109 L
500.741 379.109 L
502.183 371.653 L
502.212 371.653 L
503.608 364.776 L
503.648 364.776 L
505.085 357.526 L
505.101 357.526 L
506.537 351.188 L
506.548 351.188 L
507.993 343.731 L
507.997 343.731 L
509.43 336.067 L
509.459 336.067 L
510.883 330.06 L
510.902 330.06 L
512.335 324.095 L
512.35 324.095 L
513.792 316.679 L
513.801 316.679 L
515.239 309.43 L
515.256 309.43 L
516.692 302.801 L
516.705 302.801 L
518.149 295.759 L
518.157 295.759 L
519.604 289.338 L
519.607 289.338 L
521.045 281.549 L
521.062 281.549 L
522.505 276.122 L
522.513 276.122 L
523.955 270.53 L
523.979 270.53 L
525.36 264.896 L
525.43 264.896 L
526.835 258.889 L
526.863 258.889 L
528.258 254.042 L
528.314 254.042 L
529.743 248.822 L
529.78 248.822 L
531.195 243.602 L
531.224 243.602 L
532.665 238.134 L
532.672 238.134 L
534.103 232.707 L
534.12 232.707 L
535.561 228.026 L
535.596 228.026 L
536.987 222.143 L
537.025 222.143 L
538.467 217.835 L
538.476 217.835 L
539.923 212.035 L
539.94 212.035 L
541.366 207.727 L
541.387 207.727 L
542.821 203.833 L
542.839 203.833 L
544.273 199.441 L
544.288 199.441 L
545.723 194.885 L
545.736 194.885 L
547.166 189.748 L
547.185 189.748 L
548.622 185.522 L
548.633 185.522 L
550.078 181.131 L
550.131 181.131 L
551.53 177.361 L
551.553 177.361 L
552.92 173.923 L
552.989 173.923 L
554.43 169.904 L
554.449 169.904 L
555.876 165.927 L
555.891 165.927 L
557.339 162.53 L
557.358 162.53 L
558.779 158.429 L
558.807 158.429 L
560.228 155.198 L
560.267 155.198 L
561.689 151.925 L
561.728 151.925 L
563.14 148.735 L
563.172 148.735 L
564.591 145.711 L
564.623 145.711 L
566.022 143.142 L
566.066 143.142 L
567.45 140.284 L
567.542 140.284 L
568.945 136.928 L
568.956 136.928 L
570.382 134.07 L
570.408 134.07 L
571.816 131.709 L
571.862 131.709 L
573.261 129.43 L
573.354 129.43 L
574.754 127.276 L
574.759 127.276 L
576.158 124.832 L
576.246 124.832 L
577.605 122.512 L
577.671 122.512 L
579.045 120.731 L
579.153 120.731 L
580.557 118.162 L
580.572 118.162 L
581.987 116.132 L
582.02 116.132 L
583.454 113.647 L
583.47 113.647 L
584.865 112.197 L
584.926 112.197 L
586.354 110.622 L
586.423 110.622 L
587.816 109.048 L
587.839 109.048 L
589.241 107.557 L
589.277 107.557 L
590.67 106.355 L
590.729 106.355 L
592.142 104.657 L
592.207 104.657 L
593.516 103.083 L
593.635 103.083 L
595.034 101.757 L
595.084 101.757 L
596.466 99.934 L
596.532 99.934 L
597.947 98.443 L
598.126 98.443 L
599.419 97.366 L
599.471 97.366 L
600.844 95.833 L
600.959 95.833 L
602.211 94.632 L
602.398 94.632 L
603.772 93.265 L
603.826 93.265 L
605.227 92.229 L
605.289 92.229 L
606.651 91.359 L
606.712 91.359 L
607.99 90.53 L
608.249 90.53 L
609.303 89.536 L
609.594 89.536 L
611.002 88.625 L
611.047 88.625 L
612.351 87.879 L
612.569 87.879 L
613.836 87.092 L
613.949 87.092 L
615.35 86.388 L
615.49 86.388 L
616.803 85.725 L
616.869 85.725 L
618.283 84.855 L
618.319 84.855 L
619.609 84.026 L
619.855 84.026 L
621.176 83.364 L
621.239 83.364 L
622.517 82.576 L
622.656 82.576 L
624.099 81.997 L
624.144 81.997 L
625.333 81.292 L
625.622 81.292 L
627.003 80.588 L
627.045 80.588 L
628.069 79.884 L
628.57 79.884 L
629.907 79.345 L
630.111 79.345 L
631.347 78.848 L
631.378 78.848 L
632.787 78.475 L
632.86 78.475 L
634.214 77.937 L
634.549 77.937 L
635.623 77.564 L
635.861 77.564 L
637.063 77.232 L
637.291 77.232 L
638.612 76.57 L
638.919 76.57 L
639.976 76.238 L
640.131 76.238 L
641.274 75.617 L
642.009 75.617 L
642.638 75.41 L
643.283 75.41 L
644.373 75.244 L
644.855 75.244 L
645.868 74.913 L
645.92 74.913 L
647.27 74.54 L
647.542 74.54 L
647.778 74.457 L
648.966 74.457 L
650.101 74.125 L
650.274 74.125 L
651.669 73.835 L
651.7 73.835 L
653.126 73.504 L
653.277 73.504 L
653.89 73.338 L
654.691 73.338 L
656.024 73.131 L
656.053 73.131 L
657.2 72.924 L
657.885 72.924 L
658.648 72.675 L
659.011 72.675 L
660.272 72.303 L
660.669 72.303 L
661.786 72.013 L
662.257 72.013 L
663.171 71.764 L
664.539 71.764 L
664.636 71.681 L
665.119 71.681 L
665.933 71.598 L
666.47 71.598 L
667.552 71.433 L
667.788 71.433 L
669.048 71.184 L
670.251 71.184 L
670.251 71.143 L
670.592 71.143 L
670.791 71.06 L
672.289 71.06 L
673.234 70.728 L
673.73 70.728 L
674.681 70.604 L
675.185 70.604 L
676.242 70.48 L
676.528 70.48 L
677.767 70.231 L
678.7 70.231 L
678.902 70.107 L
679.757 70.107 L
680.601 69.983 L
682.145 69.983 L
682.145 69.941 L
682.461 69.941 L
683.613 69.776 L
683.832 69.776 L
684.755 69.61 L
685.446 69.61 L
686.198 69.444 L
686.702 69.444 L
687.809 69.32 L
688.241 69.32 L
688.241 69.278 L
690.121 69.278 L
690.121 69.237 L
691.774 69.237 L
692.264 69.071 L
696.042 69.071 L
696.157 68.988 L
696.971 68.988 L
696.971 68.947 L
698.169 68.947 L
699.571 68.864 L
699.72 68.864 L
699.72 68.823 L
701.594 68.823 L
701.874 68.699 L
703.739 68.699 L
703.739 68.657 L
703.983 68.657 L
704.762 68.533 L
705.933 68.533 L
705.933 68.491 L
706.959 68.491 L
707.166 68.409 L
708.512 68.409 L
708.512 68.367 L
710.542 68.367 L
710.606 68.284 L
711.76 68.284 L
712.398 68.201 L
715.389 68.201 L
715.389 68.16 L
717.264 68.16 L
717.264 68.119 L
719.263 68.119 L
719.384 68.036 L
724.031 68.036 L
724.142 67.953 L
727.112 67.953 L
727.112 67.911 L
731.288 67.911 L
731.288 67.87 L
734.804 67.87 L
734.804 67.829 L
737.017 67.829 L
737.299 67.746 L
738.307 67.746 L
738.307 67.704 L
742.328 67.704 L
742.328 67.663 L
744.964 67.663 L
744.964 67.621 L
746.942 67.621 L
746.942 67.58 L
756.7 67.58 L
756.7 67.539 L
757.658 67.539 L
757.834 67.456 L
761.625 67.456 L
761.799 67.373 L
770.819 67.373 L
770.819 67.331 L
775.385 67.331 L
775.385 67.29 L
787.353 67.29 L
787.353 67.249 L
792.775 67.249 L
792.775 67.207 L
796.125 67.207 L
796.125 67.166 L
799.894 67.166 L
799.894 67.124 L
802.759 67.124 L
802.759 67.083 L
809.485 67.083 L
809.485 67.041 L
826.208 67.041 L
826.208 67 L
S
GR
GS
[1.03672 0 0 1.03667 0 0] CT
1 GC
N
130 238 M
130 77 L
516 77 L
516 238 L
cp
f
GR
GS
[1.03672 0 0 1.03667 173.13175 97.96499] CT
/Helvetica 26.045 F
GS
[1 0 0 1 0 0] CT
0 9.5 moveto 
1 -1 scale
(Healthy \(mean = 0.4054\)) t 
GR
GR
GS
[1.03672 0 0 1.03667 0 0] CT
0 0.447 0.741 RC
1 LJ
5.788 LW
N
134 94.5 M
164 94.5 L
S
GR
GS
[1.03672 0 0 1.03667 173.13175 130.62] CT
/Helvetica 26.045 F
GS
[1 0 0 1 0 0] CT
0 9.5 moveto 
1 -1 scale
(Clear \(mean = 0.4026\)) t 
GR
GR
GS
[1.03672 0 0 1.03667 0 0] CT
0.851 0.325 0.098 RC
1 LJ
5.788 LW
N
134 126 M
164 126 L
S
GR
GS
[1.03672 0 0 1.03667 173.13175 163.275] CT
/Helvetica 26.045 F
GS
[1 0 0 1 0 0] CT
0 9.5 moveto 
1 -1 scale
(Geometry \(mean = 0.4039\)) t 
GR
GR
GS
[1.03672 0 0 1.03667 0 0] CT
0.929 0.694 0.125 RC
[20 20] 0 setdash
2 LJ
5.788 LW
N
134 157.5 M
164 157.5 L
S
GR
GS
[1.03672 0 0 1.03667 173.13175 195.93] CT
/Helvetica 26.045 F
GS
[1 0 0 1 0 0] CT
0 9.5 moveto 
1 -1 scale
(Tissue \(mean = 0.4227\)) t 
GR
GR
GS
[1.03672 0 0 1.03667 0 0] CT
0.494 0.184 0.557 RC
[5 5] 0 setdash
2 LJ
5.788 LW
N
134 189 M
164 189 L
S
GR
GS
[1.03672 0 0 1.03667 173.13175 228.585] CT
/Helvetica 26.045 F
GS
[1 0 0 1 0 0] CT
0 9.5 moveto 
1 -1 scale
(Obstructions \(mean = 0.4132\)) t 
GR
GR
GS
[1.03672 0 0 1.03667 0 0] CT
0.467 0.675 0.188 RC
[20 5 10 5] 0 setdash
2 LJ
5.788 LW
N
134 220.5 M
164 220.5 L
S
GR
GS
[1.03672 0 0 1.03667 0 0] CT
0.149 GC
10.0 ML
0.482 LW
N
130 238 M
130 77 L
516 77 L
516 238 L
cp
S
GR
%%Trailer
%%Pages: 1
%%EOF
