%!PS-Adobe-3.0 EPSF-3.0
%%Creator: (MATLAB, The Mathworks, Inc. Version 9.2.0.538062 \(R2017a\). Operating System: Mac OS X)
%%Title: /Users/trokielewicz/Dropbox/Aplikacje/Texpad/IrisDisease-BookChapter-2016/images/subsets-ROC-IC.eps
%%CreationDate: 2017-07-25T13:56:04
%%Pages: (atend)
%%BoundingBox: 0 0 960 900
%%LanguageLevel: 3
%%EndComments
%%BeginProlog
%%BeginResource: procset (Apache XML Graphics Std ProcSet) 1.2 0
%%Version: 1.2 0
%%Copyright: (Copyright 2001-2003,2010 The Apache Software Foundation. License terms: http://www.apache.org/licenses/LICENSE-2.0)
/bd{bind def}bind def
/ld{load def}bd
/GR/grestore ld
/M/moveto ld
/LJ/setlinejoin ld
/C/curveto ld
/f/fill ld
/LW/setlinewidth ld
/GC/setgray ld
/t/show ld
/N/newpath ld
/CT/concat ld
/cp/closepath ld
/S/stroke ld
/L/lineto ld
/CC/setcmykcolor ld
/A/ashow ld
/GS/gsave ld
/RC/setrgbcolor ld
/RM/rmoveto ld
/ML/setmiterlimit ld
/re {4 2 roll M
1 index 0 rlineto
0 exch rlineto
neg 0 rlineto
cp } bd
/_ctm matrix def
/_tm matrix def
/BT { _ctm currentmatrix pop matrix _tm copy pop 0 0 moveto } bd
/ET { _ctm setmatrix } bd
/iTm { _ctm setmatrix _tm concat } bd
/Tm { _tm astore pop iTm 0 0 moveto } bd
/ux 0.0 def
/uy 0.0 def
/F {
  /Tp exch def
  /Tf exch def
  Tf findfont Tp scalefont setfont
  /cf Tf def  /cs Tp def
} bd
/ULS {currentpoint /uy exch def /ux exch def} bd
/ULE {
  /Tcx currentpoint pop def
  gsave
  newpath
  cf findfont cs scalefont dup
  /FontMatrix get 0 get /Ts exch def /FontInfo get dup
  /UnderlinePosition get Ts mul /To exch def
  /UnderlineThickness get Ts mul /Tt exch def
  ux uy To add moveto  Tcx uy To add lineto
  Tt setlinewidth stroke
  grestore
} bd
/OLE {
  /Tcx currentpoint pop def
  gsave
  newpath
  cf findfont cs scalefont dup
  /FontMatrix get 0 get /Ts exch def /FontInfo get dup
  /UnderlinePosition get Ts mul /To exch def
  /UnderlineThickness get Ts mul /Tt exch def
  ux uy To add cs add moveto Tcx uy To add cs add lineto
  Tt setlinewidth stroke
  grestore
} bd
/SOE {
  /Tcx currentpoint pop def
  gsave
  newpath
  cf findfont cs scalefont dup
  /FontMatrix get 0 get /Ts exch def /FontInfo get dup
  /UnderlinePosition get Ts mul /To exch def
  /UnderlineThickness get Ts mul /Tt exch def
  ux uy To add cs 10 mul 26 idiv add moveto Tcx uy To add cs 10 mul 26 idiv add lineto
  Tt setlinewidth stroke
  grestore
} bd
/QT {
/Y22 exch store
/X22 exch store
/Y21 exch store
/X21 exch store
currentpoint
/Y21 load 2 mul add 3 div exch
/X21 load 2 mul add 3 div exch
/X21 load 2 mul /X22 load add 3 div
/Y21 load 2 mul /Y22 load add 3 div
/X22 load /Y22 load curveto
} bd
/SSPD {
dup length /d exch dict def
{
/v exch def
/k exch def
currentpagedevice k known {
/cpdv currentpagedevice k get def
v cpdv ne {
/upd false def
/nullv v type /nulltype eq def
/nullcpdv cpdv type /nulltype eq def
nullv nullcpdv or
{
/upd true def
} {
/sametype v type cpdv type eq def
sametype {
v type /arraytype eq {
/vlen v length def
/cpdvlen cpdv length def
vlen cpdvlen eq {
0 1 vlen 1 sub {
/i exch def
/obj v i get def
/cpdobj cpdv i get def
obj cpdobj ne {
/upd true def
exit
} if
} for
} {
/upd true def
} ifelse
} {
v type /dicttype eq {
v {
/dv exch def
/dk exch def
/cpddv cpdv dk get def
dv cpddv ne {
/upd true def
exit
} if
} forall
} {
/upd true def
} ifelse
} ifelse
} if
} ifelse
upd true eq {
d k v put
} if
} if
} if
} forall
d length 0 gt {
d setpagedevice
} if
} bd
/RE { % /NewFontName [NewEncodingArray] /FontName RE -
  findfont dup length dict begin
  {
    1 index /FID ne
    {def} {pop pop} ifelse
  } forall
  /Encoding exch def
  /FontName 1 index def
  currentdict definefont pop
  end
} bind def
%%EndResource
%%BeginResource: procset (Apache XML Graphics EPS ProcSet) 1.0 0
%%Version: 1.0 0
%%Copyright: (Copyright 2002-2003 The Apache Software Foundation. License terms: http://www.apache.org/licenses/LICENSE-2.0)
/BeginEPSF { %def
/b4_Inc_state save def         % Save state for cleanup
/dict_count countdictstack def % Count objects on dict stack
/op_count count 1 sub def      % Count objects on operand stack
userdict begin                 % Push userdict on dict stack
/showpage { } def              % Redefine showpage, { } = null proc
0 setgray 0 setlinecap         % Prepare graphics state
1 setlinewidth 0 setlinejoin
10 setmiterlimit [ ] 0 setdash newpath
/languagelevel where           % If level not equal to 1 then
{pop languagelevel             % set strokeadjust and
1 ne                           % overprint to their defaults.
{false setstrokeadjust false setoverprint
} if
} if
} bd
/EndEPSF { %def
count op_count sub {pop} repeat            % Clean up stacks
countdictstack dict_count sub {end} repeat
b4_Inc_state restore
} bd
%%EndResource
%FOPBeginFontDict
%%IncludeResource: font Courier-Bold
%%IncludeResource: font Helvetica
%%IncludeResource: font Courier-BoldOblique
%%IncludeResource: font Courier-Oblique
%%IncludeResource: font Times-Roman
%%IncludeResource: font Helvetica-BoldOblique
%%IncludeResource: font Helvetica-Bold
%%IncludeResource: font Helvetica-Oblique
%%IncludeResource: font Times-BoldItalic
%%IncludeResource: font Courier
%%IncludeResource: font Times-Italic
%%IncludeResource: font Times-Bold
%%IncludeResource: font Symbol
%%IncludeResource: font ZapfDingbats
%FOPEndFontDict
%%BeginResource: encoding WinAnsiEncoding
/WinAnsiEncoding [
/.notdef /.notdef /.notdef /.notdef /.notdef
/.notdef /.notdef /.notdef /.notdef /.notdef
/.notdef /.notdef /.notdef /.notdef /.notdef
/.notdef /.notdef /.notdef /.notdef /.notdef
/.notdef /.notdef /.notdef /.notdef /.notdef
/.notdef /.notdef /.notdef /.notdef /.notdef
/.notdef /.notdef /space /exclam /quotedbl
/numbersign /dollar /percent /ampersand /quotesingle
/parenleft /parenright /asterisk /plus /comma
/hyphen /period /slash /zero /one
/two /three /four /five /six
/seven /eight /nine /colon /semicolon
/less /equal /greater /question /at
/A /B /C /D /E
/F /G /H /I /J
/K /L /M /N /O
/P /Q /R /S /T
/U /V /W /X /Y
/Z /bracketleft /backslash /bracketright /asciicircum
/underscore /quoteleft /a /b /c
/d /e /f /g /h
/i /j /k /l /m
/n /o /p /q /r
/s /t /u /v /w
/x /y /z /braceleft /bar
/braceright /asciitilde /bullet /Euro /bullet
/quotesinglbase /florin /quotedblbase /ellipsis /dagger
/daggerdbl /circumflex /perthousand /Scaron /guilsinglleft
/OE /bullet /Zcaron /bullet /bullet
/quoteleft /quoteright /quotedblleft /quotedblright /bullet
/endash /emdash /asciitilde /trademark /scaron
/guilsinglright /oe /bullet /zcaron /Ydieresis
/space /exclamdown /cent /sterling /currency
/yen /brokenbar /section /dieresis /copyright
/ordfeminine /guillemotleft /logicalnot /sfthyphen /registered
/macron /degree /plusminus /twosuperior /threesuperior
/acute /mu /paragraph /middot /cedilla
/onesuperior /ordmasculine /guillemotright /onequarter /onehalf
/threequarters /questiondown /Agrave /Aacute /Acircumflex
/Atilde /Adieresis /Aring /AE /Ccedilla
/Egrave /Eacute /Ecircumflex /Edieresis /Igrave
/Iacute /Icircumflex /Idieresis /Eth /Ntilde
/Ograve /Oacute /Ocircumflex /Otilde /Odieresis
/multiply /Oslash /Ugrave /Uacute /Ucircumflex
/Udieresis /Yacute /Thorn /germandbls /agrave
/aacute /acircumflex /atilde /adieresis /aring
/ae /ccedilla /egrave /eacute /ecircumflex
/edieresis /igrave /iacute /icircumflex /idieresis
/eth /ntilde /ograve /oacute /ocircumflex
/otilde /odieresis /divide /oslash /ugrave
/uacute /ucircumflex /udieresis /yacute /thorn
/ydieresis
] def
%%EndResource
%FOPBeginFontReencode
/Courier-Bold findfont
dup length dict begin
  {1 index /FID ne {def} {pop pop} ifelse} forall
  /Encoding WinAnsiEncoding def
  currentdict
end
/Courier-Bold exch definefont pop
/Helvetica findfont
dup length dict begin
  {1 index /FID ne {def} {pop pop} ifelse} forall
  /Encoding WinAnsiEncoding def
  currentdict
end
/Helvetica exch definefont pop
/Courier-BoldOblique findfont
dup length dict begin
  {1 index /FID ne {def} {pop pop} ifelse} forall
  /Encoding WinAnsiEncoding def
  currentdict
end
/Courier-BoldOblique exch definefont pop
/Courier-Oblique findfont
dup length dict begin
  {1 index /FID ne {def} {pop pop} ifelse} forall
  /Encoding WinAnsiEncoding def
  currentdict
end
/Courier-Oblique exch definefont pop
/Times-Roman findfont
dup length dict begin
  {1 index /FID ne {def} {pop pop} ifelse} forall
  /Encoding WinAnsiEncoding def
  currentdict
end
/Times-Roman exch definefont pop
/Helvetica-BoldOblique findfont
dup length dict begin
  {1 index /FID ne {def} {pop pop} ifelse} forall
  /Encoding WinAnsiEncoding def
  currentdict
end
/Helvetica-BoldOblique exch definefont pop
/Helvetica-Bold findfont
dup length dict begin
  {1 index /FID ne {def} {pop pop} ifelse} forall
  /Encoding WinAnsiEncoding def
  currentdict
end
/Helvetica-Bold exch definefont pop
/Helvetica-Oblique findfont
dup length dict begin
  {1 index /FID ne {def} {pop pop} ifelse} forall
  /Encoding WinAnsiEncoding def
  currentdict
end
/Helvetica-Oblique exch definefont pop
/Times-BoldItalic findfont
dup length dict begin
  {1 index /FID ne {def} {pop pop} ifelse} forall
  /Encoding WinAnsiEncoding def
  currentdict
end
/Times-BoldItalic exch definefont pop
/Courier findfont
dup length dict begin
  {1 index /FID ne {def} {pop pop} ifelse} forall
  /Encoding WinAnsiEncoding def
  currentdict
end
/Courier exch definefont pop
/Times-Italic findfont
dup length dict begin
  {1 index /FID ne {def} {pop pop} ifelse} forall
  /Encoding WinAnsiEncoding def
  currentdict
end
/Times-Italic exch definefont pop
/Times-Bold findfont
dup length dict begin
  {1 index /FID ne {def} {pop pop} ifelse} forall
  /Encoding WinAnsiEncoding def
  currentdict
end
/Times-Bold exch definefont pop
%FOPEndFontReencode
%%EndProlog
%%Page: 1 1
%%PageBoundingBox: 0 0 960 900
%%BeginPageSetup
[1 0 0 -1 0 900] CT
%%EndPageSetup
GS
1 GC
N
0 0 960 900 re
f
GR
GS
1 GC
N
0 0 960 900 re
f
GR
GS
1 GC
N
125 801 M
869 801 L
869 67 L
125 67 L
cp
f
GR
GS
0.873 GC
1 LJ
0.5 LW
N
273.74 801 M
273.74 67 L
S
GR
GS
0.873 GC
1 LJ
0.5 LW
N
422.555 801 M
422.555 67 L
S
GR
GS
0.873 GC
1 LJ
0.5 LW
N
571.37 801 M
571.37 67 L
S
GR
GS
0.873 GC
1 LJ
0.5 LW
N
720.185 801 M
720.185 67 L
S
GR
GS
0.873 GC
1 LJ
0.5 LW
N
869 801 M
869 67 L
S
GR
GS
0.873 GC
1 LJ
0.5 LW
N
869 801 M
125 801 L
S
GR
GS
0.873 GC
1 LJ
0.5 LW
N
869 654.2 M
125 654.2 L
S
GR
GS
0.873 GC
1 LJ
0.5 LW
N
869 507.4 M
125 507.4 L
S
GR
GS
0.873 GC
1 LJ
0.5 LW
N
869 360.6 M
125 360.6 L
S
GR
GS
0.873 GC
1 LJ
0.5 LW
N
869 213.8 M
125 213.8 L
S
GR
GS
0.873 GC
1 LJ
0.5 LW
N
869 67 M
125 67 L
S
GR
GS
0.149 GC
2 setlinecap
1 LJ
0.5 LW
N
125 801 M
869 801 L
S
GR
GS
0.149 GC
2 setlinecap
1 LJ
0.5 LW
N
125 67 M
869 67 L
S
GR
GS
0.149 GC
2 setlinecap
1 LJ
0.5 LW
N
273.74 801 M
273.74 793.56 L
S
GR
GS
0.149 GC
2 setlinecap
1 LJ
0.5 LW
N
422.555 801 M
422.555 793.56 L
S
GR
GS
0.149 GC
2 setlinecap
1 LJ
0.5 LW
N
571.37 801 M
571.37 793.56 L
S
GR
GS
0.149 GC
2 setlinecap
1 LJ
0.5 LW
N
720.185 801 M
720.185 793.56 L
S
GR
GS
0.149 GC
2 setlinecap
1 LJ
0.5 LW
N
869 801 M
869 793.56 L
S
GR
GS
0.149 GC
2 setlinecap
1 LJ
0.5 LW
N
273.74 67 M
273.74 74.44 L
S
GR
GS
0.149 GC
2 setlinecap
1 LJ
0.5 LW
N
422.555 67 M
422.555 74.44 L
S
GR
GS
0.149 GC
2 setlinecap
1 LJ
0.5 LW
N
571.37 67 M
571.37 74.44 L
S
GR
GS
0.149 GC
2 setlinecap
1 LJ
0.5 LW
N
720.185 67 M
720.185 74.44 L
S
GR
GS
0.149 GC
2 setlinecap
1 LJ
0.5 LW
N
869 67 M
869 74.44 L
S
GR
GS
[1 0 0 1 273.74048 808.99994] CT
0.149 GC
/Helvetica 30 F
GS
[1 0 0 1 0 0] CT
-21 29 moveto 
1 -1 scale
(0.2) t 
GR
GR
GS
[1 0 0 1 422.55536 808.99994] CT
0.149 GC
/Helvetica 30 F
GS
[1 0 0 1 0 0] CT
-21 29 moveto 
1 -1 scale
(0.4) t 
GR
GR
GS
[1 0 0 1 571.37024 808.99994] CT
0.149 GC
/Helvetica 30 F
GS
[1 0 0 1 0 0] CT
-21 29 moveto 
1 -1 scale
(0.6) t 
GR
GR
GS
[1 0 0 1 720.18512 808.99994] CT
0.149 GC
/Helvetica 30 F
GS
[1 0 0 1 0 0] CT
-21 29 moveto 
1 -1 scale
(0.8) t 
GR
GR
GS
[1 0 0 1 869 808.99994] CT
0.149 GC
/Helvetica 30 F
GS
[1 0 0 1 0 0] CT
-8.5 29 moveto 
1 -1 scale
(1) t 
GR
GR
GS
[1 0 0 1 497.00037 846] CT
0.149 GC
/Helvetica 33 F
GS
[1 0 0 1 0 0] CT
-134 32 moveto 
1 -1 scale
(False positive rate) t 
GR
GR
GS
0.149 GC
2 setlinecap
1 LJ
0.5 LW
N
125 801 M
125 67 L
S
GR
GS
0.149 GC
2 setlinecap
1 LJ
0.5 LW
N
869 801 M
869 67 L
S
GR
GS
0.149 GC
2 setlinecap
1 LJ
0.5 LW
N
125 801 M
132.44 801 L
S
GR
GS
0.149 GC
2 setlinecap
1 LJ
0.5 LW
N
125 654.2 M
132.44 654.2 L
S
GR
GS
0.149 GC
2 setlinecap
1 LJ
0.5 LW
N
125 507.4 M
132.44 507.4 L
S
GR
GS
0.149 GC
2 setlinecap
1 LJ
0.5 LW
N
125 360.6 M
132.44 360.6 L
S
GR
GS
0.149 GC
2 setlinecap
1 LJ
0.5 LW
N
125 213.8 M
132.44 213.8 L
S
GR
GS
0.149 GC
2 setlinecap
1 LJ
0.5 LW
N
125 67 M
132.44 67 L
S
GR
GS
0.149 GC
2 setlinecap
1 LJ
0.5 LW
N
869 801 M
861.56 801 L
S
GR
GS
0.149 GC
2 setlinecap
1 LJ
0.5 LW
N
869 654.2 M
861.56 654.2 L
S
GR
GS
0.149 GC
2 setlinecap
1 LJ
0.5 LW
N
869 507.4 M
861.56 507.4 L
S
GR
GS
0.149 GC
2 setlinecap
1 LJ
0.5 LW
N
869 360.6 M
861.56 360.6 L
S
GR
GS
0.149 GC
2 setlinecap
1 LJ
0.5 LW
N
869 213.8 M
861.56 213.8 L
S
GR
GS
0.149 GC
2 setlinecap
1 LJ
0.5 LW
N
869 67 M
861.56 67 L
S
GR
GS
[1 0 0 1 117 801] CT
0.149 GC
/Helvetica 30 F
GS
[1 0 0 1 0 0] CT
-59 11 moveto 
1 -1 scale
(0.75) t 
GR
GR
GS
[1 0 0 1 117 654.19995] CT
0.149 GC
/Helvetica 30 F
GS
[1 0 0 1 0 0] CT
-42 11 moveto 
1 -1 scale
(0.8) t 
GR
GR
GS
[1 0 0 1 117 507.39993] CT
0.149 GC
/Helvetica 30 F
GS
[1 0 0 1 0 0] CT
-59 11 moveto 
1 -1 scale
(0.85) t 
GR
GR
GS
[1 0 0 1 117 360.60007] CT
0.149 GC
/Helvetica 30 F
GS
[1 0 0 1 0 0] CT
-42 11 moveto 
1 -1 scale
(0.9) t 
GR
GR
GS
[1 0 0 1 117 213.80003] CT
0.149 GC
/Helvetica 30 F
GS
[1 0 0 1 0 0] CT
-59 11 moveto 
1 -1 scale
(0.95) t 
GR
GR
GS
[1 0 0 1 117 67] CT
0.149 GC
/Helvetica 30 F
GS
[1 0 0 1 0 0] CT
-17 11 moveto 
1 -1 scale
(1) t 
GR
GR
GS
[0 -1 1 0 55 433.99966] CT
0.149 GC
/Helvetica 33 F
GS
[1 0 0 1 0 0] CT
-128 -8 moveto 
1 -1 scale
(True positive rate) t 
GR
GR
GS
[1 0 0 1 497.00049 58.74984] CT
/Helvetica-Bold 33 F
GS
[1 0 0 1 0 0] CT
-54 -8 moveto 
1 -1 scale
(IriCore) t 
GR
GR
GS
0 0.447 0.741 RC
1 LJ
6 LW
N
125.016 801.088 M
125.617 158.651 L
125.989 158.651 L
126.015 158.651 L
127.478 158.651 L
127.504 158.651 L
128.993 158.651 L
129.019 158.651 L
130.481 158.651 L
130.535 158.651 L
131.199 155.491 L
131.97 155.491 L
132.05 155.491 L
133.485 155.491 L
133.512 155.491 L
134.974 155.491 L
135 155.491 L
136.489 155.491 L
136.595 155.491 L
137.951 155.491 L
138.004 155.491 L
139.493 155.491 L
139.519 155.491 L
140.982 155.491 L
141.008 155.491 L
142.497 155.491 L
142.523 155.491 L
143.959 155.491 L
144.038 155.491 L
145.421 155.491 L
145.501 155.491 L
146.963 155.491 L
147.042 155.491 L
148.398 155.491 L
148.504 155.491 L
149.966 155.491 L
150.046 155.491 L
151.455 155.491 L
151.561 155.491 L
152.944 155.491 L
153.023 155.491 L
154.406 155.491 L
154.565 155.491 L
155.974 155.491 L
156.213 155.491 L
157.41 155.491 L
157.516 155.491 L
158.951 155.491 L
159.031 155.491 L
160.44 155.491 L
160.573 155.491 L
161.982 155.491 L
162.062 155.491 L
163.47 155.491 L
163.63 155.491 L
164.906 155.491 L
165.039 155.491 L
166.421 155.491 L
166.527 155.491 L
167.963 155.491 L
168.043 155.491 L
169.425 155.491 L
169.611 155.491 L
170.94 155.491 L
171.1 155.491 L
172.349 155.491 L
172.535 155.491 L
173.758 155.491 L
174.05 155.491 L
175.486 155.491 L
175.645 155.491 L
176.974 155.491 L
177.16 155.491 L
178.436 155.491 L
178.569 155.491 L
179.978 155.491 L
180.085 155.491 L
181.44 155.491 L
181.52 155.491 L
182.982 155.491 L
183.115 155.491 L
184.471 155.491 L
184.657 155.491 L
185.853 155.491 L
186.066 155.491 L
187.475 155.491 L
187.634 155.491 L
188.99 155.491 L
189.149 155.491 L
190.319 155.491 L
190.505 155.491 L
191.914 155.491 L
192.1 155.491 L
193.456 155.491 L
193.748 155.491 L
194.997 155.491 L
195.21 155.491 L
196.459 155.491 L
196.725 155.491 L
197.921 155.491 L
198.081 155.491 L
199.357 155.491 L
199.516 155.491 L
200.925 155.491 L
201.085 155.491 L
202.414 155.491 L
202.653 155.491 L
203.982 155.491 L
204.142 155.491 L
205.498 155.491 L
205.551 155.491 L
206.933 155.491 L
207.119 155.491 L
208.475 155.491 L
208.661 155.491 L
209.884 155.491 L
210.017 155.491 L
211.479 155.491 L
211.612 155.491 L
212.781 155.491 L
213.047 155.491 L
214.323 155.491 L
214.509 155.491 L
215.998 155.491 L
216.264 155.491 L
217.407 155.491 L
217.779 155.491 L
218.709 155.491 L
219.002 155.491 L
220.437 155.491 L
220.543 155.491 L
221.872 155.491 L
222.005 155.491 L
223.388 155.491 L
223.627 155.491 L
224.903 155.491 L
225.036 155.491 L
226.259 155.491 L
226.604 155.491 L
227.854 155.491 L
228.093 155.491 L
229.395 155.491 L
229.555 155.491 L
230.857 155.491 L
231.23 155.491 L
232.373 155.491 L
232.559 155.491 L
233.968 155.491 L
234.1 155.491 L
235.43 155.491 L
235.722 155.491 L
236.838 155.491 L
237.131 155.491 L
238.433 155.491 L
238.699 155.491 L
239.949 155.491 L
240.188 155.491 L
241.278 155.491 L
241.57 155.491 L
242.766 155.491 L
243.139 155.491 L
244.494 155.491 L
244.574 155.491 L
245.85 155.491 L
246.009 155.491 L
247.365 155.491 L
247.525 155.491 L
248.854 155.491 L
249.04 155.491 L
250.475 155.491 L
250.688 155.491 L
251.937 155.491 L
252.097 155.491 L
253.399 155.491 L
253.586 155.491 L
254.915 155.491 L
255.287 155.491 L
256.35 155.491 L
256.51 155.491 L
257.945 155.491 L
258.158 155.491 L
259.354 155.491 L
259.54 155.491 L
260.975 155.491 L
261.268 155.491 L
262.438 155.491 L
262.57 155.491 L
263.793 155.491 L
264.033 155.491 L
265.308 155.491 L
265.574 155.491 L
266.744 155.491 L
267.09 155.491 L
268.392 155.491 L
268.578 155.491 L
269.854 155.491 L
270.067 155.491 L
271.449 155.491 L
271.662 155.491 L
272.911 155.491 L
273.044 155.491 L
274.293 155.491 L
274.612 155.491 L
275.968 155.491 L
276.128 155.491 L
277.483 155.491 L
277.616 155.491 L
278.972 155.491 L
279.131 155.491 L
280.461 155.491 L
280.593 155.491 L
281.976 155.491 L
282.029 155.491 L
283.464 155.491 L
283.571 155.491 L
284.794 155.491 L
285.033 155.491 L
286.495 155.491 L
286.548 155.491 L
287.797 155.491 L
288.037 155.491 L
289.419 155.491 L
289.578 155.491 L
290.987 155.491 L
291.04 155.491 L
292.476 155.491 L
292.503 155.491 L
293.778 155.491 L
869 67 L
S
GR
GS
0.851 0.325 0.098 RC
1 LJ
6 LW
N
125.096 801.088 M
125.737 435.902 L
125.999 435.902 L
126.003 435.902 L
126.651 432.098 L
127.498 432.098 L
127.507 432.098 L
128.008 430.197 L
128.993 430.197 L
129.002 430.197 L
130.497 430.197 L
130.501 430.197 L
131.269 428.295 L
131.996 428.295 L
132.001 428.295 L
133.495 428.295 L
133.504 428.295 L
133.66 426.394 L
134.999 426.394 L
135.008 426.394 L
135.452 424.492 L
136.498 424.492 L
136.503 424.492 L
137.993 424.492 L
138.002 424.492 L
138.592 422.591 L
139.492 422.591 L
139.501 422.591 L
140.992 422.591 L
141.005 422.591 L
142.5 422.591 L
142.504 422.591 L
143.254 420.689 L
143.999 420.689 L
144.004 420.689 L
145.498 420.689 L
145.512 420.689 L
146.146 418.788 L
146.998 418.788 L
147.002 418.788 L
148.493 418.788 L
148.515 418.788 L
149.992 418.788 L
150.01 418.788 L
151.5 418.788 L
151.504 418.788 L
152.99 418.788 L
153.004 418.788 L
153.265 416.886 L
154.499 416.886 L
154.503 416.886 L
155.998 416.886 L
156.002 416.886 L
157.497 416.886 L
157.502 416.886 L
157.981 413.083 L
158.996 413.083 L
159.001 413.083 L
160.092 407.378 L
160.487 407.378 L
160.513 407.378 L
161.871 405.477 L
161.999 405.477 L
162.013 405.477 L
163.494 405.477 L
163.503 405.477 L
164.985 405.477 L
165.002 405.477 L
166.484 405.477 L
166.502 405.477 L
167.988 405.477 L
168.01 405.477 L
169.496 405.477 L
169.513 405.477 L
170.999 405.477 L
171.022 405.477 L
172.494 405.477 L
172.508 405.477 L
173.989 405.477 L
174.002 405.477 L
175.471 405.477 L
175.502 405.477 L
176.988 405.477 L
177.005 405.477 L
178.496 405.477 L
178.522 405.477 L
179.995 405.477 L
180.004 405.477 L
181.481 405.477 L
181.503 405.477 L
182.98 405.477 L
183.002 405.477 L
184.488 405.477 L
184.506 405.477 L
185.997 405.477 L
186.01 405.477 L
187.496 405.477 L
187.514 405.477 L
188.982 405.477 L
189.008 405.477 L
190.499 405.477 L
190.539 405.477 L
191.985 405.477 L
192.011 405.477 L
193.489 405.477 L
193.52 405.477 L
194.992 405.477 L
195.006 405.477 L
196.492 405.477 L
196.518 405.477 L
197.991 405.477 L
198.017 405.477 L
199.49 405.477 L
199.508 405.477 L
200.989 405.477 L
201.043 405.477 L
202.489 405.477 L
202.511 405.477 L
203.975 405.477 L
204.032 405.477 L
205.487 405.477 L
205.518 405.477 L
207 405.477 L
207.035 405.477 L
208.477 405.477 L
208.512 405.477 L
209.981 405.477 L
210.003 405.477 L
211.48 405.477 L
211.52 405.477 L
212.984 405.477 L
213.037 405.477 L
214.456 405.477 L
214.501 405.477 L
215.986 405.477 L
216.013 405.477 L
217.495 405.477 L
217.535 405.477 L
218.998 405.477 L
219.021 405.477 L
220.498 405.477 L
220.56 405.477 L
221.992 405.477 L
222.015 405.477 L
223.474 405.477 L
223.514 405.477 L
224.964 405.477 L
225.013 405.477 L
226.481 405.477 L
226.521 405.477 L
227.972 405.477 L
228.021 405.477 L
229.489 405.477 L
229.524 405.477 L
230.993 405.477 L
231.037 405.477 L
232.483 405.477 L
232.51 405.477 L
232.842 403.575 L
233.982 403.575 L
234.004 403.575 L
235.473 403.575 L
235.508 403.575 L
236.985 403.575 L
237.021 403.575 L
238.489 403.575 L
238.538 403.575 L
239.979 403.575 L
240.006 403.575 L
241.487 403.575 L
241.505 403.575 L
242.996 403.575 L
243.018 403.575 L
244.495 403.575 L
244.517 403.575 L
245.994 403.575 L
246.03 403.575 L
247.493 403.575 L
247.52 403.575 L
248.975 403.575 L
249.019 403.575 L
250.465 403.575 L
250.501 403.575 L
251.991 403.575 L
252.067 403.575 L
253.495 403.575 L
253.526 403.575 L
254.963 403.575 L
255.008 403.575 L
256.436 403.575 L
256.507 403.575 L
257.997 403.575 L
258.015 403.575 L
259.492 403.575 L
259.541 403.575 L
260.987 403.575 L
261.04 403.575 L
262.46 403.575 L
262.522 403.575 L
263.985 403.575 L
264.048 403.575 L
265.471 403.575 L
265.507 403.575 L
266.971 403.575 L
267.002 403.575 L
268.474 403.575 L
268.501 403.575 L
269.947 403.575 L
270 403.575 L
271.491 403.575 L
271.513 403.575 L
272.999 403.575 L
273.039 403.575 L
274.489 403.575 L
274.52 403.575 L
275.962 403.575 L
276.002 403.575 L
277.483 403.575 L
277.51 403.575 L
278.983 403.575 L
279.014 403.575 L
280.486 403.575 L
280.508 403.575 L
281.977 403.575 L
282.003 403.575 L
283.498 403.575 L
283.503 403.575 L
284.958 403.575 L
285.002 403.575 L
286.488 403.575 L
286.501 403.575 L
287.992 403.575 L
288.009 403.575 L
289.495 403.575 L
289.513 403.575 L
290.995 403.575 L
291.008 403.575 L
292.489 403.575 L
292.507 403.575 L
293.998 403.575 L
294.011 403.575 L
295.488 403.575 L
295.506 403.575 L
296.992 403.575 L
297.001 403.575 L
298.5 403.575 L
298.504 403.575 L
299.999 403.575 L
300.003 403.575 L
301.494 403.575 L
301.503 403.575 L
301.973 403.575 L
869 67 L
S
GR
GS
0.929 0.694 0.125 RC
[24 24] 0 setdash
2 LJ
6 LW
N
141.138 801.088 M
142.277 787.477 L
142.496 787.477 L
142.513 787.477 L
143.485 783.15 L
144 783.15 L
144.017 783.15 L
145.098 776.66 L
145.487 776.66 L
145.529 776.66 L
146.407 772.332 L
146.973 772.332 L
147.041 772.332 L
148.443 768.005 L
148.46 768.005 L
148.502 765.842 L
149.575 759.351 L
149.998 759.351 L
150.006 759.351 L
150.04 757.187 L
151.493 757.187 L
151.518 757.187 L
152.414 750.696 L
152.988 750.696 L
153.005 750.696 L
153.698 748.533 L
154.475 748.533 L
154.5 748.533 L
155.995 748.533 L
156.029 748.533 L
157.431 742.042 L
157.499 742.042 L
157.55 742.042 L
158.149 739.878 L
158.994 739.878 L
159.019 739.878 L
160.481 739.878 L
160.515 739.878 L
161.435 733.388 L
161.993 733.388 L
162.001 733.388 L
162.441 731.224 L
163.497 731.224 L
163.53 731.224 L
164.595 720.406 L
164.966 720.406 L
165 720.406 L
165.591 713.915 L
166.487 713.915 L
166.504 713.915 L
167.991 713.915 L
168.033 713.915 L
169.224 707.424 L
169.46 707.424 L
169.503 707.424 L
170.668 700.934 L
170.998 700.934 L
171.015 700.934 L
172.231 698.77 L
172.442 698.77 L
172.51 698.77 L
173.988 698.77 L
174.014 698.77 L
175.475 698.77 L
175.526 698.77 L
176.996 698.77 L
177.029 698.77 L
178.229 694.443 L
178.491 694.443 L
178.55 694.443 L
178.719 692.279 L
179.994 692.279 L
180.07 692.279 L
181.27 687.952 L
181.473 687.952 L
181.54 687.952 L
182.022 685.789 L
182.976 685.789 L
183.01 685.789 L
183.095 683.625 L
184.463 683.625 L
184.514 683.625 L
185.958 681.461 L
186.026 681.461 L
187.183 679.298 L
187.496 679.298 L
187.529 679.298 L
188.966 677.134 L
188.999 677.134 L
189.058 677.134 L
190.097 670.643 L
190.461 670.643 L
190.503 670.643 L
191.305 668.48 L
191.998 668.48 L
192.023 664.153 L
193.451 659.825 L
193.493 659.825 L
193.544 659.825 L
194.98 659.825 L
195.022 659.825 L
195.96 657.662 L
196.492 657.662 L
196.543 657.662 L
197.987 657.662 L
198.03 657.662 L
199.499 657.662 L
199.533 657.662 L
200.978 657.662 L
201.045 657.662 L
202.498 657.662 L
202.515 657.662 L
202.954 655.498 L
203.934 655.498 L
204.01 655.498 L
205.404 651.171 L
205.463 651.171 L
205.522 651.171 L
206.3 646.844 L
206.992 646.844 L
207.018 646.844 L
208.462 646.844 L
208.513 646.844 L
208.817 644.68 L
209.957 644.68 L
210.008 644.68 L
211.25 642.517 L
211.495 642.517 L
211.545 642.517 L
212.627 638.189 L
212.982 638.189 L
213.041 638.189 L
213.809 633.862 L
214.468 633.862 L
214.536 633.862 L
215.997 633.862 L
216.056 633.862 L
217.45 633.862 L
217.518 633.862 L
218.996 633.862 L
219.038 633.862 L
219.309 631.699 L
220.5 631.699 L
220.525 631.699 L
221.159 629.535 L
221.961 629.535 L
222.029 629.535 L
223.059 627.371 L
223.482 627.371 L
223.524 627.371 L
224.952 627.371 L
225.002 627.371 L
226.176 625.208 L
226.472 625.208 L
226.523 625.208 L
227.993 625.208 L
228.052 625.208 L
229.471 625.208 L
229.522 625.208 L
230.197 620.881 L
230.991 620.881 L
231.008 620.881 L
232.47 620.881 L
232.504 620.881 L
233.196 616.553 L
233.99 616.553 L
234.033 616.553 L
234.582 614.39 L
235.494 614.39 L
235.587 614.39 L
236.989 614.39 L
237.057 612.226 L
237.825 605.735 L
238.451 605.735 L
238.535 605.735 L
239.515 601.408 L
239.954 601.408 L
240.005 601.408 L
240.883 599.245 L
241.492 599.245 L
241.534 599.245 L
242.742 597.081 L
242.995 597.081 L
243.063 597.081 L
244.093 594.917 L
244.465 594.917 L
244.516 594.917 L
245.073 592.754 L
245.926 592.754 L
246.003 592.754 L
247.253 590.59 L
247.472 590.59 L
247.531 590.59 L
248.951 590.59 L
249.018 590.59 L
249.736 586.263 L
250.395 586.263 L
250.505 586.263 L
251.468 581.936 L
251.899 581.936 L
252 581.936 L
253.478 581.936 L
253.58 581.936 L
254.095 579.772 L
254.923 579.772 L
255.007 579.772 L
256.477 579.772 L
256.545 579.772 L
257.956 579.772 L
258.049 579.772 L
259.468 579.772 L
259.518 579.772 L
260.988 579.772 L
261.022 579.772 L
262.441 579.772 L
262.509 579.772 L
262.661 577.609 L
263.953 577.609 L
264.046 577.609 L
264.401 575.445 L
265.465 575.445 L
265.525 575.445 L
266.961 575.445 L
267.037 575.445 L
268.49 575.445 L
268.549 575.445 L
268.819 573.282 L
269.976 573.282 L
270.01 573.282 L
271.455 573.282 L
271.531 573.282 L
272.933 573.282 L
273.009 573.282 L
274.487 573.282 L
274.555 573.282 L
275.492 571.118 L
275.974 571.118 L
276.016 571.118 L
277.435 571.118 L
277.52 571.118 L
278.559 566.791 L
278.981 566.791 L
279.049 564.627 L
279.995 562.463 L
280.443 562.463 L
280.519 562.463 L
281.921 560.3 L
281.946 560.3 L
282.014 560.3 L
283.475 560.3 L
283.509 560.3 L
284.97 560.3 L
285.021 560.3 L
286.483 560.3 L
286.55 560.3 L
287.31 558.136 L
287.978 558.136 L
288.079 555.973 L
289.017 553.809 L
289.456 553.809 L
289.515 553.809 L
290.96 553.809 L
291.019 553.809 L
292.463 553.809 L
292.522 553.809 L
293.967 553.809 L
294.026 553.809 L
295.496 553.809 L
295.589 553.809 L
296.966 553.809 L
297.017 553.809 L
298.461 553.809 L
298.52 553.809 L
299.965 553.809 L
300.032 553.809 L
301.451 553.809 L
301.502 553.809 L
302.98 553.809 L
303.04 553.809 L
303.758 551.646 L
304.467 551.646 L
304.518 551.646 L
305.168 545.155 L
305.937 545.155 L
306.021 545.155 L
307.432 545.155 L
307.508 545.155 L
308.395 542.991 L
308.987 542.991 L
309.012 542.991 L
310.152 538.664 L
310.448 538.664 L
310.507 538.664 L
311.994 538.664 L
312.044 538.664 L
312.644 536.5 L
313.489 536.5 L
313.523 536.5 L
314.993 536.5 L
315.026 536.5 L
316.454 536.5 L
316.53 536.5 L
317.991 536.5 L
318.017 536.5 L
319.478 536.5 L
319.512 536.5 L
320.129 534.337 L
320.99 534.337 L
321.049 534.337 L
321.1 532.173 L
322.469 532.173 L
322.519 532.173 L
323.972 532.173 L
324.014 532.173 L
325.484 532.173 L
325.501 532.173 L
326.996 532.173 L
327.064 532.173 L
328.458 532.173 L
328.5 532.173 L
329.961 532.173 L
330.004 532.173 L
331.499 532.173 L
331.541 532.173 L
331.668 530.01 L
332.977 530.01 L
333.028 530.01 L
334.489 530.01 L
334.523 530.01 L
335.114 527.846 L
335.993 527.846 L
336.018 527.846 L
337.471 527.846 L
337.505 527.846 L
338.958 527.846 L
339 527.846 L
339.583 519.192 L
340.462 519.192 L
340.504 519.192 L
340.892 517.028 L
341.965 517.028 L
342.008 517.028 L
343.469 517.028 L
343.545 517.028 L
344.956 517.028 L
345.049 517.028 L
345.674 514.864 L
346.459 514.864 L
346.544 514.864 L
347.98 514.864 L
348.022 514.864 L
348.841 512.701 L
349.483 512.701 L
349.5 512.701 L
350.996 512.701 L
351.038 512.701 L
352.491 512.701 L
352.516 512.701 L
353.986 512.701 L
354.011 512.701 L
355.456 512.701 L
355.506 512.701 L
356.968 512.701 L
357.002 512.701 L
358.497 512.701 L
358.505 512.701 L
359.544 508.374 L
359.984 508.374 L
360.009 508.374 L
360.719 506.21 L
361.487 506.21 L
361.521 506.21 L
362.999 506.21 L
363.016 506.21 L
364.495 506.21 L
364.503 506.21 L
365.998 506.21 L
366.023 506.21 L
367.493 506.21 L
367.51 506.21 L
368.997 506.21 L
369.005 506.21 L
370.492 506.21 L
370.501 506.21 L
371.996 506.21 L
372.004 506.21 L
372.351 504.046 L
373.499 504.046 L
373.508 504.046 L
374.995 504.046 L
375.037 504.046 L
376.448 504.046 L
376.524 504.046 L
377.064 501.883 L
377.977 501.883 L
378.078 501.883 L
378.661 499.719 L
379.446 499.719 L
379.539 499.719 L
380.967 499.719 L
381.068 499.719 L
381.617 495.392 L
382.462 495.392 L
382.504 495.392 L
383.949 495.392 L
384.05 495.392 L
384.743 493.228 L
385.478 493.228 L
385.537 493.228 L
386.922 493.228 L
387.007 493.228 L
388.494 493.228 L
388.561 493.228 L
389.947 493.228 L
390.006 493.228 L
391.476 493.228 L
391.509 493.228 L
391.704 488.901 L
392.945 488.901 L
393.021 488.901 L
394.474 488.901 L
394.525 488.901 L
395.742 486.738 L
395.995 486.738 L
396.037 486.738 L
396.823 484.574 L
397.49 484.574 L
397.549 484.574 L
398.124 482.41 L
398.977 482.41 L
399.028 482.41 L
400.481 482.41 L
400.514 482.41 L
401.815 480.247 L
401.993 480.247 L
402.077 480.247 L
402.947 478.083 L
403.454 478.083 L
403.53 478.083 L
404.949 478.083 L
405.025 478.083 L
406.478 478.083 L
406.512 478.083 L
407.982 478.083 L
408.024 478.083 L
409.426 478.083 L
409.502 478.083 L
410.998 473.756 L
411.074 473.756 L
412.045 471.592 L
412.467 471.592 L
412.518 471.592 L
412.898 469.429 L
413.996 469.429 L
414.047 469.429 L
415.086 467.265 L
415.492 467.265 L
415.534 467.265 L
416.961 467.265 L
417.046 467.265 L
417.705 462.938 L
418.474 462.938 L
418.507 462.938 L
419.986 462.938 L
420.019 460.775 L
420.357 458.611 L
421.447 458.611 L
421.506 458.611 L
422.3 456.447 L
422.959 456.447 L
423.035 456.447 L
423.762 454.284 L
424.421 454.284 L
424.505 454.284 L
425.966 449.957 L
426.042 449.957 L
427.09 447.793 L
427.453 447.793 L
427.538 447.793 L
428.965 447.793 L
429.024 447.793 L
430.477 447.793 L
430.553 447.793 L
431.93 447.793 L
432.032 447.793 L
433.476 445.629 L
433.518 445.629 L
434.98 445.629 L
435.056 445.629 L
436.416 445.629 L
436.526 445.629 L
437.742 443.466 L
437.97 443.466 L
438.004 443.466 L
439.499 443.466 L
439.575 443.466 L
440.961 443.466 L
441.02 443.466 L
441.467 441.302 L
442.481 441.302 L
442.557 441.302 L
443.976 441.302 L
444.002 441.302 L
444.078 439.138 L
445.438 439.138 L
445.514 439.138 L
446.502 436.975 L
446.941 436.975 L
447.009 436.975 L
447.837 434.811 L
448.479 434.811 L
448.538 434.811 L
449.999 434.811 L
450.05 434.811 L
451.427 434.811 L
451.528 434.811 L
452.981 434.811 L
453.04 434.811 L
453.201 432.648 L
454.451 432.648 L
454.519 432.648 L
455.98 432.648 L
456.005 432.648 L
457.492 432.648 L
457.518 432.648 L
458.945 432.648 L
459.013 432.648 L
460.483 432.648 L
460.542 432.648 L
461.944 432.648 L
462.003 432.648 L
463.498 432.648 L
463.549 432.648 L
464.985 432.648 L
465.053 432.648 L
466.48 432.648 L
466.514 432.648 L
467.959 432.648 L
468.018 432.648 L
469.496 432.648 L
469.547 432.648 L
470.941 432.648 L
471.008 432.648 L
472.486 432.648 L
472.52 432.648 L
473.973 432.648 L
474.015 432.648 L
475.485 432.648 L
475.544 432.648 L
476.989 432.648 L
477.056 432.648 L
478.476 432.648 L
478.518 432.648 L
479.988 432.648 L
480.03 432.648 L
481.432 432.648 L
481.508 432.648 L
482.978 432.648 L
483.012 432.648 L
484.456 432.648 L
484.507 432.648 L
485.952 432.648 L
486.011 432.648 L
487.489 432.648 L
487.506 432.648 L
488.984 432.648 L
489.018 432.648 L
490.488 432.648 L
490.513 432.648 L
491.662 430.484 L
491.958 430.484 L
492.017 430.484 L
493.487 430.484 L
493.512 430.484 L
494.99 430.484 L
495.016 430.484 L
496.494 430.484 L
496.511 430.484 L
497.998 430.484 L
498.006 430.484 L
498.978 430.484 L
869 67 L
S
GR
GS
0.494 0.184 0.557 RC
[6 6] 0 setdash
2 LJ
6 LW
N
124.926 801.088 M
124.926 791.938 L
124.926 773.815 L
124.926 773.815 L
124.926 755.691 L
124.926 737.568 L
124.926 719.444 L
124.926 683.198 L
124.926 665.074 L
124.926 665.074 L
124.926 628.827 L
124.926 610.704 L
124.926 610.704 L
124.926 592.58 L
124.926 592.58 L
124.926 556.333 L
124.926 556.333 L
124.926 538.21 L
124.926 520.086 L
124.926 520.086 L
124.926 520.086 L
124.926 520.086 L
124.926 520.086 L
124.926 520.086 L
124.926 501.963 L
124.926 501.963 L
124.926 483.839 L
124.926 483.839 L
124.926 483.839 L
124.926 483.839 L
124.926 483.839 L
124.926 483.839 L
124.926 465.716 L
124.926 447.593 L
124.926 447.593 L
124.926 447.593 L
124.926 447.593 L
124.926 447.593 L
124.926 447.593 L
124.926 447.593 L
124.926 447.593 L
124.926 447.593 L
124.926 447.593 L
124.926 447.593 L
124.926 447.593 L
124.926 447.593 L
124.926 447.593 L
124.926 447.593 L
124.926 447.593 L
124.926 447.593 L
124.926 447.593 L
124.926 447.593 L
124.926 447.593 L
124.926 447.593 L
124.926 447.593 L
124.926 447.593 L
124.926 447.593 L
124.926 447.593 L
124.926 447.593 L
124.926 447.593 L
124.926 447.593 L
124.926 447.593 L
124.926 429.469 L
124.926 429.469 L
124.926 411.346 L
124.926 411.346 L
124.926 411.346 L
124.926 411.346 L
124.926 411.346 L
124.926 411.346 L
124.926 411.346 L
124.926 411.346 L
124.926 411.346 L
124.926 411.346 L
124.926 411.346 L
124.926 411.346 L
124.926 411.346 L
124.926 411.346 L
124.926 393.222 L
124.926 375.099 L
124.926 375.099 L
124.926 375.099 L
124.926 375.099 L
124.926 375.099 L
124.926 375.099 L
124.926 375.099 L
124.926 375.099 L
124.926 375.099 L
124.926 375.099 L
124.926 375.099 L
124.926 375.099 L
124.926 375.099 L
124.926 375.099 L
124.926 375.099 L
124.926 375.099 L
124.926 375.099 L
124.926 375.099 L
124.926 375.099 L
124.926 375.099 L
124.926 375.099 L
124.926 375.099 L
124.926 375.099 L
124.926 375.099 L
124.926 375.099 L
124.926 375.099 L
124.926 375.099 L
124.926 375.099 L
124.926 375.099 L
124.926 375.099 L
124.926 356.975 L
124.926 356.975 L
124.926 356.975 L
124.926 356.975 L
124.926 356.975 L
124.926 356.975 L
124.926 356.975 L
124.926 356.975 L
124.926 356.975 L
124.926 356.975 L
124.926 356.975 L
124.926 356.975 L
124.926 338.852 L
124.926 338.852 L
124.926 338.852 L
124.926 338.852 L
124.926 338.852 L
124.926 338.852 L
124.926 338.852 L
124.926 338.852 L
124.926 338.852 L
124.926 338.852 L
124.926 338.852 L
124.926 338.852 L
124.926 338.852 L
124.926 338.852 L
124.926 338.852 L
124.926 338.852 L
124.926 338.852 L
124.926 338.852 L
124.926 338.852 L
124.926 338.852 L
124.926 320.728 L
124.926 320.728 L
124.926 320.728 L
124.926 320.728 L
124.926 320.728 L
124.926 320.728 L
124.926 320.728 L
124.926 320.728 L
124.926 320.728 L
124.926 320.728 L
124.926 320.728 L
124.926 320.728 L
124.926 320.728 L
124.926 320.728 L
124.926 320.728 L
124.926 320.728 L
124.926 320.728 L
124.926 320.728 L
124.926 320.728 L
124.926 320.728 L
124.926 320.728 L
124.926 320.728 L
124.926 320.728 L
124.926 320.728 L
124.926 320.728 L
124.926 320.728 L
124.926 320.728 L
124.926 320.728 L
124.926 320.728 L
124.926 320.728 L
124.926 320.728 L
124.926 320.728 L
124.926 320.728 L
124.926 320.728 L
124.926 320.728 L
124.926 302.605 L
124.926 302.605 L
124.926 302.605 L
124.926 302.605 L
124.926 302.605 L
124.926 302.605 L
124.926 302.605 L
124.926 302.605 L
124.926 302.605 L
124.926 302.605 L
124.926 302.605 L
124.926 302.605 L
124.926 302.605 L
124.926 302.605 L
124.926 302.605 L
124.926 302.605 L
124.926 302.605 L
124.926 302.605 L
124.926 302.605 L
124.926 302.605 L
124.926 302.605 L
124.926 302.605 L
124.926 302.605 L
124.926 302.605 L
124.926 302.605 L
124.926 302.605 L
124.926 302.605 L
124.926 302.605 L
124.926 302.605 L
124.926 302.605 L
124.926 302.605 L
124.926 302.605 L
124.926 302.605 L
124.926 302.605 L
124.926 302.605 L
124.926 302.605 L
124.926 302.605 L
124.926 302.605 L
124.926 302.605 L
124.926 302.605 L
124.926 302.605 L
124.926 302.605 L
124.926 302.605 L
124.926 302.605 L
124.926 302.605 L
124.926 302.605 L
124.926 302.605 L
124.926 302.605 L
124.926 302.605 L
124.926 302.605 L
124.926 302.605 L
124.926 302.605 L
124.926 302.605 L
124.926 302.605 L
124.926 302.605 L
124.926 302.605 L
124.926 302.605 L
124.926 302.605 L
124.926 302.605 L
124.926 302.605 L
124.926 302.605 L
124.926 302.605 L
124.926 302.605 L
124.926 302.605 L
124.926 302.605 L
124.926 302.605 L
124.926 302.605 L
124.926 302.605 L
124.926 302.605 L
124.926 302.605 L
124.926 302.605 L
124.926 284.482 L
124.926 284.482 L
124.926 284.482 L
124.926 284.482 L
124.926 284.482 L
124.926 284.482 L
124.926 284.482 L
124.926 284.482 L
124.926 284.482 L
124.926 284.482 L
124.926 284.482 L
124.926 284.482 L
124.926 284.482 L
124.926 284.482 L
124.926 284.482 L
124.926 284.482 L
124.926 284.482 L
124.926 284.482 L
124.926 284.482 L
124.926 284.482 L
124.926 284.482 L
124.926 284.482 L
124.926 284.482 L
124.926 284.482 L
124.926 284.482 L
124.926 284.482 L
124.926 266.358 L
124.926 266.358 L
124.926 266.358 L
124.926 266.358 L
124.926 266.358 L
124.926 266.358 L
124.926 266.358 L
124.926 266.358 L
124.926 266.358 L
124.926 266.358 L
124.926 266.358 L
124.926 266.358 L
124.926 266.358 L
124.926 266.358 L
124.926 266.358 L
124.926 266.358 L
124.926 266.358 L
124.926 266.358 L
124.926 248.235 L
124.926 248.235 L
124.926 230.111 L
124.926 230.111 L
124.926 230.111 L
124.926 230.111 L
124.926 230.111 L
124.926 230.111 L
124.926 230.111 L
124.926 230.111 L
124.926 230.111 L
124.926 211.988 L
124.926 211.988 L
124.926 211.988 L
124.926 211.988 L
124.926 211.988 L
124.926 211.988 L
124.926 211.988 L
124.926 211.988 L
124.926 211.988 L
124.926 211.988 L
124.926 211.988 L
124.926 211.988 L
124.926 211.988 L
124.926 211.988 L
124.926 211.988 L
124.926 211.988 L
124.926 211.988 L
124.926 211.988 L
124.926 211.988 L
124.926 211.988 L
124.926 211.988 L
124.926 211.988 L
124.926 211.988 L
124.926 211.988 L
124.926 211.988 L
124.926 211.988 L
124.926 211.988 L
125.659 211.988 L
125.659 211.988 L
125.659 193.864 L
125.659 193.864 L
125.659 193.864 L
125.659 193.864 L
126.393 193.864 L
126.393 193.864 L
126.393 193.864 L
126.393 193.864 L
126.393 193.864 L
126.393 193.864 L
127.127 193.864 L
127.861 193.864 L
128.595 193.864 L
128.595 175.741 L
129.328 175.741 L
130.062 175.741 L
130.796 175.741 L
130.796 175.741 L
132.264 175.741 L
132.997 175.741 L
133.731 175.741 L
133.731 175.741 L
134.465 175.741 L
135.199 175.741 L
135.199 175.741 L
135.199 175.741 L
136.666 175.741 L
137.4 175.741 L
137.4 175.741 L
138.134 175.741 L
139.602 175.741 L
140.335 175.741 L
141.803 175.741 L
141.803 175.741 L
143.271 175.741 L
144.004 175.741 L
144.738 175.741 L
144.738 175.741 L
145.472 175.741 L
145.472 175.741 L
145.472 175.741 L
146.206 175.741 L
146.94 175.741 L
147.673 175.741 L
149.875 175.741 L
149.875 175.741 L
151.342 175.741 L
151.342 175.741 L
152.076 175.741 L
152.81 175.741 L
152.81 175.741 L
153.544 175.741 L
153.544 175.741 L
153.544 175.741 L
154.278 175.741 L
155.011 175.741 L
155.011 175.741 L
155.745 175.741 L
155.745 175.741 L
157.213 175.741 L
158.68 175.741 L
159.414 175.741 L
159.414 175.741 L
159.414 175.741 L
160.148 175.741 L
160.148 175.741 L
160.148 175.741 L
160.882 175.741 L
160.882 175.741 L
160.882 175.741 L
161.616 175.741 L
161.616 175.741 L
161.616 175.741 L
161.616 175.741 L
161.616 175.741 L
162.349 175.741 L
162.349 175.741 L
162.349 157.617 L
162.349 157.617 L
162.349 157.617 L
162.349 157.617 L
162.349 157.617 L
162.349 157.617 L
162.349 157.617 L
162.349 157.617 L
162.349 157.617 L
162.349 157.617 L
162.349 157.617 L
162.349 157.617 L
162.349 157.617 L
162.349 157.617 L
162.349 157.617 L
162.349 157.617 L
162.349 157.617 L
162.349 157.617 L
162.349 157.617 L
162.349 157.617 L
162.349 157.617 L
162.349 157.617 L
162.349 157.617 L
162.349 157.617 L
162.349 157.617 L
162.349 157.617 L
162.349 157.617 L
162.349 157.617 L
162.349 157.617 L
162.349 157.617 L
165.285 157.617 L
166.752 157.617 L
170.421 139.494 L
176.292 139.494 L
181.428 139.494 L
185.097 139.494 L
188.033 139.494 L
190.968 139.494 L
193.903 139.494 L
200.507 139.494 L
204.91 121.37 L
208.579 121.37 L
217.385 121.37 L
223.989 121.37 L
230.593 121.37 L
235.73 121.37 L
239.399 121.37 L
247.47 121.37 L
252.607 121.37 L
261.413 121.37 L
265.815 121.37 L
275.355 121.37 L
284.16 121.37 L
290.031 121.37 L
300.304 121.37 L
303.239 121.37 L
309.11 121.37 L
313.513 121.37 L
319.383 121.37 L
324.52 121.37 L
330.39 121.37 L
331.124 121.37 L
334.793 121.37 L
339.196 121.37 L
340.663 121.37 L
342.865 121.37 L
345.066 121.37 L
345.066 121.37 L
345.066 121.37 L
345.8 121.37 L
345.8 121.37 L
346.534 121.37 L
346.534 121.37 L
347.267 121.37 L
348.001 121.37 L
348.001 121.37 L
348.001 121.37 L
348.001 121.37 L
348.001 121.37 L
348.001 121.37 L
348.001 121.37 L
348.001 121.37 L
348.001 121.37 L
348.001 121.37 L
348.001 121.37 L
348.001 121.37 L
348.001 121.37 L
348.001 121.37 L
348.001 121.37 L
348.001 121.37 L
348.001 121.37 L
348.001 121.37 L
348.001 121.37 L
348.001 121.37 L
348.001 121.37 L
348.001 121.37 L
348.001 121.37 L
348.001 121.37 L
348.001 121.37 L
348.001 121.37 L
348.001 121.37 L
348.001 121.37 L
348.001 121.37 L
348.001 121.37 L
348.001 121.37 L
348.001 121.37 L
348.001 121.37 L
348.001 121.37 L
348.001 121.37 L
348.001 121.37 L
348.001 121.37 L
348.001 121.37 L
348.001 121.37 L
348.001 121.37 L
348.001 121.37 L
348.001 121.37 L
348.001 121.37 L
348.001 121.37 L
348.001 121.37 L
348.001 121.37 L
348.001 121.37 L
348.001 121.37 L
348.001 121.37 L
348.001 121.37 L
348.001 121.37 L
348.001 121.37 L
348.001 121.37 L
348.001 121.37 L
348.001 121.37 L
348.001 121.37 L
348.001 121.37 L
348.001 121.37 L
348.001 121.37 L
348.001 121.37 L
348.001 121.37 L
348.001 121.37 L
348.001 121.37 L
348.001 121.37 L
348.001 121.37 L
348.001 121.37 L
348.001 121.37 L
348.001 121.37 L
348.001 121.37 L
348.001 121.37 L
348.001 121.37 L
348.001 121.37 L
348.001 121.37 L
348.001 121.37 L
348.001 121.37 L
348.001 121.37 L
348.001 121.37 L
348.001 121.37 L
348.001 121.37 L
348.001 121.37 L
348.001 121.37 L
348.001 121.37 L
348.001 121.37 L
348.001 121.37 L
348.001 121.37 L
348.001 121.37 L
348.001 121.37 L
348.001 121.37 L
348.001 121.37 L
348.001 121.37 L
348.001 121.37 L
348.001 121.37 L
348.001 121.37 L
348.001 121.37 L
348.001 121.37 L
348.001 121.37 L
348.001 121.37 L
348.001 121.37 L
348.001 121.37 L
348.001 121.37 L
348.001 121.37 L
348.001 121.37 L
348.001 121.37 L
348.001 121.37 L
348.001 121.37 L
348.001 121.37 L
348.001 121.37 L
348.001 121.37 L
348.001 121.37 L
348.001 121.37 L
348.001 121.37 L
348.001 121.37 L
348.001 121.37 L
348.001 121.37 L
348.001 121.37 L
348.001 121.37 L
348.001 121.37 L
348.001 121.37 L
348.001 121.37 L
348.001 121.37 L
348.001 121.37 L
348.001 121.37 L
348.001 121.37 L
348.001 121.37 L
348.001 121.37 L
348.001 121.37 L
348.001 121.37 L
348.001 121.37 L
348.001 121.37 L
348.001 121.37 L
348.001 121.37 L
348.001 121.37 L
348.001 121.37 L
348.001 121.37 L
348.001 121.37 L
348.001 121.37 L
348.001 121.37 L
348.001 121.37 L
348.001 121.37 L
348.001 121.37 L
348.001 121.37 L
348.001 121.37 L
348.001 121.37 L
348.001 121.37 L
348.001 121.37 L
348.001 121.37 L
348.001 121.37 L
348.001 121.37 L
348.001 121.37 L
348.001 121.37 L
348.001 121.37 L
348.001 121.37 L
348.001 121.37 L
348.001 121.37 L
348.001 121.37 L
348.001 121.37 L
348.001 121.37 L
348.001 121.37 L
348.001 121.37 L
348.001 121.37 L
348.001 121.37 L
348.001 121.37 L
348.001 121.37 L
348.001 121.37 L
348.001 121.37 L
348.001 121.37 L
348.001 121.37 L
348.001 121.37 L
348.001 121.37 L
348.001 121.37 L
348.001 121.37 L
348.001 121.37 L
348.001 121.37 L
348.001 121.37 L
348.001 121.37 L
348.001 121.37 L
348.001 121.37 L
348.001 121.37 L
348.001 121.37 L
348.001 121.37 L
348.001 121.37 L
348.001 121.37 L
348.001 121.37 L
348.001 121.37 L
348.001 121.37 L
348.001 121.37 L
348.001 121.37 L
348.001 121.37 L
348.001 121.37 L
348.001 121.37 L
348.001 121.37 L
348.001 121.37 L
348.001 121.37 L
348.001 121.37 L
348.001 121.37 L
348.001 121.37 L
348.001 121.37 L
348.001 121.37 L
348.001 121.37 L
348.001 121.37 L
348.001 121.37 L
348.001 121.37 L
348.001 121.37 L
348.001 121.37 L
348.001 121.37 L
348.001 121.37 L
348.001 121.37 L
348.001 121.37 L
348.001 121.37 L
348.001 121.37 L
348.001 121.37 L
348.001 121.37 L
348.001 121.37 L
348.001 121.37 L
348.001 121.37 L
348.001 121.37 L
348.001 121.37 L
348.001 121.37 L
348.001 121.37 L
348.001 121.37 L
348.001 121.37 L
348.001 121.37 L
348.001 121.37 L
348.001 121.37 L
348.001 121.37 L
348.001 121.37 L
348.001 121.37 L
348.001 121.37 L
348.001 121.37 L
348.001 121.37 L
348.001 121.37 L
348.001 121.37 L
348.001 121.37 L
348.001 121.37 L
348.001 121.37 L
348.001 121.37 L
348.001 121.37 L
348.001 121.37 L
348.001 121.37 L
348.001 121.37 L
348.001 121.37 L
348.001 121.37 L
348.001 121.37 L
348.001 121.37 L
348.001 121.37 L
348.001 121.37 L
348.001 121.37 L
348.001 121.37 L
348.001 121.37 L
348.001 121.37 L
348.001 121.37 L
348.001 121.37 L
348.001 121.37 L
348.001 121.37 L
348.001 121.37 L
348.001 121.37 L
348.001 121.37 L
348.001 121.37 L
348.001 121.37 L
348.001 121.37 L
348.001 121.37 L
348.001 121.37 L
348.001 121.37 L
348.001 121.37 L
348.001 121.37 L
348.001 121.37 L
348.001 121.37 L
348.001 121.37 L
348.001 121.37 L
348.001 121.37 L
348.001 121.37 L
348.001 121.37 L
348.001 121.37 L
348.001 121.37 L
348.001 121.37 L
348.001 121.37 L
348.001 121.37 L
348.001 121.37 L
348.001 121.37 L
348.001 121.37 L
348.001 121.37 L
348.001 121.37 L
348.001 121.37 L
348.001 121.37 L
348.001 121.37 L
348.001 121.37 L
348.001 121.37 L
348.001 121.37 L
348.001 121.37 L
348.001 121.37 L
348.001 121.37 L
348.001 121.37 L
348.001 121.37 L
348.001 121.37 L
348.001 121.37 L
348.001 121.37 L
348.001 121.37 L
348.001 121.37 L
348.001 121.37 L
348.001 121.37 L
348.001 121.37 L
348.001 121.37 L
348.001 121.37 L
348.001 121.37 L
348.001 121.37 L
348.001 121.37 L
348.001 121.37 L
348.001 121.37 L
348.001 121.37 L
348.001 121.37 L
348.001 121.37 L
348.001 121.37 L
348.001 121.37 L
348.001 121.37 L
348.001 121.37 L
348.001 121.37 L
348.001 121.37 L
348.001 121.37 L
348.001 121.37 L
348.001 121.37 L
348.001 121.37 L
348.001 121.37 L
348.001 121.37 L
348.001 121.37 L
348.001 121.37 L
348.001 121.37 L
348.001 121.37 L
348.001 121.37 L
348.001 121.37 L
348.001 121.37 L
348.001 121.37 L
348.001 121.37 L
348.001 121.37 L
348.001 121.37 L
348.001 121.37 L
348.001 121.37 L
348.001 121.37 L
348.001 121.37 L
348.001 121.37 L
348.001 121.37 L
348.001 121.37 L
348.001 121.37 L
348.001 121.37 L
348.001 121.37 L
348.001 121.37 L
348.001 121.37 L
348.001 121.37 L
348.001 121.37 L
348.001 121.37 L
348.001 121.37 L
348.001 121.37 L
348.001 121.37 L
348.001 121.37 L
348.001 121.37 L
348.001 121.37 L
348.001 121.37 L
348.001 121.37 L
348.001 121.37 L
348.001 121.37 L
348.001 121.37 L
348.001 121.37 L
348.001 121.37 L
348.001 121.37 L
348.001 121.37 L
348.001 121.37 L
348.001 121.37 L
348.001 121.37 L
348.001 121.37 L
348.001 121.37 L
869 67 L
S
GR
GS
0.467 0.675 0.188 RC
[24 6 12 6] 0 setdash
2 LJ
6 LW
N
125.462 801.088 M
125.798 741.486 L
125.989 741.486 L
126.016 741.486 L
127.488 674.038 L
127.516 674.038 L
128.334 654.2 L
128.988 654.2 L
129.042 654.2 L
130.433 610.557 L
130.46 610.557 L
130.515 610.557 L
131.06 602.622 L
131.932 602.622 L
132.014 602.622 L
133.405 566.914 L
133.486 566.914 L
133.541 566.914 L
134.032 558.978 L
134.986 558.978 L
135.04 558.978 L
136.404 547.076 L
136.485 547.076 L
136.513 547.076 L
137.603 539.141 L
137.903 539.141 L
138.012 539.141 L
139.402 523.27 L
139.484 523.27 L
139.593 523.27 L
140.984 519.303 L
141.038 519.303 L
141.611 511.368 L
142.483 511.368 L
142.538 511.368 L
143.819 495.497 L
143.983 495.497 L
144.092 495.497 L
145.428 487.562 L
145.537 487.562 L
145.537 483.595 L
146.927 483.595 L
147.009 483.595 L
147.772 475.659 L
148.454 475.659 L
148.508 475.659 L
149.054 471.692 L
149.981 471.692 L
150.063 471.692 L
151.48 471.692 L
151.589 471.692 L
152.98 471.692 L
153.061 471.692 L
154.261 467.724 L
154.425 467.724 L
154.561 467.724 L
155.951 467.724 L
156.115 467.724 L
156.306 459.789 L
157.451 459.789 L
157.533 459.789 L
158.978 459.789 L
159.059 459.789 L
159.659 451.854 L
160.423 451.854 L
160.504 451.854 L
161.977 451.854 L
162.058 451.854 L
162.331 447.887 L
163.476 447.887 L
163.585 447.887 L
164.512 443.919 L
164.894 443.919 L
165.085 443.919 L
166.475 443.919 L
166.557 443.919 L
167.02 435.984 L
167.947 435.984 L
168.029 435.984 L
169.174 428.049 L
169.229 428.049 L
169.501 428.049 L
170.456 424.081 L
170.837 424.081 L
171.001 424.081 L
172.282 424.081 L
172.5 424.081 L
173.836 424.081 L
174.054 420.113 L
175.472 420.113 L
175.581 420.113 L
176.972 420.113 L
177.108 420.113 L
178.498 420.113 L
178.635 420.113 L
179.589 416.146 L
179.998 416.146 L
180.134 416.146 L
181.47 416.146 L
181.552 416.146 L
182.915 416.146 L
183.051 416.146 L
183.733 412.178 L
184.442 412.178 L
184.605 412.178 L
185.941 412.178 L
186.023 412.178 L
186.159 408.211 L
187.441 408.211 L
187.604 408.211 L
187.877 404.243 L
188.94 404.243 L
189.104 404.243 L
190.058 396.308 L
190.467 396.308 L
190.549 396.308 L
190.658 392.341 L
191.885 392.341 L
192.076 392.341 L
193.466 392.341 L
193.602 392.341 L
194.993 392.341 L
195.211 388.373 L
196.383 388.373 L
196.519 388.373 L
197.528 380.438 L
197.964 380.438 L
198.155 380.438 L
198.673 376.47 L
199.409 376.47 L
199.573 376.47 L
200.882 376.47 L
201.018 376.47 L
202.463 372.503 L
202.517 372.503 L
203.908 360.6 L
204.071 360.6 L
205.407 360.6 L
205.571 360.6 L
206.934 360.6 L
207.07 360.6 L
208.488 360.6 L
208.543 360.6 L
209.224 352.665 L
209.797 352.665 L
210.097 352.665 L
211.378 352.665 L
211.569 352.665 L
212.005 348.697 L
212.85 348.697 L
213.068 348.697 L
214.377 348.697 L
214.595 348.697 L
215.931 348.697 L
216.013 348.697 L
217.376 348.697 L
217.512 348.697 L
218.957 348.697 L
219.121 348.697 L
220.184 344.73 L
220.457 344.73 L
220.593 344.73 L
221.984 344.73 L
222.12 344.73 L
223.292 344.73 L
223.51 344.73 L
224.928 344.73 L
225.01 344.73 L
226.4 344.73 L
226.509 344.73 L
227.981 344.73 L
228.063 344.73 L
229.236 344.73 L
229.59 344.73 L
230.953 344.73 L
231.226 344.73 L
232.453 344.73 L
232.534 344.73 L
233.352 340.762 L
233.734 340.762 L
234.007 340.762 L
235.479 340.762 L
235.697 340.762 L
236.624 336.795 L
236.951 336.795 L
237.033 336.795 L
238.478 336.795 L
238.641 336.795 L
239.95 336.795 L
240.032 336.795 L
241.313 328.859 L
241.559 328.859 L
242.731 324.892 L
242.922 324.892 L
243.031 324.892 L
244.012 316.957 L
244.449 316.957 L
244.558 316.957 L
245.157 312.989 L
245.785 312.989 L
246.084 312.989 L
247.393 312.989 L
247.502 312.989 L
248.865 312.989 L
249.083 312.989 L
250.228 312.989 L
250.501 312.989 L
251.755 309.022 L
251.946 309.022 L
252.191 309.022 L
253.037 305.054 L
253.391 305.054 L
253.555 305.054 L
254.972 305.054 L
255.054 305.054 L
255.545 301.087 L
256.472 301.087 L
256.69 301.087 L
257.999 301.087 L
258.135 301.087 L
259.389 301.087 L
259.525 301.087 L
260.18 293.151 L
260.97 293.151 L
261.134 293.151 L
262.497 293.151 L
262.633 293.151 L
263.997 293.151 L
264.133 293.151 L
265.414 293.151 L
265.523 293.151 L
266.886 293.151 L
267.023 293.151 L
268.44 293.151 L
268.577 293.151 L
269.776 289.184 L
269.994 289.184 L
270.131 289.184 L
271.303 289.184 L
271.521 289.184 L
272.83 281.249 L
272.912 281.249 L
273.021 281.249 L
274.493 281.249 L
274.657 281.249 L
275.992 281.249 L
276.129 281.249 L
277.301 273.314 L
277.492 273.314 L
277.546 273.314 L
278.91 273.314 L
279.019 273.314 L
280.491 273.314 L
280.518 273.314 L
281.527 265.378 L
281.963 265.378 L
282.072 265.378 L
283.435 265.378 L
283.544 265.378 L
284.008 261.411 L
284.989 261.411 L
285.017 261.411 L
286.489 261.411 L
286.598 261.411 L
286.68 257.443 L
287.934 257.443 L
288.043 257.443 L
288.67 253.476 L
289.433 253.476 L
289.542 253.476 L
290.742 249.508 L
290.906 249.508 L
291.124 249.508 L
292.46 249.508 L
292.541 249.508 L
293.986 249.508 L
294.014 249.508 L
295.322 233.638 L
295.459 233.638 L
295.595 233.638 L
296.358 229.67 L
296.958 229.67 L
297.067 229.67 L
298.43 229.67 L
298.512 229.67 L
299.902 229.67 L
300.012 229.67 L
301.484 229.67 L
301.511 229.67 L
302.983 229.67 L
303.011 229.67 L
304.428 229.67 L
304.565 229.67 L
305.982 229.67 L
306.064 229.67 L
307.482 229.67 L
307.509 229.67 L
307.564 225.703 L
308.981 225.703 L
309.008 225.703 L
310.481 225.703 L
310.563 225.703 L
311.953 225.703 L
312.007 225.703 L
313.343 225.703 L
313.507 225.703 L
314.979 225.703 L
315.143 225.703 L
316.424 225.703 L
316.588 225.703 L
317.951 225.703 L
318.114 225.703 L
319.423 225.703 L
319.587 221.735 L
320.923 221.735 L
321.032 221.735 L
321.386 217.768 L
322.313 217.768 L
322.558 217.768 L
323.949 217.768 L
324.031 217.768 L
325.367 217.768 L
325.503 217.768 L
326.784 217.768 L
327.111 217.768 L
328.475 209.832 L
328.638 209.832 L
329.947 209.832 L
330.138 209.832 L
331.474 209.832 L
331.801 209.832 L
332.973 209.832 L
333.082 209.832 L
333.791 205.865 L
334.363 205.865 L
334.554 205.865 L
335.645 201.897 L
335.945 201.897 L
336.163 201.897 L
337.281 201.897 L
337.553 201.897 L
338.944 201.897 L
339.053 201.897 L
340.443 201.897 L
340.552 201.897 L
341.861 201.897 L
342.106 201.897 L
343.279 201.897 L
343.579 201.897 L
344.369 197.93 L
344.942 197.93 L
345.351 197.93 L
346.468 197.93 L
346.632 197.93 L
347.913 197.93 L
348.077 197.93 L
349.331 197.93 L
349.604 197.93 L
350.994 197.93 L
351.212 197.93 L
352.057 193.962 L
352.276 193.962 L
352.603 193.962 L
353.911 193.962 L
354.157 193.962 L
355.493 193.962 L
355.711 193.962 L
356.856 193.962 L
357.019 193.962 L
358.383 193.962 L
358.546 193.962 L
359.909 193.962 L
360.073 193.962 L
360.427 189.995 L
361.491 189.995 L
361.682 189.995 L
362.772 189.995 L
363.017 189.995 L
364.326 189.995 L
364.517 189.995 L
365.798 189.995 L
366.044 189.995 L
367.434 189.995 L
367.652 189.995 L
368.988 189.995 L
369.315 189.995 L
370.488 189.995 L
370.706 189.995 L
371.96 189.995 L
372.096 189.995 L
373.459 189.995 L
373.677 189.995 L
374.932 189.995 L
375.122 189.995 L
376.295 189.995 L
376.622 189.995 L
377.931 189.995 L
378.176 189.995 L
379.485 189.995 L
379.703 189.995 L
380.902 189.995 L
381.093 189.995 L
381.557 186.027 L
382.484 186.027 L
382.674 186.027 L
383.983 186.027 L
384.201 186.027 L
385.292 186.027 L
385.592 186.027 L
385.919 182.059 L
386.846 182.059 L
387.064 182.059 L
388.4 182.059 L
388.563 182.059 L
389.354 178.092 L
389.926 178.092 L
390.063 178.092 L
391.426 178.092 L
391.644 178.092 L
392.816 178.092 L
393.116 178.092 L
394.425 178.092 L
394.616 178.092 L
395.87 178.092 L
396.088 178.092 L
397.451 178.092 L
397.587 178.092 L
398.651 178.092 L
399.005 178.092 L
400.368 178.092 L
400.614 178.092 L
401.813 178.092 L
402.059 178.092 L
403.476 178.092 L
403.667 178.092 L
404.949 178.092 L
405.276 178.092 L
406.394 178.092 L
406.584 178.092 L
407.866 178.092 L
408.111 178.092 L
409.283 178.092 L
409.611 178.092 L
410.81 178.092 L
411.11 178.092 L
412.419 178.092 L
412.555 178.092 L
413.7 178.092 L
414 178.092 L
415.227 178.092 L
415.554 178.092 L
416.835 178.092 L
417.163 178.092 L
418.308 178.092 L
418.553 178.092 L
419.862 178.092 L
420.216 178.092 L
421.416 178.092 L
421.661 178.092 L
422.97 178.092 L
423.215 178.092 L
424.469 178.092 L
424.606 178.092 L
425.996 178.092 L
426.105 178.092 L
427.495 178.092 L
427.632 178.092 L
428.913 178.092 L
429.049 178.092 L
429.404 174.124 L
430.385 174.124 L
430.685 174.124 L
431.994 174.124 L
432.103 174.124 L
433.412 174.124 L
433.575 174.124 L
434.911 174.124 L
435.238 174.124 L
436.492 174.124 L
436.738 174.124 L
437.91 174.124 L
438.21 174.124 L
439.437 174.124 L
439.519 174.124 L
440.936 174.124 L
441.318 174.124 L
442.436 174.124 L
442.654 174.124 L
443.799 174.124 L
444.072 174.124 L
445.435 174.124 L
445.544 174.124 L
446.962 174.124 L
447.071 174.124 L
448.434 174.124 L
448.597 174.124 L
449.961 174.124 L
450.26 174.124 L
451.46 174.124 L
451.624 174.124 L
452.769 174.124 L
453.069 174.124 L
454.486 174.124 L
454.568 174.124 L
455.849 174.124 L
456.04 174.124 L
457.404 174.124 L
457.54 174.124 L
458.903 174.124 L
459.039 174.124 L
460.457 174.124 L
460.593 174.124 L
461.984 174.124 L
462.093 174.124 L
463.483 174.124 L
463.592 174.124 L
464.956 174.124 L
465.037 174.124 L
466.482 174.124 L
466.537 174.124 L
467.927 174.124 L
468.145 174.124 L
469.427 174.124 L
469.536 174.124 L
470.953 174.124 L
471.035 174.124 L
472.48 174.124 L
472.507 174.124 L
473.925 174.124 L
869 67 L
S
GR
GS
1 GC
N
364 791 M
364 625 L
859 625 L
859 791 L
cp
f
GR
GS
[1 0 0 1 401 643] CT
/Helvetica 27 F
GS
[1 0 0 1 0 0] CT
0 10 moveto 
1 -1 scale
(Healthy eyes subset \(EER = 0.0301\)) t 
GR
GR
GS
0 0.447 0.741 RC
1 LJ
6 LW
N
368 643 M
398 643 L
S
GR
GS
[1 0 0 1 401 675.5] CT
/Helvetica 27 F
GS
[1 0 0 1 0 0] CT
0 10 moveto 
1 -1 scale
("Clear" subset \(EER = 0.1153\)) t 
GR
GR
GS
0.851 0.325 0.098 RC
1 LJ
6 LW
N
368 675.5 M
398 675.5 L
S
GR
GS
[1 0 0 1 401 708] CT
/Helvetica 27 F
GS
[1 0 0 1 0 0] CT
0 10 moveto 
1 -1 scale
("Geometry" subset \(EER = 0.1746\)) t 
GR
GR
GS
0.929 0.694 0.125 RC
[24 24] 0 setdash
2 LJ
6 LW
N
368 708 M
398 708 L
S
GR
GS
[1 0 0 1 401 740.5] CT
/Helvetica 27 F
GS
[1 0 0 1 0 0] CT
0 10 moveto 
1 -1 scale
("Tissue" subset \(EER = 0.0373\)) t 
GR
GR
GS
0.494 0.184 0.557 RC
[6 6] 0 setdash
2 LJ
6 LW
N
368 740.5 M
398 740.5 L
S
GR
GS
[1 0 0 1 401 773] CT
/Helvetica 27 F
GS
[1 0 0 1 0 0] CT
0 10 moveto 
1 -1 scale
("Obstructions" subset \(EER = 0.1041\)) t 
GR
GR
GS
0.467 0.675 0.188 RC
[24 6 12 6] 0 setdash
2 LJ
6 LW
N
368 773 M
398 773 L
S
GR
GS
0.149 GC
10.0 ML
0.5 LW
N
364 791 M
364 625 L
859 625 L
859 791 L
cp
S
GR
%%Trailer
%%Pages: 1
%%EOF
