\relax 
\citation{SaeedPostMortem}
\citation{IrisGuardPostMortem,IriTechPostMortem}
\citation{TrokielewiczPostMortemICB2016,TrokielewiczPostMortemBTAS2016,BolmePostMortemBTAS2016,TrokielewiczArxiv2018}
\@writefile{toc}{\contentsline {section}{\numberline {I}Introduction}{1}}
\newlabel{sec:introduction}{{I}{1}}
\citation{BostonPostMortem}
\citation{PostMortemPigs}
\citation{RossPostMortem}
\citation{TrokielewiczPostMortemICB2016}
\citation{TrokielewiczPostMortemBTAS2016}
\citation{WarsawColdIris1}
\citation{TrokielewiczArxiv2018}
\citation{WarsawColdIris2}
\citation{BolmePostMortemBTAS2016}
\citation{Sauerwein_JFO_2017}
\citation{TrokielewiczPostMortemSegmentationIWBF2018}
\citation{TrokielewiczPostMortemPAD_BTAS2018}
\citation{MinaeeCNNforIrisRec2016}
\citation{VGGSimonyanCNNsForRecognition2014}
\@writefile{toc}{\contentsline {section}{\numberline {II}Literature Review}{2}}
\newlabel{sec:related}{{II}{2}}
\@writefile{toc}{\contentsline {subsection}{\numberline {\unhbox \voidb@x \hbox {II-A}}Post-mortem iris recognition}{2}}
\@writefile{toc}{\contentsline {subsection}{\numberline {\unhbox \voidb@x \hbox {II-B}}Applications of CNNs for iris recognition}{2}}
\citation{DeepIrisNet2016Gangwar}
\citation{DeepIrisLIU2016}
\citation{ZhaoDeepIrisICCV2017}
\citation{Hollingsworth_BTAS_2009}
\citation{IrisCNNsOffTheShelfNguyen2018}
\citation{CAMZhou}
\citation{GradCAMSelvaraju}
\citation{GuidedBackPropSpringenberg}
\citation{TrokielewiczPostMortemSegmentationIWBF2018}
\citation{TrokielewiczPostMortemSegmentationIWBF2018}
\citation{WarsawColdIris1,WarsawColdIris2}
\citation{TrokielewiczPostMortemSegmentationIWBF2018}
\@writefile{toc}{\contentsline {subsection}{\numberline {\unhbox \voidb@x \hbox {II-C}}Visual explanations from deep networks}{3}}
\@writefile{toc}{\contentsline {section}{\numberline {III}Experimental data}{3}}
\newlabel{sec:data}{{III}{3}}
\@writefile{toc}{\contentsline {subsection}{\numberline {\unhbox \voidb@x \hbox {III-A}}Datasets of cadaver iris images}{3}}
\@writefile{toc}{\contentsline {subsection}{\numberline {\unhbox \voidb@x \hbox {III-B}}Image segmentation and preprocessing}{3}}
\citation{CLAHE}
\citation{VGGSimonyanCNNsForRecognition2014}
\citation{GradCAMSelvaraju}
\citation{GradCAMSelvaraju}
\@writefile{lof}{\contentsline {figure}{\numberline {1}{\ignorespaces {\fontencoding  {T1}\fontseries  {b}\selectfont  Top row:} Example images from the Warsaw-BioBase-PostMortem-Iris-v2 database, taken during five subsequent acquisition sessions, which took place 7, 89, 138, 192, and 232 hours after a subject's death, from left to right, respectively. {\fontencoding  {T1}\fontseries  {b}\selectfont  Bottom row:} Same images, but segmented with \cite  {TrokielewiczPostMortemSegmentationIWBF2018}, cropped to square and normalized with CLAHE. The segmentation algorithm successfully removed portions of images obstructed due to post-mortem changes and additional light reflections.\relax }}{4}}
\providecommand*\caption@xref[2]{\@setref\relax\@undefined{#1}}
\newlabel{fig:segmentation}{{1}{4}}
\@writefile{toc}{\contentsline {section}{\numberline {IV}Performance of the DCNN classifier}{4}}
\newlabel{sec:trainingAndEval}{{IV}{4}}
\@writefile{toc}{\contentsline {subsection}{\numberline {\unhbox \voidb@x \hbox {IV-A}}Model architecture}{4}}
\@writefile{toc}{\contentsline {subsection}{\numberline {\unhbox \voidb@x \hbox {IV-B}}Training and evaluation}{4}}
\citation{GradCAMSelvaraju}
\citation{GradCAMCode}
\citation{Keras,tensorflow2015}
\citation{TrokielewiczPostMortemSegmentationIWBF2018}
\@writefile{lof}{\contentsline {figure}{\numberline {2}{\ignorespaces Performance of our DCNN-based classifier in terms of: classification accuracy {\fontencoding  {T1}\fontseries  {b}\selectfont  (left)}, Equal Error Rates {\fontencoding  {T1}\fontseries  {b}\selectfont  (middle)} and Receiver Operating Characteristic (ROC) curves {\fontencoding  {T1}\fontseries  {b}\selectfont  (right)}, when trained on NIR, R, and mixed datasets of images.\relax }}{5}}
\newlabel{fig:boxplots_cold}{{2}{5}}
\@writefile{lof}{\contentsline {figure}{\numberline {3}{\ignorespaces Same as in Fig. 1\hbox {}, but with activation maps generated with Grad-CAM added in the third row, and the activation-map-weighted results of the gradient backpropagation \cite  {GradCAMSelvaraju} in the fourth row.\relax }}{5}}
\newlabel{fig:segmentation-gradcam}{{3}{5}}
\@writefile{toc}{\contentsline {section}{\numberline {V}Class activation maps and human gaze-tracking data comparison}{5}}
\newlabel{sec:CAMAndEyetracking}{{V}{5}}
\@writefile{toc}{\contentsline {subsection}{\numberline {\unhbox \voidb@x \hbox {V-A}}Machine-based attention maps}{5}}
\newlabel{sec:CAM}{{\unhbox \voidb@x \hbox {V-A}}{5}}
\@writefile{lof}{\contentsline {figure}{\numberline {4}{\ignorespaces Same as in Fig. 3\hbox {}, but for both {\fontencoding  {T1}\fontseries  {b}\selectfont  manually segmented iris images (left)} and {\fontencoding  {T1}\fontseries  {b}\selectfont  automatically segmented iris images (right)}. Cadaver iris image samples {\fontencoding  {T1}\fontseries  {b}\selectfont  (top row)}, class activation maps {\fontencoding  {T1}\fontseries  {b}\selectfont  (middle row)}, and CAM-weighted features maps {\fontencoding  {T1}\fontseries  {b}\selectfont  (bottom row)}. Subject 16, left eye.\relax }}{6}}
\newlabel{fig:cam16left}{{4}{6}}
\@writefile{lof}{\contentsline {figure}{\numberline {5}{\ignorespaces Same as in Fig. 4\hbox {}, but for the right eye of subject 118, for which the manually processed data yielded better classification results.\relax }}{6}}
\newlabel{fig:cam118right}{{5}{6}}
\citation{EyeTribe}
\citation{EyeTrackingFixationsSaccades}
\@writefile{lof}{\contentsline {figure}{\numberline {6}{\ignorespaces Same as in Fig. 4\hbox {}, but for the left eye of subject 101, for which the automatically processed data yielded better classification results.\relax }}{7}}
\newlabel{fig:cam101left}{{6}{7}}
\@writefile{lof}{\contentsline {figure}{\numberline {7}{\ignorespaces Same as in Fig. 4\hbox {}, but for subject 112, left eye, which was challenging for the DCNN-based method regardless of the image segmentation method.\relax }}{7}}
\newlabel{fig:cam112left}{{7}{7}}
\@writefile{toc}{\contentsline {subsection}{\numberline {\unhbox \voidb@x \hbox {V-B}}Human-based attention maps}{7}}
\@writefile{lof}{\contentsline {figure}{\numberline {8}{\ignorespaces Same as in Fig. 4\hbox {}, but for subject 102, right eye. Similar performance is yielded by both types of segmentation, but the automatic segmentation method is able to efficiently mask out light reflections and thus force the network to learn iris features instead.\relax }}{8}}
\newlabel{fig:cam102right}{{8}{8}}
\@writefile{lof}{\contentsline {figure}{\numberline {9}{\ignorespaces Example attention maps for the same iris images pair coming from cadaver eyes, recorded during the experiment. Green and red dots represent the raw gaze fixation points (within, and outside of the iris, respectively), whereas the yellow circles denote the averaged fixation {\it  regions} generated by clustering the raw data and drawing an arbitrarily sized circle around the cluster center.\relax }}{8}}
\newlabel{fig:irises-cold}{{9}{8}}
\@writefile{lof}{\contentsline {figure}{\numberline {10}{\ignorespaces Human-based (gaze-tracking data) and DCNN-based (class activation mapping) attention maps for cases when human subject provided a correct decision, whereas the DCNN made a mistake. Samples with (roughly) similar maps are shown on the left, samples with significantly different maps are shown on the right.\relax }}{9}}
\newlabel{fig:human_OK}{{10}{9}}
\@writefile{lof}{\contentsline {figure}{\numberline {11}{\ignorespaces Same as in Fig. 10\hbox {}, but for cases when DCNN provided a correct decision, whereas the human examiner was wrong.\relax }}{9}}
\newlabel{fig:DCNN_OK}{{11}{9}}
\@writefile{lof}{\contentsline {figure}{\numberline {12}{\ignorespaces Same as in Fig. 10\hbox {}, but for cases when both the DCNN and the human examiner provided a correct decision.\relax }}{9}}
\newlabel{fig:both_OK}{{12}{9}}
\@writefile{lof}{\contentsline {figure}{\numberline {13}{\ignorespaces Same as in Fig. 10\hbox {}, but for cases when both the DCNN and the human examiner provided an incorrect decision.\relax }}{9}}
\newlabel{fig:both_failed}{{13}{9}}
\@writefile{toc}{\contentsline {section}{\numberline {VI}Discussion and Conclusions}{9}}
\newlabel{sec:conclusions}{{VI}{9}}
\bibcite{BostonPostMortem}{1}
\bibcite{BolmePostMortemBTAS2016}{2}
\bibcite{Keras}{3}
\bibcite{DeepIrisNet2016Gangwar}{4}
\bibcite{Hollingsworth_BTAS_2009}{5}
\bibcite{IrisGuardPostMortem}{6}
\bibcite{IriTechPostMortem}{7}
\bibcite{DeepIrisLIU2016}{8}
\bibcite{tensorflow2015}{9}
\bibcite{TrokielewiczArxiv2018}{10}
\bibcite{MinaeeCNNforIrisRec2016}{11}
\bibcite{IrisCNNsOffTheShelfNguyen2018}{12}
\bibcite{GradCAMCode}{13}
\bibcite{RossPostMortem}{14}
\bibcite{EyeTrackingFixationsSaccades}{15}
\bibcite{PostMortemPigs}{16}
\bibcite{Sauerwein_JFO_2017}{17}
\bibcite{GradCAMSelvaraju}{18}
\bibcite{VGGSimonyanCNNsForRecognition2014}{19}
\bibcite{GuidedBackPropSpringenberg}{20}
\bibcite{SaeedPostMortem}{21}
\bibcite{EyeTribe}{22}
\bibcite{TrokielewiczPostMortemSegmentationIWBF2018}{23}
\bibcite{TrokielewiczPostMortemPAD_BTAS2018}{24}
\bibcite{TrokielewiczPostMortemBTAS2016}{25}
\@writefile{toc}{\contentsline {section}{REFERENCES}{10}}
\bibcite{TrokielewiczPostMortemICB2016}{26}
\bibcite{WarsawColdIris1}{27}
\bibcite{WarsawColdIris2}{28}
\bibcite{ZhaoDeepIrisICCV2017}{29}
\bibcite{CAMZhou}{30}
\bibcite{CLAHE}{31}
\@writefile{toc}{\contentsline {subsection}{Mateusz Trokielewicz}{11}}
\@writefile{toc}{\contentsline {subsection}{Adam Czajka}{11}}
\@writefile{toc}{\contentsline {subsection}{Piotr Maciejewicz}{11}}
