\relax 
\citation{SafirFlom}
\citation{DaugmanPatent}
\citation{gonzalez2008}
\citation{kevin2009factors}
\citation{Baker2009}
\citation{Baker2013}
\citation{Fenker2011}
\citation{Fenker2012}
\citation{Czajka2013}
\@writefile{toc}{\contentsline {section}{\numberline {2.1}Iris template non-stationarity}{}}
\@writefile{toc}{\contentsline {section}{\numberline {2.2}Related work}{}}
\citation{IREX6}
\citation{BowyerIREX}
\citation{AgingSensorIJCB14}
\citation{Sazonova}
\@setckpt{chapters/aging}{
\setcounter{page}{10}
\setcounter{equation}{0}
\setcounter{enumi}{1}
\setcounter{enumii}{0}
\setcounter{enumiii}{0}
\setcounter{enumiv}{0}
\setcounter{footnote}{0}
\setcounter{mpfootnote}{0}
\setcounter{part}{0}
\setcounter{chapter}{2}
\setcounter{section}{2}
\setcounter{subsection}{0}
\setcounter{subsubsection}{0}
\setcounter{paragraph}{0}
\setcounter{subparagraph}{0}
\setcounter{figure}{0}
\setcounter{table}{0}
\setcounter{AM@survey}{0}
\setcounter{parentequation}{0}
\setcounter{ContinuedFloat}{0}
\setcounter{subfigure}{0}
\setcounter{subtable}{0}
}
