\relax 
\citation{Roizenblatt}
\citation{Seyeddain2014}
\citation{TrokielewiczWilga2014}
\citation{TrokielewiczWilga2014}
\@writefile{toc}{\contentsline {section}{\numberline {3.1}Iris recognition in the presence of ocular pathologies}{}}
\@writefile{toc}{\contentsline {section}{\numberline {3.2}Related work}{}}
\citation{Dhir}
\citation{Yuan}
\citation{Aslam}
\citation{Uveitis}
\citation{Borgen}
\citation{McConnon2012}
\citation{TrokielewiczCYBCONF2015}
\citation{TrokielewiczBTAS2015}
\@writefile{toc}{\contentsline {section}{\numberline {3.3}Experiments and results}{}}
\@writefile{toc}{\contentsline {section}{\numberline {3.4}Discussion}{}}
\@setckpt{chapters/diseases}{
\setcounter{page}{15}
\setcounter{equation}{0}
\setcounter{enumi}{1}
\setcounter{enumii}{0}
\setcounter{enumiii}{0}
\setcounter{enumiv}{0}
\setcounter{footnote}{0}
\setcounter{mpfootnote}{0}
\setcounter{part}{0}
\setcounter{chapter}{3}
\setcounter{section}{4}
\setcounter{subsection}{0}
\setcounter{subsubsection}{0}
\setcounter{paragraph}{0}
\setcounter{subparagraph}{0}
\setcounter{figure}{0}
\setcounter{table}{0}
\setcounter{AM@survey}{0}
\setcounter{parentequation}{0}
\setcounter{ContinuedFloat}{0}
\setcounter{subfigure}{0}
\setcounter{subtable}{0}
}
