\relax 
\citation{DaugmanAS}
\citation{Daugman1993}
\citation{IrisHandbook1}
\citation{IrisHandbook2}
\citation{BowyerSurvey2008}
\citation{BowyerSurvey2010}
\citation{CBSA}
\citation{AADHAAR}
\citation{IREXgeneral}
\@writefile{toc}{\contentsline {section}{\numberline {1.1}Iris recognition as a biometric utility}{}}
\citation{CzajkaPupilDynamicsTIFS}
\citation{Fenker2011}
\citation{Fenker2012}
\citation{Fenker2013}
\citation{Czajka2013}
\citation{TrokielewiczAgingIWBF2015}
\citation{BowyerOrtiz2015}
\citation{Grother2015}
\citation{TrokielewiczPostMortemICB2016}
\citation{TrokielewiczPostMortemBTAS2016}
\@writefile{toc}{\contentsline {section}{\numberline {1.2}New challenges in iris biometrics research}{}}
\@writefile{toc}{\contentsline {section}{\numberline {1.3}Aim of this Thesis}{}}
\@writefile{toc}{\contentsline {section}{\numberline {1.4}Proposed methodology}{}}
\@writefile{toc}{\contentsline {subsection}{\numberline {1.4.1}Quantification of biology and pathology induced changes influence}{}}
\@writefile{toc}{\contentsline {subsection}{\numberline {1.4.2}New methods in iris image processing}{}}
\@writefile{toc}{\contentsline {section}{\numberline {1.5}Terms and definitions used}{}}
\@writefile{toc}{\contentsline {subsection}{\numberline {1.5.1}Harmonized Biometric Vocabulary}{}}
\@writefile{toc}{\contentsline {subsection}{\numberline {1.5.2}ISO/IEC standard for biometric testing}{}}
\@setckpt{chapters/introduction}{
\setcounter{page}{7}
\setcounter{equation}{0}
\setcounter{enumi}{1}
\setcounter{enumii}{0}
\setcounter{enumiii}{0}
\setcounter{enumiv}{0}
\setcounter{footnote}{0}
\setcounter{mpfootnote}{0}
\setcounter{part}{0}
\setcounter{chapter}{1}
\setcounter{section}{5}
\setcounter{subsection}{2}
\setcounter{subsubsection}{0}
\setcounter{paragraph}{0}
\setcounter{subparagraph}{0}
\setcounter{figure}{0}
\setcounter{table}{0}
\setcounter{AM@survey}{0}
\setcounter{parentequation}{0}
\setcounter{ContinuedFloat}{0}
\setcounter{subfigure}{0}
\setcounter{subtable}{0}
}
