\relax 
\citation{WuCNNsForSemanticSegmentation2014}
\citation{LiPixelwiseClassificationCNNs2014}
\citation{NohDeconvolutionNNsForSegmentation2015}
\citation{VGGSimonyanCNNsForRecognition2014}
\citation{PinheiroPixelWiseLabelingCNNs2015}
\@writefile{toc}{\contentsline {section}{\numberline {5.1}Image segmentation}{}}
\@writefile{toc}{\contentsline {subsection}{\numberline {5.1.1}Related work}{}}
\@writefile{toc}{\contentsline {subsubsection}{Convolutional networks for semantic segmentation}{}}
\citation{HongSemanticSegmentation2015}
\citation{VGGSimonyanCNNsForRecognition2014}
\citation{NohDeconvolutionNNsForSegmentation2015}
\citation{ShelhamerCNNsForSemanticSegmentationTPAMI2016}
\citation{YuCNNsForSemanticSegmentationARXIV2016}
\citation{VGGSimonyanCNNsForRecognition2014}
\citation{ZhaoKumarCNNsForPeriocularTIFS2016}
\citation{BroussardNNsIrisSegmentation2009}
\citation{LiuICB2016CNNsForIrisSegmentation}
\citation{VGGSimonyanCNNsForRecognition2014}
\@writefile{toc}{\contentsline {subsubsection}{Neural networks for iris image segmentation}{}}
\citation{McGinnHumanExaminersIrisBTAS2013}
\citation{ShenFlynnCrypts2012}
\@writefile{toc}{\contentsline {section}{\numberline {5.2}Feature extraction}{}}
\@writefile{toc}{\contentsline {subsection}{\numberline {5.2.1}Related work}{}}
\@writefile{toc}{\contentsline {subsubsection}{Iris crypts for recognition}{}}
\citation{ShenFlynnCryptsMinutiae2013}
\citation{ShenFlynnCryptsBTAS2013}
\citation{ShenFlynnCrypts2014}
\citation{ShenFlynnCryptsBTAS2013}
\citation{ShenFlynnCryptsTIFS2016}
\citation{RossIrisMacroFeatures2010}
\@writefile{toc}{\contentsline {subsubsection}{Other macro features of the iris}{}}
\citation{HosseiniStromaAnalysisICB2007}
\citation{HosseiniMelaninIrisRecTIFS2010}
\citation{YangKeyPoints2004ICBA}
\citation{MaKeyLocalVariationsTIP2004}
\citation{deMiraMorphologicalIrisRec2003}
\citation{MinaeeCNNforIrisRec2016}
\citation{VGGSimonyanCNNsForRecognition2014}
\@writefile{toc}{\contentsline {subsubsection}{Filtering-based methods (but not Daugman)}{}}
\@writefile{toc}{\contentsline {subsubsection}{Morphological structures of the iris}{}}
\@writefile{toc}{\contentsline {subsubsection}{Methods employing neural networks}{}}
\citation{SunSIFTIrisCowsElsevier2013}
\@writefile{toc}{\contentsline {subsubsection}{SIFT-based approaches}{}}
\@writefile{toc}{\contentsline {section}{\numberline {5.3}Performance evaluation}{}}
\@writefile{toc}{\contentsline {subsection}{\numberline {5.3.1}Test databases}{}}
\@setckpt{chapters/methods}{
\setcounter{page}{28}
\setcounter{equation}{0}
\setcounter{enumi}{1}
\setcounter{enumii}{0}
\setcounter{enumiii}{0}
\setcounter{enumiv}{0}
\setcounter{footnote}{0}
\setcounter{mpfootnote}{0}
\setcounter{part}{0}
\setcounter{chapter}{5}
\setcounter{section}{3}
\setcounter{subsection}{1}
\setcounter{subsubsection}{0}
\setcounter{paragraph}{0}
\setcounter{subparagraph}{0}
\setcounter{figure}{0}
\setcounter{table}{0}
\setcounter{AM@survey}{0}
\setcounter{parentequation}{0}
\setcounter{ContinuedFloat}{0}
\setcounter{subfigure}{0}
\setcounter{subtable}{0}
}
