\relax 
\citation{DaugmanPostMortem}
\citation{SaeedPostMortem}
\citation{IrisGuardPostMortem}
\citation{IriTechPostMortem}
\citation{BostonPostMortem}
\citation{PostMortemPigs}
\citation{RossPostMortem}
\citation{TrokielewiczPostMortemICB2016}
\citation{TrokielewiczPostMortemBTAS2016}
\citation{WarsawColdIris1}
\@writefile{toc}{\contentsline {section}{\numberline {4.1}Iris recognition in post-mortem setting}{}}
\@writefile{toc}{\contentsline {section}{\numberline {4.2}Related work}{}}
\citation{BolmePostMortemBTAS2016}
\@writefile{toc}{\contentsline {section}{\numberline {4.3}Experiments and results}{}}
\@writefile{toc}{\contentsline {section}{\numberline {4.4}Discussion}{}}
\@setckpt{chapters/postmortem}{
\setcounter{page}{18}
\setcounter{equation}{0}
\setcounter{enumi}{1}
\setcounter{enumii}{0}
\setcounter{enumiii}{0}
\setcounter{enumiv}{0}
\setcounter{footnote}{0}
\setcounter{mpfootnote}{0}
\setcounter{part}{0}
\setcounter{chapter}{4}
\setcounter{section}{4}
\setcounter{subsection}{0}
\setcounter{subsubsection}{0}
\setcounter{paragraph}{0}
\setcounter{subparagraph}{0}
\setcounter{figure}{0}
\setcounter{table}{0}
\setcounter{AM@survey}{0}
\setcounter{parentequation}{0}
\setcounter{ContinuedFloat}{0}
\setcounter{subfigure}{0}
\setcounter{subtable}{0}
}
