\relax 
\citation{WuCNNsForSemanticSegmentation2014}
\citation{LiPixelwiseClassificationCNNs2014}
\citation{NohDeconvolutionNNsForSegmentation2015}
\citation{VGGSimonyanCNNsForRecognition2014}
\citation{PinheiroPixelWiseLabelingCNNs2015}
\@writefile{toc}{\contentsline {section}{\numberline {5.1}Related work}{}}
\@writefile{toc}{\contentsline {subsection}{\numberline {5.1.1}Convolutional networks for semantic segmentation}{}}
\citation{HongSemanticSegmentation2015}
\citation{VGGSimonyanCNNsForRecognition2014}
\citation{NohDeconvolutionNNsForSegmentation2015}
\citation{ShelhamerCNNsForSemanticSegmentationTPAMI2016}
\citation{YuCNNsForSemanticSegmentationARXIV2016}
\citation{VGGSimonyanCNNsForRecognition2014}
\citation{ZhaoKumarCNNsForPeriocularTIFS2016}
\citation{BroussardNNsIrisSegmentation2009}
\citation{LiuICB2016CNNsForIrisSegmentation}
\citation{VGGSimonyanCNNsForRecognition2014}
\@writefile{toc}{\contentsline {subsection}{\numberline {5.1.2}Neural networks for iris image segmentation}{}}
\@setckpt{chapters/segmentation}{
\setcounter{page}{23}
\setcounter{equation}{0}
\setcounter{enumi}{1}
\setcounter{enumii}{0}
\setcounter{enumiii}{0}
\setcounter{enumiv}{0}
\setcounter{footnote}{0}
\setcounter{mpfootnote}{0}
\setcounter{part}{0}
\setcounter{chapter}{5}
\setcounter{section}{1}
\setcounter{subsection}{2}
\setcounter{subsubsection}{0}
\setcounter{paragraph}{0}
\setcounter{subparagraph}{0}
\setcounter{figure}{0}
\setcounter{table}{0}
\setcounter{AM@survey}{0}
\setcounter{parentequation}{0}
\setcounter{ContinuedFloat}{0}
\setcounter{subfigure}{0}
\setcounter{subtable}{0}
}
