%!PS-Adobe-3.0 EPSF-3.0
%%Creator: (MATLAB, The Mathworks, Inc. Version 9.1.0.441655 \(R2016b\). Operating System: Mac OS X)
%%Title: ./longTerm_All_ML_genuine.eps
%%CreationDate: 2016-12-06T15:15:41
%%Pages: (atend)
%%BoundingBox:     8     0   519   412
%%LanguageLevel: 3
%%EndComments
%%BeginProlog
%%BeginResource: procset (Apache XML Graphics Std ProcSet) 1.2 0
%%Version: 1.2 0
%%Copyright: (Copyright 2001-2003,2010 The Apache Software Foundation. License terms: http://www.apache.org/licenses/LICENSE-2.0)
/bd{bind def}bind def
/ld{load def}bd
/GR/grestore ld
/M/moveto ld
/LJ/setlinejoin ld
/C/curveto ld
/f/fill ld
/LW/setlinewidth ld
/GC/setgray ld
/t/show ld
/N/newpath ld
/CT/concat ld
/cp/closepath ld
/S/stroke ld
/L/lineto ld
/CC/setcmykcolor ld
/A/ashow ld
/GS/gsave ld
/RC/setrgbcolor ld
/RM/rmoveto ld
/ML/setmiterlimit ld
/re {4 2 roll M
1 index 0 rlineto
0 exch rlineto
neg 0 rlineto
cp } bd
/_ctm matrix def
/_tm matrix def
/BT { _ctm currentmatrix pop matrix _tm copy pop 0 0 moveto } bd
/ET { _ctm setmatrix } bd
/iTm { _ctm setmatrix _tm concat } bd
/Tm { _tm astore pop iTm 0 0 moveto } bd
/ux 0.0 def
/uy 0.0 def
/F {
  /Tp exch def
  /Tf exch def
  Tf findfont Tp scalefont setfont
  /cf Tf def  /cs Tp def
} bd
/ULS {currentpoint /uy exch def /ux exch def} bd
/ULE {
  /Tcx currentpoint pop def
  gsave
  newpath
  cf findfont cs scalefont dup
  /FontMatrix get 0 get /Ts exch def /FontInfo get dup
  /UnderlinePosition get Ts mul /To exch def
  /UnderlineThickness get Ts mul /Tt exch def
  ux uy To add moveto  Tcx uy To add lineto
  Tt setlinewidth stroke
  grestore
} bd
/OLE {
  /Tcx currentpoint pop def
  gsave
  newpath
  cf findfont cs scalefont dup
  /FontMatrix get 0 get /Ts exch def /FontInfo get dup
  /UnderlinePosition get Ts mul /To exch def
  /UnderlineThickness get Ts mul /Tt exch def
  ux uy To add cs add moveto Tcx uy To add cs add lineto
  Tt setlinewidth stroke
  grestore
} bd
/SOE {
  /Tcx currentpoint pop def
  gsave
  newpath
  cf findfont cs scalefont dup
  /FontMatrix get 0 get /Ts exch def /FontInfo get dup
  /UnderlinePosition get Ts mul /To exch def
  /UnderlineThickness get Ts mul /Tt exch def
  ux uy To add cs 10 mul 26 idiv add moveto Tcx uy To add cs 10 mul 26 idiv add lineto
  Tt setlinewidth stroke
  grestore
} bd
/QT {
/Y22 exch store
/X22 exch store
/Y21 exch store
/X21 exch store
currentpoint
/Y21 load 2 mul add 3 div exch
/X21 load 2 mul add 3 div exch
/X21 load 2 mul /X22 load add 3 div
/Y21 load 2 mul /Y22 load add 3 div
/X22 load /Y22 load curveto
} bd
/SSPD {
dup length /d exch dict def
{
/v exch def
/k exch def
currentpagedevice k known {
/cpdv currentpagedevice k get def
v cpdv ne {
/upd false def
/nullv v type /nulltype eq def
/nullcpdv cpdv type /nulltype eq def
nullv nullcpdv or
{
/upd true def
} {
/sametype v type cpdv type eq def
sametype {
v type /arraytype eq {
/vlen v length def
/cpdvlen cpdv length def
vlen cpdvlen eq {
0 1 vlen 1 sub {
/i exch def
/obj v i get def
/cpdobj cpdv i get def
obj cpdobj ne {
/upd true def
exit
} if
} for
} {
/upd true def
} ifelse
} {
v type /dicttype eq {
v {
/dv exch def
/dk exch def
/cpddv cpdv dk get def
dv cpddv ne {
/upd true def
exit
} if
} forall
} {
/upd true def
} ifelse
} ifelse
} if
} ifelse
upd true eq {
d k v put
} if
} if
} if
} forall
d length 0 gt {
d setpagedevice
} if
} bd
/RE { % /NewFontName [NewEncodingArray] /FontName RE -
  findfont dup length dict begin
  {
    1 index /FID ne
    {def} {pop pop} ifelse
  } forall
  /Encoding exch def
  /FontName 1 index def
  currentdict definefont pop
  end
} bind def
%%EndResource
%%BeginResource: procset (Apache XML Graphics EPS ProcSet) 1.0 0
%%Version: 1.0 0
%%Copyright: (Copyright 2002-2003 The Apache Software Foundation. License terms: http://www.apache.org/licenses/LICENSE-2.0)
/BeginEPSF { %def
/b4_Inc_state save def         % Save state for cleanup
/dict_count countdictstack def % Count objects on dict stack
/op_count count 1 sub def      % Count objects on operand stack
userdict begin                 % Push userdict on dict stack
/showpage { } def              % Redefine showpage, { } = null proc
0 setgray 0 setlinecap         % Prepare graphics state
1 setlinewidth 0 setlinejoin
10 setmiterlimit [ ] 0 setdash newpath
/languagelevel where           % If level not equal to 1 then
{pop languagelevel             % set strokeadjust and
1 ne                           % overprint to their defaults.
{false setstrokeadjust false setoverprint
} if
} if
} bd
/EndEPSF { %def
count op_count sub {pop} repeat            % Clean up stacks
countdictstack dict_count sub {end} repeat
b4_Inc_state restore
} bd
%%EndResource
%FOPBeginFontDict
%%IncludeResource: font Courier-Bold
%%IncludeResource: font Helvetica
%%IncludeResource: font Courier-BoldOblique
%%IncludeResource: font Courier-Oblique
%%IncludeResource: font Times-Roman
%%IncludeResource: font Helvetica-BoldOblique
%%IncludeResource: font Helvetica-Bold
%%IncludeResource: font Helvetica-Oblique
%%IncludeResource: font Times-BoldItalic
%%IncludeResource: font Courier
%%IncludeResource: font Times-Italic
%%IncludeResource: font Times-Bold
%%IncludeResource: font Symbol
%%IncludeResource: font ZapfDingbats
%FOPEndFontDict
%%BeginResource: encoding WinAnsiEncoding
/WinAnsiEncoding [
/.notdef /.notdef /.notdef /.notdef /.notdef
/.notdef /.notdef /.notdef /.notdef /.notdef
/.notdef /.notdef /.notdef /.notdef /.notdef
/.notdef /.notdef /.notdef /.notdef /.notdef
/.notdef /.notdef /.notdef /.notdef /.notdef
/.notdef /.notdef /.notdef /.notdef /.notdef
/.notdef /.notdef /space /exclam /quotedbl
/numbersign /dollar /percent /ampersand /quotesingle
/parenleft /parenright /asterisk /plus /comma
/hyphen /period /slash /zero /one
/two /three /four /five /six
/seven /eight /nine /colon /semicolon
/less /equal /greater /question /at
/A /B /C /D /E
/F /G /H /I /J
/K /L /M /N /O
/P /Q /R /S /T
/U /V /W /X /Y
/Z /bracketleft /backslash /bracketright /asciicircum
/underscore /quoteleft /a /b /c
/d /e /f /g /h
/i /j /k /l /m
/n /o /p /q /r
/s /t /u /v /w
/x /y /z /braceleft /bar
/braceright /asciitilde /bullet /Euro /bullet
/quotesinglbase /florin /quotedblbase /ellipsis /dagger
/daggerdbl /circumflex /perthousand /Scaron /guilsinglleft
/OE /bullet /Zcaron /bullet /bullet
/quoteleft /quoteright /quotedblleft /quotedblright /bullet
/endash /emdash /asciitilde /trademark /scaron
/guilsinglright /oe /bullet /zcaron /Ydieresis
/space /exclamdown /cent /sterling /currency
/yen /brokenbar /section /dieresis /copyright
/ordfeminine /guillemotleft /logicalnot /sfthyphen /registered
/macron /degree /plusminus /twosuperior /threesuperior
/acute /mu /paragraph /middot /cedilla
/onesuperior /ordmasculine /guillemotright /onequarter /onehalf
/threequarters /questiondown /Agrave /Aacute /Acircumflex
/Atilde /Adieresis /Aring /AE /Ccedilla
/Egrave /Eacute /Ecircumflex /Edieresis /Igrave
/Iacute /Icircumflex /Idieresis /Eth /Ntilde
/Ograve /Oacute /Ocircumflex /Otilde /Odieresis
/multiply /Oslash /Ugrave /Uacute /Ucircumflex
/Udieresis /Yacute /Thorn /germandbls /agrave
/aacute /acircumflex /atilde /adieresis /aring
/ae /ccedilla /egrave /eacute /ecircumflex
/edieresis /igrave /iacute /icircumflex /idieresis
/eth /ntilde /ograve /oacute /ocircumflex
/otilde /odieresis /divide /oslash /ugrave
/uacute /ucircumflex /udieresis /yacute /thorn
/ydieresis
] def
%%EndResource
%FOPBeginFontReencode
/Courier-Bold findfont
dup length dict begin
  {1 index /FID ne {def} {pop pop} ifelse} forall
  /Encoding WinAnsiEncoding def
  currentdict
end
/Courier-Bold exch definefont pop
/Helvetica findfont
dup length dict begin
  {1 index /FID ne {def} {pop pop} ifelse} forall
  /Encoding WinAnsiEncoding def
  currentdict
end
/Helvetica exch definefont pop
/Courier-BoldOblique findfont
dup length dict begin
  {1 index /FID ne {def} {pop pop} ifelse} forall
  /Encoding WinAnsiEncoding def
  currentdict
end
/Courier-BoldOblique exch definefont pop
/Courier-Oblique findfont
dup length dict begin
  {1 index /FID ne {def} {pop pop} ifelse} forall
  /Encoding WinAnsiEncoding def
  currentdict
end
/Courier-Oblique exch definefont pop
/Times-Roman findfont
dup length dict begin
  {1 index /FID ne {def} {pop pop} ifelse} forall
  /Encoding WinAnsiEncoding def
  currentdict
end
/Times-Roman exch definefont pop
/Helvetica-BoldOblique findfont
dup length dict begin
  {1 index /FID ne {def} {pop pop} ifelse} forall
  /Encoding WinAnsiEncoding def
  currentdict
end
/Helvetica-BoldOblique exch definefont pop
/Helvetica-Bold findfont
dup length dict begin
  {1 index /FID ne {def} {pop pop} ifelse} forall
  /Encoding WinAnsiEncoding def
  currentdict
end
/Helvetica-Bold exch definefont pop
/Helvetica-Oblique findfont
dup length dict begin
  {1 index /FID ne {def} {pop pop} ifelse} forall
  /Encoding WinAnsiEncoding def
  currentdict
end
/Helvetica-Oblique exch definefont pop
/Times-BoldItalic findfont
dup length dict begin
  {1 index /FID ne {def} {pop pop} ifelse} forall
  /Encoding WinAnsiEncoding def
  currentdict
end
/Times-BoldItalic exch definefont pop
/Courier findfont
dup length dict begin
  {1 index /FID ne {def} {pop pop} ifelse} forall
  /Encoding WinAnsiEncoding def
  currentdict
end
/Courier exch definefont pop
/Times-Italic findfont
dup length dict begin
  {1 index /FID ne {def} {pop pop} ifelse} forall
  /Encoding WinAnsiEncoding def
  currentdict
end
/Times-Italic exch definefont pop
/Times-Bold findfont
dup length dict begin
  {1 index /FID ne {def} {pop pop} ifelse} forall
  /Encoding WinAnsiEncoding def
  currentdict
end
/Times-Bold exch definefont pop
%FOPEndFontReencode
%%EndProlog
%%Page: 1 1
%%PageBoundingBox: 0 0 560 420
%%BeginPageSetup
[1 0 0 -1 0 420] CT
%%EndPageSetup
GS
1 GC
N
0 0 560 420 re
f
GR
GS
1 GC
N
0 0 560 420 re
f
GR
GS
1 GC
N
73 358 M
507 358 L
507 35 L
73 35 L
cp
f
GR
GS
0.873 GC
1 LJ
0.5 LW
N
126.11 358 M
126.11 35 L
S
GR
GS
0.873 GC
1 LJ
0.5 LW
N
179.756 358 M
179.756 35 L
S
GR
GS
0.873 GC
1 LJ
0.5 LW
N
233.403 358 M
233.403 35 L
S
GR
GS
0.873 GC
1 LJ
0.5 LW
N
287.049 358 M
287.049 35 L
S
GR
GS
0.873 GC
1 LJ
0.5 LW
N
340.696 358 M
340.696 35 L
S
GR
GS
0.873 GC
1 LJ
0.5 LW
N
394.342 358 M
394.342 35 L
S
GR
GS
0.873 GC
1 LJ
0.5 LW
N
447.989 358 M
447.989 35 L
S
GR
GS
0.873 GC
1 LJ
0.5 LW
N
501.635 358 M
501.635 35 L
S
GR
GS
0.873 GC
1 LJ
0.5 LW
N
507 358 M
73 358 L
S
GR
GS
0.873 GC
1 LJ
0.5 LW
N
507 304.167 M
73 304.167 L
S
GR
GS
0.873 GC
1 LJ
0.5 LW
N
507 250.333 M
73 250.333 L
S
GR
GS
0.873 GC
1 LJ
0.5 LW
N
507 196.5 M
73 196.5 L
S
GR
GS
0.873 GC
1 LJ
0.5 LW
N
507 142.667 M
73 142.667 L
S
GR
GS
0.873 GC
1 LJ
0.5 LW
N
507 88.833 M
73 88.833 L
S
GR
GS
0.873 GC
1 LJ
0.5 LW
N
507 35 M
73 35 L
S
GR
GS
0.149 GC
2 setlinecap
1 LJ
0.5 LW
N
73 358 M
507 358 L
S
GR
GS
0.149 GC
2 setlinecap
1 LJ
0.5 LW
N
126.11 358 M
126.11 353.66 L
S
GR
GS
0.149 GC
2 setlinecap
1 LJ
0.5 LW
N
179.756 358 M
179.756 353.66 L
S
GR
GS
0.149 GC
2 setlinecap
1 LJ
0.5 LW
N
233.403 358 M
233.403 353.66 L
S
GR
GS
0.149 GC
2 setlinecap
1 LJ
0.5 LW
N
287.049 358 M
287.049 353.66 L
S
GR
GS
0.149 GC
2 setlinecap
1 LJ
0.5 LW
N
340.696 358 M
340.696 353.66 L
S
GR
GS
0.149 GC
2 setlinecap
1 LJ
0.5 LW
N
394.342 358 M
394.342 353.66 L
S
GR
GS
0.149 GC
2 setlinecap
1 LJ
0.5 LW
N
447.989 358 M
447.989 353.66 L
S
GR
GS
0.149 GC
2 setlinecap
1 LJ
0.5 LW
N
501.635 358 M
501.635 353.66 L
S
GR
GS
[1 0 0 1 126.11002 364.39999] CT
0.149 GC
/Helvetica 22 F
GS
[1 0 0 1 0 0] CT
-18.5 21 moveto 
1 -1 scale
(100) t 
GR
GR
GS
[1 0 0 1 179.75648 364.39999] CT
0.149 GC
/Helvetica 22 F
GS
[1 0 0 1 0 0] CT
-18.5 21 moveto 
1 -1 scale
(200) t 
GR
GR
GS
[1 0 0 1 233.40297 364.39999] CT
0.149 GC
/Helvetica 22 F
GS
[1 0 0 1 0 0] CT
-18.5 21 moveto 
1 -1 scale
(300) t 
GR
GR
GS
[1 0 0 1 287.04944 364.39999] CT
0.149 GC
/Helvetica 22 F
GS
[1 0 0 1 0 0] CT
-18.5 21 moveto 
1 -1 scale
(400) t 
GR
GR
GS
[1 0 0 1 340.69592 364.39999] CT
0.149 GC
/Helvetica 22 F
GS
[1 0 0 1 0 0] CT
-18.5 21 moveto 
1 -1 scale
(500) t 
GR
GR
GS
[1 0 0 1 394.34241 364.39999] CT
0.149 GC
/Helvetica 22 F
GS
[1 0 0 1 0 0] CT
-18.5 21 moveto 
1 -1 scale
(600) t 
GR
GR
GS
[1 0 0 1 447.98886 364.39999] CT
0.149 GC
/Helvetica 22 F
GS
[1 0 0 1 0 0] CT
-18.5 21 moveto 
1 -1 scale
(700) t 
GR
GR
GS
[1 0 0 1 501.63535 364.39999] CT
0.149 GC
/Helvetica 22 F
GS
[1 0 0 1 0 0] CT
-18.5 21 moveto 
1 -1 scale
(800) t 
GR
GR
GS
[1 0 0 1 290.00021 391.39999] CT
0.149 GC
/Helvetica 24.2 F
GS
[1 0 0 1 0 0] CT
-211.5 23 moveto 
1 -1 scale
(Difference between acquisitions \(hours\)) t 
GR
GR
GS
0.149 GC
2 setlinecap
1 LJ
0.5 LW
N
73 358 M
73 35 L
S
GR
GS
0.149 GC
2 setlinecap
1 LJ
0.5 LW
N
73 358 M
77.34 358 L
S
GR
GS
0.149 GC
2 setlinecap
1 LJ
0.5 LW
N
73 304.167 M
77.34 304.167 L
S
GR
GS
0.149 GC
2 setlinecap
1 LJ
0.5 LW
N
73 250.333 M
77.34 250.333 L
S
GR
GS
0.149 GC
2 setlinecap
1 LJ
0.5 LW
N
73 196.5 M
77.34 196.5 L
S
GR
GS
0.149 GC
2 setlinecap
1 LJ
0.5 LW
N
73 142.667 M
77.34 142.667 L
S
GR
GS
0.149 GC
2 setlinecap
1 LJ
0.5 LW
N
73 88.833 M
77.34 88.833 L
S
GR
GS
0.149 GC
2 setlinecap
1 LJ
0.5 LW
N
73 35 M
77.34 35 L
S
GR
GS
[1 0 0 1 66.6 358] CT
0.149 GC
/Helvetica 22 F
GS
[1 0 0 1 0 0] CT
-13 8 moveto 
1 -1 scale
(0) t 
GR
GR
GS
[1 0 0 1 66.6 304.16666] CT
0.149 GC
/Helvetica 22 F
GS
[1 0 0 1 0 0] CT
-31 8 moveto 
1 -1 scale
(0.1) t 
GR
GR
GS
[1 0 0 1 66.6 250.33333] CT
0.149 GC
/Helvetica 22 F
GS
[1 0 0 1 0 0] CT
-31 8 moveto 
1 -1 scale
(0.2) t 
GR
GR
GS
[1 0 0 1 66.6 196.5] CT
0.149 GC
/Helvetica 22 F
GS
[1 0 0 1 0 0] CT
-31 8 moveto 
1 -1 scale
(0.3) t 
GR
GR
GS
[1 0 0 1 66.6 142.66666] CT
0.149 GC
/Helvetica 22 F
GS
[1 0 0 1 0 0] CT
-31 8 moveto 
1 -1 scale
(0.4) t 
GR
GR
GS
[1 0 0 1 66.6 88.83334] CT
0.149 GC
/Helvetica 22 F
GS
[1 0 0 1 0 0] CT
-31 8 moveto 
1 -1 scale
(0.5) t 
GR
GR
GS
[1 0 0 1 66.6 34.99999] CT
0.149 GC
/Helvetica 22 F
GS
[1 0 0 1 0 0] CT
-31 8 moveto 
1 -1 scale
(0.6) t 
GR
GR
GS
[0 -1 1 0 32.6 196.49983] CT
0.149 GC
/Helvetica 24.2 F
GS
[1 0 0 1 0 0] CT
-99 -6 moveto 
1 -1 scale
(Comparison score) t 
GR
GR
GS
[1 0 0 1 290.00027 31.975] CT
/Helvetica-Bold 24.2 F
GS
[1 0 0 1 0 0] CT
-175.5 -6 moveto 
1 -1 scale
(MIRLIN | genuine comparisons) t 
GR
GR
GS
[1 0 0 1 78.36465 255.72528] CT
0 0.702 0 RC
N
2.667 0 M
2.667 1.473 1.473 2.667 0 2.667 C
-1.473 2.667 -2.667 1.473 -2.667 0 C
-2.667 -1.473 -1.473 -2.667 0 -2.667 C
1.473 -2.667 2.667 -1.473 2.667 0 C
cp
f
GR
GS
[1 0 0 1 78.36465 250.80653] CT
0 0.702 0 RC
N
/f-1992514645{2.667 0 M
2.667 1.473 1.473 2.667 0 2.667 C
-1.473 2.667 -2.667 1.473 -2.667 0 C
-2.667 -1.473 -1.473 -2.667 0 -2.667 C
1.473 -2.667 2.667 -1.473 2.667 0 C
cp}def
f-1992514645
f
GR
GS
[1 0 0 1 78.36465 263.30664] CT
0 0.702 0 RC
N
f-1992514645
f
GR
GS
[1 0 0 1 78.36465 253.50035] CT
0 0.702 0 RC
N
f-1992514645
f
GR
GS
[1 0 0 1 78.36465 255.82649] CT
0 0.702 0 RC
N
f-1992514645
f
GR
GS
[1 0 0 1 78.36465 354.82654] CT
0 0.702 0 RC
N
f-1992514645
f
GR
GS
[1 0 0 1 78.36465 345.96503] CT
0 0.702 0 RC
N
f-1992514645
f
GR
GS
[1 0 0 1 78.36465 332.73978] CT
0 0.702 0 RC
N
f-1992514645
f
GR
GS
[1 0 0 1 78.36465 350.79495] CT
0 0.702 0 RC
N
f-1992514645
f
GR
GS
[1 0 0 1 78.36465 334.27405] CT
0 0.702 0 RC
N
f-1992514645
f
GR
GS
[1 0 0 1 78.36465 309.55969] CT
0 0.702 0 RC
N
f-1992514645
f
GR
GS
[1 0 0 1 78.36465 350.02353] CT
0 0.702 0 RC
N
f-1992514645
f
GR
GS
[1 0 0 1 78.36465 348.87256] CT
0 0.702 0 RC
N
f-1992514645
f
GR
GS
[1 0 0 1 78.36465 351.11096] CT
0 0.702 0 RC
N
f-1992514645
f
GR
GS
[1 0 0 1 78.36465 314.11777] CT
0 0.702 0 RC
N
f-1992514645
f
GR
GS
[1 0 0 1 78.36465 346.45221] CT
0 0.702 0 RC
N
f-1992514645
f
GR
GS
[1 0 0 1 78.36465 351.51578] CT
0 0.702 0 RC
N
f-1992514645
f
GR
GS
[1 0 0 1 78.36465 325.35385] CT
0 0.702 0 RC
N
f-1992514645
f
GR
GS
[1 0 0 1 78.36465 327.42966] CT
0 0.702 0 RC
N
f-1992514645
f
GR
GS
[1 0 0 1 78.36465 325.20364] CT
0 0.702 0 RC
N
f-1992514645
f
GR
GS
[1 0 0 1 78.36465 337.50943] CT
0 0.702 0 RC
N
f-1992514645
f
GR
GS
[1 0 0 1 78.36465 320.08032] CT
0 0.702 0 RC
N
f-1992514645
f
GR
GS
[1 0 0 1 78.36465 322.33112] CT
0 0.702 0 RC
N
f-1992514645
f
GR
GS
[1 0 0 1 78.36465 319.38696] CT
0 0.702 0 RC
N
f-1992514645
f
GR
GS
[1 0 0 1 78.36465 333.12955] CT
0 0.702 0 RC
N
f-1992514645
f
GR
GS
[1 0 0 1 78.36465 328.60916] CT
0 0.702 0 RC
N
f-1992514645
f
GR
GS
[1 0 0 1 78.36465 329.20401] CT
0 0.702 0 RC
N
f-1992514645
f
GR
GS
[1 0 0 1 78.36465 322.29828] CT
0 0.702 0 RC
N
f-1992514645
f
GR
GS
[1 0 0 1 78.36465 326.23511] CT
0 0.702 0 RC
N
f-1992514645
f
GR
GS
[1 0 0 1 78.36465 337.74738] CT
0 0.702 0 RC
N
f-1992514645
f
GR
GS
[1 0 0 1 78.36465 336.37137] CT
0 0.702 0 RC
N
f-1992514645
f
GR
GS
[1 0 0 1 78.36465 333.54889] CT
0 0.702 0 RC
N
f-1992514645
f
GR
GS
[1 0 0 1 78.36465 332.84207] CT
0 0.702 0 RC
N
f-1992514645
f
GR
GS
[1 0 0 1 78.36465 340.94238] CT
0 0.702 0 RC
N
f-1992514645
f
GR
GS
[1 0 0 1 78.36465 339.7995] CT
0 0.702 0 RC
N
f-1992514645
f
GR
GS
[1 0 0 1 78.36465 340.38519] CT
0 0.702 0 RC
N
f-1992514645
f
GR
GS
[1 0 0 1 78.36465 339.54861] CT
0 0.702 0 RC
N
f-1992514645
f
GR
GS
[1 0 0 1 78.36465 334.94424] CT
0 0.702 0 RC
N
f-1992514645
f
GR
GS
[1 0 0 1 78.36465 329.9733] CT
0 0.702 0 RC
N
f-1992514645
f
GR
GS
[1 0 0 1 78.36465 340.07242] CT
0 0.702 0 RC
N
f-1992514645
f
GR
GS
[1 0 0 1 78.36465 335.74152] CT
0 0.702 0 RC
N
f-1992514645
f
GR
GS
[1 0 0 1 78.36465 352.13809] CT
0 0.702 0 RC
N
f-1992514645
f
GR
GS
[1 0 0 1 78.36465 349.41788] CT
0 0.702 0 RC
N
f-1992514645
f
GR
GS
[1 0 0 1 78.36465 349.62729] CT
0 0.702 0 RC
N
f-1992514645
f
GR
GS
[1 0 0 1 78.36465 336.40369] CT
0 0.702 0 RC
N
f-1992514645
f
GR
GS
[1 0 0 1 78.36465 348.04514] CT
0 0.702 0 RC
N
f-1992514645
f
GR
GS
[1 0 0 1 78.36465 338.83481] CT
0 0.702 0 RC
N
f-1992514645
f
GR
GS
[1 0 0 1 78.36465 354.04272] CT
0 0.702 0 RC
N
f-1992514645
f
GR
GS
[1 0 0 1 78.36465 348.22708] CT
0 0.702 0 RC
N
f-1992514645
f
GR
GS
[1 0 0 1 78.36465 351.51846] CT
0 0.702 0 RC
N
f-1992514645
f
GR
GS
[1 0 0 1 78.36465 341.45432] CT
0 0.702 0 RC
N
f-1992514645
f
GR
GS
[1 0 0 1 78.36465 345.02509] CT
0 0.702 0 RC
N
f-1992514645
f
GR
GS
[1 0 0 1 78.36465 338.69644] CT
0 0.702 0 RC
N
f-1992514645
f
GR
GS
[1 0 0 1 78.36465 348.12158] CT
0 0.702 0 RC
N
f-1992514645
f
GR
GS
[1 0 0 1 78.36465 350.77557] CT
0 0.702 0 RC
N
f-1992514645
f
GR
GS
[1 0 0 1 78.36465 342.14664] CT
0 0.702 0 RC
N
f-1992514645
f
GR
GS
[1 0 0 1 78.36465 348.94955] CT
0 0.702 0 RC
N
f-1992514645
f
GR
GS
[1 0 0 1 78.36465 352.44226] CT
0 0.702 0 RC
N
f-1992514645
f
GR
GS
[1 0 0 1 78.36465 347.35715] CT
0 0.702 0 RC
N
f-1992514645
f
GR
GS
[1 0 0 1 78.36465 349.54871] CT
0 0.702 0 RC
N
f-1992514645
f
GR
GS
[1 0 0 1 78.36465 350.93277] CT
0 0.702 0 RC
N
f-1992514645
f
GR
GS
[1 0 0 1 78.36465 340.56445] CT
0 0.702 0 RC
N
f-1992514645
f
GR
GS
[1 0 0 1 78.36465 352.46378] CT
0 0.702 0 RC
N
f-1992514645
f
GR
GS
[1 0 0 1 78.36465 353.86075] CT
0 0.702 0 RC
N
f-1992514645
f
GR
GS
[1 0 0 1 78.36465 339.15833] CT
0 0.702 0 RC
N
f-1992514645
f
GR
GS
[1 0 0 1 78.36465 351.53137] CT
0 0.702 0 RC
N
f-1992514645
f
GR
GS
[1 0 0 1 78.36465 354.05939] CT
0 0.702 0 RC
N
f-1992514645
f
GR
GS
[1 0 0 1 78.36465 342.40341] CT
0 0.702 0 RC
N
f-1992514645
f
GR
GS
[1 0 0 1 78.36465 326.70721] CT
0 0.702 0 RC
N
f-1992514645
f
GR
GS
[1 0 0 1 78.36465 315.15512] CT
0 0.702 0 RC
N
f-1992514645
f
GR
GS
[1 0 0 1 78.36465 314.83319] CT
0 0.702 0 RC
N
f-1992514645
f
GR
GS
[1 0 0 1 78.36465 327.35593] CT
0 0.702 0 RC
N
f-1992514645
f
GR
GS
[1 0 0 1 78.36465 173.37213] CT
1 0 0 RC
N
f-1992514645
f
GR
GS
[1 0 0 1 78.36465 227.79977] CT
1 0 0 RC
N
f-1992514645
f
GR
GS
[1 0 0 1 78.36465 222.2361] CT
1 0 0 RC
N
f-1992514645
f
GR
GS
[1 0 0 1 78.36465 131.38643] CT
1 0 0 RC
N
f-1992514645
f
GR
GS
[1 0 0 1 78.36465 218.64703] CT
1 0 0 RC
N
f-1992514645
f
GR
GS
[1 0 0 1 78.36465 194.6799] CT
1 0 0 RC
N
f-1992514645
f
GR
GS
[1 0 0 1 78.36465 235.50279] CT
1 0 0 RC
N
f-1992514645
f
GR
GS
[1 0 0 1 78.36465 239.04665] CT
1 0 0 RC
N
f-1992514645
f
GR
GS
[1 0 0 1 78.36465 235.50279] CT
1 0 0 RC
N
f-1992514645
f
GR
GS
[1 0 0 1 78.36465 236.83571] CT
1 0 0 RC
N
f-1992514645
f
GR
GS
[1 0 0 1 78.36465 249.14792] CT
1 0 0 RC
N
f-1992514645
f
GR
GS
[1 0 0 1 78.36465 235.22662] CT
1 0 0 RC
N
f-1992514645
f
GR
GS
[1 0 0 1 78.36465 236.83571] CT
1 0 0 RC
N
f-1992514645
f
GR
GS
[1 0 0 1 78.36465 210.6754] CT
1 0 0 RC
N
f-1992514645
f
GR
GS
[1 0 0 1 78.36465 235.57707] CT
1 0 0 RC
N
f-1992514645
f
GR
GS
[1 0 0 1 78.36465 210.6754] CT
1 0 0 RC
N
f-1992514645
f
GR
GS
[1 0 0 1 78.36465 232.8698] CT
1 0 0 RC
N
f-1992514645
f
GR
GS
[1 0 0 1 78.36465 248.90028] CT
1 0 0 RC
N
f-1992514645
f
GR
GS
[1 0 0 1 78.36465 232.8698] CT
1 0 0 RC
N
f-1992514645
f
GR
GS
[1 0 0 1 78.36465 97.45152] CT
1 0 0 RC
N
f-1992514645
f
GR
GS
[1 0 0 1 78.36465 127.56588] CT
1 0 0 RC
N
f-1992514645
f
GR
GS
[1 0 0 1 78.36465 102.49355] CT
1 0 0 RC
N
f-1992514645
f
GR
GS
[1 0 0 1 78.36465 173.0739] CT
1 0 0 RC
N
f-1992514645
f
GR
GS
[1 0 0 1 78.36465 171.45029] CT
1 0 0 RC
N
f-1992514645
f
GR
GS
[1 0 0 1 78.36465 166.01688] CT
1 0 0 RC
N
f-1992514645
f
GR
GS
[1 0 0 1 78.36465 172.92476] CT
1 0 0 RC
N
f-1992514645
f
GR
GS
[1 0 0 1 78.36465 141.41989] CT
1 0 0 RC
N
f-1992514645
f
GR
GS
[1 0 0 1 78.90112 263.96017] CT
0 0.702 0 RC
N
f-1992514645
f
GR
GS
[1 0 0 1 78.90112 292.83151] CT
0 0.702 0 RC
N
f-1992514645
f
GR
GS
[1 0 0 1 78.90112 261.69592] CT
0 0.702 0 RC
N
f-1992514645
f
GR
GS
[1 0 0 1 78.90112 255.86255] CT
0 0.702 0 RC
N
f-1992514645
f
GR
GS
[1 0 0 1 78.90112 254.06076] CT
0 0.702 0 RC
N
f-1992514645
f
GR
GS
[1 0 0 1 78.90112 275.17365] CT
0 0.702 0 RC
N
f-1992514645
f
GR
GS
[1 0 0 1 78.90112 279.06686] CT
0 0.702 0 RC
N
f-1992514645
f
GR
GS
[1 0 0 1 78.90112 266.0069] CT
0 0.702 0 RC
N
f-1992514645
f
GR
GS
[1 0 0 1 78.90112 260.04379] CT
0 0.702 0 RC
N
f-1992514645
f
GR
GS
[1 0 0 1 78.90112 277.25107] CT
0 0.702 0 RC
N
f-1992514645
f
GR
GS
[1 0 0 1 78.90112 257.69827] CT
0 0.702 0 RC
N
f-1992514645
f
GR
GS
[1 0 0 1 78.90112 291.88943] CT
0 0.702 0 RC
N
f-1992514645
f
GR
GS
[1 0 0 1 78.90112 252.78113] CT
0 0.702 0 RC
N
f-1992514645
f
GR
GS
[1 0 0 1 78.90112 285.48434] CT
0 0.702 0 RC
N
f-1992514645
f
GR
GS
[1 0 0 1 78.90112 334.24011] CT
0 0.702 0 RC
N
f-1992514645
f
GR
GS
[1 0 0 1 78.90112 336.92047] CT
0 0.702 0 RC
N
f-1992514645
f
GR
GS
[1 0 0 1 78.90112 322.67133] CT
0 0.702 0 RC
N
f-1992514645
f
GR
GS
[1 0 0 1 78.90112 345.52142] CT
0 0.702 0 RC
N
f-1992514645
f
GR
GS
[1 0 0 1 78.90112 344.26926] CT
0 0.702 0 RC
N
f-1992514645
f
GR
GS
[1 0 0 1 78.90112 338.76965] CT
0 0.702 0 RC
N
f-1992514645
f
GR
GS
[1 0 0 1 78.90112 343.5253] CT
0 0.702 0 RC
N
f-1992514645
f
GR
GS
[1 0 0 1 78.90112 343.46338] CT
0 0.702 0 RC
N
f-1992514645
f
GR
GS
[1 0 0 1 78.90112 342.71887] CT
0 0.702 0 RC
N
f-1992514645
f
GR
GS
[1 0 0 1 78.90112 343.05908] CT
0 0.702 0 RC
N
f-1992514645
f
GR
GS
[1 0 0 1 78.90112 342.67743] CT
0 0.702 0 RC
N
f-1992514645
f
GR
GS
[1 0 0 1 78.90112 327.96368] CT
0 0.702 0 RC
N
f-1992514645
f
GR
GS
[1 0 0 1 78.90112 312.06778] CT
0 0.702 0 RC
N
f-1992514645
f
GR
GS
[1 0 0 1 78.90112 326.77289] CT
0 0.702 0 RC
N
f-1992514645
f
GR
GS
[1 0 0 1 78.90112 337.61655] CT
0 0.702 0 RC
N
f-1992514645
f
GR
GS
[1 0 0 1 78.90112 312.03387] CT
0 0.702 0 RC
N
f-1992514645
f
GR
GS
[1 0 0 1 78.90112 306.21826] CT
0 0.702 0 RC
N
f-1992514645
f
GR
GS
[1 0 0 1 78.90112 327.78442] CT
0 0.702 0 RC
N
f-1992514645
f
GR
GS
[1 0 0 1 78.90112 336.30893] CT
0 0.702 0 RC
N
f-1992514645
f
GR
GS
[1 0 0 1 78.90112 322.21643] CT
0 0.702 0 RC
N
f-1992514645
f
GR
GS
[1 0 0 1 78.90112 304.21674] CT
0 0.702 0 RC
N
f-1992514645
f
GR
GS
[1 0 0 1 78.90112 316.55209] CT
0 0.702 0 RC
N
f-1992514645
f
GR
GS
[1 0 0 1 78.90112 331.3342] CT
0 0.702 0 RC
N
f-1992514645
f
GR
GS
[1 0 0 1 78.90112 307.76974] CT
0 0.702 0 RC
N
f-1992514645
f
GR
GS
[1 0 0 1 78.90112 305.45221] CT
0 0.702 0 RC
N
f-1992514645
f
GR
GS
[1 0 0 1 78.90112 313.2952] CT
0 0.702 0 RC
N
f-1992514645
f
GR
GS
[1 0 0 1 78.90112 323.27051] CT
0 0.702 0 RC
N
f-1992514645
f
GR
GS
[1 0 0 1 78.90112 293.87372] CT
0 0.702 0 RC
N
f-1992514645
f
GR
GS
[1 0 0 1 78.90112 303.96909] CT
0 0.702 0 RC
N
f-1992514645
f
GR
GS
[1 0 0 1 78.90112 317.07159] CT
0 0.702 0 RC
N
f-1992514645
f
GR
GS
[1 0 0 1 78.90112 320.92175] CT
0 0.702 0 RC
N
f-1992514645
f
GR
GS
[1 0 0 1 78.90112 305.37845] CT
0 0.702 0 RC
N
f-1992514645
f
GR
GS
[1 0 0 1 78.90112 310.31442] CT
0 0.702 0 RC
N
f-1992514645
f
GR
GS
[1 0 0 1 78.90112 320.11157] CT
0 0.702 0 RC
N
f-1992514645
f
GR
GS
[1 0 0 1 78.90112 326.33847] CT
0 0.702 0 RC
N
f-1992514645
f
GR
GS
[1 0 0 1 78.90112 309.81433] CT
0 0.702 0 RC
N
f-1992514645
f
GR
GS
[1 0 0 1 78.90112 309.35995] CT
0 0.702 0 RC
N
f-1992514645
f
GR
GS
[1 0 0 1 78.90112 320.181] CT
0 0.702 0 RC
N
f-1992514645
f
GR
GS
[1 0 0 1 78.90112 327.34784] CT
0 0.702 0 RC
N
f-1992514645
f
GR
GS
[1 0 0 1 78.90112 315.16913] CT
0 0.702 0 RC
N
f-1992514645
f
GR
GS
[1 0 0 1 78.90112 323.64841] CT
0 0.702 0 RC
N
f-1992514645
f
GR
GS
[1 0 0 1 78.90112 339.83932] CT
0 0.702 0 RC
N
f-1992514645
f
GR
GS
[1 0 0 1 78.90112 329.40695] CT
0 0.702 0 RC
N
f-1992514645
f
GR
GS
[1 0 0 1 78.90112 321.08432] CT
0 0.702 0 RC
N
f-1992514645
f
GR
GS
[1 0 0 1 78.90112 301.0578] CT
0 0.702 0 RC
N
f-1992514645
f
GR
GS
[1 0 0 1 78.90112 273.63779] CT
0 0.702 0 RC
N
f-1992514645
f
GR
GS
[1 0 0 1 78.90112 300.32297] CT
0 0.702 0 RC
N
f-1992514645
f
GR
GS
[1 0 0 1 78.90112 262.72794] CT
0 0.702 0 RC
N
f-1992514645
f
GR
GS
[1 0 0 1 78.90112 260.69464] CT
0 0.702 0 RC
N
f-1992514645
f
GR
GS
[1 0 0 1 78.90112 312.06454] CT
0 0.702 0 RC
N
f-1992514645
f
GR
GS
[1 0 0 1 78.90112 304.60864] CT
0 0.702 0 RC
N
f-1992514645
f
GR
GS
[1 0 0 1 78.90112 334.39246] CT
0 0.702 0 RC
N
f-1992514645
f
GR
GS
[1 0 0 1 78.90112 306.32968] CT
0 0.702 0 RC
N
f-1992514645
f
GR
GS
[1 0 0 1 78.90112 292.68777] CT
0 0.702 0 RC
N
f-1992514645
f
GR
GS
[1 0 0 1 78.90112 325.8125] CT
0 0.702 0 RC
N
f-1992514645
f
GR
GS
[1 0 0 1 78.90112 310.29291] CT
0 0.702 0 RC
N
f-1992514645
f
GR
GS
[1 0 0 1 78.90112 296.10837] CT
0 0.702 0 RC
N
f-1992514645
f
GR
GS
[1 0 0 1 78.90112 318.8287] CT
0 0.702 0 RC
N
f-1992514645
f
GR
GS
[1 0 0 1 78.90112 308.54172] CT
0 0.702 0 RC
N
f-1992514645
f
GR
GS
[1 0 0 1 78.90112 310.59006] CT
0 0.702 0 RC
N
f-1992514645
f
GR
GS
[1 0 0 1 78.90112 327.13144] CT
0 0.702 0 RC
N
f-1992514645
f
GR
GS
[1 0 0 1 78.90112 209.14006] CT
1 0 0 RC
N
f-1992514645
f
GR
GS
[1 0 0 1 78.90112 216.15939] CT
1 0 0 RC
N
f-1992514645
f
GR
GS
[1 0 0 1 78.90112 236.9622] CT
1 0 0 RC
N
f-1992514645
f
GR
GS
[1 0 0 1 78.90112 239.77554] CT
1 0 0 RC
N
f-1992514645
f
GR
GS
[1 0 0 1 78.90112 243.64508] CT
1 0 0 RC
N
f-1992514645
f
GR
GS
[1 0 0 1 78.90112 213.12857] CT
1 0 0 RC
N
f-1992514645
f
GR
GS
[1 0 0 1 78.90112 211.77521] CT
1 0 0 RC
N
f-1992514645
f
GR
GS
[1 0 0 1 78.90112 172.22925] CT
1 0 0 RC
N
f-1992514645
f
GR
GS
[1 0 0 1 78.90112 175.04634] CT
1 0 0 RC
N
f-1992514645
f
GR
GS
[1 0 0 1 78.90112 185.28221] CT
1 0 0 RC
N
f-1992514645
f
GR
GS
[1 0 0 1 78.90112 177.4753] CT
1 0 0 RC
N
f-1992514645
f
GR
GS
[1 0 0 1 78.90112 152.43472] CT
1 0 0 RC
N
f-1992514645
f
GR
GS
[1 0 0 1 78.90112 247.77518] CT
1 0 0 RC
N
f-1992514645
f
GR
GS
[1 0 0 1 78.90112 92.17583] CT
1 0 0 RC
N
f-1992514645
f
GR
GS
[1 0 0 1 78.90112 137.67093] CT
1 0 0 RC
N
f-1992514645
f
GR
GS
[1 0 0 1 78.90112 157.78899] CT
1 0 0 RC
N
f-1992514645
f
GR
GS
[1 0 0 1 78.90112 138.03377] CT
1 0 0 RC
N
f-1992514645
f
GR
GS
[1 0 0 1 78.90112 153.40804] CT
1 0 0 RC
N
f-1992514645
f
GR
GS
[1 0 0 1 78.90112 242.37408] CT
1 0 0 RC
N
f-1992514645
f
GR
GS
[1 0 0 1 78.90112 237.45102] CT
1 0 0 RC
N
f-1992514645
f
GR
GS
[1 0 0 1 78.90112 212.93102] CT
1 0 0 RC
N
f-1992514645
f
GR
GS
[1 0 0 1 81.04697 174.7045] CT
1 0 0 RC
N
f-1992514645
f
GR
GS
[1 0 0 1 81.04697 101.90353] CT
1 0 0 RC
N
f-1992514645
f
GR
GS
[1 0 0 1 81.04697 240.21268] CT
1 0 0 RC
N
f-1992514645
f
GR
GS
[1 0 0 1 81.04697 227.57584] CT
1 0 0 RC
N
f-1992514645
f
GR
GS
[1 0 0 1 81.04697 224.43196] CT
1 0 0 RC
N
f-1992514645
f
GR
GS
[1 0 0 1 81.04697 198.9478] CT
1 0 0 RC
N
f-1992514645
f
GR
GS
[1 0 0 1 81.04697 182.23955] CT
1 0 0 RC
N
f-1992514645
f
GR
GS
[1 0 0 1 81.04697 197.90344] CT
1 0 0 RC
N
f-1992514645
f
GR
GS
[1 0 0 1 81.04697 207.78938] CT
1 0 0 RC
N
f-1992514645
f
GR
GS
[1 0 0 1 81.04697 194.43604] CT
1 0 0 RC
N
f-1992514645
f
GR
GS
[1 0 0 1 81.04697 206.19324] CT
1 0 0 RC
N
f-1992514645
f
GR
GS
[1 0 0 1 81.04697 149.15466] CT
1 0 0 RC
N
f-1992514645
f
GR
GS
[1 0 0 1 81.04697 184.96782] CT
1 0 0 RC
N
f-1992514645
f
GR
GS
[1 0 0 1 81.04697 135.18921] CT
1 0 0 RC
N
f-1992514645
f
GR
GS
[1 0 0 1 81.04697 177.19376] CT
1 0 0 RC
N
f-1992514645
f
GR
GS
[1 0 0 1 81.04697 158.04039] CT
1 0 0 RC
N
f-1992514645
f
GR
GS
[1 0 0 1 81.04697 199.07916] CT
1 0 0 RC
N
f-1992514645
f
GR
GS
[1 0 0 1 81.04697 169.35669] CT
1 0 0 RC
N
f-1992514645
f
GR
GS
[1 0 0 1 81.58344 276.95068] CT
0 0.702 0 RC
N
f-1992514645
f
GR
GS
[1 0 0 1 81.58344 266.64053] CT
0 0.702 0 RC
N
f-1992514645
f
GR
GS
[1 0 0 1 81.58344 274.069] CT
0 0.702 0 RC
N
f-1992514645
f
GR
GS
[1 0 0 1 81.58344 251.47353] CT
0 0.702 0 RC
N
f-1992514645
f
GR
GS
[1 0 0 1 81.58344 279.82538] CT
0 0.702 0 RC
N
f-1992514645
f
GR
GS
[1 0 0 1 81.58344 300.20078] CT
0 0.702 0 RC
N
f-1992514645
f
GR
GS
[1 0 0 1 81.58344 283.37247] CT
0 0.702 0 RC
N
f-1992514645
f
GR
GS
[1 0 0 1 81.58344 277.58591] CT
0 0.702 0 RC
N
f-1992514645
f
GR
GS
[1 0 0 1 81.58344 319.9549] CT
0 0.702 0 RC
N
f-1992514645
f
GR
GS
[1 0 0 1 81.58344 322.57443] CT
0 0.702 0 RC
N
f-1992514645
f
GR
GS
[1 0 0 1 81.58344 300.14102] CT
0 0.702 0 RC
N
f-1992514645
f
GR
GS
[1 0 0 1 81.58344 312.99588] CT
0 0.702 0 RC
N
f-1992514645
f
GR
GS
[1 0 0 1 81.58344 296.35815] CT
0 0.702 0 RC
N
f-1992514645
f
GR
GS
[1 0 0 1 81.58344 283.70676] CT
0 0.702 0 RC
N
f-1992514645
f
GR
GS
[1 0 0 1 81.58344 318.39481] CT
0 0.702 0 RC
N
f-1992514645
f
GR
GS
[1 0 0 1 81.58344 335.27802] CT
0 0.702 0 RC
N
f-1992514645
f
GR
GS
[1 0 0 1 81.58344 337.1272] CT
0 0.702 0 RC
N
f-1992514645
f
GR
GS
[1 0 0 1 81.58344 335.91919] CT
0 0.702 0 RC
N
f-1992514645
f
GR
GS
[1 0 0 1 81.58344 325.52774] CT
0 0.702 0 RC
N
f-1992514645
f
GR
GS
[1 0 0 1 81.58344 331.07526] CT
0 0.702 0 RC
N
f-1992514645
f
GR
GS
[1 0 0 1 81.58344 329.32028] CT
0 0.702 0 RC
N
f-1992514645
f
GR
GS
[1 0 0 1 81.58344 320.72095] CT
0 0.702 0 RC
N
f-1992514645
f
GR
GS
[1 0 0 1 81.58344 309.04666] CT
0 0.702 0 RC
N
f-1992514645
f
GR
GS
[1 0 0 1 81.58344 329.64761] CT
0 0.702 0 RC
N
f-1992514645
f
GR
GS
[1 0 0 1 81.58344 339.84631] CT
0 0.702 0 RC
N
f-1992514645
f
GR
GS
[1 0 0 1 81.58344 323.88852] CT
0 0.702 0 RC
N
f-1992514645
f
GR
GS
[1 0 0 1 81.58344 164.30928] CT
1 0 0 RC
N
f-1992514645
f
GR
GS
[1 0 0 1 81.58344 153.35042] CT
1 0 0 RC
N
f-1992514645
f
GR
GS
[1 0 0 1 81.58344 247.38542] CT
1 0 0 RC
N
f-1992514645
f
GR
GS
[1 0 0 1 81.58344 173.66174] CT
1 0 0 RC
N
f-1992514645
f
GR
GS
[1 0 0 1 81.58344 219.44592] CT
1 0 0 RC
N
f-1992514645
f
GR
GS
[1 0 0 1 81.58344 210.24257] CT
1 0 0 RC
N
f-1992514645
f
GR
GS
[1 0 0 1 81.58344 213.4828] CT
1 0 0 RC
N
f-1992514645
f
GR
GS
[1 0 0 1 81.58344 242.31917] CT
1 0 0 RC
N
f-1992514645
f
GR
GS
[1 0 0 1 81.58344 128.43098] CT
1 0 0 RC
N
f-1992514645
f
GR
GS
[1 0 0 1 81.58344 191.35461] CT
1 0 0 RC
N
f-1992514645
f
GR
GS
[1 0 0 1 81.58344 247.94366] CT
1 0 0 RC
N
f-1992514645
f
GR
GS
[1 0 0 1 81.58344 187.21106] CT
1 0 0 RC
N
f-1992514645
f
GR
GS
[1 0 0 1 81.58344 213.14418] CT
1 0 0 RC
N
f-1992514645
f
GR
GS
[1 0 0 1 82.1199 341.81879] CT
0 0.702 0 RC
N
f-1992514645
f
GR
GS
[1 0 0 1 82.1199 299.09772] CT
0 0.702 0 RC
N
f-1992514645
f
GR
GS
[1 0 0 1 82.1199 306.77921] CT
0 0.702 0 RC
N
f-1992514645
f
GR
GS
[1 0 0 1 82.1199 143.37726] CT
1 0 0 RC
N
f-1992514645
f
GR
GS
[1 0 0 1 82.1199 79.89054] CT
1 0 0 RC
N
f-1992514645
f
GR
GS
[1 0 0 1 82.1199 181.88802] CT
1 0 0 RC
N
f-1992514645
f
GR
GS
[1 0 0 1 82.1199 76.38977] CT
1 0 0 RC
N
f-1992514645
f
GR
GS
[1 0 0 1 82.1199 135.21451] CT
1 0 0 RC
N
f-1992514645
f
GR
GS
[1 0 0 1 82.1199 128.73891] CT
1 0 0 RC
N
f-1992514645
f
GR
GS
[1 0 0 1 82.1199 107.40798] CT
1 0 0 RC
N
f-1992514645
f
GR
GS
[1 0 0 1 82.1199 176.85945] CT
1 0 0 RC
N
f-1992514645
f
GR
GS
[1 0 0 1 82.1199 111.27267] CT
1 0 0 RC
N
f-1992514645
f
GR
GS
[1 0 0 1 82.1199 169.79491] CT
1 0 0 RC
N
f-1992514645
f
GR
GS
[1 0 0 1 82.1199 115.6644] CT
1 0 0 RC
N
f-1992514645
f
GR
GS
[1 0 0 1 83.19283 256.7002] CT
0 0.702 0 RC
N
f-1992514645
f
GR
GS
[1 0 0 1 83.19283 311.90573] CT
0 0.702 0 RC
N
f-1992514645
f
GR
GS
[1 0 0 1 83.19283 251.9704] CT
0 0.702 0 RC
N
f-1992514645
f
GR
GS
[1 0 0 1 83.19283 318.90302] CT
0 0.702 0 RC
N
f-1992514645
f
GR
GS
[1 0 0 1 83.19283 286.86139] CT
0 0.702 0 RC
N
f-1992514645
f
GR
GS
[1 0 0 1 83.19283 305.0253] CT
0 0.702 0 RC
N
f-1992514645
f
GR
GS
[1 0 0 1 83.19283 250.63318] CT
0 0.702 0 RC
N
f-1992514645
f
GR
GS
[1 0 0 1 83.19283 269.74832] CT
0 0.702 0 RC
N
f-1992514645
f
GR
GS
[1 0 0 1 83.19283 335.37762] CT
0 0.702 0 RC
N
f-1992514645
f
GR
GS
[1 0 0 1 83.19283 327.74191] CT
0 0.702 0 RC
N
f-1992514645
f
GR
GS
[1 0 0 1 83.19283 301.60257] CT
0 0.702 0 RC
N
f-1992514645
f
GR
GS
[1 0 0 1 83.19283 316.29587] CT
0 0.702 0 RC
N
f-1992514645
f
GR
GS
[1 0 0 1 83.19283 348.03061] CT
0 0.702 0 RC
N
f-1992514645
f
GR
GS
[1 0 0 1 83.19283 343.89621] CT
0 0.702 0 RC
N
f-1992514645
f
GR
GS
[1 0 0 1 83.19283 319.37674] CT
0 0.702 0 RC
N
f-1992514645
f
GR
GS
[1 0 0 1 83.19283 336.82843] CT
0 0.702 0 RC
N
f-1992514645
f
GR
GS
[1 0 0 1 83.19283 341.85754] CT
0 0.702 0 RC
N
f-1992514645
f
GR
GS
[1 0 0 1 83.19283 335.72806] CT
0 0.702 0 RC
N
f-1992514645
f
GR
GS
[1 0 0 1 83.19283 317.50226] CT
0 0.702 0 RC
N
f-1992514645
f
GR
GS
[1 0 0 1 83.19283 332.67627] CT
0 0.702 0 RC
N
f-1992514645
f
GR
GS
[1 0 0 1 83.19283 346.40753] CT
0 0.702 0 RC
N
f-1992514645
f
GR
GS
[1 0 0 1 83.19283 350.06067] CT
0 0.702 0 RC
N
f-1992514645
f
GR
GS
[1 0 0 1 83.19283 350.42941] CT
0 0.702 0 RC
N
f-1992514645
f
GR
GS
[1 0 0 1 83.19283 349.60147] CT
0 0.702 0 RC
N
f-1992514645
f
GR
GS
[1 0 0 1 83.19283 348.15228] CT
0 0.702 0 RC
N
f-1992514645
f
GR
GS
[1 0 0 1 83.19283 350.34543] CT
0 0.702 0 RC
N
f-1992514645
f
GR
GS
[1 0 0 1 83.19283 342.61658] CT
0 0.702 0 RC
N
f-1992514645
f
GR
GS
[1 0 0 1 83.19283 350.22379] CT
0 0.702 0 RC
N
f-1992514645
f
GR
GS
[1 0 0 1 83.19283 352.02557] CT
0 0.702 0 RC
N
f-1992514645
f
GR
GS
[1 0 0 1 83.19283 144.92227] CT
1 0 0 RC
N
f-1992514645
f
GR
GS
[1 0 0 1 83.19283 106.73292] CT
1 0 0 RC
N
f-1992514645
f
GR
GS
[1 0 0 1 83.19283 176.22583] CT
1 0 0 RC
N
f-1992514645
f
GR
GS
[1 0 0 1 83.19283 148.71323] CT
1 0 0 RC
N
f-1992514645
f
GR
GS
[1 0 0 1 83.19283 158.53351] CT
1 0 0 RC
N
f-1992514645
f
GR
GS
[1 0 0 1 83.19283 147.78514] CT
1 0 0 RC
N
f-1992514645
f
GR
GS
[1 0 0 1 83.19283 147.11223] CT
1 0 0 RC
N
f-1992514645
f
GR
GS
[1 0 0 1 83.19283 147.55043] CT
1 0 0 RC
N
f-1992514645
f
GR
GS
[1 0 0 1 83.19283 140.07028] CT
1 0 0 RC
N
f-1992514645
f
GR
GS
[1 0 0 1 83.19283 241.57141] CT
1 0 0 RC
N
f-1992514645
f
GR
GS
[1 0 0 1 83.19283 226.79094] CT
1 0 0 RC
N
f-1992514645
f
GR
GS
[1 0 0 1 84.26576 251.69263] CT
0 0.702 0 RC
N
f-1992514645
f
GR
GS
[1 0 0 1 84.26576 267.44748] CT
0 0.702 0 RC
N
f-1992514645
f
GR
GS
[1 0 0 1 84.26576 259.97058] CT
0 0.702 0 RC
N
f-1992514645
f
GR
GS
[1 0 0 1 84.26576 287.10526] CT
0 0.702 0 RC
N
f-1992514645
f
GR
GS
[1 0 0 1 84.26576 270.51331] CT
0 0.702 0 RC
N
f-1992514645
f
GR
GS
[1 0 0 1 84.26576 281.68585] CT
0 0.702 0 RC
N
f-1992514645
f
GR
GS
[1 0 0 1 84.26576 297.86816] CT
0 0.702 0 RC
N
f-1992514645
f
GR
GS
[1 0 0 1 84.26576 260.70972] CT
0 0.702 0 RC
N
f-1992514645
f
GR
GS
[1 0 0 1 84.26576 342.90891] CT
0 0.702 0 RC
N
f-1992514645
f
GR
GS
[1 0 0 1 84.26576 349.79849] CT
0 0.702 0 RC
N
f-1992514645
f
GR
GS
[1 0 0 1 84.26576 347.09769] CT
0 0.702 0 RC
N
f-1992514645
f
GR
GS
[1 0 0 1 84.26576 341.1857] CT
0 0.702 0 RC
N
f-1992514645
f
GR
GS
[1 0 0 1 84.26576 341.64758] CT
0 0.702 0 RC
N
f-1992514645
f
GR
GS
[1 0 0 1 84.26576 343.25882] CT
0 0.702 0 RC
N
f-1992514645
f
GR
GS
[1 0 0 1 84.26576 345.98547] CT
0 0.702 0 RC
N
f-1992514645
f
GR
GS
[1 0 0 1 84.26576 343.00903] CT
0 0.702 0 RC
N
f-1992514645
f
GR
GS
[1 0 0 1 84.26576 217.63173] CT
1 0 0 RC
N
f-1992514645
f
GR
GS
[1 0 0 1 84.26576 199.85651] CT
1 0 0 RC
N
f-1992514645
f
GR
GS
[1 0 0 1 84.26576 245.03183] CT
1 0 0 RC
N
f-1992514645
f
GR
GS
[1 0 0 1 84.26576 225.59154] CT
1 0 0 RC
N
f-1992514645
f
GR
GS
[1 0 0 1 84.26576 237.92314] CT
1 0 0 RC
N
f-1992514645
f
GR
GS
[1 0 0 1 84.26576 204.42535] CT
1 0 0 RC
N
f-1992514645
f
GR
GS
[1 0 0 1 84.26576 183.552] CT
1 0 0 RC
N
f-1992514645
f
GR
GS
[1 0 0 1 84.26576 183.09065] CT
1 0 0 RC
N
f-1992514645
f
GR
GS
[1 0 0 1 84.26576 103.82215] CT
1 0 0 RC
N
f-1992514645
f
GR
GS
[1 0 0 1 84.26576 121.32822] CT
1 0 0 RC
N
f-1992514645
f
GR
GS
[1 0 0 1 91.2398 270.1763] CT
0 0.702 0 RC
N
f-1992514645
f
GR
GS
[1 0 0 1 91.2398 250.46899] CT
0 0.702 0 RC
N
f-1992514645
f
GR
GS
[1 0 0 1 91.2398 259.59052] CT
0 0.702 0 RC
N
f-1992514645
f
GR
GS
[1 0 0 1 91.2398 262.25043] CT
0 0.702 0 RC
N
f-1992514645
f
GR
GS
[1 0 0 1 91.2398 297.64316] CT
0 0.702 0 RC
N
f-1992514645
f
GR
GS
[1 0 0 1 91.2398 331.43216] CT
0 0.702 0 RC
N
f-1992514645
f
GR
GS
[1 0 0 1 91.2398 273.69647] CT
0 0.702 0 RC
N
f-1992514645
f
GR
GS
[1 0 0 1 91.2398 300.32458] CT
0 0.702 0 RC
N
f-1992514645
f
GR
GS
[1 0 0 1 91.2398 319.43756] CT
0 0.702 0 RC
N
f-1992514645
f
GR
GS
[1 0 0 1 91.2398 253.72968] CT
0 0.702 0 RC
N
f-1992514645
f
GR
GS
[1 0 0 1 91.2398 306.8508] CT
0 0.702 0 RC
N
f-1992514645
f
GR
GS
[1 0 0 1 91.2398 333.19897] CT
0 0.702 0 RC
N
f-1992514645
f
GR
GS
[1 0 0 1 91.2398 266.47202] CT
0 0.702 0 RC
N
f-1992514645
f
GR
GS
[1 0 0 1 91.2398 289.20154] CT
0 0.702 0 RC
N
f-1992514645
f
GR
GS
[1 0 0 1 91.2398 313.21066] CT
0 0.702 0 RC
N
f-1992514645
f
GR
GS
[1 0 0 1 91.2398 330.72479] CT
0 0.702 0 RC
N
f-1992514645
f
GR
GS
[1 0 0 1 91.2398 317.35583] CT
0 0.702 0 RC
N
f-1992514645
f
GR
GS
[1 0 0 1 91.2398 324.03979] CT
0 0.702 0 RC
N
f-1992514645
f
GR
GS
[1 0 0 1 91.2398 327.63531] CT
0 0.702 0 RC
N
f-1992514645
f
GR
GS
[1 0 0 1 91.2398 285.52148] CT
0 0.702 0 RC
N
f-1992514645
f
GR
GS
[1 0 0 1 91.2398 327.91632] CT
0 0.702 0 RC
N
f-1992514645
f
GR
GS
[1 0 0 1 91.2398 332.08731] CT
0 0.702 0 RC
N
f-1992514645
f
GR
GS
[1 0 0 1 91.2398 335.75339] CT
0 0.702 0 RC
N
f-1992514645
f
GR
GS
[1 0 0 1 91.2398 338.58502] CT
0 0.702 0 RC
N
f-1992514645
f
GR
GS
[1 0 0 1 91.2398 339.19656] CT
0 0.702 0 RC
N
f-1992514645
f
GR
GS
[1 0 0 1 91.2398 330.62143] CT
0 0.702 0 RC
N
f-1992514645
f
GR
GS
[1 0 0 1 91.2398 340.0202] CT
0 0.702 0 RC
N
f-1992514645
f
GR
GS
[1 0 0 1 91.2398 333.71094] CT
0 0.702 0 RC
N
f-1992514645
f
GR
GS
[1 0 0 1 91.2398 335.8013] CT
0 0.702 0 RC
N
f-1992514645
f
GR
GS
[1 0 0 1 91.2398 335.33508] CT
0 0.702 0 RC
N
f-1992514645
f
GR
GS
[1 0 0 1 91.2398 330.11273] CT
0 0.702 0 RC
N
f-1992514645
f
GR
GS
[1 0 0 1 91.2398 329.76819] CT
0 0.702 0 RC
N
f-1992514645
f
GR
GS
[1 0 0 1 91.2398 318.08096] CT
0 0.702 0 RC
N
f-1992514645
f
GR
GS
[1 0 0 1 91.2398 323.72754] CT
0 0.702 0 RC
N
f-1992514645
f
GR
GS
[1 0 0 1 91.2398 318.71188] CT
0 0.702 0 RC
N
f-1992514645
f
GR
GS
[1 0 0 1 91.2398 327.85764] CT
0 0.702 0 RC
N
f-1992514645
f
GR
GS
[1 0 0 1 91.2398 330.19348] CT
0 0.702 0 RC
N
f-1992514645
f
GR
GS
[1 0 0 1 91.2398 329.07104] CT
0 0.702 0 RC
N
f-1992514645
f
GR
GS
[1 0 0 1 91.2398 323.03955] CT
0 0.702 0 RC
N
f-1992514645
f
GR
GS
[1 0 0 1 91.2398 257.48618] CT
0 0.702 0 RC
N
f-1992514645
f
GR
GS
[1 0 0 1 91.2398 328.56125] CT
0 0.702 0 RC
N
f-1992514645
f
GR
GS
[1 0 0 1 91.2398 327.04797] CT
0 0.702 0 RC
N
f-1992514645
f
GR
GS
[1 0 0 1 91.2398 317.27832] CT
0 0.702 0 RC
N
f-1992514645
f
GR
GS
[1 0 0 1 91.2398 281.15182] CT
0 0.702 0 RC
N
f-1992514645
f
GR
GS
[1 0 0 1 91.2398 317.26218] CT
0 0.702 0 RC
N
f-1992514645
f
GR
GS
[1 0 0 1 91.2398 314.28787] CT
0 0.702 0 RC
N
f-1992514645
f
GR
GS
[1 0 0 1 91.2398 299.05951] CT
0 0.702 0 RC
N
f-1992514645
f
GR
GS
[1 0 0 1 91.2398 325.58481] CT
0 0.702 0 RC
N
f-1992514645
f
GR
GS
[1 0 0 1 91.2398 323.02557] CT
0 0.702 0 RC
N
f-1992514645
f
GR
GS
[1 0 0 1 91.2398 311.69525] CT
0 0.702 0 RC
N
f-1992514645
f
GR
GS
[1 0 0 1 91.2398 331.87146] CT
0 0.702 0 RC
N
f-1992514645
f
GR
GS
[1 0 0 1 91.2398 322.70633] CT
0 0.702 0 RC
N
f-1992514645
f
GR
GS
[1 0 0 1 91.2398 218.87529] CT
1 0 0 RC
N
f-1992514645
f
GR
GS
[1 0 0 1 91.2398 228.97443] CT
1 0 0 RC
N
f-1992514645
f
GR
GS
[1 0 0 1 91.2398 206.76601] CT
1 0 0 RC
N
f-1992514645
f
GR
GS
[1 0 0 1 91.2398 215.65282] CT
1 0 0 RC
N
f-1992514645
f
GR
GS
[1 0 0 1 91.2398 232.47467] CT
1 0 0 RC
N
f-1992514645
f
GR
GS
[1 0 0 1 91.2398 209.19983] CT
1 0 0 RC
N
f-1992514645
f
GR
GS
[1 0 0 1 91.2398 200.37599] CT
1 0 0 RC
N
f-1992514645
f
GR
GS
[1 0 0 1 91.2398 239.20653] CT
1 0 0 RC
N
f-1992514645
f
GR
GS
[1 0 0 1 91.2398 207.64781] CT
1 0 0 RC
N
f-1992514645
f
GR
GS
[1 0 0 1 91.2398 226.82216] CT
1 0 0 RC
N
f-1992514645
f
GR
GS
[1 0 0 1 91.2398 249.24643] CT
1 0 0 RC
N
f-1992514645
f
GR
GS
[1 0 0 1 91.2398 225.05966] CT
1 0 0 RC
N
f-1992514645
f
GR
GS
[1 0 0 1 91.2398 233.59656] CT
1 0 0 RC
N
f-1992514645
f
GR
GS
[1 0 0 1 91.2398 165.92535] CT
1 0 0 RC
N
f-1992514645
f
GR
GS
[1 0 0 1 91.2398 200.27695] CT
1 0 0 RC
N
f-1992514645
f
GR
GS
[1 0 0 1 91.77627 288.96521] CT
0 0.702 0 RC
N
f-1992514645
f
GR
GS
[1 0 0 1 91.77627 312.62335] CT
0 0.702 0 RC
N
f-1992514645
f
GR
GS
[1 0 0 1 91.77627 293.77252] CT
0 0.702 0 RC
N
f-1992514645
f
GR
GS
[1 0 0 1 91.77627 320.77963] CT
0 0.702 0 RC
N
f-1992514645
f
GR
GS
[1 0 0 1 91.77627 310.47916] CT
0 0.702 0 RC
N
f-1992514645
f
GR
GS
[1 0 0 1 91.77627 290.31482] CT
0 0.702 0 RC
N
f-1992514645
f
GR
GS
[1 0 0 1 91.77627 298.37689] CT
0 0.702 0 RC
N
f-1992514645
f
GR
GS
[1 0 0 1 91.77627 285.88055] CT
0 0.702 0 RC
N
f-1992514645
f
GR
GS
[1 0 0 1 91.77627 318.52887] CT
0 0.702 0 RC
N
f-1992514645
f
GR
GS
[1 0 0 1 91.77627 306.50894] CT
0 0.702 0 RC
N
f-1992514645
f
GR
GS
[1 0 0 1 91.77627 280.15485] CT
0 0.702 0 RC
N
f-1992514645
f
GR
GS
[1 0 0 1 91.77627 252.12114] CT
0 0.702 0 RC
N
f-1992514645
f
GR
GS
[1 0 0 1 91.77627 258.57468] CT
0 0.702 0 RC
N
f-1992514645
f
GR
GS
[1 0 0 1 91.77627 257.61914] CT
0 0.702 0 RC
N
f-1992514645
f
GR
GS
[1 0 0 1 91.77627 249.29973] CT
1 0 0 RC
N
f-1992514645
f
GR
GS
[1 0 0 1 91.77627 236.60315] CT
1 0 0 RC
N
f-1992514645
f
GR
GS
[1 0 0 1 91.77627 235.7025] CT
1 0 0 RC
N
f-1992514645
f
GR
GS
[1 0 0 1 91.77627 208.33527] CT
1 0 0 RC
N
f-1992514645
f
GR
GS
[1 0 0 1 91.77627 238.57129] CT
1 0 0 RC
N
f-1992514645
f
GR
GS
[1 0 0 1 94.45859 300.67288] CT
0 0.702 0 RC
N
f-1992514645
f
GR
GS
[1 0 0 1 94.45859 304.4816] CT
0 0.702 0 RC
N
f-1992514645
f
GR
GS
[1 0 0 1 94.45859 304.33679] CT
0 0.702 0 RC
N
f-1992514645
f
GR
GS
[1 0 0 1 94.45859 300.75848] CT
0 0.702 0 RC
N
f-1992514645
f
GR
GS
[1 0 0 1 94.45859 304.38684] CT
0 0.702 0 RC
N
f-1992514645
f
GR
GS
[1 0 0 1 94.45859 298.55292] CT
0 0.702 0 RC
N
f-1992514645
f
GR
GS
[1 0 0 1 94.45859 283.92319] CT
0 0.702 0 RC
N
f-1992514645
f
GR
GS
[1 0 0 1 94.45859 291.92282] CT
0 0.702 0 RC
N
f-1992514645
f
GR
GS
[1 0 0 1 94.45859 300.51569] CT
0 0.702 0 RC
N
f-1992514645
f
GR
GS
[1 0 0 1 94.45859 300.48663] CT
0 0.702 0 RC
N
f-1992514645
f
GR
GS
[1 0 0 1 94.45859 305.85919] CT
0 0.702 0 RC
N
f-1992514645
f
GR
GS
[1 0 0 1 94.45859 299.40512] CT
0 0.702 0 RC
N
f-1992514645
f
GR
GS
[1 0 0 1 94.45859 294.55472] CT
0 0.702 0 RC
N
f-1992514645
f
GR
GS
[1 0 0 1 94.45859 301.68817] CT
0 0.702 0 RC
N
f-1992514645
f
GR
GS
[1 0 0 1 94.45859 289.85724] CT
0 0.702 0 RC
N
f-1992514645
f
GR
GS
[1 0 0 1 94.45859 305.72675] CT
0 0.702 0 RC
N
f-1992514645
f
GR
GS
[1 0 0 1 94.45859 306.53748] CT
0 0.702 0 RC
N
f-1992514645
f
GR
GS
[1 0 0 1 94.45859 306.53964] CT
0 0.702 0 RC
N
f-1992514645
f
GR
GS
[1 0 0 1 94.45859 292.24258] CT
0 0.702 0 RC
N
f-1992514645
f
GR
GS
[1 0 0 1 94.45859 306.0686] CT
0 0.702 0 RC
N
f-1992514645
f
GR
GS
[1 0 0 1 94.45859 287.31577] CT
0 0.702 0 RC
N
f-1992514645
f
GR
GS
[1 0 0 1 94.45859 313.25644] CT
0 0.702 0 RC
N
f-1992514645
f
GR
GS
[1 0 0 1 94.45859 316.78305] CT
0 0.702 0 RC
N
f-1992514645
f
GR
GS
[1 0 0 1 94.45859 308.3269] CT
0 0.702 0 RC
N
f-1992514645
f
GR
GS
[1 0 0 1 94.45859 288.6745] CT
0 0.702 0 RC
N
f-1992514645
f
GR
GS
[1 0 0 1 94.45859 289.01743] CT
0 0.702 0 RC
N
f-1992514645
f
GR
GS
[1 0 0 1 94.45859 275.94131] CT
0 0.702 0 RC
N
f-1992514645
f
GR
GS
[1 0 0 1 94.45859 305.38654] CT
0 0.702 0 RC
N
f-1992514645
f
GR
GS
[1 0 0 1 94.45859 305.59918] CT
0 0.702 0 RC
N
f-1992514645
f
GR
GS
[1 0 0 1 94.45859 311.22421] CT
0 0.702 0 RC
N
f-1992514645
f
GR
GS
[1 0 0 1 94.45859 289.37003] CT
0 0.702 0 RC
N
f-1992514645
f
GR
GS
[1 0 0 1 94.45859 265.45459] CT
0 0.702 0 RC
N
f-1992514645
f
GR
GS
[1 0 0 1 94.45859 253.66023] CT
0 0.702 0 RC
N
f-1992514645
f
GR
GS
[1 0 0 1 94.45859 287.9397] CT
0 0.702 0 RC
N
f-1992514645
f
GR
GS
[1 0 0 1 94.45859 279.03619] CT
0 0.702 0 RC
N
f-1992514645
f
GR
GS
[1 0 0 1 94.45859 285.23618] CT
0 0.702 0 RC
N
f-1992514645
f
GR
GS
[1 0 0 1 94.45859 290.746] CT
0 0.702 0 RC
N
f-1992514645
f
GR
GS
[1 0 0 1 94.45859 240.40323] CT
1 0 0 RC
N
f-1992514645
f
GR
GS
[1 0 0 1 94.45859 234.965] CT
1 0 0 RC
N
f-1992514645
f
GR
GS
[1 0 0 1 96.06799 298.47919] CT
0 0.702 0 RC
N
f-1992514645
f
GR
GS
[1 0 0 1 96.06799 308.32098] CT
0 0.702 0 RC
N
f-1992514645
f
GR
GS
[1 0 0 1 96.06799 266.9436] CT
0 0.702 0 RC
N
f-1992514645
f
GR
GS
[1 0 0 1 96.06799 306.78564] CT
0 0.702 0 RC
N
f-1992514645
f
GR
GS
[1 0 0 1 96.06799 318.49493] CT
0 0.702 0 RC
N
f-1992514645
f
GR
GS
[1 0 0 1 96.06799 284.71182] CT
0 0.702 0 RC
N
f-1992514645
f
GR
GS
[1 0 0 1 96.06799 269.9798] CT
0 0.702 0 RC
N
f-1992514645
f
GR
GS
[1 0 0 1 96.06799 290.67117] CT
0 0.702 0 RC
N
f-1992514645
f
GR
GS
[1 0 0 1 96.06799 261.7121] CT
0 0.702 0 RC
N
f-1992514645
f
GR
GS
[1 0 0 1 96.06799 333.97849] CT
0 0.702 0 RC
N
f-1992514645
f
GR
GS
[1 0 0 1 96.06799 332.48245] CT
0 0.702 0 RC
N
f-1992514645
f
GR
GS
[1 0 0 1 96.06799 325.51804] CT
0 0.702 0 RC
N
f-1992514645
f
GR
GS
[1 0 0 1 96.06799 320.0755] CT
0 0.702 0 RC
N
f-1992514645
f
GR
GS
[1 0 0 1 96.06799 337.6413] CT
0 0.702 0 RC
N
f-1992514645
f
GR
GS
[1 0 0 1 96.06799 325.89166] CT
0 0.702 0 RC
N
f-1992514645
f
GR
GS
[1 0 0 1 96.06799 204.9303] CT
1 0 0 RC
N
f-1992514645
f
GR
GS
[1 0 0 1 96.06799 223.7655] CT
1 0 0 RC
N
f-1992514645
f
GR
GS
[1 0 0 1 96.06799 188.91704] CT
1 0 0 RC
N
f-1992514645
f
GR
GS
[1 0 0 1 104.65142 280.60596] CT
0 0.702 0 RC
N
f-1992514645
f
GR
GS
[1 0 0 1 104.65142 290.41495] CT
0 0.702 0 RC
N
f-1992514645
f
GR
GS
[1 0 0 1 104.65142 275.97253] CT
0 0.702 0 RC
N
f-1992514645
f
GR
GS
[1 0 0 1 104.65142 286.66168] CT
0 0.702 0 RC
N
f-1992514645
f
GR
GS
[1 0 0 1 104.65142 279.35651] CT
0 0.702 0 RC
N
f-1992514645
f
GR
GS
[1 0 0 1 104.65142 290.42032] CT
0 0.702 0 RC
N
f-1992514645
f
GR
GS
[1 0 0 1 104.65142 273.85904] CT
0 0.702 0 RC
N
f-1992514645
f
GR
GS
[1 0 0 1 104.65142 285.7869] CT
0 0.702 0 RC
N
f-1992514645
f
GR
GS
[1 0 0 1 104.65142 268.65283] CT
0 0.702 0 RC
N
f-1992514645
f
GR
GS
[1 0 0 1 104.65142 251.80298] CT
0 0.702 0 RC
N
f-1992514645
f
GR
GS
[1 0 0 1 104.65142 258.45193] CT
0 0.702 0 RC
N
f-1992514645
f
GR
GS
[1 0 0 1 104.65142 173.74841] CT
1 0 0 RC
N
f-1992514645
f
GR
GS
[1 0 0 1 104.65142 243.9977] CT
1 0 0 RC
N
f-1992514645
f
GR
GS
[1 0 0 1 104.65142 217.21829] CT
1 0 0 RC
N
f-1992514645
f
GR
GS
[1 0 0 1 104.65142 186.36102] CT
1 0 0 RC
N
f-1992514645
f
GR
GS
[1 0 0 1 104.65142 220.43269] CT
1 0 0 RC
N
f-1992514645
f
GR
GS
[1 0 0 1 104.65142 128.49342] CT
1 0 0 RC
N
f-1992514645
f
GR
GS
[1 0 0 1 104.65142 243.59717] CT
1 0 0 RC
N
f-1992514645
f
GR
GS
[1 0 0 1 104.65142 177.27396] CT
1 0 0 RC
N
f-1992514645
f
GR
GS
[1 0 0 1 104.65142 216.64282] CT
1 0 0 RC
N
f-1992514645
f
GR
GS
[1 0 0 1 104.65142 248.868] CT
1 0 0 RC
N
f-1992514645
f
GR
GS
[1 0 0 1 104.65142 199.66701] CT
1 0 0 RC
N
f-1992514645
f
GR
GS
[1 0 0 1 104.65142 246.30875] CT
1 0 0 RC
N
f-1992514645
f
GR
GS
[1 0 0 1 104.65142 150.12636] CT
1 0 0 RC
N
f-1992514645
f
GR
GS
[1 0 0 1 105.72435 265.24838] CT
0 0.702 0 RC
N
f-1992514645
f
GR
GS
[1 0 0 1 105.72435 285.43051] CT
0 0.702 0 RC
N
f-1992514645
f
GR
GS
[1 0 0 1 105.72435 247.76656] CT
1 0 0 RC
N
f-1992514645
f
GR
GS
[1 0 0 1 105.72435 221.42215] CT
1 0 0 RC
N
f-1992514645
f
GR
GS
[1 0 0 1 105.72435 246.14833] CT
1 0 0 RC
N
f-1992514645
f
GR
GS
[1 0 0 1 105.72435 248.67096] CT
1 0 0 RC
N
f-1992514645
f
GR
GS
[1 0 0 1 105.72435 151.60408] CT
1 0 0 RC
N
f-1992514645
f
GR
GS
[1 0 0 1 105.72435 140.85733] CT
1 0 0 RC
N
f-1992514645
f
GR
GS
[1 0 0 1 105.72435 111.42072] CT
1 0 0 RC
N
f-1992514645
f
GR
GS
[1 0 0 1 106.79728 127.68162] CT
1 0 0 RC
N
f-1992514645
f
GR
GS
[1 0 0 1 106.79728 136.69386] CT
1 0 0 RC
N
f-1992514645
f
GR
GS
[1 0 0 1 106.79728 148.97809] CT
1 0 0 RC
N
f-1992514645
f
GR
GS
[1 0 0 1 106.79728 176.97087] CT
1 0 0 RC
N
f-1992514645
f
GR
GS
[1 0 0 1 106.79728 179.00523] CT
1 0 0 RC
N
f-1992514645
f
GR
GS
[1 0 0 1 106.79728 139.69292] CT
1 0 0 RC
N
f-1992514645
f
GR
GS
[1 0 0 1 106.79728 196.93929] CT
1 0 0 RC
N
f-1992514645
f
GR
GS
[1 0 0 1 106.79728 185.41518] CT
1 0 0 RC
N
f-1992514645
f
GR
GS
[1 0 0 1 106.79728 179.12044] CT
1 0 0 RC
N
f-1992514645
f
GR
GS
[1 0 0 1 106.79728 154.34956] CT
1 0 0 RC
N
f-1992514645
f
GR
GS
[1 0 0 1 106.79728 168.61002] CT
1 0 0 RC
N
f-1992514645
f
GR
GS
[1 0 0 1 106.79728 191.81488] CT
1 0 0 RC
N
f-1992514645
f
GR
GS
[1 0 0 1 106.79728 146.0937] CT
1 0 0 RC
N
f-1992514645
f
GR
GS
[1 0 0 1 106.79728 167.63834] CT
1 0 0 RC
N
f-1992514645
f
GR
GS
[1 0 0 1 106.79728 179.42299] CT
1 0 0 RC
N
f-1992514645
f
GR
GS
[1 0 0 1 107.33375 293.48935] CT
0 0.702 0 RC
N
f-1992514645
f
GR
GS
[1 0 0 1 107.33375 281.18307] CT
0 0.702 0 RC
N
f-1992514645
f
GR
GS
[1 0 0 1 107.33375 291.54059] CT
0 0.702 0 RC
N
f-1992514645
f
GR
GS
[1 0 0 1 107.33375 295.58026] CT
0 0.702 0 RC
N
f-1992514645
f
GR
GS
[1 0 0 1 107.33375 272.01364] CT
0 0.702 0 RC
N
f-1992514645
f
GR
GS
[1 0 0 1 107.33375 265.89978] CT
0 0.702 0 RC
N
f-1992514645
f
GR
GS
[1 0 0 1 107.33375 285.33737] CT
0 0.702 0 RC
N
f-1992514645
f
GR
GS
[1 0 0 1 107.33375 283.46127] CT
0 0.702 0 RC
N
f-1992514645
f
GR
GS
[1 0 0 1 107.33375 289.36465] CT
0 0.702 0 RC
N
f-1992514645
f
GR
GS
[1 0 0 1 107.33375 275.41214] CT
0 0.702 0 RC
N
f-1992514645
f
GR
GS
[1 0 0 1 107.33375 303.53143] CT
0 0.702 0 RC
N
f-1992514645
f
GR
GS
[1 0 0 1 107.33375 295.42252] CT
0 0.702 0 RC
N
f-1992514645
f
GR
GS
[1 0 0 1 107.33375 258.07996] CT
0 0.702 0 RC
N
f-1992514645
f
GR
GS
[1 0 0 1 107.33375 332.86145] CT
0 0.702 0 RC
N
f-1992514645
f
GR
GS
[1 0 0 1 107.33375 333.88644] CT
0 0.702 0 RC
N
f-1992514645
f
GR
GS
[1 0 0 1 107.33375 329.62177] CT
0 0.702 0 RC
N
f-1992514645
f
GR
GS
[1 0 0 1 107.33375 333.08917] CT
0 0.702 0 RC
N
f-1992514645
f
GR
GS
[1 0 0 1 107.33375 277.09821] CT
0 0.702 0 RC
N
f-1992514645
f
GR
GS
[1 0 0 1 107.33375 336.21365] CT
0 0.702 0 RC
N
f-1992514645
f
GR
GS
[1 0 0 1 107.33375 339.52548] CT
0 0.702 0 RC
N
f-1992514645
f
GR
GS
[1 0 0 1 107.33375 245.59007] CT
1 0 0 RC
N
f-1992514645
f
GR
GS
[1 0 0 1 120.74536 278.25076] CT
0 0.702 0 RC
N
f-1992514645
f
GR
GS
[1 0 0 1 120.74536 279.95352] CT
0 0.702 0 RC
N
f-1992514645
f
GR
GS
[1 0 0 1 120.74536 292.07086] CT
0 0.702 0 RC
N
f-1992514645
f
GR
GS
[1 0 0 1 120.74536 296.19019] CT
0 0.702 0 RC
N
f-1992514645
f
GR
GS
[1 0 0 1 120.74536 290.57321] CT
0 0.702 0 RC
N
f-1992514645
f
GR
GS
[1 0 0 1 120.74536 307.20987] CT
0 0.702 0 RC
N
f-1992514645
f
GR
GS
[1 0 0 1 120.74536 283.43115] CT
0 0.702 0 RC
N
f-1992514645
f
GR
GS
[1 0 0 1 120.74536 293.66324] CT
0 0.702 0 RC
N
f-1992514645
f
GR
GS
[1 0 0 1 120.74536 299.76526] CT
0 0.702 0 RC
N
f-1992514645
f
GR
GS
[1 0 0 1 120.74536 321.87244] CT
0 0.702 0 RC
N
f-1992514645
f
GR
GS
[1 0 0 1 120.74536 182.15128] CT
1 0 0 RC
N
f-1992514645
f
GR
GS
[1 0 0 1 120.74536 175.08295] CT
1 0 0 RC
N
f-1992514645
f
GR
GS
[1 0 0 1 120.74536 207.79585] CT
1 0 0 RC
N
f-1992514645
f
GR
GS
[1 0 0 1 120.74536 206.68958] CT
1 0 0 RC
N
f-1992514645
f
GR
GS
[1 0 0 1 131.47466 188.38194] CT
1 0 0 RC
N
f-1992514645
f
GR
GS
[1 0 0 1 131.47466 172.02737] CT
1 0 0 RC
N
f-1992514645
f
GR
GS
[1 0 0 1 131.47466 194.62445] CT
1 0 0 RC
N
f-1992514645
f
GR
GS
[1 0 0 1 131.47466 109.19203] CT
1 0 0 RC
N
f-1992514645
f
GR
GS
[1 0 0 1 131.47466 108.81843] CT
1 0 0 RC
N
f-1992514645
f
GR
GS
[1 0 0 1 131.47466 186.02673] CT
1 0 0 RC
N
f-1992514645
f
GR
GS
[1 0 0 1 131.47466 198.12253] CT
1 0 0 RC
N
f-1992514645
f
GR
GS
[1 0 0 1 131.47466 229.123] CT
1 0 0 RC
N
f-1992514645
f
GR
GS
[1 0 0 1 131.47466 216.9782] CT
1 0 0 RC
N
f-1992514645
f
GR
GS
[1 0 0 1 131.47466 151.89209] CT
1 0 0 RC
N
f-1992514645
f
GR
GS
[1 0 0 1 131.47466 138.60817] CT
1 0 0 RC
N
f-1992514645
f
GR
GS
[1 0 0 1 131.47466 153.02689] CT
1 0 0 RC
N
f-1992514645
f
GR
GS
[1 0 0 1 132.54759 135.26836] CT
1 0 0 RC
N
f-1992514645
f
GR
GS
[1 0 0 1 132.54759 163.84846] CT
1 0 0 RC
N
f-1992514645
f
GR
GS
[1 0 0 1 132.54759 156.15999] CT
1 0 0 RC
N
f-1992514645
f
GR
GS
[1 0 0 1 132.54759 148.1076] CT
1 0 0 RC
N
f-1992514645
f
GR
GS
[1 0 0 1 132.54759 114.4047] CT
1 0 0 RC
N
f-1992514645
f
GR
GS
[1 0 0 1 132.54759 175.89638] CT
1 0 0 RC
N
f-1992514645
f
GR
GS
[1 0 0 1 132.54759 211.02478] CT
1 0 0 RC
N
f-1992514645
f
GR
GS
[1 0 0 1 132.54759 193.73566] CT
1 0 0 RC
N
f-1992514645
f
GR
GS
[1 0 0 1 132.54759 197.70425] CT
1 0 0 RC
N
f-1992514645
f
GR
GS
[1 0 0 1 132.54759 79.1245] CT
1 0 0 RC
N
f-1992514645
f
GR
GS
[1 0 0 1 132.54759 202.03299] CT
1 0 0 RC
N
f-1992514645
f
GR
GS
[1 0 0 1 132.54759 181.55101] CT
1 0 0 RC
N
f-1992514645
f
GR
GS
[1 0 0 1 132.54759 186.59198] CT
1 0 0 RC
N
f-1992514645
f
GR
GS
[1 0 0 1 132.54759 156.46631] CT
1 0 0 RC
N
f-1992514645
f
GR
GS
[1 0 0 1 132.54759 111.20432] CT
1 0 0 RC
N
f-1992514645
f
GR
GS
[1 0 0 1 132.54759 184.64536] CT
1 0 0 RC
N
f-1992514645
f
GR
GS
[1 0 0 1 132.54759 208.71909] CT
1 0 0 RC
N
f-1992514645
f
GR
GS
[1 0 0 1 132.54759 183.58377] CT
1 0 0 RC
N
f-1992514645
f
GR
GS
[1 0 0 1 132.54759 185.61328] CT
1 0 0 RC
N
f-1992514645
f
GR
GS
[1 0 0 1 132.54759 100.10389] CT
1 0 0 RC
N
f-1992514645
f
GR
GS
[1 0 0 1 135.22992 285.21356] CT
0 0.702 0 RC
N
f-1992514645
f
GR
GS
[1 0 0 1 135.22992 283.53128] CT
0 0.702 0 RC
N
f-1992514645
f
GR
GS
[1 0 0 1 135.22992 277.62146] CT
0 0.702 0 RC
N
f-1992514645
f
GR
GS
[1 0 0 1 135.22992 254.11728] CT
0 0.702 0 RC
N
f-1992514645
f
GR
GS
[1 0 0 1 135.22992 267.26877] CT
0 0.702 0 RC
N
f-1992514645
f
GR
GS
[1 0 0 1 135.22992 266.0322] CT
0 0.702 0 RC
N
f-1992514645
f
GR
GS
[1 0 0 1 135.22992 273.46173] CT
0 0.702 0 RC
N
f-1992514645
f
GR
GS
[1 0 0 1 135.22992 295.47098] CT
0 0.702 0 RC
N
f-1992514645
f
GR
GS
[1 0 0 1 135.22992 288.14694] CT
0 0.702 0 RC
N
f-1992514645
f
GR
GS
[1 0 0 1 135.22992 297.80249] CT
0 0.702 0 RC
N
f-1992514645
f
GR
GS
[1 0 0 1 135.22992 304.28458] CT
0 0.702 0 RC
N
f-1992514645
f
GR
GS
[1 0 0 1 135.22992 271.96841] CT
0 0.702 0 RC
N
f-1992514645
f
GR
GS
[1 0 0 1 135.22992 273.23672] CT
0 0.702 0 RC
N
f-1992514645
f
GR
GS
[1 0 0 1 135.22992 302.23782] CT
0 0.702 0 RC
N
f-1992514645
f
GR
GS
[1 0 0 1 135.22992 264.68369] CT
0 0.702 0 RC
N
f-1992514645
f
GR
GS
[1 0 0 1 135.22992 284.34576] CT
0 0.702 0 RC
N
f-1992514645
f
GR
GS
[1 0 0 1 135.22992 299.78894] CT
0 0.702 0 RC
N
f-1992514645
f
GR
GS
[1 0 0 1 135.22992 246.16502] CT
1 0 0 RC
N
f-1992514645
f
GR
GS
[1 0 0 1 135.22992 249.64911] CT
1 0 0 RC
N
f-1992514645
f
GR
GS
[1 0 0 1 135.22992 240.0867] CT
1 0 0 RC
N
f-1992514645
f
GR
GS
[1 0 0 1 135.22992 247.56522] CT
1 0 0 RC
N
f-1992514645
f
GR
GS
[1 0 0 1 152.39679 298.68268] CT
0 0.702 0 RC
N
f-1992514645
f
GR
GS
[1 0 0 1 152.39679 286.15781] CT
0 0.702 0 RC
N
f-1992514645
f
GR
GS
[1 0 0 1 152.39679 264.28531] CT
0 0.702 0 RC
N
f-1992514645
f
GR
GS
[1 0 0 1 152.39679 276.89902] CT
0 0.702 0 RC
N
f-1992514645
f
GR
GS
[1 0 0 1 152.39679 291.8609] CT
0 0.702 0 RC
N
f-1992514645
f
GR
GS
[1 0 0 1 152.39679 279.12503] CT
0 0.702 0 RC
N
f-1992514645
f
GR
GS
[1 0 0 1 152.39679 282.40347] CT
0 0.702 0 RC
N
f-1992514645
f
GR
GS
[1 0 0 1 152.39679 297.82941] CT
0 0.702 0 RC
N
f-1992514645
f
GR
GS
[1 0 0 1 152.39679 297.78094] CT
0 0.702 0 RC
N
f-1992514645
f
GR
GS
[1 0 0 1 152.39679 295.49951] CT
0 0.702 0 RC
N
f-1992514645
f
GR
GS
[1 0 0 1 152.39679 90.15117] CT
1 0 0 RC
N
f-1992514645
f
GR
GS
[1 0 0 1 152.39679 171.7975] CT
1 0 0 RC
N
f-1992514645
f
GR
GS
[1 0 0 1 152.39679 165.22446] CT
1 0 0 RC
N
f-1992514645
f
GR
GS
[1 0 0 1 152.39679 128.1295] CT
1 0 0 RC
N
f-1992514645
f
GR
GS
[1 0 0 1 182.97528 152.17471] CT
1 0 0 RC
N
f-1992514645
f
GR
GS
[1 0 0 1 182.97528 157.44069] CT
1 0 0 RC
N
f-1992514645
f
GR
GS
[1 0 0 1 182.97528 161.82272] CT
1 0 0 RC
N
f-1992514645
f
GR
GS
[1 0 0 1 182.97528 125.6871] CT
1 0 0 RC
N
f-1992514645
f
GR
GS
[1 0 0 1 182.97528 151.87701] CT
1 0 0 RC
N
f-1992514645
f
GR
GS
[1 0 0 1 182.97528 122.12601] CT
1 0 0 RC
N
f-1992514645
f
GR
GS
[1 0 0 1 182.97528 192.15565] CT
1 0 0 RC
N
f-1992514645
f
GR
GS
[1 0 0 1 182.97528 151.68213] CT
1 0 0 RC
N
f-1992514645
f
GR
GS
[1 0 0 1 182.97528 138.77452] CT
1 0 0 RC
N
f-1992514645
f
GR
GS
[1 0 0 1 182.97528 64.18198] CT
1 0 0 RC
N
f-1992514645
f
GR
GS
[1 0 0 1 182.97528 173.91637] CT
1 0 0 RC
N
f-1992514645
f
GR
GS
[1 0 0 1 182.97528 138.45206] CT
1 0 0 RC
N
f-1992514645
f
GR
GS
[1 0 0 1 182.97528 118.51488] CT
1 0 0 RC
N
f-1992514645
f
GR
GS
[1 0 0 1 182.97528 103.05341] CT
1 0 0 RC
N
f-1992514645
f
GR
GS
[1 0 0 1 182.97528 184.38104] CT
1 0 0 RC
N
f-1992514645
f
GR
GS
[1 0 0 1 182.97528 89.66129] CT
1 0 0 RC
N
f-1992514645
f
GR
GS
[1 0 0 1 185.12114 276.8721] CT
0 0.702 0 RC
N
f-1992514645
f
GR
GS
[1 0 0 1 185.12114 271.91241] CT
0 0.702 0 RC
N
f-1992514645
f
GR
GS
[1 0 0 1 185.12114 257.99704] CT
0 0.702 0 RC
N
f-1992514645
f
GR
GS
[1 0 0 1 185.12114 250.76184] CT
0 0.702 0 RC
N
f-1992514645
f
GR
GS
[1 0 0 1 185.12114 272.93256] CT
0 0.702 0 RC
N
f-1992514645
f
GR
GS
[1 0 0 1 185.12114 266.48657] CT
0 0.702 0 RC
N
f-1992514645
f
GR
GS
[1 0 0 1 185.12114 219.17838] CT
1 0 0 RC
N
f-1992514645
f
GR
GS
[1 0 0 1 185.12114 237.84184] CT
1 0 0 RC
N
f-1992514645
f
GR
GS
[1 0 0 1 185.12114 213.50917] CT
1 0 0 RC
N
f-1992514645
f
GR
GS
[1 0 0 1 185.12114 231.31186] CT
1 0 0 RC
N
f-1992514645
f
GR
GS
[1 0 0 1 185.12114 201.19803] CT
1 0 0 RC
N
f-1992514645
f
GR
GS
[1 0 0 1 185.12114 220.88542] CT
1 0 0 RC
N
f-1992514645
f
GR
GS
[1 0 0 1 185.12114 137.84644] CT
1 0 0 RC
N
f-1992514645
f
GR
GS
[1 0 0 1 185.12114 145.5489] CT
1 0 0 RC
N
f-1992514645
f
GR
GS
[1 0 0 1 210.87144 270.0961] CT
0 0.702 0 RC
N
f-1992514645
f
GR
GS
[1 0 0 1 210.87144 236.69843] CT
1 0 0 RC
N
f-1992514645
f
GR
GS
[1 0 0 1 210.87144 199.85597] CT
1 0 0 RC
N
f-1992514645
f
GR
GS
[1 0 0 1 210.87144 198.36264] CT
1 0 0 RC
N
f-1992514645
f
GR
GS
[1 0 0 1 210.87144 235.99321] CT
1 0 0 RC
N
f-1992514645
f
GR
GS
[1 0 0 1 210.87144 214.4055] CT
1 0 0 RC
N
f-1992514645
f
GR
GS
[1 0 0 1 210.87144 170.27834] CT
1 0 0 RC
N
f-1992514645
f
GR
GS
[1 0 0 1 210.87144 236.93152] CT
1 0 0 RC
N
f-1992514645
f
GR
GS
[1 0 0 1 210.87144 231.31563] CT
1 0 0 RC
N
f-1992514645
f
GR
GS
[1 0 0 1 210.87144 202.43727] CT
1 0 0 RC
N
f-1992514645
f
GR
GS
[1 0 0 1 210.87144 170.72459] CT
1 0 0 RC
N
f-1992514645
f
GR
GS
[1 0 0 1 210.87144 189.10222] CT
1 0 0 RC
N
f-1992514645
f
GR
GS
[1 0 0 1 210.87144 219.60957] CT
1 0 0 RC
N
f-1992514645
f
GR
GS
[1 0 0 1 210.87144 208.86606] CT
1 0 0 RC
N
f-1992514645
f
GR
GS
[1 0 0 1 210.87144 119.33961] CT
1 0 0 RC
N
f-1992514645
f
GR
GS
[1 0 0 1 210.87144 165.41179] CT
1 0 0 RC
N
f-1992514645
f
GR
GS
[1 0 0 1 210.87144 123.76848] CT
1 0 0 RC
N
f-1992514645
f
GR
GS
[1 0 0 1 210.87144 245.82533] CT
1 0 0 RC
N
f-1992514645
f
GR
GS
[1 0 0 1 210.87144 143.1797] CT
1 0 0 RC
N
f-1992514645
f
GR
GS
[1 0 0 1 210.87144 212.35123] CT
1 0 0 RC
N
f-1992514645
f
GR
GS
[1 0 0 1 262.37207 250.5562] CT
0 0.702 0 RC
N
f-1992514645
f
GR
GS
[1 0 0 1 262.37207 269.96527] CT
0 0.702 0 RC
N
f-1992514645
f
GR
GS
[1 0 0 1 262.37207 127.30694] CT
1 0 0 RC
N
f-1992514645
f
GR
GS
[1 0 0 1 262.37207 189.92534] CT
1 0 0 RC
N
f-1992514645
f
GR
GS
[1 0 0 1 262.37207 130.65321] CT
1 0 0 RC
N
f-1992514645
f
GR
GS
[1 0 0 1 262.37207 207.66934] CT
1 0 0 RC
N
f-1992514645
f
GR
GS
[1 0 0 1 262.37207 116.75937] CT
1 0 0 RC
N
f-1992514645
f
GR
GS
[1 0 0 1 262.37207 140.89717] CT
1 0 0 RC
N
f-1992514645
f
GR
GS
[1 0 0 1 262.37207 138.65285] CT
1 0 0 RC
N
f-1992514645
f
GR
GS
[1 0 0 1 262.37207 186.55806] CT
1 0 0 RC
N
f-1992514645
f
GR
GS
[1 0 0 1 262.37207 162.4671] CT
1 0 0 RC
N
f-1992514645
f
GR
GS
[1 0 0 1 262.37207 158.9588] CT
1 0 0 RC
N
f-1992514645
f
GR
GS
[1 0 0 1 262.37207 137.39745] CT
1 0 0 RC
N
f-1992514645
f
GR
GS
[1 0 0 1 262.37207 142.4707] CT
1 0 0 RC
N
f-1992514645
f
GR
GS
[1 0 0 1 262.37207 94.04225] CT
1 0 0 RC
N
f-1992514645
f
GR
GS
[1 0 0 1 262.37207 185.70587] CT
1 0 0 RC
N
f-1992514645
f
GR
GS
[1 0 0 1 262.37207 137.83997] CT
1 0 0 RC
N
f-1992514645
f
GR
GS
[1 0 0 1 262.37207 250.19714] CT
1 0 0 RC
N
f-1992514645
f
GR
GS
[1 0 0 1 262.37207 193.00244] CT
1 0 0 RC
N
f-1992514645
f
GR
GS
[1 0 0 1 288.12238 250.52875] CT
0 0.702 0 RC
N
f-1992514645
f
GR
GS
[1 0 0 1 288.12238 260.20154] CT
0 0.702 0 RC
N
f-1992514645
f
GR
GS
[1 0 0 1 288.12238 139.69777] CT
1 0 0 RC
N
f-1992514645
f
GR
GS
[1 0 0 1 288.12238 169.65277] CT
1 0 0 RC
N
f-1992514645
f
GR
GS
[1 0 0 1 288.12238 143.98827] CT
1 0 0 RC
N
f-1992514645
f
GR
GS
[1 0 0 1 288.12238 101.99504] CT
1 0 0 RC
N
f-1992514645
f
GR
GS
[1 0 0 1 288.12238 115.70908] CT
1 0 0 RC
N
f-1992514645
f
GR
GS
[1 0 0 1 288.12238 128.33948] CT
1 0 0 RC
N
f-1992514645
f
GR
GS
[1 0 0 1 288.12238 230.81013] CT
1 0 0 RC
N
f-1992514645
f
GR
GS
[1 0 0 1 288.12238 231.66878] CT
1 0 0 RC
N
f-1992514645
f
GR
GS
[1 0 0 1 288.12238 241.47829] CT
1 0 0 RC
N
f-1992514645
f
GR
GS
[1 0 0 1 288.12238 245.73758] CT
1 0 0 RC
N
f-1992514645
f
GR
GS
[1 0 0 1 288.12238 209.38771] CT
1 0 0 RC
N
f-1992514645
f
GR
GS
[1 0 0 1 288.12238 222.69315] CT
1 0 0 RC
N
f-1992514645
f
GR
GS
[1 0 0 1 339.62299 181.62746] CT
1 0 0 RC
N
f-1992514645
f
GR
GS
[1 0 0 1 339.62299 166.01149] CT
1 0 0 RC
N
f-1992514645
f
GR
GS
[1 0 0 1 339.62299 178.10568] CT
1 0 0 RC
N
f-1992514645
f
GR
GS
[1 0 0 1 339.62299 145.22214] CT
1 0 0 RC
N
f-1992514645
f
GR
GS
[1 0 0 1 339.62299 104.43315] CT
1 0 0 RC
N
f-1992514645
f
GR
GS
[1 0 0 1 339.62299 129.02046] CT
1 0 0 RC
N
f-1992514645
f
GR
GS
[1 0 0 1 339.62299 188.48207] CT
1 0 0 RC
N
f-1992514645
f
GR
GS
[1 0 0 1 339.62299 184.51886] CT
1 0 0 RC
N
f-1992514645
f
GR
GS
[1 0 0 1 339.62299 209.8652] CT
1 0 0 RC
N
f-1992514645
f
GR
GS
[1 0 0 1 339.62299 132.19392] CT
1 0 0 RC
N
f-1992514645
f
GR
GS
[1 0 0 1 339.62299 183.66991] CT
1 0 0 RC
N
f-1992514645
f
GR
GS
[1 0 0 1 339.62299 153.75687] CT
1 0 0 RC
N
f-1992514645
f
GR
GS
[1 0 0 1 377.71198 145.14084] CT
1 0 0 RC
N
f-1992514645
f
GR
GS
[1 0 0 1 377.71198 145.14084] CT
1 0 0 RC
N
f-1992514645
f
GR
GS
[1 0 0 1 377.71198 145.48592] CT
1 0 0 RC
N
f-1992514645
f
GR
GS
[1 0 0 1 377.71198 196.19261] CT
1 0 0 RC
N
f-1992514645
f
GR
GS
[1 0 0 1 377.71198 131.17325] CT
1 0 0 RC
N
f-1992514645
f
GR
GS
[1 0 0 1 377.71198 188.6441] CT
1 0 0 RC
N
f-1992514645
f
GR
GS
[1 0 0 1 377.71198 168.66225] CT
1 0 0 RC
N
f-1992514645
f
GR
GS
[1 0 0 1 377.71198 169.92732] CT
1 0 0 RC
N
f-1992514645
f
GR
GS
[1 0 0 1 377.71198 120.94222] CT
1 0 0 RC
N
f-1992514645
f
GR
GS
[1 0 0 1 377.71198 127.7823] CT
1 0 0 RC
N
f-1992514645
f
GR
GS
[1 0 0 1 377.71198 138.26311] CT
1 0 0 RC
N
f-1992514645
f
GR
GS
[1 0 0 1 377.71198 157.58066] CT
1 0 0 RC
N
f-1992514645
f
GR
GS
[1 0 0 1 377.71198 164.94559] CT
1 0 0 RC
N
f-1992514645
f
GR
GS
[1 0 0 1 377.71198 156.45607] CT
1 0 0 RC
N
f-1992514645
f
GR
GS
[1 0 0 1 377.71198 171.98161] CT
1 0 0 RC
N
f-1992514645
f
GR
GS
[1 0 0 1 377.71198 175.53354] CT
1 0 0 RC
N
f-1992514645
f
GR
GS
[1 0 0 1 377.71198 165.74663] CT
1 0 0 RC
N
f-1992514645
f
GR
GS
[1 0 0 1 403.46231 101.18485] CT
1 0 0 RC
N
f-1992514645
f
GR
GS
[1 0 0 1 403.46231 123.32005] CT
1 0 0 RC
N
f-1992514645
f
GR
GS
[1 0 0 1 403.46231 109.2803] CT
1 0 0 RC
N
f-1992514645
f
GR
GS
[1 0 0 1 403.46231 161.22733] CT
1 0 0 RC
N
f-1992514645
f
GR
GS
[1 0 0 1 467.83807 151.12442] CT
1 0 0 RC
N
f-1992514645
f
GR
GS
[1 0 0 1 467.83807 163.43396] CT
1 0 0 RC
N
f-1992514645
f
GR
GS
[1 0 0 1 467.83807 154.25107] CT
1 0 0 RC
N
f-1992514645
f
GR
GS
[1 0 0 1 467.83807 150.6889] CT
1 0 0 RC
N
f-1992514645
f
GR
GS
[1 0 0 1 467.83807 96.6494] CT
1 0 0 RC
N
f-1992514645
f
GR
GS
[1 0 0 1 467.83807 133.05365] CT
1 0 0 RC
N
f-1992514645
f
GR
GS
[1 0 0 1 467.83807 145.73032] CT
1 0 0 RC
N
f-1992514645
f
GR
GS
[1 0 0 1 467.83807 158.16313] CT
1 0 0 RC
N
f-1992514645
f
GR
GS
[1 0 0 1 467.83807 139.28055] CT
1 0 0 RC
N
f-1992514645
f
GR
GS
[1 0 0 1 506.46353 115.59766] CT
1 0 0 RC
N
f-1992514645
f
GR
GS
[1 0 0 1 506.46353 126.04185] CT
1 0 0 RC
N
f-1992514645
f
GR
GS
[1 0 0 1 506.46353 117.94424] CT
1 0 0 RC
N
f-1992514645
f
GR
GS
[1 0 0 1 506.46353 104.35995] CT
1 0 0 RC
N
f-1992514645
f
GR
GS
[1 0 0 1 506.46353 130.30545] CT
1 0 0 RC
N
f-1992514645
f
GR
GS
[1 0 0 1 506.46353 135.16122] CT
1 0 0 RC
N
f-1992514645
f
GR
GS
[1 0 0 1 506.46353 139.91364] CT
1 0 0 RC
N
f-1992514645
f
GR
GS
[1 0 0 1 506.46353 120.28329] CT
1 0 0 RC
N
f-1992514645
f
GR
GS
[1 0 0 1 506.46353 128.78629] CT
1 0 0 RC
N
f-1992514645
f
GR
GS
[1 0 0 1 506.46353 162.43588] CT
1 0 0 RC
N
f-1992514645
f
GR
GS
[1 0 0 1 506.46353 69.97981] CT
1 0 0 RC
N
f-1992514645
f
GR
GS
[1 0 0 1 506.46353 72.8879] CT
1 0 0 RC
N
f-1992514645
f
GR
GS
0 0 1 RC
1 LJ
0.5 LW
N
73 250.333 M
507 250.333 L
S
GR
GS
[1 0 0 1 340.69592 261.10001] CT
0 0 1 RC
/Helvetica 18 F
GS
[1 0 0 1 0 0] CT
0 7 moveto 
1 -1 scale
(thr = 0.20) t 
GR
GR
%%Trailer
%%Pages: 1
%%EOF
