%!PS-Adobe-3.0 EPSF-3.0
%%Creator: (MATLAB, The Mathworks, Inc. Version 9.1.0.441655 \(R2016b\). Operating System: Mac OS X)
%%Title: ./longTerm_Selected_17_VE_genuine.eps
%%CreationDate: 2016-11-24T17:07:00
%%Pages: (atend)
%%BoundingBox:     0    13   508   421
%%LanguageLevel: 3
%%EndComments
%%BeginProlog
%%BeginResource: procset (Apache XML Graphics Std ProcSet) 1.2 0
%%Version: 1.2 0
%%Copyright: (Copyright 2001-2003,2010 The Apache Software Foundation. License terms: http://www.apache.org/licenses/LICENSE-2.0)
/bd{bind def}bind def
/ld{load def}bd
/GR/grestore ld
/M/moveto ld
/LJ/setlinejoin ld
/C/curveto ld
/f/fill ld
/LW/setlinewidth ld
/GC/setgray ld
/t/show ld
/N/newpath ld
/CT/concat ld
/cp/closepath ld
/S/stroke ld
/L/lineto ld
/CC/setcmykcolor ld
/A/ashow ld
/GS/gsave ld
/RC/setrgbcolor ld
/RM/rmoveto ld
/ML/setmiterlimit ld
/re {4 2 roll M
1 index 0 rlineto
0 exch rlineto
neg 0 rlineto
cp } bd
/_ctm matrix def
/_tm matrix def
/BT { _ctm currentmatrix pop matrix _tm copy pop 0 0 moveto } bd
/ET { _ctm setmatrix } bd
/iTm { _ctm setmatrix _tm concat } bd
/Tm { _tm astore pop iTm 0 0 moveto } bd
/ux 0.0 def
/uy 0.0 def
/F {
  /Tp exch def
  /Tf exch def
  Tf findfont Tp scalefont setfont
  /cf Tf def  /cs Tp def
} bd
/ULS {currentpoint /uy exch def /ux exch def} bd
/ULE {
  /Tcx currentpoint pop def
  gsave
  newpath
  cf findfont cs scalefont dup
  /FontMatrix get 0 get /Ts exch def /FontInfo get dup
  /UnderlinePosition get Ts mul /To exch def
  /UnderlineThickness get Ts mul /Tt exch def
  ux uy To add moveto  Tcx uy To add lineto
  Tt setlinewidth stroke
  grestore
} bd
/OLE {
  /Tcx currentpoint pop def
  gsave
  newpath
  cf findfont cs scalefont dup
  /FontMatrix get 0 get /Ts exch def /FontInfo get dup
  /UnderlinePosition get Ts mul /To exch def
  /UnderlineThickness get Ts mul /Tt exch def
  ux uy To add cs add moveto Tcx uy To add cs add lineto
  Tt setlinewidth stroke
  grestore
} bd
/SOE {
  /Tcx currentpoint pop def
  gsave
  newpath
  cf findfont cs scalefont dup
  /FontMatrix get 0 get /Ts exch def /FontInfo get dup
  /UnderlinePosition get Ts mul /To exch def
  /UnderlineThickness get Ts mul /Tt exch def
  ux uy To add cs 10 mul 26 idiv add moveto Tcx uy To add cs 10 mul 26 idiv add lineto
  Tt setlinewidth stroke
  grestore
} bd
/QT {
/Y22 exch store
/X22 exch store
/Y21 exch store
/X21 exch store
currentpoint
/Y21 load 2 mul add 3 div exch
/X21 load 2 mul add 3 div exch
/X21 load 2 mul /X22 load add 3 div
/Y21 load 2 mul /Y22 load add 3 div
/X22 load /Y22 load curveto
} bd
/SSPD {
dup length /d exch dict def
{
/v exch def
/k exch def
currentpagedevice k known {
/cpdv currentpagedevice k get def
v cpdv ne {
/upd false def
/nullv v type /nulltype eq def
/nullcpdv cpdv type /nulltype eq def
nullv nullcpdv or
{
/upd true def
} {
/sametype v type cpdv type eq def
sametype {
v type /arraytype eq {
/vlen v length def
/cpdvlen cpdv length def
vlen cpdvlen eq {
0 1 vlen 1 sub {
/i exch def
/obj v i get def
/cpdobj cpdv i get def
obj cpdobj ne {
/upd true def
exit
} if
} for
} {
/upd true def
} ifelse
} {
v type /dicttype eq {
v {
/dv exch def
/dk exch def
/cpddv cpdv dk get def
dv cpddv ne {
/upd true def
exit
} if
} forall
} {
/upd true def
} ifelse
} ifelse
} if
} ifelse
upd true eq {
d k v put
} if
} if
} if
} forall
d length 0 gt {
d setpagedevice
} if
} bd
/RE { % /NewFontName [NewEncodingArray] /FontName RE -
  findfont dup length dict begin
  {
    1 index /FID ne
    {def} {pop pop} ifelse
  } forall
  /Encoding exch def
  /FontName 1 index def
  currentdict definefont pop
  end
} bind def
%%EndResource
%%BeginResource: procset (Apache XML Graphics EPS ProcSet) 1.0 0
%%Version: 1.0 0
%%Copyright: (Copyright 2002-2003 The Apache Software Foundation. License terms: http://www.apache.org/licenses/LICENSE-2.0)
/BeginEPSF { %def
/b4_Inc_state save def         % Save state for cleanup
/dict_count countdictstack def % Count objects on dict stack
/op_count count 1 sub def      % Count objects on operand stack
userdict begin                 % Push userdict on dict stack
/showpage { } def              % Redefine showpage, { } = null proc
0 setgray 0 setlinecap         % Prepare graphics state
1 setlinewidth 0 setlinejoin
10 setmiterlimit [ ] 0 setdash newpath
/languagelevel where           % If level not equal to 1 then
{pop languagelevel             % set strokeadjust and
1 ne                           % overprint to their defaults.
{false setstrokeadjust false setoverprint
} if
} if
} bd
/EndEPSF { %def
count op_count sub {pop} repeat            % Clean up stacks
countdictstack dict_count sub {end} repeat
b4_Inc_state restore
} bd
%%EndResource
%FOPBeginFontDict
%%IncludeResource: font Courier-Bold
%%IncludeResource: font Helvetica
%%IncludeResource: font Courier-BoldOblique
%%IncludeResource: font Courier-Oblique
%%IncludeResource: font Times-Roman
%%IncludeResource: font Helvetica-BoldOblique
%%IncludeResource: font Helvetica-Bold
%%IncludeResource: font Helvetica-Oblique
%%IncludeResource: font Times-BoldItalic
%%IncludeResource: font Courier
%%IncludeResource: font Times-Italic
%%IncludeResource: font Times-Bold
%%IncludeResource: font Symbol
%%IncludeResource: font ZapfDingbats
%FOPEndFontDict
%%BeginResource: encoding WinAnsiEncoding
/WinAnsiEncoding [
/.notdef /.notdef /.notdef /.notdef /.notdef
/.notdef /.notdef /.notdef /.notdef /.notdef
/.notdef /.notdef /.notdef /.notdef /.notdef
/.notdef /.notdef /.notdef /.notdef /.notdef
/.notdef /.notdef /.notdef /.notdef /.notdef
/.notdef /.notdef /.notdef /.notdef /.notdef
/.notdef /.notdef /space /exclam /quotedbl
/numbersign /dollar /percent /ampersand /quotesingle
/parenleft /parenright /asterisk /plus /comma
/hyphen /period /slash /zero /one
/two /three /four /five /six
/seven /eight /nine /colon /semicolon
/less /equal /greater /question /at
/A /B /C /D /E
/F /G /H /I /J
/K /L /M /N /O
/P /Q /R /S /T
/U /V /W /X /Y
/Z /bracketleft /backslash /bracketright /asciicircum
/underscore /quoteleft /a /b /c
/d /e /f /g /h
/i /j /k /l /m
/n /o /p /q /r
/s /t /u /v /w
/x /y /z /braceleft /bar
/braceright /asciitilde /bullet /Euro /bullet
/quotesinglbase /florin /quotedblbase /ellipsis /dagger
/daggerdbl /circumflex /perthousand /Scaron /guilsinglleft
/OE /bullet /Zcaron /bullet /bullet
/quoteleft /quoteright /quotedblleft /quotedblright /bullet
/endash /emdash /asciitilde /trademark /scaron
/guilsinglright /oe /bullet /zcaron /Ydieresis
/space /exclamdown /cent /sterling /currency
/yen /brokenbar /section /dieresis /copyright
/ordfeminine /guillemotleft /logicalnot /sfthyphen /registered
/macron /degree /plusminus /twosuperior /threesuperior
/acute /mu /paragraph /middot /cedilla
/onesuperior /ordmasculine /guillemotright /onequarter /onehalf
/threequarters /questiondown /Agrave /Aacute /Acircumflex
/Atilde /Adieresis /Aring /AE /Ccedilla
/Egrave /Eacute /Ecircumflex /Edieresis /Igrave
/Iacute /Icircumflex /Idieresis /Eth /Ntilde
/Ograve /Oacute /Ocircumflex /Otilde /Odieresis
/multiply /Oslash /Ugrave /Uacute /Ucircumflex
/Udieresis /Yacute /Thorn /germandbls /agrave
/aacute /acircumflex /atilde /adieresis /aring
/ae /ccedilla /egrave /eacute /ecircumflex
/edieresis /igrave /iacute /icircumflex /idieresis
/eth /ntilde /ograve /oacute /ocircumflex
/otilde /odieresis /divide /oslash /ugrave
/uacute /ucircumflex /udieresis /yacute /thorn
/ydieresis
] def
%%EndResource
%FOPBeginFontReencode
/Courier-Bold findfont
dup length dict begin
  {1 index /FID ne {def} {pop pop} ifelse} forall
  /Encoding WinAnsiEncoding def
  currentdict
end
/Courier-Bold exch definefont pop
/Helvetica findfont
dup length dict begin
  {1 index /FID ne {def} {pop pop} ifelse} forall
  /Encoding WinAnsiEncoding def
  currentdict
end
/Helvetica exch definefont pop
/Courier-BoldOblique findfont
dup length dict begin
  {1 index /FID ne {def} {pop pop} ifelse} forall
  /Encoding WinAnsiEncoding def
  currentdict
end
/Courier-BoldOblique exch definefont pop
/Courier-Oblique findfont
dup length dict begin
  {1 index /FID ne {def} {pop pop} ifelse} forall
  /Encoding WinAnsiEncoding def
  currentdict
end
/Courier-Oblique exch definefont pop
/Times-Roman findfont
dup length dict begin
  {1 index /FID ne {def} {pop pop} ifelse} forall
  /Encoding WinAnsiEncoding def
  currentdict
end
/Times-Roman exch definefont pop
/Helvetica-BoldOblique findfont
dup length dict begin
  {1 index /FID ne {def} {pop pop} ifelse} forall
  /Encoding WinAnsiEncoding def
  currentdict
end
/Helvetica-BoldOblique exch definefont pop
/Helvetica-Bold findfont
dup length dict begin
  {1 index /FID ne {def} {pop pop} ifelse} forall
  /Encoding WinAnsiEncoding def
  currentdict
end
/Helvetica-Bold exch definefont pop
/Helvetica-Oblique findfont
dup length dict begin
  {1 index /FID ne {def} {pop pop} ifelse} forall
  /Encoding WinAnsiEncoding def
  currentdict
end
/Helvetica-Oblique exch definefont pop
/Times-BoldItalic findfont
dup length dict begin
  {1 index /FID ne {def} {pop pop} ifelse} forall
  /Encoding WinAnsiEncoding def
  currentdict
end
/Times-BoldItalic exch definefont pop
/Courier findfont
dup length dict begin
  {1 index /FID ne {def} {pop pop} ifelse} forall
  /Encoding WinAnsiEncoding def
  currentdict
end
/Courier exch definefont pop
/Times-Italic findfont
dup length dict begin
  {1 index /FID ne {def} {pop pop} ifelse} forall
  /Encoding WinAnsiEncoding def
  currentdict
end
/Times-Italic exch definefont pop
/Times-Bold findfont
dup length dict begin
  {1 index /FID ne {def} {pop pop} ifelse} forall
  /Encoding WinAnsiEncoding def
  currentdict
end
/Times-Bold exch definefont pop
%FOPEndFontReencode
%%EndProlog
%%Page: 1 1
%%PageBoundingBox: 0 0 560 420
%%BeginPageSetup
[1 0 0 -1 0 420] CT
%%EndPageSetup
GS
1 GC
N
0 0 560 420 re
f
GR
GS
1 GC
N
0 0 560 420 re
f
GR
GS
1 GC
N
73 374 M
507 374 L
507 31.5 L
73 31.5 L
cp
f
GR
GS
0.873 GC
1 LJ
0.5 LW
N
84.954 374 M
84.954 31.5 L
S
GR
GS
0.873 GC
1 LJ
0.5 LW
N
122.377 374 M
122.377 31.5 L
S
GR
GS
0.873 GC
1 LJ
0.5 LW
N
153.043 374 M
153.043 31.5 L
S
GR
GS
0.873 GC
1 LJ
0.5 LW
N
184.749 374 M
184.749 31.5 L
S
GR
GS
0.873 GC
1 LJ
0.5 LW
N
209.697 374 M
209.697 31.5 L
S
GR
GS
0.873 GC
1 LJ
0.5 LW
N
259.594 374 M
259.594 31.5 L
S
GR
GS
0.873 GC
1 LJ
0.5 LW
N
284.543 374 M
284.543 31.5 L
S
GR
GS
0.873 GC
1 LJ
0.5 LW
N
334.44 374 M
334.44 31.5 L
S
GR
GS
0.873 GC
1 LJ
0.5 LW
N
371.343 374 M
371.343 31.5 L
S
GR
GS
0.873 GC
1 LJ
0.5 LW
N
396.291 374 M
396.291 31.5 L
S
GR
GS
0.873 GC
1 LJ
0.5 LW
N
458.662 374 M
458.662 31.5 L
S
GR
GS
0.873 GC
1 LJ
0.5 LW
N
496.085 374 M
496.085 31.5 L
S
GR
GS
0.873 GC
1 LJ
0.5 LW
N
507 374 M
73 374 L
S
GR
GS
0.873 GC
1 LJ
0.5 LW
N
507 335.944 M
73 335.944 L
S
GR
GS
0.873 GC
1 LJ
0.5 LW
N
507 297.889 M
73 297.889 L
S
GR
GS
0.873 GC
1 LJ
0.5 LW
N
507 259.833 M
73 259.833 L
S
GR
GS
0.873 GC
1 LJ
0.5 LW
N
507 221.778 M
73 221.778 L
S
GR
GS
0.873 GC
1 LJ
0.5 LW
N
507 183.722 M
73 183.722 L
S
GR
GS
0.873 GC
1 LJ
0.5 LW
N
507 145.667 M
73 145.667 L
S
GR
GS
0.873 GC
1 LJ
0.5 LW
N
507 107.611 M
73 107.611 L
S
GR
GS
0.873 GC
1 LJ
0.5 LW
N
507 69.556 M
73 69.556 L
S
GR
GS
0.873 GC
1 LJ
0.5 LW
N
507 31.5 M
73 31.5 L
S
GR
GS
0.149 GC
2 setlinecap
1 LJ
0.5 LW
N
73 374 M
507 374 L
S
GR
GS
0.149 GC
2 setlinecap
1 LJ
0.5 LW
N
73 31.5 M
507 31.5 L
S
GR
GS
0.149 GC
2 setlinecap
1 LJ
0.5 LW
N
84.954 374 M
84.954 369.66 L
S
GR
GS
0.149 GC
2 setlinecap
1 LJ
0.5 LW
N
122.377 374 M
122.377 369.66 L
S
GR
GS
0.149 GC
2 setlinecap
1 LJ
0.5 LW
N
153.043 374 M
153.043 369.66 L
S
GR
GS
0.149 GC
2 setlinecap
1 LJ
0.5 LW
N
184.749 374 M
184.749 369.66 L
S
GR
GS
0.149 GC
2 setlinecap
1 LJ
0.5 LW
N
209.697 374 M
209.697 369.66 L
S
GR
GS
0.149 GC
2 setlinecap
1 LJ
0.5 LW
N
259.594 374 M
259.594 369.66 L
S
GR
GS
0.149 GC
2 setlinecap
1 LJ
0.5 LW
N
284.543 374 M
284.543 369.66 L
S
GR
GS
0.149 GC
2 setlinecap
1 LJ
0.5 LW
N
334.44 374 M
334.44 369.66 L
S
GR
GS
0.149 GC
2 setlinecap
1 LJ
0.5 LW
N
371.343 374 M
371.343 369.66 L
S
GR
GS
0.149 GC
2 setlinecap
1 LJ
0.5 LW
N
396.291 374 M
396.291 369.66 L
S
GR
GS
0.149 GC
2 setlinecap
1 LJ
0.5 LW
N
458.662 374 M
458.662 369.66 L
S
GR
GS
0.149 GC
2 setlinecap
1 LJ
0.5 LW
N
496.085 374 M
496.085 369.66 L
S
GR
GS
0.149 GC
2 setlinecap
1 LJ
0.5 LW
N
84.954 31.5 M
84.954 35.84 L
S
GR
GS
0.149 GC
2 setlinecap
1 LJ
0.5 LW
N
122.377 31.5 M
122.377 35.84 L
S
GR
GS
0.149 GC
2 setlinecap
1 LJ
0.5 LW
N
153.043 31.5 M
153.043 35.84 L
S
GR
GS
0.149 GC
2 setlinecap
1 LJ
0.5 LW
N
184.749 31.5 M
184.749 35.84 L
S
GR
GS
0.149 GC
2 setlinecap
1 LJ
0.5 LW
N
209.697 31.5 M
209.697 35.84 L
S
GR
GS
0.149 GC
2 setlinecap
1 LJ
0.5 LW
N
259.594 31.5 M
259.594 35.84 L
S
GR
GS
0.149 GC
2 setlinecap
1 LJ
0.5 LW
N
284.543 31.5 M
284.543 35.84 L
S
GR
GS
0.149 GC
2 setlinecap
1 LJ
0.5 LW
N
334.44 31.5 M
334.44 35.84 L
S
GR
GS
0.149 GC
2 setlinecap
1 LJ
0.5 LW
N
371.343 31.5 M
371.343 35.84 L
S
GR
GS
0.149 GC
2 setlinecap
1 LJ
0.5 LW
N
396.291 31.5 M
396.291 35.84 L
S
GR
GS
0.149 GC
2 setlinecap
1 LJ
0.5 LW
N
458.662 31.5 M
458.662 35.84 L
S
GR
GS
0.149 GC
2 setlinecap
1 LJ
0.5 LW
N
496.085 31.5 M
496.085 35.84 L
S
GR
GS
[1 0 0 1 84.95449 378.20001] CT
0.149 GC
/Helvetica 11 F
GS
[1 0 0 1 0 0] CT
-6.5 11 moveto 
1 -1 scale
(18) t 
GR
GR
GS
[1 0 0 1 122.37724 378.20001] CT
0.149 GC
/Helvetica 11 F
GS
[1 0 0 1 0 0] CT
-6.5 11 moveto 
1 -1 scale
(90) t 
GR
GR
GS
[1 0 0 1 153.04312 378.20001] CT
0.149 GC
/Helvetica 11 F
GS
[1 0 0 1 0 0] CT
-9.5 11 moveto 
1 -1 scale
(149) t 
GR
GR
GS
[1 0 0 1 184.7485 378.20001] CT
0.149 GC
/Helvetica 11 F
GS
[1 0 0 1 0 0] CT
-9.5 11 moveto 
1 -1 scale
(210) t 
GR
GR
GS
[1 0 0 1 209.69701 378.20001] CT
0.149 GC
/Helvetica 11 F
GS
[1 0 0 1 0 0] CT
-9.5 11 moveto 
1 -1 scale
(258) t 
GR
GR
GS
[1 0 0 1 259.59402 378.20001] CT
0.149 GC
/Helvetica 11 F
GS
[1 0 0 1 0 0] CT
-9.5 11 moveto 
1 -1 scale
(354) t 
GR
GR
GS
[1 0 0 1 284.54251 378.20001] CT
0.149 GC
/Helvetica 11 F
GS
[1 0 0 1 0 0] CT
-9.5 11 moveto 
1 -1 scale
(402) t 
GR
GR
GS
[1 0 0 1 334.43951 378.20001] CT
0.149 GC
/Helvetica 11 F
GS
[1 0 0 1 0 0] CT
-9.5 11 moveto 
1 -1 scale
(498) t 
GR
GR
GS
[1 0 0 1 371.34253 378.20001] CT
0.149 GC
/Helvetica 11 F
GS
[1 0 0 1 0 0] CT
-9.5 11 moveto 
1 -1 scale
(569) t 
GR
GR
GS
[1 0 0 1 396.29102 378.20001] CT
0.149 GC
/Helvetica 11 F
GS
[1 0 0 1 0 0] CT
-9.5 11 moveto 
1 -1 scale
(617) t 
GR
GR
GS
[1 0 0 1 458.66226 378.20001] CT
0.149 GC
/Helvetica 11 F
GS
[1 0 0 1 0 0] CT
-9.5 11 moveto 
1 -1 scale
(737) t 
GR
GR
GS
[1 0 0 1 496.08502 378.20001] CT
0.149 GC
/Helvetica 11 F
GS
[1 0 0 1 0 0] CT
-9.5 11 moveto 
1 -1 scale
(809) t 
GR
GR
GS
[1 0 0 1 290.00021 392.20001] CT
0.149 GC
/Helvetica 12.1 F
GS
[1 0 0 1 0 0] CT
-106 12 moveto 
1 -1 scale
(Difference between acquisitions \(hours\)) t 
GR
GR
GS
0.149 GC
2 setlinecap
1 LJ
0.5 LW
N
73 374 M
73 31.5 L
S
GR
GS
0.149 GC
2 setlinecap
1 LJ
0.5 LW
N
507 374 M
507 31.5 L
S
GR
GS
0.149 GC
2 setlinecap
1 LJ
0.5 LW
N
73 374 M
77.34 374 L
S
GR
GS
0.149 GC
2 setlinecap
1 LJ
0.5 LW
N
73 335.944 M
77.34 335.944 L
S
GR
GS
0.149 GC
2 setlinecap
1 LJ
0.5 LW
N
73 297.889 M
77.34 297.889 L
S
GR
GS
0.149 GC
2 setlinecap
1 LJ
0.5 LW
N
73 259.833 M
77.34 259.833 L
S
GR
GS
0.149 GC
2 setlinecap
1 LJ
0.5 LW
N
73 221.778 M
77.34 221.778 L
S
GR
GS
0.149 GC
2 setlinecap
1 LJ
0.5 LW
N
73 183.722 M
77.34 183.722 L
S
GR
GS
0.149 GC
2 setlinecap
1 LJ
0.5 LW
N
73 145.667 M
77.34 145.667 L
S
GR
GS
0.149 GC
2 setlinecap
1 LJ
0.5 LW
N
73 107.611 M
77.34 107.611 L
S
GR
GS
0.149 GC
2 setlinecap
1 LJ
0.5 LW
N
73 69.556 M
77.34 69.556 L
S
GR
GS
0.149 GC
2 setlinecap
1 LJ
0.5 LW
N
73 31.5 M
77.34 31.5 L
S
GR
GS
0.149 GC
2 setlinecap
1 LJ
0.5 LW
N
507 374 M
502.66 374 L
S
GR
GS
0.149 GC
2 setlinecap
1 LJ
0.5 LW
N
507 335.944 M
502.66 335.944 L
S
GR
GS
0.149 GC
2 setlinecap
1 LJ
0.5 LW
N
507 297.889 M
502.66 297.889 L
S
GR
GS
0.149 GC
2 setlinecap
1 LJ
0.5 LW
N
507 259.833 M
502.66 259.833 L
S
GR
GS
0.149 GC
2 setlinecap
1 LJ
0.5 LW
N
507 221.778 M
502.66 221.778 L
S
GR
GS
0.149 GC
2 setlinecap
1 LJ
0.5 LW
N
507 183.722 M
502.66 183.722 L
S
GR
GS
0.149 GC
2 setlinecap
1 LJ
0.5 LW
N
507 145.667 M
502.66 145.667 L
S
GR
GS
0.149 GC
2 setlinecap
1 LJ
0.5 LW
N
507 107.611 M
502.66 107.611 L
S
GR
GS
0.149 GC
2 setlinecap
1 LJ
0.5 LW
N
507 69.556 M
502.66 69.556 L
S
GR
GS
0.149 GC
2 setlinecap
1 LJ
0.5 LW
N
507 31.5 M
502.66 31.5 L
S
GR
GS
[1 0 0 1 68.8 374] CT
0.149 GC
/Helvetica 11 F
GS
[1 0 0 1 0 0] CT
-7 4 moveto 
1 -1 scale
(0) t 
GR
GR
GS
[1 0 0 1 68.8 335.94446] CT
0.149 GC
/Helvetica 11 F
GS
[1 0 0 1 0 0] CT
-7 4 moveto 
1 -1 scale
(5) t 
GR
GR
GS
[1 0 0 1 68.8 297.88889] CT
0.149 GC
/Helvetica 11 F
GS
[1 0 0 1 0 0] CT
-13 4 moveto 
1 -1 scale
(10) t 
GR
GR
GS
[1 0 0 1 68.8 259.83334] CT
0.149 GC
/Helvetica 11 F
GS
[1 0 0 1 0 0] CT
-13 4 moveto 
1 -1 scale
(15) t 
GR
GR
GS
[1 0 0 1 68.8 221.77777] CT
0.149 GC
/Helvetica 11 F
GS
[1 0 0 1 0 0] CT
-13 4 moveto 
1 -1 scale
(20) t 
GR
GR
GS
[1 0 0 1 68.8 183.72223] CT
0.149 GC
/Helvetica 11 F
GS
[1 0 0 1 0 0] CT
-13 4 moveto 
1 -1 scale
(25) t 
GR
GR
GS
[1 0 0 1 68.8 145.66667] CT
0.149 GC
/Helvetica 11 F
GS
[1 0 0 1 0 0] CT
-13 4 moveto 
1 -1 scale
(30) t 
GR
GR
GS
[1 0 0 1 68.8 107.61111] CT
0.149 GC
/Helvetica 11 F
GS
[1 0 0 1 0 0] CT
-13 4 moveto 
1 -1 scale
(35) t 
GR
GR
GS
[1 0 0 1 68.8 69.55556] CT
0.149 GC
/Helvetica 11 F
GS
[1 0 0 1 0 0] CT
-13 4 moveto 
1 -1 scale
(40) t 
GR
GR
GS
[1 0 0 1 68.8 31.5] CT
0.149 GC
/Helvetica 11 F
GS
[1 0 0 1 0 0] CT
-13 4 moveto 
1 -1 scale
(45) t 
GR
GR
GS
[0 -1 1 0 53.3 202.74985] CT
0.149 GC
/Helvetica 12.1 F
GS
[1 0 0 1 0 0] CT
-49.5 -3 moveto 
1 -1 scale
(Comparison score) t 
GR
GR
GS
[1 0 0 1 290.00027 29.9875] CT
/Helvetica-Bold 12.1 F
GS
[1 0 0 1 0 0] CT
-69 -3 moveto 
1 -1 scale
(VeriEye | subject ID = 16) t 
GR
GR
GS
[10 6] 0 setdash
2 LJ
0.5 LW
N
84.954 275.056 M
84.954 183.722 L
S
GR
GS
[10 6] 0 setdash
2 LJ
0.5 LW
N
122.377 214.167 M
122.377 145.667 L
S
GR
GS
[10 6] 0 setdash
2 LJ
0.5 LW
N
153.043 315.014 M
153.043 290.278 L
S
GR
GS
[10 6] 0 setdash
2 LJ
0.5 LW
N
184.749 206.556 M
184.749 69.556 L
S
GR
GS
[10 6] 0 setdash
2 LJ
0.5 LW
N
209.697 374 M
209.697 374 L
S
GR
GS
[10 6] 0 setdash
2 LJ
0.5 LW
N
259.594 364.486 M
259.594 358.778 L
S
GR
GS
[10 6] 0 setdash
2 LJ
0.5 LW
N
284.543 366.389 M
284.543 358.778 L
S
GR
GS
[10 6] 0 setdash
2 LJ
0.5 LW
N
334.44 374 M
334.44 374 L
S
GR
GS
[10 6] 0 setdash
2 LJ
0.5 LW
N
371.343 374 M
371.343 374 L
S
GR
GS
[10 6] 0 setdash
2 LJ
0.5 LW
N
396.291 374 M
396.291 374 L
S
GR
GS
[10 6] 0 setdash
2 LJ
0.5 LW
N
458.662 374 M
458.662 374 L
S
GR
GS
[10 6] 0 setdash
2 LJ
0.5 LW
N
496.085 374 M
496.085 374 L
S
GR
GS
[10 6] 0 setdash
2 LJ
0.5 LW
N
84.954 374 M
84.954 368.292 L
S
GR
GS
[10 6] 0 setdash
2 LJ
0.5 LW
N
122.377 374 M
122.377 358.778 L
S
GR
GS
[10 6] 0 setdash
2 LJ
0.5 LW
N
153.043 374 M
153.043 374 L
S
GR
GS
[10 6] 0 setdash
2 LJ
0.5 LW
N
184.749 374 M
184.749 374 L
S
GR
GS
[10 6] 0 setdash
2 LJ
0.5 LW
N
209.697 374 M
209.697 374 L
S
GR
GS
[10 6] 0 setdash
2 LJ
0.5 LW
N
259.594 374 M
259.594 374 L
S
GR
GS
[10 6] 0 setdash
2 LJ
0.5 LW
N
284.543 374 M
284.543 374 L
S
GR
GS
[10 6] 0 setdash
2 LJ
0.5 LW
N
334.44 374 M
334.44 374 L
S
GR
GS
[10 6] 0 setdash
2 LJ
0.5 LW
N
371.343 374 M
371.343 374 L
S
GR
GS
[10 6] 0 setdash
2 LJ
0.5 LW
N
396.291 374 M
396.291 374 L
S
GR
GS
[10 6] 0 setdash
2 LJ
0.5 LW
N
458.662 374 M
458.662 374 L
S
GR
GS
[10 6] 0 setdash
2 LJ
0.5 LW
N
496.085 374 M
496.085 374 L
S
GR
GS
1 LJ
0.5 LW
N
81.836 183.722 M
88.073 183.722 L
S
GR
GS
1 LJ
0.5 LW
N
119.259 145.667 M
125.496 145.667 L
S
GR
GS
1 LJ
0.5 LW
N
149.925 290.278 M
156.162 290.278 L
S
GR
GS
1 LJ
0.5 LW
N
181.63 69.556 M
187.867 69.556 L
S
GR
GS
1 LJ
0.5 LW
N
206.578 374 M
212.816 374 L
S
GR
GS
1 LJ
0.5 LW
N
256.475 358.778 M
262.713 358.778 L
S
GR
GS
1 LJ
0.5 LW
N
281.424 358.778 M
287.661 358.778 L
S
GR
GS
1 LJ
0.5 LW
N
331.321 374 M
337.558 374 L
S
GR
GS
1 LJ
0.5 LW
N
368.224 374 M
374.461 374 L
S
GR
GS
1 LJ
0.5 LW
N
393.172 374 M
399.41 374 L
S
GR
GS
1 LJ
0.5 LW
N
455.544 374 M
461.781 374 L
S
GR
GS
1 LJ
0.5 LW
N
492.966 374 M
499.204 374 L
S
GR
GS
1 LJ
0.5 LW
N
81.836 374 M
88.073 374 L
S
GR
GS
1 LJ
0.5 LW
N
119.259 374 M
125.496 374 L
S
GR
GS
1 LJ
0.5 LW
N
149.925 374 M
156.162 374 L
S
GR
GS
1 LJ
0.5 LW
N
181.63 374 M
187.867 374 L
S
GR
GS
1 LJ
0.5 LW
N
206.578 374 M
212.816 374 L
S
GR
GS
1 LJ
0.5 LW
N
256.475 374 M
262.713 374 L
S
GR
GS
1 LJ
0.5 LW
N
281.424 374 M
287.661 374 L
S
GR
GS
1 LJ
0.5 LW
N
331.321 374 M
337.558 374 L
S
GR
GS
1 LJ
0.5 LW
N
368.224 374 M
374.461 374 L
S
GR
GS
1 LJ
0.5 LW
N
393.172 374 M
399.41 374 L
S
GR
GS
1 LJ
0.5 LW
N
455.544 374 M
461.781 374 L
S
GR
GS
1 LJ
0.5 LW
N
492.966 374 M
499.204 374 L
S
GR
GS
0 0 1 RC
1 LJ
0.5 LW
N
78.717 368.292 M
78.717 275.056 L
91.192 275.056 L
91.192 368.292 L
78.717 368.292 L
S
GR
GS
0 0 1 RC
1 LJ
0.5 LW
N
116.14 358.778 M
116.14 214.167 L
128.614 214.167 L
128.614 358.778 L
116.14 358.778 L
S
GR
GS
0 0 1 RC
1 LJ
0.5 LW
N
146.806 374 M
146.806 315.014 L
159.28 315.014 L
159.28 374 L
146.806 374 L
S
GR
GS
0 0 1 RC
1 LJ
0.5 LW
N
178.511 374 M
178.511 206.556 L
190.986 206.556 L
190.986 374 L
178.511 374 L
S
GR
GS
0 0 1 RC
1 LJ
0.5 LW
N
203.46 374 M
203.46 374 L
215.934 374 L
215.934 374 L
203.46 374 L
S
GR
GS
0 0 1 RC
1 LJ
0.5 LW
N
253.357 374 M
253.357 364.486 L
265.831 364.486 L
265.831 374 L
253.357 374 L
S
GR
GS
0 0 1 RC
1 LJ
0.5 LW
N
278.305 374 M
278.305 366.389 L
290.78 366.389 L
290.78 374 L
278.305 374 L
S
GR
GS
0 0 1 RC
1 LJ
0.5 LW
N
328.202 374 M
328.202 374 L
340.677 374 L
340.677 374 L
328.202 374 L
S
GR
GS
0 0 1 RC
1 LJ
0.5 LW
N
365.105 374 M
365.105 374 L
377.58 374 L
377.58 374 L
365.105 374 L
S
GR
GS
0 0 1 RC
1 LJ
0.5 LW
N
390.054 374 M
390.054 374 L
402.528 374 L
402.528 374 L
390.054 374 L
S
GR
GS
0 0 1 RC
1 LJ
0.5 LW
N
452.425 374 M
452.425 374 L
464.899 374 L
464.899 374 L
452.425 374 L
S
GR
GS
0 0 1 RC
1 LJ
0.5 LW
N
489.848 374 M
489.848 374 L
502.322 374 L
502.322 374 L
489.848 374 L
S
GR
GS
1 0 0 RC
1 LJ
0.5 LW
N
78.717 320.722 M
91.192 320.722 L
S
GR
GS
1 0 0 RC
1 LJ
0.5 LW
N
116.14 316.917 M
128.614 316.917 L
S
GR
GS
1 0 0 RC
1 LJ
0.5 LW
N
146.806 351.167 M
159.28 351.167 L
S
GR
GS
1 0 0 RC
1 LJ
0.5 LW
N
178.511 301.694 M
190.986 301.694 L
S
GR
GS
1 0 0 RC
1 LJ
0.5 LW
N
203.46 374 M
215.934 374 L
S
GR
GS
1 0 0 RC
1 LJ
0.5 LW
N
253.357 374 M
265.831 374 L
S
GR
GS
1 0 0 RC
1 LJ
0.5 LW
N
278.305 374 M
290.78 374 L
S
GR
GS
1 0 0 RC
1 LJ
0.5 LW
N
328.202 374 M
340.677 374 L
S
GR
GS
1 0 0 RC
1 LJ
0.5 LW
N
365.105 374 M
377.58 374 L
S
GR
GS
1 0 0 RC
1 LJ
0.5 LW
N
390.054 374 M
402.528 374 L
S
GR
GS
1 0 0 RC
1 LJ
0.5 LW
N
452.425 374 M
464.899 374 L
S
GR
GS
1 0 0 RC
1 LJ
0.5 LW
N
489.848 374 M
502.322 374 L
S
GR
GS
[1 0 0 1 153.04312 206.55556] CT
1 0 0 RC
10.0 ML
0.5 LW
N
0 -3 M
0 3 L
-3 0 M
3 0 L
S
GR
GS
[1 0 0 1 153.04312 153.27777] CT
1 0 0 RC
10.0 ML
0.5 LW
N
0 -3 M
0 3 L
-3 0 M
3 0 L
S
GR
GS
[1 0 0 1 209.69701 366.38889] CT
1 0 0 RC
10.0 ML
0.5 LW
N
0 -3 M
0 3 L
-3 0 M
3 0 L
S
GR
GS
[1 0 0 1 209.69701 358.77777] CT
1 0 0 RC
10.0 ML
0.5 LW
N
0 -3 M
0 3 L
-3 0 M
3 0 L
S
GR
GS
[1 0 0 1 209.69701 358.77777] CT
1 0 0 RC
10.0 ML
0.5 LW
N
0 -3 M
0 3 L
-3 0 M
3 0 L
S
GR
GS
[1 0 0 1 209.69701 328.33334] CT
1 0 0 RC
10.0 ML
0.5 LW
N
0 -3 M
0 3 L
-3 0 M
3 0 L
S
GR
GS
[1 0 0 1 209.69701 282.66666] CT
1 0 0 RC
10.0 ML
0.5 LW
N
0 -3 M
0 3 L
-3 0 M
3 0 L
S
GR
GS
[1 0 0 1 209.69701 282.66666] CT
1 0 0 RC
10.0 ML
0.5 LW
N
0 -3 M
0 3 L
-3 0 M
3 0 L
S
GR
GS
[1 0 0 1 259.59402 335.94446] CT
1 0 0 RC
10.0 ML
0.5 LW
N
0 -3 M
0 3 L
-3 0 M
3 0 L
S
GR
GS
[1 0 0 1 259.59402 328.33334] CT
1 0 0 RC
10.0 ML
0.5 LW
N
0 -3 M
0 3 L
-3 0 M
3 0 L
S
GR
GS
[1 0 0 1 259.59402 320.72223] CT
1 0 0 RC
10.0 ML
0.5 LW
N
0 -3 M
0 3 L
-3 0 M
3 0 L
S
GR
GS
[1 0 0 1 259.59402 320.72223] CT
1 0 0 RC
10.0 ML
0.5 LW
N
0 -3 M
0 3 L
-3 0 M
3 0 L
S
GR
GS
[1 0 0 1 259.59402 305.5] CT
1 0 0 RC
10.0 ML
0.5 LW
N
0 -3 M
0 3 L
-3 0 M
3 0 L
S
GR
GS
[1 0 0 1 259.59402 221.77777] CT
1 0 0 RC
10.0 ML
0.5 LW
N
0 -3 M
0 3 L
-3 0 M
3 0 L
S
GR
GS
[1 0 0 1 259.59402 206.55556] CT
1 0 0 RC
10.0 ML
0.5 LW
N
0 -3 M
0 3 L
-3 0 M
3 0 L
S
GR
GS
[1 0 0 1 284.54251 343.55554] CT
1 0 0 RC
10.0 ML
0.5 LW
N
0 -3 M
0 3 L
-3 0 M
3 0 L
S
GR
GS
[1 0 0 1 284.54251 320.72223] CT
1 0 0 RC
10.0 ML
0.5 LW
N
0 -3 M
0 3 L
-3 0 M
3 0 L
S
GR
GS
[1 0 0 1 284.54251 320.72223] CT
1 0 0 RC
10.0 ML
0.5 LW
N
0 -3 M
0 3 L
-3 0 M
3 0 L
S
GR
GS
[1 0 0 1 284.54251 313.11111] CT
1 0 0 RC
10.0 ML
0.5 LW
N
0 -3 M
0 3 L
-3 0 M
3 0 L
S
GR
GS
[1 0 0 1 284.54251 282.66666] CT
1 0 0 RC
10.0 ML
0.5 LW
N
0 -3 M
0 3 L
-3 0 M
3 0 L
S
GR
GS
[1 0 0 1 334.43951 351.16666] CT
1 0 0 RC
10.0 ML
0.5 LW
N
0 -3 M
0 3 L
-3 0 M
3 0 L
S
GR
GS
[1 0 0 1 371.34253 366.38889] CT
1 0 0 RC
10.0 ML
0.5 LW
N
0 -3 M
0 3 L
-3 0 M
3 0 L
S
GR
GS
[1 0 0 1 371.34253 366.38889] CT
1 0 0 RC
10.0 ML
0.5 LW
N
0 -3 M
0 3 L
-3 0 M
3 0 L
S
GR
GS
[1 0 0 1 396.29102 366.38889] CT
1 0 0 RC
10.0 ML
0.5 LW
N
0 -3 M
0 3 L
-3 0 M
3 0 L
S
GR
GS
[1 0 0 1 396.29102 358.77777] CT
1 0 0 RC
10.0 ML
0.5 LW
N
0 -3 M
0 3 L
-3 0 M
3 0 L
S
GR
GS
[1 0 0 1 396.29102 358.77777] CT
1 0 0 RC
10.0 ML
0.5 LW
N
0 -3 M
0 3 L
-3 0 M
3 0 L
S
GR
GS
[1 0 0 1 396.29102 343.55554] CT
1 0 0 RC
10.0 ML
0.5 LW
N
0 -3 M
0 3 L
-3 0 M
3 0 L
S
GR
GS
[1 0 0 1 396.29102 343.55554] CT
1 0 0 RC
10.0 ML
0.5 LW
N
0 -3 M
0 3 L
-3 0 M
3 0 L
S
GR
GS
[1 0 0 1 396.29102 320.72223] CT
1 0 0 RC
10.0 ML
0.5 LW
N
0 -3 M
0 3 L
-3 0 M
3 0 L
S
GR
GS
[1 0 0 1 396.29102 282.66666] CT
1 0 0 RC
10.0 ML
0.5 LW
N
0 -3 M
0 3 L
-3 0 M
3 0 L
S
GR
GS
[1 0 0 1 396.29102 282.66666] CT
1 0 0 RC
10.0 ML
0.5 LW
N
0 -3 M
0 3 L
-3 0 M
3 0 L
S
GR
GS
[1 0 0 1 458.66226 358.77777] CT
1 0 0 RC
10.0 ML
0.5 LW
N
0 -3 M
0 3 L
-3 0 M
3 0 L
S
GR
GS
[1 0 0 1 458.66226 351.16666] CT
1 0 0 RC
10.0 ML
0.5 LW
N
0 -3 M
0 3 L
-3 0 M
3 0 L
S
GR
GS
[1 0 0 1 458.66226 351.16666] CT
1 0 0 RC
10.0 ML
0.5 LW
N
0 -3 M
0 3 L
-3 0 M
3 0 L
S
GR
GS
[1 0 0 1 458.66226 343.55554] CT
1 0 0 RC
10.0 ML
0.5 LW
N
0 -3 M
0 3 L
-3 0 M
3 0 L
S
GR
GS
[1 0 0 1 458.66226 328.33334] CT
1 0 0 RC
10.0 ML
0.5 LW
N
0 -3 M
0 3 L
-3 0 M
3 0 L
S
GR
GS
[1 0 0 1 496.08502 366.38889] CT
1 0 0 RC
10.0 ML
0.5 LW
N
0 -3 M
0 3 L
-3 0 M
3 0 L
S
GR
GS
[1 0 0 1 496.08502 366.38889] CT
1 0 0 RC
10.0 ML
0.5 LW
N
0 -3 M
0 3 L
-3 0 M
3 0 L
S
GR
GS
[1 0 0 1 496.08502 366.38889] CT
1 0 0 RC
10.0 ML
0.5 LW
N
0 -3 M
0 3 L
-3 0 M
3 0 L
S
GR
GS
[1 0 0 1 496.08502 366.38889] CT
1 0 0 RC
10.0 ML
0.5 LW
N
0 -3 M
0 3 L
-3 0 M
3 0 L
S
GR
GS
[1 0 0 1 496.08502 358.77777] CT
1 0 0 RC
10.0 ML
0.5 LW
N
0 -3 M
0 3 L
-3 0 M
3 0 L
S
GR
GS
[1 0 0 1 496.08502 328.33334] CT
1 0 0 RC
10.0 ML
0.5 LW
N
0 -3 M
0 3 L
-3 0 M
3 0 L
S
GR
GS
0 0 1 RC
1 LJ
0.5 LW
N
75.599 69.556 M
501.802 69.556 L
S
GR
GS
[1 0 0 1 335.47903 54.33333] CT
0 0 1 RC
/Helvetica 12 F
GS
[1 0 0 1 0 0] CT
0 4.5 moveto 
1 -1 scale
(thr = 40.00) t 
GR
GR
%%Trailer
%%Pages: 1
%%EOF
