%!PS-Adobe-3.0 EPSF-3.0
%%Creator: (MATLAB, The Mathworks, Inc. Version 9.1.0.441655 \(R2016b\). Operating System: Mac OS X)
%%Title: ./longTerm_Selected_17_OS_genuine.eps
%%CreationDate: 2016-11-24T17:05:35
%%Pages: (atend)
%%BoundingBox:    32    13   508   402
%%LanguageLevel: 3
%%EndComments
%%BeginProlog
%%BeginResource: procset (Apache XML Graphics Std ProcSet) 1.2 0
%%Version: 1.2 0
%%Copyright: (Copyright 2001-2003,2010 The Apache Software Foundation. License terms: http://www.apache.org/licenses/LICENSE-2.0)
/bd{bind def}bind def
/ld{load def}bd
/GR/grestore ld
/M/moveto ld
/LJ/setlinejoin ld
/C/curveto ld
/f/fill ld
/LW/setlinewidth ld
/GC/setgray ld
/t/show ld
/N/newpath ld
/CT/concat ld
/cp/closepath ld
/S/stroke ld
/L/lineto ld
/CC/setcmykcolor ld
/A/ashow ld
/GS/gsave ld
/RC/setrgbcolor ld
/RM/rmoveto ld
/ML/setmiterlimit ld
/re {4 2 roll M
1 index 0 rlineto
0 exch rlineto
neg 0 rlineto
cp } bd
/_ctm matrix def
/_tm matrix def
/BT { _ctm currentmatrix pop matrix _tm copy pop 0 0 moveto } bd
/ET { _ctm setmatrix } bd
/iTm { _ctm setmatrix _tm concat } bd
/Tm { _tm astore pop iTm 0 0 moveto } bd
/ux 0.0 def
/uy 0.0 def
/F {
  /Tp exch def
  /Tf exch def
  Tf findfont Tp scalefont setfont
  /cf Tf def  /cs Tp def
} bd
/ULS {currentpoint /uy exch def /ux exch def} bd
/ULE {
  /Tcx currentpoint pop def
  gsave
  newpath
  cf findfont cs scalefont dup
  /FontMatrix get 0 get /Ts exch def /FontInfo get dup
  /UnderlinePosition get Ts mul /To exch def
  /UnderlineThickness get Ts mul /Tt exch def
  ux uy To add moveto  Tcx uy To add lineto
  Tt setlinewidth stroke
  grestore
} bd
/OLE {
  /Tcx currentpoint pop def
  gsave
  newpath
  cf findfont cs scalefont dup
  /FontMatrix get 0 get /Ts exch def /FontInfo get dup
  /UnderlinePosition get Ts mul /To exch def
  /UnderlineThickness get Ts mul /Tt exch def
  ux uy To add cs add moveto Tcx uy To add cs add lineto
  Tt setlinewidth stroke
  grestore
} bd
/SOE {
  /Tcx currentpoint pop def
  gsave
  newpath
  cf findfont cs scalefont dup
  /FontMatrix get 0 get /Ts exch def /FontInfo get dup
  /UnderlinePosition get Ts mul /To exch def
  /UnderlineThickness get Ts mul /Tt exch def
  ux uy To add cs 10 mul 26 idiv add moveto Tcx uy To add cs 10 mul 26 idiv add lineto
  Tt setlinewidth stroke
  grestore
} bd
/QT {
/Y22 exch store
/X22 exch store
/Y21 exch store
/X21 exch store
currentpoint
/Y21 load 2 mul add 3 div exch
/X21 load 2 mul add 3 div exch
/X21 load 2 mul /X22 load add 3 div
/Y21 load 2 mul /Y22 load add 3 div
/X22 load /Y22 load curveto
} bd
/SSPD {
dup length /d exch dict def
{
/v exch def
/k exch def
currentpagedevice k known {
/cpdv currentpagedevice k get def
v cpdv ne {
/upd false def
/nullv v type /nulltype eq def
/nullcpdv cpdv type /nulltype eq def
nullv nullcpdv or
{
/upd true def
} {
/sametype v type cpdv type eq def
sametype {
v type /arraytype eq {
/vlen v length def
/cpdvlen cpdv length def
vlen cpdvlen eq {
0 1 vlen 1 sub {
/i exch def
/obj v i get def
/cpdobj cpdv i get def
obj cpdobj ne {
/upd true def
exit
} if
} for
} {
/upd true def
} ifelse
} {
v type /dicttype eq {
v {
/dv exch def
/dk exch def
/cpddv cpdv dk get def
dv cpddv ne {
/upd true def
exit
} if
} forall
} {
/upd true def
} ifelse
} ifelse
} if
} ifelse
upd true eq {
d k v put
} if
} if
} if
} forall
d length 0 gt {
d setpagedevice
} if
} bd
/RE { % /NewFontName [NewEncodingArray] /FontName RE -
  findfont dup length dict begin
  {
    1 index /FID ne
    {def} {pop pop} ifelse
  } forall
  /Encoding exch def
  /FontName 1 index def
  currentdict definefont pop
  end
} bind def
%%EndResource
%%BeginResource: procset (Apache XML Graphics EPS ProcSet) 1.0 0
%%Version: 1.0 0
%%Copyright: (Copyright 2002-2003 The Apache Software Foundation. License terms: http://www.apache.org/licenses/LICENSE-2.0)
/BeginEPSF { %def
/b4_Inc_state save def         % Save state for cleanup
/dict_count countdictstack def % Count objects on dict stack
/op_count count 1 sub def      % Count objects on operand stack
userdict begin                 % Push userdict on dict stack
/showpage { } def              % Redefine showpage, { } = null proc
0 setgray 0 setlinecap         % Prepare graphics state
1 setlinewidth 0 setlinejoin
10 setmiterlimit [ ] 0 setdash newpath
/languagelevel where           % If level not equal to 1 then
{pop languagelevel             % set strokeadjust and
1 ne                           % overprint to their defaults.
{false setstrokeadjust false setoverprint
} if
} if
} bd
/EndEPSF { %def
count op_count sub {pop} repeat            % Clean up stacks
countdictstack dict_count sub {end} repeat
b4_Inc_state restore
} bd
%%EndResource
%FOPBeginFontDict
%%IncludeResource: font Courier-Bold
%%IncludeResource: font Helvetica
%%IncludeResource: font Courier-BoldOblique
%%IncludeResource: font Courier-Oblique
%%IncludeResource: font Times-Roman
%%IncludeResource: font Helvetica-BoldOblique
%%IncludeResource: font Helvetica-Bold
%%IncludeResource: font Helvetica-Oblique
%%IncludeResource: font Times-BoldItalic
%%IncludeResource: font Courier
%%IncludeResource: font Times-Italic
%%IncludeResource: font Times-Bold
%%IncludeResource: font Symbol
%%IncludeResource: font ZapfDingbats
%FOPEndFontDict
%%BeginResource: encoding WinAnsiEncoding
/WinAnsiEncoding [
/.notdef /.notdef /.notdef /.notdef /.notdef
/.notdef /.notdef /.notdef /.notdef /.notdef
/.notdef /.notdef /.notdef /.notdef /.notdef
/.notdef /.notdef /.notdef /.notdef /.notdef
/.notdef /.notdef /.notdef /.notdef /.notdef
/.notdef /.notdef /.notdef /.notdef /.notdef
/.notdef /.notdef /space /exclam /quotedbl
/numbersign /dollar /percent /ampersand /quotesingle
/parenleft /parenright /asterisk /plus /comma
/hyphen /period /slash /zero /one
/two /three /four /five /six
/seven /eight /nine /colon /semicolon
/less /equal /greater /question /at
/A /B /C /D /E
/F /G /H /I /J
/K /L /M /N /O
/P /Q /R /S /T
/U /V /W /X /Y
/Z /bracketleft /backslash /bracketright /asciicircum
/underscore /quoteleft /a /b /c
/d /e /f /g /h
/i /j /k /l /m
/n /o /p /q /r
/s /t /u /v /w
/x /y /z /braceleft /bar
/braceright /asciitilde /bullet /Euro /bullet
/quotesinglbase /florin /quotedblbase /ellipsis /dagger
/daggerdbl /circumflex /perthousand /Scaron /guilsinglleft
/OE /bullet /Zcaron /bullet /bullet
/quoteleft /quoteright /quotedblleft /quotedblright /bullet
/endash /emdash /asciitilde /trademark /scaron
/guilsinglright /oe /bullet /zcaron /Ydieresis
/space /exclamdown /cent /sterling /currency
/yen /brokenbar /section /dieresis /copyright
/ordfeminine /guillemotleft /logicalnot /sfthyphen /registered
/macron /degree /plusminus /twosuperior /threesuperior
/acute /mu /paragraph /middot /cedilla
/onesuperior /ordmasculine /guillemotright /onequarter /onehalf
/threequarters /questiondown /Agrave /Aacute /Acircumflex
/Atilde /Adieresis /Aring /AE /Ccedilla
/Egrave /Eacute /Ecircumflex /Edieresis /Igrave
/Iacute /Icircumflex /Idieresis /Eth /Ntilde
/Ograve /Oacute /Ocircumflex /Otilde /Odieresis
/multiply /Oslash /Ugrave /Uacute /Ucircumflex
/Udieresis /Yacute /Thorn /germandbls /agrave
/aacute /acircumflex /atilde /adieresis /aring
/ae /ccedilla /egrave /eacute /ecircumflex
/edieresis /igrave /iacute /icircumflex /idieresis
/eth /ntilde /ograve /oacute /ocircumflex
/otilde /odieresis /divide /oslash /ugrave
/uacute /ucircumflex /udieresis /yacute /thorn
/ydieresis
] def
%%EndResource
%FOPBeginFontReencode
/Courier-Bold findfont
dup length dict begin
  {1 index /FID ne {def} {pop pop} ifelse} forall
  /Encoding WinAnsiEncoding def
  currentdict
end
/Courier-Bold exch definefont pop
/Helvetica findfont
dup length dict begin
  {1 index /FID ne {def} {pop pop} ifelse} forall
  /Encoding WinAnsiEncoding def
  currentdict
end
/Helvetica exch definefont pop
/Courier-BoldOblique findfont
dup length dict begin
  {1 index /FID ne {def} {pop pop} ifelse} forall
  /Encoding WinAnsiEncoding def
  currentdict
end
/Courier-BoldOblique exch definefont pop
/Courier-Oblique findfont
dup length dict begin
  {1 index /FID ne {def} {pop pop} ifelse} forall
  /Encoding WinAnsiEncoding def
  currentdict
end
/Courier-Oblique exch definefont pop
/Times-Roman findfont
dup length dict begin
  {1 index /FID ne {def} {pop pop} ifelse} forall
  /Encoding WinAnsiEncoding def
  currentdict
end
/Times-Roman exch definefont pop
/Helvetica-BoldOblique findfont
dup length dict begin
  {1 index /FID ne {def} {pop pop} ifelse} forall
  /Encoding WinAnsiEncoding def
  currentdict
end
/Helvetica-BoldOblique exch definefont pop
/Helvetica-Bold findfont
dup length dict begin
  {1 index /FID ne {def} {pop pop} ifelse} forall
  /Encoding WinAnsiEncoding def
  currentdict
end
/Helvetica-Bold exch definefont pop
/Helvetica-Oblique findfont
dup length dict begin
  {1 index /FID ne {def} {pop pop} ifelse} forall
  /Encoding WinAnsiEncoding def
  currentdict
end
/Helvetica-Oblique exch definefont pop
/Times-BoldItalic findfont
dup length dict begin
  {1 index /FID ne {def} {pop pop} ifelse} forall
  /Encoding WinAnsiEncoding def
  currentdict
end
/Times-BoldItalic exch definefont pop
/Courier findfont
dup length dict begin
  {1 index /FID ne {def} {pop pop} ifelse} forall
  /Encoding WinAnsiEncoding def
  currentdict
end
/Courier exch definefont pop
/Times-Italic findfont
dup length dict begin
  {1 index /FID ne {def} {pop pop} ifelse} forall
  /Encoding WinAnsiEncoding def
  currentdict
end
/Times-Italic exch definefont pop
/Times-Bold findfont
dup length dict begin
  {1 index /FID ne {def} {pop pop} ifelse} forall
  /Encoding WinAnsiEncoding def
  currentdict
end
/Times-Bold exch definefont pop
%FOPEndFontReencode
%%EndProlog
%%Page: 1 1
%%PageBoundingBox: 0 0 560 420
%%BeginPageSetup
[1 0 0 -1 0 420] CT
%%EndPageSetup
GS
1 GC
N
0 0 560 420 re
f
GR
GS
1 GC
N
0 0 560 420 re
f
GR
GS
1 GC
N
73 374 M
507 374 L
507 31.5 L
73 31.5 L
cp
f
GR
GS
0.873 GC
1 LJ
0.5 LW
N
84.954 374 M
84.954 31.5 L
S
GR
GS
0.873 GC
1 LJ
0.5 LW
N
122.377 374 M
122.377 31.5 L
S
GR
GS
0.873 GC
1 LJ
0.5 LW
N
153.043 374 M
153.043 31.5 L
S
GR
GS
0.873 GC
1 LJ
0.5 LW
N
184.749 374 M
184.749 31.5 L
S
GR
GS
0.873 GC
1 LJ
0.5 LW
N
209.697 374 M
209.697 31.5 L
S
GR
GS
0.873 GC
1 LJ
0.5 LW
N
259.594 374 M
259.594 31.5 L
S
GR
GS
0.873 GC
1 LJ
0.5 LW
N
284.543 374 M
284.543 31.5 L
S
GR
GS
0.873 GC
1 LJ
0.5 LW
N
334.44 374 M
334.44 31.5 L
S
GR
GS
0.873 GC
1 LJ
0.5 LW
N
371.343 374 M
371.343 31.5 L
S
GR
GS
0.873 GC
1 LJ
0.5 LW
N
396.291 374 M
396.291 31.5 L
S
GR
GS
0.873 GC
1 LJ
0.5 LW
N
458.662 374 M
458.662 31.5 L
S
GR
GS
0.873 GC
1 LJ
0.5 LW
N
496.085 374 M
496.085 31.5 L
S
GR
GS
0.873 GC
1 LJ
0.5 LW
N
507 374 M
73 374 L
S
GR
GS
0.873 GC
1 LJ
0.5 LW
N
507 331.188 M
73 331.188 L
S
GR
GS
0.873 GC
1 LJ
0.5 LW
N
507 288.375 M
73 288.375 L
S
GR
GS
0.873 GC
1 LJ
0.5 LW
N
507 245.563 M
73 245.563 L
S
GR
GS
0.873 GC
1 LJ
0.5 LW
N
507 202.75 M
73 202.75 L
S
GR
GS
0.873 GC
1 LJ
0.5 LW
N
507 159.938 M
73 159.938 L
S
GR
GS
0.873 GC
1 LJ
0.5 LW
N
507 117.125 M
73 117.125 L
S
GR
GS
0.873 GC
1 LJ
0.5 LW
N
507 74.312 M
73 74.312 L
S
GR
GS
0.873 GC
1 LJ
0.5 LW
N
507 31.5 M
73 31.5 L
S
GR
GS
0.149 GC
2 setlinecap
1 LJ
0.5 LW
N
73 374 M
507 374 L
S
GR
GS
0.149 GC
2 setlinecap
1 LJ
0.5 LW
N
73 31.5 M
507 31.5 L
S
GR
GS
0.149 GC
2 setlinecap
1 LJ
0.5 LW
N
84.954 374 M
84.954 369.66 L
S
GR
GS
0.149 GC
2 setlinecap
1 LJ
0.5 LW
N
122.377 374 M
122.377 369.66 L
S
GR
GS
0.149 GC
2 setlinecap
1 LJ
0.5 LW
N
153.043 374 M
153.043 369.66 L
S
GR
GS
0.149 GC
2 setlinecap
1 LJ
0.5 LW
N
184.749 374 M
184.749 369.66 L
S
GR
GS
0.149 GC
2 setlinecap
1 LJ
0.5 LW
N
209.697 374 M
209.697 369.66 L
S
GR
GS
0.149 GC
2 setlinecap
1 LJ
0.5 LW
N
259.594 374 M
259.594 369.66 L
S
GR
GS
0.149 GC
2 setlinecap
1 LJ
0.5 LW
N
284.543 374 M
284.543 369.66 L
S
GR
GS
0.149 GC
2 setlinecap
1 LJ
0.5 LW
N
334.44 374 M
334.44 369.66 L
S
GR
GS
0.149 GC
2 setlinecap
1 LJ
0.5 LW
N
371.343 374 M
371.343 369.66 L
S
GR
GS
0.149 GC
2 setlinecap
1 LJ
0.5 LW
N
396.291 374 M
396.291 369.66 L
S
GR
GS
0.149 GC
2 setlinecap
1 LJ
0.5 LW
N
458.662 374 M
458.662 369.66 L
S
GR
GS
0.149 GC
2 setlinecap
1 LJ
0.5 LW
N
496.085 374 M
496.085 369.66 L
S
GR
GS
0.149 GC
2 setlinecap
1 LJ
0.5 LW
N
84.954 31.5 M
84.954 35.84 L
S
GR
GS
0.149 GC
2 setlinecap
1 LJ
0.5 LW
N
122.377 31.5 M
122.377 35.84 L
S
GR
GS
0.149 GC
2 setlinecap
1 LJ
0.5 LW
N
153.043 31.5 M
153.043 35.84 L
S
GR
GS
0.149 GC
2 setlinecap
1 LJ
0.5 LW
N
184.749 31.5 M
184.749 35.84 L
S
GR
GS
0.149 GC
2 setlinecap
1 LJ
0.5 LW
N
209.697 31.5 M
209.697 35.84 L
S
GR
GS
0.149 GC
2 setlinecap
1 LJ
0.5 LW
N
259.594 31.5 M
259.594 35.84 L
S
GR
GS
0.149 GC
2 setlinecap
1 LJ
0.5 LW
N
284.543 31.5 M
284.543 35.84 L
S
GR
GS
0.149 GC
2 setlinecap
1 LJ
0.5 LW
N
334.44 31.5 M
334.44 35.84 L
S
GR
GS
0.149 GC
2 setlinecap
1 LJ
0.5 LW
N
371.343 31.5 M
371.343 35.84 L
S
GR
GS
0.149 GC
2 setlinecap
1 LJ
0.5 LW
N
396.291 31.5 M
396.291 35.84 L
S
GR
GS
0.149 GC
2 setlinecap
1 LJ
0.5 LW
N
458.662 31.5 M
458.662 35.84 L
S
GR
GS
0.149 GC
2 setlinecap
1 LJ
0.5 LW
N
496.085 31.5 M
496.085 35.84 L
S
GR
GS
[1 0 0 1 84.95449 378.19998] CT
0.149 GC
/Helvetica 11 F
GS
[1 0 0 1 0 0] CT
-6.5 11 moveto 
1 -1 scale
(18) t 
GR
GR
GS
[1 0 0 1 122.37724 378.19998] CT
0.149 GC
/Helvetica 11 F
GS
[1 0 0 1 0 0] CT
-6.5 11 moveto 
1 -1 scale
(90) t 
GR
GR
GS
[1 0 0 1 153.04312 378.19998] CT
0.149 GC
/Helvetica 11 F
GS
[1 0 0 1 0 0] CT
-9.5 11 moveto 
1 -1 scale
(149) t 
GR
GR
GS
[1 0 0 1 184.7485 378.19998] CT
0.149 GC
/Helvetica 11 F
GS
[1 0 0 1 0 0] CT
-9.5 11 moveto 
1 -1 scale
(210) t 
GR
GR
GS
[1 0 0 1 209.69701 378.19998] CT
0.149 GC
/Helvetica 11 F
GS
[1 0 0 1 0 0] CT
-9.5 11 moveto 
1 -1 scale
(258) t 
GR
GR
GS
[1 0 0 1 259.59402 378.19998] CT
0.149 GC
/Helvetica 11 F
GS
[1 0 0 1 0 0] CT
-9.5 11 moveto 
1 -1 scale
(354) t 
GR
GR
GS
[1 0 0 1 284.54251 378.19998] CT
0.149 GC
/Helvetica 11 F
GS
[1 0 0 1 0 0] CT
-9.5 11 moveto 
1 -1 scale
(402) t 
GR
GR
GS
[1 0 0 1 334.43951 378.19998] CT
0.149 GC
/Helvetica 11 F
GS
[1 0 0 1 0 0] CT
-9.5 11 moveto 
1 -1 scale
(498) t 
GR
GR
GS
[1 0 0 1 371.34253 378.19998] CT
0.149 GC
/Helvetica 11 F
GS
[1 0 0 1 0 0] CT
-9.5 11 moveto 
1 -1 scale
(569) t 
GR
GR
GS
[1 0 0 1 396.29102 378.19998] CT
0.149 GC
/Helvetica 11 F
GS
[1 0 0 1 0 0] CT
-9.5 11 moveto 
1 -1 scale
(617) t 
GR
GR
GS
[1 0 0 1 458.66226 378.19998] CT
0.149 GC
/Helvetica 11 F
GS
[1 0 0 1 0 0] CT
-9.5 11 moveto 
1 -1 scale
(737) t 
GR
GR
GS
[1 0 0 1 496.08502 378.19998] CT
0.149 GC
/Helvetica 11 F
GS
[1 0 0 1 0 0] CT
-9.5 11 moveto 
1 -1 scale
(809) t 
GR
GR
GS
[1 0 0 1 290.00021 392.20001] CT
0.149 GC
/Helvetica 12.1 F
GS
[1 0 0 1 0 0] CT
-106 12 moveto 
1 -1 scale
(Difference between acquisitions \(hours\)) t 
GR
GR
GS
0.149 GC
2 setlinecap
1 LJ
0.5 LW
N
73 374 M
73 31.5 L
S
GR
GS
0.149 GC
2 setlinecap
1 LJ
0.5 LW
N
507 374 M
507 31.5 L
S
GR
GS
0.149 GC
2 setlinecap
1 LJ
0.5 LW
N
73 374 M
77.34 374 L
S
GR
GS
0.149 GC
2 setlinecap
1 LJ
0.5 LW
N
73 331.188 M
77.34 331.188 L
S
GR
GS
0.149 GC
2 setlinecap
1 LJ
0.5 LW
N
73 288.375 M
77.34 288.375 L
S
GR
GS
0.149 GC
2 setlinecap
1 LJ
0.5 LW
N
73 245.563 M
77.34 245.563 L
S
GR
GS
0.149 GC
2 setlinecap
1 LJ
0.5 LW
N
73 202.75 M
77.34 202.75 L
S
GR
GS
0.149 GC
2 setlinecap
1 LJ
0.5 LW
N
73 159.938 M
77.34 159.938 L
S
GR
GS
0.149 GC
2 setlinecap
1 LJ
0.5 LW
N
73 117.125 M
77.34 117.125 L
S
GR
GS
0.149 GC
2 setlinecap
1 LJ
0.5 LW
N
73 74.312 M
77.34 74.312 L
S
GR
GS
0.149 GC
2 setlinecap
1 LJ
0.5 LW
N
73 31.5 M
77.34 31.5 L
S
GR
GS
0.149 GC
2 setlinecap
1 LJ
0.5 LW
N
507 374 M
502.66 374 L
S
GR
GS
0.149 GC
2 setlinecap
1 LJ
0.5 LW
N
507 331.188 M
502.66 331.188 L
S
GR
GS
0.149 GC
2 setlinecap
1 LJ
0.5 LW
N
507 288.375 M
502.66 288.375 L
S
GR
GS
0.149 GC
2 setlinecap
1 LJ
0.5 LW
N
507 245.563 M
502.66 245.563 L
S
GR
GS
0.149 GC
2 setlinecap
1 LJ
0.5 LW
N
507 202.75 M
502.66 202.75 L
S
GR
GS
0.149 GC
2 setlinecap
1 LJ
0.5 LW
N
507 159.938 M
502.66 159.938 L
S
GR
GS
0.149 GC
2 setlinecap
1 LJ
0.5 LW
N
507 117.125 M
502.66 117.125 L
S
GR
GS
0.149 GC
2 setlinecap
1 LJ
0.5 LW
N
507 74.312 M
502.66 74.312 L
S
GR
GS
0.149 GC
2 setlinecap
1 LJ
0.5 LW
N
507 31.5 M
502.66 31.5 L
S
GR
GS
[1 0 0 1 68.8 374] CT
0.149 GC
/Helvetica 11 F
GS
[1 0 0 1 0 0] CT
-22 4 moveto 
1 -1 scale
(0.25) t 
GR
GR
GS
[1 0 0 1 68.8 331.1875] CT
0.149 GC
/Helvetica 11 F
GS
[1 0 0 1 0 0] CT
-16 4 moveto 
1 -1 scale
(0.3) t 
GR
GR
GS
[1 0 0 1 68.8 288.375] CT
0.149 GC
/Helvetica 11 F
GS
[1 0 0 1 0 0] CT
-22 4 moveto 
1 -1 scale
(0.35) t 
GR
GR
GS
[1 0 0 1 68.8 245.5625] CT
0.149 GC
/Helvetica 11 F
GS
[1 0 0 1 0 0] CT
-16 4 moveto 
1 -1 scale
(0.4) t 
GR
GR
GS
[1 0 0 1 68.8 202.75002] CT
0.149 GC
/Helvetica 11 F
GS
[1 0 0 1 0 0] CT
-22 4 moveto 
1 -1 scale
(0.45) t 
GR
GR
GS
[1 0 0 1 68.8 159.9375] CT
0.149 GC
/Helvetica 11 F
GS
[1 0 0 1 0 0] CT
-16 4 moveto 
1 -1 scale
(0.5) t 
GR
GR
GS
[1 0 0 1 68.8 117.12499] CT
0.149 GC
/Helvetica 11 F
GS
[1 0 0 1 0 0] CT
-22 4 moveto 
1 -1 scale
(0.55) t 
GR
GR
GS
[1 0 0 1 68.8 74.31248] CT
0.149 GC
/Helvetica 11 F
GS
[1 0 0 1 0 0] CT
-16 4 moveto 
1 -1 scale
(0.6) t 
GR
GR
GS
[1 0 0 1 68.8 31.50002] CT
0.149 GC
/Helvetica 11 F
GS
[1 0 0 1 0 0] CT
-22 4 moveto 
1 -1 scale
(0.65) t 
GR
GR
GS
[0 -1 1 0 44.3 202.74986] CT
0.149 GC
/Helvetica 12.1 F
GS
[1 0 0 1 0 0] CT
-49.5 -3 moveto 
1 -1 scale
(Comparison score) t 
GR
GR
GS
[1 0 0 1 290.00027 29.9875] CT
/Helvetica-Bold 12.1 F
GS
[1 0 0 1 0 0] CT
-68 -3 moveto 
1 -1 scale
(OSIRIS | subject ID = 16) t 
GR
GR
GS
[10 6] 0 setdash
2 LJ
0.5 LW
N
84.954 199.158 M
84.954 182.363 L
S
GR
GS
[10 6] 0 setdash
2 LJ
0.5 LW
N
122.377 165.8 M
122.377 155.059 L
S
GR
GS
[10 6] 0 setdash
2 LJ
0.5 LW
N
153.043 160.712 M
153.043 135.474 L
S
GR
GS
[10 6] 0 setdash
2 LJ
0.5 LW
N
184.749 131.086 M
184.749 105.632 L
S
GR
GS
[10 6] 0 setdash
2 LJ
0.5 LW
N
209.697 120.845 M
209.697 74.889 L
S
GR
GS
[10 6] 0 setdash
2 LJ
0.5 LW
N
259.594 178.51 M
259.594 147.231 L
S
GR
GS
[10 6] 0 setdash
2 LJ
0.5 LW
N
284.543 162.133 M
284.543 141.108 L
S
GR
GS
[10 6] 0 setdash
2 LJ
0.5 LW
N
334.44 190.518 M
334.44 145.072 L
S
GR
GS
[10 6] 0 setdash
2 LJ
0.5 LW
N
371.343 176.449 M
371.343 119.979 L
S
GR
GS
[10 6] 0 setdash
2 LJ
0.5 LW
N
396.291 187.299 M
396.291 165.883 L
S
GR
GS
[10 6] 0 setdash
2 LJ
0.5 LW
N
458.662 203.93 M
458.662 157.996 L
S
GR
GS
[10 6] 0 setdash
2 LJ
0.5 LW
N
496.085 167.717 M
496.085 109.569 L
S
GR
GS
[10 6] 0 setdash
2 LJ
0.5 LW
N
84.954 269.713 M
84.954 233.806 L
S
GR
GS
[10 6] 0 setdash
2 LJ
0.5 LW
N
122.377 190.301 M
122.377 181.798 L
S
GR
GS
[10 6] 0 setdash
2 LJ
0.5 LW
N
153.043 231.791 M
153.043 195.716 L
S
GR
GS
[10 6] 0 setdash
2 LJ
0.5 LW
N
184.749 254.644 M
184.749 191.773 L
S
GR
GS
[10 6] 0 setdash
2 LJ
0.5 LW
N
209.697 206.984 M
209.697 185.209 L
S
GR
GS
[10 6] 0 setdash
2 LJ
0.5 LW
N
259.594 295.51 M
259.594 225.443 L
S
GR
GS
[10 6] 0 setdash
2 LJ
0.5 LW
N
284.543 257.959 M
284.543 213.453 L
S
GR
GS
[10 6] 0 setdash
2 LJ
0.5 LW
N
334.44 256.906 M
334.44 225.803 L
S
GR
GS
[10 6] 0 setdash
2 LJ
0.5 LW
N
371.343 250.069 M
371.343 216.851 L
S
GR
GS
[10 6] 0 setdash
2 LJ
0.5 LW
N
396.291 268.548 M
396.291 227.963 L
S
GR
GS
[10 6] 0 setdash
2 LJ
0.5 LW
N
458.662 307.325 M
458.662 247.372 L
S
GR
GS
[10 6] 0 setdash
2 LJ
0.5 LW
N
496.085 258.474 M
496.085 219.151 L
S
GR
GS
1 LJ
0.5 LW
N
81.836 182.363 M
88.073 182.363 L
S
GR
GS
1 LJ
0.5 LW
N
119.259 155.059 M
125.496 155.059 L
S
GR
GS
1 LJ
0.5 LW
N
149.925 135.474 M
156.162 135.474 L
S
GR
GS
1 LJ
0.5 LW
N
181.63 105.632 M
187.867 105.632 L
S
GR
GS
1 LJ
0.5 LW
N
206.578 74.889 M
212.816 74.889 L
S
GR
GS
1 LJ
0.5 LW
N
256.475 147.231 M
262.713 147.231 L
S
GR
GS
1 LJ
0.5 LW
N
281.424 141.108 M
287.661 141.108 L
S
GR
GS
1 LJ
0.5 LW
N
331.321 145.072 M
337.558 145.072 L
S
GR
GS
1 LJ
0.5 LW
N
368.224 119.979 M
374.461 119.979 L
S
GR
GS
1 LJ
0.5 LW
N
393.172 165.883 M
399.41 165.883 L
S
GR
GS
1 LJ
0.5 LW
N
455.544 157.996 M
461.781 157.996 L
S
GR
GS
1 LJ
0.5 LW
N
492.966 109.569 M
499.204 109.569 L
S
GR
GS
1 LJ
0.5 LW
N
81.836 269.713 M
88.073 269.713 L
S
GR
GS
1 LJ
0.5 LW
N
119.259 190.301 M
125.496 190.301 L
S
GR
GS
1 LJ
0.5 LW
N
149.925 231.791 M
156.162 231.791 L
S
GR
GS
1 LJ
0.5 LW
N
181.63 254.644 M
187.867 254.644 L
S
GR
GS
1 LJ
0.5 LW
N
206.578 206.984 M
212.816 206.984 L
S
GR
GS
1 LJ
0.5 LW
N
256.475 295.51 M
262.713 295.51 L
S
GR
GS
1 LJ
0.5 LW
N
281.424 257.959 M
287.661 257.959 L
S
GR
GS
1 LJ
0.5 LW
N
331.321 256.906 M
337.558 256.906 L
S
GR
GS
1 LJ
0.5 LW
N
368.224 250.069 M
374.461 250.069 L
S
GR
GS
1 LJ
0.5 LW
N
393.172 268.548 M
399.41 268.548 L
S
GR
GS
1 LJ
0.5 LW
N
455.544 307.325 M
461.781 307.325 L
S
GR
GS
1 LJ
0.5 LW
N
492.966 258.474 M
499.204 258.474 L
S
GR
GS
0 0 1 RC
1 LJ
0.5 LW
N
78.717 233.806 M
78.717 199.158 L
91.192 199.158 L
91.192 233.806 L
78.717 233.806 L
S
GR
GS
0 0 1 RC
1 LJ
0.5 LW
N
116.14 181.798 M
116.14 165.8 L
128.614 165.8 L
128.614 181.798 L
116.14 181.798 L
S
GR
GS
0 0 1 RC
1 LJ
0.5 LW
N
146.806 195.716 M
146.806 160.712 L
159.28 160.712 L
159.28 195.716 L
146.806 195.716 L
S
GR
GS
0 0 1 RC
1 LJ
0.5 LW
N
178.511 191.773 M
178.511 131.086 L
190.986 131.086 L
190.986 191.773 L
178.511 191.773 L
S
GR
GS
0 0 1 RC
1 LJ
0.5 LW
N
203.46 185.209 M
203.46 120.845 L
215.934 120.845 L
215.934 185.209 L
203.46 185.209 L
S
GR
GS
0 0 1 RC
1 LJ
0.5 LW
N
253.357 225.443 M
253.357 178.51 L
265.831 178.51 L
265.831 225.443 L
253.357 225.443 L
S
GR
GS
0 0 1 RC
1 LJ
0.5 LW
N
278.305 213.453 M
278.305 162.133 L
290.78 162.133 L
290.78 213.453 L
278.305 213.453 L
S
GR
GS
0 0 1 RC
1 LJ
0.5 LW
N
328.202 225.803 M
328.202 190.518 L
340.677 190.518 L
340.677 225.803 L
328.202 225.803 L
S
GR
GS
0 0 1 RC
1 LJ
0.5 LW
N
365.105 216.851 M
365.105 176.449 L
377.58 176.449 L
377.58 216.851 L
365.105 216.851 L
S
GR
GS
0 0 1 RC
1 LJ
0.5 LW
N
390.054 227.963 M
390.054 187.299 L
402.528 187.299 L
402.528 227.963 L
390.054 227.963 L
S
GR
GS
0 0 1 RC
1 LJ
0.5 LW
N
452.425 247.372 M
452.425 203.93 L
464.899 203.93 L
464.899 247.372 L
452.425 247.372 L
S
GR
GS
0 0 1 RC
1 LJ
0.5 LW
N
489.848 219.151 M
489.848 167.717 L
502.322 167.717 L
502.322 219.151 L
489.848 219.151 L
S
GR
GS
1 0 0 RC
1 LJ
0.5 LW
N
78.717 216.63 M
91.192 216.63 L
S
GR
GS
1 0 0 RC
1 LJ
0.5 LW
N
116.14 178.173 M
128.614 178.173 L
S
GR
GS
1 0 0 RC
1 LJ
0.5 LW
N
146.806 178.027 M
159.28 178.027 L
S
GR
GS
1 0 0 RC
1 LJ
0.5 LW
N
178.511 160.956 M
190.986 160.956 L
S
GR
GS
1 0 0 RC
1 LJ
0.5 LW
N
203.46 147.345 M
215.934 147.345 L
S
GR
GS
1 0 0 RC
1 LJ
0.5 LW
N
253.357 192.952 M
265.831 192.952 L
S
GR
GS
1 0 0 RC
1 LJ
0.5 LW
N
278.305 177.261 M
290.78 177.261 L
S
GR
GS
1 0 0 RC
1 LJ
0.5 LW
N
328.202 204.024 M
340.677 204.024 L
S
GR
GS
1 0 0 RC
1 LJ
0.5 LW
N
365.105 186.451 M
377.58 186.451 L
S
GR
GS
1 0 0 RC
1 LJ
0.5 LW
N
390.054 209.147 M
402.528 209.147 L
S
GR
GS
1 0 0 RC
1 LJ
0.5 LW
N
452.425 236.104 M
464.899 236.104 L
S
GR
GS
1 0 0 RC
1 LJ
0.5 LW
N
489.848 191.887 M
502.322 191.887 L
S
GR
GS
[1 0 0 1 84.95449 334.12531] CT
1 0 0 RC
10.0 ML
0.5 LW
N
0 -3 M
0 3 L
-3 0 M
3 0 L
S
GR
GS
[1 0 0 1 284.54251 313.62323] CT
1 0 0 RC
10.0 ML
0.5 LW
N
0 -3 M
0 3 L
-3 0 M
3 0 L
S
GR
GS
[1 0 0 1 334.43951 133.83214] CT
1 0 0 RC
10.0 ML
0.5 LW
N
0 -3 M
0 3 L
-3 0 M
3 0 L
S
GR
GS
0 0 1 RC
1 LJ
0.5 LW
N
75.599 314.063 M
501.802 314.063 L
S
GR
GS
[1 0 0 1 335.47903 331.1875] CT
0 0 1 RC
/Helvetica 12 F
GS
[1 0 0 1 0 0] CT
0 4.5 moveto 
1 -1 scale
(thr = 0.32) t 
GR
GR
%%Trailer
%%Pages: 1
%%EOF
