%!PS-Adobe-3.0 EPSF-3.0
%%Creator: (MATLAB, The Mathworks, Inc. Version 9.1.0.441655 \(R2016b\). Operating System: Mac OS X)
%%Title: ./longTerm_All_OS_genuine.eps
%%CreationDate: 2016-12-06T15:15:53
%%Pages: (atend)
%%BoundingBox:     8     0   519   412
%%LanguageLevel: 3
%%EndComments
%%BeginProlog
%%BeginResource: procset (Apache XML Graphics Std ProcSet) 1.2 0
%%Version: 1.2 0
%%Copyright: (Copyright 2001-2003,2010 The Apache Software Foundation. License terms: http://www.apache.org/licenses/LICENSE-2.0)
/bd{bind def}bind def
/ld{load def}bd
/GR/grestore ld
/M/moveto ld
/LJ/setlinejoin ld
/C/curveto ld
/f/fill ld
/LW/setlinewidth ld
/GC/setgray ld
/t/show ld
/N/newpath ld
/CT/concat ld
/cp/closepath ld
/S/stroke ld
/L/lineto ld
/CC/setcmykcolor ld
/A/ashow ld
/GS/gsave ld
/RC/setrgbcolor ld
/RM/rmoveto ld
/ML/setmiterlimit ld
/re {4 2 roll M
1 index 0 rlineto
0 exch rlineto
neg 0 rlineto
cp } bd
/_ctm matrix def
/_tm matrix def
/BT { _ctm currentmatrix pop matrix _tm copy pop 0 0 moveto } bd
/ET { _ctm setmatrix } bd
/iTm { _ctm setmatrix _tm concat } bd
/Tm { _tm astore pop iTm 0 0 moveto } bd
/ux 0.0 def
/uy 0.0 def
/F {
  /Tp exch def
  /Tf exch def
  Tf findfont Tp scalefont setfont
  /cf Tf def  /cs Tp def
} bd
/ULS {currentpoint /uy exch def /ux exch def} bd
/ULE {
  /Tcx currentpoint pop def
  gsave
  newpath
  cf findfont cs scalefont dup
  /FontMatrix get 0 get /Ts exch def /FontInfo get dup
  /UnderlinePosition get Ts mul /To exch def
  /UnderlineThickness get Ts mul /Tt exch def
  ux uy To add moveto  Tcx uy To add lineto
  Tt setlinewidth stroke
  grestore
} bd
/OLE {
  /Tcx currentpoint pop def
  gsave
  newpath
  cf findfont cs scalefont dup
  /FontMatrix get 0 get /Ts exch def /FontInfo get dup
  /UnderlinePosition get Ts mul /To exch def
  /UnderlineThickness get Ts mul /Tt exch def
  ux uy To add cs add moveto Tcx uy To add cs add lineto
  Tt setlinewidth stroke
  grestore
} bd
/SOE {
  /Tcx currentpoint pop def
  gsave
  newpath
  cf findfont cs scalefont dup
  /FontMatrix get 0 get /Ts exch def /FontInfo get dup
  /UnderlinePosition get Ts mul /To exch def
  /UnderlineThickness get Ts mul /Tt exch def
  ux uy To add cs 10 mul 26 idiv add moveto Tcx uy To add cs 10 mul 26 idiv add lineto
  Tt setlinewidth stroke
  grestore
} bd
/QT {
/Y22 exch store
/X22 exch store
/Y21 exch store
/X21 exch store
currentpoint
/Y21 load 2 mul add 3 div exch
/X21 load 2 mul add 3 div exch
/X21 load 2 mul /X22 load add 3 div
/Y21 load 2 mul /Y22 load add 3 div
/X22 load /Y22 load curveto
} bd
/SSPD {
dup length /d exch dict def
{
/v exch def
/k exch def
currentpagedevice k known {
/cpdv currentpagedevice k get def
v cpdv ne {
/upd false def
/nullv v type /nulltype eq def
/nullcpdv cpdv type /nulltype eq def
nullv nullcpdv or
{
/upd true def
} {
/sametype v type cpdv type eq def
sametype {
v type /arraytype eq {
/vlen v length def
/cpdvlen cpdv length def
vlen cpdvlen eq {
0 1 vlen 1 sub {
/i exch def
/obj v i get def
/cpdobj cpdv i get def
obj cpdobj ne {
/upd true def
exit
} if
} for
} {
/upd true def
} ifelse
} {
v type /dicttype eq {
v {
/dv exch def
/dk exch def
/cpddv cpdv dk get def
dv cpddv ne {
/upd true def
exit
} if
} forall
} {
/upd true def
} ifelse
} ifelse
} if
} ifelse
upd true eq {
d k v put
} if
} if
} if
} forall
d length 0 gt {
d setpagedevice
} if
} bd
/RE { % /NewFontName [NewEncodingArray] /FontName RE -
  findfont dup length dict begin
  {
    1 index /FID ne
    {def} {pop pop} ifelse
  } forall
  /Encoding exch def
  /FontName 1 index def
  currentdict definefont pop
  end
} bind def
%%EndResource
%%BeginResource: procset (Apache XML Graphics EPS ProcSet) 1.0 0
%%Version: 1.0 0
%%Copyright: (Copyright 2002-2003 The Apache Software Foundation. License terms: http://www.apache.org/licenses/LICENSE-2.0)
/BeginEPSF { %def
/b4_Inc_state save def         % Save state for cleanup
/dict_count countdictstack def % Count objects on dict stack
/op_count count 1 sub def      % Count objects on operand stack
userdict begin                 % Push userdict on dict stack
/showpage { } def              % Redefine showpage, { } = null proc
0 setgray 0 setlinecap         % Prepare graphics state
1 setlinewidth 0 setlinejoin
10 setmiterlimit [ ] 0 setdash newpath
/languagelevel where           % If level not equal to 1 then
{pop languagelevel             % set strokeadjust and
1 ne                           % overprint to their defaults.
{false setstrokeadjust false setoverprint
} if
} if
} bd
/EndEPSF { %def
count op_count sub {pop} repeat            % Clean up stacks
countdictstack dict_count sub {end} repeat
b4_Inc_state restore
} bd
%%EndResource
%FOPBeginFontDict
%%IncludeResource: font Courier-Bold
%%IncludeResource: font Helvetica
%%IncludeResource: font Courier-BoldOblique
%%IncludeResource: font Courier-Oblique
%%IncludeResource: font Times-Roman
%%IncludeResource: font Helvetica-BoldOblique
%%IncludeResource: font Helvetica-Bold
%%IncludeResource: font Helvetica-Oblique
%%IncludeResource: font Times-BoldItalic
%%IncludeResource: font Courier
%%IncludeResource: font Times-Italic
%%IncludeResource: font Times-Bold
%%IncludeResource: font Symbol
%%IncludeResource: font ZapfDingbats
%FOPEndFontDict
%%BeginResource: encoding WinAnsiEncoding
/WinAnsiEncoding [
/.notdef /.notdef /.notdef /.notdef /.notdef
/.notdef /.notdef /.notdef /.notdef /.notdef
/.notdef /.notdef /.notdef /.notdef /.notdef
/.notdef /.notdef /.notdef /.notdef /.notdef
/.notdef /.notdef /.notdef /.notdef /.notdef
/.notdef /.notdef /.notdef /.notdef /.notdef
/.notdef /.notdef /space /exclam /quotedbl
/numbersign /dollar /percent /ampersand /quotesingle
/parenleft /parenright /asterisk /plus /comma
/hyphen /period /slash /zero /one
/two /three /four /five /six
/seven /eight /nine /colon /semicolon
/less /equal /greater /question /at
/A /B /C /D /E
/F /G /H /I /J
/K /L /M /N /O
/P /Q /R /S /T
/U /V /W /X /Y
/Z /bracketleft /backslash /bracketright /asciicircum
/underscore /quoteleft /a /b /c
/d /e /f /g /h
/i /j /k /l /m
/n /o /p /q /r
/s /t /u /v /w
/x /y /z /braceleft /bar
/braceright /asciitilde /bullet /Euro /bullet
/quotesinglbase /florin /quotedblbase /ellipsis /dagger
/daggerdbl /circumflex /perthousand /Scaron /guilsinglleft
/OE /bullet /Zcaron /bullet /bullet
/quoteleft /quoteright /quotedblleft /quotedblright /bullet
/endash /emdash /asciitilde /trademark /scaron
/guilsinglright /oe /bullet /zcaron /Ydieresis
/space /exclamdown /cent /sterling /currency
/yen /brokenbar /section /dieresis /copyright
/ordfeminine /guillemotleft /logicalnot /sfthyphen /registered
/macron /degree /plusminus /twosuperior /threesuperior
/acute /mu /paragraph /middot /cedilla
/onesuperior /ordmasculine /guillemotright /onequarter /onehalf
/threequarters /questiondown /Agrave /Aacute /Acircumflex
/Atilde /Adieresis /Aring /AE /Ccedilla
/Egrave /Eacute /Ecircumflex /Edieresis /Igrave
/Iacute /Icircumflex /Idieresis /Eth /Ntilde
/Ograve /Oacute /Ocircumflex /Otilde /Odieresis
/multiply /Oslash /Ugrave /Uacute /Ucircumflex
/Udieresis /Yacute /Thorn /germandbls /agrave
/aacute /acircumflex /atilde /adieresis /aring
/ae /ccedilla /egrave /eacute /ecircumflex
/edieresis /igrave /iacute /icircumflex /idieresis
/eth /ntilde /ograve /oacute /ocircumflex
/otilde /odieresis /divide /oslash /ugrave
/uacute /ucircumflex /udieresis /yacute /thorn
/ydieresis
] def
%%EndResource
%FOPBeginFontReencode
/Courier-Bold findfont
dup length dict begin
  {1 index /FID ne {def} {pop pop} ifelse} forall
  /Encoding WinAnsiEncoding def
  currentdict
end
/Courier-Bold exch definefont pop
/Helvetica findfont
dup length dict begin
  {1 index /FID ne {def} {pop pop} ifelse} forall
  /Encoding WinAnsiEncoding def
  currentdict
end
/Helvetica exch definefont pop
/Courier-BoldOblique findfont
dup length dict begin
  {1 index /FID ne {def} {pop pop} ifelse} forall
  /Encoding WinAnsiEncoding def
  currentdict
end
/Courier-BoldOblique exch definefont pop
/Courier-Oblique findfont
dup length dict begin
  {1 index /FID ne {def} {pop pop} ifelse} forall
  /Encoding WinAnsiEncoding def
  currentdict
end
/Courier-Oblique exch definefont pop
/Times-Roman findfont
dup length dict begin
  {1 index /FID ne {def} {pop pop} ifelse} forall
  /Encoding WinAnsiEncoding def
  currentdict
end
/Times-Roman exch definefont pop
/Helvetica-BoldOblique findfont
dup length dict begin
  {1 index /FID ne {def} {pop pop} ifelse} forall
  /Encoding WinAnsiEncoding def
  currentdict
end
/Helvetica-BoldOblique exch definefont pop
/Helvetica-Bold findfont
dup length dict begin
  {1 index /FID ne {def} {pop pop} ifelse} forall
  /Encoding WinAnsiEncoding def
  currentdict
end
/Helvetica-Bold exch definefont pop
/Helvetica-Oblique findfont
dup length dict begin
  {1 index /FID ne {def} {pop pop} ifelse} forall
  /Encoding WinAnsiEncoding def
  currentdict
end
/Helvetica-Oblique exch definefont pop
/Times-BoldItalic findfont
dup length dict begin
  {1 index /FID ne {def} {pop pop} ifelse} forall
  /Encoding WinAnsiEncoding def
  currentdict
end
/Times-BoldItalic exch definefont pop
/Courier findfont
dup length dict begin
  {1 index /FID ne {def} {pop pop} ifelse} forall
  /Encoding WinAnsiEncoding def
  currentdict
end
/Courier exch definefont pop
/Times-Italic findfont
dup length dict begin
  {1 index /FID ne {def} {pop pop} ifelse} forall
  /Encoding WinAnsiEncoding def
  currentdict
end
/Times-Italic exch definefont pop
/Times-Bold findfont
dup length dict begin
  {1 index /FID ne {def} {pop pop} ifelse} forall
  /Encoding WinAnsiEncoding def
  currentdict
end
/Times-Bold exch definefont pop
%FOPEndFontReencode
%%EndProlog
%%Page: 1 1
%%PageBoundingBox: 0 0 560 420
%%BeginPageSetup
[1 0 0 -1 0 420] CT
%%EndPageSetup
GS
1 GC
N
0 0 560 420 re
f
GR
GS
1 GC
N
0 0 560 420 re
f
GR
GS
1 GC
N
73 358 M
507 358 L
507 35 L
73 35 L
cp
f
GR
GS
0.873 GC
1 LJ
0.5 LW
N
126.11 358 M
126.11 35 L
S
GR
GS
0.873 GC
1 LJ
0.5 LW
N
179.756 358 M
179.756 35 L
S
GR
GS
0.873 GC
1 LJ
0.5 LW
N
233.403 358 M
233.403 35 L
S
GR
GS
0.873 GC
1 LJ
0.5 LW
N
287.049 358 M
287.049 35 L
S
GR
GS
0.873 GC
1 LJ
0.5 LW
N
340.696 358 M
340.696 35 L
S
GR
GS
0.873 GC
1 LJ
0.5 LW
N
394.342 358 M
394.342 35 L
S
GR
GS
0.873 GC
1 LJ
0.5 LW
N
447.989 358 M
447.989 35 L
S
GR
GS
0.873 GC
1 LJ
0.5 LW
N
501.635 358 M
501.635 35 L
S
GR
GS
0.873 GC
1 LJ
0.5 LW
N
507 322.111 M
73 322.111 L
S
GR
GS
0.873 GC
1 LJ
0.5 LW
N
507 250.333 M
73 250.333 L
S
GR
GS
0.873 GC
1 LJ
0.5 LW
N
507 178.556 M
73 178.556 L
S
GR
GS
0.873 GC
1 LJ
0.5 LW
N
507 106.778 M
73 106.778 L
S
GR
GS
0.873 GC
1 LJ
0.5 LW
N
507 35 M
73 35 L
S
GR
GS
0.149 GC
2 setlinecap
1 LJ
0.5 LW
N
73 358 M
507 358 L
S
GR
GS
0.149 GC
2 setlinecap
1 LJ
0.5 LW
N
126.11 358 M
126.11 353.66 L
S
GR
GS
0.149 GC
2 setlinecap
1 LJ
0.5 LW
N
179.756 358 M
179.756 353.66 L
S
GR
GS
0.149 GC
2 setlinecap
1 LJ
0.5 LW
N
233.403 358 M
233.403 353.66 L
S
GR
GS
0.149 GC
2 setlinecap
1 LJ
0.5 LW
N
287.049 358 M
287.049 353.66 L
S
GR
GS
0.149 GC
2 setlinecap
1 LJ
0.5 LW
N
340.696 358 M
340.696 353.66 L
S
GR
GS
0.149 GC
2 setlinecap
1 LJ
0.5 LW
N
394.342 358 M
394.342 353.66 L
S
GR
GS
0.149 GC
2 setlinecap
1 LJ
0.5 LW
N
447.989 358 M
447.989 353.66 L
S
GR
GS
0.149 GC
2 setlinecap
1 LJ
0.5 LW
N
501.635 358 M
501.635 353.66 L
S
GR
GS
[1 0 0 1 126.11002 364.39999] CT
0.149 GC
/Helvetica 22 F
GS
[1 0 0 1 0 0] CT
-18.5 21 moveto 
1 -1 scale
(100) t 
GR
GR
GS
[1 0 0 1 179.75648 364.39999] CT
0.149 GC
/Helvetica 22 F
GS
[1 0 0 1 0 0] CT
-18.5 21 moveto 
1 -1 scale
(200) t 
GR
GR
GS
[1 0 0 1 233.40297 364.39999] CT
0.149 GC
/Helvetica 22 F
GS
[1 0 0 1 0 0] CT
-18.5 21 moveto 
1 -1 scale
(300) t 
GR
GR
GS
[1 0 0 1 287.04944 364.39999] CT
0.149 GC
/Helvetica 22 F
GS
[1 0 0 1 0 0] CT
-18.5 21 moveto 
1 -1 scale
(400) t 
GR
GR
GS
[1 0 0 1 340.69592 364.39999] CT
0.149 GC
/Helvetica 22 F
GS
[1 0 0 1 0 0] CT
-18.5 21 moveto 
1 -1 scale
(500) t 
GR
GR
GS
[1 0 0 1 394.34241 364.39999] CT
0.149 GC
/Helvetica 22 F
GS
[1 0 0 1 0 0] CT
-18.5 21 moveto 
1 -1 scale
(600) t 
GR
GR
GS
[1 0 0 1 447.98886 364.39999] CT
0.149 GC
/Helvetica 22 F
GS
[1 0 0 1 0 0] CT
-18.5 21 moveto 
1 -1 scale
(700) t 
GR
GR
GS
[1 0 0 1 501.63535 364.39999] CT
0.149 GC
/Helvetica 22 F
GS
[1 0 0 1 0 0] CT
-18.5 21 moveto 
1 -1 scale
(800) t 
GR
GR
GS
[1 0 0 1 290.00021 391.39999] CT
0.149 GC
/Helvetica 24.2 F
GS
[1 0 0 1 0 0] CT
-211.5 23 moveto 
1 -1 scale
(Difference between acquisitions \(hours\)) t 
GR
GR
GS
0.149 GC
2 setlinecap
1 LJ
0.5 LW
N
73 358 M
73 35 L
S
GR
GS
0.149 GC
2 setlinecap
1 LJ
0.5 LW
N
73 322.111 M
77.34 322.111 L
S
GR
GS
0.149 GC
2 setlinecap
1 LJ
0.5 LW
N
73 250.333 M
77.34 250.333 L
S
GR
GS
0.149 GC
2 setlinecap
1 LJ
0.5 LW
N
73 178.556 M
77.34 178.556 L
S
GR
GS
0.149 GC
2 setlinecap
1 LJ
0.5 LW
N
73 106.778 M
77.34 106.778 L
S
GR
GS
0.149 GC
2 setlinecap
1 LJ
0.5 LW
N
73 35 M
77.34 35 L
S
GR
GS
[1 0 0 1 66.6 322.11111] CT
0.149 GC
/Helvetica 22 F
GS
[1 0 0 1 0 0] CT
-31 8 moveto 
1 -1 scale
(0.2) t 
GR
GR
GS
[1 0 0 1 66.6 250.33333] CT
0.149 GC
/Helvetica 22 F
GS
[1 0 0 1 0 0] CT
-31 8 moveto 
1 -1 scale
(0.3) t 
GR
GR
GS
[1 0 0 1 66.6 178.55556] CT
0.149 GC
/Helvetica 22 F
GS
[1 0 0 1 0 0] CT
-31 8 moveto 
1 -1 scale
(0.4) t 
GR
GR
GS
[1 0 0 1 66.6 106.77778] CT
0.149 GC
/Helvetica 22 F
GS
[1 0 0 1 0 0] CT
-31 8 moveto 
1 -1 scale
(0.5) t 
GR
GR
GS
[1 0 0 1 66.6 34.99998] CT
0.149 GC
/Helvetica 22 F
GS
[1 0 0 1 0 0] CT
-31 8 moveto 
1 -1 scale
(0.6) t 
GR
GR
GS
[0 -1 1 0 32.6 196.49983] CT
0.149 GC
/Helvetica 24.2 F
GS
[1 0 0 1 0 0] CT
-99 -6 moveto 
1 -1 scale
(Comparison score) t 
GR
GR
GS
[1 0 0 1 290.00027 31.97498] CT
/Helvetica-Bold 24.2 F
GS
[1 0 0 1 0 0] CT
-173.5 -6 moveto 
1 -1 scale
(OSIRIS | genuine comparisons) t 
GR
GR
GS
[1 0 0 1 78.36465 291.6601] CT
0 0.702 0 RC
N
2.667 0 M
2.667 1.473 1.473 2.667 0 2.667 C
-1.473 2.667 -2.667 1.473 -2.667 0 C
-2.667 -1.473 -1.473 -2.667 0 -2.667 C
1.473 -2.667 2.667 -1.473 2.667 0 C
cp
f
GR
GS
[1 0 0 1 78.36465 285.95663] CT
0 0.702 0 RC
N
/f-1992514645{2.667 0 M
2.667 1.473 1.473 2.667 0 2.667 C
-1.473 2.667 -2.667 1.473 -2.667 0 C
-2.667 -1.473 -1.473 -2.667 0 -2.667 C
1.473 -2.667 2.667 -1.473 2.667 0 C
cp}def
f-1992514645
f
GR
GS
[1 0 0 1 78.36465 311.16501] CT
0 0.702 0 RC
N
f-1992514645
f
GR
GS
[1 0 0 1 78.36465 316.37247] CT
0 0.702 0 RC
N
f-1992514645
f
GR
GS
[1 0 0 1 78.36465 279.78806] CT
0 0.702 0 RC
N
f-1992514645
f
GR
GS
[1 0 0 1 78.36465 288.09131] CT
0 0.702 0 RC
N
f-1992514645
f
GR
GS
[1 0 0 1 78.36465 282.95129] CT
0 0.702 0 RC
N
f-1992514645
f
GR
GS
[1 0 0 1 78.36465 282.01678] CT
0 0.702 0 RC
N
f-1992514645
f
GR
GS
[1 0 0 1 78.36465 306.31641] CT
0 0.702 0 RC
N
f-1992514645
f
GR
GS
[1 0 0 1 78.36465 268.93167] CT
0 0.702 0 RC
N
f-1992514645
f
GR
GS
[1 0 0 1 78.36465 269.39896] CT
0 0.702 0 RC
N
f-1992514645
f
GR
GS
[1 0 0 1 78.36465 268.93167] CT
0 0.702 0 RC
N
f-1992514645
f
GR
GS
[1 0 0 1 78.36465 289.02585] CT
0 0.702 0 RC
N
f-1992514645
f
GR
GS
[1 0 0 1 78.36465 293.69931] CT
0 0.702 0 RC
N
f-1992514645
f
GR
GS
[1 0 0 1 78.36465 290.89496] CT
0 0.702 0 RC
N
f-1992514645
f
GR
GS
[1 0 0 1 78.36465 286.68948] CT
0 0.702 0 RC
N
f-1992514645
f
GR
GS
[1 0 0 1 78.36465 285.75494] CT
0 0.702 0 RC
N
f-1992514645
f
GR
GS
[1 0 0 1 78.36465 291.36224] CT
0 0.702 0 RC
N
f-1992514645
f
GR
GS
[1 0 0 1 78.36465 280.14694] CT
0 0.702 0 RC
N
f-1992514645
f
GR
GS
[1 0 0 1 78.36465 270.80148] CT
0 0.702 0 RC
N
f-1992514645
f
GR
GS
[1 0 0 1 78.36465 264.72623] CT
0 0.702 0 RC
N
f-1992514645
f
GR
GS
[1 0 0 1 78.36465 287.62405] CT
0 0.702 0 RC
N
f-1992514645
f
GR
GS
[1 0 0 1 78.36465 274.07239] CT
0 0.702 0 RC
N
f-1992514645
f
GR
GS
[1 0 0 1 78.36465 266.12805] CT
0 0.702 0 RC
N
f-1992514645
f
GR
GS
[1 0 0 1 78.36465 289.02585] CT
0 0.702 0 RC
N
f-1992514645
f
GR
GS
[1 0 0 1 78.36465 288.09131] CT
0 0.702 0 RC
N
f-1992514645
f
GR
GS
[1 0 0 1 78.36465 287.62405] CT
0 0.702 0 RC
N
f-1992514645
f
GR
GS
[1 0 0 1 78.36465 296.50296] CT
0 0.702 0 RC
N
f-1992514645
f
GR
GS
[1 0 0 1 78.36465 292.29749] CT
0 0.702 0 RC
N
f-1992514645
f
GR
GS
[1 0 0 1 78.36465 324.28598] CT
0 0.702 0 RC
N
f-1992514645
f
GR
GS
[1 0 0 1 78.36465 331.15009] CT
0 0.702 0 RC
N
f-1992514645
f
GR
GS
[1 0 0 1 78.36465 335.58881] CT
0 0.702 0 RC
N
f-1992514645
f
GR
GS
[1 0 0 1 78.36465 348.89642] CT
0 0.702 0 RC
N
f-1992514645
f
GR
GS
[1 0 0 1 78.36465 338.75494] CT
0 0.702 0 RC
N
f-1992514645
f
GR
GS
[1 0 0 1 78.36465 350.89975] CT
0 0.702 0 RC
N
f-1992514645
f
GR
GS
[1 0 0 1 78.36465 332.21527] CT
0 0.702 0 RC
N
f-1992514645
f
GR
GS
[1 0 0 1 78.36465 330.82135] CT
0 0.702 0 RC
N
f-1992514645
f
GR
GS
[1 0 0 1 78.36465 329.9234] CT
0 0.702 0 RC
N
f-1992514645
f
GR
GS
[1 0 0 1 78.36465 332.79739] CT
0 0.702 0 RC
N
f-1992514645
f
GR
GS
[1 0 0 1 78.36465 327.75284] CT
0 0.702 0 RC
N
f-1992514645
f
GR
GS
[1 0 0 1 78.36465 332.42056] CT
0 0.702 0 RC
N
f-1992514645
f
GR
GS
[1 0 0 1 78.36465 277.74457] CT
0 0.702 0 RC
N
f-1992514645
f
GR
GS
[1 0 0 1 78.36465 311.04657] CT
0 0.702 0 RC
N
f-1992514645
f
GR
GS
[1 0 0 1 78.36465 298.47327] CT
0 0.702 0 RC
N
f-1992514645
f
GR
GS
[1 0 0 1 78.36465 292.13312] CT
0 0.702 0 RC
N
f-1992514645
f
GR
GS
[1 0 0 1 78.36465 329.89685] CT
0 0.702 0 RC
N
f-1992514645
f
GR
GS
[1 0 0 1 78.36465 279.95099] CT
0 0.702 0 RC
N
f-1992514645
f
GR
GS
[1 0 0 1 78.36465 300.82254] CT
0 0.702 0 RC
N
f-1992514645
f
GR
GS
[1 0 0 1 78.36465 274.63727] CT
0 0.702 0 RC
N
f-1992514645
f
GR
GS
[1 0 0 1 78.36465 267.24487] CT
0 0.702 0 RC
N
f-1992514645
f
GR
GS
[1 0 0 1 78.36465 332.3782] CT
0 0.702 0 RC
N
f-1992514645
f
GR
GS
[1 0 0 1 78.36465 330.43301] CT
0 0.702 0 RC
N
f-1992514645
f
GR
GS
[1 0 0 1 78.36465 264.8425] CT
0 0.702 0 RC
N
f-1992514645
f
GR
GS
[1 0 0 1 78.36465 292.81573] CT
0 0.702 0 RC
N
f-1992514645
f
GR
GS
[1 0 0 1 78.36465 334.68872] CT
0 0.702 0 RC
N
f-1992514645
f
GR
GS
[1 0 0 1 78.36465 283.09918] CT
0 0.702 0 RC
N
f-1992514645
f
GR
GS
[1 0 0 1 78.36465 239.54298] CT
0 0.702 0 RC
N
f-1992514645
f
GR
GS
[1 0 0 1 78.36465 279.88855] CT
0 0.702 0 RC
N
f-1992514645
f
GR
GS
[1 0 0 1 78.36465 243.49722] CT
0 0.702 0 RC
N
f-1992514645
f
GR
GS
[1 0 0 1 78.36465 162.85417] CT
1 0 0 RC
N
f-1992514645
f
GR
GS
[1 0 0 1 78.36465 147.75356] CT
1 0 0 RC
N
f-1992514645
f
GR
GS
[1 0 0 1 78.36465 125.14212] CT
1 0 0 RC
N
f-1992514645
f
GR
GS
[1 0 0 1 78.36465 154.90981] CT
1 0 0 RC
N
f-1992514645
f
GR
GS
[1 0 0 1 78.36465 181.54654] CT
1 0 0 RC
N
f-1992514645
f
GR
GS
[1 0 0 1 78.36465 128.44318] CT
1 0 0 RC
N
f-1992514645
f
GR
GS
[1 0 0 1 78.36465 151.37691] CT
1 0 0 RC
N
f-1992514645
f
GR
GS
[1 0 0 1 78.36465 159.116] CT
1 0 0 RC
N
f-1992514645
f
GR
GS
[1 0 0 1 78.36465 172.03024] CT
1 0 0 RC
N
f-1992514645
f
GR
GS
[1 0 0 1 78.36465 129.6555] CT
1 0 0 RC
N
f-1992514645
f
GR
GS
[1 0 0 1 78.36465 127.51366] CT
1 0 0 RC
N
f-1992514645
f
GR
GS
[1 0 0 1 78.36465 156.89948] CT
1 0 0 RC
N
f-1992514645
f
GR
GS
[1 0 0 1 78.36465 156.13934] CT
1 0 0 RC
N
f-1992514645
f
GR
GS
[1 0 0 1 78.36465 168.7177] CT
1 0 0 RC
N
f-1992514645
f
GR
GS
[1 0 0 1 78.36465 161.58371] CT
1 0 0 RC
N
f-1992514645
f
GR
GS
[1 0 0 1 78.36465 156.13934] CT
1 0 0 RC
N
f-1992514645
f
GR
GS
[1 0 0 1 78.36465 167.4946] CT
1 0 0 RC
N
f-1992514645
f
GR
GS
[1 0 0 1 78.36465 204.88652] CT
1 0 0 RC
N
f-1992514645
f
GR
GS
[1 0 0 1 78.36465 178.18948] CT
1 0 0 RC
N
f-1992514645
f
GR
GS
[1 0 0 1 78.36465 167.4946] CT
1 0 0 RC
N
f-1992514645
f
GR
GS
[1 0 0 1 78.36465 163.69397] CT
1 0 0 RC
N
f-1992514645
f
GR
GS
[1 0 0 1 78.36465 195.92506] CT
1 0 0 RC
N
f-1992514645
f
GR
GS
[1 0 0 1 78.36465 163.89854] CT
1 0 0 RC
N
f-1992514645
f
GR
GS
[1 0 0 1 78.36465 163.69397] CT
1 0 0 RC
N
f-1992514645
f
GR
GS
[1 0 0 1 78.36465 167.87862] CT
1 0 0 RC
N
f-1992514645
f
GR
GS
[1 0 0 1 78.36465 165.53075] CT
1 0 0 RC
N
f-1992514645
f
GR
GS
[1 0 0 1 78.36465 171.19403] CT
1 0 0 RC
N
f-1992514645
f
GR
GS
[1 0 0 1 78.36465 167.87862] CT
1 0 0 RC
N
f-1992514645
f
GR
GS
[1 0 0 1 78.36465 157.96539] CT
1 0 0 RC
N
f-1992514645
f
GR
GS
[1 0 0 1 78.36465 121.97672] CT
1 0 0 RC
N
f-1992514645
f
GR
GS
[1 0 0 1 78.36465 224.19186] CT
1 0 0 RC
N
f-1992514645
f
GR
GS
[1 0 0 1 78.36465 172.98058] CT
1 0 0 RC
N
f-1992514645
f
GR
GS
[1 0 0 1 78.36465 123.57665] CT
1 0 0 RC
N
f-1992514645
f
GR
GS
[1 0 0 1 78.36465 131.15709] CT
1 0 0 RC
N
f-1992514645
f
GR
GS
[1 0 0 1 78.36465 132.61346] CT
1 0 0 RC
N
f-1992514645
f
GR
GS
[1 0 0 1 78.36465 201.67662] CT
1 0 0 RC
N
f-1992514645
f
GR
GS
[1 0 0 1 78.36465 125.52182] CT
1 0 0 RC
N
f-1992514645
f
GR
GS
[1 0 0 1 78.36465 215.13065] CT
1 0 0 RC
N
f-1992514645
f
GR
GS
[1 0 0 1 78.36465 129.78326] CT
1 0 0 RC
N
f-1992514645
f
GR
GS
[1 0 0 1 78.36465 144.4482] CT
1 0 0 RC
N
f-1992514645
f
GR
GS
[1 0 0 1 78.36465 156.15659] CT
1 0 0 RC
N
f-1992514645
f
GR
GS
[1 0 0 1 78.36465 143.07581] CT
1 0 0 RC
N
f-1992514645
f
GR
GS
[1 0 0 1 78.36465 216.51666] CT
1 0 0 RC
N
f-1992514645
f
GR
GS
[1 0 0 1 78.36465 206.81303] CT
1 0 0 RC
N
f-1992514645
f
GR
GS
[1 0 0 1 78.90112 249.77274] CT
0 0.702 0 RC
N
f-1992514645
f
GR
GS
[1 0 0 1 78.90112 260.52075] CT
0 0.702 0 RC
N
f-1992514645
f
GR
GS
[1 0 0 1 78.90112 275.47421] CT
0 0.702 0 RC
N
f-1992514645
f
GR
GS
[1 0 0 1 78.90112 264.87622] CT
0 0.702 0 RC
N
f-1992514645
f
GR
GS
[1 0 0 1 78.90112 243.42975] CT
0 0.702 0 RC
N
f-1992514645
f
GR
GS
[1 0 0 1 78.90112 281.5495] CT
0 0.702 0 RC
N
f-1992514645
f
GR
GS
[1 0 0 1 78.90112 290.89496] CT
0 0.702 0 RC
N
f-1992514645
f
GR
GS
[1 0 0 1 78.90112 282.48404] CT
0 0.702 0 RC
N
f-1992514645
f
GR
GS
[1 0 0 1 78.90112 304.91458] CT
0 0.702 0 RC
N
f-1992514645
f
GR
GS
[1 0 0 1 78.90112 298.83932] CT
0 0.702 0 RC
N
f-1992514645
f
GR
GS
[1 0 0 1 78.90112 289.02585] CT
0 0.702 0 RC
N
f-1992514645
f
GR
GS
[1 0 0 1 78.90112 290.42767] CT
0 0.702 0 RC
N
f-1992514645
f
GR
GS
[1 0 0 1 78.90112 291.36224] CT
0 0.702 0 RC
N
f-1992514645
f
GR
GS
[1 0 0 1 78.90112 278.27786] CT
0 0.702 0 RC
N
f-1992514645
f
GR
GS
[1 0 0 1 78.90112 290.89496] CT
0 0.702 0 RC
N
f-1992514645
f
GR
GS
[1 0 0 1 78.90112 290.89496] CT
0 0.702 0 RC
N
f-1992514645
f
GR
GS
[1 0 0 1 78.90112 278.27786] CT
0 0.702 0 RC
N
f-1992514645
f
GR
GS
[1 0 0 1 78.90112 268.5979] CT
0 0.702 0 RC
N
f-1992514645
f
GR
GS
[1 0 0 1 78.90112 276.88394] CT
0 0.702 0 RC
N
f-1992514645
f
GR
GS
[1 0 0 1 78.90112 269.31281] CT
0 0.702 0 RC
N
f-1992514645
f
GR
GS
[1 0 0 1 78.90112 283.07404] CT
0 0.702 0 RC
N
f-1992514645
f
GR
GS
[1 0 0 1 78.90112 274.36667] CT
0 0.702 0 RC
N
f-1992514645
f
GR
GS
[1 0 0 1 78.90112 264.91501] CT
0 0.702 0 RC
N
f-1992514645
f
GR
GS
[1 0 0 1 78.90112 271.07565] CT
0 0.702 0 RC
N
f-1992514645
f
GR
GS
[1 0 0 1 78.90112 277.0799] CT
0 0.702 0 RC
N
f-1992514645
f
GR
GS
[1 0 0 1 78.90112 265.58755] CT
0 0.702 0 RC
N
f-1992514645
f
GR
GS
[1 0 0 1 78.90112 284.00717] CT
0 0.702 0 RC
N
f-1992514645
f
GR
GS
[1 0 0 1 78.90112 258.40689] CT
0 0.702 0 RC
N
f-1992514645
f
GR
GS
[1 0 0 1 78.90112 274.87775] CT
0 0.702 0 RC
N
f-1992514645
f
GR
GS
[1 0 0 1 78.90112 272.92969] CT
0 0.702 0 RC
N
f-1992514645
f
GR
GS
[1 0 0 1 78.90112 291.1871] CT
0 0.702 0 RC
N
f-1992514645
f
GR
GS
[1 0 0 1 78.90112 268.49023] CT
0 0.702 0 RC
N
f-1992514645
f
GR
GS
[1 0 0 1 78.90112 255.92627] CT
0 0.702 0 RC
N
f-1992514645
f
GR
GS
[1 0 0 1 78.90112 263.534] CT
0 0.702 0 RC
N
f-1992514645
f
GR
GS
[1 0 0 1 78.90112 249.4684] CT
0 0.702 0 RC
N
f-1992514645
f
GR
GS
[1 0 0 1 78.90112 255.28384] CT
0 0.702 0 RC
N
f-1992514645
f
GR
GS
[1 0 0 1 78.90112 272.21118] CT
0 0.702 0 RC
N
f-1992514645
f
GR
GS
[1 0 0 1 78.90112 284.45578] CT
0 0.702 0 RC
N
f-1992514645
f
GR
GS
[1 0 0 1 78.90112 261.23636] CT
0 0.702 0 RC
N
f-1992514645
f
GR
GS
[1 0 0 1 78.90112 260.0535] CT
0 0.702 0 RC
N
f-1992514645
f
GR
GS
[1 0 0 1 78.90112 268.78741] CT
0 0.702 0 RC
N
f-1992514645
f
GR
GS
[1 0 0 1 78.90112 264.42548] CT
0 0.702 0 RC
N
f-1992514645
f
GR
GS
[1 0 0 1 78.90112 256.82202] CT
0 0.702 0 RC
N
f-1992514645
f
GR
GS
[1 0 0 1 78.90112 263.82471] CT
0 0.702 0 RC
N
f-1992514645
f
GR
GS
[1 0 0 1 78.90112 275.03708] CT
0 0.702 0 RC
N
f-1992514645
f
GR
GS
[1 0 0 1 78.90112 288.82272] CT
0 0.702 0 RC
N
f-1992514645
f
GR
GS
[1 0 0 1 78.90112 263.14423] CT
0 0.702 0 RC
N
f-1992514645
f
GR
GS
[1 0 0 1 78.90112 258.98975] CT
0 0.702 0 RC
N
f-1992514645
f
GR
GS
[1 0 0 1 78.90112 246.82053] CT
0 0.702 0 RC
N
f-1992514645
f
GR
GS
[1 0 0 1 78.90112 236.01654] CT
0 0.702 0 RC
N
f-1992514645
f
GR
GS
[1 0 0 1 78.90112 250.52643] CT
0 0.702 0 RC
N
f-1992514645
f
GR
GS
[1 0 0 1 78.90112 242.13559] CT
0 0.702 0 RC
N
f-1992514645
f
GR
GS
[1 0 0 1 78.90112 261.55939] CT
0 0.702 0 RC
N
f-1992514645
f
GR
GS
[1 0 0 1 78.90112 267.79614] CT
0 0.702 0 RC
N
f-1992514645
f
GR
GS
[1 0 0 1 78.90112 246.44083] CT
0 0.702 0 RC
N
f-1992514645
f
GR
GS
[1 0 0 1 78.90112 243.97238] CT
0 0.702 0 RC
N
f-1992514645
f
GR
GS
[1 0 0 1 78.90112 193.52338] CT
1 0 0 RC
N
f-1992514645
f
GR
GS
[1 0 0 1 78.90112 194.36389] CT
1 0 0 RC
N
f-1992514645
f
GR
GS
[1 0 0 1 78.90112 201.73044] CT
1 0 0 RC
N
f-1992514645
f
GR
GS
[1 0 0 1 78.90112 201.74696] CT
1 0 0 RC
N
f-1992514645
f
GR
GS
[1 0 0 1 78.90112 174.24673] CT
1 0 0 RC
N
f-1992514645
f
GR
GS
[1 0 0 1 78.90112 171.93333] CT
1 0 0 RC
N
f-1992514645
f
GR
GS
[1 0 0 1 78.90112 175.98088] CT
1 0 0 RC
N
f-1992514645
f
GR
GS
[1 0 0 1 78.90112 187.05548] CT
1 0 0 RC
N
f-1992514645
f
GR
GS
[1 0 0 1 78.90112 166.59235] CT
1 0 0 RC
N
f-1992514645
f
GR
GS
[1 0 0 1 78.90112 108.95264] CT
1 0 0 RC
N
f-1992514645
f
GR
GS
[1 0 0 1 78.90112 155.75966] CT
1 0 0 RC
N
f-1992514645
f
GR
GS
[1 0 0 1 78.90112 196.73543] CT
1 0 0 RC
N
f-1992514645
f
GR
GS
[1 0 0 1 78.90112 192.49695] CT
1 0 0 RC
N
f-1992514645
f
GR
GS
[1 0 0 1 78.90112 106.77778] CT
1 0 0 RC
N
f-1992514645
f
GR
GS
[1 0 0 1 78.90112 140.68848] CT
1 0 0 RC
N
f-1992514645
f
GR
GS
[1 0 0 1 78.90112 177.89592] CT
1 0 0 RC
N
f-1992514645
f
GR
GS
[1 0 0 1 78.90112 139.74675] CT
1 0 0 RC
N
f-1992514645
f
GR
GS
[1 0 0 1 78.90112 183.5477] CT
1 0 0 RC
N
f-1992514645
f
GR
GS
[1 0 0 1 78.90112 102.44743] CT
1 0 0 RC
N
f-1992514645
f
GR
GS
[1 0 0 1 78.90112 119.4444] CT
1 0 0 RC
N
f-1992514645
f
GR
GS
[1 0 0 1 78.90112 117.0987] CT
1 0 0 RC
N
f-1992514645
f
GR
GS
[1 0 0 1 78.90112 114.28429] CT
1 0 0 RC
N
f-1992514645
f
GR
GS
[1 0 0 1 78.90112 113.84286] CT
1 0 0 RC
N
f-1992514645
f
GR
GS
[1 0 0 1 78.90112 234.09433] CT
1 0 0 RC
N
f-1992514645
f
GR
GS
[1 0 0 1 78.90112 214.9146] CT
1 0 0 RC
N
f-1992514645
f
GR
GS
[1 0 0 1 78.90112 211.33217] CT
1 0 0 RC
N
f-1992514645
f
GR
GS
[1 0 0 1 78.90112 173.44856] CT
1 0 0 RC
N
f-1992514645
f
GR
GS
[1 0 0 1 78.90112 204.74225] CT
1 0 0 RC
N
f-1992514645
f
GR
GS
[1 0 0 1 78.90112 148.04713] CT
1 0 0 RC
N
f-1992514645
f
GR
GS
[1 0 0 1 78.90112 227.83746] CT
1 0 0 RC
N
f-1992514645
f
GR
GS
[1 0 0 1 78.90112 170.78992] CT
1 0 0 RC
N
f-1992514645
f
GR
GS
[1 0 0 1 78.90112 215.35745] CT
1 0 0 RC
N
f-1992514645
f
GR
GS
[1 0 0 1 78.90112 212.2782] CT
1 0 0 RC
N
f-1992514645
f
GR
GS
[1 0 0 1 78.90112 212.74905] CT
1 0 0 RC
N
f-1992514645
f
GR
GS
[1 0 0 1 78.90112 208.5802] CT
1 0 0 RC
N
f-1992514645
f
GR
GS
[1 0 0 1 78.90112 215.14786] CT
1 0 0 RC
N
f-1992514645
f
GR
GS
[1 0 0 1 81.04697 162.38689] CT
1 0 0 RC
N
f-1992514645
f
GR
GS
[1 0 0 1 81.04697 150.27942] CT
1 0 0 RC
N
f-1992514645
f
GR
GS
[1 0 0 1 81.04697 140.82269] CT
1 0 0 RC
N
f-1992514645
f
GR
GS
[1 0 0 1 81.04697 149.02977] CT
1 0 0 RC
N
f-1992514645
f
GR
GS
[1 0 0 1 81.04697 132.04428] CT
1 0 0 RC
N
f-1992514645
f
GR
GS
[1 0 0 1 81.04697 137.71616] CT
1 0 0 RC
N
f-1992514645
f
GR
GS
[1 0 0 1 81.04697 155.95346] CT
1 0 0 RC
N
f-1992514645
f
GR
GS
[1 0 0 1 81.04697 146.49457] CT
1 0 0 RC
N
f-1992514645
f
GR
GS
[1 0 0 1 81.04697 146.01653] CT
1 0 0 RC
N
f-1992514645
f
GR
GS
[1 0 0 1 81.04697 144.43025] CT
1 0 0 RC
N
f-1992514645
f
GR
GS
[1 0 0 1 81.04697 148.83524] CT
1 0 0 RC
N
f-1992514645
f
GR
GS
[1 0 0 1 81.04697 156.77888] CT
1 0 0 RC
N
f-1992514645
f
GR
GS
[1 0 0 1 81.04697 158.18144] CT
1 0 0 RC
N
f-1992514645
f
GR
GS
[1 0 0 1 81.04697 156.34535] CT
1 0 0 RC
N
f-1992514645
f
GR
GS
[1 0 0 1 81.04697 150.23706] CT
1 0 0 RC
N
f-1992514645
f
GR
GS
[1 0 0 1 81.04697 161.91962] CT
1 0 0 RC
N
f-1992514645
f
GR
GS
[1 0 0 1 81.04697 152.10617] CT
1 0 0 RC
N
f-1992514645
f
GR
GS
[1 0 0 1 81.04697 165.40083] CT
1 0 0 RC
N
f-1992514645
f
GR
GS
[1 0 0 1 81.04697 144.16179] CT
1 0 0 RC
N
f-1992514645
f
GR
GS
[1 0 0 1 81.04697 164.256] CT
1 0 0 RC
N
f-1992514645
f
GR
GS
[1 0 0 1 81.04697 159.116] CT
1 0 0 RC
N
f-1992514645
f
GR
GS
[1 0 0 1 81.58344 257.29507] CT
0 0.702 0 RC
N
f-1992514645
f
GR
GS
[1 0 0 1 81.58344 238.81731] CT
0 0.702 0 RC
N
f-1992514645
f
GR
GS
[1 0 0 1 81.58344 261.56369] CT
0 0.702 0 RC
N
f-1992514645
f
GR
GS
[1 0 0 1 81.58344 249.14685] CT
0 0.702 0 RC
N
f-1992514645
f
GR
GS
[1 0 0 1 81.58344 265.12601] CT
0 0.702 0 RC
N
f-1992514645
f
GR
GS
[1 0 0 1 81.58344 259.07944] CT
0 0.702 0 RC
N
f-1992514645
f
GR
GS
[1 0 0 1 81.58344 271.42236] CT
0 0.702 0 RC
N
f-1992514645
f
GR
GS
[1 0 0 1 81.58344 298.39215] CT
0 0.702 0 RC
N
f-1992514645
f
GR
GS
[1 0 0 1 81.58344 280.14694] CT
0 0.702 0 RC
N
f-1992514645
f
GR
GS
[1 0 0 1 81.58344 274.82895] CT
0 0.702 0 RC
N
f-1992514645
f
GR
GS
[1 0 0 1 81.58344 252.92308] CT
0 0.702 0 RC
N
f-1992514645
f
GR
GS
[1 0 0 1 81.58344 274.56982] CT
0 0.702 0 RC
N
f-1992514645
f
GR
GS
[1 0 0 1 81.58344 245.56656] CT
0 0.702 0 RC
N
f-1992514645
f
GR
GS
[1 0 0 1 81.58344 244.90694] CT
0 0.702 0 RC
N
f-1992514645
f
GR
GS
[1 0 0 1 81.58344 295.14206] CT
0 0.702 0 RC
N
f-1992514645
f
GR
GS
[1 0 0 1 81.58344 255.00391] CT
0 0.702 0 RC
N
f-1992514645
f
GR
GS
[1 0 0 1 81.58344 139.92833] CT
1 0 0 RC
N
f-1992514645
f
GR
GS
[1 0 0 1 81.58344 114.86066] CT
1 0 0 RC
N
f-1992514645
f
GR
GS
[1 0 0 1 81.58344 182.26575] CT
1 0 0 RC
N
f-1992514645
f
GR
GS
[1 0 0 1 81.58344 103.37624] CT
1 0 0 RC
N
f-1992514645
f
GR
GS
[1 0 0 1 81.58344 174.49294] CT
1 0 0 RC
N
f-1992514645
f
GR
GS
[1 0 0 1 81.58344 110.63656] CT
1 0 0 RC
N
f-1992514645
f
GR
GS
[1 0 0 1 81.58344 146.94534] CT
1 0 0 RC
N
f-1992514645
f
GR
GS
[1 0 0 1 81.58344 77.33023] CT
1 0 0 RC
N
f-1992514645
f
GR
GS
[1 0 0 1 81.58344 165.85449] CT
1 0 0 RC
N
f-1992514645
f
GR
GS
[1 0 0 1 81.58344 172.42789] CT
1 0 0 RC
N
f-1992514645
f
GR
GS
[1 0 0 1 81.58344 112.75902] CT
1 0 0 RC
N
f-1992514645
f
GR
GS
[1 0 0 1 81.58344 168.84976] CT
1 0 0 RC
N
f-1992514645
f
GR
GS
[1 0 0 1 81.58344 173.48015] CT
1 0 0 RC
N
f-1992514645
f
GR
GS
[1 0 0 1 81.58344 145.32532] CT
1 0 0 RC
N
f-1992514645
f
GR
GS
[1 0 0 1 81.58344 110.65737] CT
1 0 0 RC
N
f-1992514645
f
GR
GS
[1 0 0 1 81.58344 138.2186] CT
1 0 0 RC
N
f-1992514645
f
GR
GS
[1 0 0 1 81.58344 164.8015] CT
1 0 0 RC
N
f-1992514645
f
GR
GS
[1 0 0 1 81.58344 119.92387] CT
1 0 0 RC
N
f-1992514645
f
GR
GS
[1 0 0 1 81.58344 115.13918] CT
1 0 0 RC
N
f-1992514645
f
GR
GS
[1 0 0 1 81.58344 143.35214] CT
1 0 0 RC
N
f-1992514645
f
GR
GS
[1 0 0 1 81.58344 167.67978] CT
1 0 0 RC
N
f-1992514645
f
GR
GS
[1 0 0 1 81.58344 132.03279] CT
1 0 0 RC
N
f-1992514645
f
GR
GS
[1 0 0 1 81.58344 94.49156] CT
1 0 0 RC
N
f-1992514645
f
GR
GS
[1 0 0 1 81.58344 135.91812] CT
1 0 0 RC
N
f-1992514645
f
GR
GS
[1 0 0 1 81.58344 231.75653] CT
1 0 0 RC
N
f-1992514645
f
GR
GS
[1 0 0 1 81.58344 228.34492] CT
1 0 0 RC
N
f-1992514645
f
GR
GS
[1 0 0 1 81.58344 224.92471] CT
1 0 0 RC
N
f-1992514645
f
GR
GS
[1 0 0 1 81.58344 227.54675] CT
1 0 0 RC
N
f-1992514645
f
GR
GS
[1 0 0 1 81.58344 211.59631] CT
1 0 0 RC
N
f-1992514645
f
GR
GS
[1 0 0 1 82.1199 260.74542] CT
0 0.702 0 RC
N
f-1992514645
f
GR
GS
[1 0 0 1 82.1199 300.3811] CT
0 0.702 0 RC
N
f-1992514645
f
GR
GS
[1 0 0 1 82.1199 261.59238] CT
0 0.702 0 RC
N
f-1992514645
f
GR
GS
[1 0 0 1 82.1199 252.79604] CT
0 0.702 0 RC
N
f-1992514645
f
GR
GS
[1 0 0 1 82.1199 139.54578] CT
1 0 0 RC
N
f-1992514645
f
GR
GS
[1 0 0 1 82.1199 216.20229] CT
1 0 0 RC
N
f-1992514645
f
GR
GS
[1 0 0 1 82.1199 133.77412] CT
1 0 0 RC
N
f-1992514645
f
GR
GS
[1 0 0 1 82.1199 125.66681] CT
1 0 0 RC
N
f-1992514645
f
GR
GS
[1 0 0 1 82.1199 137.18069] CT
1 0 0 RC
N
f-1992514645
f
GR
GS
[1 0 0 1 82.1199 139.67567] CT
1 0 0 RC
N
f-1992514645
f
GR
GS
[1 0 0 1 82.1199 115.39111] CT
1 0 0 RC
N
f-1992514645
f
GR
GS
[1 0 0 1 82.1199 133.36211] CT
1 0 0 RC
N
f-1992514645
f
GR
GS
[1 0 0 1 82.1199 138.18054] CT
1 0 0 RC
N
f-1992514645
f
GR
GS
[1 0 0 1 82.1199 154.30185] CT
1 0 0 RC
N
f-1992514645
f
GR
GS
[1 0 0 1 82.1199 176.41298] CT
1 0 0 RC
N
f-1992514645
f
GR
GS
[1 0 0 1 82.1199 170.45186] CT
1 0 0 RC
N
f-1992514645
f
GR
GS
[1 0 0 1 82.1199 198.80048] CT
1 0 0 RC
N
f-1992514645
f
GR
GS
[1 0 0 1 82.1199 137.53958] CT
1 0 0 RC
N
f-1992514645
f
GR
GS
[1 0 0 1 82.1199 127.46557] CT
1 0 0 RC
N
f-1992514645
f
GR
GS
[1 0 0 1 82.1199 163.44418] CT
1 0 0 RC
N
f-1992514645
f
GR
GS
[1 0 0 1 82.1199 153.65944] CT
1 0 0 RC
N
f-1992514645
f
GR
GS
[1 0 0 1 82.1199 161.52341] CT
1 0 0 RC
N
f-1992514645
f
GR
GS
[1 0 0 1 82.1199 125.57639] CT
1 0 0 RC
N
f-1992514645
f
GR
GS
[1 0 0 1 82.1199 145.94833] CT
1 0 0 RC
N
f-1992514645
f
GR
GS
[1 0 0 1 82.1199 162.45436] CT
1 0 0 RC
N
f-1992514645
f
GR
GS
[1 0 0 1 82.1199 144.08141] CT
1 0 0 RC
N
f-1992514645
f
GR
GS
[1 0 0 1 83.19283 286.46628] CT
0 0.702 0 RC
N
f-1992514645
f
GR
GS
[1 0 0 1 83.19283 283.27145] CT
0 0.702 0 RC
N
f-1992514645
f
GR
GS
[1 0 0 1 83.19283 262.54059] CT
0 0.702 0 RC
N
f-1992514645
f
GR
GS
[1 0 0 1 83.19283 293.91608] CT
0 0.702 0 RC
N
f-1992514645
f
GR
GS
[1 0 0 1 83.19283 312.71539] CT
0 0.702 0 RC
N
f-1992514645
f
GR
GS
[1 0 0 1 83.19283 289.44864] CT
0 0.702 0 RC
N
f-1992514645
f
GR
GS
[1 0 0 1 83.19283 298.27945] CT
0 0.702 0 RC
N
f-1992514645
f
GR
GS
[1 0 0 1 83.19283 292.13312] CT
0 0.702 0 RC
N
f-1992514645
f
GR
GS
[1 0 0 1 83.19283 320.85211] CT
0 0.702 0 RC
N
f-1992514645
f
GR
GS
[1 0 0 1 83.19283 308.68219] CT
0 0.702 0 RC
N
f-1992514645
f
GR
GS
[1 0 0 1 83.19283 294.00293] CT
0 0.702 0 RC
N
f-1992514645
f
GR
GS
[1 0 0 1 83.19283 292.8143] CT
0 0.702 0 RC
N
f-1992514645
f
GR
GS
[1 0 0 1 83.19283 311.08319] CT
0 0.702 0 RC
N
f-1992514645
f
GR
GS
[1 0 0 1 83.19283 305.67401] CT
0 0.702 0 RC
N
f-1992514645
f
GR
GS
[1 0 0 1 83.19283 307.92926] CT
0 0.702 0 RC
N
f-1992514645
f
GR
GS
[1 0 0 1 83.19283 280.65228] CT
0 0.702 0 RC
N
f-1992514645
f
GR
GS
[1 0 0 1 83.19283 315.14938] CT
0 0.702 0 RC
N
f-1992514645
f
GR
GS
[1 0 0 1 83.19283 298.76395] CT
0 0.702 0 RC
N
f-1992514645
f
GR
GS
[1 0 0 1 83.19283 160.87094] CT
1 0 0 RC
N
f-1992514645
f
GR
GS
[1 0 0 1 83.19283 161.76889] CT
1 0 0 RC
N
f-1992514645
f
GR
GS
[1 0 0 1 83.19283 149.93848] CT
1 0 0 RC
N
f-1992514645
f
GR
GS
[1 0 0 1 83.19283 182.56146] CT
1 0 0 RC
N
f-1992514645
f
GR
GS
[1 0 0 1 83.19283 180.16411] CT
1 0 0 RC
N
f-1992514645
f
GR
GS
[1 0 0 1 83.19283 164.88332] CT
1 0 0 RC
N
f-1992514645
f
GR
GS
[1 0 0 1 83.19283 155.14955] CT
1 0 0 RC
N
f-1992514645
f
GR
GS
[1 0 0 1 83.19283 135.72072] CT
1 0 0 RC
N
f-1992514645
f
GR
GS
[1 0 0 1 83.19283 141.02438] CT
1 0 0 RC
N
f-1992514645
f
GR
GS
[1 0 0 1 83.19283 167.7652] CT
1 0 0 RC
N
f-1992514645
f
GR
GS
[1 0 0 1 83.19283 191.62558] CT
1 0 0 RC
N
f-1992514645
f
GR
GS
[1 0 0 1 83.19283 184.38893] CT
1 0 0 RC
N
f-1992514645
f
GR
GS
[1 0 0 1 83.19283 204.98915] CT
1 0 0 RC
N
f-1992514645
f
GR
GS
[1 0 0 1 83.19283 177.70428] CT
1 0 0 RC
N
f-1992514645
f
GR
GS
[1 0 0 1 83.19283 192.91112] CT
1 0 0 RC
N
f-1992514645
f
GR
GS
[1 0 0 1 83.19283 201.48425] CT
1 0 0 RC
N
f-1992514645
f
GR
GS
[1 0 0 1 83.19283 204.27353] CT
1 0 0 RC
N
f-1992514645
f
GR
GS
[1 0 0 1 83.19283 187.46892] CT
1 0 0 RC
N
f-1992514645
f
GR
GS
[1 0 0 1 83.19283 213.23212] CT
1 0 0 RC
N
f-1992514645
f
GR
GS
[1 0 0 1 83.19283 206.63358] CT
1 0 0 RC
N
f-1992514645
f
GR
GS
[1 0 0 1 83.19283 225.36256] CT
1 0 0 RC
N
f-1992514645
f
GR
GS
[1 0 0 1 83.19283 234.31685] CT
1 0 0 RC
N
f-1992514645
f
GR
GS
[1 0 0 1 83.19283 214.29945] CT
1 0 0 RC
N
f-1992514645
f
GR
GS
[1 0 0 1 83.19283 224.26149] CT
1 0 0 RC
N
f-1992514645
f
GR
GS
[1 0 0 1 83.19283 204.74582] CT
1 0 0 RC
N
f-1992514645
f
GR
GS
[1 0 0 1 83.19283 233.18779] CT
1 0 0 RC
N
f-1992514645
f
GR
GS
[1 0 0 1 83.19283 234.9169] CT
1 0 0 RC
N
f-1992514645
f
GR
GS
[1 0 0 1 84.26576 301.11469] CT
0 0.702 0 RC
N
f-1992514645
f
GR
GS
[1 0 0 1 84.26576 284.07748] CT
0 0.702 0 RC
N
f-1992514645
f
GR
GS
[1 0 0 1 84.26576 300.57779] CT
0 0.702 0 RC
N
f-1992514645
f
GR
GS
[1 0 0 1 84.26576 302.57965] CT
0 0.702 0 RC
N
f-1992514645
f
GR
GS
[1 0 0 1 84.26576 143.58685] CT
1 0 0 RC
N
f-1992514645
f
GR
GS
[1 0 0 1 84.26576 146.14287] CT
1 0 0 RC
N
f-1992514645
f
GR
GS
[1 0 0 1 84.26576 139.22778] CT
1 0 0 RC
N
f-1992514645
f
GR
GS
[1 0 0 1 84.26576 163.01424] CT
1 0 0 RC
N
f-1992514645
f
GR
GS
[1 0 0 1 84.26576 134.86873] CT
1 0 0 RC
N
f-1992514645
f
GR
GS
[1 0 0 1 84.26576 152.27769] CT
1 0 0 RC
N
f-1992514645
f
GR
GS
[1 0 0 1 84.26576 169.82594] CT
1 0 0 RC
N
f-1992514645
f
GR
GS
[1 0 0 1 84.26576 174.26109] CT
1 0 0 RC
N
f-1992514645
f
GR
GS
[1 0 0 1 84.26576 194.26842] CT
1 0 0 RC
N
f-1992514645
f
GR
GS
[1 0 0 1 84.26576 161.60811] CT
1 0 0 RC
N
f-1992514645
f
GR
GS
[1 0 0 1 84.26576 154.13101] CT
1 0 0 RC
N
f-1992514645
f
GR
GS
[1 0 0 1 84.26576 187.35767] CT
1 0 0 RC
N
f-1992514645
f
GR
GS
[1 0 0 1 84.26576 151.72504] CT
1 0 0 RC
N
f-1992514645
f
GR
GS
[1 0 0 1 84.26576 186.17332] CT
1 0 0 RC
N
f-1992514645
f
GR
GS
[1 0 0 1 84.26576 188.74657] CT
1 0 0 RC
N
f-1992514645
f
GR
GS
[1 0 0 1 84.26576 189.07101] CT
1 0 0 RC
N
f-1992514645
f
GR
GS
[1 0 0 1 84.26576 218.00104] CT
1 0 0 RC
N
f-1992514645
f
GR
GS
[1 0 0 1 84.26576 183.34099] CT
1 0 0 RC
N
f-1992514645
f
GR
GS
[1 0 0 1 84.26576 134.12152] CT
1 0 0 RC
N
f-1992514645
f
GR
GS
[1 0 0 1 84.26576 176.35341] CT
1 0 0 RC
N
f-1992514645
f
GR
GS
[1 0 0 1 84.26576 122.99885] CT
1 0 0 RC
N
f-1992514645
f
GR
GS
[1 0 0 1 84.26576 205.17433] CT
1 0 0 RC
N
f-1992514645
f
GR
GS
[1 0 0 1 84.26576 140.63536] CT
1 0 0 RC
N
f-1992514645
f
GR
GS
[1 0 0 1 84.26576 102.36776] CT
1 0 0 RC
N
f-1992514645
f
GR
GS
[1 0 0 1 84.26576 141.11554] CT
1 0 0 RC
N
f-1992514645
f
GR
GS
[1 0 0 1 84.26576 128.22067] CT
1 0 0 RC
N
f-1992514645
f
GR
GS
[1 0 0 1 91.2398 247.30359] CT
0 0.702 0 RC
N
f-1992514645
f
GR
GS
[1 0 0 1 91.2398 263.79166] CT
0 0.702 0 RC
N
f-1992514645
f
GR
GS
[1 0 0 1 91.2398 242.97969] CT
0 0.702 0 RC
N
f-1992514645
f
GR
GS
[1 0 0 1 91.2398 270.6077] CT
0 0.702 0 RC
N
f-1992514645
f
GR
GS
[1 0 0 1 91.2398 268.10406] CT
0 0.702 0 RC
N
f-1992514645
f
GR
GS
[1 0 0 1 91.2398 253.0975] CT
0 0.702 0 RC
N
f-1992514645
f
GR
GS
[1 0 0 1 91.2398 263.73209] CT
0 0.702 0 RC
N
f-1992514645
f
GR
GS
[1 0 0 1 91.2398 274.75787] CT
0 0.702 0 RC
N
f-1992514645
f
GR
GS
[1 0 0 1 91.2398 248.2446] CT
0 0.702 0 RC
N
f-1992514645
f
GR
GS
[1 0 0 1 91.2398 260.11234] CT
0 0.702 0 RC
N
f-1992514645
f
GR
GS
[1 0 0 1 91.2398 261.15454] CT
0 0.702 0 RC
N
f-1992514645
f
GR
GS
[1 0 0 1 91.2398 237.24034] CT
0 0.702 0 RC
N
f-1992514645
f
GR
GS
[1 0 0 1 91.2398 249.01477] CT
0 0.702 0 RC
N
f-1992514645
f
GR
GS
[1 0 0 1 91.2398 246.50111] CT
0 0.702 0 RC
N
f-1992514645
f
GR
GS
[1 0 0 1 91.2398 236.33739] CT
0 0.702 0 RC
N
f-1992514645
f
GR
GS
[1 0 0 1 91.2398 249.01477] CT
0 0.702 0 RC
N
f-1992514645
f
GR
GS
[1 0 0 1 91.2398 242.82681] CT
0 0.702 0 RC
N
f-1992514645
f
GR
GS
[1 0 0 1 91.2398 255.46042] CT
0 0.702 0 RC
N
f-1992514645
f
GR
GS
[1 0 0 1 91.2398 248.06874] CT
0 0.702 0 RC
N
f-1992514645
f
GR
GS
[1 0 0 1 91.2398 246.18889] CT
0 0.702 0 RC
N
f-1992514645
f
GR
GS
[1 0 0 1 91.2398 250.89822] CT
0 0.702 0 RC
N
f-1992514645
f
GR
GS
[1 0 0 1 91.2398 264.72623] CT
0 0.702 0 RC
N
f-1992514645
f
GR
GS
[1 0 0 1 91.2398 250.33333] CT
0 0.702 0 RC
N
f-1992514645
f
GR
GS
[1 0 0 1 91.2398 245.24644] CT
0 0.702 0 RC
N
f-1992514645
f
GR
GS
[1 0 0 1 91.2398 251.36981] CT
0 0.702 0 RC
N
f-1992514645
f
GR
GS
[1 0 0 1 91.2398 299.77386] CT
0 0.702 0 RC
N
f-1992514645
f
GR
GS
[1 0 0 1 91.2398 277.34332] CT
0 0.702 0 RC
N
f-1992514645
f
GR
GS
[1 0 0 1 91.2398 274.53967] CT
0 0.702 0 RC
N
f-1992514645
f
GR
GS
[1 0 0 1 91.2398 278.27786] CT
0 0.702 0 RC
N
f-1992514645
f
GR
GS
[1 0 0 1 91.2398 271.9133] CT
0 0.702 0 RC
N
f-1992514645
f
GR
GS
[1 0 0 1 91.2398 280.82739] CT
0 0.702 0 RC
N
f-1992514645
f
GR
GS
[1 0 0 1 91.2398 266.12662] CT
0 0.702 0 RC
N
f-1992514645
f
GR
GS
[1 0 0 1 91.2398 266.12662] CT
0 0.702 0 RC
N
f-1992514645
f
GR
GS
[1 0 0 1 91.2398 147.59279] CT
1 0 0 RC
N
f-1992514645
f
GR
GS
[1 0 0 1 91.2398 150.74454] CT
1 0 0 RC
N
f-1992514645
f
GR
GS
[1 0 0 1 91.2398 126.87196] CT
1 0 0 RC
N
f-1992514645
f
GR
GS
[1 0 0 1 91.2398 139.61754] CT
1 0 0 RC
N
f-1992514645
f
GR
GS
[1 0 0 1 91.2398 153.8116] CT
1 0 0 RC
N
f-1992514645
f
GR
GS
[1 0 0 1 91.2398 131.07744] CT
1 0 0 RC
N
f-1992514645
f
GR
GS
[1 0 0 1 91.2398 138.20998] CT
1 0 0 RC
N
f-1992514645
f
GR
GS
[1 0 0 1 91.2398 143.07581] CT
1 0 0 RC
N
f-1992514645
f
GR
GS
[1 0 0 1 91.2398 130.61015] CT
1 0 0 RC
N
f-1992514645
f
GR
GS
[1 0 0 1 91.2398 136.80243] CT
1 0 0 RC
N
f-1992514645
f
GR
GS
[1 0 0 1 91.2398 134.896] CT
1 0 0 RC
N
f-1992514645
f
GR
GS
[1 0 0 1 91.2398 131.54471] CT
1 0 0 RC
N
f-1992514645
f
GR
GS
[1 0 0 1 91.2398 139.61754] CT
1 0 0 RC
N
f-1992514645
f
GR
GS
[1 0 0 1 91.2398 145.63181] CT
1 0 0 RC
N
f-1992514645
f
GR
GS
[1 0 0 1 91.2398 126.87196] CT
1 0 0 RC
N
f-1992514645
f
GR
GS
[1 0 0 1 91.2398 151.81474] CT
1 0 0 RC
N
f-1992514645
f
GR
GS
[1 0 0 1 91.2398 135.40706] CT
1 0 0 RC
N
f-1992514645
f
GR
GS
[1 0 0 1 91.2398 139.02179] CT
1 0 0 RC
N
f-1992514645
f
GR
GS
[1 0 0 1 91.2398 235.82704] CT
1 0 0 RC
N
f-1992514645
f
GR
GS
[1 0 0 1 91.2398 226.90004] CT
1 0 0 RC
N
f-1992514645
f
GR
GS
[1 0 0 1 91.2398 156.9081] CT
1 0 0 RC
N
f-1992514645
f
GR
GS
[1 0 0 1 91.2398 222.94725] CT
1 0 0 RC
N
f-1992514645
f
GR
GS
[1 0 0 1 91.2398 214.09991] CT
1 0 0 RC
N
f-1992514645
f
GR
GS
[1 0 0 1 91.2398 231.11699] CT
1 0 0 RC
N
f-1992514645
f
GR
GS
[1 0 0 1 91.2398 232.53029] CT
1 0 0 RC
N
f-1992514645
f
GR
GS
[1 0 0 1 91.2398 219.86511] CT
1 0 0 RC
N
f-1992514645
f
GR
GS
[1 0 0 1 91.2398 175.1375] CT
1 0 0 RC
N
f-1992514645
f
GR
GS
[1 0 0 1 91.2398 222.46919] CT
1 0 0 RC
N
f-1992514645
f
GR
GS
[1 0 0 1 91.2398 224.53783] CT
1 0 0 RC
N
f-1992514645
f
GR
GS
[1 0 0 1 91.2398 123.86806] CT
1 0 0 RC
N
f-1992514645
f
GR
GS
[1 0 0 1 91.2398 196.5] CT
1 0 0 RC
N
f-1992514645
f
GR
GS
[1 0 0 1 91.2398 175.47127] CT
1 0 0 RC
N
f-1992514645
f
GR
GS
[1 0 0 1 91.2398 191.6916] CT
1 0 0 RC
N
f-1992514645
f
GR
GS
[1 0 0 1 91.2398 217.42323] CT
1 0 0 RC
N
f-1992514645
f
GR
GS
[1 0 0 1 91.77627 251.09274] CT
0 0.702 0 RC
N
f-1992514645
f
GR
GS
[1 0 0 1 91.77627 238.60484] CT
0 0.702 0 RC
N
f-1992514645
f
GR
GS
[1 0 0 1 91.77627 241.59871] CT
0 0.702 0 RC
N
f-1992514645
f
GR
GS
[1 0 0 1 91.77627 241.72] CT
0 0.702 0 RC
N
f-1992514645
f
GR
GS
[1 0 0 1 91.77627 240.06624] CT
0 0.702 0 RC
N
f-1992514645
f
GR
GS
[1 0 0 1 91.77627 205.37891] CT
1 0 0 RC
N
f-1992514645
f
GR
GS
[1 0 0 1 91.77627 231.09903] CT
1 0 0 RC
N
f-1992514645
f
GR
GS
[1 0 0 1 91.77627 231.08038] CT
1 0 0 RC
N
f-1992514645
f
GR
GS
[1 0 0 1 91.77627 205.37891] CT
1 0 0 RC
N
f-1992514645
f
GR
GS
[1 0 0 1 91.77627 226.40765] CT
1 0 0 RC
N
f-1992514645
f
GR
GS
[1 0 0 1 91.77627 221.73421] CT
1 0 0 RC
N
f-1992514645
f
GR
GS
[1 0 0 1 91.77627 211.45346] CT
1 0 0 RC
N
f-1992514645
f
GR
GS
[1 0 0 1 91.77627 225.46521] CT
1 0 0 RC
N
f-1992514645
f
GR
GS
[1 0 0 1 91.77627 234.91833] CT
1 0 0 RC
N
f-1992514645
f
GR
GS
[1 0 0 1 91.77627 209.4523] CT
1 0 0 RC
N
f-1992514645
f
GR
GS
[1 0 0 1 91.77627 172.79755] CT
1 0 0 RC
N
f-1992514645
f
GR
GS
[1 0 0 1 91.77627 192.98863] CT
1 0 0 RC
N
f-1992514645
f
GR
GS
[1 0 0 1 91.77627 202.93919] CT
1 0 0 RC
N
f-1992514645
f
GR
GS
[1 0 0 1 91.77627 187.66129] CT
1 0 0 RC
N
f-1992514645
f
GR
GS
[1 0 0 1 94.45859 264.85971] CT
0 0.702 0 RC
N
f-1992514645
f
GR
GS
[1 0 0 1 94.45859 256.17676] CT
0 0.702 0 RC
N
f-1992514645
f
GR
GS
[1 0 0 1 94.45859 267.3009] CT
0 0.702 0 RC
N
f-1992514645
f
GR
GS
[1 0 0 1 94.45859 260.03625] CT
0 0.702 0 RC
N
f-1992514645
f
GR
GS
[1 0 0 1 94.45859 283.17023] CT
0 0.702 0 RC
N
f-1992514645
f
GR
GS
[1 0 0 1 94.45859 256.72803] CT
0 0.702 0 RC
N
f-1992514645
f
GR
GS
[1 0 0 1 94.45859 237.84616] CT
0 0.702 0 RC
N
f-1992514645
f
GR
GS
[1 0 0 1 94.45859 123.86806] CT
1 0 0 RC
N
f-1992514645
f
GR
GS
[1 0 0 1 94.45859 124.29945] CT
1 0 0 RC
N
f-1992514645
f
GR
GS
[1 0 0 1 94.45859 132.45412] CT
1 0 0 RC
N
f-1992514645
f
GR
GS
[1 0 0 1 94.45859 110.42121] CT
1 0 0 RC
N
f-1992514645
f
GR
GS
[1 0 0 1 94.45859 96.55305] CT
1 0 0 RC
N
f-1992514645
f
GR
GS
[1 0 0 1 94.45859 104.7924] CT
1 0 0 RC
N
f-1992514645
f
GR
GS
[1 0 0 1 94.45859 118.88598] CT
1 0 0 RC
N
f-1992514645
f
GR
GS
[1 0 0 1 94.45859 87.59658] CT
1 0 0 RC
N
f-1992514645
f
GR
GS
[1 0 0 1 94.45859 137.9243] CT
1 0 0 RC
N
f-1992514645
f
GR
GS
[1 0 0 1 94.45859 140.75522] CT
1 0 0 RC
N
f-1992514645
f
GR
GS
[1 0 0 1 94.45859 147.56049] CT
1 0 0 RC
N
f-1992514645
f
GR
GS
[1 0 0 1 94.45859 135.09267] CT
1 0 0 RC
N
f-1992514645
f
GR
GS
[1 0 0 1 94.45859 95.23448] CT
1 0 0 RC
N
f-1992514645
f
GR
GS
[1 0 0 1 94.45859 101.57674] CT
1 0 0 RC
N
f-1992514645
f
GR
GS
[1 0 0 1 94.45859 154.02621] CT
1 0 0 RC
N
f-1992514645
f
GR
GS
[1 0 0 1 94.45859 84.66159] CT
1 0 0 RC
N
f-1992514645
f
GR
GS
[1 0 0 1 94.45859 129.39424] CT
1 0 0 RC
N
f-1992514645
f
GR
GS
[1 0 0 1 94.45859 128.90903] CT
1 0 0 RC
N
f-1992514645
f
GR
GS
[1 0 0 1 94.45859 140.27432] CT
1 0 0 RC
N
f-1992514645
f
GR
GS
[1 0 0 1 94.45859 103.84565] CT
1 0 0 RC
N
f-1992514645
f
GR
GS
[1 0 0 1 94.45859 118.56369] CT
1 0 0 RC
N
f-1992514645
f
GR
GS
[1 0 0 1 94.45859 116.69819] CT
1 0 0 RC
N
f-1992514645
f
GR
GS
[1 0 0 1 94.45859 126.32143] CT
1 0 0 RC
N
f-1992514645
f
GR
GS
[1 0 0 1 94.45859 144.86882] CT
1 0 0 RC
N
f-1992514645
f
GR
GS
[1 0 0 1 94.45859 139.51204] CT
1 0 0 RC
N
f-1992514645
f
GR
GS
[1 0 0 1 94.45859 214.68848] CT
1 0 0 RC
N
f-1992514645
f
GR
GS
[1 0 0 1 94.45859 222.0127] CT
1 0 0 RC
N
f-1992514645
f
GR
GS
[1 0 0 1 94.45859 197.13092] CT
1 0 0 RC
N
f-1992514645
f
GR
GS
[1 0 0 1 94.45859 216.1951] CT
1 0 0 RC
N
f-1992514645
f
GR
GS
[1 0 0 1 94.45859 211.8181] CT
1 0 0 RC
N
f-1992514645
f
GR
GS
[1 0 0 1 94.45859 193.23267] CT
1 0 0 RC
N
f-1992514645
f
GR
GS
[1 0 0 1 94.45859 213.00459] CT
1 0 0 RC
N
f-1992514645
f
GR
GS
[1 0 0 1 94.45859 218.46544] CT
1 0 0 RC
N
f-1992514645
f
GR
GS
[1 0 0 1 94.45859 197.26659] CT
1 0 0 RC
N
f-1992514645
f
GR
GS
[1 0 0 1 94.45859 230.73154] CT
1 0 0 RC
N
f-1992514645
f
GR
GS
[1 0 0 1 94.45859 216.59418] CT
1 0 0 RC
N
f-1992514645
f
GR
GS
[1 0 0 1 94.45859 216.79875] CT
1 0 0 RC
N
f-1992514645
f
GR
GS
[1 0 0 1 94.45859 214.7251] CT
1 0 0 RC
N
f-1992514645
f
GR
GS
[1 0 0 1 94.45859 206.30556] CT
1 0 0 RC
N
f-1992514645
f
GR
GS
[1 0 0 1 96.06799 238.8575] CT
0 0.702 0 RC
N
f-1992514645
f
GR
GS
[1 0 0 1 96.06799 238.12608] CT
0 0.702 0 RC
N
f-1992514645
f
GR
GS
[1 0 0 1 96.06799 238.46704] CT
0 0.702 0 RC
N
f-1992514645
f
GR
GS
[1 0 0 1 96.06799 114.51256] CT
1 0 0 RC
N
f-1992514645
f
GR
GS
[1 0 0 1 96.06799 142.42262] CT
1 0 0 RC
N
f-1992514645
f
GR
GS
[1 0 0 1 96.06799 129.58876] CT
1 0 0 RC
N
f-1992514645
f
GR
GS
[1 0 0 1 96.06799 101.4131] CT
1 0 0 RC
N
f-1992514645
f
GR
GS
[1 0 0 1 96.06799 151.89227] CT
1 0 0 RC
N
f-1992514645
f
GR
GS
[1 0 0 1 96.06799 113.13012] CT
1 0 0 RC
N
f-1992514645
f
GR
GS
[1 0 0 1 96.06799 116.57471] CT
1 0 0 RC
N
f-1992514645
f
GR
GS
[1 0 0 1 96.06799 144.3757] CT
1 0 0 RC
N
f-1992514645
f
GR
GS
[1 0 0 1 96.06799 128.57452] CT
1 0 0 RC
N
f-1992514645
f
GR
GS
[1 0 0 1 96.06799 133.90044] CT
1 0 0 RC
N
f-1992514645
f
GR
GS
[1 0 0 1 96.06799 146.30292] CT
1 0 0 RC
N
f-1992514645
f
GR
GS
[1 0 0 1 96.06799 138.51648] CT
1 0 0 RC
N
f-1992514645
f
GR
GS
[1 0 0 1 96.06799 138.14754] CT
1 0 0 RC
N
f-1992514645
f
GR
GS
[1 0 0 1 96.06799 142.13406] CT
1 0 0 RC
N
f-1992514645
f
GR
GS
[1 0 0 1 96.06799 146.82977] CT
1 0 0 RC
N
f-1992514645
f
GR
GS
[1 0 0 1 96.06799 226.89575] CT
1 0 0 RC
N
f-1992514645
f
GR
GS
[1 0 0 1 96.06799 229.08997] CT
1 0 0 RC
N
f-1992514645
f
GR
GS
[1 0 0 1 96.06799 207.36429] CT
1 0 0 RC
N
f-1992514645
f
GR
GS
[1 0 0 1 96.06799 174.58411] CT
1 0 0 RC
N
f-1992514645
f
GR
GS
[1 0 0 1 96.06799 173.83473] CT
1 0 0 RC
N
f-1992514645
f
GR
GS
[1 0 0 1 96.06799 156.66406] CT
1 0 0 RC
N
f-1992514645
f
GR
GS
[1 0 0 1 96.06799 229.38571] CT
1 0 0 RC
N
f-1992514645
f
GR
GS
[1 0 0 1 96.06799 221.4435] CT
1 0 0 RC
N
f-1992514645
f
GR
GS
[1 0 0 1 96.06799 207.89328] CT
1 0 0 RC
N
f-1992514645
f
GR
GS
[1 0 0 1 96.06799 226.40765] CT
1 0 0 RC
N
f-1992514645
f
GR
GS
[1 0 0 1 96.06799 208.9118] CT
1 0 0 RC
N
f-1992514645
f
GR
GS
[1 0 0 1 96.06799 222.97523] CT
1 0 0 RC
N
f-1992514645
f
GR
GS
[1 0 0 1 96.06799 230.8019] CT
1 0 0 RC
N
f-1992514645
f
GR
GS
[1 0 0 1 96.06799 213.33044] CT
1 0 0 RC
N
f-1992514645
f
GR
GS
[1 0 0 1 96.06799 227.85468] CT
1 0 0 RC
N
f-1992514645
f
GR
GS
[1 0 0 1 104.65142 198.31598] CT
1 0 0 RC
N
f-1992514645
f
GR
GS
[1 0 0 1 104.65142 203.23778] CT
1 0 0 RC
N
f-1992514645
f
GR
GS
[1 0 0 1 104.65142 199.24048] CT
1 0 0 RC
N
f-1992514645
f
GR
GS
[1 0 0 1 104.65142 202.10727] CT
1 0 0 RC
N
f-1992514645
f
GR
GS
[1 0 0 1 104.65142 204.56639] CT
1 0 0 RC
N
f-1992514645
f
GR
GS
[1 0 0 1 104.65142 202.67505] CT
1 0 0 RC
N
f-1992514645
f
GR
GS
[1 0 0 1 104.65142 224.98859] CT
1 0 0 RC
N
f-1992514645
f
GR
GS
[1 0 0 1 104.65142 224.97783] CT
1 0 0 RC
N
f-1992514645
f
GR
GS
[1 0 0 1 104.65142 202.10727] CT
1 0 0 RC
N
f-1992514645
f
GR
GS
[1 0 0 1 104.65142 222.93289] CT
1 0 0 RC
N
f-1992514645
f
GR
GS
[1 0 0 1 104.65142 215.70918] CT
1 0 0 RC
N
f-1992514645
f
GR
GS
[1 0 0 1 104.65142 209.31735] CT
1 0 0 RC
N
f-1992514645
f
GR
GS
[1 0 0 1 104.65142 198.06117] CT
1 0 0 RC
N
f-1992514645
f
GR
GS
[1 0 0 1 104.65142 217.92998] CT
1 0 0 RC
N
f-1992514645
f
GR
GS
[1 0 0 1 104.65142 222.41968] CT
1 0 0 RC
N
f-1992514645
f
GR
GS
[1 0 0 1 104.65142 195.4104] CT
1 0 0 RC
N
f-1992514645
f
GR
GS
[1 0 0 1 104.65142 141.16508] CT
1 0 0 RC
N
f-1992514645
f
GR
GS
[1 0 0 1 104.65142 168.79019] CT
1 0 0 RC
N
f-1992514645
f
GR
GS
[1 0 0 1 104.65142 203.7108] CT
1 0 0 RC
N
f-1992514645
f
GR
GS
[1 0 0 1 104.65142 193.65186] CT
1 0 0 RC
N
f-1992514645
f
GR
GS
[1 0 0 1 104.65142 169.94221] CT
1 0 0 RC
N
f-1992514645
f
GR
GS
[1 0 0 1 104.65142 219.00162] CT
1 0 0 RC
N
f-1992514645
f
GR
GS
[1 0 0 1 104.65142 203.1617] CT
1 0 0 RC
N
f-1992514645
f
GR
GS
[1 0 0 1 104.65142 192.88814] CT
1 0 0 RC
N
f-1992514645
f
GR
GS
[1 0 0 1 104.65142 198.03676] CT
1 0 0 RC
N
f-1992514645
f
GR
GS
[1 0 0 1 104.65142 183.3783] CT
1 0 0 RC
N
f-1992514645
f
GR
GS
[1 0 0 1 104.65142 176.84006] CT
1 0 0 RC
N
f-1992514645
f
GR
GS
[1 0 0 1 105.72435 119.06111] CT
1 0 0 RC
N
f-1992514645
f
GR
GS
[1 0 0 1 105.72435 117.80357] CT
1 0 0 RC
N
f-1992514645
f
GR
GS
[1 0 0 1 105.72435 127.69957] CT
1 0 0 RC
N
f-1992514645
f
GR
GS
[1 0 0 1 105.72435 153.99966] CT
1 0 0 RC
N
f-1992514645
f
GR
GS
[1 0 0 1 105.72435 155.49551] CT
1 0 0 RC
N
f-1992514645
f
GR
GS
[1 0 0 1 105.72435 140.12573] CT
1 0 0 RC
N
f-1992514645
f
GR
GS
[1 0 0 1 105.72435 128.17975] CT
1 0 0 RC
N
f-1992514645
f
GR
GS
[1 0 0 1 105.72435 115.1241] CT
1 0 0 RC
N
f-1992514645
f
GR
GS
[1 0 0 1 105.72435 126.25253] CT
1 0 0 RC
N
f-1992514645
f
GR
GS
[1 0 0 1 105.72435 136.68544] CT
1 0 0 RC
N
f-1992514645
f
GR
GS
[1 0 0 1 105.72435 117.65355] CT
1 0 0 RC
N
f-1992514645
f
GR
GS
[1 0 0 1 105.72435 119.86215] CT
1 0 0 RC
N
f-1992514645
f
GR
GS
[1 0 0 1 105.72435 175.83661] CT
1 0 0 RC
N
f-1992514645
f
GR
GS
[1 0 0 1 105.72435 175.83661] CT
1 0 0 RC
N
f-1992514645
f
GR
GS
[1 0 0 1 105.72435 169.62497] CT
1 0 0 RC
N
f-1992514645
f
GR
GS
[1 0 0 1 105.72435 172.74155] CT
1 0 0 RC
N
f-1992514645
f
GR
GS
[1 0 0 1 105.72435 156.67052] CT
1 0 0 RC
N
f-1992514645
f
GR
GS
[1 0 0 1 105.72435 158.37166] CT
1 0 0 RC
N
f-1992514645
f
GR
GS
[1 0 0 1 105.72435 163.44418] CT
1 0 0 RC
N
f-1992514645
f
GR
GS
[1 0 0 1 105.72435 162.83621] CT
1 0 0 RC
N
f-1992514645
f
GR
GS
[1 0 0 1 105.72435 159.08369] CT
1 0 0 RC
N
f-1992514645
f
GR
GS
[1 0 0 1 105.72435 160.11945] CT
1 0 0 RC
N
f-1992514645
f
GR
GS
[1 0 0 1 105.72435 153.99966] CT
1 0 0 RC
N
f-1992514645
f
GR
GS
[1 0 0 1 105.72435 164.73186] CT
1 0 0 RC
N
f-1992514645
f
GR
GS
[1 0 0 1 105.72435 167.313] CT
1 0 0 RC
N
f-1992514645
f
GR
GS
[1 0 0 1 105.72435 172.59799] CT
1 0 0 RC
N
f-1992514645
f
GR
GS
[1 0 0 1 105.72435 165.36208] CT
1 0 0 RC
N
f-1992514645
f
GR
GS
[1 0 0 1 105.72435 163.86264] CT
1 0 0 RC
N
f-1992514645
f
GR
GS
[1 0 0 1 106.79728 152.57344] CT
1 0 0 RC
N
f-1992514645
f
GR
GS
[1 0 0 1 106.79728 142.75998] CT
1 0 0 RC
N
f-1992514645
f
GR
GS
[1 0 0 1 106.79728 139.95633] CT
1 0 0 RC
N
f-1992514645
f
GR
GS
[1 0 0 1 106.79728 156.15659] CT
1 0 0 RC
N
f-1992514645
f
GR
GS
[1 0 0 1 106.79728 156.15659] CT
1 0 0 RC
N
f-1992514645
f
GR
GS
[1 0 0 1 106.79728 143.43039] CT
1 0 0 RC
N
f-1992514645
f
GR
GS
[1 0 0 1 106.79728 142.24103] CT
1 0 0 RC
N
f-1992514645
f
GR
GS
[1 0 0 1 106.79728 142.24103] CT
1 0 0 RC
N
f-1992514645
f
GR
GS
[1 0 0 1 106.79728 151.69774] CT
1 0 0 RC
N
f-1992514645
f
GR
GS
[1 0 0 1 106.79728 163.32144] CT
1 0 0 RC
N
f-1992514645
f
GR
GS
[1 0 0 1 106.79728 153.69101] CT
1 0 0 RC
N
f-1992514645
f
GR
GS
[1 0 0 1 106.79728 158.64871] CT
1 0 0 RC
N
f-1992514645
f
GR
GS
[1 0 0 1 106.79728 162.6051] CT
1 0 0 RC
N
f-1992514645
f
GR
GS
[1 0 0 1 106.79728 147.90071] CT
1 0 0 RC
N
f-1992514645
f
GR
GS
[1 0 0 1 106.79728 155.09857] CT
1 0 0 RC
N
f-1992514645
f
GR
GS
[1 0 0 1 107.33375 236.37686] CT
0 0.702 0 RC
N
f-1992514645
f
GR
GS
[1 0 0 1 107.33375 238.17416] CT
0 0.702 0 RC
N
f-1992514645
f
GR
GS
[1 0 0 1 107.33375 236.16225] CT
0 0.702 0 RC
N
f-1992514645
f
GR
GS
[1 0 0 1 107.33375 241.10773] CT
0 0.702 0 RC
N
f-1992514645
f
GR
GS
[1 0 0 1 107.33375 254.3213] CT
0 0.702 0 RC
N
f-1992514645
f
GR
GS
[1 0 0 1 107.33375 201.11961] CT
1 0 0 RC
N
f-1992514645
f
GR
GS
[1 0 0 1 107.33375 186.18697] CT
1 0 0 RC
N
f-1992514645
f
GR
GS
[1 0 0 1 107.33375 190.8152] CT
1 0 0 RC
N
f-1992514645
f
GR
GS
[1 0 0 1 107.33375 180.13107] CT
1 0 0 RC
N
f-1992514645
f
GR
GS
[1 0 0 1 107.33375 198.80048] CT
1 0 0 RC
N
f-1992514645
f
GR
GS
[1 0 0 1 107.33375 189.44066] CT
1 0 0 RC
N
f-1992514645
f
GR
GS
[1 0 0 1 107.33375 192.43881] CT
1 0 0 RC
N
f-1992514645
f
GR
GS
[1 0 0 1 107.33375 188.65541] CT
1 0 0 RC
N
f-1992514645
f
GR
GS
[1 0 0 1 107.33375 202.67935] CT
1 0 0 RC
N
f-1992514645
f
GR
GS
[1 0 0 1 107.33375 203.42152] CT
1 0 0 RC
N
f-1992514645
f
GR
GS
[1 0 0 1 107.33375 205.79881] CT
1 0 0 RC
N
f-1992514645
f
GR
GS
[1 0 0 1 107.33375 205.38466] CT
1 0 0 RC
N
f-1992514645
f
GR
GS
[1 0 0 1 107.33375 219.24997] CT
1 0 0 RC
N
f-1992514645
f
GR
GS
[1 0 0 1 107.33375 220.92455] CT
1 0 0 RC
N
f-1992514645
f
GR
GS
[1 0 0 1 107.33375 234.25224] CT
1 0 0 RC
N
f-1992514645
f
GR
GS
[1 0 0 1 107.33375 220.33238] CT
1 0 0 RC
N
f-1992514645
f
GR
GS
[1 0 0 1 107.33375 229.98576] CT
1 0 0 RC
N
f-1992514645
f
GR
GS
[1 0 0 1 107.33375 223.60329] CT
1 0 0 RC
N
f-1992514645
f
GR
GS
[1 0 0 1 107.33375 229.26726] CT
1 0 0 RC
N
f-1992514645
f
GR
GS
[1 0 0 1 120.74536 216.8167] CT
1 0 0 RC
N
f-1992514645
f
GR
GS
[1 0 0 1 120.74536 233.7211] CT
1 0 0 RC
N
f-1992514645
f
GR
GS
[1 0 0 1 120.74536 216.05011] CT
1 0 0 RC
N
f-1992514645
f
GR
GS
[1 0 0 1 120.74536 231.23543] CT
1 0 0 RC
N
f-1992514645
f
GR
GS
[1 0 0 1 120.74536 223.57243] CT
1 0 0 RC
N
f-1992514645
f
GR
GS
[1 0 0 1 120.74536 229.33977] CT
1 0 0 RC
N
f-1992514645
f
GR
GS
[1 0 0 1 120.74536 108.24277] CT
1 0 0 RC
N
f-1992514645
f
GR
GS
[1 0 0 1 120.74536 184.90359] CT
1 0 0 RC
N
f-1992514645
f
GR
GS
[1 0 0 1 120.74536 113.61388] CT
1 0 0 RC
N
f-1992514645
f
GR
GS
[1 0 0 1 120.74536 120.74932] CT
1 0 0 RC
N
f-1992514645
f
GR
GS
[1 0 0 1 120.74536 128.99445] CT
1 0 0 RC
N
f-1992514645
f
GR
GS
[1 0 0 1 120.74536 124.11569] CT
1 0 0 RC
N
f-1992514645
f
GR
GS
[1 0 0 1 120.74536 131.22745] CT
1 0 0 RC
N
f-1992514645
f
GR
GS
[1 0 0 1 120.74536 132.2309] CT
1 0 0 RC
N
f-1992514645
f
GR
GS
[1 0 0 1 120.74536 113.0088] CT
1 0 0 RC
N
f-1992514645
f
GR
GS
[1 0 0 1 120.74536 125.86781] CT
1 0 0 RC
N
f-1992514645
f
GR
GS
[1 0 0 1 120.74536 129.93185] CT
1 0 0 RC
N
f-1992514645
f
GR
GS
[1 0 0 1 120.74536 102.68786] CT
1 0 0 RC
N
f-1992514645
f
GR
GS
[1 0 0 1 120.74536 122.49567] CT
1 0 0 RC
N
f-1992514645
f
GR
GS
[1 0 0 1 120.74536 110.37599] CT
1 0 0 RC
N
f-1992514645
f
GR
GS
[1 0 0 1 120.74536 105.85042] CT
1 0 0 RC
N
f-1992514645
f
GR
GS
[1 0 0 1 120.74536 124.22408] CT
1 0 0 RC
N
f-1992514645
f
GR
GS
[1 0 0 1 120.74536 120.506] CT
1 0 0 RC
N
f-1992514645
f
GR
GS
[1 0 0 1 120.74536 109.79388] CT
1 0 0 RC
N
f-1992514645
f
GR
GS
[1 0 0 1 120.74536 124.33821] CT
1 0 0 RC
N
f-1992514645
f
GR
GS
[1 0 0 1 120.74536 105.89132] CT
1 0 0 RC
N
f-1992514645
f
GR
GS
[1 0 0 1 120.74536 122.09587] CT
1 0 0 RC
N
f-1992514645
f
GR
GS
[1 0 0 1 120.74536 120.15284] CT
1 0 0 RC
N
f-1992514645
f
GR
GS
[1 0 0 1 120.74536 122.0327] CT
1 0 0 RC
N
f-1992514645
f
GR
GS
[1 0 0 1 131.47466 144.70947] CT
1 0 0 RC
N
f-1992514645
f
GR
GS
[1 0 0 1 131.47466 139.49266] CT
1 0 0 RC
N
f-1992514645
f
GR
GS
[1 0 0 1 131.47466 135.09842] CT
1 0 0 RC
N
f-1992514645
f
GR
GS
[1 0 0 1 131.47466 141.53043] CT
1 0 0 RC
N
f-1992514645
f
GR
GS
[1 0 0 1 131.47466 133.8093] CT
1 0 0 RC
N
f-1992514645
f
GR
GS
[1 0 0 1 131.47466 148.54526] CT
1 0 0 RC
N
f-1992514645
f
GR
GS
[1 0 0 1 131.47466 114.98773] CT
1 0 0 RC
N
f-1992514645
f
GR
GS
[1 0 0 1 131.47466 113.58591] CT
1 0 0 RC
N
f-1992514645
f
GR
GS
[1 0 0 1 131.47466 138.51648] CT
1 0 0 RC
N
f-1992514645
f
GR
GS
[1 0 0 1 131.47466 118.00813] CT
1 0 0 RC
N
f-1992514645
f
GR
GS
[1 0 0 1 131.47466 114.25488] CT
1 0 0 RC
N
f-1992514645
f
GR
GS
[1 0 0 1 131.47466 114.14863] CT
1 0 0 RC
N
f-1992514645
f
GR
GS
[1 0 0 1 131.47466 173.58423] CT
1 0 0 RC
N
f-1992514645
f
GR
GS
[1 0 0 1 131.47466 158.54033] CT
1 0 0 RC
N
f-1992514645
f
GR
GS
[1 0 0 1 131.47466 136.68544] CT
1 0 0 RC
N
f-1992514645
f
GR
GS
[1 0 0 1 131.47466 124.5198] CT
1 0 0 RC
N
f-1992514645
f
GR
GS
[1 0 0 1 131.47466 140.2334] CT
1 0 0 RC
N
f-1992514645
f
GR
GS
[1 0 0 1 131.47466 117.84161] CT
1 0 0 RC
N
f-1992514645
f
GR
GS
[1 0 0 1 131.47466 115.40475] CT
1 0 0 RC
N
f-1992514645
f
GR
GS
[1 0 0 1 131.47466 125.38688] CT
1 0 0 RC
N
f-1992514645
f
GR
GS
[1 0 0 1 131.47466 170.18124] CT
1 0 0 RC
N
f-1992514645
f
GR
GS
[1 0 0 1 131.47466 119.63534] CT
1 0 0 RC
N
f-1992514645
f
GR
GS
[1 0 0 1 131.47466 122.98949] CT
1 0 0 RC
N
f-1992514645
f
GR
GS
[1 0 0 1 131.47466 136.40549] CT
1 0 0 RC
N
f-1992514645
f
GR
GS
[1 0 0 1 131.47466 117.65355] CT
1 0 0 RC
N
f-1992514645
f
GR
GS
[1 0 0 1 131.47466 109.99342] CT
1 0 0 RC
N
f-1992514645
f
GR
GS
[1 0 0 1 131.47466 120.85196] CT
1 0 0 RC
N
f-1992514645
f
GR
GS
[1 0 0 1 131.47466 179.54251] CT
1 0 0 RC
N
f-1992514645
f
GR
GS
[1 0 0 1 131.47466 140.95763] CT
1 0 0 RC
N
f-1992514645
f
GR
GS
[1 0 0 1 131.47466 152.59352] CT
1 0 0 RC
N
f-1992514645
f
GR
GS
[1 0 0 1 131.47466 150.27942] CT
1 0 0 RC
N
f-1992514645
f
GR
GS
[1 0 0 1 131.47466 133.45757] CT
1 0 0 RC
N
f-1992514645
f
GR
GS
[1 0 0 1 131.47466 155.51559] CT
1 0 0 RC
N
f-1992514645
f
GR
GS
[1 0 0 1 131.47466 140.49898] CT
1 0 0 RC
N
f-1992514645
f
GR
GS
[1 0 0 1 131.47466 148.48355] CT
1 0 0 RC
N
f-1992514645
f
GR
GS
[1 0 0 1 131.47466 147.83395] CT
1 0 0 RC
N
f-1992514645
f
GR
GS
[1 0 0 1 132.54759 147.13484] CT
1 0 0 RC
N
f-1992514645
f
GR
GS
[1 0 0 1 132.54759 119.26927] CT
1 0 0 RC
N
f-1992514645
f
GR
GS
[1 0 0 1 132.54759 114.46445] CT
1 0 0 RC
N
f-1992514645
f
GR
GS
[1 0 0 1 132.54759 125.10838] CT
1 0 0 RC
N
f-1992514645
f
GR
GS
[1 0 0 1 132.54759 124.69782] CT
1 0 0 RC
N
f-1992514645
f
GR
GS
[1 0 0 1 132.54759 143.98523] CT
1 0 0 RC
N
f-1992514645
f
GR
GS
[1 0 0 1 132.54759 132.2108] CT
1 0 0 RC
N
f-1992514645
f
GR
GS
[1 0 0 1 132.54759 114.7846] CT
1 0 0 RC
N
f-1992514645
f
GR
GS
[1 0 0 1 132.54759 126.63725] CT
1 0 0 RC
N
f-1992514645
f
GR
GS
[1 0 0 1 132.54759 135.26137] CT
1 0 0 RC
N
f-1992514645
f
GR
GS
[1 0 0 1 132.54759 128.88965] CT
1 0 0 RC
N
f-1992514645
f
GR
GS
[1 0 0 1 132.54759 149.30037] CT
1 0 0 RC
N
f-1992514645
f
GR
GS
[1 0 0 1 132.54759 140.22838] CT
1 0 0 RC
N
f-1992514645
f
GR
GS
[1 0 0 1 132.54759 139.2486] CT
1 0 0 RC
N
f-1992514645
f
GR
GS
[1 0 0 1 132.54759 119.37048] CT
1 0 0 RC
N
f-1992514645
f
GR
GS
[1 0 0 1 132.54759 149.46906] CT
1 0 0 RC
N
f-1992514645
f
GR
GS
[1 0 0 1 132.54759 120.38255] CT
1 0 0 RC
N
f-1992514645
f
GR
GS
[1 0 0 1 132.54759 119.4444] CT
1 0 0 RC
N
f-1992514645
f
GR
GS
[1 0 0 1 132.54759 115.72631] CT
1 0 0 RC
N
f-1992514645
f
GR
GS
[1 0 0 1 132.54759 129.0016] CT
1 0 0 RC
N
f-1992514645
f
GR
GS
[1 0 0 1 135.22992 236.97693] CT
0 0.702 0 RC
N
f-1992514645
f
GR
GS
[1 0 0 1 135.22992 169.55893] CT
1 0 0 RC
N
f-1992514645
f
GR
GS
[1 0 0 1 135.22992 170.88322] CT
1 0 0 RC
N
f-1992514645
f
GR
GS
[1 0 0 1 135.22992 173.01862] CT
1 0 0 RC
N
f-1992514645
f
GR
GS
[1 0 0 1 135.22992 173.73065] CT
1 0 0 RC
N
f-1992514645
f
GR
GS
[1 0 0 1 135.22992 171.1165] CT
1 0 0 RC
N
f-1992514645
f
GR
GS
[1 0 0 1 135.22992 183.08475] CT
1 0 0 RC
N
f-1992514645
f
GR
GS
[1 0 0 1 135.22992 164.84099] CT
1 0 0 RC
N
f-1992514645
f
GR
GS
[1 0 0 1 135.22992 171.19403] CT
1 0 0 RC
N
f-1992514645
f
GR
GS
[1 0 0 1 135.22992 186.36426] CT
1 0 0 RC
N
f-1992514645
f
GR
GS
[1 0 0 1 135.22992 198.25928] CT
1 0 0 RC
N
f-1992514645
f
GR
GS
[1 0 0 1 135.22992 193.38771] CT
1 0 0 RC
N
f-1992514645
f
GR
GS
[1 0 0 1 135.22992 196.5] CT
1 0 0 RC
N
f-1992514645
f
GR
GS
[1 0 0 1 135.22992 228.76268] CT
1 0 0 RC
N
f-1992514645
f
GR
GS
[1 0 0 1 135.22992 184.65451] CT
1 0 0 RC
N
f-1992514645
f
GR
GS
[1 0 0 1 135.22992 166.86296] CT
1 0 0 RC
N
f-1992514645
f
GR
GS
[1 0 0 1 135.22992 206.09309] CT
1 0 0 RC
N
f-1992514645
f
GR
GS
[1 0 0 1 135.22992 224.52348] CT
1 0 0 RC
N
f-1992514645
f
GR
GS
[1 0 0 1 135.22992 186.69014] CT
1 0 0 RC
N
f-1992514645
f
GR
GS
[1 0 0 1 135.22992 171.53139] CT
1 0 0 RC
N
f-1992514645
f
GR
GS
[1 0 0 1 135.22992 213.24216] CT
1 0 0 RC
N
f-1992514645
f
GR
GS
[1 0 0 1 152.39679 143.48924] CT
1 0 0 RC
N
f-1992514645
f
GR
GS
[1 0 0 1 152.39679 134.62253] CT
1 0 0 RC
N
f-1992514645
f
GR
GS
[1 0 0 1 152.39679 143.88187] CT
1 0 0 RC
N
f-1992514645
f
GR
GS
[1 0 0 1 152.39679 127.9515] CT
1 0 0 RC
N
f-1992514645
f
GR
GS
[1 0 0 1 152.39679 143.1562] CT
1 0 0 RC
N
f-1992514645
f
GR
GS
[1 0 0 1 152.39679 130.00652] CT
1 0 0 RC
N
f-1992514645
f
GR
GS
[1 0 0 1 152.39679 111.66083] CT
1 0 0 RC
N
f-1992514645
f
GR
GS
[1 0 0 1 152.39679 173.39473] CT
1 0 0 RC
N
f-1992514645
f
GR
GS
[1 0 0 1 152.39679 122.99885] CT
1 0 0 RC
N
f-1992514645
f
GR
GS
[1 0 0 1 152.39679 181.1819] CT
1 0 0 RC
N
f-1992514645
f
GR
GS
[1 0 0 1 152.39679 144.10867] CT
1 0 0 RC
N
f-1992514645
f
GR
GS
[1 0 0 1 152.39679 130.70346] CT
1 0 0 RC
N
f-1992514645
f
GR
GS
[1 0 0 1 152.39679 167.01082] CT
1 0 0 RC
N
f-1992514645
f
GR
GS
[1 0 0 1 152.39679 100.92144] CT
1 0 0 RC
N
f-1992514645
f
GR
GS
[1 0 0 1 152.39679 124.46957] CT
1 0 0 RC
N
f-1992514645
f
GR
GS
[1 0 0 1 152.39679 119.23911] CT
1 0 0 RC
N
f-1992514645
f
GR
GS
[1 0 0 1 152.39679 137.93149] CT
1 0 0 RC
N
f-1992514645
f
GR
GS
[1 0 0 1 152.39679 161.60811] CT
1 0 0 RC
N
f-1992514645
f
GR
GS
[1 0 0 1 152.39679 93.0704] CT
1 0 0 RC
N
f-1992514645
f
GR
GS
[1 0 0 1 152.39679 116.747] CT
1 0 0 RC
N
f-1992514645
f
GR
GS
[1 0 0 1 152.39679 105.11613] CT
1 0 0 RC
N
f-1992514645
f
GR
GS
[1 0 0 1 152.39679 90.16266] CT
1 0 0 RC
N
f-1992514645
f
GR
GS
[1 0 0 1 152.39679 86.27014] CT
1 0 0 RC
N
f-1992514645
f
GR
GS
[1 0 0 1 152.39679 121.94226] CT
1 0 0 RC
N
f-1992514645
f
GR
GS
[1 0 0 1 152.39679 114.35966] CT
1 0 0 RC
N
f-1992514645
f
GR
GS
[1 0 0 1 152.39679 115.44638] CT
1 0 0 RC
N
f-1992514645
f
GR
GS
[1 0 0 1 152.39679 132.27252] CT
1 0 0 RC
N
f-1992514645
f
GR
GS
[1 0 0 1 152.39679 145.34685] CT
1 0 0 RC
N
f-1992514645
f
GR
GS
[1 0 0 1 152.39679 133.28674] CT
1 0 0 RC
N
f-1992514645
f
GR
GS
[1 0 0 1 182.97528 126.71621] CT
1 0 0 RC
N
f-1992514645
f
GR
GS
[1 0 0 1 182.97528 108.2485] CT
1 0 0 RC
N
f-1992514645
f
GR
GS
[1 0 0 1 182.97528 144.9693] CT
1 0 0 RC
N
f-1992514645
f
GR
GS
[1 0 0 1 182.97528 170.94281] CT
1 0 0 RC
N
f-1992514645
f
GR
GS
[1 0 0 1 182.97528 150.38135] CT
1 0 0 RC
N
f-1992514645
f
GR
GS
[1 0 0 1 182.97528 157.20024] CT
1 0 0 RC
N
f-1992514645
f
GR
GS
[1 0 0 1 182.97528 130.49315] CT
1 0 0 RC
N
f-1992514645
f
GR
GS
[1 0 0 1 182.97528 118.49693] CT
1 0 0 RC
N
f-1992514645
f
GR
GS
[1 0 0 1 182.97528 153.30055] CT
1 0 0 RC
N
f-1992514645
f
GR
GS
[1 0 0 1 182.97528 144.58313] CT
1 0 0 RC
N
f-1992514645
f
GR
GS
[1 0 0 1 182.97528 140.15085] CT
1 0 0 RC
N
f-1992514645
f
GR
GS
[1 0 0 1 182.97528 124.5801] CT
1 0 0 RC
N
f-1992514645
f
GR
GS
[1 0 0 1 182.97528 123.44745] CT
1 0 0 RC
N
f-1992514645
f
GR
GS
[1 0 0 1 182.97528 113.64619] CT
1 0 0 RC
N
f-1992514645
f
GR
GS
[1 0 0 1 182.97528 73.06375] CT
1 0 0 RC
N
f-1992514645
f
GR
GS
[1 0 0 1 182.97528 102.7324] CT
1 0 0 RC
N
f-1992514645
f
GR
GS
[1 0 0 1 182.97528 59.3212] CT
1 0 0 RC
N
f-1992514645
f
GR
GS
[1 0 0 1 182.97528 111.04999] CT
1 0 0 RC
N
f-1992514645
f
GR
GS
[1 0 0 1 182.97528 114.10197] CT
1 0 0 RC
N
f-1992514645
f
GR
GS
[1 0 0 1 182.97528 104.96541] CT
1 0 0 RC
N
f-1992514645
f
GR
GS
[1 0 0 1 182.97528 132.56035] CT
1 0 0 RC
N
f-1992514645
f
GR
GS
[1 0 0 1 182.97528 136.55693] CT
1 0 0 RC
N
f-1992514645
f
GR
GS
[1 0 0 1 182.97528 128.32619] CT
1 0 0 RC
N
f-1992514645
f
GR
GS
[1 0 0 1 182.97528 127.22727] CT
1 0 0 RC
N
f-1992514645
f
GR
GS
[1 0 0 1 182.97528 131.40761] CT
1 0 0 RC
N
f-1992514645
f
GR
GS
[1 0 0 1 182.97528 150.6785] CT
1 0 0 RC
N
f-1992514645
f
GR
GS
[1 0 0 1 182.97528 116.9975] CT
1 0 0 RC
N
f-1992514645
f
GR
GS
[1 0 0 1 182.97528 125.2663] CT
1 0 0 RC
N
f-1992514645
f
GR
GS
[1 0 0 1 182.97528 101.26524] CT
1 0 0 RC
N
f-1992514645
f
GR
GS
[1 0 0 1 182.97528 117.92989] CT
1 0 0 RC
N
f-1992514645
f
GR
GS
[1 0 0 1 182.97528 124.31523] CT
1 0 0 RC
N
f-1992514645
f
GR
GS
[1 0 0 1 182.97528 114.42498] CT
1 0 0 RC
N
f-1992514645
f
GR
GS
[1 0 0 1 182.97528 148.83957] CT
1 0 0 RC
N
f-1992514645
f
GR
GS
[1 0 0 1 182.97528 122.94427] CT
1 0 0 RC
N
f-1992514645
f
GR
GS
[1 0 0 1 182.97528 129.91391] CT
1 0 0 RC
N
f-1992514645
f
GR
GS
[1 0 0 1 182.97528 129.32605] CT
1 0 0 RC
N
f-1992514645
f
GR
GS
[1 0 0 1 182.97528 166.59235] CT
1 0 0 RC
N
f-1992514645
f
GR
GS
[1 0 0 1 182.97528 119.2664] CT
1 0 0 RC
N
f-1992514645
f
GR
GS
[1 0 0 1 182.97528 119.19245] CT
1 0 0 RC
N
f-1992514645
f
GR
GS
[1 0 0 1 182.97528 99.11694] CT
1 0 0 RC
N
f-1992514645
f
GR
GS
[1 0 0 1 182.97528 126.90212] CT
1 0 0 RC
N
f-1992514645
f
GR
GS
[1 0 0 1 182.97528 120.81249] CT
1 0 0 RC
N
f-1992514645
f
GR
GS
[1 0 0 1 182.97528 104.95604] CT
1 0 0 RC
N
f-1992514645
f
GR
GS
[1 0 0 1 182.97528 160.07779] CT
1 0 0 RC
N
f-1992514645
f
GR
GS
[1 0 0 1 182.97528 167.55203] CT
1 0 0 RC
N
f-1992514645
f
GR
GS
[1 0 0 1 182.97528 133.93993] CT
1 0 0 RC
N
f-1992514645
f
GR
GS
[1 0 0 1 182.97528 143.11385] CT
1 0 0 RC
N
f-1992514645
f
GR
GS
[1 0 0 1 182.97528 164.32919] CT
1 0 0 RC
N
f-1992514645
f
GR
GS
[1 0 0 1 182.97528 142.84683] CT
1 0 0 RC
N
f-1992514645
f
GR
GS
[1 0 0 1 182.97528 155.79698] CT
1 0 0 RC
N
f-1992514645
f
GR
GS
[1 0 0 1 182.97528 156.92531] CT
1 0 0 RC
N
f-1992514645
f
GR
GS
[1 0 0 1 182.97528 133.11807] CT
1 0 0 RC
N
f-1992514645
f
GR
GS
[1 0 0 1 182.97528 150.37633] CT
1 0 0 RC
N
f-1992514645
f
GR
GS
[1 0 0 1 182.97528 155.07919] CT
1 0 0 RC
N
f-1992514645
f
GR
GS
[1 0 0 1 182.97528 125.37539] CT
1 0 0 RC
N
f-1992514645
f
GR
GS
[1 0 0 1 182.97528 127.88906] CT
1 0 0 RC
N
f-1992514645
f
GR
GS
[1 0 0 1 185.12114 171.98358] CT
1 0 0 RC
N
f-1992514645
f
GR
GS
[1 0 0 1 185.12114 186.18697] CT
1 0 0 RC
N
f-1992514645
f
GR
GS
[1 0 0 1 185.12114 165.31972] CT
1 0 0 RC
N
f-1992514645
f
GR
GS
[1 0 0 1 185.12114 157.37035] CT
1 0 0 RC
N
f-1992514645
f
GR
GS
[1 0 0 1 185.12114 189.88351] CT
1 0 0 RC
N
f-1992514645
f
GR
GS
[1 0 0 1 185.12114 162.67471] CT
1 0 0 RC
N
f-1992514645
f
GR
GS
[1 0 0 1 185.12114 181.90756] CT
1 0 0 RC
N
f-1992514645
f
GR
GS
[1 0 0 1 185.12114 221.76147] CT
1 0 0 RC
N
f-1992514645
f
GR
GS
[1 0 0 1 185.12114 169.16846] CT
1 0 0 RC
N
f-1992514645
f
GR
GS
[1 0 0 1 185.12114 117.69804] CT
1 0 0 RC
N
f-1992514645
f
GR
GS
[1 0 0 1 185.12114 123.13306] CT
1 0 0 RC
N
f-1992514645
f
GR
GS
[1 0 0 1 185.12114 146.09692] CT
1 0 0 RC
N
f-1992514645
f
GR
GS
[1 0 0 1 185.12114 126.56619] CT
1 0 0 RC
N
f-1992514645
f
GR
GS
[1 0 0 1 185.12114 121.06228] CT
1 0 0 RC
N
f-1992514645
f
GR
GS
[1 0 0 1 185.12114 120.85196] CT
1 0 0 RC
N
f-1992514645
f
GR
GS
[1 0 0 1 185.12114 107.63194] CT
1 0 0 RC
N
f-1992514645
f
GR
GS
[1 0 0 1 185.12114 134.19258] CT
1 0 0 RC
N
f-1992514645
f
GR
GS
[1 0 0 1 185.12114 147.90071] CT
1 0 0 RC
N
f-1992514645
f
GR
GS
[1 0 0 1 185.12114 124.22408] CT
1 0 0 RC
N
f-1992514645
f
GR
GS
[1 0 0 1 185.12114 131.70045] CT
1 0 0 RC
N
f-1992514645
f
GR
GS
[1 0 0 1 185.12114 133.22214] CT
1 0 0 RC
N
f-1992514645
f
GR
GS
[1 0 0 1 185.12114 61.25486] CT
1 0 0 RC
N
f-1992514645
f
GR
GS
[1 0 0 1 185.12114 67.3] CT
1 0 0 RC
N
f-1992514645
f
GR
GS
[1 0 0 1 185.12114 89.33147] CT
1 0 0 RC
N
f-1992514645
f
GR
GS
[1 0 0 1 185.12114 95.99174] CT
1 0 0 RC
N
f-1992514645
f
GR
GS
[1 0 0 1 185.12114 171.92258] CT
1 0 0 RC
N
f-1992514645
f
GR
GS
[1 0 0 1 185.12114 82.85209] CT
1 0 0 RC
N
f-1992514645
f
GR
GS
[1 0 0 1 185.12114 97.91607] CT
1 0 0 RC
N
f-1992514645
f
GR
GS
[1 0 0 1 185.12114 81.06265] CT
1 0 0 RC
N
f-1992514645
f
GR
GS
[1 0 0 1 185.12114 83.27919] CT
1 0 0 RC
N
f-1992514645
f
GR
GS
[1 0 0 1 185.12114 186.16832] CT
1 0 0 RC
N
f-1992514645
f
GR
GS
[1 0 0 1 185.12114 87.56719] CT
1 0 0 RC
N
f-1992514645
f
GR
GS
[1 0 0 1 185.12114 67.82828] CT
1 0 0 RC
N
f-1992514645
f
GR
GS
[1 0 0 1 185.12114 81.81131] CT
1 0 0 RC
N
f-1992514645
f
GR
GS
[1 0 0 1 185.12114 68.38886] CT
1 0 0 RC
N
f-1992514645
f
GR
GS
[1 0 0 1 185.12114 172.52838] CT
1 0 0 RC
N
f-1992514645
f
GR
GS
[1 0 0 1 210.87144 183.79245] CT
1 0 0 RC
N
f-1992514645
f
GR
GS
[1 0 0 1 210.87144 182.57727] CT
1 0 0 RC
N
f-1992514645
f
GR
GS
[1 0 0 1 210.87144 175.71674] CT
1 0 0 RC
N
f-1992514645
f
GR
GS
[1 0 0 1 210.87144 153.91998] CT
1 0 0 RC
N
f-1992514645
f
GR
GS
[1 0 0 1 210.87144 149.86453] CT
1 0 0 RC
N
f-1992514645
f
GR
GS
[1 0 0 1 210.87144 174.23381] CT
1 0 0 RC
N
f-1992514645
f
GR
GS
[1 0 0 1 210.87144 181.94347] CT
1 0 0 RC
N
f-1992514645
f
GR
GS
[1 0 0 1 210.87144 175.95503] CT
1 0 0 RC
N
f-1992514645
f
GR
GS
[1 0 0 1 210.87144 155.66994] CT
1 0 0 RC
N
f-1992514645
f
GR
GS
[1 0 0 1 210.87144 141.10622] CT
1 0 0 RC
N
f-1992514645
f
GR
GS
[1 0 0 1 210.87144 173.49451] CT
1 0 0 RC
N
f-1992514645
f
GR
GS
[1 0 0 1 210.87144 203.75888] CT
1 0 0 RC
N
f-1992514645
f
GR
GS
[1 0 0 1 210.87144 158.61713] CT
1 0 0 RC
N
f-1992514645
f
GR
GS
[1 0 0 1 210.87144 155.76898] CT
1 0 0 RC
N
f-1992514645
f
GR
GS
[1 0 0 1 210.87144 151.56783] CT
1 0 0 RC
N
f-1992514645
f
GR
GS
[1 0 0 1 210.87144 173.60217] CT
1 0 0 RC
N
f-1992514645
f
GR
GS
[1 0 0 1 210.87144 177.98564] CT
1 0 0 RC
N
f-1992514645
f
GR
GS
[1 0 0 1 210.87144 189.05305] CT
1 0 0 RC
N
f-1992514645
f
GR
GS
[1 0 0 1 210.87144 127.11458] CT
1 0 0 RC
N
f-1992514645
f
GR
GS
[1 0 0 1 210.87144 141.08325] CT
1 0 0 RC
N
f-1992514645
f
GR
GS
[1 0 0 1 210.87144 114.87288] CT
1 0 0 RC
N
f-1992514645
f
GR
GS
[1 0 0 1 210.87144 119.12068] CT
1 0 0 RC
N
f-1992514645
f
GR
GS
[1 0 0 1 210.87144 122.30187] CT
1 0 0 RC
N
f-1992514645
f
GR
GS
[1 0 0 1 210.87144 142.5432] CT
1 0 0 RC
N
f-1992514645
f
GR
GS
[1 0 0 1 210.87144 146.21608] CT
1 0 0 RC
N
f-1992514645
f
GR
GS
[1 0 0 1 210.87144 127.96228] CT
1 0 0 RC
N
f-1992514645
f
GR
GS
[1 0 0 1 210.87144 134.19258] CT
1 0 0 RC
N
f-1992514645
f
GR
GS
[1 0 0 1 210.87144 136.68544] CT
1 0 0 RC
N
f-1992514645
f
GR
GS
[1 0 0 1 210.87144 127.96228] CT
1 0 0 RC
N
f-1992514645
f
GR
GS
[1 0 0 1 210.87144 134.0842] CT
1 0 0 RC
N
f-1992514645
f
GR
GS
[1 0 0 1 210.87144 75.41878] CT
1 0 0 RC
N
f-1992514645
f
GR
GS
[1 0 0 1 210.87144 59.1475] CT
1 0 0 RC
N
f-1992514645
f
GR
GS
[1 0 0 1 210.87144 60.39069] CT
1 0 0 RC
N
f-1992514645
f
GR
GS
[1 0 0 1 210.87144 35.48304] CT
1 0 0 RC
N
f-1992514645
f
GR
GS
[1 0 0 1 210.87144 80.60902] CT
1 0 0 RC
N
f-1992514645
f
GR
GS
[1 0 0 1 210.87144 74.96156] CT
1 0 0 RC
N
f-1992514645
f
GR
GS
[1 0 0 1 210.87144 97.57513] CT
1 0 0 RC
N
f-1992514645
f
GR
GS
[1 0 0 1 210.87144 63.4118] CT
1 0 0 RC
N
f-1992514645
f
GR
GS
[1 0 0 1 210.87144 73.68893] CT
1 0 0 RC
N
f-1992514645
f
GR
GS
[1 0 0 1 210.87144 56.80608] CT
1 0 0 RC
N
f-1992514645
f
GR
GS
[1 0 0 1 210.87144 80.85811] CT
1 0 0 RC
N
f-1992514645
f
GR
GS
[1 0 0 1 210.87144 96.22213] CT
1 0 0 RC
N
f-1992514645
f
GR
GS
[1 0 0 1 210.87144 80.32122] CT
1 0 0 RC
N
f-1992514645
f
GR
GS
[1 0 0 1 210.87144 87.88875] CT
1 0 0 RC
N
f-1992514645
f
GR
GS
[1 0 0 1 210.87144 71.24419] CT
1 0 0 RC
N
f-1992514645
f
GR
GS
[1 0 0 1 262.37207 124.23414] CT
1 0 0 RC
N
f-1992514645
f
GR
GS
[1 0 0 1 262.37207 120.85196] CT
1 0 0 RC
N
f-1992514645
f
GR
GS
[1 0 0 1 262.37207 135.26137] CT
1 0 0 RC
N
f-1992514645
f
GR
GS
[1 0 0 1 262.37207 118.2206] CT
1 0 0 RC
N
f-1992514645
f
GR
GS
[1 0 0 1 262.37207 119.22764] CT
1 0 0 RC
N
f-1992514645
f
GR
GS
[1 0 0 1 262.37207 116.65513] CT
1 0 0 RC
N
f-1992514645
f
GR
GS
[1 0 0 1 262.37207 153.67236] CT
1 0 0 RC
N
f-1992514645
f
GR
GS
[1 0 0 1 262.37207 122.72824] CT
1 0 0 RC
N
f-1992514645
f
GR
GS
[1 0 0 1 262.37207 132.60054] CT
1 0 0 RC
N
f-1992514645
f
GR
GS
[1 0 0 1 262.37207 117.09081] CT
1 0 0 RC
N
f-1992514645
f
GR
GS
[1 0 0 1 262.37207 132.7075] CT
1 0 0 RC
N
f-1992514645
f
GR
GS
[1 0 0 1 262.37207 129.20833] CT
1 0 0 RC
N
f-1992514645
f
GR
GS
[1 0 0 1 262.37207 114.04529] CT
1 0 0 RC
N
f-1992514645
f
GR
GS
[1 0 0 1 262.37207 122.57822] CT
1 0 0 RC
N
f-1992514645
f
GR
GS
[1 0 0 1 262.37207 152.01572] CT
1 0 0 RC
N
f-1992514645
f
GR
GS
[1 0 0 1 262.37207 119.34177] CT
1 0 0 RC
N
f-1992514645
f
GR
GS
[1 0 0 1 262.37207 151.27785] CT
1 0 0 RC
N
f-1992514645
f
GR
GS
[1 0 0 1 262.37207 138.94212] CT
1 0 0 RC
N
f-1992514645
f
GR
GS
[1 0 0 1 262.37207 159.94644] CT
1 0 0 RC
N
f-1992514645
f
GR
GS
[1 0 0 1 262.37207 148.58977] CT
1 0 0 RC
N
f-1992514645
f
GR
GS
[1 0 0 1 262.37207 145.25139] CT
1 0 0 RC
N
f-1992514645
f
GR
GS
[1 0 0 1 262.37207 125.56776] CT
1 0 0 RC
N
f-1992514645
f
GR
GS
[1 0 0 1 262.37207 133.96648] CT
1 0 0 RC
N
f-1992514645
f
GR
GS
[1 0 0 1 262.37207 128.79919] CT
1 0 0 RC
N
f-1992514645
f
GR
GS
[1 0 0 1 262.37207 123.94199] CT
1 0 0 RC
N
f-1992514645
f
GR
GS
[1 0 0 1 262.37207 136.38899] CT
1 0 0 RC
N
f-1992514645
f
GR
GS
[1 0 0 1 262.37207 118.49693] CT
1 0 0 RC
N
f-1992514645
f
GR
GS
[1 0 0 1 262.37207 156.22476] CT
1 0 0 RC
N
f-1992514645
f
GR
GS
[1 0 0 1 262.37207 141.96324] CT
1 0 0 RC
N
f-1992514645
f
GR
GS
[1 0 0 1 262.37207 161.7897] CT
1 0 0 RC
N
f-1992514645
f
GR
GS
[1 0 0 1 262.37207 171.28374] CT
1 0 0 RC
N
f-1992514645
f
GR
GS
[1 0 0 1 262.37207 154.39731] CT
1 0 0 RC
N
f-1992514645
f
GR
GS
[1 0 0 1 262.37207 176.24001] CT
1 0 0 RC
N
f-1992514645
f
GR
GS
[1 0 0 1 262.37207 164.81584] CT
1 0 0 RC
N
f-1992514645
f
GR
GS
[1 0 0 1 262.37207 160.05841] CT
1 0 0 RC
N
f-1992514645
f
GR
GS
[1 0 0 1 262.37207 175.5014] CT
1 0 0 RC
N
f-1992514645
f
GR
GS
[1 0 0 1 262.37207 161.39133] CT
1 0 0 RC
N
f-1992514645
f
GR
GS
[1 0 0 1 262.37207 140.38126] CT
1 0 0 RC
N
f-1992514645
f
GR
GS
[1 0 0 1 262.37207 220.42569] CT
1 0 0 RC
N
f-1992514645
f
GR
GS
[1 0 0 1 262.37207 159.02985] CT
1 0 0 RC
N
f-1992514645
f
GR
GS
[1 0 0 1 262.37207 196.82156] CT
1 0 0 RC
N
f-1992514645
f
GR
GS
[1 0 0 1 262.37207 119.76095] CT
1 0 0 RC
N
f-1992514645
f
GR
GS
[1 0 0 1 262.37207 102.3139] CT
1 0 0 RC
N
f-1992514645
f
GR
GS
[1 0 0 1 262.37207 131.2095] CT
1 0 0 RC
N
f-1992514645
f
GR
GS
[1 0 0 1 262.37207 134.45313] CT
1 0 0 RC
N
f-1992514645
f
GR
GS
[1 0 0 1 262.37207 120.58136] CT
1 0 0 RC
N
f-1992514645
f
GR
GS
[1 0 0 1 262.37207 132.69745] CT
1 0 0 RC
N
f-1992514645
f
GR
GS
[1 0 0 1 262.37207 141.96324] CT
1 0 0 RC
N
f-1992514645
f
GR
GS
[1 0 0 1 262.37207 127.83235] CT
1 0 0 RC
N
f-1992514645
f
GR
GS
[1 0 0 1 262.37207 121.73123] CT
1 0 0 RC
N
f-1992514645
f
GR
GS
[1 0 0 1 262.37207 102.17682] CT
1 0 0 RC
N
f-1992514645
f
GR
GS
[1 0 0 1 262.37207 131.00636] CT
1 0 0 RC
N
f-1992514645
f
GR
GS
[1 0 0 1 262.37207 124.19251] CT
1 0 0 RC
N
f-1992514645
f
GR
GS
[1 0 0 1 262.37207 100.90634] CT
1 0 0 RC
N
f-1992514645
f
GR
GS
[1 0 0 1 262.37207 127.6766] CT
1 0 0 RC
N
f-1992514645
f
GR
GS
[1 0 0 1 262.37207 96.12595] CT
1 0 0 RC
N
f-1992514645
f
GR
GS
[1 0 0 1 288.12238 141.2476] CT
1 0 0 RC
N
f-1992514645
f
GR
GS
[1 0 0 1 288.12238 130.70346] CT
1 0 0 RC
N
f-1992514645
f
GR
GS
[1 0 0 1 288.12238 131.07744] CT
1 0 0 RC
N
f-1992514645
f
GR
GS
[1 0 0 1 288.12238 157.14783] CT
1 0 0 RC
N
f-1992514645
f
GR
GS
[1 0 0 1 288.12238 142.52885] CT
1 0 0 RC
N
f-1992514645
f
GR
GS
[1 0 0 1 288.12238 130.90085] CT
1 0 0 RC
N
f-1992514645
f
GR
GS
[1 0 0 1 288.12238 123.1589] CT
1 0 0 RC
N
f-1992514645
f
GR
GS
[1 0 0 1 288.12238 164.85893] CT
1 0 0 RC
N
f-1992514645
f
GR
GS
[1 0 0 1 288.12238 151.63889] CT
1 0 0 RC
N
f-1992514645
f
GR
GS
[1 0 0 1 288.12238 178.55556] CT
1 0 0 RC
N
f-1992514645
f
GR
GS
[1 0 0 1 288.12238 188.94754] CT
1 0 0 RC
N
f-1992514645
f
GR
GS
[1 0 0 1 288.12238 138.32843] CT
1 0 0 RC
N
f-1992514645
f
GR
GS
[1 0 0 1 288.12238 157.85556] CT
1 0 0 RC
N
f-1992514645
f
GR
GS
[1 0 0 1 288.12238 235.60956] CT
1 0 0 RC
N
f-1992514645
f
GR
GS
[1 0 0 1 288.12238 109.58143] CT
1 0 0 RC
N
f-1992514645
f
GR
GS
[1 0 0 1 288.12238 124.46957] CT
1 0 0 RC
N
f-1992514645
f
GR
GS
[1 0 0 1 288.12238 90.99312] CT
1 0 0 RC
N
f-1992514645
f
GR
GS
[1 0 0 1 288.12238 104.19592] CT
1 0 0 RC
N
f-1992514645
f
GR
GS
[1 0 0 1 288.12238 107.97431] CT
1 0 0 RC
N
f-1992514645
f
GR
GS
[1 0 0 1 288.12238 113.87445] CT
1 0 0 RC
N
f-1992514645
f
GR
GS
[1 0 0 1 288.12238 130.01511] CT
1 0 0 RC
N
f-1992514645
f
GR
GS
[1 0 0 1 288.12238 108.61817] CT
1 0 0 RC
N
f-1992514645
f
GR
GS
[1 0 0 1 288.12238 118.12943] CT
1 0 0 RC
N
f-1992514645
f
GR
GS
[1 0 0 1 288.12238 100.75848] CT
1 0 0 RC
N
f-1992514645
f
GR
GS
[1 0 0 1 288.12238 129.24995] CT
1 0 0 RC
N
f-1992514645
f
GR
GS
[1 0 0 1 288.12238 114.753] CT
1 0 0 RC
N
f-1992514645
f
GR
GS
[1 0 0 1 339.62299 155.44096] CT
1 0 0 RC
N
f-1992514645
f
GR
GS
[1 0 0 1 339.62299 144.26515] CT
1 0 0 RC
N
f-1992514645
f
GR
GS
[1 0 0 1 339.62299 138.75262] CT
1 0 0 RC
N
f-1992514645
f
GR
GS
[1 0 0 1 339.62299 137.82669] CT
1 0 0 RC
N
f-1992514645
f
GR
GS
[1 0 0 1 339.62299 137.89558] CT
1 0 0 RC
N
f-1992514645
f
GR
GS
[1 0 0 1 339.62299 147.34802] CT
1 0 0 RC
N
f-1992514645
f
GR
GS
[1 0 0 1 339.62299 143.63063] CT
1 0 0 RC
N
f-1992514645
f
GR
GS
[1 0 0 1 339.62299 144.76472] CT
1 0 0 RC
N
f-1992514645
f
GR
GS
[1 0 0 1 339.62299 112.51999] CT
1 0 0 RC
N
f-1992514645
f
GR
GS
[1 0 0 1 339.62299 138.10951] CT
1 0 0 RC
N
f-1992514645
f
GR
GS
[1 0 0 1 339.62299 159.75696] CT
1 0 0 RC
N
f-1992514645
f
GR
GS
[1 0 0 1 339.62299 161.65907] CT
1 0 0 RC
N
f-1992514645
f
GR
GS
[1 0 0 1 339.62299 138.6787] CT
1 0 0 RC
N
f-1992514645
f
GR
GS
[1 0 0 1 339.62299 122.99885] CT
1 0 0 RC
N
f-1992514645
f
GR
GS
[1 0 0 1 339.62299 137.05435] CT
1 0 0 RC
N
f-1992514645
f
GR
GS
[1 0 0 1 339.62299 114.32235] CT
1 0 0 RC
N
f-1992514645
f
GR
GS
[1 0 0 1 339.62299 133.04916] CT
1 0 0 RC
N
f-1992514645
f
GR
GS
[1 0 0 1 339.62299 148.38808] CT
1 0 0 RC
N
f-1992514645
f
GR
GS
[1 0 0 1 339.62299 123.40798] CT
1 0 0 RC
N
f-1992514645
f
GR
GS
[1 0 0 1 339.62299 113.37128] CT
1 0 0 RC
N
f-1992514645
f
GR
GS
[1 0 0 1 339.62299 148.64792] CT
1 0 0 RC
N
f-1992514645
f
GR
GS
[1 0 0 1 339.62299 153.22231] CT
1 0 0 RC
N
f-1992514645
f
GR
GS
[1 0 0 1 339.62299 132.41249] CT
1 0 0 RC
N
f-1992514645
f
GR
GS
[1 0 0 1 339.62299 174.20511] CT
1 0 0 RC
N
f-1992514645
f
GR
GS
[1 0 0 1 339.62299 173.88713] CT
1 0 0 RC
N
f-1992514645
f
GR
GS
[1 0 0 1 339.62299 168.05161] CT
1 0 0 RC
N
f-1992514645
f
GR
GS
[1 0 0 1 339.62299 150.545] CT
1 0 0 RC
N
f-1992514645
f
GR
GS
[1 0 0 1 339.62299 159.77849] CT
1 0 0 RC
N
f-1992514645
f
GR
GS
[1 0 0 1 339.62299 161.99141] CT
1 0 0 RC
N
f-1992514645
f
GR
GS
[1 0 0 1 339.62299 188.06467] CT
1 0 0 RC
N
f-1992514645
f
GR
GS
[1 0 0 1 339.62299 139.40437] CT
1 0 0 RC
N
f-1992514645
f
GR
GS
[1 0 0 1 339.62299 84.89416] CT
1 0 0 RC
N
f-1992514645
f
GR
GS
[1 0 0 1 339.62299 162.80678] CT
1 0 0 RC
N
f-1992514645
f
GR
GS
[1 0 0 1 339.62299 123.86806] CT
1 0 0 RC
N
f-1992514645
f
GR
GS
[1 0 0 1 339.62299 95.81158] CT
1 0 0 RC
N
f-1992514645
f
GR
GS
[1 0 0 1 339.62299 94.31645] CT
1 0 0 RC
N
f-1992514645
f
GR
GS
[1 0 0 1 339.62299 113.71295] CT
1 0 0 RC
N
f-1992514645
f
GR
GS
[1 0 0 1 339.62299 141.90726] CT
1 0 0 RC
N
f-1992514645
f
GR
GS
[1 0 0 1 339.62299 163.07381] CT
1 0 0 RC
N
f-1992514645
f
GR
GS
[1 0 0 1 339.62299 115.67606] CT
1 0 0 RC
N
f-1992514645
f
GR
GS
[1 0 0 1 339.62299 144.3477] CT
1 0 0 RC
N
f-1992514645
f
GR
GS
[1 0 0 1 339.62299 140.81839] CT
1 0 0 RC
N
f-1992514645
f
GR
GS
[1 0 0 1 339.62299 135.22115] CT
1 0 0 RC
N
f-1992514645
f
GR
GS
[1 0 0 1 339.62299 148.38808] CT
1 0 0 RC
N
f-1992514645
f
GR
GS
[1 0 0 1 339.62299 143.12103] CT
1 0 0 RC
N
f-1992514645
f
GR
GS
[1 0 0 1 339.62299 134.83931] CT
1 0 0 RC
N
f-1992514645
f
GR
GS
[1 0 0 1 377.71198 116.81661] CT
1 0 0 RC
N
f-1992514645
f
GR
GS
[1 0 0 1 377.71198 125.11485] CT
1 0 0 RC
N
f-1992514645
f
GR
GS
[1 0 0 1 377.71198 125.18231] CT
1 0 0 RC
N
f-1992514645
f
GR
GS
[1 0 0 1 377.71198 134.29236] CT
1 0 0 RC
N
f-1992514645
f
GR
GS
[1 0 0 1 377.71198 134.05118] CT
1 0 0 RC
N
f-1992514645
f
GR
GS
[1 0 0 1 377.71198 112.92985] CT
1 0 0 RC
N
f-1992514645
f
GR
GS
[1 0 0 1 377.71198 124.17815] CT
1 0 0 RC
N
f-1992514645
f
GR
GS
[1 0 0 1 377.71198 136.30644] CT
1 0 0 RC
N
f-1992514645
f
GR
GS
[1 0 0 1 377.71198 122.78423] CT
1 0 0 RC
N
f-1992514645
f
GR
GS
[1 0 0 1 377.71198 119.13361] CT
1 0 0 RC
N
f-1992514645
f
GR
GS
[1 0 0 1 377.71198 119.13361] CT
1 0 0 RC
N
f-1992514645
f
GR
GS
[1 0 0 1 377.71198 111.81514] CT
1 0 0 RC
N
f-1992514645
f
GR
GS
[1 0 0 1 377.71198 111.09448] CT
1 0 0 RC
N
f-1992514645
f
GR
GS
[1 0 0 1 377.71198 96.22213] CT
1 0 0 RC
N
f-1992514645
f
GR
GS
[1 0 0 1 377.71198 120.14782] CT
1 0 0 RC
N
f-1992514645
f
GR
GS
[1 0 0 1 377.71198 111.48783] CT
1 0 0 RC
N
f-1992514645
f
GR
GS
[1 0 0 1 377.71198 107.91689] CT
1 0 0 RC
N
f-1992514645
f
GR
GS
[1 0 0 1 377.71198 125.71203] CT
1 0 0 RC
N
f-1992514645
f
GR
GS
[1 0 0 1 377.71198 182.33322] CT
1 0 0 RC
N
f-1992514645
f
GR
GS
[1 0 0 1 377.71198 169.74052] CT
1 0 0 RC
N
f-1992514645
f
GR
GS
[1 0 0 1 377.71198 124.46239] CT
1 0 0 RC
N
f-1992514645
f
GR
GS
[1 0 0 1 377.71198 73.28126] CT
1 0 0 RC
N
f-1992514645
f
GR
GS
[1 0 0 1 377.71198 120.61942] CT
1 0 0 RC
N
f-1992514645
f
GR
GS
[1 0 0 1 377.71198 105.88486] CT
1 0 0 RC
N
f-1992514645
f
GR
GS
[1 0 0 1 377.71198 154.44254] CT
1 0 0 RC
N
f-1992514645
f
GR
GS
[1 0 0 1 377.71198 174.02495] CT
1 0 0 RC
N
f-1992514645
f
GR
GS
[1 0 0 1 377.71198 125.24978] CT
1 0 0 RC
N
f-1992514645
f
GR
GS
[1 0 0 1 377.71198 129.56435] CT
1 0 0 RC
N
f-1992514645
f
GR
GS
[1 0 0 1 377.71198 139.53358] CT
1 0 0 RC
N
f-1992514645
f
GR
GS
[1 0 0 1 377.71198 113.42368] CT
1 0 0 RC
N
f-1992514645
f
GR
GS
[1 0 0 1 377.71198 128.44318] CT
1 0 0 RC
N
f-1992514645
f
GR
GS
[1 0 0 1 377.71198 154.48703] CT
1 0 0 RC
N
f-1992514645
f
GR
GS
[1 0 0 1 403.46231 100.51804] CT
1 0 0 RC
N
f-1992514645
f
GR
GS
[1 0 0 1 403.46231 98.07758] CT
1 0 0 RC
N
f-1992514645
f
GR
GS
[1 0 0 1 403.46231 103.6296] CT
1 0 0 RC
N
f-1992514645
f
GR
GS
[1 0 0 1 403.46231 106.27534] CT
1 0 0 RC
N
f-1992514645
f
GR
GS
[1 0 0 1 403.46231 104.19951] CT
1 0 0 RC
N
f-1992514645
f
GR
GS
[1 0 0 1 403.46231 112.42094] CT
1 0 0 RC
N
f-1992514645
f
GR
GS
[1 0 0 1 403.46231 136.05809] CT
1 0 0 RC
N
f-1992514645
f
GR
GS
[1 0 0 1 403.46231 134.72014] CT
1 0 0 RC
N
f-1992514645
f
GR
GS
[1 0 0 1 403.46231 156.77243] CT
1 0 0 RC
N
f-1992514645
f
GR
GS
[1 0 0 1 403.46231 102.56516] CT
1 0 0 RC
N
f-1992514645
f
GR
GS
[1 0 0 1 403.46231 110.29633] CT
1 0 0 RC
N
f-1992514645
f
GR
GS
[1 0 0 1 403.46231 109.53835] CT
1 0 0 RC
N
f-1992514645
f
GR
GS
[1 0 0 1 403.46231 115.46863] CT
1 0 0 RC
N
f-1992514645
f
GR
GS
[1 0 0 1 403.46231 115.17291] CT
1 0 0 RC
N
f-1992514645
f
GR
GS
[1 0 0 1 403.46231 119.31017] CT
1 0 0 RC
N
f-1992514645
f
GR
GS
[1 0 0 1 403.46231 137.35582] CT
1 0 0 RC
N
f-1992514645
f
GR
GS
[1 0 0 1 403.46231 139.30388] CT
1 0 0 RC
N
f-1992514645
f
GR
GS
[1 0 0 1 403.46231 126.81741] CT
1 0 0 RC
N
f-1992514645
f
GR
GS
[1 0 0 1 403.46231 120.12917] CT
1 0 0 RC
N
f-1992514645
f
GR
GS
[1 0 0 1 403.46231 190.60561] CT
1 0 0 RC
N
f-1992514645
f
GR
GS
[1 0 0 1 403.46231 131.70045] CT
1 0 0 RC
N
f-1992514645
f
GR
GS
[1 0 0 1 403.46231 160.70944] CT
1 0 0 RC
N
f-1992514645
f
GR
GS
[1 0 0 1 403.46231 158.95662] CT
1 0 0 RC
N
f-1992514645
f
GR
GS
[1 0 0 1 403.46231 197.82358] CT
1 0 0 RC
N
f-1992514645
f
GR
GS
[1 0 0 1 403.46231 130.70346] CT
1 0 0 RC
N
f-1992514645
f
GR
GS
[1 0 0 1 403.46231 194.64742] CT
1 0 0 RC
N
f-1992514645
f
GR
GS
[1 0 0 1 403.46231 144.95711] CT
1 0 0 RC
N
f-1992514645
f
GR
GS
[1 0 0 1 403.46231 114.53121] CT
1 0 0 RC
N
f-1992514645
f
GR
GS
[1 0 0 1 403.46231 127.58329] CT
1 0 0 RC
N
f-1992514645
f
GR
GS
[1 0 0 1 403.46231 116.54314] CT
1 0 0 RC
N
f-1992514645
f
GR
GS
[1 0 0 1 403.46231 118.60962] CT
1 0 0 RC
N
f-1992514645
f
GR
GS
[1 0 0 1 403.46231 153.30055] CT
1 0 0 RC
N
f-1992514645
f
GR
GS
[1 0 0 1 403.46231 148.02919] CT
1 0 0 RC
N
f-1992514645
f
GR
GS
[1 0 0 1 403.46231 138.75764] CT
1 0 0 RC
N
f-1992514645
f
GR
GS
[1 0 0 1 403.46231 136.36386] CT
1 0 0 RC
N
f-1992514645
f
GR
GS
[1 0 0 1 403.46231 138.25951] CT
1 0 0 RC
N
f-1992514645
f
GR
GS
[1 0 0 1 403.46231 167.9626] CT
1 0 0 RC
N
f-1992514645
f
GR
GS
[1 0 0 1 403.46231 111.76202] CT
1 0 0 RC
N
f-1992514645
f
GR
GS
[1 0 0 1 403.46231 127.69238] CT
1 0 0 RC
N
f-1992514645
f
GR
GS
[1 0 0 1 403.46231 167.92168] CT
1 0 0 RC
N
f-1992514645
f
GR
GS
[1 0 0 1 403.46231 146.20891] CT
1 0 0 RC
N
f-1992514645
f
GR
GS
[1 0 0 1 403.46231 129.3849] CT
1 0 0 RC
N
f-1992514645
f
GR
GS
[1 0 0 1 403.46231 120.79671] CT
1 0 0 RC
N
f-1992514645
f
GR
GS
[1 0 0 1 403.46231 152.35092] CT
1 0 0 RC
N
f-1992514645
f
GR
GS
[1 0 0 1 403.46231 152.46935] CT
1 0 0 RC
N
f-1992514645
f
GR
GS
[1 0 0 1 403.46231 154.97369] CT
1 0 0 RC
N
f-1992514645
f
GR
GS
[1 0 0 1 403.46231 158.7047] CT
1 0 0 RC
N
f-1992514645
f
GR
GS
[1 0 0 1 403.46231 176.56157] CT
1 0 0 RC
N
f-1992514645
f
GR
GS
[1 0 0 1 403.46231 164.83308] CT
1 0 0 RC
N
f-1992514645
f
GR
GS
[1 0 0 1 403.46231 168.58635] CT
1 0 0 RC
N
f-1992514645
f
GR
GS
[1 0 0 1 467.83807 175.79498] CT
1 0 0 RC
N
f-1992514645
f
GR
GS
[1 0 0 1 467.83807 171.19403] CT
1 0 0 RC
N
f-1992514645
f
GR
GS
[1 0 0 1 467.83807 215.63022] CT
1 0 0 RC
N
f-1992514645
f
GR
GS
[1 0 0 1 467.83807 150.77971] CT
1 0 0 RC
N
f-1992514645
f
GR
GS
[1 0 0 1 467.83807 183.76733] CT
1 0 0 RC
N
f-1992514645
f
GR
GS
[1 0 0 1 467.83807 159.94644] CT
1 0 0 RC
N
f-1992514645
f
GR
GS
[1 0 0 1 467.83807 169.85538] CT
1 0 0 RC
N
f-1992514645
f
GR
GS
[1 0 0 1 467.83807 182.377] CT
1 0 0 RC
N
f-1992514645
f
GR
GS
[1 0 0 1 467.83807 180.07222] CT
1 0 0 RC
N
f-1992514645
f
GR
GS
[1 0 0 1 467.83807 169.53452] CT
1 0 0 RC
N
f-1992514645
f
GR
GS
[1 0 0 1 467.83807 113.42368] CT
1 0 0 RC
N
f-1992514645
f
GR
GS
[1 0 0 1 467.83807 132.73549] CT
1 0 0 RC
N
f-1992514645
f
GR
GS
[1 0 0 1 467.83807 105.14985] CT
1 0 0 RC
N
f-1992514645
f
GR
GS
[1 0 0 1 467.83807 230.32959] CT
1 0 0 RC
N
f-1992514645
f
GR
GS
[1 0 0 1 467.83807 179.21376] CT
1 0 0 RC
N
f-1992514645
f
GR
GS
[1 0 0 1 467.83807 176.18114] CT
1 0 0 RC
N
f-1992514645
f
GR
GS
[1 0 0 1 467.83807 143.65578] CT
1 0 0 RC
N
f-1992514645
f
GR
GS
[1 0 0 1 467.83807 142.55469] CT
1 0 0 RC
N
f-1992514645
f
GR
GS
[1 0 0 1 467.83807 111.62779] CT
1 0 0 RC
N
f-1992514645
f
GR
GS
[1 0 0 1 467.83807 220.59222] CT
1 0 0 RC
N
f-1992514645
f
GR
GS
[1 0 0 1 467.83807 170.05994] CT
1 0 0 RC
N
f-1992514645
f
GR
GS
[1 0 0 1 467.83807 171.24858] CT
1 0 0 RC
N
f-1992514645
f
GR
GS
[1 0 0 1 506.46353 80.4856] CT
1 0 0 RC
N
f-1992514645
f
GR
GS
[1 0 0 1 506.46353 170.58032] CT
1 0 0 RC
N
f-1992514645
f
GR
GS
[1 0 0 1 506.46353 92.18894] CT
1 0 0 RC
N
f-1992514645
f
GR
GS
[1 0 0 1 506.46353 186.53078] CT
1 0 0 RC
N
f-1992514645
f
GR
GS
[1 0 0 1 506.46353 113.07411] CT
1 0 0 RC
N
f-1992514645
f
GR
GS
[1 0 0 1 506.46353 140.95763] CT
1 0 0 RC
N
f-1992514645
f
GR
GS
[1 0 0 1 506.46353 90.02986] CT
1 0 0 RC
N
f-1992514645
f
GR
GS
[1 0 0 1 506.46353 161.34541] CT
1 0 0 RC
N
f-1992514645
f
GR
GS
[1 0 0 1 506.46353 64.55521] CT
1 0 0 RC
N
f-1992514645
f
GR
GS
[1 0 0 1 506.46353 156.62314] CT
1 0 0 RC
N
f-1992514645
f
GR
GS
[1 0 0 1 506.46353 166.1143] CT
1 0 0 RC
N
f-1992514645
f
GR
GS
[1 0 0 1 506.46353 147.9409] CT
1 0 0 RC
N
f-1992514645
f
GR
GS
[1 0 0 1 506.46353 137.06371] CT
1 0 0 RC
N
f-1992514645
f
GR
GS
[1 0 0 1 506.46353 186.03265] CT
1 0 0 RC
N
f-1992514645
f
GR
GS
[1 0 0 1 506.46353 113.9735] CT
1 0 0 RC
N
f-1992514645
f
GR
GS
[1 0 0 1 506.46353 120.77732] CT
1 0 0 RC
N
f-1992514645
f
GR
GS
[1 0 0 1 506.46353 115.9804] CT
1 0 0 RC
N
f-1992514645
f
GR
GS
[1 0 0 1 506.46353 108.31168] CT
1 0 0 RC
N
f-1992514645
f
GR
GS
[1 0 0 1 506.46353 143.02916] CT
1 0 0 RC
N
f-1992514645
f
GR
GS
[1 0 0 1 506.46353 146.65463] CT
1 0 0 RC
N
f-1992514645
f
GR
GS
[1 0 0 1 506.46353 120.48518] CT
1 0 0 RC
N
f-1992514645
f
GR
GS
[1 0 0 1 506.46353 133.56023] CT
1 0 0 RC
N
f-1992514645
f
GR
GS
[1 0 0 1 506.46353 152.4787] CT
1 0 0 RC
N
f-1992514645
f
GR
GS
[1 0 0 1 506.46353 123.7403] CT
1 0 0 RC
N
f-1992514645
f
GR
GS
[1 0 0 1 506.46353 115.18941] CT
1 0 0 RC
N
f-1992514645
f
GR
GS
[1 0 0 1 506.46353 124.20757] CT
1 0 0 RC
N
f-1992514645
f
GR
GS
[1 0 0 1 506.46353 189.37892] CT
1 0 0 RC
N
f-1992514645
f
GR
GS
[1 0 0 1 506.46353 169.19359] CT
1 0 0 RC
N
f-1992514645
f
GR
GS
[1 0 0 1 506.46353 163.23244] CT
1 0 0 RC
N
f-1992514645
f
GR
GS
[1 0 0 1 506.46353 74.15121] CT
1 0 0 RC
N
f-1992514645
f
GR
GS
[1 0 0 1 506.46353 90.32848] CT
1 0 0 RC
N
f-1992514645
f
GR
GS
[1 0 0 1 506.46353 92.77823] CT
1 0 0 RC
N
f-1992514645
f
GR
GS
[1 0 0 1 506.46353 155.79266] CT
1 0 0 RC
N
f-1992514645
f
GR
GS
[1 0 0 1 506.46353 128.68149] CT
1 0 0 RC
N
f-1992514645
f
GR
GS
[1 0 0 1 506.46353 138.81006] CT
1 0 0 RC
N
f-1992514645
f
GR
GS
0 0 1 RC
1 LJ
0.5 LW
N
73 235.978 M
507 235.978 L
S
GR
GS
[1 0 0 1 340.69592 250.33333] CT
0 0 1 RC
/Helvetica 18 F
GS
[1 0 0 1 0 0] CT
0 7 moveto 
1 -1 scale
(thr = 0.32) t 
GR
GR
%%Trailer
%%Pages: 1
%%EOF
