%!PS-Adobe-3.0 EPSF-3.0
%%Creator: (MATLAB, The Mathworks, Inc. Version 9.1.0.441655 \(R2016b\). Operating System: Mac OS X)
%%Title: ./longTerm_All_VE_genuine.eps
%%CreationDate: 2016-12-06T15:16:06
%%Pages: (atend)
%%BoundingBox:    15     0   519   412
%%LanguageLevel: 3
%%EndComments
%%BeginProlog
%%BeginResource: procset (Apache XML Graphics Std ProcSet) 1.2 0
%%Version: 1.2 0
%%Copyright: (Copyright 2001-2003,2010 The Apache Software Foundation. License terms: http://www.apache.org/licenses/LICENSE-2.0)
/bd{bind def}bind def
/ld{load def}bd
/GR/grestore ld
/M/moveto ld
/LJ/setlinejoin ld
/C/curveto ld
/f/fill ld
/LW/setlinewidth ld
/GC/setgray ld
/t/show ld
/N/newpath ld
/CT/concat ld
/cp/closepath ld
/S/stroke ld
/L/lineto ld
/CC/setcmykcolor ld
/A/ashow ld
/GS/gsave ld
/RC/setrgbcolor ld
/RM/rmoveto ld
/ML/setmiterlimit ld
/re {4 2 roll M
1 index 0 rlineto
0 exch rlineto
neg 0 rlineto
cp } bd
/_ctm matrix def
/_tm matrix def
/BT { _ctm currentmatrix pop matrix _tm copy pop 0 0 moveto } bd
/ET { _ctm setmatrix } bd
/iTm { _ctm setmatrix _tm concat } bd
/Tm { _tm astore pop iTm 0 0 moveto } bd
/ux 0.0 def
/uy 0.0 def
/F {
  /Tp exch def
  /Tf exch def
  Tf findfont Tp scalefont setfont
  /cf Tf def  /cs Tp def
} bd
/ULS {currentpoint /uy exch def /ux exch def} bd
/ULE {
  /Tcx currentpoint pop def
  gsave
  newpath
  cf findfont cs scalefont dup
  /FontMatrix get 0 get /Ts exch def /FontInfo get dup
  /UnderlinePosition get Ts mul /To exch def
  /UnderlineThickness get Ts mul /Tt exch def
  ux uy To add moveto  Tcx uy To add lineto
  Tt setlinewidth stroke
  grestore
} bd
/OLE {
  /Tcx currentpoint pop def
  gsave
  newpath
  cf findfont cs scalefont dup
  /FontMatrix get 0 get /Ts exch def /FontInfo get dup
  /UnderlinePosition get Ts mul /To exch def
  /UnderlineThickness get Ts mul /Tt exch def
  ux uy To add cs add moveto Tcx uy To add cs add lineto
  Tt setlinewidth stroke
  grestore
} bd
/SOE {
  /Tcx currentpoint pop def
  gsave
  newpath
  cf findfont cs scalefont dup
  /FontMatrix get 0 get /Ts exch def /FontInfo get dup
  /UnderlinePosition get Ts mul /To exch def
  /UnderlineThickness get Ts mul /Tt exch def
  ux uy To add cs 10 mul 26 idiv add moveto Tcx uy To add cs 10 mul 26 idiv add lineto
  Tt setlinewidth stroke
  grestore
} bd
/QT {
/Y22 exch store
/X22 exch store
/Y21 exch store
/X21 exch store
currentpoint
/Y21 load 2 mul add 3 div exch
/X21 load 2 mul add 3 div exch
/X21 load 2 mul /X22 load add 3 div
/Y21 load 2 mul /Y22 load add 3 div
/X22 load /Y22 load curveto
} bd
/SSPD {
dup length /d exch dict def
{
/v exch def
/k exch def
currentpagedevice k known {
/cpdv currentpagedevice k get def
v cpdv ne {
/upd false def
/nullv v type /nulltype eq def
/nullcpdv cpdv type /nulltype eq def
nullv nullcpdv or
{
/upd true def
} {
/sametype v type cpdv type eq def
sametype {
v type /arraytype eq {
/vlen v length def
/cpdvlen cpdv length def
vlen cpdvlen eq {
0 1 vlen 1 sub {
/i exch def
/obj v i get def
/cpdobj cpdv i get def
obj cpdobj ne {
/upd true def
exit
} if
} for
} {
/upd true def
} ifelse
} {
v type /dicttype eq {
v {
/dv exch def
/dk exch def
/cpddv cpdv dk get def
dv cpddv ne {
/upd true def
exit
} if
} forall
} {
/upd true def
} ifelse
} ifelse
} if
} ifelse
upd true eq {
d k v put
} if
} if
} if
} forall
d length 0 gt {
d setpagedevice
} if
} bd
/RE { % /NewFontName [NewEncodingArray] /FontName RE -
  findfont dup length dict begin
  {
    1 index /FID ne
    {def} {pop pop} ifelse
  } forall
  /Encoding exch def
  /FontName 1 index def
  currentdict definefont pop
  end
} bind def
%%EndResource
%%BeginResource: procset (Apache XML Graphics EPS ProcSet) 1.0 0
%%Version: 1.0 0
%%Copyright: (Copyright 2002-2003 The Apache Software Foundation. License terms: http://www.apache.org/licenses/LICENSE-2.0)
/BeginEPSF { %def
/b4_Inc_state save def         % Save state for cleanup
/dict_count countdictstack def % Count objects on dict stack
/op_count count 1 sub def      % Count objects on operand stack
userdict begin                 % Push userdict on dict stack
/showpage { } def              % Redefine showpage, { } = null proc
0 setgray 0 setlinecap         % Prepare graphics state
1 setlinewidth 0 setlinejoin
10 setmiterlimit [ ] 0 setdash newpath
/languagelevel where           % If level not equal to 1 then
{pop languagelevel             % set strokeadjust and
1 ne                           % overprint to their defaults.
{false setstrokeadjust false setoverprint
} if
} if
} bd
/EndEPSF { %def
count op_count sub {pop} repeat            % Clean up stacks
countdictstack dict_count sub {end} repeat
b4_Inc_state restore
} bd
%%EndResource
%FOPBeginFontDict
%%IncludeResource: font Courier-Bold
%%IncludeResource: font Helvetica
%%IncludeResource: font Courier-BoldOblique
%%IncludeResource: font Courier-Oblique
%%IncludeResource: font Times-Roman
%%IncludeResource: font Helvetica-BoldOblique
%%IncludeResource: font Helvetica-Bold
%%IncludeResource: font Helvetica-Oblique
%%IncludeResource: font Times-BoldItalic
%%IncludeResource: font Courier
%%IncludeResource: font Times-Italic
%%IncludeResource: font Times-Bold
%%IncludeResource: font Symbol
%%IncludeResource: font ZapfDingbats
%FOPEndFontDict
%%BeginResource: encoding WinAnsiEncoding
/WinAnsiEncoding [
/.notdef /.notdef /.notdef /.notdef /.notdef
/.notdef /.notdef /.notdef /.notdef /.notdef
/.notdef /.notdef /.notdef /.notdef /.notdef
/.notdef /.notdef /.notdef /.notdef /.notdef
/.notdef /.notdef /.notdef /.notdef /.notdef
/.notdef /.notdef /.notdef /.notdef /.notdef
/.notdef /.notdef /space /exclam /quotedbl
/numbersign /dollar /percent /ampersand /quotesingle
/parenleft /parenright /asterisk /plus /comma
/hyphen /period /slash /zero /one
/two /three /four /five /six
/seven /eight /nine /colon /semicolon
/less /equal /greater /question /at
/A /B /C /D /E
/F /G /H /I /J
/K /L /M /N /O
/P /Q /R /S /T
/U /V /W /X /Y
/Z /bracketleft /backslash /bracketright /asciicircum
/underscore /quoteleft /a /b /c
/d /e /f /g /h
/i /j /k /l /m
/n /o /p /q /r
/s /t /u /v /w
/x /y /z /braceleft /bar
/braceright /asciitilde /bullet /Euro /bullet
/quotesinglbase /florin /quotedblbase /ellipsis /dagger
/daggerdbl /circumflex /perthousand /Scaron /guilsinglleft
/OE /bullet /Zcaron /bullet /bullet
/quoteleft /quoteright /quotedblleft /quotedblright /bullet
/endash /emdash /asciitilde /trademark /scaron
/guilsinglright /oe /bullet /zcaron /Ydieresis
/space /exclamdown /cent /sterling /currency
/yen /brokenbar /section /dieresis /copyright
/ordfeminine /guillemotleft /logicalnot /sfthyphen /registered
/macron /degree /plusminus /twosuperior /threesuperior
/acute /mu /paragraph /middot /cedilla
/onesuperior /ordmasculine /guillemotright /onequarter /onehalf
/threequarters /questiondown /Agrave /Aacute /Acircumflex
/Atilde /Adieresis /Aring /AE /Ccedilla
/Egrave /Eacute /Ecircumflex /Edieresis /Igrave
/Iacute /Icircumflex /Idieresis /Eth /Ntilde
/Ograve /Oacute /Ocircumflex /Otilde /Odieresis
/multiply /Oslash /Ugrave /Uacute /Ucircumflex
/Udieresis /Yacute /Thorn /germandbls /agrave
/aacute /acircumflex /atilde /adieresis /aring
/ae /ccedilla /egrave /eacute /ecircumflex
/edieresis /igrave /iacute /icircumflex /idieresis
/eth /ntilde /ograve /oacute /ocircumflex
/otilde /odieresis /divide /oslash /ugrave
/uacute /ucircumflex /udieresis /yacute /thorn
/ydieresis
] def
%%EndResource
%FOPBeginFontReencode
/Courier-Bold findfont
dup length dict begin
  {1 index /FID ne {def} {pop pop} ifelse} forall
  /Encoding WinAnsiEncoding def
  currentdict
end
/Courier-Bold exch definefont pop
/Helvetica findfont
dup length dict begin
  {1 index /FID ne {def} {pop pop} ifelse} forall
  /Encoding WinAnsiEncoding def
  currentdict
end
/Helvetica exch definefont pop
/Courier-BoldOblique findfont
dup length dict begin
  {1 index /FID ne {def} {pop pop} ifelse} forall
  /Encoding WinAnsiEncoding def
  currentdict
end
/Courier-BoldOblique exch definefont pop
/Courier-Oblique findfont
dup length dict begin
  {1 index /FID ne {def} {pop pop} ifelse} forall
  /Encoding WinAnsiEncoding def
  currentdict
end
/Courier-Oblique exch definefont pop
/Times-Roman findfont
dup length dict begin
  {1 index /FID ne {def} {pop pop} ifelse} forall
  /Encoding WinAnsiEncoding def
  currentdict
end
/Times-Roman exch definefont pop
/Helvetica-BoldOblique findfont
dup length dict begin
  {1 index /FID ne {def} {pop pop} ifelse} forall
  /Encoding WinAnsiEncoding def
  currentdict
end
/Helvetica-BoldOblique exch definefont pop
/Helvetica-Bold findfont
dup length dict begin
  {1 index /FID ne {def} {pop pop} ifelse} forall
  /Encoding WinAnsiEncoding def
  currentdict
end
/Helvetica-Bold exch definefont pop
/Helvetica-Oblique findfont
dup length dict begin
  {1 index /FID ne {def} {pop pop} ifelse} forall
  /Encoding WinAnsiEncoding def
  currentdict
end
/Helvetica-Oblique exch definefont pop
/Times-BoldItalic findfont
dup length dict begin
  {1 index /FID ne {def} {pop pop} ifelse} forall
  /Encoding WinAnsiEncoding def
  currentdict
end
/Times-BoldItalic exch definefont pop
/Courier findfont
dup length dict begin
  {1 index /FID ne {def} {pop pop} ifelse} forall
  /Encoding WinAnsiEncoding def
  currentdict
end
/Courier exch definefont pop
/Times-Italic findfont
dup length dict begin
  {1 index /FID ne {def} {pop pop} ifelse} forall
  /Encoding WinAnsiEncoding def
  currentdict
end
/Times-Italic exch definefont pop
/Times-Bold findfont
dup length dict begin
  {1 index /FID ne {def} {pop pop} ifelse} forall
  /Encoding WinAnsiEncoding def
  currentdict
end
/Times-Bold exch definefont pop
%FOPEndFontReencode
%%EndProlog
%%Page: 1 1
%%PageBoundingBox: 0 0 560 420
%%BeginPageSetup
[1 0 0 -1 0 420] CT
%%EndPageSetup
GS
1 GC
N
0 0 560 420 re
f
GR
GS
1 GC
N
0 0 560 420 re
f
GR
GS
1 GC
N
73 358 M
507 358 L
507 35 L
73 35 L
cp
f
GR
GS
0.873 GC
1 LJ
0.5 LW
N
126.11 358 M
126.11 35 L
S
GR
GS
0.873 GC
1 LJ
0.5 LW
N
179.756 358 M
179.756 35 L
S
GR
GS
0.873 GC
1 LJ
0.5 LW
N
233.403 358 M
233.403 35 L
S
GR
GS
0.873 GC
1 LJ
0.5 LW
N
287.049 358 M
287.049 35 L
S
GR
GS
0.873 GC
1 LJ
0.5 LW
N
340.696 358 M
340.696 35 L
S
GR
GS
0.873 GC
1 LJ
0.5 LW
N
394.342 358 M
394.342 35 L
S
GR
GS
0.873 GC
1 LJ
0.5 LW
N
447.989 358 M
447.989 35 L
S
GR
GS
0.873 GC
1 LJ
0.5 LW
N
501.635 358 M
501.635 35 L
S
GR
GS
0.873 GC
1 LJ
0.5 LW
N
507 358 M
73 358 L
S
GR
GS
0.873 GC
1 LJ
0.5 LW
N
507 277.25 M
73 277.25 L
S
GR
GS
0.873 GC
1 LJ
0.5 LW
N
507 196.5 M
73 196.5 L
S
GR
GS
0.873 GC
1 LJ
0.5 LW
N
507 115.75 M
73 115.75 L
S
GR
GS
0.873 GC
1 LJ
0.5 LW
N
507 35 M
73 35 L
S
GR
GS
0.149 GC
2 setlinecap
1 LJ
0.5 LW
N
73 358 M
507 358 L
S
GR
GS
0.149 GC
2 setlinecap
1 LJ
0.5 LW
N
126.11 358 M
126.11 353.66 L
S
GR
GS
0.149 GC
2 setlinecap
1 LJ
0.5 LW
N
179.756 358 M
179.756 353.66 L
S
GR
GS
0.149 GC
2 setlinecap
1 LJ
0.5 LW
N
233.403 358 M
233.403 353.66 L
S
GR
GS
0.149 GC
2 setlinecap
1 LJ
0.5 LW
N
287.049 358 M
287.049 353.66 L
S
GR
GS
0.149 GC
2 setlinecap
1 LJ
0.5 LW
N
340.696 358 M
340.696 353.66 L
S
GR
GS
0.149 GC
2 setlinecap
1 LJ
0.5 LW
N
394.342 358 M
394.342 353.66 L
S
GR
GS
0.149 GC
2 setlinecap
1 LJ
0.5 LW
N
447.989 358 M
447.989 353.66 L
S
GR
GS
0.149 GC
2 setlinecap
1 LJ
0.5 LW
N
501.635 358 M
501.635 353.66 L
S
GR
GS
[1 0 0 1 126.11002 364.39999] CT
0.149 GC
/Helvetica 22 F
GS
[1 0 0 1 0 0] CT
-18.5 21 moveto 
1 -1 scale
(100) t 
GR
GR
GS
[1 0 0 1 179.75648 364.39999] CT
0.149 GC
/Helvetica 22 F
GS
[1 0 0 1 0 0] CT
-18.5 21 moveto 
1 -1 scale
(200) t 
GR
GR
GS
[1 0 0 1 233.40297 364.39999] CT
0.149 GC
/Helvetica 22 F
GS
[1 0 0 1 0 0] CT
-18.5 21 moveto 
1 -1 scale
(300) t 
GR
GR
GS
[1 0 0 1 287.04944 364.39999] CT
0.149 GC
/Helvetica 22 F
GS
[1 0 0 1 0 0] CT
-18.5 21 moveto 
1 -1 scale
(400) t 
GR
GR
GS
[1 0 0 1 340.69592 364.39999] CT
0.149 GC
/Helvetica 22 F
GS
[1 0 0 1 0 0] CT
-18.5 21 moveto 
1 -1 scale
(500) t 
GR
GR
GS
[1 0 0 1 394.34241 364.39999] CT
0.149 GC
/Helvetica 22 F
GS
[1 0 0 1 0 0] CT
-18.5 21 moveto 
1 -1 scale
(600) t 
GR
GR
GS
[1 0 0 1 447.98886 364.39999] CT
0.149 GC
/Helvetica 22 F
GS
[1 0 0 1 0 0] CT
-18.5 21 moveto 
1 -1 scale
(700) t 
GR
GR
GS
[1 0 0 1 501.63535 364.39999] CT
0.149 GC
/Helvetica 22 F
GS
[1 0 0 1 0 0] CT
-18.5 21 moveto 
1 -1 scale
(800) t 
GR
GR
GS
[1 0 0 1 290.00021 391.39999] CT
0.149 GC
/Helvetica 24.2 F
GS
[1 0 0 1 0 0] CT
-211.5 23 moveto 
1 -1 scale
(Difference between acquisitions \(hours\)) t 
GR
GR
GS
0.149 GC
2 setlinecap
1 LJ
0.5 LW
N
73 358 M
73 35 L
S
GR
GS
0.149 GC
2 setlinecap
1 LJ
0.5 LW
N
73 358 M
77.34 358 L
S
GR
GS
0.149 GC
2 setlinecap
1 LJ
0.5 LW
N
73 277.25 M
77.34 277.25 L
S
GR
GS
0.149 GC
2 setlinecap
1 LJ
0.5 LW
N
73 196.5 M
77.34 196.5 L
S
GR
GS
0.149 GC
2 setlinecap
1 LJ
0.5 LW
N
73 115.75 M
77.34 115.75 L
S
GR
GS
0.149 GC
2 setlinecap
1 LJ
0.5 LW
N
73 35 M
77.34 35 L
S
GR
GS
[1 0 0 1 66.6 358] CT
0.149 GC
/Helvetica 22 F
GS
[1 0 0 1 0 0] CT
-13 8 moveto 
1 -1 scale
(0) t 
GR
GR
GS
[1 0 0 1 66.6 277.25] CT
0.149 GC
/Helvetica 22 F
GS
[1 0 0 1 0 0] CT
-25 8 moveto 
1 -1 scale
(20) t 
GR
GR
GS
[1 0 0 1 66.6 196.5] CT
0.149 GC
/Helvetica 22 F
GS
[1 0 0 1 0 0] CT
-25 8 moveto 
1 -1 scale
(40) t 
GR
GR
GS
[1 0 0 1 66.6 115.75] CT
0.149 GC
/Helvetica 22 F
GS
[1 0 0 1 0 0] CT
-25 8 moveto 
1 -1 scale
(60) t 
GR
GR
GS
[1 0 0 1 66.6 35] CT
0.149 GC
/Helvetica 22 F
GS
[1 0 0 1 0 0] CT
-25 8 moveto 
1 -1 scale
(80) t 
GR
GR
GS
[0 -1 1 0 39.1 196.49985] CT
0.149 GC
/Helvetica 24.2 F
GS
[1 0 0 1 0 0] CT
-99 -6 moveto 
1 -1 scale
(Comparison score) t 
GR
GR
GS
[1 0 0 1 290.00027 31.97499] CT
/Helvetica-Bold 24.2 F
GS
[1 0 0 1 0 0] CT
-176 -6 moveto 
1 -1 scale
(VeriEye | genuine comparisons) t 
GR
GR
GS
[1 0 0 1 78.36465 119.7875] CT
0 0.702 0 RC
N
2.667 0 M
2.667 1.473 1.473 2.667 0 2.667 C
-1.473 2.667 -2.667 1.473 -2.667 0 C
-2.667 -1.473 -1.473 -2.667 0 -2.667 C
1.473 -2.667 2.667 -1.473 2.667 0 C
cp
f
GR
GS
[1 0 0 1 78.36465 83.45] CT
0 0.702 0 RC
N
/f-1992514645{2.667 0 M
2.667 1.473 1.473 2.667 0 2.667 C
-1.473 2.667 -2.667 1.473 -2.667 0 C
-2.667 -1.473 -1.473 -2.667 0 -2.667 C
1.473 -2.667 2.667 -1.473 2.667 0 C
cp}def
f-1992514645
f
GR
GS
[1 0 0 1 78.36465 103.6375] CT
0 0.702 0 RC
N
f-1992514645
f
GR
GS
[1 0 0 1 78.36465 39.0375] CT
0 0.702 0 RC
N
f-1992514645
f
GR
GS
[1 0 0 1 78.36465 152.08749] CT
0 0.702 0 RC
N
f-1992514645
f
GR
GS
[1 0 0 1 78.36465 196.5] CT
0 0.702 0 RC
N
f-1992514645
f
GR
GS
[1 0 0 1 78.36465 152.08749] CT
0 0.702 0 RC
N
f-1992514645
f
GR
GS
[1 0 0 1 78.36465 152.08749] CT
0 0.702 0 RC
N
f-1992514645
f
GR
GS
[1 0 0 1 78.36465 196.5] CT
0 0.702 0 RC
N
f-1992514645
f
GR
GS
[1 0 0 1 78.36465 196.5] CT
0 0.702 0 RC
N
f-1992514645
f
GR
GS
[1 0 0 1 78.36465 196.5] CT
0 0.702 0 RC
N
f-1992514645
f
GR
GS
[1 0 0 1 78.36465 176.3125] CT
0 0.702 0 RC
N
f-1992514645
f
GR
GS
[1 0 0 1 78.36465 115.75] CT
0 0.702 0 RC
N
f-1992514645
f
GR
GS
[1 0 0 1 78.36465 71.3375] CT
0 0.702 0 RC
N
f-1992514645
f
GR
GS
[1 0 0 1 78.36465 176.3125] CT
0 0.702 0 RC
N
f-1992514645
f
GR
GS
[1 0 0 1 78.36465 91.525] CT
0 0.702 0 RC
N
f-1992514645
f
GR
GS
[1 0 0 1 78.36465 75.375] CT
0 0.702 0 RC
N
f-1992514645
f
GR
GS
[1 0 0 1 78.36465 79.4125] CT
0 0.702 0 RC
N
f-1992514645
f
GR
GS
[1 0 0 1 78.36465 123.825] CT
0 0.702 0 RC
N
f-1992514645
f
GR
GS
[1 0 0 1 78.36465 358] CT
1 0 0 RC
N
f-1992514645
f
GR
GS
[1 0 0 1 78.36465 345.88751] CT
1 0 0 RC
N
f-1992514645
f
GR
GS
[1 0 0 1 78.36465 358] CT
1 0 0 RC
N
f-1992514645
f
GR
GS
[1 0 0 1 78.36465 358] CT
1 0 0 RC
N
f-1992514645
f
GR
GS
[1 0 0 1 78.36465 358] CT
1 0 0 RC
N
f-1992514645
f
GR
GS
[1 0 0 1 78.36465 236.875] CT
1 0 0 RC
N
f-1992514645
f
GR
GS
[1 0 0 1 78.36465 236.875] CT
1 0 0 RC
N
f-1992514645
f
GR
GS
[1 0 0 1 78.36465 240.91251] CT
1 0 0 RC
N
f-1992514645
f
GR
GS
[1 0 0 1 78.36465 236.875] CT
1 0 0 RC
N
f-1992514645
f
GR
GS
[1 0 0 1 78.36465 204.575] CT
1 0 0 RC
N
f-1992514645
f
GR
GS
[1 0 0 1 78.36465 358] CT
1 0 0 RC
N
f-1992514645
f
GR
GS
[1 0 0 1 78.36465 353.96249] CT
1 0 0 RC
N
f-1992514645
f
GR
GS
[1 0 0 1 78.36465 358] CT
1 0 0 RC
N
f-1992514645
f
GR
GS
[1 0 0 1 78.36465 358] CT
1 0 0 RC
N
f-1992514645
f
GR
GS
[1 0 0 1 78.36465 358] CT
1 0 0 RC
N
f-1992514645
f
GR
GS
[1 0 0 1 78.36465 353.96249] CT
1 0 0 RC
N
f-1992514645
f
GR
GS
[1 0 0 1 78.36465 358] CT
1 0 0 RC
N
f-1992514645
f
GR
GS
[1 0 0 1 78.36465 358] CT
1 0 0 RC
N
f-1992514645
f
GR
GS
[1 0 0 1 78.36465 358] CT
1 0 0 RC
N
f-1992514645
f
GR
GS
[1 0 0 1 78.36465 358] CT
1 0 0 RC
N
f-1992514645
f
GR
GS
[1 0 0 1 78.36465 358] CT
1 0 0 RC
N
f-1992514645
f
GR
GS
[1 0 0 1 78.36465 358] CT
1 0 0 RC
N
f-1992514645
f
GR
GS
[1 0 0 1 78.90112 172.27499] CT
0 0.702 0 RC
N
f-1992514645
f
GR
GS
[1 0 0 1 78.90112 329.73749] CT
1 0 0 RC
N
f-1992514645
f
GR
GS
[1 0 0 1 78.90112 240.91251] CT
1 0 0 RC
N
f-1992514645
f
GR
GS
[1 0 0 1 78.90112 353.96249] CT
1 0 0 RC
N
f-1992514645
f
GR
GS
[1 0 0 1 78.90112 329.73749] CT
1 0 0 RC
N
f-1992514645
f
GR
GS
[1 0 0 1 78.90112 333.77499] CT
1 0 0 RC
N
f-1992514645
f
GR
GS
[1 0 0 1 78.90112 321.66251] CT
1 0 0 RC
N
f-1992514645
f
GR
GS
[1 0 0 1 78.90112 358] CT
1 0 0 RC
N
f-1992514645
f
GR
GS
[1 0 0 1 78.90112 341.85001] CT
1 0 0 RC
N
f-1992514645
f
GR
GS
[1 0 0 1 78.90112 325.70001] CT
1 0 0 RC
N
f-1992514645
f
GR
GS
[1 0 0 1 78.90112 317.625] CT
1 0 0 RC
N
f-1992514645
f
GR
GS
[1 0 0 1 78.90112 349.92499] CT
1 0 0 RC
N
f-1992514645
f
GR
GS
[1 0 0 1 78.90112 293.39999] CT
1 0 0 RC
N
f-1992514645
f
GR
GS
[1 0 0 1 78.90112 321.66251] CT
1 0 0 RC
N
f-1992514645
f
GR
GS
[1 0 0 1 78.90112 277.25] CT
1 0 0 RC
N
f-1992514645
f
GR
GS
[1 0 0 1 78.90112 358] CT
1 0 0 RC
N
f-1992514645
f
GR
GS
[1 0 0 1 78.90112 305.51251] CT
1 0 0 RC
N
f-1992514645
f
GR
GS
[1 0 0 1 78.90112 345.88751] CT
1 0 0 RC
N
f-1992514645
f
GR
GS
[1 0 0 1 78.90112 358] CT
1 0 0 RC
N
f-1992514645
f
GR
GS
[1 0 0 1 78.90112 358] CT
1 0 0 RC
N
f-1992514645
f
GR
GS
[1 0 0 1 78.90112 358] CT
1 0 0 RC
N
f-1992514645
f
GR
GS
[1 0 0 1 78.90112 358] CT
1 0 0 RC
N
f-1992514645
f
GR
GS
[1 0 0 1 78.90112 358] CT
1 0 0 RC
N
f-1992514645
f
GR
GS
[1 0 0 1 78.90112 358] CT
1 0 0 RC
N
f-1992514645
f
GR
GS
[1 0 0 1 78.90112 358] CT
1 0 0 RC
N
f-1992514645
f
GR
GS
[1 0 0 1 78.90112 358] CT
1 0 0 RC
N
f-1992514645
f
GR
GS
[1 0 0 1 78.90112 358] CT
1 0 0 RC
N
f-1992514645
f
GR
GS
[1 0 0 1 78.90112 358] CT
1 0 0 RC
N
f-1992514645
f
GR
GS
[1 0 0 1 78.90112 353.96249] CT
1 0 0 RC
N
f-1992514645
f
GR
GS
[1 0 0 1 78.90112 358] CT
1 0 0 RC
N
f-1992514645
f
GR
GS
[1 0 0 1 78.90112 358] CT
1 0 0 RC
N
f-1992514645
f
GR
GS
[1 0 0 1 78.90112 358] CT
1 0 0 RC
N
f-1992514645
f
GR
GS
[1 0 0 1 78.90112 358] CT
1 0 0 RC
N
f-1992514645
f
GR
GS
[1 0 0 1 78.90112 358] CT
1 0 0 RC
N
f-1992514645
f
GR
GS
[1 0 0 1 78.90112 358] CT
1 0 0 RC
N
f-1992514645
f
GR
GS
[1 0 0 1 78.90112 358] CT
1 0 0 RC
N
f-1992514645
f
GR
GS
[1 0 0 1 78.90112 358] CT
1 0 0 RC
N
f-1992514645
f
GR
GS
[1 0 0 1 78.90112 358] CT
1 0 0 RC
N
f-1992514645
f
GR
GS
[1 0 0 1 78.90112 358] CT
1 0 0 RC
N
f-1992514645
f
GR
GS
[1 0 0 1 78.90112 358] CT
1 0 0 RC
N
f-1992514645
f
GR
GS
[1 0 0 1 78.90112 358] CT
1 0 0 RC
N
f-1992514645
f
GR
GS
[1 0 0 1 78.90112 358] CT
1 0 0 RC
N
f-1992514645
f
GR
GS
[1 0 0 1 78.90112 358] CT
1 0 0 RC
N
f-1992514645
f
GR
GS
[1 0 0 1 78.90112 358] CT
1 0 0 RC
N
f-1992514645
f
GR
GS
[1 0 0 1 78.90112 358] CT
1 0 0 RC
N
f-1992514645
f
GR
GS
[1 0 0 1 78.90112 358] CT
1 0 0 RC
N
f-1992514645
f
GR
GS
[1 0 0 1 78.90112 358] CT
1 0 0 RC
N
f-1992514645
f
GR
GS
[1 0 0 1 78.90112 358] CT
1 0 0 RC
N
f-1992514645
f
GR
GS
[1 0 0 1 78.90112 353.96249] CT
1 0 0 RC
N
f-1992514645
f
GR
GS
[1 0 0 1 78.90112 358] CT
1 0 0 RC
N
f-1992514645
f
GR
GS
[1 0 0 1 78.90112 333.77499] CT
1 0 0 RC
N
f-1992514645
f
GR
GS
[1 0 0 1 78.90112 313.58749] CT
1 0 0 RC
N
f-1992514645
f
GR
GS
[1 0 0 1 78.90112 341.85001] CT
1 0 0 RC
N
f-1992514645
f
GR
GS
[1 0 0 1 78.90112 358] CT
1 0 0 RC
N
f-1992514645
f
GR
GS
[1 0 0 1 78.90112 353.96249] CT
1 0 0 RC
N
f-1992514645
f
GR
GS
[1 0 0 1 78.90112 358] CT
1 0 0 RC
N
f-1992514645
f
GR
GS
[1 0 0 1 81.04697 188.425] CT
0 0.702 0 RC
N
f-1992514645
f
GR
GS
[1 0 0 1 81.04697 63.2625] CT
0 0.702 0 RC
N
f-1992514645
f
GR
GS
[1 0 0 1 81.04697 156.125] CT
0 0.702 0 RC
N
f-1992514645
f
GR
GS
[1 0 0 1 81.04697 188.425] CT
0 0.702 0 RC
N
f-1992514645
f
GR
GS
[1 0 0 1 81.04697 253.02499] CT
1 0 0 RC
N
f-1992514645
f
GR
GS
[1 0 0 1 81.04697 358] CT
1 0 0 RC
N
f-1992514645
f
GR
GS
[1 0 0 1 81.04697 301.47501] CT
1 0 0 RC
N
f-1992514645
f
GR
GS
[1 0 0 1 81.04697 358] CT
1 0 0 RC
N
f-1992514645
f
GR
GS
[1 0 0 1 81.04697 313.58749] CT
1 0 0 RC
N
f-1992514645
f
GR
GS
[1 0 0 1 81.04697 358] CT
1 0 0 RC
N
f-1992514645
f
GR
GS
[1 0 0 1 81.04697 358] CT
1 0 0 RC
N
f-1992514645
f
GR
GS
[1 0 0 1 81.04697 358] CT
1 0 0 RC
N
f-1992514645
f
GR
GS
[1 0 0 1 81.04697 358] CT
1 0 0 RC
N
f-1992514645
f
GR
GS
[1 0 0 1 81.04697 236.875] CT
1 0 0 RC
N
f-1992514645
f
GR
GS
[1 0 0 1 81.04697 358] CT
1 0 0 RC
N
f-1992514645
f
GR
GS
[1 0 0 1 81.04697 358] CT
1 0 0 RC
N
f-1992514645
f
GR
GS
[1 0 0 1 81.04697 358] CT
1 0 0 RC
N
f-1992514645
f
GR
GS
[1 0 0 1 81.04697 244.95] CT
1 0 0 RC
N
f-1992514645
f
GR
GS
[1 0 0 1 81.04697 358] CT
1 0 0 RC
N
f-1992514645
f
GR
GS
[1 0 0 1 81.04697 358] CT
1 0 0 RC
N
f-1992514645
f
GR
GS
[1 0 0 1 81.04697 333.77499] CT
1 0 0 RC
N
f-1992514645
f
GR
GS
[1 0 0 1 81.58344 349.92499] CT
1 0 0 RC
N
f-1992514645
f
GR
GS
[1 0 0 1 81.58344 313.58749] CT
1 0 0 RC
N
f-1992514645
f
GR
GS
[1 0 0 1 81.58344 349.92499] CT
1 0 0 RC
N
f-1992514645
f
GR
GS
[1 0 0 1 81.58344 358] CT
1 0 0 RC
N
f-1992514645
f
GR
GS
[1 0 0 1 81.58344 358] CT
1 0 0 RC
N
f-1992514645
f
GR
GS
[1 0 0 1 81.58344 337.8125] CT
1 0 0 RC
N
f-1992514645
f
GR
GS
[1 0 0 1 81.58344 358] CT
1 0 0 RC
N
f-1992514645
f
GR
GS
[1 0 0 1 81.58344 353.96249] CT
1 0 0 RC
N
f-1992514645
f
GR
GS
[1 0 0 1 81.58344 358] CT
1 0 0 RC
N
f-1992514645
f
GR
GS
[1 0 0 1 81.58344 333.77499] CT
1 0 0 RC
N
f-1992514645
f
GR
GS
[1 0 0 1 81.58344 353.96249] CT
1 0 0 RC
N
f-1992514645
f
GR
GS
[1 0 0 1 81.58344 325.70001] CT
1 0 0 RC
N
f-1992514645
f
GR
GS
[1 0 0 1 81.58344 345.88751] CT
1 0 0 RC
N
f-1992514645
f
GR
GS
[1 0 0 1 81.58344 358] CT
1 0 0 RC
N
f-1992514645
f
GR
GS
[1 0 0 1 81.58344 325.70001] CT
1 0 0 RC
N
f-1992514645
f
GR
GS
[1 0 0 1 81.58344 358] CT
1 0 0 RC
N
f-1992514645
f
GR
GS
[1 0 0 1 81.58344 341.85001] CT
1 0 0 RC
N
f-1992514645
f
GR
GS
[1 0 0 1 81.58344 305.51251] CT
1 0 0 RC
N
f-1992514645
f
GR
GS
[1 0 0 1 81.58344 321.66251] CT
1 0 0 RC
N
f-1992514645
f
GR
GS
[1 0 0 1 81.58344 337.8125] CT
1 0 0 RC
N
f-1992514645
f
GR
GS
[1 0 0 1 81.58344 358] CT
1 0 0 RC
N
f-1992514645
f
GR
GS
[1 0 0 1 81.58344 345.88751] CT
1 0 0 RC
N
f-1992514645
f
GR
GS
[1 0 0 1 81.58344 341.85001] CT
1 0 0 RC
N
f-1992514645
f
GR
GS
[1 0 0 1 81.58344 321.66251] CT
1 0 0 RC
N
f-1992514645
f
GR
GS
[1 0 0 1 81.58344 358] CT
1 0 0 RC
N
f-1992514645
f
GR
GS
[1 0 0 1 81.58344 358] CT
1 0 0 RC
N
f-1992514645
f
GR
GS
[1 0 0 1 81.58344 358] CT
1 0 0 RC
N
f-1992514645
f
GR
GS
[1 0 0 1 81.58344 358] CT
1 0 0 RC
N
f-1992514645
f
GR
GS
[1 0 0 1 81.58344 358] CT
1 0 0 RC
N
f-1992514645
f
GR
GS
[1 0 0 1 81.58344 337.8125] CT
1 0 0 RC
N
f-1992514645
f
GR
GS
[1 0 0 1 81.58344 313.58749] CT
1 0 0 RC
N
f-1992514645
f
GR
GS
[1 0 0 1 81.58344 358] CT
1 0 0 RC
N
f-1992514645
f
GR
GS
[1 0 0 1 81.58344 358] CT
1 0 0 RC
N
f-1992514645
f
GR
GS
[1 0 0 1 81.58344 358] CT
1 0 0 RC
N
f-1992514645
f
GR
GS
[1 0 0 1 81.58344 341.85001] CT
1 0 0 RC
N
f-1992514645
f
GR
GS
[1 0 0 1 81.58344 358] CT
1 0 0 RC
N
f-1992514645
f
GR
GS
[1 0 0 1 81.58344 358] CT
1 0 0 RC
N
f-1992514645
f
GR
GS
[1 0 0 1 81.58344 281.28751] CT
1 0 0 RC
N
f-1992514645
f
GR
GS
[1 0 0 1 81.58344 358] CT
1 0 0 RC
N
f-1992514645
f
GR
GS
[1 0 0 1 81.58344 358] CT
1 0 0 RC
N
f-1992514645
f
GR
GS
[1 0 0 1 81.58344 265.13751] CT
1 0 0 RC
N
f-1992514645
f
GR
GS
[1 0 0 1 81.58344 358] CT
1 0 0 RC
N
f-1992514645
f
GR
GS
[1 0 0 1 81.58344 358] CT
1 0 0 RC
N
f-1992514645
f
GR
GS
[1 0 0 1 81.58344 309.54999] CT
1 0 0 RC
N
f-1992514645
f
GR
GS
[1 0 0 1 81.58344 358] CT
1 0 0 RC
N
f-1992514645
f
GR
GS
[1 0 0 1 81.58344 358] CT
1 0 0 RC
N
f-1992514645
f
GR
GS
[1 0 0 1 81.58344 358] CT
1 0 0 RC
N
f-1992514645
f
GR
GS
[1 0 0 1 81.58344 333.77499] CT
1 0 0 RC
N
f-1992514645
f
GR
GS
[1 0 0 1 81.58344 358] CT
1 0 0 RC
N
f-1992514645
f
GR
GS
[1 0 0 1 81.58344 358] CT
1 0 0 RC
N
f-1992514645
f
GR
GS
[1 0 0 1 81.58344 358] CT
1 0 0 RC
N
f-1992514645
f
GR
GS
[1 0 0 1 81.58344 358] CT
1 0 0 RC
N
f-1992514645
f
GR
GS
[1 0 0 1 81.58344 358] CT
1 0 0 RC
N
f-1992514645
f
GR
GS
[1 0 0 1 81.58344 358] CT
1 0 0 RC
N
f-1992514645
f
GR
GS
[1 0 0 1 81.58344 345.88751] CT
1 0 0 RC
N
f-1992514645
f
GR
GS
[1 0 0 1 81.58344 358] CT
1 0 0 RC
N
f-1992514645
f
GR
GS
[1 0 0 1 81.58344 358] CT
1 0 0 RC
N
f-1992514645
f
GR
GS
[1 0 0 1 82.1199 156.125] CT
0 0.702 0 RC
N
f-1992514645
f
GR
GS
[1 0 0 1 82.1199 156.125] CT
0 0.702 0 RC
N
f-1992514645
f
GR
GS
[1 0 0 1 82.1199 192.46249] CT
0 0.702 0 RC
N
f-1992514645
f
GR
GS
[1 0 0 1 82.1199 285.32501] CT
1 0 0 RC
N
f-1992514645
f
GR
GS
[1 0 0 1 82.1199 269.17499] CT
1 0 0 RC
N
f-1992514645
f
GR
GS
[1 0 0 1 82.1199 232.83749] CT
1 0 0 RC
N
f-1992514645
f
GR
GS
[1 0 0 1 82.1199 309.54999] CT
1 0 0 RC
N
f-1992514645
f
GR
GS
[1 0 0 1 82.1199 269.17499] CT
1 0 0 RC
N
f-1992514645
f
GR
GS
[1 0 0 1 82.1199 317.625] CT
1 0 0 RC
N
f-1992514645
f
GR
GS
[1 0 0 1 82.1199 341.85001] CT
1 0 0 RC
N
f-1992514645
f
GR
GS
[1 0 0 1 82.1199 333.77499] CT
1 0 0 RC
N
f-1992514645
f
GR
GS
[1 0 0 1 82.1199 309.54999] CT
1 0 0 RC
N
f-1992514645
f
GR
GS
[1 0 0 1 82.1199 329.73749] CT
1 0 0 RC
N
f-1992514645
f
GR
GS
[1 0 0 1 82.1199 358] CT
1 0 0 RC
N
f-1992514645
f
GR
GS
[1 0 0 1 82.1199 305.51251] CT
1 0 0 RC
N
f-1992514645
f
GR
GS
[1 0 0 1 82.1199 358] CT
1 0 0 RC
N
f-1992514645
f
GR
GS
[1 0 0 1 82.1199 358] CT
1 0 0 RC
N
f-1992514645
f
GR
GS
[1 0 0 1 82.1199 345.88751] CT
1 0 0 RC
N
f-1992514645
f
GR
GS
[1 0 0 1 82.1199 353.96249] CT
1 0 0 RC
N
f-1992514645
f
GR
GS
[1 0 0 1 82.1199 358] CT
1 0 0 RC
N
f-1992514645
f
GR
GS
[1 0 0 1 82.1199 305.51251] CT
1 0 0 RC
N
f-1992514645
f
GR
GS
[1 0 0 1 82.1199 317.625] CT
1 0 0 RC
N
f-1992514645
f
GR
GS
[1 0 0 1 82.1199 333.77499] CT
1 0 0 RC
N
f-1992514645
f
GR
GS
[1 0 0 1 82.1199 305.51251] CT
1 0 0 RC
N
f-1992514645
f
GR
GS
[1 0 0 1 82.1199 325.70001] CT
1 0 0 RC
N
f-1992514645
f
GR
GS
[1 0 0 1 82.1199 285.32501] CT
1 0 0 RC
N
f-1992514645
f
GR
GS
[1 0 0 1 82.1199 358] CT
1 0 0 RC
N
f-1992514645
f
GR
GS
[1 0 0 1 82.1199 257.0625] CT
1 0 0 RC
N
f-1992514645
f
GR
GS
[1 0 0 1 82.1199 341.85001] CT
1 0 0 RC
N
f-1992514645
f
GR
GS
[1 0 0 1 82.1199 297.4375] CT
1 0 0 RC
N
f-1992514645
f
GR
GS
[1 0 0 1 82.1199 353.96249] CT
1 0 0 RC
N
f-1992514645
f
GR
GS
[1 0 0 1 82.1199 305.51251] CT
1 0 0 RC
N
f-1992514645
f
GR
GS
[1 0 0 1 83.19283 139.97501] CT
0 0.702 0 RC
N
f-1992514645
f
GR
GS
[1 0 0 1 83.19283 75.375] CT
0 0.702 0 RC
N
f-1992514645
f
GR
GS
[1 0 0 1 83.19283 35] CT
0 0.702 0 RC
N
f-1992514645
f
GR
GS
[1 0 0 1 83.19283 107.675] CT
0 0.702 0 RC
N
f-1992514645
f
GR
GS
[1 0 0 1 83.19283 71.3375] CT
0 0.702 0 RC
N
f-1992514645
f
GR
GS
[1 0 0 1 83.19283 148.05] CT
0 0.702 0 RC
N
f-1992514645
f
GR
GS
[1 0 0 1 83.19283 35] CT
0 0.702 0 RC
N
f-1992514645
f
GR
GS
[1 0 0 1 83.19283 358] CT
1 0 0 RC
N
f-1992514645
f
GR
GS
[1 0 0 1 83.19283 358] CT
1 0 0 RC
N
f-1992514645
f
GR
GS
[1 0 0 1 83.19283 358] CT
1 0 0 RC
N
f-1992514645
f
GR
GS
[1 0 0 1 83.19283 358] CT
1 0 0 RC
N
f-1992514645
f
GR
GS
[1 0 0 1 83.19283 358] CT
1 0 0 RC
N
f-1992514645
f
GR
GS
[1 0 0 1 83.19283 358] CT
1 0 0 RC
N
f-1992514645
f
GR
GS
[1 0 0 1 83.19283 358] CT
1 0 0 RC
N
f-1992514645
f
GR
GS
[1 0 0 1 83.19283 345.88751] CT
1 0 0 RC
N
f-1992514645
f
GR
GS
[1 0 0 1 83.19283 358] CT
1 0 0 RC
N
f-1992514645
f
GR
GS
[1 0 0 1 83.19283 358] CT
1 0 0 RC
N
f-1992514645
f
GR
GS
[1 0 0 1 83.19283 358] CT
1 0 0 RC
N
f-1992514645
f
GR
GS
[1 0 0 1 83.19283 358] CT
1 0 0 RC
N
f-1992514645
f
GR
GS
[1 0 0 1 83.19283 358] CT
1 0 0 RC
N
f-1992514645
f
GR
GS
[1 0 0 1 83.19283 349.92499] CT
1 0 0 RC
N
f-1992514645
f
GR
GS
[1 0 0 1 83.19283 358] CT
1 0 0 RC
N
f-1992514645
f
GR
GS
[1 0 0 1 83.19283 358] CT
1 0 0 RC
N
f-1992514645
f
GR
GS
[1 0 0 1 83.19283 358] CT
1 0 0 RC
N
f-1992514645
f
GR
GS
[1 0 0 1 83.19283 273.21249] CT
1 0 0 RC
N
f-1992514645
f
GR
GS
[1 0 0 1 83.19283 358] CT
1 0 0 RC
N
f-1992514645
f
GR
GS
[1 0 0 1 83.19283 358] CT
1 0 0 RC
N
f-1992514645
f
GR
GS
[1 0 0 1 83.19283 337.8125] CT
1 0 0 RC
N
f-1992514645
f
GR
GS
[1 0 0 1 83.19283 358] CT
1 0 0 RC
N
f-1992514645
f
GR
GS
[1 0 0 1 83.19283 261.10001] CT
1 0 0 RC
N
f-1992514645
f
GR
GS
[1 0 0 1 83.19283 248.9875] CT
1 0 0 RC
N
f-1992514645
f
GR
GS
[1 0 0 1 83.19283 325.70001] CT
1 0 0 RC
N
f-1992514645
f
GR
GS
[1 0 0 1 83.19283 261.10001] CT
1 0 0 RC
N
f-1992514645
f
GR
GS
[1 0 0 1 83.19283 265.13751] CT
1 0 0 RC
N
f-1992514645
f
GR
GS
[1 0 0 1 83.19283 325.70001] CT
1 0 0 RC
N
f-1992514645
f
GR
GS
[1 0 0 1 83.19283 277.25] CT
1 0 0 RC
N
f-1992514645
f
GR
GS
[1 0 0 1 83.19283 325.70001] CT
1 0 0 RC
N
f-1992514645
f
GR
GS
[1 0 0 1 83.19283 325.70001] CT
1 0 0 RC
N
f-1992514645
f
GR
GS
[1 0 0 1 83.19283 289.36249] CT
1 0 0 RC
N
f-1992514645
f
GR
GS
[1 0 0 1 83.19283 358] CT
1 0 0 RC
N
f-1992514645
f
GR
GS
[1 0 0 1 83.19283 277.25] CT
1 0 0 RC
N
f-1992514645
f
GR
GS
[1 0 0 1 83.19283 305.51251] CT
1 0 0 RC
N
f-1992514645
f
GR
GS
[1 0 0 1 83.19283 277.25] CT
1 0 0 RC
N
f-1992514645
f
GR
GS
[1 0 0 1 83.19283 329.73749] CT
1 0 0 RC
N
f-1992514645
f
GR
GS
[1 0 0 1 83.19283 269.17499] CT
1 0 0 RC
N
f-1992514645
f
GR
GS
[1 0 0 1 83.19283 325.70001] CT
1 0 0 RC
N
f-1992514645
f
GR
GS
[1 0 0 1 83.19283 358] CT
1 0 0 RC
N
f-1992514645
f
GR
GS
[1 0 0 1 83.19283 349.92499] CT
1 0 0 RC
N
f-1992514645
f
GR
GS
[1 0 0 1 83.19283 358] CT
1 0 0 RC
N
f-1992514645
f
GR
GS
[1 0 0 1 83.19283 358] CT
1 0 0 RC
N
f-1992514645
f
GR
GS
[1 0 0 1 83.19283 204.575] CT
1 0 0 RC
N
f-1992514645
f
GR
GS
[1 0 0 1 84.26576 75.375] CT
0 0.702 0 RC
N
f-1992514645
f
GR
GS
[1 0 0 1 84.26576 79.4125] CT
0 0.702 0 RC
N
f-1992514645
f
GR
GS
[1 0 0 1 84.26576 87.4875] CT
0 0.702 0 RC
N
f-1992514645
f
GR
GS
[1 0 0 1 84.26576 111.7125] CT
0 0.702 0 RC
N
f-1992514645
f
GR
GS
[1 0 0 1 84.26576 156.125] CT
0 0.702 0 RC
N
f-1992514645
f
GR
GS
[1 0 0 1 84.26576 139.97501] CT
0 0.702 0 RC
N
f-1992514645
f
GR
GS
[1 0 0 1 84.26576 160.16251] CT
0 0.702 0 RC
N
f-1992514645
f
GR
GS
[1 0 0 1 84.26576 135.9375] CT
0 0.702 0 RC
N
f-1992514645
f
GR
GS
[1 0 0 1 84.26576 71.3375] CT
0 0.702 0 RC
N
f-1992514645
f
GR
GS
[1 0 0 1 84.26576 123.825] CT
0 0.702 0 RC
N
f-1992514645
f
GR
GS
[1 0 0 1 84.26576 172.27499] CT
0 0.702 0 RC
N
f-1992514645
f
GR
GS
[1 0 0 1 84.26576 176.3125] CT
0 0.702 0 RC
N
f-1992514645
f
GR
GS
[1 0 0 1 84.26576 358] CT
1 0 0 RC
N
f-1992514645
f
GR
GS
[1 0 0 1 84.26576 358] CT
1 0 0 RC
N
f-1992514645
f
GR
GS
[1 0 0 1 84.26576 358] CT
1 0 0 RC
N
f-1992514645
f
GR
GS
[1 0 0 1 84.26576 325.70001] CT
1 0 0 RC
N
f-1992514645
f
GR
GS
[1 0 0 1 84.26576 333.77499] CT
1 0 0 RC
N
f-1992514645
f
GR
GS
[1 0 0 1 84.26576 236.875] CT
1 0 0 RC
N
f-1992514645
f
GR
GS
[1 0 0 1 84.26576 253.02499] CT
1 0 0 RC
N
f-1992514645
f
GR
GS
[1 0 0 1 84.26576 325.70001] CT
1 0 0 RC
N
f-1992514645
f
GR
GS
[1 0 0 1 84.26576 358] CT
1 0 0 RC
N
f-1992514645
f
GR
GS
[1 0 0 1 84.26576 325.70001] CT
1 0 0 RC
N
f-1992514645
f
GR
GS
[1 0 0 1 84.26576 358] CT
1 0 0 RC
N
f-1992514645
f
GR
GS
[1 0 0 1 84.26576 358] CT
1 0 0 RC
N
f-1992514645
f
GR
GS
[1 0 0 1 84.26576 358] CT
1 0 0 RC
N
f-1992514645
f
GR
GS
[1 0 0 1 84.26576 358] CT
1 0 0 RC
N
f-1992514645
f
GR
GS
[1 0 0 1 91.2398 180.35001] CT
0 0.702 0 RC
N
f-1992514645
f
GR
GS
[1 0 0 1 91.2398 115.75] CT
0 0.702 0 RC
N
f-1992514645
f
GR
GS
[1 0 0 1 91.2398 160.16251] CT
0 0.702 0 RC
N
f-1992514645
f
GR
GS
[1 0 0 1 91.2398 172.27499] CT
0 0.702 0 RC
N
f-1992514645
f
GR
GS
[1 0 0 1 91.2398 111.7125] CT
0 0.702 0 RC
N
f-1992514645
f
GR
GS
[1 0 0 1 91.2398 345.88751] CT
1 0 0 RC
N
f-1992514645
f
GR
GS
[1 0 0 1 91.2398 358] CT
1 0 0 RC
N
f-1992514645
f
GR
GS
[1 0 0 1 91.2398 305.51251] CT
1 0 0 RC
N
f-1992514645
f
GR
GS
[1 0 0 1 91.2398 345.88751] CT
1 0 0 RC
N
f-1992514645
f
GR
GS
[1 0 0 1 91.2398 353.96249] CT
1 0 0 RC
N
f-1992514645
f
GR
GS
[1 0 0 1 91.2398 317.625] CT
1 0 0 RC
N
f-1992514645
f
GR
GS
[1 0 0 1 91.2398 349.92499] CT
1 0 0 RC
N
f-1992514645
f
GR
GS
[1 0 0 1 91.2398 358] CT
1 0 0 RC
N
f-1992514645
f
GR
GS
[1 0 0 1 91.2398 329.73749] CT
1 0 0 RC
N
f-1992514645
f
GR
GS
[1 0 0 1 91.2398 220.72501] CT
1 0 0 RC
N
f-1992514645
f
GR
GS
[1 0 0 1 91.2398 358] CT
1 0 0 RC
N
f-1992514645
f
GR
GS
[1 0 0 1 91.2398 329.73749] CT
1 0 0 RC
N
f-1992514645
f
GR
GS
[1 0 0 1 91.2398 353.96249] CT
1 0 0 RC
N
f-1992514645
f
GR
GS
[1 0 0 1 91.2398 317.625] CT
1 0 0 RC
N
f-1992514645
f
GR
GS
[1 0 0 1 91.2398 337.8125] CT
1 0 0 RC
N
f-1992514645
f
GR
GS
[1 0 0 1 91.2398 349.92499] CT
1 0 0 RC
N
f-1992514645
f
GR
GS
[1 0 0 1 91.2398 333.77499] CT
1 0 0 RC
N
f-1992514645
f
GR
GS
[1 0 0 1 91.2398 358] CT
1 0 0 RC
N
f-1992514645
f
GR
GS
[1 0 0 1 91.2398 313.58749] CT
1 0 0 RC
N
f-1992514645
f
GR
GS
[1 0 0 1 91.2398 358] CT
1 0 0 RC
N
f-1992514645
f
GR
GS
[1 0 0 1 91.2398 321.66251] CT
1 0 0 RC
N
f-1992514645
f
GR
GS
[1 0 0 1 91.2398 358] CT
1 0 0 RC
N
f-1992514645
f
GR
GS
[1 0 0 1 91.2398 358] CT
1 0 0 RC
N
f-1992514645
f
GR
GS
[1 0 0 1 91.2398 358] CT
1 0 0 RC
N
f-1992514645
f
GR
GS
[1 0 0 1 91.2398 358] CT
1 0 0 RC
N
f-1992514645
f
GR
GS
[1 0 0 1 91.2398 358] CT
1 0 0 RC
N
f-1992514645
f
GR
GS
[1 0 0 1 91.2398 358] CT
1 0 0 RC
N
f-1992514645
f
GR
GS
[1 0 0 1 91.2398 358] CT
1 0 0 RC
N
f-1992514645
f
GR
GS
[1 0 0 1 91.2398 358] CT
1 0 0 RC
N
f-1992514645
f
GR
GS
[1 0 0 1 91.2398 358] CT
1 0 0 RC
N
f-1992514645
f
GR
GS
[1 0 0 1 91.2398 358] CT
1 0 0 RC
N
f-1992514645
f
GR
GS
[1 0 0 1 91.2398 358] CT
1 0 0 RC
N
f-1992514645
f
GR
GS
[1 0 0 1 91.2398 358] CT
1 0 0 RC
N
f-1992514645
f
GR
GS
[1 0 0 1 91.2398 358] CT
1 0 0 RC
N
f-1992514645
f
GR
GS
[1 0 0 1 91.2398 358] CT
1 0 0 RC
N
f-1992514645
f
GR
GS
[1 0 0 1 91.2398 358] CT
1 0 0 RC
N
f-1992514645
f
GR
GS
[1 0 0 1 91.2398 353.96249] CT
1 0 0 RC
N
f-1992514645
f
GR
GS
[1 0 0 1 91.2398 353.96249] CT
1 0 0 RC
N
f-1992514645
f
GR
GS
[1 0 0 1 91.2398 358] CT
1 0 0 RC
N
f-1992514645
f
GR
GS
[1 0 0 1 91.2398 358] CT
1 0 0 RC
N
f-1992514645
f
GR
GS
[1 0 0 1 91.2398 358] CT
1 0 0 RC
N
f-1992514645
f
GR
GS
[1 0 0 1 91.2398 358] CT
1 0 0 RC
N
f-1992514645
f
GR
GS
[1 0 0 1 91.2398 358] CT
1 0 0 RC
N
f-1992514645
f
GR
GS
[1 0 0 1 91.77627 341.85001] CT
1 0 0 RC
N
f-1992514645
f
GR
GS
[1 0 0 1 91.77627 345.88751] CT
1 0 0 RC
N
f-1992514645
f
GR
GS
[1 0 0 1 91.77627 358] CT
1 0 0 RC
N
f-1992514645
f
GR
GS
[1 0 0 1 91.77627 333.77499] CT
1 0 0 RC
N
f-1992514645
f
GR
GS
[1 0 0 1 91.77627 333.77499] CT
1 0 0 RC
N
f-1992514645
f
GR
GS
[1 0 0 1 91.77627 329.73749] CT
1 0 0 RC
N
f-1992514645
f
GR
GS
[1 0 0 1 91.77627 345.88751] CT
1 0 0 RC
N
f-1992514645
f
GR
GS
[1 0 0 1 91.77627 345.88751] CT
1 0 0 RC
N
f-1992514645
f
GR
GS
[1 0 0 1 91.77627 341.85001] CT
1 0 0 RC
N
f-1992514645
f
GR
GS
[1 0 0 1 91.77627 358] CT
1 0 0 RC
N
f-1992514645
f
GR
GS
[1 0 0 1 91.77627 358] CT
1 0 0 RC
N
f-1992514645
f
GR
GS
[1 0 0 1 91.77627 358] CT
1 0 0 RC
N
f-1992514645
f
GR
GS
[1 0 0 1 91.77627 349.92499] CT
1 0 0 RC
N
f-1992514645
f
GR
GS
[1 0 0 1 91.77627 358] CT
1 0 0 RC
N
f-1992514645
f
GR
GS
[1 0 0 1 91.77627 358] CT
1 0 0 RC
N
f-1992514645
f
GR
GS
[1 0 0 1 94.45859 192.46249] CT
0 0.702 0 RC
N
f-1992514645
f
GR
GS
[1 0 0 1 94.45859 358] CT
1 0 0 RC
N
f-1992514645
f
GR
GS
[1 0 0 1 94.45859 358] CT
1 0 0 RC
N
f-1992514645
f
GR
GS
[1 0 0 1 94.45859 358] CT
1 0 0 RC
N
f-1992514645
f
GR
GS
[1 0 0 1 94.45859 358] CT
1 0 0 RC
N
f-1992514645
f
GR
GS
[1 0 0 1 94.45859 358] CT
1 0 0 RC
N
f-1992514645
f
GR
GS
[1 0 0 1 94.45859 358] CT
1 0 0 RC
N
f-1992514645
f
GR
GS
[1 0 0 1 94.45859 358] CT
1 0 0 RC
N
f-1992514645
f
GR
GS
[1 0 0 1 94.45859 358] CT
1 0 0 RC
N
f-1992514645
f
GR
GS
[1 0 0 1 94.45859 358] CT
1 0 0 RC
N
f-1992514645
f
GR
GS
[1 0 0 1 94.45859 358] CT
1 0 0 RC
N
f-1992514645
f
GR
GS
[1 0 0 1 94.45859 358] CT
1 0 0 RC
N
f-1992514645
f
GR
GS
[1 0 0 1 94.45859 358] CT
1 0 0 RC
N
f-1992514645
f
GR
GS
[1 0 0 1 94.45859 358] CT
1 0 0 RC
N
f-1992514645
f
GR
GS
[1 0 0 1 94.45859 358] CT
1 0 0 RC
N
f-1992514645
f
GR
GS
[1 0 0 1 94.45859 358] CT
1 0 0 RC
N
f-1992514645
f
GR
GS
[1 0 0 1 94.45859 358] CT
1 0 0 RC
N
f-1992514645
f
GR
GS
[1 0 0 1 94.45859 358] CT
1 0 0 RC
N
f-1992514645
f
GR
GS
[1 0 0 1 94.45859 358] CT
1 0 0 RC
N
f-1992514645
f
GR
GS
[1 0 0 1 94.45859 358] CT
1 0 0 RC
N
f-1992514645
f
GR
GS
[1 0 0 1 94.45859 358] CT
1 0 0 RC
N
f-1992514645
f
GR
GS
[1 0 0 1 94.45859 358] CT
1 0 0 RC
N
f-1992514645
f
GR
GS
[1 0 0 1 94.45859 358] CT
1 0 0 RC
N
f-1992514645
f
GR
GS
[1 0 0 1 94.45859 358] CT
1 0 0 RC
N
f-1992514645
f
GR
GS
[1 0 0 1 94.45859 358] CT
1 0 0 RC
N
f-1992514645
f
GR
GS
[1 0 0 1 94.45859 358] CT
1 0 0 RC
N
f-1992514645
f
GR
GS
[1 0 0 1 94.45859 345.88751] CT
1 0 0 RC
N
f-1992514645
f
GR
GS
[1 0 0 1 94.45859 358] CT
1 0 0 RC
N
f-1992514645
f
GR
GS
[1 0 0 1 94.45859 285.32501] CT
1 0 0 RC
N
f-1992514645
f
GR
GS
[1 0 0 1 94.45859 257.0625] CT
1 0 0 RC
N
f-1992514645
f
GR
GS
[1 0 0 1 94.45859 224.7625] CT
1 0 0 RC
N
f-1992514645
f
GR
GS
[1 0 0 1 94.45859 333.77499] CT
1 0 0 RC
N
f-1992514645
f
GR
GS
[1 0 0 1 94.45859 358] CT
1 0 0 RC
N
f-1992514645
f
GR
GS
[1 0 0 1 94.45859 321.66251] CT
1 0 0 RC
N
f-1992514645
f
GR
GS
[1 0 0 1 94.45859 358] CT
1 0 0 RC
N
f-1992514645
f
GR
GS
[1 0 0 1 94.45859 345.88751] CT
1 0 0 RC
N
f-1992514645
f
GR
GS
[1 0 0 1 94.45859 349.92499] CT
1 0 0 RC
N
f-1992514645
f
GR
GS
[1 0 0 1 94.45859 358] CT
1 0 0 RC
N
f-1992514645
f
GR
GS
[1 0 0 1 94.45859 349.92499] CT
1 0 0 RC
N
f-1992514645
f
GR
GS
[1 0 0 1 94.45859 358] CT
1 0 0 RC
N
f-1992514645
f
GR
GS
[1 0 0 1 94.45859 358] CT
1 0 0 RC
N
f-1992514645
f
GR
GS
[1 0 0 1 94.45859 321.66251] CT
1 0 0 RC
N
f-1992514645
f
GR
GS
[1 0 0 1 94.45859 358] CT
1 0 0 RC
N
f-1992514645
f
GR
GS
[1 0 0 1 94.45859 236.875] CT
1 0 0 RC
N
f-1992514645
f
GR
GS
[1 0 0 1 94.45859 244.95] CT
1 0 0 RC
N
f-1992514645
f
GR
GS
[1 0 0 1 94.45859 253.02499] CT
1 0 0 RC
N
f-1992514645
f
GR
GS
[1 0 0 1 94.45859 358] CT
1 0 0 RC
N
f-1992514645
f
GR
GS
[1 0 0 1 94.45859 224.7625] CT
1 0 0 RC
N
f-1992514645
f
GR
GS
[1 0 0 1 94.45859 232.83749] CT
1 0 0 RC
N
f-1992514645
f
GR
GS
[1 0 0 1 94.45859 208.6125] CT
1 0 0 RC
N
f-1992514645
f
GR
GS
[1 0 0 1 94.45859 353.96249] CT
1 0 0 RC
N
f-1992514645
f
GR
GS
[1 0 0 1 94.45859 244.95] CT
1 0 0 RC
N
f-1992514645
f
GR
GS
[1 0 0 1 94.45859 248.9875] CT
1 0 0 RC
N
f-1992514645
f
GR
GS
[1 0 0 1 94.45859 301.47501] CT
1 0 0 RC
N
f-1992514645
f
GR
GS
[1 0 0 1 96.06799 192.46249] CT
0 0.702 0 RC
N
f-1992514645
f
GR
GS
[1 0 0 1 96.06799 196.5] CT
0 0.702 0 RC
N
f-1992514645
f
GR
GS
[1 0 0 1 96.06799 358] CT
1 0 0 RC
N
f-1992514645
f
GR
GS
[1 0 0 1 96.06799 358] CT
1 0 0 RC
N
f-1992514645
f
GR
GS
[1 0 0 1 96.06799 358] CT
1 0 0 RC
N
f-1992514645
f
GR
GS
[1 0 0 1 96.06799 358] CT
1 0 0 RC
N
f-1992514645
f
GR
GS
[1 0 0 1 96.06799 358] CT
1 0 0 RC
N
f-1992514645
f
GR
GS
[1 0 0 1 96.06799 358] CT
1 0 0 RC
N
f-1992514645
f
GR
GS
[1 0 0 1 96.06799 358] CT
1 0 0 RC
N
f-1992514645
f
GR
GS
[1 0 0 1 96.06799 358] CT
1 0 0 RC
N
f-1992514645
f
GR
GS
[1 0 0 1 96.06799 358] CT
1 0 0 RC
N
f-1992514645
f
GR
GS
[1 0 0 1 96.06799 358] CT
1 0 0 RC
N
f-1992514645
f
GR
GS
[1 0 0 1 96.06799 358] CT
1 0 0 RC
N
f-1992514645
f
GR
GS
[1 0 0 1 96.06799 358] CT
1 0 0 RC
N
f-1992514645
f
GR
GS
[1 0 0 1 96.06799 358] CT
1 0 0 RC
N
f-1992514645
f
GR
GS
[1 0 0 1 96.06799 333.77499] CT
1 0 0 RC
N
f-1992514645
f
GR
GS
[1 0 0 1 96.06799 269.17499] CT
1 0 0 RC
N
f-1992514645
f
GR
GS
[1 0 0 1 96.06799 236.875] CT
1 0 0 RC
N
f-1992514645
f
GR
GS
[1 0 0 1 96.06799 204.575] CT
1 0 0 RC
N
f-1992514645
f
GR
GS
[1 0 0 1 96.06799 228.8] CT
1 0 0 RC
N
f-1992514645
f
GR
GS
[1 0 0 1 96.06799 358] CT
1 0 0 RC
N
f-1992514645
f
GR
GS
[1 0 0 1 96.06799 261.10001] CT
1 0 0 RC
N
f-1992514645
f
GR
GS
[1 0 0 1 96.06799 224.7625] CT
1 0 0 RC
N
f-1992514645
f
GR
GS
[1 0 0 1 96.06799 200.53751] CT
1 0 0 RC
N
f-1992514645
f
GR
GS
[1 0 0 1 96.06799 285.32501] CT
1 0 0 RC
N
f-1992514645
f
GR
GS
[1 0 0 1 96.06799 257.0625] CT
1 0 0 RC
N
f-1992514645
f
GR
GS
[1 0 0 1 96.06799 273.21249] CT
1 0 0 RC
N
f-1992514645
f
GR
GS
[1 0 0 1 96.06799 253.02499] CT
1 0 0 RC
N
f-1992514645
f
GR
GS
[1 0 0 1 96.06799 358] CT
1 0 0 RC
N
f-1992514645
f
GR
GS
[1 0 0 1 96.06799 358] CT
1 0 0 RC
N
f-1992514645
f
GR
GS
[1 0 0 1 96.06799 248.9875] CT
1 0 0 RC
N
f-1992514645
f
GR
GS
[1 0 0 1 96.06799 321.66251] CT
1 0 0 RC
N
f-1992514645
f
GR
GS
[1 0 0 1 96.06799 317.625] CT
1 0 0 RC
N
f-1992514645
f
GR
GS
[1 0 0 1 96.06799 317.625] CT
1 0 0 RC
N
f-1992514645
f
GR
GS
[1 0 0 1 96.06799 358] CT
1 0 0 RC
N
f-1992514645
f
GR
GS
[1 0 0 1 104.65142 341.85001] CT
1 0 0 RC
N
f-1992514645
f
GR
GS
[1 0 0 1 104.65142 358] CT
1 0 0 RC
N
f-1992514645
f
GR
GS
[1 0 0 1 104.65142 358] CT
1 0 0 RC
N
f-1992514645
f
GR
GS
[1 0 0 1 104.65142 358] CT
1 0 0 RC
N
f-1992514645
f
GR
GS
[1 0 0 1 104.65142 358] CT
1 0 0 RC
N
f-1992514645
f
GR
GS
[1 0 0 1 104.65142 349.92499] CT
1 0 0 RC
N
f-1992514645
f
GR
GS
[1 0 0 1 104.65142 358] CT
1 0 0 RC
N
f-1992514645
f
GR
GS
[1 0 0 1 104.65142 358] CT
1 0 0 RC
N
f-1992514645
f
GR
GS
[1 0 0 1 104.65142 353.96249] CT
1 0 0 RC
N
f-1992514645
f
GR
GS
[1 0 0 1 104.65142 358] CT
1 0 0 RC
N
f-1992514645
f
GR
GS
[1 0 0 1 104.65142 353.96249] CT
1 0 0 RC
N
f-1992514645
f
GR
GS
[1 0 0 1 104.65142 358] CT
1 0 0 RC
N
f-1992514645
f
GR
GS
[1 0 0 1 104.65142 358] CT
1 0 0 RC
N
f-1992514645
f
GR
GS
[1 0 0 1 104.65142 358] CT
1 0 0 RC
N
f-1992514645
f
GR
GS
[1 0 0 1 104.65142 358] CT
1 0 0 RC
N
f-1992514645
f
GR
GS
[1 0 0 1 104.65142 358] CT
1 0 0 RC
N
f-1992514645
f
GR
GS
[1 0 0 1 104.65142 358] CT
1 0 0 RC
N
f-1992514645
f
GR
GS
[1 0 0 1 104.65142 358] CT
1 0 0 RC
N
f-1992514645
f
GR
GS
[1 0 0 1 104.65142 358] CT
1 0 0 RC
N
f-1992514645
f
GR
GS
[1 0 0 1 104.65142 358] CT
1 0 0 RC
N
f-1992514645
f
GR
GS
[1 0 0 1 104.65142 358] CT
1 0 0 RC
N
f-1992514645
f
GR
GS
[1 0 0 1 104.65142 358] CT
1 0 0 RC
N
f-1992514645
f
GR
GS
[1 0 0 1 104.65142 349.92499] CT
1 0 0 RC
N
f-1992514645
f
GR
GS
[1 0 0 1 104.65142 358] CT
1 0 0 RC
N
f-1992514645
f
GR
GS
[1 0 0 1 104.65142 353.96249] CT
1 0 0 RC
N
f-1992514645
f
GR
GS
[1 0 0 1 104.65142 341.85001] CT
1 0 0 RC
N
f-1992514645
f
GR
GS
[1 0 0 1 104.65142 358] CT
1 0 0 RC
N
f-1992514645
f
GR
GS
[1 0 0 1 105.72435 265.13751] CT
1 0 0 RC
N
f-1992514645
f
GR
GS
[1 0 0 1 105.72435 244.95] CT
1 0 0 RC
N
f-1992514645
f
GR
GS
[1 0 0 1 105.72435 200.53751] CT
1 0 0 RC
N
f-1992514645
f
GR
GS
[1 0 0 1 105.72435 224.7625] CT
1 0 0 RC
N
f-1992514645
f
GR
GS
[1 0 0 1 105.72435 345.88751] CT
1 0 0 RC
N
f-1992514645
f
GR
GS
[1 0 0 1 105.72435 261.10001] CT
1 0 0 RC
N
f-1992514645
f
GR
GS
[1 0 0 1 105.72435 337.8125] CT
1 0 0 RC
N
f-1992514645
f
GR
GS
[1 0 0 1 105.72435 353.96249] CT
1 0 0 RC
N
f-1992514645
f
GR
GS
[1 0 0 1 105.72435 325.70001] CT
1 0 0 RC
N
f-1992514645
f
GR
GS
[1 0 0 1 105.72435 329.73749] CT
1 0 0 RC
N
f-1992514645
f
GR
GS
[1 0 0 1 105.72435 277.25] CT
1 0 0 RC
N
f-1992514645
f
GR
GS
[1 0 0 1 105.72435 317.625] CT
1 0 0 RC
N
f-1992514645
f
GR
GS
[1 0 0 1 105.72435 309.54999] CT
1 0 0 RC
N
f-1992514645
f
GR
GS
[1 0 0 1 105.72435 240.91251] CT
1 0 0 RC
N
f-1992514645
f
GR
GS
[1 0 0 1 105.72435 317.625] CT
1 0 0 RC
N
f-1992514645
f
GR
GS
[1 0 0 1 105.72435 349.92499] CT
1 0 0 RC
N
f-1992514645
f
GR
GS
[1 0 0 1 105.72435 358] CT
1 0 0 RC
N
f-1992514645
f
GR
GS
[1 0 0 1 105.72435 358] CT
1 0 0 RC
N
f-1992514645
f
GR
GS
[1 0 0 1 105.72435 333.77499] CT
1 0 0 RC
N
f-1992514645
f
GR
GS
[1 0 0 1 105.72435 358] CT
1 0 0 RC
N
f-1992514645
f
GR
GS
[1 0 0 1 105.72435 358] CT
1 0 0 RC
N
f-1992514645
f
GR
GS
[1 0 0 1 105.72435 358] CT
1 0 0 RC
N
f-1992514645
f
GR
GS
[1 0 0 1 105.72435 358] CT
1 0 0 RC
N
f-1992514645
f
GR
GS
[1 0 0 1 105.72435 358] CT
1 0 0 RC
N
f-1992514645
f
GR
GS
[1 0 0 1 105.72435 329.73749] CT
1 0 0 RC
N
f-1992514645
f
GR
GS
[1 0 0 1 105.72435 317.625] CT
1 0 0 RC
N
f-1992514645
f
GR
GS
[1 0 0 1 105.72435 358] CT
1 0 0 RC
N
f-1992514645
f
GR
GS
[1 0 0 1 105.72435 341.85001] CT
1 0 0 RC
N
f-1992514645
f
GR
GS
[1 0 0 1 105.72435 325.70001] CT
1 0 0 RC
N
f-1992514645
f
GR
GS
[1 0 0 1 105.72435 305.51251] CT
1 0 0 RC
N
f-1992514645
f
GR
GS
[1 0 0 1 105.72435 353.96249] CT
1 0 0 RC
N
f-1992514645
f
GR
GS
[1 0 0 1 105.72435 358] CT
1 0 0 RC
N
f-1992514645
f
GR
GS
[1 0 0 1 106.79728 358] CT
1 0 0 RC
N
f-1992514645
f
GR
GS
[1 0 0 1 106.79728 277.25] CT
1 0 0 RC
N
f-1992514645
f
GR
GS
[1 0 0 1 106.79728 248.9875] CT
1 0 0 RC
N
f-1992514645
f
GR
GS
[1 0 0 1 106.79728 358] CT
1 0 0 RC
N
f-1992514645
f
GR
GS
[1 0 0 1 106.79728 261.10001] CT
1 0 0 RC
N
f-1992514645
f
GR
GS
[1 0 0 1 106.79728 358] CT
1 0 0 RC
N
f-1992514645
f
GR
GS
[1 0 0 1 106.79728 358] CT
1 0 0 RC
N
f-1992514645
f
GR
GS
[1 0 0 1 106.79728 317.625] CT
1 0 0 RC
N
f-1992514645
f
GR
GS
[1 0 0 1 106.79728 321.66251] CT
1 0 0 RC
N
f-1992514645
f
GR
GS
[1 0 0 1 106.79728 317.625] CT
1 0 0 RC
N
f-1992514645
f
GR
GS
[1 0 0 1 106.79728 358] CT
1 0 0 RC
N
f-1992514645
f
GR
GS
[1 0 0 1 106.79728 228.8] CT
1 0 0 RC
N
f-1992514645
f
GR
GS
[1 0 0 1 106.79728 204.575] CT
1 0 0 RC
N
f-1992514645
f
GR
GS
[1 0 0 1 106.79728 277.25] CT
1 0 0 RC
N
f-1992514645
f
GR
GS
[1 0 0 1 106.79728 313.58749] CT
1 0 0 RC
N
f-1992514645
f
GR
GS
[1 0 0 1 107.33375 358] CT
1 0 0 RC
N
f-1992514645
f
GR
GS
[1 0 0 1 107.33375 358] CT
1 0 0 RC
N
f-1992514645
f
GR
GS
[1 0 0 1 107.33375 345.88751] CT
1 0 0 RC
N
f-1992514645
f
GR
GS
[1 0 0 1 107.33375 358] CT
1 0 0 RC
N
f-1992514645
f
GR
GS
[1 0 0 1 107.33375 358] CT
1 0 0 RC
N
f-1992514645
f
GR
GS
[1 0 0 1 107.33375 358] CT
1 0 0 RC
N
f-1992514645
f
GR
GS
[1 0 0 1 107.33375 358] CT
1 0 0 RC
N
f-1992514645
f
GR
GS
[1 0 0 1 107.33375 337.8125] CT
1 0 0 RC
N
f-1992514645
f
GR
GS
[1 0 0 1 107.33375 353.96249] CT
1 0 0 RC
N
f-1992514645
f
GR
GS
[1 0 0 1 107.33375 358] CT
1 0 0 RC
N
f-1992514645
f
GR
GS
[1 0 0 1 107.33375 358] CT
1 0 0 RC
N
f-1992514645
f
GR
GS
[1 0 0 1 107.33375 353.96249] CT
1 0 0 RC
N
f-1992514645
f
GR
GS
[1 0 0 1 107.33375 265.13751] CT
1 0 0 RC
N
f-1992514645
f
GR
GS
[1 0 0 1 107.33375 358] CT
1 0 0 RC
N
f-1992514645
f
GR
GS
[1 0 0 1 107.33375 358] CT
1 0 0 RC
N
f-1992514645
f
GR
GS
[1 0 0 1 107.33375 358] CT
1 0 0 RC
N
f-1992514645
f
GR
GS
[1 0 0 1 107.33375 301.47501] CT
1 0 0 RC
N
f-1992514645
f
GR
GS
[1 0 0 1 107.33375 358] CT
1 0 0 RC
N
f-1992514645
f
GR
GS
[1 0 0 1 107.33375 358] CT
1 0 0 RC
N
f-1992514645
f
GR
GS
[1 0 0 1 107.33375 358] CT
1 0 0 RC
N
f-1992514645
f
GR
GS
[1 0 0 1 107.33375 333.77499] CT
1 0 0 RC
N
f-1992514645
f
GR
GS
[1 0 0 1 107.33375 358] CT
1 0 0 RC
N
f-1992514645
f
GR
GS
[1 0 0 1 107.33375 358] CT
1 0 0 RC
N
f-1992514645
f
GR
GS
[1 0 0 1 107.33375 358] CT
1 0 0 RC
N
f-1992514645
f
GR
GS
[1 0 0 1 120.74536 176.3125] CT
0 0.702 0 RC
N
f-1992514645
f
GR
GS
[1 0 0 1 120.74536 188.425] CT
0 0.702 0 RC
N
f-1992514645
f
GR
GS
[1 0 0 1 120.74536 135.9375] CT
0 0.702 0 RC
N
f-1992514645
f
GR
GS
[1 0 0 1 120.74536 236.875] CT
1 0 0 RC
N
f-1992514645
f
GR
GS
[1 0 0 1 120.74536 261.10001] CT
1 0 0 RC
N
f-1992514645
f
GR
GS
[1 0 0 1 120.74536 228.8] CT
1 0 0 RC
N
f-1992514645
f
GR
GS
[1 0 0 1 120.74536 212.64999] CT
1 0 0 RC
N
f-1992514645
f
GR
GS
[1 0 0 1 120.74536 224.7625] CT
1 0 0 RC
N
f-1992514645
f
GR
GS
[1 0 0 1 120.74536 224.7625] CT
1 0 0 RC
N
f-1992514645
f
GR
GS
[1 0 0 1 120.74536 253.02499] CT
1 0 0 RC
N
f-1992514645
f
GR
GS
[1 0 0 1 120.74536 236.875] CT
1 0 0 RC
N
f-1992514645
f
GR
GS
[1 0 0 1 120.74536 265.13751] CT
1 0 0 RC
N
f-1992514645
f
GR
GS
[1 0 0 1 120.74536 289.36249] CT
1 0 0 RC
N
f-1992514645
f
GR
GS
[1 0 0 1 120.74536 341.85001] CT
1 0 0 RC
N
f-1992514645
f
GR
GS
[1 0 0 1 120.74536 325.70001] CT
1 0 0 RC
N
f-1992514645
f
GR
GS
[1 0 0 1 120.74536 273.21249] CT
1 0 0 RC
N
f-1992514645
f
GR
GS
[1 0 0 1 120.74536 337.8125] CT
1 0 0 RC
N
f-1992514645
f
GR
GS
[1 0 0 1 120.74536 349.92499] CT
1 0 0 RC
N
f-1992514645
f
GR
GS
[1 0 0 1 120.74536 345.88751] CT
1 0 0 RC
N
f-1992514645
f
GR
GS
[1 0 0 1 120.74536 257.0625] CT
1 0 0 RC
N
f-1992514645
f
GR
GS
[1 0 0 1 120.74536 353.96249] CT
1 0 0 RC
N
f-1992514645
f
GR
GS
[1 0 0 1 120.74536 358] CT
1 0 0 RC
N
f-1992514645
f
GR
GS
[1 0 0 1 120.74536 358] CT
1 0 0 RC
N
f-1992514645
f
GR
GS
[1 0 0 1 120.74536 321.66251] CT
1 0 0 RC
N
f-1992514645
f
GR
GS
[1 0 0 1 120.74536 341.85001] CT
1 0 0 RC
N
f-1992514645
f
GR
GS
[1 0 0 1 120.74536 358] CT
1 0 0 RC
N
f-1992514645
f
GR
GS
[1 0 0 1 120.74536 333.77499] CT
1 0 0 RC
N
f-1992514645
f
GR
GS
[1 0 0 1 120.74536 353.96249] CT
1 0 0 RC
N
f-1992514645
f
GR
GS
[1 0 0 1 120.74536 337.8125] CT
1 0 0 RC
N
f-1992514645
f
GR
GS
[1 0 0 1 120.74536 349.92499] CT
1 0 0 RC
N
f-1992514645
f
GR
GS
[1 0 0 1 120.74536 305.51251] CT
1 0 0 RC
N
f-1992514645
f
GR
GS
[1 0 0 1 120.74536 281.28751] CT
1 0 0 RC
N
f-1992514645
f
GR
GS
[1 0 0 1 120.74536 321.66251] CT
1 0 0 RC
N
f-1992514645
f
GR
GS
[1 0 0 1 120.74536 257.0625] CT
1 0 0 RC
N
f-1992514645
f
GR
GS
[1 0 0 1 120.74536 236.875] CT
1 0 0 RC
N
f-1992514645
f
GR
GS
[1 0 0 1 120.74536 265.13751] CT
1 0 0 RC
N
f-1992514645
f
GR
GS
[1 0 0 1 120.74536 321.66251] CT
1 0 0 RC
N
f-1992514645
f
GR
GS
[1 0 0 1 120.74536 313.58749] CT
1 0 0 RC
N
f-1992514645
f
GR
GS
[1 0 0 1 120.74536 257.0625] CT
1 0 0 RC
N
f-1992514645
f
GR
GS
[1 0 0 1 120.74536 240.91251] CT
1 0 0 RC
N
f-1992514645
f
GR
GS
[1 0 0 1 131.47466 192.46249] CT
0 0.702 0 RC
N
f-1992514645
f
GR
GS
[1 0 0 1 131.47466 358] CT
1 0 0 RC
N
f-1992514645
f
GR
GS
[1 0 0 1 131.47466 358] CT
1 0 0 RC
N
f-1992514645
f
GR
GS
[1 0 0 1 131.47466 358] CT
1 0 0 RC
N
f-1992514645
f
GR
GS
[1 0 0 1 131.47466 277.25] CT
1 0 0 RC
N
f-1992514645
f
GR
GS
[1 0 0 1 131.47466 358] CT
1 0 0 RC
N
f-1992514645
f
GR
GS
[1 0 0 1 131.47466 358] CT
1 0 0 RC
N
f-1992514645
f
GR
GS
[1 0 0 1 131.47466 358] CT
1 0 0 RC
N
f-1992514645
f
GR
GS
[1 0 0 1 131.47466 309.54999] CT
1 0 0 RC
N
f-1992514645
f
GR
GS
[1 0 0 1 131.47466 353.96249] CT
1 0 0 RC
N
f-1992514645
f
GR
GS
[1 0 0 1 131.47466 358] CT
1 0 0 RC
N
f-1992514645
f
GR
GS
[1 0 0 1 131.47466 358] CT
1 0 0 RC
N
f-1992514645
f
GR
GS
[1 0 0 1 131.47466 333.77499] CT
1 0 0 RC
N
f-1992514645
f
GR
GS
[1 0 0 1 131.47466 358] CT
1 0 0 RC
N
f-1992514645
f
GR
GS
[1 0 0 1 131.47466 358] CT
1 0 0 RC
N
f-1992514645
f
GR
GS
[1 0 0 1 131.47466 216.6875] CT
1 0 0 RC
N
f-1992514645
f
GR
GS
[1 0 0 1 131.47466 358] CT
1 0 0 RC
N
f-1992514645
f
GR
GS
[1 0 0 1 131.47466 358] CT
1 0 0 RC
N
f-1992514645
f
GR
GS
[1 0 0 1 131.47466 358] CT
1 0 0 RC
N
f-1992514645
f
GR
GS
[1 0 0 1 131.47466 358] CT
1 0 0 RC
N
f-1992514645
f
GR
GS
[1 0 0 1 131.47466 358] CT
1 0 0 RC
N
f-1992514645
f
GR
GS
[1 0 0 1 131.47466 358] CT
1 0 0 RC
N
f-1992514645
f
GR
GS
[1 0 0 1 131.47466 248.9875] CT
1 0 0 RC
N
f-1992514645
f
GR
GS
[1 0 0 1 131.47466 337.8125] CT
1 0 0 RC
N
f-1992514645
f
GR
GS
[1 0 0 1 131.47466 358] CT
1 0 0 RC
N
f-1992514645
f
GR
GS
[1 0 0 1 131.47466 349.92499] CT
1 0 0 RC
N
f-1992514645
f
GR
GS
[1 0 0 1 131.47466 358] CT
1 0 0 RC
N
f-1992514645
f
GR
GS
[1 0 0 1 131.47466 358] CT
1 0 0 RC
N
f-1992514645
f
GR
GS
[1 0 0 1 131.47466 329.73749] CT
1 0 0 RC
N
f-1992514645
f
GR
GS
[1 0 0 1 131.47466 358] CT
1 0 0 RC
N
f-1992514645
f
GR
GS
[1 0 0 1 131.47466 349.92499] CT
1 0 0 RC
N
f-1992514645
f
GR
GS
[1 0 0 1 131.47466 358] CT
1 0 0 RC
N
f-1992514645
f
GR
GS
[1 0 0 1 131.47466 358] CT
1 0 0 RC
N
f-1992514645
f
GR
GS
[1 0 0 1 131.47466 358] CT
1 0 0 RC
N
f-1992514645
f
GR
GS
[1 0 0 1 131.47466 358] CT
1 0 0 RC
N
f-1992514645
f
GR
GS
[1 0 0 1 131.47466 289.36249] CT
1 0 0 RC
N
f-1992514645
f
GR
GS
[1 0 0 1 131.47466 358] CT
1 0 0 RC
N
f-1992514645
f
GR
GS
[1 0 0 1 131.47466 317.625] CT
1 0 0 RC
N
f-1992514645
f
GR
GS
[1 0 0 1 131.47466 358] CT
1 0 0 RC
N
f-1992514645
f
GR
GS
[1 0 0 1 131.47466 349.92499] CT
1 0 0 RC
N
f-1992514645
f
GR
GS
[1 0 0 1 132.54759 358] CT
1 0 0 RC
N
f-1992514645
f
GR
GS
[1 0 0 1 132.54759 333.77499] CT
1 0 0 RC
N
f-1992514645
f
GR
GS
[1 0 0 1 132.54759 358] CT
1 0 0 RC
N
f-1992514645
f
GR
GS
[1 0 0 1 132.54759 358] CT
1 0 0 RC
N
f-1992514645
f
GR
GS
[1 0 0 1 132.54759 358] CT
1 0 0 RC
N
f-1992514645
f
GR
GS
[1 0 0 1 132.54759 358] CT
1 0 0 RC
N
f-1992514645
f
GR
GS
[1 0 0 1 132.54759 358] CT
1 0 0 RC
N
f-1992514645
f
GR
GS
[1 0 0 1 132.54759 341.85001] CT
1 0 0 RC
N
f-1992514645
f
GR
GS
[1 0 0 1 132.54759 358] CT
1 0 0 RC
N
f-1992514645
f
GR
GS
[1 0 0 1 132.54759 353.96249] CT
1 0 0 RC
N
f-1992514645
f
GR
GS
[1 0 0 1 132.54759 358] CT
1 0 0 RC
N
f-1992514645
f
GR
GS
[1 0 0 1 132.54759 358] CT
1 0 0 RC
N
f-1992514645
f
GR
GS
[1 0 0 1 132.54759 358] CT
1 0 0 RC
N
f-1992514645
f
GR
GS
[1 0 0 1 132.54759 358] CT
1 0 0 RC
N
f-1992514645
f
GR
GS
[1 0 0 1 132.54759 358] CT
1 0 0 RC
N
f-1992514645
f
GR
GS
[1 0 0 1 132.54759 358] CT
1 0 0 RC
N
f-1992514645
f
GR
GS
[1 0 0 1 132.54759 358] CT
1 0 0 RC
N
f-1992514645
f
GR
GS
[1 0 0 1 132.54759 358] CT
1 0 0 RC
N
f-1992514645
f
GR
GS
[1 0 0 1 132.54759 358] CT
1 0 0 RC
N
f-1992514645
f
GR
GS
[1 0 0 1 132.54759 358] CT
1 0 0 RC
N
f-1992514645
f
GR
GS
[1 0 0 1 135.22992 358] CT
1 0 0 RC
N
f-1992514645
f
GR
GS
[1 0 0 1 135.22992 349.92499] CT
1 0 0 RC
N
f-1992514645
f
GR
GS
[1 0 0 1 135.22992 341.85001] CT
1 0 0 RC
N
f-1992514645
f
GR
GS
[1 0 0 1 135.22992 358] CT
1 0 0 RC
N
f-1992514645
f
GR
GS
[1 0 0 1 135.22992 358] CT
1 0 0 RC
N
f-1992514645
f
GR
GS
[1 0 0 1 135.22992 358] CT
1 0 0 RC
N
f-1992514645
f
GR
GS
[1 0 0 1 135.22992 358] CT
1 0 0 RC
N
f-1992514645
f
GR
GS
[1 0 0 1 135.22992 358] CT
1 0 0 RC
N
f-1992514645
f
GR
GS
[1 0 0 1 135.22992 358] CT
1 0 0 RC
N
f-1992514645
f
GR
GS
[1 0 0 1 135.22992 358] CT
1 0 0 RC
N
f-1992514645
f
GR
GS
[1 0 0 1 135.22992 345.88751] CT
1 0 0 RC
N
f-1992514645
f
GR
GS
[1 0 0 1 135.22992 349.92499] CT
1 0 0 RC
N
f-1992514645
f
GR
GS
[1 0 0 1 135.22992 358] CT
1 0 0 RC
N
f-1992514645
f
GR
GS
[1 0 0 1 135.22992 358] CT
1 0 0 RC
N
f-1992514645
f
GR
GS
[1 0 0 1 135.22992 358] CT
1 0 0 RC
N
f-1992514645
f
GR
GS
[1 0 0 1 135.22992 353.96249] CT
1 0 0 RC
N
f-1992514645
f
GR
GS
[1 0 0 1 135.22992 358] CT
1 0 0 RC
N
f-1992514645
f
GR
GS
[1 0 0 1 135.22992 353.96249] CT
1 0 0 RC
N
f-1992514645
f
GR
GS
[1 0 0 1 135.22992 353.96249] CT
1 0 0 RC
N
f-1992514645
f
GR
GS
[1 0 0 1 135.22992 358] CT
1 0 0 RC
N
f-1992514645
f
GR
GS
[1 0 0 1 135.22992 349.92499] CT
1 0 0 RC
N
f-1992514645
f
GR
GS
[1 0 0 1 152.39679 168.2375] CT
0 0.702 0 RC
N
f-1992514645
f
GR
GS
[1 0 0 1 152.39679 188.425] CT
0 0.702 0 RC
N
f-1992514645
f
GR
GS
[1 0 0 1 152.39679 228.8] CT
1 0 0 RC
N
f-1992514645
f
GR
GS
[1 0 0 1 152.39679 228.8] CT
1 0 0 RC
N
f-1992514645
f
GR
GS
[1 0 0 1 152.39679 228.8] CT
1 0 0 RC
N
f-1992514645
f
GR
GS
[1 0 0 1 152.39679 277.25] CT
1 0 0 RC
N
f-1992514645
f
GR
GS
[1 0 0 1 152.39679 224.7625] CT
1 0 0 RC
N
f-1992514645
f
GR
GS
[1 0 0 1 152.39679 265.13751] CT
1 0 0 RC
N
f-1992514645
f
GR
GS
[1 0 0 1 152.39679 212.64999] CT
1 0 0 RC
N
f-1992514645
f
GR
GS
[1 0 0 1 152.39679 232.83749] CT
1 0 0 RC
N
f-1992514645
f
GR
GS
[1 0 0 1 152.39679 248.9875] CT
1 0 0 RC
N
f-1992514645
f
GR
GS
[1 0 0 1 152.39679 253.02499] CT
1 0 0 RC
N
f-1992514645
f
GR
GS
[1 0 0 1 152.39679 358] CT
1 0 0 RC
N
f-1992514645
f
GR
GS
[1 0 0 1 152.39679 358] CT
1 0 0 RC
N
f-1992514645
f
GR
GS
[1 0 0 1 152.39679 358] CT
1 0 0 RC
N
f-1992514645
f
GR
GS
[1 0 0 1 152.39679 358] CT
1 0 0 RC
N
f-1992514645
f
GR
GS
[1 0 0 1 152.39679 269.17499] CT
1 0 0 RC
N
f-1992514645
f
GR
GS
[1 0 0 1 152.39679 325.70001] CT
1 0 0 RC
N
f-1992514645
f
GR
GS
[1 0 0 1 152.39679 329.73749] CT
1 0 0 RC
N
f-1992514645
f
GR
GS
[1 0 0 1 152.39679 341.85001] CT
1 0 0 RC
N
f-1992514645
f
GR
GS
[1 0 0 1 152.39679 325.70001] CT
1 0 0 RC
N
f-1992514645
f
GR
GS
[1 0 0 1 152.39679 345.88751] CT
1 0 0 RC
N
f-1992514645
f
GR
GS
[1 0 0 1 152.39679 358] CT
1 0 0 RC
N
f-1992514645
f
GR
GS
[1 0 0 1 152.39679 345.88751] CT
1 0 0 RC
N
f-1992514645
f
GR
GS
[1 0 0 1 152.39679 358] CT
1 0 0 RC
N
f-1992514645
f
GR
GS
[1 0 0 1 152.39679 358] CT
1 0 0 RC
N
f-1992514645
f
GR
GS
[1 0 0 1 152.39679 337.8125] CT
1 0 0 RC
N
f-1992514645
f
GR
GS
[1 0 0 1 152.39679 341.85001] CT
1 0 0 RC
N
f-1992514645
f
GR
GS
[1 0 0 1 152.39679 358] CT
1 0 0 RC
N
f-1992514645
f
GR
GS
[1 0 0 1 152.39679 345.88751] CT
1 0 0 RC
N
f-1992514645
f
GR
GS
[1 0 0 1 152.39679 358] CT
1 0 0 RC
N
f-1992514645
f
GR
GS
[1 0 0 1 152.39679 358] CT
1 0 0 RC
N
f-1992514645
f
GR
GS
[1 0 0 1 152.39679 358] CT
1 0 0 RC
N
f-1992514645
f
GR
GS
[1 0 0 1 152.39679 325.70001] CT
1 0 0 RC
N
f-1992514645
f
GR
GS
[1 0 0 1 152.39679 329.73749] CT
1 0 0 RC
N
f-1992514645
f
GR
GS
[1 0 0 1 152.39679 358] CT
1 0 0 RC
N
f-1992514645
f
GR
GS
[1 0 0 1 152.39679 358] CT
1 0 0 RC
N
f-1992514645
f
GR
GS
[1 0 0 1 152.39679 240.91251] CT
1 0 0 RC
N
f-1992514645
f
GR
GS
[1 0 0 1 152.39679 313.58749] CT
1 0 0 RC
N
f-1992514645
f
GR
GS
[1 0 0 1 152.39679 345.88751] CT
1 0 0 RC
N
f-1992514645
f
GR
GS
[1 0 0 1 152.39679 349.92499] CT
1 0 0 RC
N
f-1992514645
f
GR
GS
[1 0 0 1 152.39679 313.58749] CT
1 0 0 RC
N
f-1992514645
f
GR
GS
[1 0 0 1 152.39679 358] CT
1 0 0 RC
N
f-1992514645
f
GR
GS
[1 0 0 1 182.97528 358] CT
1 0 0 RC
N
f-1992514645
f
GR
GS
[1 0 0 1 182.97528 341.85001] CT
1 0 0 RC
N
f-1992514645
f
GR
GS
[1 0 0 1 182.97528 358] CT
1 0 0 RC
N
f-1992514645
f
GR
GS
[1 0 0 1 182.97528 358] CT
1 0 0 RC
N
f-1992514645
f
GR
GS
[1 0 0 1 182.97528 358] CT
1 0 0 RC
N
f-1992514645
f
GR
GS
[1 0 0 1 182.97528 358] CT
1 0 0 RC
N
f-1992514645
f
GR
GS
[1 0 0 1 182.97528 358] CT
1 0 0 RC
N
f-1992514645
f
GR
GS
[1 0 0 1 182.97528 358] CT
1 0 0 RC
N
f-1992514645
f
GR
GS
[1 0 0 1 182.97528 358] CT
1 0 0 RC
N
f-1992514645
f
GR
GS
[1 0 0 1 182.97528 358] CT
1 0 0 RC
N
f-1992514645
f
GR
GS
[1 0 0 1 182.97528 358] CT
1 0 0 RC
N
f-1992514645
f
GR
GS
[1 0 0 1 182.97528 358] CT
1 0 0 RC
N
f-1992514645
f
GR
GS
[1 0 0 1 182.97528 358] CT
1 0 0 RC
N
f-1992514645
f
GR
GS
[1 0 0 1 182.97528 337.8125] CT
1 0 0 RC
N
f-1992514645
f
GR
GS
[1 0 0 1 182.97528 358] CT
1 0 0 RC
N
f-1992514645
f
GR
GS
[1 0 0 1 182.97528 358] CT
1 0 0 RC
N
f-1992514645
f
GR
GS
[1 0 0 1 182.97528 358] CT
1 0 0 RC
N
f-1992514645
f
GR
GS
[1 0 0 1 182.97528 358] CT
1 0 0 RC
N
f-1992514645
f
GR
GS
[1 0 0 1 182.97528 341.85001] CT
1 0 0 RC
N
f-1992514645
f
GR
GS
[1 0 0 1 182.97528 358] CT
1 0 0 RC
N
f-1992514645
f
GR
GS
[1 0 0 1 182.97528 358] CT
1 0 0 RC
N
f-1992514645
f
GR
GS
[1 0 0 1 182.97528 358] CT
1 0 0 RC
N
f-1992514645
f
GR
GS
[1 0 0 1 182.97528 358] CT
1 0 0 RC
N
f-1992514645
f
GR
GS
[1 0 0 1 182.97528 305.51251] CT
1 0 0 RC
N
f-1992514645
f
GR
GS
[1 0 0 1 182.97528 358] CT
1 0 0 RC
N
f-1992514645
f
GR
GS
[1 0 0 1 182.97528 358] CT
1 0 0 RC
N
f-1992514645
f
GR
GS
[1 0 0 1 182.97528 358] CT
1 0 0 RC
N
f-1992514645
f
GR
GS
[1 0 0 1 182.97528 358] CT
1 0 0 RC
N
f-1992514645
f
GR
GS
[1 0 0 1 182.97528 345.88751] CT
1 0 0 RC
N
f-1992514645
f
GR
GS
[1 0 0 1 182.97528 358] CT
1 0 0 RC
N
f-1992514645
f
GR
GS
[1 0 0 1 182.97528 358] CT
1 0 0 RC
N
f-1992514645
f
GR
GS
[1 0 0 1 182.97528 358] CT
1 0 0 RC
N
f-1992514645
f
GR
GS
[1 0 0 1 182.97528 358] CT
1 0 0 RC
N
f-1992514645
f
GR
GS
[1 0 0 1 182.97528 345.88751] CT
1 0 0 RC
N
f-1992514645
f
GR
GS
[1 0 0 1 182.97528 358] CT
1 0 0 RC
N
f-1992514645
f
GR
GS
[1 0 0 1 182.97528 358] CT
1 0 0 RC
N
f-1992514645
f
GR
GS
[1 0 0 1 182.97528 358] CT
1 0 0 RC
N
f-1992514645
f
GR
GS
[1 0 0 1 182.97528 358] CT
1 0 0 RC
N
f-1992514645
f
GR
GS
[1 0 0 1 182.97528 337.8125] CT
1 0 0 RC
N
f-1992514645
f
GR
GS
[1 0 0 1 182.97528 358] CT
1 0 0 RC
N
f-1992514645
f
GR
GS
[1 0 0 1 182.97528 353.96249] CT
1 0 0 RC
N
f-1992514645
f
GR
GS
[1 0 0 1 182.97528 345.88751] CT
1 0 0 RC
N
f-1992514645
f
GR
GS
[1 0 0 1 182.97528 349.92499] CT
1 0 0 RC
N
f-1992514645
f
GR
GS
[1 0 0 1 182.97528 358] CT
1 0 0 RC
N
f-1992514645
f
GR
GS
[1 0 0 1 182.97528 325.70001] CT
1 0 0 RC
N
f-1992514645
f
GR
GS
[1 0 0 1 182.97528 353.96249] CT
1 0 0 RC
N
f-1992514645
f
GR
GS
[1 0 0 1 182.97528 353.96249] CT
1 0 0 RC
N
f-1992514645
f
GR
GS
[1 0 0 1 182.97528 358] CT
1 0 0 RC
N
f-1992514645
f
GR
GS
[1 0 0 1 182.97528 333.77499] CT
1 0 0 RC
N
f-1992514645
f
GR
GS
[1 0 0 1 182.97528 358] CT
1 0 0 RC
N
f-1992514645
f
GR
GS
[1 0 0 1 182.97528 353.96249] CT
1 0 0 RC
N
f-1992514645
f
GR
GS
[1 0 0 1 182.97528 358] CT
1 0 0 RC
N
f-1992514645
f
GR
GS
[1 0 0 1 182.97528 313.58749] CT
1 0 0 RC
N
f-1992514645
f
GR
GS
[1 0 0 1 182.97528 349.92499] CT
1 0 0 RC
N
f-1992514645
f
GR
GS
[1 0 0 1 182.97528 349.92499] CT
1 0 0 RC
N
f-1992514645
f
GR
GS
[1 0 0 1 182.97528 358] CT
1 0 0 RC
N
f-1992514645
f
GR
GS
[1 0 0 1 185.12114 196.5] CT
0 0.702 0 RC
N
f-1992514645
f
GR
GS
[1 0 0 1 185.12114 273.21249] CT
1 0 0 RC
N
f-1992514645
f
GR
GS
[1 0 0 1 185.12114 220.72501] CT
1 0 0 RC
N
f-1992514645
f
GR
GS
[1 0 0 1 185.12114 273.21249] CT
1 0 0 RC
N
f-1992514645
f
GR
GS
[1 0 0 1 185.12114 265.13751] CT
1 0 0 RC
N
f-1992514645
f
GR
GS
[1 0 0 1 185.12114 248.9875] CT
1 0 0 RC
N
f-1992514645
f
GR
GS
[1 0 0 1 185.12114 301.47501] CT
1 0 0 RC
N
f-1992514645
f
GR
GS
[1 0 0 1 185.12114 248.9875] CT
1 0 0 RC
N
f-1992514645
f
GR
GS
[1 0 0 1 185.12114 204.575] CT
1 0 0 RC
N
f-1992514645
f
GR
GS
[1 0 0 1 185.12114 257.0625] CT
1 0 0 RC
N
f-1992514645
f
GR
GS
[1 0 0 1 185.12114 358] CT
1 0 0 RC
N
f-1992514645
f
GR
GS
[1 0 0 1 185.12114 358] CT
1 0 0 RC
N
f-1992514645
f
GR
GS
[1 0 0 1 185.12114 358] CT
1 0 0 RC
N
f-1992514645
f
GR
GS
[1 0 0 1 185.12114 358] CT
1 0 0 RC
N
f-1992514645
f
GR
GS
[1 0 0 1 185.12114 317.625] CT
1 0 0 RC
N
f-1992514645
f
GR
GS
[1 0 0 1 185.12114 358] CT
1 0 0 RC
N
f-1992514645
f
GR
GS
[1 0 0 1 185.12114 358] CT
1 0 0 RC
N
f-1992514645
f
GR
GS
[1 0 0 1 185.12114 321.66251] CT
1 0 0 RC
N
f-1992514645
f
GR
GS
[1 0 0 1 185.12114 358] CT
1 0 0 RC
N
f-1992514645
f
GR
GS
[1 0 0 1 185.12114 337.8125] CT
1 0 0 RC
N
f-1992514645
f
GR
GS
[1 0 0 1 185.12114 358] CT
1 0 0 RC
N
f-1992514645
f
GR
GS
[1 0 0 1 185.12114 358] CT
1 0 0 RC
N
f-1992514645
f
GR
GS
[1 0 0 1 185.12114 341.85001] CT
1 0 0 RC
N
f-1992514645
f
GR
GS
[1 0 0 1 185.12114 345.88751] CT
1 0 0 RC
N
f-1992514645
f
GR
GS
[1 0 0 1 185.12114 358] CT
1 0 0 RC
N
f-1992514645
f
GR
GS
[1 0 0 1 185.12114 358] CT
1 0 0 RC
N
f-1992514645
f
GR
GS
[1 0 0 1 185.12114 358] CT
1 0 0 RC
N
f-1992514645
f
GR
GS
[1 0 0 1 185.12114 358] CT
1 0 0 RC
N
f-1992514645
f
GR
GS
[1 0 0 1 185.12114 253.02499] CT
1 0 0 RC
N
f-1992514645
f
GR
GS
[1 0 0 1 185.12114 236.875] CT
1 0 0 RC
N
f-1992514645
f
GR
GS
[1 0 0 1 185.12114 232.83749] CT
1 0 0 RC
N
f-1992514645
f
GR
GS
[1 0 0 1 185.12114 253.02499] CT
1 0 0 RC
N
f-1992514645
f
GR
GS
[1 0 0 1 185.12114 313.58749] CT
1 0 0 RC
N
f-1992514645
f
GR
GS
[1 0 0 1 185.12114 269.17499] CT
1 0 0 RC
N
f-1992514645
f
GR
GS
[1 0 0 1 185.12114 257.0625] CT
1 0 0 RC
N
f-1992514645
f
GR
GS
[1 0 0 1 185.12114 329.73749] CT
1 0 0 RC
N
f-1992514645
f
GR
GS
[1 0 0 1 185.12114 277.25] CT
1 0 0 RC
N
f-1992514645
f
GR
GS
[1 0 0 1 185.12114 305.51251] CT
1 0 0 RC
N
f-1992514645
f
GR
GS
[1 0 0 1 185.12114 269.17499] CT
1 0 0 RC
N
f-1992514645
f
GR
GS
[1 0 0 1 185.12114 305.51251] CT
1 0 0 RC
N
f-1992514645
f
GR
GS
[1 0 0 1 185.12114 301.47501] CT
1 0 0 RC
N
f-1992514645
f
GR
GS
[1 0 0 1 185.12114 285.32501] CT
1 0 0 RC
N
f-1992514645
f
GR
GS
[1 0 0 1 210.87144 156.125] CT
0 0.702 0 RC
N
f-1992514645
f
GR
GS
[1 0 0 1 210.87144 289.36249] CT
1 0 0 RC
N
f-1992514645
f
GR
GS
[1 0 0 1 210.87144 200.53751] CT
1 0 0 RC
N
f-1992514645
f
GR
GS
[1 0 0 1 210.87144 309.54999] CT
1 0 0 RC
N
f-1992514645
f
GR
GS
[1 0 0 1 210.87144 224.7625] CT
1 0 0 RC
N
f-1992514645
f
GR
GS
[1 0 0 1 210.87144 273.21249] CT
1 0 0 RC
N
f-1992514645
f
GR
GS
[1 0 0 1 210.87144 281.28751] CT
1 0 0 RC
N
f-1992514645
f
GR
GS
[1 0 0 1 210.87144 269.17499] CT
1 0 0 RC
N
f-1992514645
f
GR
GS
[1 0 0 1 210.87144 261.10001] CT
1 0 0 RC
N
f-1992514645
f
GR
GS
[1 0 0 1 210.87144 232.83749] CT
1 0 0 RC
N
f-1992514645
f
GR
GS
[1 0 0 1 210.87144 273.21249] CT
1 0 0 RC
N
f-1992514645
f
GR
GS
[1 0 0 1 210.87144 301.47501] CT
1 0 0 RC
N
f-1992514645
f
GR
GS
[1 0 0 1 210.87144 253.02499] CT
1 0 0 RC
N
f-1992514645
f
GR
GS
[1 0 0 1 210.87144 277.25] CT
1 0 0 RC
N
f-1992514645
f
GR
GS
[1 0 0 1 210.87144 248.9875] CT
1 0 0 RC
N
f-1992514645
f
GR
GS
[1 0 0 1 210.87144 358] CT
1 0 0 RC
N
f-1992514645
f
GR
GS
[1 0 0 1 210.87144 337.8125] CT
1 0 0 RC
N
f-1992514645
f
GR
GS
[1 0 0 1 210.87144 349.92499] CT
1 0 0 RC
N
f-1992514645
f
GR
GS
[1 0 0 1 210.87144 349.92499] CT
1 0 0 RC
N
f-1992514645
f
GR
GS
[1 0 0 1 210.87144 358] CT
1 0 0 RC
N
f-1992514645
f
GR
GS
[1 0 0 1 210.87144 358] CT
1 0 0 RC
N
f-1992514645
f
GR
GS
[1 0 0 1 210.87144 358] CT
1 0 0 RC
N
f-1992514645
f
GR
GS
[1 0 0 1 210.87144 358] CT
1 0 0 RC
N
f-1992514645
f
GR
GS
[1 0 0 1 210.87144 358] CT
1 0 0 RC
N
f-1992514645
f
GR
GS
[1 0 0 1 210.87144 353.96249] CT
1 0 0 RC
N
f-1992514645
f
GR
GS
[1 0 0 1 210.87144 358] CT
1 0 0 RC
N
f-1992514645
f
GR
GS
[1 0 0 1 210.87144 358] CT
1 0 0 RC
N
f-1992514645
f
GR
GS
[1 0 0 1 210.87144 358] CT
1 0 0 RC
N
f-1992514645
f
GR
GS
[1 0 0 1 210.87144 358] CT
1 0 0 RC
N
f-1992514645
f
GR
GS
[1 0 0 1 210.87144 358] CT
1 0 0 RC
N
f-1992514645
f
GR
GS
[1 0 0 1 210.87144 358] CT
1 0 0 RC
N
f-1992514645
f
GR
GS
[1 0 0 1 210.87144 358] CT
1 0 0 RC
N
f-1992514645
f
GR
GS
[1 0 0 1 210.87144 358] CT
1 0 0 RC
N
f-1992514645
f
GR
GS
[1 0 0 1 210.87144 358] CT
1 0 0 RC
N
f-1992514645
f
GR
GS
[1 0 0 1 210.87144 358] CT
1 0 0 RC
N
f-1992514645
f
GR
GS
[1 0 0 1 210.87144 358] CT
1 0 0 RC
N
f-1992514645
f
GR
GS
[1 0 0 1 210.87144 333.77499] CT
1 0 0 RC
N
f-1992514645
f
GR
GS
[1 0 0 1 210.87144 358] CT
1 0 0 RC
N
f-1992514645
f
GR
GS
[1 0 0 1 210.87144 358] CT
1 0 0 RC
N
f-1992514645
f
GR
GS
[1 0 0 1 210.87144 349.92499] CT
1 0 0 RC
N
f-1992514645
f
GR
GS
[1 0 0 1 210.87144 358] CT
1 0 0 RC
N
f-1992514645
f
GR
GS
[1 0 0 1 210.87144 309.54999] CT
1 0 0 RC
N
f-1992514645
f
GR
GS
[1 0 0 1 210.87144 358] CT
1 0 0 RC
N
f-1992514645
f
GR
GS
[1 0 0 1 210.87144 358] CT
1 0 0 RC
N
f-1992514645
f
GR
GS
[1 0 0 1 210.87144 358] CT
1 0 0 RC
N
f-1992514645
f
GR
GS
[1 0 0 1 210.87144 358] CT
1 0 0 RC
N
f-1992514645
f
GR
GS
[1 0 0 1 210.87144 309.54999] CT
1 0 0 RC
N
f-1992514645
f
GR
GS
[1 0 0 1 210.87144 358] CT
1 0 0 RC
N
f-1992514645
f
GR
GS
[1 0 0 1 210.87144 358] CT
1 0 0 RC
N
f-1992514645
f
GR
GS
[1 0 0 1 210.87144 358] CT
1 0 0 RC
N
f-1992514645
f
GR
GS
[1 0 0 1 210.87144 358] CT
1 0 0 RC
N
f-1992514645
f
GR
GS
[1 0 0 1 262.37207 358] CT
1 0 0 RC
N
f-1992514645
f
GR
GS
[1 0 0 1 262.37207 358] CT
1 0 0 RC
N
f-1992514645
f
GR
GS
[1 0 0 1 262.37207 345.88751] CT
1 0 0 RC
N
f-1992514645
f
GR
GS
[1 0 0 1 262.37207 358] CT
1 0 0 RC
N
f-1992514645
f
GR
GS
[1 0 0 1 262.37207 358] CT
1 0 0 RC
N
f-1992514645
f
GR
GS
[1 0 0 1 262.37207 265.13751] CT
1 0 0 RC
N
f-1992514645
f
GR
GS
[1 0 0 1 262.37207 285.32501] CT
1 0 0 RC
N
f-1992514645
f
GR
GS
[1 0 0 1 262.37207 321.66251] CT
1 0 0 RC
N
f-1992514645
f
GR
GS
[1 0 0 1 262.37207 285.32501] CT
1 0 0 RC
N
f-1992514645
f
GR
GS
[1 0 0 1 262.37207 240.91251] CT
1 0 0 RC
N
f-1992514645
f
GR
GS
[1 0 0 1 262.37207 358] CT
1 0 0 RC
N
f-1992514645
f
GR
GS
[1 0 0 1 262.37207 358] CT
1 0 0 RC
N
f-1992514645
f
GR
GS
[1 0 0 1 262.37207 358] CT
1 0 0 RC
N
f-1992514645
f
GR
GS
[1 0 0 1 262.37207 305.51251] CT
1 0 0 RC
N
f-1992514645
f
GR
GS
[1 0 0 1 262.37207 333.77499] CT
1 0 0 RC
N
f-1992514645
f
GR
GS
[1 0 0 1 262.37207 358] CT
1 0 0 RC
N
f-1992514645
f
GR
GS
[1 0 0 1 262.37207 257.0625] CT
1 0 0 RC
N
f-1992514645
f
GR
GS
[1 0 0 1 262.37207 317.625] CT
1 0 0 RC
N
f-1992514645
f
GR
GS
[1 0 0 1 262.37207 317.625] CT
1 0 0 RC
N
f-1992514645
f
GR
GS
[1 0 0 1 262.37207 301.47501] CT
1 0 0 RC
N
f-1992514645
f
GR
GS
[1 0 0 1 262.37207 269.17499] CT
1 0 0 RC
N
f-1992514645
f
GR
GS
[1 0 0 1 262.37207 349.92499] CT
1 0 0 RC
N
f-1992514645
f
GR
GS
[1 0 0 1 262.37207 358] CT
1 0 0 RC
N
f-1992514645
f
GR
GS
[1 0 0 1 262.37207 321.66251] CT
1 0 0 RC
N
f-1992514645
f
GR
GS
[1 0 0 1 262.37207 309.54999] CT
1 0 0 RC
N
f-1992514645
f
GR
GS
[1 0 0 1 262.37207 341.85001] CT
1 0 0 RC
N
f-1992514645
f
GR
GS
[1 0 0 1 262.37207 358] CT
1 0 0 RC
N
f-1992514645
f
GR
GS
[1 0 0 1 262.37207 257.0625] CT
1 0 0 RC
N
f-1992514645
f
GR
GS
[1 0 0 1 262.37207 309.54999] CT
1 0 0 RC
N
f-1992514645
f
GR
GS
[1 0 0 1 262.37207 333.77499] CT
1 0 0 RC
N
f-1992514645
f
GR
GS
[1 0 0 1 262.37207 325.70001] CT
1 0 0 RC
N
f-1992514645
f
GR
GS
[1 0 0 1 262.37207 244.95] CT
1 0 0 RC
N
f-1992514645
f
GR
GS
[1 0 0 1 262.37207 349.92499] CT
1 0 0 RC
N
f-1992514645
f
GR
GS
[1 0 0 1 262.37207 358] CT
1 0 0 RC
N
f-1992514645
f
GR
GS
[1 0 0 1 262.37207 358] CT
1 0 0 RC
N
f-1992514645
f
GR
GS
[1 0 0 1 262.37207 358] CT
1 0 0 RC
N
f-1992514645
f
GR
GS
[1 0 0 1 262.37207 353.96249] CT
1 0 0 RC
N
f-1992514645
f
GR
GS
[1 0 0 1 262.37207 358] CT
1 0 0 RC
N
f-1992514645
f
GR
GS
[1 0 0 1 262.37207 358] CT
1 0 0 RC
N
f-1992514645
f
GR
GS
[1 0 0 1 262.37207 358] CT
1 0 0 RC
N
f-1992514645
f
GR
GS
[1 0 0 1 262.37207 358] CT
1 0 0 RC
N
f-1992514645
f
GR
GS
[1 0 0 1 262.37207 329.73749] CT
1 0 0 RC
N
f-1992514645
f
GR
GS
[1 0 0 1 262.37207 358] CT
1 0 0 RC
N
f-1992514645
f
GR
GS
[1 0 0 1 262.37207 358] CT
1 0 0 RC
N
f-1992514645
f
GR
GS
[1 0 0 1 262.37207 358] CT
1 0 0 RC
N
f-1992514645
f
GR
GS
[1 0 0 1 262.37207 358] CT
1 0 0 RC
N
f-1992514645
f
GR
GS
[1 0 0 1 262.37207 358] CT
1 0 0 RC
N
f-1992514645
f
GR
GS
[1 0 0 1 262.37207 358] CT
1 0 0 RC
N
f-1992514645
f
GR
GS
[1 0 0 1 262.37207 358] CT
1 0 0 RC
N
f-1992514645
f
GR
GS
[1 0 0 1 262.37207 358] CT
1 0 0 RC
N
f-1992514645
f
GR
GS
[1 0 0 1 262.37207 358] CT
1 0 0 RC
N
f-1992514645
f
GR
GS
[1 0 0 1 262.37207 358] CT
1 0 0 RC
N
f-1992514645
f
GR
GS
[1 0 0 1 262.37207 358] CT
1 0 0 RC
N
f-1992514645
f
GR
GS
[1 0 0 1 262.37207 358] CT
1 0 0 RC
N
f-1992514645
f
GR
GS
[1 0 0 1 262.37207 358] CT
1 0 0 RC
N
f-1992514645
f
GR
GS
[1 0 0 1 262.37207 358] CT
1 0 0 RC
N
f-1992514645
f
GR
GS
[1 0 0 1 262.37207 358] CT
1 0 0 RC
N
f-1992514645
f
GR
GS
[1 0 0 1 262.37207 277.25] CT
1 0 0 RC
N
f-1992514645
f
GR
GS
[1 0 0 1 262.37207 358] CT
1 0 0 RC
N
f-1992514645
f
GR
GS
[1 0 0 1 262.37207 321.66251] CT
1 0 0 RC
N
f-1992514645
f
GR
GS
[1 0 0 1 262.37207 358] CT
1 0 0 RC
N
f-1992514645
f
GR
GS
[1 0 0 1 262.37207 358] CT
1 0 0 RC
N
f-1992514645
f
GR
GS
[1 0 0 1 262.37207 329.73749] CT
1 0 0 RC
N
f-1992514645
f
GR
GS
[1 0 0 1 262.37207 358] CT
1 0 0 RC
N
f-1992514645
f
GR
GS
[1 0 0 1 262.37207 337.8125] CT
1 0 0 RC
N
f-1992514645
f
GR
GS
[1 0 0 1 262.37207 358] CT
1 0 0 RC
N
f-1992514645
f
GR
GS
[1 0 0 1 262.37207 353.96249] CT
1 0 0 RC
N
f-1992514645
f
GR
GS
[1 0 0 1 262.37207 333.77499] CT
1 0 0 RC
N
f-1992514645
f
GR
GS
[1 0 0 1 262.37207 358] CT
1 0 0 RC
N
f-1992514645
f
GR
GS
[1 0 0 1 262.37207 269.17499] CT
1 0 0 RC
N
f-1992514645
f
GR
GS
[1 0 0 1 262.37207 349.92499] CT
1 0 0 RC
N
f-1992514645
f
GR
GS
[1 0 0 1 288.12238 358] CT
1 0 0 RC
N
f-1992514645
f
GR
GS
[1 0 0 1 288.12238 358] CT
1 0 0 RC
N
f-1992514645
f
GR
GS
[1 0 0 1 288.12238 358] CT
1 0 0 RC
N
f-1992514645
f
GR
GS
[1 0 0 1 288.12238 358] CT
1 0 0 RC
N
f-1992514645
f
GR
GS
[1 0 0 1 288.12238 358] CT
1 0 0 RC
N
f-1992514645
f
GR
GS
[1 0 0 1 288.12238 358] CT
1 0 0 RC
N
f-1992514645
f
GR
GS
[1 0 0 1 288.12238 358] CT
1 0 0 RC
N
f-1992514645
f
GR
GS
[1 0 0 1 288.12238 358] CT
1 0 0 RC
N
f-1992514645
f
GR
GS
[1 0 0 1 288.12238 358] CT
1 0 0 RC
N
f-1992514645
f
GR
GS
[1 0 0 1 288.12238 358] CT
1 0 0 RC
N
f-1992514645
f
GR
GS
[1 0 0 1 288.12238 358] CT
1 0 0 RC
N
f-1992514645
f
GR
GS
[1 0 0 1 288.12238 358] CT
1 0 0 RC
N
f-1992514645
f
GR
GS
[1 0 0 1 288.12238 358] CT
1 0 0 RC
N
f-1992514645
f
GR
GS
[1 0 0 1 288.12238 358] CT
1 0 0 RC
N
f-1992514645
f
GR
GS
[1 0 0 1 288.12238 358] CT
1 0 0 RC
N
f-1992514645
f
GR
GS
[1 0 0 1 288.12238 358] CT
1 0 0 RC
N
f-1992514645
f
GR
GS
[1 0 0 1 288.12238 358] CT
1 0 0 RC
N
f-1992514645
f
GR
GS
[1 0 0 1 288.12238 358] CT
1 0 0 RC
N
f-1992514645
f
GR
GS
[1 0 0 1 288.12238 321.66251] CT
1 0 0 RC
N
f-1992514645
f
GR
GS
[1 0 0 1 288.12238 313.58749] CT
1 0 0 RC
N
f-1992514645
f
GR
GS
[1 0 0 1 288.12238 358] CT
1 0 0 RC
N
f-1992514645
f
GR
GS
[1 0 0 1 288.12238 353.96249] CT
1 0 0 RC
N
f-1992514645
f
GR
GS
[1 0 0 1 288.12238 325.70001] CT
1 0 0 RC
N
f-1992514645
f
GR
GS
[1 0 0 1 288.12238 358] CT
1 0 0 RC
N
f-1992514645
f
GR
GS
[1 0 0 1 288.12238 309.54999] CT
1 0 0 RC
N
f-1992514645
f
GR
GS
[1 0 0 1 288.12238 358] CT
1 0 0 RC
N
f-1992514645
f
GR
GS
[1 0 0 1 288.12238 358] CT
1 0 0 RC
N
f-1992514645
f
GR
GS
[1 0 0 1 288.12238 358] CT
1 0 0 RC
N
f-1992514645
f
GR
GS
[1 0 0 1 288.12238 349.92499] CT
1 0 0 RC
N
f-1992514645
f
GR
GS
[1 0 0 1 288.12238 349.92499] CT
1 0 0 RC
N
f-1992514645
f
GR
GS
[1 0 0 1 288.12238 329.73749] CT
1 0 0 RC
N
f-1992514645
f
GR
GS
[1 0 0 1 288.12238 358] CT
1 0 0 RC
N
f-1992514645
f
GR
GS
[1 0 0 1 288.12238 358] CT
1 0 0 RC
N
f-1992514645
f
GR
GS
[1 0 0 1 288.12238 358] CT
1 0 0 RC
N
f-1992514645
f
GR
GS
[1 0 0 1 288.12238 358] CT
1 0 0 RC
N
f-1992514645
f
GR
GS
[1 0 0 1 288.12238 358] CT
1 0 0 RC
N
f-1992514645
f
GR
GS
[1 0 0 1 288.12238 325.70001] CT
1 0 0 RC
N
f-1992514645
f
GR
GS
[1 0 0 1 288.12238 358] CT
1 0 0 RC
N
f-1992514645
f
GR
GS
[1 0 0 1 288.12238 358] CT
1 0 0 RC
N
f-1992514645
f
GR
GS
[1 0 0 1 288.12238 358] CT
1 0 0 RC
N
f-1992514645
f
GR
GS
[1 0 0 1 288.12238 353.96249] CT
1 0 0 RC
N
f-1992514645
f
GR
GS
[1 0 0 1 288.12238 353.96249] CT
1 0 0 RC
N
f-1992514645
f
GR
GS
[1 0 0 1 288.12238 358] CT
1 0 0 RC
N
f-1992514645
f
GR
GS
[1 0 0 1 288.12238 358] CT
1 0 0 RC
N
f-1992514645
f
GR
GS
[1 0 0 1 288.12238 358] CT
1 0 0 RC
N
f-1992514645
f
GR
GS
[1 0 0 1 288.12238 358] CT
1 0 0 RC
N
f-1992514645
f
GR
GS
[1 0 0 1 288.12238 358] CT
1 0 0 RC
N
f-1992514645
f
GR
GS
[1 0 0 1 288.12238 358] CT
1 0 0 RC
N
f-1992514645
f
GR
GS
[1 0 0 1 288.12238 358] CT
1 0 0 RC
N
f-1992514645
f
GR
GS
[1 0 0 1 288.12238 358] CT
1 0 0 RC
N
f-1992514645
f
GR
GS
[1 0 0 1 288.12238 358] CT
1 0 0 RC
N
f-1992514645
f
GR
GS
[1 0 0 1 288.12238 329.73749] CT
1 0 0 RC
N
f-1992514645
f
GR
GS
[1 0 0 1 288.12238 358] CT
1 0 0 RC
N
f-1992514645
f
GR
GS
[1 0 0 1 288.12238 341.85001] CT
1 0 0 RC
N
f-1992514645
f
GR
GS
[1 0 0 1 339.62299 358] CT
1 0 0 RC
N
f-1992514645
f
GR
GS
[1 0 0 1 339.62299 358] CT
1 0 0 RC
N
f-1992514645
f
GR
GS
[1 0 0 1 339.62299 358] CT
1 0 0 RC
N
f-1992514645
f
GR
GS
[1 0 0 1 339.62299 353.96249] CT
1 0 0 RC
N
f-1992514645
f
GR
GS
[1 0 0 1 339.62299 317.625] CT
1 0 0 RC
N
f-1992514645
f
GR
GS
[1 0 0 1 339.62299 337.8125] CT
1 0 0 RC
N
f-1992514645
f
GR
GS
[1 0 0 1 339.62299 358] CT
1 0 0 RC
N
f-1992514645
f
GR
GS
[1 0 0 1 339.62299 358] CT
1 0 0 RC
N
f-1992514645
f
GR
GS
[1 0 0 1 339.62299 358] CT
1 0 0 RC
N
f-1992514645
f
GR
GS
[1 0 0 1 339.62299 329.73749] CT
1 0 0 RC
N
f-1992514645
f
GR
GS
[1 0 0 1 339.62299 358] CT
1 0 0 RC
N
f-1992514645
f
GR
GS
[1 0 0 1 339.62299 358] CT
1 0 0 RC
N
f-1992514645
f
GR
GS
[1 0 0 1 339.62299 358] CT
1 0 0 RC
N
f-1992514645
f
GR
GS
[1 0 0 1 339.62299 358] CT
1 0 0 RC
N
f-1992514645
f
GR
GS
[1 0 0 1 339.62299 358] CT
1 0 0 RC
N
f-1992514645
f
GR
GS
[1 0 0 1 339.62299 358] CT
1 0 0 RC
N
f-1992514645
f
GR
GS
[1 0 0 1 339.62299 341.85001] CT
1 0 0 RC
N
f-1992514645
f
GR
GS
[1 0 0 1 339.62299 358] CT
1 0 0 RC
N
f-1992514645
f
GR
GS
[1 0 0 1 339.62299 358] CT
1 0 0 RC
N
f-1992514645
f
GR
GS
[1 0 0 1 339.62299 321.66251] CT
1 0 0 RC
N
f-1992514645
f
GR
GS
[1 0 0 1 339.62299 358] CT
1 0 0 RC
N
f-1992514645
f
GR
GS
[1 0 0 1 339.62299 358] CT
1 0 0 RC
N
f-1992514645
f
GR
GS
[1 0 0 1 339.62299 358] CT
1 0 0 RC
N
f-1992514645
f
GR
GS
[1 0 0 1 339.62299 358] CT
1 0 0 RC
N
f-1992514645
f
GR
GS
[1 0 0 1 339.62299 358] CT
1 0 0 RC
N
f-1992514645
f
GR
GS
[1 0 0 1 339.62299 358] CT
1 0 0 RC
N
f-1992514645
f
GR
GS
[1 0 0 1 339.62299 358] CT
1 0 0 RC
N
f-1992514645
f
GR
GS
[1 0 0 1 339.62299 358] CT
1 0 0 RC
N
f-1992514645
f
GR
GS
[1 0 0 1 339.62299 358] CT
1 0 0 RC
N
f-1992514645
f
GR
GS
[1 0 0 1 339.62299 358] CT
1 0 0 RC
N
f-1992514645
f
GR
GS
[1 0 0 1 339.62299 358] CT
1 0 0 RC
N
f-1992514645
f
GR
GS
[1 0 0 1 339.62299 358] CT
1 0 0 RC
N
f-1992514645
f
GR
GS
[1 0 0 1 339.62299 358] CT
1 0 0 RC
N
f-1992514645
f
GR
GS
[1 0 0 1 339.62299 358] CT
1 0 0 RC
N
f-1992514645
f
GR
GS
[1 0 0 1 339.62299 358] CT
1 0 0 RC
N
f-1992514645
f
GR
GS
[1 0 0 1 339.62299 358] CT
1 0 0 RC
N
f-1992514645
f
GR
GS
[1 0 0 1 339.62299 358] CT
1 0 0 RC
N
f-1992514645
f
GR
GS
[1 0 0 1 339.62299 358] CT
1 0 0 RC
N
f-1992514645
f
GR
GS
[1 0 0 1 339.62299 358] CT
1 0 0 RC
N
f-1992514645
f
GR
GS
[1 0 0 1 339.62299 358] CT
1 0 0 RC
N
f-1992514645
f
GR
GS
[1 0 0 1 339.62299 358] CT
1 0 0 RC
N
f-1992514645
f
GR
GS
[1 0 0 1 339.62299 358] CT
1 0 0 RC
N
f-1992514645
f
GR
GS
[1 0 0 1 339.62299 358] CT
1 0 0 RC
N
f-1992514645
f
GR
GS
[1 0 0 1 339.62299 358] CT
1 0 0 RC
N
f-1992514645
f
GR
GS
[1 0 0 1 339.62299 358] CT
1 0 0 RC
N
f-1992514645
f
GR
GS
[1 0 0 1 339.62299 358] CT
1 0 0 RC
N
f-1992514645
f
GR
GS
[1 0 0 1 339.62299 358] CT
1 0 0 RC
N
f-1992514645
f
GR
GS
[1 0 0 1 339.62299 358] CT
1 0 0 RC
N
f-1992514645
f
GR
GS
[1 0 0 1 339.62299 358] CT
1 0 0 RC
N
f-1992514645
f
GR
GS
[1 0 0 1 339.62299 358] CT
1 0 0 RC
N
f-1992514645
f
GR
GS
[1 0 0 1 339.62299 358] CT
1 0 0 RC
N
f-1992514645
f
GR
GS
[1 0 0 1 339.62299 358] CT
1 0 0 RC
N
f-1992514645
f
GR
GS
[1 0 0 1 339.62299 345.88751] CT
1 0 0 RC
N
f-1992514645
f
GR
GS
[1 0 0 1 339.62299 358] CT
1 0 0 RC
N
f-1992514645
f
GR
GS
[1 0 0 1 339.62299 358] CT
1 0 0 RC
N
f-1992514645
f
GR
GS
[1 0 0 1 339.62299 358] CT
1 0 0 RC
N
f-1992514645
f
GR
GS
[1 0 0 1 377.71198 358] CT
1 0 0 RC
N
f-1992514645
f
GR
GS
[1 0 0 1 377.71198 353.96249] CT
1 0 0 RC
N
f-1992514645
f
GR
GS
[1 0 0 1 377.71198 358] CT
1 0 0 RC
N
f-1992514645
f
GR
GS
[1 0 0 1 377.71198 358] CT
1 0 0 RC
N
f-1992514645
f
GR
GS
[1 0 0 1 377.71198 358] CT
1 0 0 RC
N
f-1992514645
f
GR
GS
[1 0 0 1 377.71198 358] CT
1 0 0 RC
N
f-1992514645
f
GR
GS
[1 0 0 1 377.71198 358] CT
1 0 0 RC
N
f-1992514645
f
GR
GS
[1 0 0 1 377.71198 358] CT
1 0 0 RC
N
f-1992514645
f
GR
GS
[1 0 0 1 377.71198 358] CT
1 0 0 RC
N
f-1992514645
f
GR
GS
[1 0 0 1 377.71198 353.96249] CT
1 0 0 RC
N
f-1992514645
f
GR
GS
[1 0 0 1 377.71198 353.96249] CT
1 0 0 RC
N
f-1992514645
f
GR
GS
[1 0 0 1 377.71198 321.66251] CT
1 0 0 RC
N
f-1992514645
f
GR
GS
[1 0 0 1 377.71198 358] CT
1 0 0 RC
N
f-1992514645
f
GR
GS
[1 0 0 1 377.71198 358] CT
1 0 0 RC
N
f-1992514645
f
GR
GS
[1 0 0 1 377.71198 358] CT
1 0 0 RC
N
f-1992514645
f
GR
GS
[1 0 0 1 377.71198 349.92499] CT
1 0 0 RC
N
f-1992514645
f
GR
GS
[1 0 0 1 377.71198 349.92499] CT
1 0 0 RC
N
f-1992514645
f
GR
GS
[1 0 0 1 377.71198 321.66251] CT
1 0 0 RC
N
f-1992514645
f
GR
GS
[1 0 0 1 377.71198 358] CT
1 0 0 RC
N
f-1992514645
f
GR
GS
[1 0 0 1 377.71198 358] CT
1 0 0 RC
N
f-1992514645
f
GR
GS
[1 0 0 1 377.71198 358] CT
1 0 0 RC
N
f-1992514645
f
GR
GS
[1 0 0 1 377.71198 358] CT
1 0 0 RC
N
f-1992514645
f
GR
GS
[1 0 0 1 377.71198 358] CT
1 0 0 RC
N
f-1992514645
f
GR
GS
[1 0 0 1 377.71198 358] CT
1 0 0 RC
N
f-1992514645
f
GR
GS
[1 0 0 1 377.71198 358] CT
1 0 0 RC
N
f-1992514645
f
GR
GS
[1 0 0 1 377.71198 358] CT
1 0 0 RC
N
f-1992514645
f
GR
GS
[1 0 0 1 377.71198 358] CT
1 0 0 RC
N
f-1992514645
f
GR
GS
[1 0 0 1 377.71198 358] CT
1 0 0 RC
N
f-1992514645
f
GR
GS
[1 0 0 1 377.71198 358] CT
1 0 0 RC
N
f-1992514645
f
GR
GS
[1 0 0 1 377.71198 358] CT
1 0 0 RC
N
f-1992514645
f
GR
GS
[1 0 0 1 377.71198 358] CT
1 0 0 RC
N
f-1992514645
f
GR
GS
[1 0 0 1 377.71198 358] CT
1 0 0 RC
N
f-1992514645
f
GR
GS
[1 0 0 1 377.71198 358] CT
1 0 0 RC
N
f-1992514645
f
GR
GS
[1 0 0 1 377.71198 353.96249] CT
1 0 0 RC
N
f-1992514645
f
GR
GS
[1 0 0 1 377.71198 353.96249] CT
1 0 0 RC
N
f-1992514645
f
GR
GS
[1 0 0 1 377.71198 358] CT
1 0 0 RC
N
f-1992514645
f
GR
GS
[1 0 0 1 377.71198 358] CT
1 0 0 RC
N
f-1992514645
f
GR
GS
[1 0 0 1 377.71198 358] CT
1 0 0 RC
N
f-1992514645
f
GR
GS
[1 0 0 1 377.71198 358] CT
1 0 0 RC
N
f-1992514645
f
GR
GS
[1 0 0 1 403.46231 358] CT
1 0 0 RC
N
f-1992514645
f
GR
GS
[1 0 0 1 403.46231 358] CT
1 0 0 RC
N
f-1992514645
f
GR
GS
[1 0 0 1 403.46231 358] CT
1 0 0 RC
N
f-1992514645
f
GR
GS
[1 0 0 1 403.46231 358] CT
1 0 0 RC
N
f-1992514645
f
GR
GS
[1 0 0 1 403.46231 321.66251] CT
1 0 0 RC
N
f-1992514645
f
GR
GS
[1 0 0 1 403.46231 358] CT
1 0 0 RC
N
f-1992514645
f
GR
GS
[1 0 0 1 403.46231 358] CT
1 0 0 RC
N
f-1992514645
f
GR
GS
[1 0 0 1 403.46231 358] CT
1 0 0 RC
N
f-1992514645
f
GR
GS
[1 0 0 1 403.46231 358] CT
1 0 0 RC
N
f-1992514645
f
GR
GS
[1 0 0 1 403.46231 358] CT
1 0 0 RC
N
f-1992514645
f
GR
GS
[1 0 0 1 403.46231 358] CT
1 0 0 RC
N
f-1992514645
f
GR
GS
[1 0 0 1 403.46231 358] CT
1 0 0 RC
N
f-1992514645
f
GR
GS
[1 0 0 1 403.46231 333.77499] CT
1 0 0 RC
N
f-1992514645
f
GR
GS
[1 0 0 1 403.46231 349.92499] CT
1 0 0 RC
N
f-1992514645
f
GR
GS
[1 0 0 1 403.46231 358] CT
1 0 0 RC
N
f-1992514645
f
GR
GS
[1 0 0 1 403.46231 358] CT
1 0 0 RC
N
f-1992514645
f
GR
GS
[1 0 0 1 403.46231 349.92499] CT
1 0 0 RC
N
f-1992514645
f
GR
GS
[1 0 0 1 403.46231 358] CT
1 0 0 RC
N
f-1992514645
f
GR
GS
[1 0 0 1 403.46231 358] CT
1 0 0 RC
N
f-1992514645
f
GR
GS
[1 0 0 1 403.46231 358] CT
1 0 0 RC
N
f-1992514645
f
GR
GS
[1 0 0 1 403.46231 358] CT
1 0 0 RC
N
f-1992514645
f
GR
GS
[1 0 0 1 403.46231 358] CT
1 0 0 RC
N
f-1992514645
f
GR
GS
[1 0 0 1 403.46231 358] CT
1 0 0 RC
N
f-1992514645
f
GR
GS
[1 0 0 1 403.46231 358] CT
1 0 0 RC
N
f-1992514645
f
GR
GS
[1 0 0 1 403.46231 358] CT
1 0 0 RC
N
f-1992514645
f
GR
GS
[1 0 0 1 403.46231 358] CT
1 0 0 RC
N
f-1992514645
f
GR
GS
[1 0 0 1 403.46231 358] CT
1 0 0 RC
N
f-1992514645
f
GR
GS
[1 0 0 1 403.46231 358] CT
1 0 0 RC
N
f-1992514645
f
GR
GS
[1 0 0 1 403.46231 358] CT
1 0 0 RC
N
f-1992514645
f
GR
GS
[1 0 0 1 403.46231 358] CT
1 0 0 RC
N
f-1992514645
f
GR
GS
[1 0 0 1 403.46231 358] CT
1 0 0 RC
N
f-1992514645
f
GR
GS
[1 0 0 1 403.46231 358] CT
1 0 0 RC
N
f-1992514645
f
GR
GS
[1 0 0 1 403.46231 358] CT
1 0 0 RC
N
f-1992514645
f
GR
GS
[1 0 0 1 403.46231 358] CT
1 0 0 RC
N
f-1992514645
f
GR
GS
[1 0 0 1 403.46231 358] CT
1 0 0 RC
N
f-1992514645
f
GR
GS
[1 0 0 1 403.46231 341.85001] CT
1 0 0 RC
N
f-1992514645
f
GR
GS
[1 0 0 1 403.46231 358] CT
1 0 0 RC
N
f-1992514645
f
GR
GS
[1 0 0 1 403.46231 358] CT
1 0 0 RC
N
f-1992514645
f
GR
GS
[1 0 0 1 403.46231 358] CT
1 0 0 RC
N
f-1992514645
f
GR
GS
[1 0 0 1 403.46231 358] CT
1 0 0 RC
N
f-1992514645
f
GR
GS
[1 0 0 1 403.46231 358] CT
1 0 0 RC
N
f-1992514645
f
GR
GS
[1 0 0 1 403.46231 358] CT
1 0 0 RC
N
f-1992514645
f
GR
GS
[1 0 0 1 403.46231 358] CT
1 0 0 RC
N
f-1992514645
f
GR
GS
[1 0 0 1 403.46231 358] CT
1 0 0 RC
N
f-1992514645
f
GR
GS
[1 0 0 1 403.46231 358] CT
1 0 0 RC
N
f-1992514645
f
GR
GS
[1 0 0 1 403.46231 358] CT
1 0 0 RC
N
f-1992514645
f
GR
GS
[1 0 0 1 403.46231 309.54999] CT
1 0 0 RC
N
f-1992514645
f
GR
GS
[1 0 0 1 403.46231 341.85001] CT
1 0 0 RC
N
f-1992514645
f
GR
GS
[1 0 0 1 403.46231 329.73749] CT
1 0 0 RC
N
f-1992514645
f
GR
GS
[1 0 0 1 403.46231 358] CT
1 0 0 RC
N
f-1992514645
f
GR
GS
[1 0 0 1 403.46231 358] CT
1 0 0 RC
N
f-1992514645
f
GR
GS
[1 0 0 1 403.46231 358] CT
1 0 0 RC
N
f-1992514645
f
GR
GS
[1 0 0 1 403.46231 349.92499] CT
1 0 0 RC
N
f-1992514645
f
GR
GS
[1 0 0 1 403.46231 309.54999] CT
1 0 0 RC
N
f-1992514645
f
GR
GS
[1 0 0 1 403.46231 349.92499] CT
1 0 0 RC
N
f-1992514645
f
GR
GS
[1 0 0 1 403.46231 358] CT
1 0 0 RC
N
f-1992514645
f
GR
GS
[1 0 0 1 403.46231 358] CT
1 0 0 RC
N
f-1992514645
f
GR
GS
[1 0 0 1 403.46231 358] CT
1 0 0 RC
N
f-1992514645
f
GR
GS
[1 0 0 1 403.46231 353.96249] CT
1 0 0 RC
N
f-1992514645
f
GR
GS
[1 0 0 1 403.46231 358] CT
1 0 0 RC
N
f-1992514645
f
GR
GS
[1 0 0 1 403.46231 358] CT
1 0 0 RC
N
f-1992514645
f
GR
GS
[1 0 0 1 403.46231 358] CT
1 0 0 RC
N
f-1992514645
f
GR
GS
[1 0 0 1 403.46231 358] CT
1 0 0 RC
N
f-1992514645
f
GR
GS
[1 0 0 1 403.46231 358] CT
1 0 0 RC
N
f-1992514645
f
GR
GS
[1 0 0 1 467.83807 358] CT
1 0 0 RC
N
f-1992514645
f
GR
GS
[1 0 0 1 467.83807 358] CT
1 0 0 RC
N
f-1992514645
f
GR
GS
[1 0 0 1 467.83807 358] CT
1 0 0 RC
N
f-1992514645
f
GR
GS
[1 0 0 1 467.83807 358] CT
1 0 0 RC
N
f-1992514645
f
GR
GS
[1 0 0 1 467.83807 358] CT
1 0 0 RC
N
f-1992514645
f
GR
GS
[1 0 0 1 467.83807 358] CT
1 0 0 RC
N
f-1992514645
f
GR
GS
[1 0 0 1 467.83807 358] CT
1 0 0 RC
N
f-1992514645
f
GR
GS
[1 0 0 1 467.83807 358] CT
1 0 0 RC
N
f-1992514645
f
GR
GS
[1 0 0 1 467.83807 358] CT
1 0 0 RC
N
f-1992514645
f
GR
GS
[1 0 0 1 467.83807 333.77499] CT
1 0 0 RC
N
f-1992514645
f
GR
GS
[1 0 0 1 467.83807 341.85001] CT
1 0 0 RC
N
f-1992514645
f
GR
GS
[1 0 0 1 467.83807 358] CT
1 0 0 RC
N
f-1992514645
f
GR
GS
[1 0 0 1 467.83807 349.92499] CT
1 0 0 RC
N
f-1992514645
f
GR
GS
[1 0 0 1 467.83807 358] CT
1 0 0 RC
N
f-1992514645
f
GR
GS
[1 0 0 1 467.83807 358] CT
1 0 0 RC
N
f-1992514645
f
GR
GS
[1 0 0 1 467.83807 358] CT
1 0 0 RC
N
f-1992514645
f
GR
GS
[1 0 0 1 467.83807 358] CT
1 0 0 RC
N
f-1992514645
f
GR
GS
[1 0 0 1 467.83807 345.88751] CT
1 0 0 RC
N
f-1992514645
f
GR
GS
[1 0 0 1 467.83807 358] CT
1 0 0 RC
N
f-1992514645
f
GR
GS
[1 0 0 1 467.83807 358] CT
1 0 0 RC
N
f-1992514645
f
GR
GS
[1 0 0 1 467.83807 358] CT
1 0 0 RC
N
f-1992514645
f
GR
GS
[1 0 0 1 467.83807 358] CT
1 0 0 RC
N
f-1992514645
f
GR
GS
[1 0 0 1 467.83807 358] CT
1 0 0 RC
N
f-1992514645
f
GR
GS
[1 0 0 1 467.83807 358] CT
1 0 0 RC
N
f-1992514645
f
GR
GS
[1 0 0 1 467.83807 358] CT
1 0 0 RC
N
f-1992514645
f
GR
GS
[1 0 0 1 467.83807 345.88751] CT
1 0 0 RC
N
f-1992514645
f
GR
GS
[1 0 0 1 467.83807 358] CT
1 0 0 RC
N
f-1992514645
f
GR
GS
[1 0 0 1 506.46353 358] CT
1 0 0 RC
N
f-1992514645
f
GR
GS
[1 0 0 1 506.46353 358] CT
1 0 0 RC
N
f-1992514645
f
GR
GS
[1 0 0 1 506.46353 358] CT
1 0 0 RC
N
f-1992514645
f
GR
GS
[1 0 0 1 506.46353 358] CT
1 0 0 RC
N
f-1992514645
f
GR
GS
[1 0 0 1 506.46353 358] CT
1 0 0 RC
N
f-1992514645
f
GR
GS
[1 0 0 1 506.46353 358] CT
1 0 0 RC
N
f-1992514645
f
GR
GS
[1 0 0 1 506.46353 358] CT
1 0 0 RC
N
f-1992514645
f
GR
GS
[1 0 0 1 506.46353 358] CT
1 0 0 RC
N
f-1992514645
f
GR
GS
[1 0 0 1 506.46353 358] CT
1 0 0 RC
N
f-1992514645
f
GR
GS
[1 0 0 1 506.46353 358] CT
1 0 0 RC
N
f-1992514645
f
GR
GS
[1 0 0 1 506.46353 358] CT
1 0 0 RC
N
f-1992514645
f
GR
GS
[1 0 0 1 506.46353 358] CT
1 0 0 RC
N
f-1992514645
f
GR
GS
[1 0 0 1 506.46353 358] CT
1 0 0 RC
N
f-1992514645
f
GR
GS
[1 0 0 1 506.46353 358] CT
1 0 0 RC
N
f-1992514645
f
GR
GS
[1 0 0 1 506.46353 349.92499] CT
1 0 0 RC
N
f-1992514645
f
GR
GS
[1 0 0 1 506.46353 358] CT
1 0 0 RC
N
f-1992514645
f
GR
GS
[1 0 0 1 506.46353 358] CT
1 0 0 RC
N
f-1992514645
f
GR
GS
[1 0 0 1 506.46353 358] CT
1 0 0 RC
N
f-1992514645
f
GR
GS
[1 0 0 1 506.46353 358] CT
1 0 0 RC
N
f-1992514645
f
GR
GS
[1 0 0 1 506.46353 358] CT
1 0 0 RC
N
f-1992514645
f
GR
GS
[1 0 0 1 506.46353 358] CT
1 0 0 RC
N
f-1992514645
f
GR
GS
[1 0 0 1 506.46353 358] CT
1 0 0 RC
N
f-1992514645
f
GR
GS
[1 0 0 1 506.46353 358] CT
1 0 0 RC
N
f-1992514645
f
GR
GS
[1 0 0 1 506.46353 358] CT
1 0 0 RC
N
f-1992514645
f
GR
GS
[1 0 0 1 506.46353 358] CT
1 0 0 RC
N
f-1992514645
f
GR
GS
[1 0 0 1 506.46353 358] CT
1 0 0 RC
N
f-1992514645
f
GR
GS
[1 0 0 1 506.46353 358] CT
1 0 0 RC
N
f-1992514645
f
GR
GS
[1 0 0 1 506.46353 353.96249] CT
1 0 0 RC
N
f-1992514645
f
GR
GS
[1 0 0 1 506.46353 358] CT
1 0 0 RC
N
f-1992514645
f
GR
GS
[1 0 0 1 506.46353 358] CT
1 0 0 RC
N
f-1992514645
f
GR
GS
[1 0 0 1 506.46353 358] CT
1 0 0 RC
N
f-1992514645
f
GR
GS
[1 0 0 1 506.46353 358] CT
1 0 0 RC
N
f-1992514645
f
GR
GS
[1 0 0 1 506.46353 358] CT
1 0 0 RC
N
f-1992514645
f
GR
GS
[1 0 0 1 506.46353 358] CT
1 0 0 RC
N
f-1992514645
f
GR
GS
[1 0 0 1 506.46353 358] CT
1 0 0 RC
N
f-1992514645
f
GR
GS
[1 0 0 1 506.46353 358] CT
1 0 0 RC
N
f-1992514645
f
GR
GS
[1 0 0 1 506.46353 333.77499] CT
1 0 0 RC
N
f-1992514645
f
GR
GS
[1 0 0 1 506.46353 358] CT
1 0 0 RC
N
f-1992514645
f
GR
GS
[1 0 0 1 506.46353 353.96249] CT
1 0 0 RC
N
f-1992514645
f
GR
GS
[1 0 0 1 506.46353 358] CT
1 0 0 RC
N
f-1992514645
f
GR
GS
[1 0 0 1 506.46353 358] CT
1 0 0 RC
N
f-1992514645
f
GR
GS
[1 0 0 1 506.46353 358] CT
1 0 0 RC
N
f-1992514645
f
GR
GS
[1 0 0 1 506.46353 358] CT
1 0 0 RC
N
f-1992514645
f
GR
GS
[1 0 0 1 506.46353 358] CT
1 0 0 RC
N
f-1992514645
f
GR
GS
[1 0 0 1 506.46353 358] CT
1 0 0 RC
N
f-1992514645
f
GR
GS
[1 0 0 1 506.46353 358] CT
1 0 0 RC
N
f-1992514645
f
GR
GS
[1 0 0 1 506.46353 358] CT
1 0 0 RC
N
f-1992514645
f
GR
GS
[1 0 0 1 506.46353 353.96249] CT
1 0 0 RC
N
f-1992514645
f
GR
GS
[1 0 0 1 506.46353 353.96249] CT
1 0 0 RC
N
f-1992514645
f
GR
GS
[1 0 0 1 506.46353 358] CT
1 0 0 RC
N
f-1992514645
f
GR
GS
[1 0 0 1 506.46353 358] CT
1 0 0 RC
N
f-1992514645
f
GR
GS
[1 0 0 1 506.46353 358] CT
1 0 0 RC
N
f-1992514645
f
GR
GS
[1 0 0 1 506.46353 358] CT
1 0 0 RC
N
f-1992514645
f
GR
GS
[1 0 0 1 506.46353 358] CT
1 0 0 RC
N
f-1992514645
f
GR
GS
0 0 1 RC
1 LJ
0.5 LW
N
73 196.5 M
507 196.5 L
S
GR
GS
[1 0 0 1 340.69592 184.3875] CT
0 0 1 RC
/Helvetica 18 F
GS
[1 0 0 1 0 0] CT
0 7 moveto 
1 -1 scale
(thr = 40.00) t 
GR
GR
%%Trailer
%%Pages: 1
%%EOF
