%!PS-Adobe-3.0 EPSF-3.0
%%Creator: (MATLAB, The Mathworks, Inc. Version 9.1.0.441655 \(R2016b\). Operating System: Mac OS X)
%%Title: ./longTerm_Selected_17_IC_genuine.eps
%%CreationDate: 2016-11-24T17:04:58
%%Pages: (atend)
%%BoundingBox:    38    13   508   402
%%LanguageLevel: 3
%%EndComments
%%BeginProlog
%%BeginResource: procset (Apache XML Graphics Std ProcSet) 1.2 0
%%Version: 1.2 0
%%Copyright: (Copyright 2001-2003,2010 The Apache Software Foundation. License terms: http://www.apache.org/licenses/LICENSE-2.0)
/bd{bind def}bind def
/ld{load def}bd
/GR/grestore ld
/M/moveto ld
/LJ/setlinejoin ld
/C/curveto ld
/f/fill ld
/LW/setlinewidth ld
/GC/setgray ld
/t/show ld
/N/newpath ld
/CT/concat ld
/cp/closepath ld
/S/stroke ld
/L/lineto ld
/CC/setcmykcolor ld
/A/ashow ld
/GS/gsave ld
/RC/setrgbcolor ld
/RM/rmoveto ld
/ML/setmiterlimit ld
/re {4 2 roll M
1 index 0 rlineto
0 exch rlineto
neg 0 rlineto
cp } bd
/_ctm matrix def
/_tm matrix def
/BT { _ctm currentmatrix pop matrix _tm copy pop 0 0 moveto } bd
/ET { _ctm setmatrix } bd
/iTm { _ctm setmatrix _tm concat } bd
/Tm { _tm astore pop iTm 0 0 moveto } bd
/ux 0.0 def
/uy 0.0 def
/F {
  /Tp exch def
  /Tf exch def
  Tf findfont Tp scalefont setfont
  /cf Tf def  /cs Tp def
} bd
/ULS {currentpoint /uy exch def /ux exch def} bd
/ULE {
  /Tcx currentpoint pop def
  gsave
  newpath
  cf findfont cs scalefont dup
  /FontMatrix get 0 get /Ts exch def /FontInfo get dup
  /UnderlinePosition get Ts mul /To exch def
  /UnderlineThickness get Ts mul /Tt exch def
  ux uy To add moveto  Tcx uy To add lineto
  Tt setlinewidth stroke
  grestore
} bd
/OLE {
  /Tcx currentpoint pop def
  gsave
  newpath
  cf findfont cs scalefont dup
  /FontMatrix get 0 get /Ts exch def /FontInfo get dup
  /UnderlinePosition get Ts mul /To exch def
  /UnderlineThickness get Ts mul /Tt exch def
  ux uy To add cs add moveto Tcx uy To add cs add lineto
  Tt setlinewidth stroke
  grestore
} bd
/SOE {
  /Tcx currentpoint pop def
  gsave
  newpath
  cf findfont cs scalefont dup
  /FontMatrix get 0 get /Ts exch def /FontInfo get dup
  /UnderlinePosition get Ts mul /To exch def
  /UnderlineThickness get Ts mul /Tt exch def
  ux uy To add cs 10 mul 26 idiv add moveto Tcx uy To add cs 10 mul 26 idiv add lineto
  Tt setlinewidth stroke
  grestore
} bd
/QT {
/Y22 exch store
/X22 exch store
/Y21 exch store
/X21 exch store
currentpoint
/Y21 load 2 mul add 3 div exch
/X21 load 2 mul add 3 div exch
/X21 load 2 mul /X22 load add 3 div
/Y21 load 2 mul /Y22 load add 3 div
/X22 load /Y22 load curveto
} bd
/SSPD {
dup length /d exch dict def
{
/v exch def
/k exch def
currentpagedevice k known {
/cpdv currentpagedevice k get def
v cpdv ne {
/upd false def
/nullv v type /nulltype eq def
/nullcpdv cpdv type /nulltype eq def
nullv nullcpdv or
{
/upd true def
} {
/sametype v type cpdv type eq def
sametype {
v type /arraytype eq {
/vlen v length def
/cpdvlen cpdv length def
vlen cpdvlen eq {
0 1 vlen 1 sub {
/i exch def
/obj v i get def
/cpdobj cpdv i get def
obj cpdobj ne {
/upd true def
exit
} if
} for
} {
/upd true def
} ifelse
} {
v type /dicttype eq {
v {
/dv exch def
/dk exch def
/cpddv cpdv dk get def
dv cpddv ne {
/upd true def
exit
} if
} forall
} {
/upd true def
} ifelse
} ifelse
} if
} ifelse
upd true eq {
d k v put
} if
} if
} if
} forall
d length 0 gt {
d setpagedevice
} if
} bd
/RE { % /NewFontName [NewEncodingArray] /FontName RE -
  findfont dup length dict begin
  {
    1 index /FID ne
    {def} {pop pop} ifelse
  } forall
  /Encoding exch def
  /FontName 1 index def
  currentdict definefont pop
  end
} bind def
%%EndResource
%%BeginResource: procset (Apache XML Graphics EPS ProcSet) 1.0 0
%%Version: 1.0 0
%%Copyright: (Copyright 2002-2003 The Apache Software Foundation. License terms: http://www.apache.org/licenses/LICENSE-2.0)
/BeginEPSF { %def
/b4_Inc_state save def         % Save state for cleanup
/dict_count countdictstack def % Count objects on dict stack
/op_count count 1 sub def      % Count objects on operand stack
userdict begin                 % Push userdict on dict stack
/showpage { } def              % Redefine showpage, { } = null proc
0 setgray 0 setlinecap         % Prepare graphics state
1 setlinewidth 0 setlinejoin
10 setmiterlimit [ ] 0 setdash newpath
/languagelevel where           % If level not equal to 1 then
{pop languagelevel             % set strokeadjust and
1 ne                           % overprint to their defaults.
{false setstrokeadjust false setoverprint
} if
} if
} bd
/EndEPSF { %def
count op_count sub {pop} repeat            % Clean up stacks
countdictstack dict_count sub {end} repeat
b4_Inc_state restore
} bd
%%EndResource
%FOPBeginFontDict
%%IncludeResource: font Courier-Bold
%%IncludeResource: font Helvetica
%%IncludeResource: font Courier-BoldOblique
%%IncludeResource: font Courier-Oblique
%%IncludeResource: font Times-Roman
%%IncludeResource: font Helvetica-BoldOblique
%%IncludeResource: font Helvetica-Bold
%%IncludeResource: font Helvetica-Oblique
%%IncludeResource: font Times-BoldItalic
%%IncludeResource: font Courier
%%IncludeResource: font Times-Italic
%%IncludeResource: font Times-Bold
%%IncludeResource: font Symbol
%%IncludeResource: font ZapfDingbats
%FOPEndFontDict
%%BeginResource: encoding WinAnsiEncoding
/WinAnsiEncoding [
/.notdef /.notdef /.notdef /.notdef /.notdef
/.notdef /.notdef /.notdef /.notdef /.notdef
/.notdef /.notdef /.notdef /.notdef /.notdef
/.notdef /.notdef /.notdef /.notdef /.notdef
/.notdef /.notdef /.notdef /.notdef /.notdef
/.notdef /.notdef /.notdef /.notdef /.notdef
/.notdef /.notdef /space /exclam /quotedbl
/numbersign /dollar /percent /ampersand /quotesingle
/parenleft /parenright /asterisk /plus /comma
/hyphen /period /slash /zero /one
/two /three /four /five /six
/seven /eight /nine /colon /semicolon
/less /equal /greater /question /at
/A /B /C /D /E
/F /G /H /I /J
/K /L /M /N /O
/P /Q /R /S /T
/U /V /W /X /Y
/Z /bracketleft /backslash /bracketright /asciicircum
/underscore /quoteleft /a /b /c
/d /e /f /g /h
/i /j /k /l /m
/n /o /p /q /r
/s /t /u /v /w
/x /y /z /braceleft /bar
/braceright /asciitilde /bullet /Euro /bullet
/quotesinglbase /florin /quotedblbase /ellipsis /dagger
/daggerdbl /circumflex /perthousand /Scaron /guilsinglleft
/OE /bullet /Zcaron /bullet /bullet
/quoteleft /quoteright /quotedblleft /quotedblright /bullet
/endash /emdash /asciitilde /trademark /scaron
/guilsinglright /oe /bullet /zcaron /Ydieresis
/space /exclamdown /cent /sterling /currency
/yen /brokenbar /section /dieresis /copyright
/ordfeminine /guillemotleft /logicalnot /sfthyphen /registered
/macron /degree /plusminus /twosuperior /threesuperior
/acute /mu /paragraph /middot /cedilla
/onesuperior /ordmasculine /guillemotright /onequarter /onehalf
/threequarters /questiondown /Agrave /Aacute /Acircumflex
/Atilde /Adieresis /Aring /AE /Ccedilla
/Egrave /Eacute /Ecircumflex /Edieresis /Igrave
/Iacute /Icircumflex /Idieresis /Eth /Ntilde
/Ograve /Oacute /Ocircumflex /Otilde /Odieresis
/multiply /Oslash /Ugrave /Uacute /Ucircumflex
/Udieresis /Yacute /Thorn /germandbls /agrave
/aacute /acircumflex /atilde /adieresis /aring
/ae /ccedilla /egrave /eacute /ecircumflex
/edieresis /igrave /iacute /icircumflex /idieresis
/eth /ntilde /ograve /oacute /ocircumflex
/otilde /odieresis /divide /oslash /ugrave
/uacute /ucircumflex /udieresis /yacute /thorn
/ydieresis
] def
%%EndResource
%FOPBeginFontReencode
/Courier-Bold findfont
dup length dict begin
  {1 index /FID ne {def} {pop pop} ifelse} forall
  /Encoding WinAnsiEncoding def
  currentdict
end
/Courier-Bold exch definefont pop
/Helvetica findfont
dup length dict begin
  {1 index /FID ne {def} {pop pop} ifelse} forall
  /Encoding WinAnsiEncoding def
  currentdict
end
/Helvetica exch definefont pop
/Courier-BoldOblique findfont
dup length dict begin
  {1 index /FID ne {def} {pop pop} ifelse} forall
  /Encoding WinAnsiEncoding def
  currentdict
end
/Courier-BoldOblique exch definefont pop
/Courier-Oblique findfont
dup length dict begin
  {1 index /FID ne {def} {pop pop} ifelse} forall
  /Encoding WinAnsiEncoding def
  currentdict
end
/Courier-Oblique exch definefont pop
/Times-Roman findfont
dup length dict begin
  {1 index /FID ne {def} {pop pop} ifelse} forall
  /Encoding WinAnsiEncoding def
  currentdict
end
/Times-Roman exch definefont pop
/Helvetica-BoldOblique findfont
dup length dict begin
  {1 index /FID ne {def} {pop pop} ifelse} forall
  /Encoding WinAnsiEncoding def
  currentdict
end
/Helvetica-BoldOblique exch definefont pop
/Helvetica-Bold findfont
dup length dict begin
  {1 index /FID ne {def} {pop pop} ifelse} forall
  /Encoding WinAnsiEncoding def
  currentdict
end
/Helvetica-Bold exch definefont pop
/Helvetica-Oblique findfont
dup length dict begin
  {1 index /FID ne {def} {pop pop} ifelse} forall
  /Encoding WinAnsiEncoding def
  currentdict
end
/Helvetica-Oblique exch definefont pop
/Times-BoldItalic findfont
dup length dict begin
  {1 index /FID ne {def} {pop pop} ifelse} forall
  /Encoding WinAnsiEncoding def
  currentdict
end
/Times-BoldItalic exch definefont pop
/Courier findfont
dup length dict begin
  {1 index /FID ne {def} {pop pop} ifelse} forall
  /Encoding WinAnsiEncoding def
  currentdict
end
/Courier exch definefont pop
/Times-Italic findfont
dup length dict begin
  {1 index /FID ne {def} {pop pop} ifelse} forall
  /Encoding WinAnsiEncoding def
  currentdict
end
/Times-Italic exch definefont pop
/Times-Bold findfont
dup length dict begin
  {1 index /FID ne {def} {pop pop} ifelse} forall
  /Encoding WinAnsiEncoding def
  currentdict
end
/Times-Bold exch definefont pop
%FOPEndFontReencode
%%EndProlog
%%Page: 1 1
%%PageBoundingBox: 0 0 560 420
%%BeginPageSetup
[1 0 0 -1 0 420] CT
%%EndPageSetup
GS
1 GC
N
0 0 560 420 re
f
GR
GS
1 GC
N
0 0 560 420 re
f
GR
GS
1 GC
N
73 374 M
507 374 L
507 31.5 L
73 31.5 L
cp
f
GR
GS
0.873 GC
1 LJ
0.5 LW
N
84.954 374 M
84.954 31.5 L
S
GR
GS
0.873 GC
1 LJ
0.5 LW
N
122.377 374 M
122.377 31.5 L
S
GR
GS
0.873 GC
1 LJ
0.5 LW
N
153.043 374 M
153.043 31.5 L
S
GR
GS
0.873 GC
1 LJ
0.5 LW
N
184.749 374 M
184.749 31.5 L
S
GR
GS
0.873 GC
1 LJ
0.5 LW
N
209.697 374 M
209.697 31.5 L
S
GR
GS
0.873 GC
1 LJ
0.5 LW
N
259.594 374 M
259.594 31.5 L
S
GR
GS
0.873 GC
1 LJ
0.5 LW
N
284.543 374 M
284.543 31.5 L
S
GR
GS
0.873 GC
1 LJ
0.5 LW
N
334.44 374 M
334.44 31.5 L
S
GR
GS
0.873 GC
1 LJ
0.5 LW
N
371.343 374 M
371.343 31.5 L
S
GR
GS
0.873 GC
1 LJ
0.5 LW
N
396.291 374 M
396.291 31.5 L
S
GR
GS
0.873 GC
1 LJ
0.5 LW
N
458.662 374 M
458.662 31.5 L
S
GR
GS
0.873 GC
1 LJ
0.5 LW
N
496.085 374 M
496.085 31.5 L
S
GR
GS
0.873 GC
1 LJ
0.5 LW
N
507 374 M
73 374 L
S
GR
GS
0.873 GC
1 LJ
0.5 LW
N
507 328.333 M
73 328.333 L
S
GR
GS
0.873 GC
1 LJ
0.5 LW
N
507 282.667 M
73 282.667 L
S
GR
GS
0.873 GC
1 LJ
0.5 LW
N
507 237 M
73 237 L
S
GR
GS
0.873 GC
1 LJ
0.5 LW
N
507 191.333 M
73 191.333 L
S
GR
GS
0.873 GC
1 LJ
0.5 LW
N
507 145.667 M
73 145.667 L
S
GR
GS
0.873 GC
1 LJ
0.5 LW
N
507 100 M
73 100 L
S
GR
GS
0.873 GC
1 LJ
0.5 LW
N
507 54.333 M
73 54.333 L
S
GR
GS
0.149 GC
2 setlinecap
1 LJ
0.5 LW
N
73 374 M
507 374 L
S
GR
GS
0.149 GC
2 setlinecap
1 LJ
0.5 LW
N
73 31.5 M
507 31.5 L
S
GR
GS
0.149 GC
2 setlinecap
1 LJ
0.5 LW
N
84.954 374 M
84.954 369.66 L
S
GR
GS
0.149 GC
2 setlinecap
1 LJ
0.5 LW
N
122.377 374 M
122.377 369.66 L
S
GR
GS
0.149 GC
2 setlinecap
1 LJ
0.5 LW
N
153.043 374 M
153.043 369.66 L
S
GR
GS
0.149 GC
2 setlinecap
1 LJ
0.5 LW
N
184.749 374 M
184.749 369.66 L
S
GR
GS
0.149 GC
2 setlinecap
1 LJ
0.5 LW
N
209.697 374 M
209.697 369.66 L
S
GR
GS
0.149 GC
2 setlinecap
1 LJ
0.5 LW
N
259.594 374 M
259.594 369.66 L
S
GR
GS
0.149 GC
2 setlinecap
1 LJ
0.5 LW
N
284.543 374 M
284.543 369.66 L
S
GR
GS
0.149 GC
2 setlinecap
1 LJ
0.5 LW
N
334.44 374 M
334.44 369.66 L
S
GR
GS
0.149 GC
2 setlinecap
1 LJ
0.5 LW
N
371.343 374 M
371.343 369.66 L
S
GR
GS
0.149 GC
2 setlinecap
1 LJ
0.5 LW
N
396.291 374 M
396.291 369.66 L
S
GR
GS
0.149 GC
2 setlinecap
1 LJ
0.5 LW
N
458.662 374 M
458.662 369.66 L
S
GR
GS
0.149 GC
2 setlinecap
1 LJ
0.5 LW
N
496.085 374 M
496.085 369.66 L
S
GR
GS
0.149 GC
2 setlinecap
1 LJ
0.5 LW
N
84.954 31.5 M
84.954 35.84 L
S
GR
GS
0.149 GC
2 setlinecap
1 LJ
0.5 LW
N
122.377 31.5 M
122.377 35.84 L
S
GR
GS
0.149 GC
2 setlinecap
1 LJ
0.5 LW
N
153.043 31.5 M
153.043 35.84 L
S
GR
GS
0.149 GC
2 setlinecap
1 LJ
0.5 LW
N
184.749 31.5 M
184.749 35.84 L
S
GR
GS
0.149 GC
2 setlinecap
1 LJ
0.5 LW
N
209.697 31.5 M
209.697 35.84 L
S
GR
GS
0.149 GC
2 setlinecap
1 LJ
0.5 LW
N
259.594 31.5 M
259.594 35.84 L
S
GR
GS
0.149 GC
2 setlinecap
1 LJ
0.5 LW
N
284.543 31.5 M
284.543 35.84 L
S
GR
GS
0.149 GC
2 setlinecap
1 LJ
0.5 LW
N
334.44 31.5 M
334.44 35.84 L
S
GR
GS
0.149 GC
2 setlinecap
1 LJ
0.5 LW
N
371.343 31.5 M
371.343 35.84 L
S
GR
GS
0.149 GC
2 setlinecap
1 LJ
0.5 LW
N
396.291 31.5 M
396.291 35.84 L
S
GR
GS
0.149 GC
2 setlinecap
1 LJ
0.5 LW
N
458.662 31.5 M
458.662 35.84 L
S
GR
GS
0.149 GC
2 setlinecap
1 LJ
0.5 LW
N
496.085 31.5 M
496.085 35.84 L
S
GR
GS
[1 0 0 1 84.95449 378.20001] CT
0.149 GC
/Helvetica 11 F
GS
[1 0 0 1 0 0] CT
-6.5 11 moveto 
1 -1 scale
(18) t 
GR
GR
GS
[1 0 0 1 122.37724 378.20001] CT
0.149 GC
/Helvetica 11 F
GS
[1 0 0 1 0 0] CT
-6.5 11 moveto 
1 -1 scale
(90) t 
GR
GR
GS
[1 0 0 1 153.04312 378.20001] CT
0.149 GC
/Helvetica 11 F
GS
[1 0 0 1 0 0] CT
-9.5 11 moveto 
1 -1 scale
(149) t 
GR
GR
GS
[1 0 0 1 184.7485 378.20001] CT
0.149 GC
/Helvetica 11 F
GS
[1 0 0 1 0 0] CT
-9.5 11 moveto 
1 -1 scale
(210) t 
GR
GR
GS
[1 0 0 1 209.69701 378.20001] CT
0.149 GC
/Helvetica 11 F
GS
[1 0 0 1 0 0] CT
-9.5 11 moveto 
1 -1 scale
(258) t 
GR
GR
GS
[1 0 0 1 259.59402 378.20001] CT
0.149 GC
/Helvetica 11 F
GS
[1 0 0 1 0 0] CT
-9.5 11 moveto 
1 -1 scale
(354) t 
GR
GR
GS
[1 0 0 1 284.54251 378.20001] CT
0.149 GC
/Helvetica 11 F
GS
[1 0 0 1 0 0] CT
-9.5 11 moveto 
1 -1 scale
(402) t 
GR
GR
GS
[1 0 0 1 334.43951 378.20001] CT
0.149 GC
/Helvetica 11 F
GS
[1 0 0 1 0 0] CT
-9.5 11 moveto 
1 -1 scale
(498) t 
GR
GR
GS
[1 0 0 1 371.34253 378.20001] CT
0.149 GC
/Helvetica 11 F
GS
[1 0 0 1 0 0] CT
-9.5 11 moveto 
1 -1 scale
(569) t 
GR
GR
GS
[1 0 0 1 396.29102 378.20001] CT
0.149 GC
/Helvetica 11 F
GS
[1 0 0 1 0 0] CT
-9.5 11 moveto 
1 -1 scale
(617) t 
GR
GR
GS
[1 0 0 1 458.66226 378.20001] CT
0.149 GC
/Helvetica 11 F
GS
[1 0 0 1 0 0] CT
-9.5 11 moveto 
1 -1 scale
(737) t 
GR
GR
GS
[1 0 0 1 496.08502 378.20001] CT
0.149 GC
/Helvetica 11 F
GS
[1 0 0 1 0 0] CT
-9.5 11 moveto 
1 -1 scale
(809) t 
GR
GR
GS
[1 0 0 1 290.00021 392.20001] CT
0.149 GC
/Helvetica 12.1 F
GS
[1 0 0 1 0 0] CT
-106 12 moveto 
1 -1 scale
(Difference between acquisitions \(hours\)) t 
GR
GR
GS
0.149 GC
2 setlinecap
1 LJ
0.5 LW
N
73 374 M
73 31.5 L
S
GR
GS
0.149 GC
2 setlinecap
1 LJ
0.5 LW
N
507 374 M
507 31.5 L
S
GR
GS
0.149 GC
2 setlinecap
1 LJ
0.5 LW
N
73 374 M
77.34 374 L
S
GR
GS
0.149 GC
2 setlinecap
1 LJ
0.5 LW
N
73 328.333 M
77.34 328.333 L
S
GR
GS
0.149 GC
2 setlinecap
1 LJ
0.5 LW
N
73 282.667 M
77.34 282.667 L
S
GR
GS
0.149 GC
2 setlinecap
1 LJ
0.5 LW
N
73 237 M
77.34 237 L
S
GR
GS
0.149 GC
2 setlinecap
1 LJ
0.5 LW
N
73 191.333 M
77.34 191.333 L
S
GR
GS
0.149 GC
2 setlinecap
1 LJ
0.5 LW
N
73 145.667 M
77.34 145.667 L
S
GR
GS
0.149 GC
2 setlinecap
1 LJ
0.5 LW
N
73 100 M
77.34 100 L
S
GR
GS
0.149 GC
2 setlinecap
1 LJ
0.5 LW
N
73 54.333 M
77.34 54.333 L
S
GR
GS
0.149 GC
2 setlinecap
1 LJ
0.5 LW
N
507 374 M
502.66 374 L
S
GR
GS
0.149 GC
2 setlinecap
1 LJ
0.5 LW
N
507 328.333 M
502.66 328.333 L
S
GR
GS
0.149 GC
2 setlinecap
1 LJ
0.5 LW
N
507 282.667 M
502.66 282.667 L
S
GR
GS
0.149 GC
2 setlinecap
1 LJ
0.5 LW
N
507 237 M
502.66 237 L
S
GR
GS
0.149 GC
2 setlinecap
1 LJ
0.5 LW
N
507 191.333 M
502.66 191.333 L
S
GR
GS
0.149 GC
2 setlinecap
1 LJ
0.5 LW
N
507 145.667 M
502.66 145.667 L
S
GR
GS
0.149 GC
2 setlinecap
1 LJ
0.5 LW
N
507 100 M
502.66 100 L
S
GR
GS
0.149 GC
2 setlinecap
1 LJ
0.5 LW
N
507 54.333 M
502.66 54.333 L
S
GR
GS
[1 0 0 1 68.8 374] CT
0.149 GC
/Helvetica 11 F
GS
[1 0 0 1 0 0] CT
-16 4 moveto 
1 -1 scale
(0.6) t 
GR
GR
GS
[1 0 0 1 68.8 328.33334] CT
0.149 GC
/Helvetica 11 F
GS
[1 0 0 1 0 0] CT
-16 4 moveto 
1 -1 scale
(0.8) t 
GR
GR
GS
[1 0 0 1 68.8 282.66666] CT
0.149 GC
/Helvetica 11 F
GS
[1 0 0 1 0 0] CT
-7 4 moveto 
1 -1 scale
(1) t 
GR
GR
GS
[1 0 0 1 68.8 236.99998] CT
0.149 GC
/Helvetica 11 F
GS
[1 0 0 1 0 0] CT
-16 4 moveto 
1 -1 scale
(1.2) t 
GR
GR
GS
[1 0 0 1 68.8 191.33334] CT
0.149 GC
/Helvetica 11 F
GS
[1 0 0 1 0 0] CT
-16 4 moveto 
1 -1 scale
(1.4) t 
GR
GR
GS
[1 0 0 1 68.8 145.66666] CT
0.149 GC
/Helvetica 11 F
GS
[1 0 0 1 0 0] CT
-16 4 moveto 
1 -1 scale
(1.6) t 
GR
GR
GS
[1 0 0 1 68.8 100.00001] CT
0.149 GC
/Helvetica 11 F
GS
[1 0 0 1 0 0] CT
-16 4 moveto 
1 -1 scale
(1.8) t 
GR
GR
GS
[1 0 0 1 68.8 54.33333] CT
0.149 GC
/Helvetica 11 F
GS
[1 0 0 1 0 0] CT
-7 4 moveto 
1 -1 scale
(2) t 
GR
GR
GS
[0 -1 1 0 50.3 202.74986] CT
0.149 GC
/Helvetica 12.1 F
GS
[1 0 0 1 0 0] CT
-49.5 -3 moveto 
1 -1 scale
(Comparison score) t 
GR
GR
GS
[1 0 0 1 290.00027 29.98755] CT
/Helvetica-Bold 12.1 F
GS
[1 0 0 1 0 0] CT
-67 -3 moveto 
1 -1 scale
(IriCore | subject ID = 16) t 
GR
GR
GS
[10 6] 0 setdash
2 LJ
0.5 LW
N
84.954 301.539 M
84.954 275.881 L
S
GR
GS
[10 6] 0 setdash
2 LJ
0.5 LW
N
122.377 298.549 M
122.377 276.549 L
S
GR
GS
[10 6] 0 setdash
2 LJ
0.5 LW
N
153.043 284.359 M
153.043 270.665 L
S
GR
GS
[10 6] 0 setdash
2 LJ
0.5 LW
N
184.749 263.826 M
184.749 238.991 L
S
GR
GS
[10 6] 0 setdash
2 LJ
0.5 LW
N
209.697 281.575 M
209.697 269.785 L
S
GR
GS
[10 6] 0 setdash
2 LJ
0.5 LW
N
259.594 267.748 M
259.594 240.23 L
S
GR
GS
[10 6] 0 setdash
2 LJ
0.5 LW
N
284.543 206.012 M
284.543 198.033 L
S
GR
GS
[10 6] 0 setdash
2 LJ
0.5 LW
N
334.44 203.862 M
334.44 194.177 L
S
GR
GS
[10 6] 0 setdash
2 LJ
0.5 LW
N
371.343 206.87 M
371.343 205.39 L
S
GR
GS
[10 6] 0 setdash
2 LJ
0.5 LW
N
396.291 202.836 M
396.291 200.697 L
S
GR
GS
[10 6] 0 setdash
2 LJ
0.5 LW
N
458.662 230.311 M
458.662 227.824 L
S
GR
GS
[10 6] 0 setdash
2 LJ
0.5 LW
N
496.085 201.753 M
496.085 197.341 L
S
GR
GS
[10 6] 0 setdash
2 LJ
0.5 LW
N
84.954 356.505 M
84.954 336.481 L
S
GR
GS
[10 6] 0 setdash
2 LJ
0.5 LW
N
122.377 334.173 M
122.377 317.238 L
S
GR
GS
[10 6] 0 setdash
2 LJ
0.5 LW
N
153.043 316.421 M
153.043 298.868 L
S
GR
GS
[10 6] 0 setdash
2 LJ
0.5 LW
N
184.749 306.487 M
184.749 284.146 L
S
GR
GS
[10 6] 0 setdash
2 LJ
0.5 LW
N
209.697 312.798 M
209.697 294.913 L
S
GR
GS
[10 6] 0 setdash
2 LJ
0.5 LW
N
259.594 293.076 M
259.594 287.914 L
S
GR
GS
[10 6] 0 setdash
2 LJ
0.5 LW
N
284.543 270.906 M
284.543 263.691 L
S
GR
GS
[10 6] 0 setdash
2 LJ
0.5 LW
N
334.44 241.506 M
334.44 232.194 L
S
GR
GS
[10 6] 0 setdash
2 LJ
0.5 LW
N
371.343 243.421 M
371.343 238.686 L
S
GR
GS
[10 6] 0 setdash
2 LJ
0.5 LW
N
396.291 240.113 M
396.291 231.362 L
S
GR
GS
[10 6] 0 setdash
2 LJ
0.5 LW
N
458.662 245.971 M
458.662 239.78 L
S
GR
GS
[10 6] 0 setdash
2 LJ
0.5 LW
N
496.085 248.67 M
496.085 227.99 L
S
GR
GS
1 LJ
0.5 LW
N
81.836 275.881 M
88.073 275.881 L
S
GR
GS
1 LJ
0.5 LW
N
119.259 276.549 M
125.496 276.549 L
S
GR
GS
1 LJ
0.5 LW
N
149.925 270.665 M
156.162 270.665 L
S
GR
GS
1 LJ
0.5 LW
N
181.63 238.991 M
187.867 238.991 L
S
GR
GS
1 LJ
0.5 LW
N
206.578 269.785 M
212.816 269.785 L
S
GR
GS
1 LJ
0.5 LW
N
256.475 240.23 M
262.713 240.23 L
S
GR
GS
1 LJ
0.5 LW
N
281.424 198.033 M
287.661 198.033 L
S
GR
GS
1 LJ
0.5 LW
N
331.321 194.177 M
337.558 194.177 L
S
GR
GS
1 LJ
0.5 LW
N
368.224 205.39 M
374.461 205.39 L
S
GR
GS
1 LJ
0.5 LW
N
393.172 200.697 M
399.41 200.697 L
S
GR
GS
1 LJ
0.5 LW
N
455.544 227.824 M
461.781 227.824 L
S
GR
GS
1 LJ
0.5 LW
N
492.966 197.341 M
499.204 197.341 L
S
GR
GS
1 LJ
0.5 LW
N
81.836 356.505 M
88.073 356.505 L
S
GR
GS
1 LJ
0.5 LW
N
119.259 334.173 M
125.496 334.173 L
S
GR
GS
1 LJ
0.5 LW
N
149.925 316.421 M
156.162 316.421 L
S
GR
GS
1 LJ
0.5 LW
N
181.63 306.487 M
187.867 306.487 L
S
GR
GS
1 LJ
0.5 LW
N
206.578 312.798 M
212.816 312.798 L
S
GR
GS
1 LJ
0.5 LW
N
256.475 293.076 M
262.713 293.076 L
S
GR
GS
1 LJ
0.5 LW
N
281.424 270.906 M
287.661 270.906 L
S
GR
GS
1 LJ
0.5 LW
N
331.321 241.506 M
337.558 241.506 L
S
GR
GS
1 LJ
0.5 LW
N
368.224 243.421 M
374.461 243.421 L
S
GR
GS
1 LJ
0.5 LW
N
393.172 240.113 M
399.41 240.113 L
S
GR
GS
1 LJ
0.5 LW
N
455.544 245.971 M
461.781 245.971 L
S
GR
GS
1 LJ
0.5 LW
N
492.966 248.67 M
499.204 248.67 L
S
GR
GS
0 0 1 RC
1 LJ
0.5 LW
N
78.717 336.481 M
78.717 301.539 L
91.192 301.539 L
91.192 336.481 L
78.717 336.481 L
S
GR
GS
0 0 1 RC
1 LJ
0.5 LW
N
116.14 317.238 M
116.14 298.549 L
128.614 298.549 L
128.614 317.238 L
116.14 317.238 L
S
GR
GS
0 0 1 RC
1 LJ
0.5 LW
N
146.806 298.868 M
146.806 284.359 L
159.28 284.359 L
159.28 298.868 L
146.806 298.868 L
S
GR
GS
0 0 1 RC
1 LJ
0.5 LW
N
178.511 284.146 M
178.511 263.826 L
190.986 263.826 L
190.986 284.146 L
178.511 284.146 L
S
GR
GS
0 0 1 RC
1 LJ
0.5 LW
N
203.46 294.913 M
203.46 281.575 L
215.934 281.575 L
215.934 294.913 L
203.46 294.913 L
S
GR
GS
0 0 1 RC
1 LJ
0.5 LW
N
253.357 287.914 M
253.357 267.748 L
265.831 267.748 L
265.831 287.914 L
253.357 287.914 L
S
GR
GS
0 0 1 RC
1 LJ
0.5 LW
N
278.305 263.691 M
278.305 206.012 L
290.78 206.012 L
290.78 263.691 L
278.305 263.691 L
S
GR
GS
0 0 1 RC
1 LJ
0.5 LW
N
328.202 232.194 M
328.202 203.862 L
340.677 203.862 L
340.677 232.194 L
328.202 232.194 L
S
GR
GS
0 0 1 RC
1 LJ
0.5 LW
N
365.105 238.686 M
365.105 206.87 L
377.58 206.87 L
377.58 238.686 L
365.105 238.686 L
S
GR
GS
0 0 1 RC
1 LJ
0.5 LW
N
390.054 231.362 M
390.054 202.836 L
402.528 202.836 L
402.528 231.362 L
390.054 231.362 L
S
GR
GS
0 0 1 RC
1 LJ
0.5 LW
N
452.425 239.78 M
452.425 230.311 L
464.899 230.311 L
464.899 239.78 L
452.425 239.78 L
S
GR
GS
0 0 1 RC
1 LJ
0.5 LW
N
489.848 227.99 M
489.848 201.753 L
502.322 201.753 L
502.322 227.99 L
489.848 227.99 L
S
GR
GS
1 0 0 RC
1 LJ
0.5 LW
N
78.717 316.154 M
91.192 316.154 L
S
GR
GS
1 0 0 RC
1 LJ
0.5 LW
N
116.14 306.937 M
128.614 306.937 L
S
GR
GS
1 0 0 RC
1 LJ
0.5 LW
N
146.806 289.957 M
159.28 289.957 L
S
GR
GS
1 0 0 RC
1 LJ
0.5 LW
N
178.511 269.855 M
190.986 269.855 L
S
GR
GS
1 0 0 RC
1 LJ
0.5 LW
N
203.46 289.279 M
215.934 289.279 L
S
GR
GS
1 0 0 RC
1 LJ
0.5 LW
N
253.357 277.685 M
265.831 277.685 L
S
GR
GS
1 0 0 RC
1 LJ
0.5 LW
N
278.305 226.28 M
290.78 226.28 L
S
GR
GS
1 0 0 RC
1 LJ
0.5 LW
N
328.202 224.899 M
340.677 224.899 L
S
GR
GS
1 0 0 RC
1 LJ
0.5 LW
N
365.105 225.373 M
377.58 225.373 L
S
GR
GS
1 0 0 RC
1 LJ
0.5 LW
N
390.054 219.888 M
402.528 219.888 L
S
GR
GS
1 0 0 RC
1 LJ
0.5 LW
N
452.425 236.348 M
464.899 236.348 L
S
GR
GS
1 0 0 RC
1 LJ
0.5 LW
N
489.848 206.154 M
502.322 206.154 L
S
GR
GS
[1 0 0 1 259.59402 231.46747] CT
1 0 0 RC
10.0 ML
0.5 LW
N
0 -3 M
0 3 L
-3 0 M
3 0 L
S
GR
GS
[1 0 0 1 259.59402 200.96764] CT
1 0 0 RC
10.0 ML
0.5 LW
N
0 -3 M
0 3 L
-3 0 M
3 0 L
S
GR
GS
[1 0 0 1 458.66226 207.36119] CT
1 0 0 RC
10.0 ML
0.5 LW
N
0 -3 M
0 3 L
-3 0 M
3 0 L
S
GR
GS
[1 0 0 1 458.66226 204.67714] CT
1 0 0 RC
10.0 ML
0.5 LW
N
0 -3 M
0 3 L
-3 0 M
3 0 L
S
GR
GS
[1 0 0 1 458.66226 203.38203] CT
1 0 0 RC
10.0 ML
0.5 LW
N
0 -3 M
0 3 L
-3 0 M
3 0 L
S
GR
GS
[1 0 0 1 259.59402 54.33333] CT
1 0 0 RC
10.0 ML
0.5 LW
N
0 -5 M
0 5 L
-5 0 M
5 0 L
S
GR
GS
[1 0 0 1 284.54251 54.33333] CT
1 0 0 RC
10.0 ML
0.5 LW
N
0 -3 M
0 3 L
-3 0 M
3 0 L
S
GR
GS
[1 0 0 1 334.43951 54.33333] CT
1 0 0 RC
10.0 ML
0.5 LW
N
0 -4 M
0 4 L
-4 0 M
4 0 L
S
GR
GS
[1 0 0 1 371.34253 54.33333] CT
1 0 0 RC
10.0 ML
0.5 LW
N
0 -6 M
0 6 L
-6 0 M
6 0 L
S
GR
GS
[1 0 0 1 396.29102 54.33333] CT
1 0 0 RC
10.0 ML
0.5 LW
N
0 -8 M
0 8 L
-8 0 M
8 0 L
S
GR
GS
[1 0 0 1 458.66226 54.33333] CT
1 0 0 RC
10.0 ML
0.5 LW
N
0 -3 M
0 3 L
-3 0 M
3 0 L
S
GR
GS
[1 0 0 1 496.08502 54.33333] CT
1 0 0 RC
10.0 ML
0.5 LW
N
0 -7 M
0 7 L
-7 0 M
7 0 L
S
GR
GS
0 0 1 RC
1 LJ
0.5 LW
N
75.599 259.833 M
501.802 259.833 L
S
GR
GS
[1 0 0 1 335.47903 268.96667] CT
0 0 1 RC
/Helvetica 12 F
GS
[1 0 0 1 0 0] CT
0 4.5 moveto 
1 -1 scale
(thr = 1.10) t 
GR
GR
%%Trailer
%%Pages: 1
%%EOF
