%!PS-Adobe-3.0 EPSF-3.0
%%Creator: (MATLAB, The Mathworks, Inc. Version 9.0.0.307022 \(R2016a\) Prerelease. Operating System: Mac OS X)
%%Title: /Users/trokielewicz/Dropbox/Aplikacje/Texpad/ColdIris-ICB2016/graphics/ML.eps
%%CreationDate: 2016-01-17T16:18:26
%%Pages: (atend)
%%BoundingBox: 0 0 974 902
%%LanguageLevel: 3
%%EndComments
%%BeginProlog
%%BeginResource: procset (Apache XML Graphics Std ProcSet) 1.2 0
%%Version: 1.2 0
%%Copyright: (Copyright 2001-2003,2010 The Apache Software Foundation. License terms: http://www.apache.org/licenses/LICENSE-2.0)
/bd{bind def}bind def
/ld{load def}bd
/GR/grestore ld
/M/moveto ld
/LJ/setlinejoin ld
/C/curveto ld
/f/fill ld
/LW/setlinewidth ld
/GC/setgray ld
/t/show ld
/N/newpath ld
/CT/concat ld
/cp/closepath ld
/S/stroke ld
/L/lineto ld
/CC/setcmykcolor ld
/A/ashow ld
/GS/gsave ld
/RC/setrgbcolor ld
/RM/rmoveto ld
/ML/setmiterlimit ld
/re {4 2 roll M
1 index 0 rlineto
0 exch rlineto
neg 0 rlineto
cp } bd
/_ctm matrix def
/_tm matrix def
/BT { _ctm currentmatrix pop matrix _tm copy pop 0 0 moveto } bd
/ET { _ctm setmatrix } bd
/iTm { _ctm setmatrix _tm concat } bd
/Tm { _tm astore pop iTm 0 0 moveto } bd
/ux 0.0 def
/uy 0.0 def
/F {
  /Tp exch def
  /Tf exch def
  Tf findfont Tp scalefont setfont
  /cf Tf def  /cs Tp def
} bd
/ULS {currentpoint /uy exch def /ux exch def} bd
/ULE {
  /Tcx currentpoint pop def
  gsave
  newpath
  cf findfont cs scalefont dup
  /FontMatrix get 0 get /Ts exch def /FontInfo get dup
  /UnderlinePosition get Ts mul /To exch def
  /UnderlineThickness get Ts mul /Tt exch def
  ux uy To add moveto  Tcx uy To add lineto
  Tt setlinewidth stroke
  grestore
} bd
/OLE {
  /Tcx currentpoint pop def
  gsave
  newpath
  cf findfont cs scalefont dup
  /FontMatrix get 0 get /Ts exch def /FontInfo get dup
  /UnderlinePosition get Ts mul /To exch def
  /UnderlineThickness get Ts mul /Tt exch def
  ux uy To add cs add moveto Tcx uy To add cs add lineto
  Tt setlinewidth stroke
  grestore
} bd
/SOE {
  /Tcx currentpoint pop def
  gsave
  newpath
  cf findfont cs scalefont dup
  /FontMatrix get 0 get /Ts exch def /FontInfo get dup
  /UnderlinePosition get Ts mul /To exch def
  /UnderlineThickness get Ts mul /Tt exch def
  ux uy To add cs 10 mul 26 idiv add moveto Tcx uy To add cs 10 mul 26 idiv add lineto
  Tt setlinewidth stroke
  grestore
} bd
/QT {
/Y22 exch store
/X22 exch store
/Y21 exch store
/X21 exch store
currentpoint
/Y21 load 2 mul add 3 div exch
/X21 load 2 mul add 3 div exch
/X21 load 2 mul /X22 load add 3 div
/Y21 load 2 mul /Y22 load add 3 div
/X22 load /Y22 load curveto
} bd
/SSPD {
dup length /d exch dict def
{
/v exch def
/k exch def
currentpagedevice k known {
/cpdv currentpagedevice k get def
v cpdv ne {
/upd false def
/nullv v type /nulltype eq def
/nullcpdv cpdv type /nulltype eq def
nullv nullcpdv or
{
/upd true def
} {
/sametype v type cpdv type eq def
sametype {
v type /arraytype eq {
/vlen v length def
/cpdvlen cpdv length def
vlen cpdvlen eq {
0 1 vlen 1 sub {
/i exch def
/obj v i get def
/cpdobj cpdv i get def
obj cpdobj ne {
/upd true def
exit
} if
} for
} {
/upd true def
} ifelse
} {
v type /dicttype eq {
v {
/dv exch def
/dk exch def
/cpddv cpdv dk get def
dv cpddv ne {
/upd true def
exit
} if
} forall
} {
/upd true def
} ifelse
} ifelse
} if
} ifelse
upd true eq {
d k v put
} if
} if
} if
} forall
d length 0 gt {
d setpagedevice
} if
} bd
%%EndResource
%%BeginResource: procset (Apache XML Graphics EPS ProcSet) 1.0 0
%%Version: 1.0 0
%%Copyright: (Copyright 2002-2003 The Apache Software Foundation. License terms: http://www.apache.org/licenses/LICENSE-2.0)
/BeginEPSF { %def
/b4_Inc_state save def         % Save state for cleanup
/dict_count countdictstack def % Count objects on dict stack
/op_count count 1 sub def      % Count objects on operand stack
userdict begin                 % Push userdict on dict stack
/showpage { } def              % Redefine showpage, { } = null proc
0 setgray 0 setlinecap         % Prepare graphics state
1 setlinewidth 0 setlinejoin
10 setmiterlimit [ ] 0 setdash newpath
/languagelevel where           % If level not equal to 1 then
{pop languagelevel             % set strokeadjust and
1 ne                           % overprint to their defaults.
{false setstrokeadjust false setoverprint
} if
} if
} bd
/EndEPSF { %def
count op_count sub {pop} repeat            % Clean up stacks
countdictstack dict_count sub {end} repeat
b4_Inc_state restore
} bd
%%EndResource
%FOPBeginFontDict
%%IncludeResource: font Courier-Bold
%%IncludeResource: font Helvetica
%%IncludeResource: font Courier-BoldOblique
%%IncludeResource: font Courier-Oblique
%%IncludeResource: font Times-Roman
%%IncludeResource: font Helvetica-BoldOblique
%%IncludeResource: font Helvetica-Bold
%%IncludeResource: font Helvetica-Oblique
%%IncludeResource: font Times-BoldItalic
%%IncludeResource: font Courier
%%IncludeResource: font Times-Italic
%%IncludeResource: font Times-Bold
%%IncludeResource: font Symbol
%%IncludeResource: font ZapfDingbats
%FOPEndFontDict
%%BeginResource: encoding WinAnsiEncoding
/WinAnsiEncoding [
/.notdef /.notdef /.notdef /.notdef /.notdef
/.notdef /.notdef /.notdef /.notdef /.notdef
/.notdef /.notdef /.notdef /.notdef /.notdef
/.notdef /.notdef /.notdef /.notdef /.notdef
/.notdef /.notdef /.notdef /.notdef /.notdef
/.notdef /.notdef /.notdef /.notdef /.notdef
/.notdef /.notdef /space /exclam /quotedbl
/numbersign /dollar /percent /ampersand /quotesingle
/parenleft /parenright /asterisk /plus /comma
/hyphen /period /slash /zero /one
/two /three /four /five /six
/seven /eight /nine /colon /semicolon
/less /equal /greater /question /at
/A /B /C /D /E
/F /G /H /I /J
/K /L /M /N /O
/P /Q /R /S /T
/U /V /W /X /Y
/Z /bracketleft /backslash /bracketright /asciicircum
/underscore /quoteleft /a /b /c
/d /e /f /g /h
/i /j /k /l /m
/n /o /p /q /r
/s /t /u /v /w
/x /y /z /braceleft /bar
/braceright /asciitilde /bullet /Euro /bullet
/quotesinglbase /florin /quotedblbase /ellipsis /dagger
/daggerdbl /circumflex /perthousand /Scaron /guilsinglleft
/OE /bullet /Zcaron /bullet /bullet
/quoteleft /quoteright /quotedblleft /quotedblright /bullet
/endash /emdash /asciitilde /trademark /scaron
/guilsinglright /oe /bullet /zcaron /Ydieresis
/space /exclamdown /cent /sterling /currency
/yen /brokenbar /section /dieresis /copyright
/ordfeminine /guillemotleft /logicalnot /sfthyphen /registered
/macron /degree /plusminus /twosuperior /threesuperior
/acute /mu /paragraph /middot /cedilla
/onesuperior /ordmasculine /guillemotright /onequarter /onehalf
/threequarters /questiondown /Agrave /Aacute /Acircumflex
/Atilde /Adieresis /Aring /AE /Ccedilla
/Egrave /Eacute /Ecircumflex /Edieresis /Igrave
/Iacute /Icircumflex /Idieresis /Eth /Ntilde
/Ograve /Oacute /Ocircumflex /Otilde /Odieresis
/multiply /Oslash /Ugrave /Uacute /Ucircumflex
/Udieresis /Yacute /Thorn /germandbls /agrave
/aacute /acircumflex /atilde /adieresis /aring
/ae /ccedilla /egrave /eacute /ecircumflex
/edieresis /igrave /iacute /icircumflex /idieresis
/eth /ntilde /ograve /oacute /ocircumflex
/otilde /odieresis /divide /oslash /ugrave
/uacute /ucircumflex /udieresis /yacute /thorn
/ydieresis
] def
%%EndResource
%FOPBeginFontReencode
/Courier-Bold findfont
dup length dict begin
  {1 index /FID ne {def} {pop pop} ifelse} forall
  /Encoding WinAnsiEncoding def
  currentdict
end
/Courier-Bold exch definefont pop
/Helvetica findfont
dup length dict begin
  {1 index /FID ne {def} {pop pop} ifelse} forall
  /Encoding WinAnsiEncoding def
  currentdict
end
/Helvetica exch definefont pop
/Courier-BoldOblique findfont
dup length dict begin
  {1 index /FID ne {def} {pop pop} ifelse} forall
  /Encoding WinAnsiEncoding def
  currentdict
end
/Courier-BoldOblique exch definefont pop
/Courier-Oblique findfont
dup length dict begin
  {1 index /FID ne {def} {pop pop} ifelse} forall
  /Encoding WinAnsiEncoding def
  currentdict
end
/Courier-Oblique exch definefont pop
/Times-Roman findfont
dup length dict begin
  {1 index /FID ne {def} {pop pop} ifelse} forall
  /Encoding WinAnsiEncoding def
  currentdict
end
/Times-Roman exch definefont pop
/Helvetica-BoldOblique findfont
dup length dict begin
  {1 index /FID ne {def} {pop pop} ifelse} forall
  /Encoding WinAnsiEncoding def
  currentdict
end
/Helvetica-BoldOblique exch definefont pop
/Helvetica-Bold findfont
dup length dict begin
  {1 index /FID ne {def} {pop pop} ifelse} forall
  /Encoding WinAnsiEncoding def
  currentdict
end
/Helvetica-Bold exch definefont pop
/Helvetica-Oblique findfont
dup length dict begin
  {1 index /FID ne {def} {pop pop} ifelse} forall
  /Encoding WinAnsiEncoding def
  currentdict
end
/Helvetica-Oblique exch definefont pop
/Times-BoldItalic findfont
dup length dict begin
  {1 index /FID ne {def} {pop pop} ifelse} forall
  /Encoding WinAnsiEncoding def
  currentdict
end
/Times-BoldItalic exch definefont pop
/Courier findfont
dup length dict begin
  {1 index /FID ne {def} {pop pop} ifelse} forall
  /Encoding WinAnsiEncoding def
  currentdict
end
/Courier exch definefont pop
/Times-Italic findfont
dup length dict begin
  {1 index /FID ne {def} {pop pop} ifelse} forall
  /Encoding WinAnsiEncoding def
  currentdict
end
/Times-Italic exch definefont pop
/Times-Bold findfont
dup length dict begin
  {1 index /FID ne {def} {pop pop} ifelse} forall
  /Encoding WinAnsiEncoding def
  currentdict
end
/Times-Bold exch definefont pop
%FOPEndFontReencode
%%EndProlog
%%Page: 1 1
%%PageBoundingBox: 0 0 974 902
%%BeginPageSetup
[1 0 0 -1 0 902] CT
%%EndPageSetup
GS
[1.00309 0 0 1.00222 0 0] CT
1 GC
N
0 0 971 900 re
f
GR
GS
[1.00309 0 0 1.00222 0 0] CT
1 GC
N
0 0 971 900 re
f
GR
GS
[1.00309 0 0 1.00222 0 0] CT
1 GC
N
126 801 M
880 801 L
880 67 L
126 67 L
cp
f
GR
GS
[1.00309 0 0 1.00222 0 0] CT
0.873 GC
1 LJ
0.5 LW
N
126 801 M
126 67 L
S
GR
GS
[1.00309 0 0 1.00222 0 0] CT
0.873 GC
1 LJ
0.5 LW
N
251.667 801 M
251.667 67 L
S
GR
GS
[1.00309 0 0 1.00222 0 0] CT
0.873 GC
1 LJ
0.5 LW
N
377.333 801 M
377.333 67 L
S
GR
GS
[1.00309 0 0 1.00222 0 0] CT
0.873 GC
1 LJ
0.5 LW
N
503 801 M
503 67 L
S
GR
GS
[1.00309 0 0 1.00222 0 0] CT
0.873 GC
1 LJ
0.5 LW
N
628.667 801 M
628.667 67 L
S
GR
GS
[1.00309 0 0 1.00222 0 0] CT
0.873 GC
1 LJ
0.5 LW
N
754.333 801 M
754.333 67 L
S
GR
GS
[1.00309 0 0 1.00222 0 0] CT
0.873 GC
1 LJ
0.5 LW
N
880 801 M
880 67 L
S
GR
GS
[1.00309 0 0 1.00222 0 0] CT
0.873 GC
1 LJ
0.5 LW
N
880 801 M
126 801 L
S
GR
GS
[1.00309 0 0 1.00222 0 0] CT
0.873 GC
1 LJ
0.5 LW
N
880 727.6 M
126 727.6 L
S
GR
GS
[1.00309 0 0 1.00222 0 0] CT
0.873 GC
1 LJ
0.5 LW
N
880 654.2 M
126 654.2 L
S
GR
GS
[1.00309 0 0 1.00222 0 0] CT
0.873 GC
1 LJ
0.5 LW
N
880 580.8 M
126 580.8 L
S
GR
GS
[1.00309 0 0 1.00222 0 0] CT
0.873 GC
1 LJ
0.5 LW
N
880 507.4 M
126 507.4 L
S
GR
GS
[1.00309 0 0 1.00222 0 0] CT
0.873 GC
1 LJ
0.5 LW
N
880 434 M
126 434 L
S
GR
GS
[1.00309 0 0 1.00222 0 0] CT
0.873 GC
1 LJ
0.5 LW
N
880 360.6 M
126 360.6 L
S
GR
GS
[1.00309 0 0 1.00222 0 0] CT
0.873 GC
1 LJ
0.5 LW
N
880 287.2 M
126 287.2 L
S
GR
GS
[1.00309 0 0 1.00222 0 0] CT
0.873 GC
1 LJ
0.5 LW
N
880 213.8 M
126 213.8 L
S
GR
GS
[1.00309 0 0 1.00222 0 0] CT
0.873 GC
1 LJ
0.5 LW
N
880 140.4 M
126 140.4 L
S
GR
GS
[1.00309 0 0 1.00222 0 0] CT
0.873 GC
1 LJ
0.5 LW
N
880 67 M
126 67 L
S
GR
GS
[1.00309 0 0 1.00222 0 0] CT
0.149 GC
2 setlinecap
1 LJ
0.5 LW
N
126 801 M
880 801 L
S
GR
GS
[1.00309 0 0 1.00222 0 0] CT
0.149 GC
2 setlinecap
1 LJ
0.5 LW
N
126 67 M
880 67 L
S
GR
GS
[1.00309 0 0 1.00222 0 0] CT
0.149 GC
2 setlinecap
1 LJ
0.5 LW
N
126 801 M
126 793.46 L
S
GR
GS
[1.00309 0 0 1.00222 0 0] CT
0.149 GC
2 setlinecap
1 LJ
0.5 LW
N
251.667 801 M
251.667 793.46 L
S
GR
GS
[1.00309 0 0 1.00222 0 0] CT
0.149 GC
2 setlinecap
1 LJ
0.5 LW
N
377.333 801 M
377.333 793.46 L
S
GR
GS
[1.00309 0 0 1.00222 0 0] CT
0.149 GC
2 setlinecap
1 LJ
0.5 LW
N
503 801 M
503 793.46 L
S
GR
GS
[1.00309 0 0 1.00222 0 0] CT
0.149 GC
2 setlinecap
1 LJ
0.5 LW
N
628.667 801 M
628.667 793.46 L
S
GR
GS
[1.00309 0 0 1.00222 0 0] CT
0.149 GC
2 setlinecap
1 LJ
0.5 LW
N
754.333 801 M
754.333 793.46 L
S
GR
GS
[1.00309 0 0 1.00222 0 0] CT
0.149 GC
2 setlinecap
1 LJ
0.5 LW
N
880 801 M
880 793.46 L
S
GR
GS
[1.00309 0 0 1.00222 0 0] CT
0.149 GC
2 setlinecap
1 LJ
0.5 LW
N
126 67 M
126 74.54 L
S
GR
GS
[1.00309 0 0 1.00222 0 0] CT
0.149 GC
2 setlinecap
1 LJ
0.5 LW
N
251.667 67 M
251.667 74.54 L
S
GR
GS
[1.00309 0 0 1.00222 0 0] CT
0.149 GC
2 setlinecap
1 LJ
0.5 LW
N
377.333 67 M
377.333 74.54 L
S
GR
GS
[1.00309 0 0 1.00222 0 0] CT
0.149 GC
2 setlinecap
1 LJ
0.5 LW
N
503 67 M
503 74.54 L
S
GR
GS
[1.00309 0 0 1.00222 0 0] CT
0.149 GC
2 setlinecap
1 LJ
0.5 LW
N
628.667 67 M
628.667 74.54 L
S
GR
GS
[1.00309 0 0 1.00222 0 0] CT
0.149 GC
2 setlinecap
1 LJ
0.5 LW
N
754.333 67 M
754.333 74.54 L
S
GR
GS
[1.00309 0 0 1.00222 0 0] CT
0.149 GC
2 setlinecap
1 LJ
0.5 LW
N
880 67 M
880 74.54 L
S
GR
GS
[1.00309 0 0 1.00222 126.38929 810.78444] CT
0.149 GC
/Helvetica 29.933 F
GS
[1 0 0 1 0 0] CT
-8.5 29 moveto 
1 -1 scale
(0) t 
GR
GR
GS
[1.00309 0 0 1.00222 252.44422 810.78444] CT
0.149 GC
/Helvetica 29.933 F
GS
[1 0 0 1 0 0] CT
-21 29 moveto 
1 -1 scale
(0.1) t 
GR
GR
GS
[1.00309 0 0 1.00222 378.49915 810.78444] CT
0.149 GC
/Helvetica 29.933 F
GS
[1 0 0 1 0 0] CT
-21 29 moveto 
1 -1 scale
(0.2) t 
GR
GR
GS
[1.00309 0 0 1.00222 504.55407 810.78444] CT
0.149 GC
/Helvetica 29.933 F
GS
[1 0 0 1 0 0] CT
-21 29 moveto 
1 -1 scale
(0.3) t 
GR
GR
GS
[1.00309 0 0 1.00222 630.60901 810.78444] CT
0.149 GC
/Helvetica 29.933 F
GS
[1 0 0 1 0 0] CT
-21 29 moveto 
1 -1 scale
(0.4) t 
GR
GR
GS
[1.00309 0 0 1.00222 756.6639 810.78444] CT
0.149 GC
/Helvetica 29.933 F
GS
[1 0 0 1 0 0] CT
-21 29 moveto 
1 -1 scale
(0.5) t 
GR
GR
GS
[1.00309 0 0 1.00222 882.71885 810.78444] CT
0.149 GC
/Helvetica 29.933 F
GS
[1 0 0 1 0 0] CT
-21 29 moveto 
1 -1 scale
(0.6) t 
GR
GR
GS
[1.00309 0 0 1.00222 504.55447 847.86666] CT
0.149 GC
/Helvetica 32.927 F
GS
[1 0 0 1 0 0] CT
-245.5 32 moveto 
1 -1 scale
(Comparison score \(fractional HD\)) t 
GR
GR
GS
[1.00309 0 0 1.00222 0 0] CT
0.149 GC
2 setlinecap
1 LJ
0.5 LW
N
126 801 M
126 67 L
S
GR
GS
[1.00309 0 0 1.00222 0 0] CT
0.149 GC
2 setlinecap
1 LJ
0.5 LW
N
880 801 M
880 67 L
S
GR
GS
[1.00309 0 0 1.00222 0 0] CT
0.149 GC
2 setlinecap
1 LJ
0.5 LW
N
126 801 M
133.54 801 L
S
GR
GS
[1.00309 0 0 1.00222 0 0] CT
0.149 GC
2 setlinecap
1 LJ
0.5 LW
N
126 727.6 M
133.54 727.6 L
S
GR
GS
[1.00309 0 0 1.00222 0 0] CT
0.149 GC
2 setlinecap
1 LJ
0.5 LW
N
126 654.2 M
133.54 654.2 L
S
GR
GS
[1.00309 0 0 1.00222 0 0] CT
0.149 GC
2 setlinecap
1 LJ
0.5 LW
N
126 580.8 M
133.54 580.8 L
S
GR
GS
[1.00309 0 0 1.00222 0 0] CT
0.149 GC
2 setlinecap
1 LJ
0.5 LW
N
126 507.4 M
133.54 507.4 L
S
GR
GS
[1.00309 0 0 1.00222 0 0] CT
0.149 GC
2 setlinecap
1 LJ
0.5 LW
N
126 434 M
133.54 434 L
S
GR
GS
[1.00309 0 0 1.00222 0 0] CT
0.149 GC
2 setlinecap
1 LJ
0.5 LW
N
126 360.6 M
133.54 360.6 L
S
GR
GS
[1.00309 0 0 1.00222 0 0] CT
0.149 GC
2 setlinecap
1 LJ
0.5 LW
N
126 287.2 M
133.54 287.2 L
S
GR
GS
[1.00309 0 0 1.00222 0 0] CT
0.149 GC
2 setlinecap
1 LJ
0.5 LW
N
126 213.8 M
133.54 213.8 L
S
GR
GS
[1.00309 0 0 1.00222 0 0] CT
0.149 GC
2 setlinecap
1 LJ
0.5 LW
N
126 140.4 M
133.54 140.4 L
S
GR
GS
[1.00309 0 0 1.00222 0 0] CT
0.149 GC
2 setlinecap
1 LJ
0.5 LW
N
126 67 M
133.54 67 L
S
GR
GS
[1.00309 0 0 1.00222 0 0] CT
0.149 GC
2 setlinecap
1 LJ
0.5 LW
N
880 801 M
872.46 801 L
S
GR
GS
[1.00309 0 0 1.00222 0 0] CT
0.149 GC
2 setlinecap
1 LJ
0.5 LW
N
880 727.6 M
872.46 727.6 L
S
GR
GS
[1.00309 0 0 1.00222 0 0] CT
0.149 GC
2 setlinecap
1 LJ
0.5 LW
N
880 654.2 M
872.46 654.2 L
S
GR
GS
[1.00309 0 0 1.00222 0 0] CT
0.149 GC
2 setlinecap
1 LJ
0.5 LW
N
880 580.8 M
872.46 580.8 L
S
GR
GS
[1.00309 0 0 1.00222 0 0] CT
0.149 GC
2 setlinecap
1 LJ
0.5 LW
N
880 507.4 M
872.46 507.4 L
S
GR
GS
[1.00309 0 0 1.00222 0 0] CT
0.149 GC
2 setlinecap
1 LJ
0.5 LW
N
880 434 M
872.46 434 L
S
GR
GS
[1.00309 0 0 1.00222 0 0] CT
0.149 GC
2 setlinecap
1 LJ
0.5 LW
N
880 360.6 M
872.46 360.6 L
S
GR
GS
[1.00309 0 0 1.00222 0 0] CT
0.149 GC
2 setlinecap
1 LJ
0.5 LW
N
880 287.2 M
872.46 287.2 L
S
GR
GS
[1.00309 0 0 1.00222 0 0] CT
0.149 GC
2 setlinecap
1 LJ
0.5 LW
N
880 213.8 M
872.46 213.8 L
S
GR
GS
[1.00309 0 0 1.00222 0 0] CT
0.149 GC
2 setlinecap
1 LJ
0.5 LW
N
880 140.4 M
872.46 140.4 L
S
GR
GS
[1.00309 0 0 1.00222 0 0] CT
0.149 GC
2 setlinecap
1 LJ
0.5 LW
N
880 67 M
872.46 67 L
S
GR
GS
[1.00309 0 0 1.00222 118.37792 802.78] CT
0.149 GC
/Helvetica 29.933 F
GS
[1 0 0 1 0 0] CT
-17 11 moveto 
1 -1 scale
(0) t 
GR
GR
GS
[1.00309 0 0 1.00222 118.37792 729.21686] CT
0.149 GC
/Helvetica 29.933 F
GS
[1 0 0 1 0 0] CT
-42 11 moveto 
1 -1 scale
(0.1) t 
GR
GR
GS
[1.00309 0 0 1.00222 118.37792 655.65379] CT
0.149 GC
/Helvetica 29.933 F
GS
[1 0 0 1 0 0] CT
-42 11 moveto 
1 -1 scale
(0.2) t 
GR
GR
GS
[1.00309 0 0 1.00222 118.37792 582.09065] CT
0.149 GC
/Helvetica 29.933 F
GS
[1 0 0 1 0 0] CT
-42 11 moveto 
1 -1 scale
(0.3) t 
GR
GR
GS
[1.00309 0 0 1.00222 118.37792 508.52755] CT
0.149 GC
/Helvetica 29.933 F
GS
[1 0 0 1 0 0] CT
-42 11 moveto 
1 -1 scale
(0.4) t 
GR
GR
GS
[1.00309 0 0 1.00222 118.37792 434.96444] CT
0.149 GC
/Helvetica 29.933 F
GS
[1 0 0 1 0 0] CT
-42 11 moveto 
1 -1 scale
(0.5) t 
GR
GR
GS
[1.00309 0 0 1.00222 118.37792 361.40131] CT
0.149 GC
/Helvetica 29.933 F
GS
[1 0 0 1 0 0] CT
-42 11 moveto 
1 -1 scale
(0.6) t 
GR
GR
GS
[1.00309 0 0 1.00222 118.37792 287.83823] CT
0.149 GC
/Helvetica 29.933 F
GS
[1 0 0 1 0 0] CT
-42 11 moveto 
1 -1 scale
(0.7) t 
GR
GR
GS
[1.00309 0 0 1.00222 118.37792 214.2751] CT
0.149 GC
/Helvetica 29.933 F
GS
[1 0 0 1 0 0] CT
-42 11 moveto 
1 -1 scale
(0.8) t 
GR
GR
GS
[1.00309 0 0 1.00222 118.37792 140.71202] CT
0.149 GC
/Helvetica 29.933 F
GS
[1 0 0 1 0 0] CT
-42 11 moveto 
1 -1 scale
(0.9) t 
GR
GR
GS
[1.00309 0 0 1.00222 118.37792 67.14889] CT
0.149 GC
/Helvetica 29.933 F
GS
[1 0 0 1 0 0] CT
-17 11 moveto 
1 -1 scale
(1) t 
GR
GR
GS
[0 -1.00222 1.00309 0 73.23889 434.96411] CT
0.149 GC
/Helvetica 32.927 F
GS
[1 0 0 1 0 0] CT
-170 -8 moveto 
1 -1 scale
(Cumulative distribution) t 
GR
GR
GS
[1.00309 0 0 1.00222 0 0] CT
0.494 0.184 0.557 RC
1 LJ
6 LW
N
126 801 M
126 790.514 L
127.368 780.029 L
127.738 769.543 L
127.96 759.057 L
128.82 748.571 L
129.059 738.086 L
129.131 727.6 L
129.412 717.114 L
129.627 696.143 L
129.734 685.657 L
129.805 675.171 L
129.892 664.686 L
129.98 654.2 L
130.04 643.714 L
130.395 633.229 L
130.424 622.743 L
130.484 612.257 L
130.69 601.771 L
130.947 591.286 L
131.007 580.8 L
131.338 570.314 L
131.456 559.829 L
131.957 549.343 L
132.15 538.857 L
132.295 528.371 L
132.527 517.886 L
133.525 507.4 L
134.146 496.914 L
135.623 486.429 L
136.383 475.943 L
137.681 465.457 L
138.594 454.971 L
138.859 444.486 L
138.867 434 L
139.791 423.514 L
140.53 413.029 L
141.689 402.543 L
141.696 392.057 L
141.888 381.571 L
142.009 371.086 L
142.577 360.6 L
142.962 350.114 L
143.549 339.629 L
143.82 329.143 L
148.911 318.657 L
151.058 297.686 L
157.741 287.2 L
159.079 276.714 L
159.709 266.229 L
159.805 255.743 L
159.85 245.257 L
161.459 234.771 L
162.944 224.286 L
163.658 213.8 L
165.051 203.314 L
168.16 192.829 L
173.047 182.343 L
175.817 171.857 L
176.387 161.371 L
178.563 150.886 L
180.026 140.4 L
186.348 129.914 L
188.162 119.429 L
219.628 108.943 L
222.152 98.457 L
292.334 87.971 L
343.407 77.486 L
505.768 67 L
S
GR
GS
[1.00309 0 0 1.00222 0 0] CT
0 0.447 0.741 RC
1 LJ
6 LW
N
144.179 801 M
144.179 796.782 L
144.988 792.563 L
146.752 788.345 L
151.013 784.126 L
151.85 779.908 L
152.83 775.69 L
152.951 771.471 L
154.459 767.253 L
155.626 763.034 L
156.323 758.816 L
156.404 754.598 L
157.775 750.379 L
159.687 741.943 L
161.42 737.724 L
162.325 733.506 L
162.521 729.287 L
163.08 725.069 L
163.464 720.851 L
163.87 716.632 L
164.115 712.414 L
164.463 708.195 L
166.264 703.977 L
166.815 695.54 L
167.847 691.322 L
168.389 687.103 L
168.739 682.885 L
168.993 678.667 L
170.193 674.448 L
170.57 670.23 L
170.969 666.011 L
171.582 661.793 L
171.949 657.575 L
175.413 653.356 L
176.949 649.138 L
177.102 644.92 L
177.664 640.701 L
178.608 636.483 L
179.306 632.264 L
179.373 628.046 L
180.037 623.828 L
181.264 619.609 L
181.345 615.391 L
181.95 611.172 L
183.039 606.954 L
183.229 602.736 L
183.751 598.517 L
184.702 594.299 L
186.068 590.08 L
186.633 585.862 L
186.671 581.644 L
186.729 577.425 L
189.381 573.207 L
190.646 568.989 L
190.703 564.77 L
190.898 560.552 L
190.924 556.333 L
190.969 552.115 L
192.038 547.897 L
192.893 543.678 L
193.036 539.46 L
193.112 535.241 L
193.425 531.023 L
193.463 526.805 L
194.177 522.586 L
194.351 518.368 L
194.691 514.149 L
194.914 509.931 L
195.49 505.713 L
195.814 501.494 L
195.827 497.276 L
195.909 493.057 L
196.86 488.839 L
198.42 484.621 L
198.569 480.402 L
198.674 476.184 L
198.969 471.966 L
199.084 463.529 L
200.07 459.31 L
200.813 455.092 L
200.901 450.874 L
201.938 446.655 L
203.404 442.437 L
203.503 438.218 L
204.086 434 L
204.157 429.782 L
205.828 425.563 L
206.217 421.345 L
206.85 417.126 L
207.684 412.908 L
207.949 408.69 L
208.989 400.253 L
209.508 396.034 L
209.608 391.816 L
212.664 387.598 L
213.935 383.379 L
214.875 379.161 L
216.054 374.943 L
218.176 370.724 L
219.539 366.506 L
220.037 362.287 L
223.616 358.069 L
225.189 353.851 L
226.892 349.632 L
227.02 345.414 L
227.054 341.195 L
227.582 336.977 L
227.828 332.759 L
228.568 328.54 L
228.84 324.322 L
229.348 320.103 L
230.398 315.885 L
230.95 311.667 L
233.522 307.448 L
234.941 303.23 L
237.25 299.012 L
239.307 294.793 L
240.345 290.575 L
241.256 286.356 L
241.325 282.138 L
241.506 277.92 L
243.07 273.701 L
243.301 269.483 L
246.988 265.264 L
248.628 261.046 L
250.56 256.828 L
251.12 252.609 L
251.22 248.391 L
252.662 244.172 L
262.978 239.954 L
263.748 235.736 L
276.101 231.517 L
283.651 227.299 L
286.887 223.08 L
288.084 218.862 L
294.103 214.644 L
300.821 210.425 L
313.951 206.207 L
330.384 201.989 L
343.882 197.77 L
363.715 193.552 L
383.221 189.333 L
385.826 185.115 L
391.083 180.897 L
392.422 176.678 L
402.085 172.46 L
415.256 168.241 L
435.264 164.023 L
438.069 159.805 L
439.35 155.586 L
441.788 151.368 L
447.758 147.149 L
471.333 142.931 L
483.493 138.713 L
496.694 134.494 L
502.683 130.276 L
510.735 126.057 L
542.794 121.839 L
542.86 117.621 L
557.082 113.402 L
596.51 109.184 L
629.62 104.966 L
632.324 100.747 L
675.817 96.529 L
692.111 92.31 L
709.076 88.092 L
712.126 83.874 L
735.877 79.655 L
744.211 75.437 L
747.064 71.218 L
774.074 67 L
S
GR
GS
[1.00309 0 0 1.00222 0 0] CT
0.851 0.325 0.098 RC
1 LJ
6 LW
N
170.764 801 M
170.764 772.769 L
183.473 744.538 L
202.87 716.308 L
232.77 688.077 L
287.189 659.846 L
312.693 631.615 L
344.448 603.385 L
357.766 575.154 L
358.01 546.923 L
362.443 518.692 L
404.577 490.462 L
430.146 462.231 L
433.985 434 L
435.401 405.769 L
452.272 377.538 L
462.718 349.308 L
473.951 321.077 L
476.552 292.846 L
499.716 264.615 L
527.227 236.385 L
550.723 208.154 L
565.774 179.923 L
568.115 151.692 L
612.604 123.462 L
715.056 95.231 L
747.623 67 L
S
GR
GS
[1.00309 0 0 1.00222 0 0] CT
1 LJ
0.5 LW
N
377.333 801 M
377.333 67 L
S
GR
GS
[1.00309 0 0 1.00222 0 0] CT
1 GC
N
585 732 M
585 621 L
843 621 L
843 732 L
cp
f
GR
GS
[1.00309 0 0 1.00222 624.65519 642.20613] CT
/Helvetica 27 F
GS
[1 0 0 1 0 0] CT
0 10 moveto 
1 -1 scale
(S1 vs S1 \(0.0240\)) t 
GR
GR
GS
[1.00309 0 0 1.00222 0 0] CT
0.494 0.184 0.557 RC
1 LJ
6 LW
N
589.079 640.782 M
619.672 640.782 L
S
GR
GS
[1.00309 0 0 1.00222 624.65519 678.00333] CT
/Helvetica 27 F
GS
[1 0 0 1 0 0] CT
0 10 moveto 
1 -1 scale
(S2 vs S1 \(0.1090\)) t 
GR
GR
GS
[1.00309 0 0 1.00222 0 0] CT
0 0.447 0.741 RC
1 LJ
6 LW
N
589.079 676.5 M
619.672 676.5 L
S
GR
GS
[1.00309 0 0 1.00222 624.65519 713.80054] CT
/Helvetica 27 F
GS
[1 0 0 1 0 0] CT
0 10 moveto 
1 -1 scale
(S3 vs S1 \(0.2416\)) t 
GR
GR
GS
[1.00309 0 0 1.00222 0 0] CT
0.851 0.325 0.098 RC
1 LJ
6 LW
N
589.079 712.218 M
619.672 712.218 L
S
GR
GS
[1.00309 0 0 1.00222 0 0] CT
0.149 GC
10.0 ML
0.5 LW
N
585 732 M
585 621 L
843 621 L
843 732 L
cp
S
GR
GS
[1.00309 0 0 1.00222 0 0] CT
0.494 0.184 0.557 RC
1 LJ
2 LW
N
614.735 315.264 M
382.819 83.482 L
S
GR
GS
[1.00309 0 0 1.00222 0 0] CT
0.494 0.184 0.557 RC
1 LJ
0.5 LW
N
382.644 88.609 M
378.222 78.887 L
382.819 83.482 L
382.644 88.609 L
S
GR
GS
[1.00309 0 0 1.00222 0 0] CT
0.494 0.184 0.557 RC
1 LJ
0.5 LW
N
378.222 78.887 M
387.946 83.304 L
382.819 83.482 L
378.222 78.887 L
S
GR
GS
[1.00309 0 0 1.00222 0 0] CT
0.494 0.184 0.557 RC
N
382.644 88.609 M
378.222 78.887 L
382.819 83.482 L
cp
f
GR
GS
[1.00309 0 0 1.00222 0 0] CT
0.494 0.184 0.557 RC
N
378.222 78.887 M
387.946 83.304 L
382.819 83.482 L
cp
f
GR
GS
[1.00309 0 0 1.00222 0 0] CT
0 0.447 0.741 RC
1 LJ
2 LW
N
614.735 360.164 M
385.454 191.497 L
S
GR
GS
[1.00309 0 0 1.00222 0 0] CT
0 0.447 0.741 RC
1 LJ
0.5 LW
N
386.051 196.592 M
380.218 187.646 L
385.454 191.497 L
386.051 196.592 L
S
GR
GS
[1.00309 0 0 1.00222 0 0] CT
0 0.447 0.741 RC
1 LJ
0.5 LW
N
380.218 187.646 M
390.495 190.55 L
385.454 191.497 L
380.218 187.646 L
S
GR
GS
[1.00309 0 0 1.00222 0 0] CT
0 0.447 0.741 RC
N
386.051 196.592 M
380.218 187.646 L
385.454 191.497 L
cp
f
GR
GS
[1.00309 0 0 1.00222 0 0] CT
0 0.447 0.741 RC
N
380.218 187.646 M
390.495 190.55 L
385.454 191.497 L
cp
f
GR
GS
[1.00309 0 0 1.00222 0 0] CT
1 LJ
0.5 LW
N
612.739 453.956 M
382.092 765.129 L
S
GR
GS
[1.00309 0 0 1.00222 0 0] CT
1 LJ
0.5 LW
N
387.189 764.55 M
378.222 770.351 L
382.092 765.129 L
387.189 764.55 L
S
GR
GS
[1.00309 0 0 1.00222 0 0] CT
1 LJ
0.5 LW
N
378.222 770.351 M
381.164 760.084 L
382.092 765.129 L
378.222 770.351 L
S
GR
GS
[1.00309 0 0 1.00222 0 0] CT
N
387.189 764.55 M
378.222 770.351 L
382.092 765.129 L
cp
f
GR
GS
[1.00309 0 0 1.00222 0 0] CT
N
378.222 770.351 M
381.164 760.084 L
382.092 765.129 L
cp
f
GR
GS
[1.00309 0 0 1.00222 0 0] CT
10.0 ML
2 LW
N
613.737 470.399 M
613.737 434.587 L
809.335 434.587 L
809.335 470.399 L
cp
S
GR
GS
[1.00309 0 0 1.00222 713.73425 438.55899] CT
/Helvetica 23.947 F
GS
[1 0 0 1 0 0] CT
-81 23 moveto 
1 -1 scale
(threshold = 0.2) t 
GR
GR
GS
[1.00309 0 0 1.00222 0 0] CT
0.851 0.325 0.098 RC
1 LJ
2 LW
N
614.735 407.06 M
387.245 498.707 L
S
GR
GS
[1.00309 0 0 1.00222 0 0] CT
0.851 0.325 0.098 RC
1 LJ
0.5 LW
N
391.892 500.878 M
381.216 501.136 L
387.245 498.707 L
391.892 500.878 L
S
GR
GS
[1.00309 0 0 1.00222 0 0] CT
0.851 0.325 0.098 RC
1 LJ
0.5 LW
N
381.216 501.136 M
389.09 493.921 L
387.245 498.707 L
381.216 501.136 L
S
GR
GS
[1.00309 0 0 1.00222 0 0] CT
0.851 0.325 0.098 RC
N
391.892 500.878 M
381.216 501.136 L
387.245 498.707 L
cp
f
GR
GS
[1.00309 0 0 1.00222 0 0] CT
0.851 0.325 0.098 RC
N
381.216 501.136 M
389.09 493.921 L
387.245 498.707 L
cp
f
GR
GS
[1.00309 0 0 1.00222 0 0] CT
0.494 0.184 0.557 RC
10.0 ML
2 LW
N
614.735 329.819 M
614.735 294.62 L
810.333 294.62 L
810.333 329.819 L
cp
S
GR
GS
[1.00309 0 0 1.00222 714.73532 298.28143] CT
0.494 0.184 0.557 RC
/Helvetica 23.947 F
GS
[1 0 0 1 0 0] CT
-83.5 23 moveto 
1 -1 scale
(FNMR = 1.43%) t 
GR
GR
GS
[1.00309 0 0 1.00222 0 0] CT
0.851 0.325 0.098 RC
10.0 ML
2 LW
N
614.735 422.917 M
614.735 388.512 L
809.335 388.512 L
809.335 422.917 L
cp
S
GR
GS
[1.00309 0 0 1.00222 714.23481 392.38168] CT
0.851 0.325 0.098 RC
/Helvetica 23.947 F
GS
[1 0 0 1 0 0] CT
-90.5 23 moveto 
1 -1 scale
(FNMR = 61.54%) t 
GR
GR
GS
[1.00309 0 0 1.00222 0 0] CT
0 0.447 0.741 RC
10.0 ML
2 LW
N
614.735 377.265 M
614.735 341.186 L
809.335 341.186 L
809.335 377.265 L
cp
S
GR
GS
[1.00309 0 0 1.00222 714.23481 344.95086] CT
0 0.447 0.741 RC
/Helvetica 23.947 F
GS
[1 0 0 1 0 0] CT
-90.5 23 moveto 
1 -1 scale
(FNMR = 17.24%) t 
GR
GR
%%Trailer
%%Pages: 1
%%EOF
