%!PS-Adobe-3.0 EPSF-3.0
%%Creator: (MATLAB, The Mathworks, Inc. Version 9.0.0.307022 \(R2016a\) Prerelease. Operating System: Mac OS X)
%%Title: /Users/trokielewicz/Dropbox/Aplikacje/Texpad/ColdIris-ICB2016/graphics/OS.eps
%%CreationDate: 2016-01-16T22:49:40
%%Pages: (atend)
%%BoundingBox: 0 0 974 902
%%LanguageLevel: 3
%%EndComments
%%BeginProlog
%%BeginResource: procset (Apache XML Graphics Std ProcSet) 1.2 0
%%Version: 1.2 0
%%Copyright: (Copyright 2001-2003,2010 The Apache Software Foundation. License terms: http://www.apache.org/licenses/LICENSE-2.0)
/bd{bind def}bind def
/ld{load def}bd
/GR/grestore ld
/M/moveto ld
/LJ/setlinejoin ld
/C/curveto ld
/f/fill ld
/LW/setlinewidth ld
/GC/setgray ld
/t/show ld
/N/newpath ld
/CT/concat ld
/cp/closepath ld
/S/stroke ld
/L/lineto ld
/CC/setcmykcolor ld
/A/ashow ld
/GS/gsave ld
/RC/setrgbcolor ld
/RM/rmoveto ld
/ML/setmiterlimit ld
/re {4 2 roll M
1 index 0 rlineto
0 exch rlineto
neg 0 rlineto
cp } bd
/_ctm matrix def
/_tm matrix def
/BT { _ctm currentmatrix pop matrix _tm copy pop 0 0 moveto } bd
/ET { _ctm setmatrix } bd
/iTm { _ctm setmatrix _tm concat } bd
/Tm { _tm astore pop iTm 0 0 moveto } bd
/ux 0.0 def
/uy 0.0 def
/F {
  /Tp exch def
  /Tf exch def
  Tf findfont Tp scalefont setfont
  /cf Tf def  /cs Tp def
} bd
/ULS {currentpoint /uy exch def /ux exch def} bd
/ULE {
  /Tcx currentpoint pop def
  gsave
  newpath
  cf findfont cs scalefont dup
  /FontMatrix get 0 get /Ts exch def /FontInfo get dup
  /UnderlinePosition get Ts mul /To exch def
  /UnderlineThickness get Ts mul /Tt exch def
  ux uy To add moveto  Tcx uy To add lineto
  Tt setlinewidth stroke
  grestore
} bd
/OLE {
  /Tcx currentpoint pop def
  gsave
  newpath
  cf findfont cs scalefont dup
  /FontMatrix get 0 get /Ts exch def /FontInfo get dup
  /UnderlinePosition get Ts mul /To exch def
  /UnderlineThickness get Ts mul /Tt exch def
  ux uy To add cs add moveto Tcx uy To add cs add lineto
  Tt setlinewidth stroke
  grestore
} bd
/SOE {
  /Tcx currentpoint pop def
  gsave
  newpath
  cf findfont cs scalefont dup
  /FontMatrix get 0 get /Ts exch def /FontInfo get dup
  /UnderlinePosition get Ts mul /To exch def
  /UnderlineThickness get Ts mul /Tt exch def
  ux uy To add cs 10 mul 26 idiv add moveto Tcx uy To add cs 10 mul 26 idiv add lineto
  Tt setlinewidth stroke
  grestore
} bd
/QT {
/Y22 exch store
/X22 exch store
/Y21 exch store
/X21 exch store
currentpoint
/Y21 load 2 mul add 3 div exch
/X21 load 2 mul add 3 div exch
/X21 load 2 mul /X22 load add 3 div
/Y21 load 2 mul /Y22 load add 3 div
/X22 load /Y22 load curveto
} bd
/SSPD {
dup length /d exch dict def
{
/v exch def
/k exch def
currentpagedevice k known {
/cpdv currentpagedevice k get def
v cpdv ne {
/upd false def
/nullv v type /nulltype eq def
/nullcpdv cpdv type /nulltype eq def
nullv nullcpdv or
{
/upd true def
} {
/sametype v type cpdv type eq def
sametype {
v type /arraytype eq {
/vlen v length def
/cpdvlen cpdv length def
vlen cpdvlen eq {
0 1 vlen 1 sub {
/i exch def
/obj v i get def
/cpdobj cpdv i get def
obj cpdobj ne {
/upd true def
exit
} if
} for
} {
/upd true def
} ifelse
} {
v type /dicttype eq {
v {
/dv exch def
/dk exch def
/cpddv cpdv dk get def
dv cpddv ne {
/upd true def
exit
} if
} forall
} {
/upd true def
} ifelse
} ifelse
} if
} ifelse
upd true eq {
d k v put
} if
} if
} if
} forall
d length 0 gt {
d setpagedevice
} if
} bd
%%EndResource
%%BeginResource: procset (Apache XML Graphics EPS ProcSet) 1.0 0
%%Version: 1.0 0
%%Copyright: (Copyright 2002-2003 The Apache Software Foundation. License terms: http://www.apache.org/licenses/LICENSE-2.0)
/BeginEPSF { %def
/b4_Inc_state save def         % Save state for cleanup
/dict_count countdictstack def % Count objects on dict stack
/op_count count 1 sub def      % Count objects on operand stack
userdict begin                 % Push userdict on dict stack
/showpage { } def              % Redefine showpage, { } = null proc
0 setgray 0 setlinecap         % Prepare graphics state
1 setlinewidth 0 setlinejoin
10 setmiterlimit [ ] 0 setdash newpath
/languagelevel where           % If level not equal to 1 then
{pop languagelevel             % set strokeadjust and
1 ne                           % overprint to their defaults.
{false setstrokeadjust false setoverprint
} if
} if
} bd
/EndEPSF { %def
count op_count sub {pop} repeat            % Clean up stacks
countdictstack dict_count sub {end} repeat
b4_Inc_state restore
} bd
%%EndResource
%FOPBeginFontDict
%%IncludeResource: font Courier-Bold
%%IncludeResource: font Helvetica
%%IncludeResource: font Courier-BoldOblique
%%IncludeResource: font Courier-Oblique
%%IncludeResource: font Times-Roman
%%IncludeResource: font Helvetica-BoldOblique
%%IncludeResource: font Helvetica-Bold
%%IncludeResource: font Helvetica-Oblique
%%IncludeResource: font Times-BoldItalic
%%IncludeResource: font Courier
%%IncludeResource: font Times-Italic
%%IncludeResource: font Times-Bold
%%IncludeResource: font Symbol
%%IncludeResource: font ZapfDingbats
%FOPEndFontDict
%%BeginResource: encoding WinAnsiEncoding
/WinAnsiEncoding [
/.notdef /.notdef /.notdef /.notdef /.notdef
/.notdef /.notdef /.notdef /.notdef /.notdef
/.notdef /.notdef /.notdef /.notdef /.notdef
/.notdef /.notdef /.notdef /.notdef /.notdef
/.notdef /.notdef /.notdef /.notdef /.notdef
/.notdef /.notdef /.notdef /.notdef /.notdef
/.notdef /.notdef /space /exclam /quotedbl
/numbersign /dollar /percent /ampersand /quotesingle
/parenleft /parenright /asterisk /plus /comma
/hyphen /period /slash /zero /one
/two /three /four /five /six
/seven /eight /nine /colon /semicolon
/less /equal /greater /question /at
/A /B /C /D /E
/F /G /H /I /J
/K /L /M /N /O
/P /Q /R /S /T
/U /V /W /X /Y
/Z /bracketleft /backslash /bracketright /asciicircum
/underscore /quoteleft /a /b /c
/d /e /f /g /h
/i /j /k /l /m
/n /o /p /q /r
/s /t /u /v /w
/x /y /z /braceleft /bar
/braceright /asciitilde /bullet /Euro /bullet
/quotesinglbase /florin /quotedblbase /ellipsis /dagger
/daggerdbl /circumflex /perthousand /Scaron /guilsinglleft
/OE /bullet /Zcaron /bullet /bullet
/quoteleft /quoteright /quotedblleft /quotedblright /bullet
/endash /emdash /asciitilde /trademark /scaron
/guilsinglright /oe /bullet /zcaron /Ydieresis
/space /exclamdown /cent /sterling /currency
/yen /brokenbar /section /dieresis /copyright
/ordfeminine /guillemotleft /logicalnot /sfthyphen /registered
/macron /degree /plusminus /twosuperior /threesuperior
/acute /mu /paragraph /middot /cedilla
/onesuperior /ordmasculine /guillemotright /onequarter /onehalf
/threequarters /questiondown /Agrave /Aacute /Acircumflex
/Atilde /Adieresis /Aring /AE /Ccedilla
/Egrave /Eacute /Ecircumflex /Edieresis /Igrave
/Iacute /Icircumflex /Idieresis /Eth /Ntilde
/Ograve /Oacute /Ocircumflex /Otilde /Odieresis
/multiply /Oslash /Ugrave /Uacute /Ucircumflex
/Udieresis /Yacute /Thorn /germandbls /agrave
/aacute /acircumflex /atilde /adieresis /aring
/ae /ccedilla /egrave /eacute /ecircumflex
/edieresis /igrave /iacute /icircumflex /idieresis
/eth /ntilde /ograve /oacute /ocircumflex
/otilde /odieresis /divide /oslash /ugrave
/uacute /ucircumflex /udieresis /yacute /thorn
/ydieresis
] def
%%EndResource
%FOPBeginFontReencode
/Courier-Bold findfont
dup length dict begin
  {1 index /FID ne {def} {pop pop} ifelse} forall
  /Encoding WinAnsiEncoding def
  currentdict
end
/Courier-Bold exch definefont pop
/Helvetica findfont
dup length dict begin
  {1 index /FID ne {def} {pop pop} ifelse} forall
  /Encoding WinAnsiEncoding def
  currentdict
end
/Helvetica exch definefont pop
/Courier-BoldOblique findfont
dup length dict begin
  {1 index /FID ne {def} {pop pop} ifelse} forall
  /Encoding WinAnsiEncoding def
  currentdict
end
/Courier-BoldOblique exch definefont pop
/Courier-Oblique findfont
dup length dict begin
  {1 index /FID ne {def} {pop pop} ifelse} forall
  /Encoding WinAnsiEncoding def
  currentdict
end
/Courier-Oblique exch definefont pop
/Times-Roman findfont
dup length dict begin
  {1 index /FID ne {def} {pop pop} ifelse} forall
  /Encoding WinAnsiEncoding def
  currentdict
end
/Times-Roman exch definefont pop
/Helvetica-BoldOblique findfont
dup length dict begin
  {1 index /FID ne {def} {pop pop} ifelse} forall
  /Encoding WinAnsiEncoding def
  currentdict
end
/Helvetica-BoldOblique exch definefont pop
/Helvetica-Bold findfont
dup length dict begin
  {1 index /FID ne {def} {pop pop} ifelse} forall
  /Encoding WinAnsiEncoding def
  currentdict
end
/Helvetica-Bold exch definefont pop
/Helvetica-Oblique findfont
dup length dict begin
  {1 index /FID ne {def} {pop pop} ifelse} forall
  /Encoding WinAnsiEncoding def
  currentdict
end
/Helvetica-Oblique exch definefont pop
/Times-BoldItalic findfont
dup length dict begin
  {1 index /FID ne {def} {pop pop} ifelse} forall
  /Encoding WinAnsiEncoding def
  currentdict
end
/Times-BoldItalic exch definefont pop
/Courier findfont
dup length dict begin
  {1 index /FID ne {def} {pop pop} ifelse} forall
  /Encoding WinAnsiEncoding def
  currentdict
end
/Courier exch definefont pop
/Times-Italic findfont
dup length dict begin
  {1 index /FID ne {def} {pop pop} ifelse} forall
  /Encoding WinAnsiEncoding def
  currentdict
end
/Times-Italic exch definefont pop
/Times-Bold findfont
dup length dict begin
  {1 index /FID ne {def} {pop pop} ifelse} forall
  /Encoding WinAnsiEncoding def
  currentdict
end
/Times-Bold exch definefont pop
%FOPEndFontReencode
%%EndProlog
%%Page: 1 1
%%PageBoundingBox: 0 0 974 902
%%BeginPageSetup
[1 0 0 -1 0 902] CT
%%EndPageSetup
GS
[1.00309 0 0 1.00222 0 0] CT
1 GC
N
0 0 971 900 re
f
GR
GS
[1.00309 0 0 1.00222 0 0] CT
1 GC
N
0 0 971 900 re
f
GR
GS
[1.00309 0 0 1.00222 0 0] CT
1 GC
N
126 801 M
880 801 L
880 67 L
126 67 L
cp
f
GR
GS
[1.00309 0 0 1.00222 0 0] CT
0.873 GC
1 LJ
0.5 LW
N
126 801 M
126 67 L
S
GR
GS
[1.00309 0 0 1.00222 0 0] CT
0.873 GC
1 LJ
0.5 LW
N
251.667 801 M
251.667 67 L
S
GR
GS
[1.00309 0 0 1.00222 0 0] CT
0.873 GC
1 LJ
0.5 LW
N
377.333 801 M
377.333 67 L
S
GR
GS
[1.00309 0 0 1.00222 0 0] CT
0.873 GC
1 LJ
0.5 LW
N
503 801 M
503 67 L
S
GR
GS
[1.00309 0 0 1.00222 0 0] CT
0.873 GC
1 LJ
0.5 LW
N
628.667 801 M
628.667 67 L
S
GR
GS
[1.00309 0 0 1.00222 0 0] CT
0.873 GC
1 LJ
0.5 LW
N
754.333 801 M
754.333 67 L
S
GR
GS
[1.00309 0 0 1.00222 0 0] CT
0.873 GC
1 LJ
0.5 LW
N
880 801 M
880 67 L
S
GR
GS
[1.00309 0 0 1.00222 0 0] CT
0.873 GC
1 LJ
0.5 LW
N
880 801 M
126 801 L
S
GR
GS
[1.00309 0 0 1.00222 0 0] CT
0.873 GC
1 LJ
0.5 LW
N
880 727.6 M
126 727.6 L
S
GR
GS
[1.00309 0 0 1.00222 0 0] CT
0.873 GC
1 LJ
0.5 LW
N
880 654.2 M
126 654.2 L
S
GR
GS
[1.00309 0 0 1.00222 0 0] CT
0.873 GC
1 LJ
0.5 LW
N
880 580.8 M
126 580.8 L
S
GR
GS
[1.00309 0 0 1.00222 0 0] CT
0.873 GC
1 LJ
0.5 LW
N
880 507.4 M
126 507.4 L
S
GR
GS
[1.00309 0 0 1.00222 0 0] CT
0.873 GC
1 LJ
0.5 LW
N
880 434 M
126 434 L
S
GR
GS
[1.00309 0 0 1.00222 0 0] CT
0.873 GC
1 LJ
0.5 LW
N
880 360.6 M
126 360.6 L
S
GR
GS
[1.00309 0 0 1.00222 0 0] CT
0.873 GC
1 LJ
0.5 LW
N
880 287.2 M
126 287.2 L
S
GR
GS
[1.00309 0 0 1.00222 0 0] CT
0.873 GC
1 LJ
0.5 LW
N
880 213.8 M
126 213.8 L
S
GR
GS
[1.00309 0 0 1.00222 0 0] CT
0.873 GC
1 LJ
0.5 LW
N
880 140.4 M
126 140.4 L
S
GR
GS
[1.00309 0 0 1.00222 0 0] CT
0.873 GC
1 LJ
0.5 LW
N
880 67 M
126 67 L
S
GR
GS
[1.00309 0 0 1.00222 0 0] CT
0.149 GC
2 setlinecap
1 LJ
0.5 LW
N
126 801 M
880 801 L
S
GR
GS
[1.00309 0 0 1.00222 0 0] CT
0.149 GC
2 setlinecap
1 LJ
0.5 LW
N
126 67 M
880 67 L
S
GR
GS
[1.00309 0 0 1.00222 0 0] CT
0.149 GC
2 setlinecap
1 LJ
0.5 LW
N
126 801 M
126 793.46 L
S
GR
GS
[1.00309 0 0 1.00222 0 0] CT
0.149 GC
2 setlinecap
1 LJ
0.5 LW
N
251.667 801 M
251.667 793.46 L
S
GR
GS
[1.00309 0 0 1.00222 0 0] CT
0.149 GC
2 setlinecap
1 LJ
0.5 LW
N
377.333 801 M
377.333 793.46 L
S
GR
GS
[1.00309 0 0 1.00222 0 0] CT
0.149 GC
2 setlinecap
1 LJ
0.5 LW
N
503 801 M
503 793.46 L
S
GR
GS
[1.00309 0 0 1.00222 0 0] CT
0.149 GC
2 setlinecap
1 LJ
0.5 LW
N
628.667 801 M
628.667 793.46 L
S
GR
GS
[1.00309 0 0 1.00222 0 0] CT
0.149 GC
2 setlinecap
1 LJ
0.5 LW
N
754.333 801 M
754.333 793.46 L
S
GR
GS
[1.00309 0 0 1.00222 0 0] CT
0.149 GC
2 setlinecap
1 LJ
0.5 LW
N
880 801 M
880 793.46 L
S
GR
GS
[1.00309 0 0 1.00222 0 0] CT
0.149 GC
2 setlinecap
1 LJ
0.5 LW
N
126 67 M
126 74.54 L
S
GR
GS
[1.00309 0 0 1.00222 0 0] CT
0.149 GC
2 setlinecap
1 LJ
0.5 LW
N
251.667 67 M
251.667 74.54 L
S
GR
GS
[1.00309 0 0 1.00222 0 0] CT
0.149 GC
2 setlinecap
1 LJ
0.5 LW
N
377.333 67 M
377.333 74.54 L
S
GR
GS
[1.00309 0 0 1.00222 0 0] CT
0.149 GC
2 setlinecap
1 LJ
0.5 LW
N
503 67 M
503 74.54 L
S
GR
GS
[1.00309 0 0 1.00222 0 0] CT
0.149 GC
2 setlinecap
1 LJ
0.5 LW
N
628.667 67 M
628.667 74.54 L
S
GR
GS
[1.00309 0 0 1.00222 0 0] CT
0.149 GC
2 setlinecap
1 LJ
0.5 LW
N
754.333 67 M
754.333 74.54 L
S
GR
GS
[1.00309 0 0 1.00222 0 0] CT
0.149 GC
2 setlinecap
1 LJ
0.5 LW
N
880 67 M
880 74.54 L
S
GR
GS
[1.00309 0 0 1.00222 126.38929 810.78444] CT
0.149 GC
/Helvetica 29.933 F
GS
[1 0 0 1 0 0] CT
-8.5 29 moveto 
1 -1 scale
(0) t 
GR
GR
GS
[1.00309 0 0 1.00222 252.44422 810.78444] CT
0.149 GC
/Helvetica 29.933 F
GS
[1 0 0 1 0 0] CT
-21 29 moveto 
1 -1 scale
(0.1) t 
GR
GR
GS
[1.00309 0 0 1.00222 378.49915 810.78444] CT
0.149 GC
/Helvetica 29.933 F
GS
[1 0 0 1 0 0] CT
-21 29 moveto 
1 -1 scale
(0.2) t 
GR
GR
GS
[1.00309 0 0 1.00222 504.55407 810.78444] CT
0.149 GC
/Helvetica 29.933 F
GS
[1 0 0 1 0 0] CT
-21 29 moveto 
1 -1 scale
(0.3) t 
GR
GR
GS
[1.00309 0 0 1.00222 630.60901 810.78444] CT
0.149 GC
/Helvetica 29.933 F
GS
[1 0 0 1 0 0] CT
-21 29 moveto 
1 -1 scale
(0.4) t 
GR
GR
GS
[1.00309 0 0 1.00222 756.6639 810.78444] CT
0.149 GC
/Helvetica 29.933 F
GS
[1 0 0 1 0 0] CT
-21 29 moveto 
1 -1 scale
(0.5) t 
GR
GR
GS
[1.00309 0 0 1.00222 882.71885 810.78444] CT
0.149 GC
/Helvetica 29.933 F
GS
[1 0 0 1 0 0] CT
-21 29 moveto 
1 -1 scale
(0.6) t 
GR
GR
GS
[1.00309 0 0 1.00222 504.55447 847.86666] CT
0.149 GC
/Helvetica 32.927 F
GS
[1 0 0 1 0 0] CT
-245.5 32 moveto 
1 -1 scale
(Comparison score \(fractional HD\)) t 
GR
GR
GS
[1.00309 0 0 1.00222 0 0] CT
0.149 GC
2 setlinecap
1 LJ
0.5 LW
N
126 801 M
126 67 L
S
GR
GS
[1.00309 0 0 1.00222 0 0] CT
0.149 GC
2 setlinecap
1 LJ
0.5 LW
N
880 801 M
880 67 L
S
GR
GS
[1.00309 0 0 1.00222 0 0] CT
0.149 GC
2 setlinecap
1 LJ
0.5 LW
N
126 801 M
133.54 801 L
S
GR
GS
[1.00309 0 0 1.00222 0 0] CT
0.149 GC
2 setlinecap
1 LJ
0.5 LW
N
126 727.6 M
133.54 727.6 L
S
GR
GS
[1.00309 0 0 1.00222 0 0] CT
0.149 GC
2 setlinecap
1 LJ
0.5 LW
N
126 654.2 M
133.54 654.2 L
S
GR
GS
[1.00309 0 0 1.00222 0 0] CT
0.149 GC
2 setlinecap
1 LJ
0.5 LW
N
126 580.8 M
133.54 580.8 L
S
GR
GS
[1.00309 0 0 1.00222 0 0] CT
0.149 GC
2 setlinecap
1 LJ
0.5 LW
N
126 507.4 M
133.54 507.4 L
S
GR
GS
[1.00309 0 0 1.00222 0 0] CT
0.149 GC
2 setlinecap
1 LJ
0.5 LW
N
126 434 M
133.54 434 L
S
GR
GS
[1.00309 0 0 1.00222 0 0] CT
0.149 GC
2 setlinecap
1 LJ
0.5 LW
N
126 360.6 M
133.54 360.6 L
S
GR
GS
[1.00309 0 0 1.00222 0 0] CT
0.149 GC
2 setlinecap
1 LJ
0.5 LW
N
126 287.2 M
133.54 287.2 L
S
GR
GS
[1.00309 0 0 1.00222 0 0] CT
0.149 GC
2 setlinecap
1 LJ
0.5 LW
N
126 213.8 M
133.54 213.8 L
S
GR
GS
[1.00309 0 0 1.00222 0 0] CT
0.149 GC
2 setlinecap
1 LJ
0.5 LW
N
126 140.4 M
133.54 140.4 L
S
GR
GS
[1.00309 0 0 1.00222 0 0] CT
0.149 GC
2 setlinecap
1 LJ
0.5 LW
N
126 67 M
133.54 67 L
S
GR
GS
[1.00309 0 0 1.00222 0 0] CT
0.149 GC
2 setlinecap
1 LJ
0.5 LW
N
880 801 M
872.46 801 L
S
GR
GS
[1.00309 0 0 1.00222 0 0] CT
0.149 GC
2 setlinecap
1 LJ
0.5 LW
N
880 727.6 M
872.46 727.6 L
S
GR
GS
[1.00309 0 0 1.00222 0 0] CT
0.149 GC
2 setlinecap
1 LJ
0.5 LW
N
880 654.2 M
872.46 654.2 L
S
GR
GS
[1.00309 0 0 1.00222 0 0] CT
0.149 GC
2 setlinecap
1 LJ
0.5 LW
N
880 580.8 M
872.46 580.8 L
S
GR
GS
[1.00309 0 0 1.00222 0 0] CT
0.149 GC
2 setlinecap
1 LJ
0.5 LW
N
880 507.4 M
872.46 507.4 L
S
GR
GS
[1.00309 0 0 1.00222 0 0] CT
0.149 GC
2 setlinecap
1 LJ
0.5 LW
N
880 434 M
872.46 434 L
S
GR
GS
[1.00309 0 0 1.00222 0 0] CT
0.149 GC
2 setlinecap
1 LJ
0.5 LW
N
880 360.6 M
872.46 360.6 L
S
GR
GS
[1.00309 0 0 1.00222 0 0] CT
0.149 GC
2 setlinecap
1 LJ
0.5 LW
N
880 287.2 M
872.46 287.2 L
S
GR
GS
[1.00309 0 0 1.00222 0 0] CT
0.149 GC
2 setlinecap
1 LJ
0.5 LW
N
880 213.8 M
872.46 213.8 L
S
GR
GS
[1.00309 0 0 1.00222 0 0] CT
0.149 GC
2 setlinecap
1 LJ
0.5 LW
N
880 140.4 M
872.46 140.4 L
S
GR
GS
[1.00309 0 0 1.00222 0 0] CT
0.149 GC
2 setlinecap
1 LJ
0.5 LW
N
880 67 M
872.46 67 L
S
GR
GS
[1.00309 0 0 1.00222 118.37792 802.78] CT
0.149 GC
/Helvetica 29.933 F
GS
[1 0 0 1 0 0] CT
-17 11 moveto 
1 -1 scale
(0) t 
GR
GR
GS
[1.00309 0 0 1.00222 118.37792 729.21686] CT
0.149 GC
/Helvetica 29.933 F
GS
[1 0 0 1 0 0] CT
-42 11 moveto 
1 -1 scale
(0.1) t 
GR
GR
GS
[1.00309 0 0 1.00222 118.37792 655.65379] CT
0.149 GC
/Helvetica 29.933 F
GS
[1 0 0 1 0 0] CT
-42 11 moveto 
1 -1 scale
(0.2) t 
GR
GR
GS
[1.00309 0 0 1.00222 118.37792 582.09065] CT
0.149 GC
/Helvetica 29.933 F
GS
[1 0 0 1 0 0] CT
-42 11 moveto 
1 -1 scale
(0.3) t 
GR
GR
GS
[1.00309 0 0 1.00222 118.37792 508.52755] CT
0.149 GC
/Helvetica 29.933 F
GS
[1 0 0 1 0 0] CT
-42 11 moveto 
1 -1 scale
(0.4) t 
GR
GR
GS
[1.00309 0 0 1.00222 118.37792 434.96444] CT
0.149 GC
/Helvetica 29.933 F
GS
[1 0 0 1 0 0] CT
-42 11 moveto 
1 -1 scale
(0.5) t 
GR
GR
GS
[1.00309 0 0 1.00222 118.37792 361.40131] CT
0.149 GC
/Helvetica 29.933 F
GS
[1 0 0 1 0 0] CT
-42 11 moveto 
1 -1 scale
(0.6) t 
GR
GR
GS
[1.00309 0 0 1.00222 118.37792 287.83823] CT
0.149 GC
/Helvetica 29.933 F
GS
[1 0 0 1 0 0] CT
-42 11 moveto 
1 -1 scale
(0.7) t 
GR
GR
GS
[1.00309 0 0 1.00222 118.37792 214.2751] CT
0.149 GC
/Helvetica 29.933 F
GS
[1 0 0 1 0 0] CT
-42 11 moveto 
1 -1 scale
(0.8) t 
GR
GR
GS
[1.00309 0 0 1.00222 118.37792 140.71202] CT
0.149 GC
/Helvetica 29.933 F
GS
[1 0 0 1 0 0] CT
-42 11 moveto 
1 -1 scale
(0.9) t 
GR
GR
GS
[1.00309 0 0 1.00222 118.37792 67.14889] CT
0.149 GC
/Helvetica 29.933 F
GS
[1 0 0 1 0 0] CT
-17 11 moveto 
1 -1 scale
(1) t 
GR
GR
GS
[0 -1.00222 1.00309 0 73.23889 434.96411] CT
0.149 GC
/Helvetica 32.927 F
GS
[1 0 0 1 0 0] CT
-170 -8 moveto 
1 -1 scale
(Cumulative distribution) t 
GR
GR
GS
[1.00309 0 0 1.00222 0 0] CT
0.494 0.184 0.557 RC
1 LJ
6 LW
N
126 801 M
126 790.806 L
283.901 780.611 L
290.385 760.222 L
291.264 750.028 L
292.458 739.833 L
297.527 729.639 L
301.769 719.444 L
301.901 709.25 L
302.865 699.056 L
307.518 688.861 L
308.445 678.667 L
308.503 668.472 L
310.9 658.278 L
311.605 648.083 L
314.317 637.889 L
318.264 627.694 L
320.551 617.5 L
326.094 607.306 L
326.266 597.111 L
328.769 586.917 L
328.874 576.722 L
333.692 566.528 L
336.263 556.333 L
337.322 546.139 L
337.899 535.944 L
340.353 525.75 L
341.217 515.556 L
343.432 505.361 L
349.346 495.167 L
353.817 484.972 L
355.898 464.583 L
358.292 454.389 L
362.443 444.194 L
367.945 434 L
371.588 423.806 L
373.107 413.611 L
374.541 403.417 L
376.096 393.222 L
381.175 383.028 L
382.616 372.833 L
383.715 362.639 L
385.396 352.444 L
385.51 342.25 L
386.987 332.056 L
388.901 311.667 L
390.786 301.472 L
391.296 291.278 L
404.636 281.083 L
410.441 270.889 L
420.06 260.694 L
427.82 250.5 L
431.405 240.306 L
434.455 230.111 L
439.349 219.917 L
458.754 209.722 L
460.62 199.528 L
463.586 189.333 L
470.623 168.944 L
472.075 158.75 L
478.655 148.556 L
487.993 138.361 L
523.034 128.167 L
556.059 117.972 L
600.658 107.778 L
603.279 97.583 L
610.341 87.389 L
687.219 77.194 L
693.806 67 L
S
GR
GS
[1.00309 0 0 1.00222 0 0] CT
0 0.447 0.741 RC
1 LJ
6 LW
N
391.177 801 M
391.177 796.876 L
413.473 792.753 L
416.254 788.629 L
422.167 784.506 L
424.15 780.382 L
425.206 776.258 L
434.828 772.135 L
435.083 768.011 L
436.051 763.888 L
438.313 759.764 L
438.678 755.64 L
443.042 751.517 L
444.257 747.393 L
446.711 743.27 L
447.027 739.146 L
448.413 735.022 L
449.166 730.899 L
449.382 722.652 L
450.803 718.528 L
452.898 714.404 L
453.637 710.281 L
455.271 706.157 L
455.712 697.91 L
456.53 693.786 L
456.862 689.663 L
457.348 685.539 L
458.107 677.292 L
461.438 673.169 L
462.469 669.045 L
462.677 664.921 L
462.736 660.798 L
462.857 656.674 L
463.893 652.551 L
464.051 648.427 L
465.188 644.303 L
465.529 640.18 L
467.165 636.056 L
467.983 631.933 L
468.801 627.809 L
469.368 623.685 L
470.327 619.562 L
470.711 611.315 L
471.257 603.067 L
471.998 598.944 L
472.124 594.82 L
473.711 590.697 L
474.529 586.573 L
474.702 582.449 L
475.347 578.326 L
475.724 574.202 L
476.717 570.079 L
477.999 565.955 L
481.187 561.831 L
481.723 557.708 L
484.346 553.584 L
485.164 549.461 L
485.299 545.337 L
486.343 541.214 L
487.618 532.966 L
488.982 524.719 L
490.06 520.596 L
491.804 516.472 L
492.312 512.348 L
493.346 508.225 L
493.415 504.101 L
494.823 495.854 L
495.801 491.73 L
497.437 487.607 L
497.833 483.483 L
498.544 475.236 L
500.796 471.112 L
501.072 466.989 L
501.44 462.865 L
502.333 458.742 L
503.163 454.618 L
503.981 450.494 L
513.038 446.371 L
514.618 442.247 L
517.072 438.124 L
519.526 434 L
520.89 429.876 L
522.512 425.753 L
528.527 421.629 L
528.638 417.506 L
530.926 413.382 L
532.225 409.258 L
537.526 405.135 L
538.344 396.888 L
538.57 392.764 L
539.472 388.64 L
541.616 384.517 L
541.993 380.393 L
544.07 376.27 L
548.5 372.146 L
552.253 368.022 L
553.071 363.899 L
553.889 359.775 L
564.524 355.652 L
564.75 351.528 L
566.394 347.405 L
566.556 343.281 L
574.567 339.157 L
577.615 335.034 L
582.199 330.91 L
582.658 326.786 L
586.943 322.663 L
589.77 318.539 L
590.705 314.416 L
592.142 310.292 L
592.49 306.169 L
593.926 302.045 L
594.117 297.921 L
594.494 293.798 L
596.57 289.674 L
599.256 285.551 L
599.765 281.427 L
603.963 277.303 L
604.99 273.18 L
607.812 269.056 L
609.401 264.933 L
610.032 260.809 L
611.159 256.685 L
613.53 252.562 L
614.704 248.438 L
617.851 244.315 L
620.751 240.191 L
622.293 236.067 L
625.066 231.944 L
632.158 227.82 L
637.37 223.697 L
642.451 219.573 L
646.313 215.449 L
646.971 211.326 L
647.157 207.202 L
650.43 203.079 L
655.772 198.955 L
658.011 194.831 L
665.586 190.708 L
665.628 186.584 L
670.555 182.461 L
674.662 178.337 L
677.752 174.214 L
682.055 170.09 L
682.652 165.966 L
689.435 161.843 L
697.568 157.719 L
701.729 153.595 L
701.749 149.472 L
704.651 141.225 L
705.372 132.978 L
708.157 128.854 L
708.489 124.73 L
711.703 120.607 L
713.769 116.483 L
714.708 112.36 L
718.052 108.236 L
720.822 104.112 L
721.35 99.989 L
730.135 95.865 L
730.64 91.742 L
732.638 87.618 L
739.491 83.494 L
740.148 75.247 L
741.817 71.124 L
755.241 67 L
S
GR
GS
[1.00309 0 0 1.00222 0 0] CT
0.851 0.325 0.098 RC
1 LJ
6 LW
N
409.734 801 M
409.734 776.533 L
412.512 752.067 L
456.516 727.6 L
459.125 703.133 L
545.781 678.667 L
564.836 654.2 L
573.675 629.733 L
606.13 605.267 L
618.028 580.8 L
621.916 556.333 L
624.843 531.867 L
636.888 507.4 L
640.531 482.933 L
649.612 458.467 L
651.748 434 L
664.71 409.533 L
670.205 385.067 L
670.305 360.6 L
681.649 336.133 L
687.731 311.667 L
688.344 287.2 L
690.36 262.733 L
698.609 238.267 L
705.831 213.8 L
707.484 189.333 L
711.296 164.867 L
719.147 140.4 L
721.216 115.933 L
722.111 91.467 L
748.647 67 L
S
GR
GS
[1.00309 0 0 1.00222 0 0] CT
1 LJ
0.5 LW
N
528.133 801 M
528.133 67 L
S
GR
GS
[1.00309 0 0 1.00222 0 0] CT
1 GC
N
596 787 M
596 660 L
865 660 L
865 787 L
cp
f
GR
GS
[1.00309 0 0 1.00222 637.30285 684.15063] CT
/Helvetica 27 F
GS
[1 0 0 1 0 0] CT
0 10 moveto 
1 -1 scale
(S1 vs S1 \(0.2073\)) t 
GR
GR
GS
[1.00309 0 0 1.00222 0 0] CT
0.494 0.184 0.557 RC
1 LJ
6 LW
N
600.253 682.634 M
632.15 682.634 L
S
GR
GS
[1.00309 0 0 1.00222 637.30285 725.10778] CT
/Helvetica 27 F
GS
[1 0 0 1 0 0] CT
0 10 moveto 
1 -1 scale
(S2 vs S1 \(0.3367\)) t 
GR
GR
GS
[1.00309 0 0 1.00222 0 0] CT
0 0.447 0.741 RC
1 LJ
6 LW
N
600.253 723.5 M
632.15 723.5 L
S
GR
GS
[1.00309 0 0 1.00222 637.30285 766.06492] CT
/Helvetica 27 F
GS
[1 0 0 1 0 0] CT
0 10 moveto 
1 -1 scale
(S3 vs S1 \(0.4026\)) t 
GR
GR
GS
[1.00309 0 0 1.00222 0 0] CT
0.851 0.325 0.098 RC
1 LJ
6 LW
N
600.253 764.366 M
632.15 764.366 L
S
GR
GS
[1.00309 0 0 1.00222 0 0] CT
0.149 GC
10.0 ML
0.5 LW
N
596 787 M
596 660 L
865 660 L
865 787 L
cp
S
GR
GS
[1.00309 0 0 1.00222 0 0] CT
1 LJ
2 LW
N
350.279 275.29 M
524.663 747.229 L
S
GR
GS
[1.00309 0 0 1.00222 0 0] CT
1 LJ
0.5 LW
N
526.967 742.646 M
526.916 753.326 L
524.663 747.229 L
526.967 742.646 L
S
GR
GS
[1.00309 0 0 1.00222 0 0] CT
1 LJ
0.5 LW
N
526.916 753.326 M
519.932 745.246 L
524.663 747.229 L
526.916 753.326 L
S
GR
GS
[1.00309 0 0 1.00222 0 0] CT
N
526.967 742.646 M
526.916 753.326 L
524.663 747.229 L
cp
f
GR
GS
[1.00309 0 0 1.00222 0 0] CT
N
526.916 753.326 M
519.932 745.246 L
524.663 747.229 L
cp
f
GR
GS
[1.00309 0 0 1.00222 0 0] CT
0 0.447 0.741 RC
1 LJ
2 LW
N
350.279 181.499 M
524 411.883 L
S
GR
GS
[1.00309 0 0 1.00222 0 0] CT
0 0.447 0.741 RC
1 LJ
0.5 LW
N
524.887 406.831 M
527.914 417.073 L
524 411.883 L
524.887 406.831 L
S
GR
GS
[1.00309 0 0 1.00222 0 0] CT
0 0.447 0.741 RC
1 LJ
0.5 LW
N
527.914 417.073 M
518.899 411.346 L
524 411.883 L
527.914 417.073 L
S
GR
GS
[1.00309 0 0 1.00222 0 0] CT
0 0.447 0.741 RC
N
524.887 406.831 M
527.914 417.073 L
524 411.883 L
cp
f
GR
GS
[1.00309 0 0 1.00222 0 0] CT
0 0.447 0.741 RC
N
527.914 417.073 M
518.899 411.346 L
524 411.883 L
cp
f
GR
GS
[1.00309 0 0 1.00222 0 0] CT
0.851 0.325 0.098 RC
1 LJ
2 LW
N
350.279 228.394 M
522.596 678.409 L
S
GR
GS
[1.00309 0 0 1.00222 0 0] CT
0.851 0.325 0.098 RC
1 LJ
0.5 LW
N
524.846 673.799 M
524.92 684.479 L
522.596 678.409 L
524.846 673.799 L
S
GR
GS
[1.00309 0 0 1.00222 0 0] CT
0.851 0.325 0.098 RC
1 LJ
0.5 LW
N
524.92 684.479 M
517.842 676.481 L
522.596 678.409 L
524.92 684.479 L
S
GR
GS
[1.00309 0 0 1.00222 0 0] CT
0.851 0.325 0.098 RC
N
524.846 673.799 M
524.92 684.479 L
522.596 678.409 L
cp
f
GR
GS
[1.00309 0 0 1.00222 0 0] CT
0.851 0.325 0.098 RC
N
524.92 684.479 M
517.842 676.481 L
522.596 678.409 L
cp
f
GR
GS
[1.00309 0 0 1.00222 0 0] CT
0.494 0.184 0.557 RC
1 LJ
2 LW
N
350.279 134.603 M
521.423 125.625 L
S
GR
GS
[1.00309 0 0 1.00222 0 0] CT
0.494 0.184 0.557 RC
1 LJ
0.5 LW
N
517.731 122.063 M
527.914 125.284 L
521.423 125.625 L
517.731 122.063 L
S
GR
GS
[1.00309 0 0 1.00222 0 0] CT
0.494 0.184 0.557 RC
1 LJ
0.5 LW
N
527.914 125.284 M
518.124 129.553 L
521.423 125.625 L
527.914 125.284 L
S
GR
GS
[1.00309 0 0 1.00222 0 0] CT
0.494 0.184 0.557 RC
N
517.731 122.063 M
527.914 125.284 L
521.423 125.625 L
cp
f
GR
GS
[1.00309 0 0 1.00222 0 0] CT
0.494 0.184 0.557 RC
N
527.914 125.284 M
518.124 129.553 L
521.423 125.625 L
cp
f
GR
GS
[1.00309 0 0 1.00222 0 0] CT
0 0.447 0.741 RC
10.0 ML
2 LW
N
152.686 198.599 M
152.686 162.521 L
350.279 162.521 L
350.279 198.599 L
cp
S
GR
GS
[1.00309 0 0 1.00222 252.25952 165.88839] CT
0 0.447 0.741 RC
/Helvetica 23.947 F
GS
[1 0 0 1 0 0] CT
-90.5 23 moveto 
1 -1 scale
(FNMR = 48.88%) t 
GR
GR
GS
[1.00309 0 0 1.00222 0 0] CT
0.494 0.184 0.557 RC
10.0 ML
2 LW
N
152.686 151.153 M
152.686 115.955 L
350.279 115.955 L
350.279 151.153 L
cp
S
GR
GS
[1.00309 0 0 1.00222 252.25952 119.21892] CT
0.494 0.184 0.557 RC
/Helvetica 23.947 F
GS
[1 0 0 1 0 0] CT
-83.5 23 moveto 
1 -1 scale
(FNMR = 8.33%) t 
GR
GR
GS
[1.00309 0 0 1.00222 0 0] CT
10.0 ML
2 LW
N
152.686 291.734 M
152.686 255.921 L
350.279 255.921 L
350.279 291.734 L
cp
S
GR
GS
[1.00309 0 0 1.00222 252.25952 259.49646] CT
/Helvetica 23.947 F
GS
[1 0 0 1 0 0] CT
-87.5 23 moveto 
1 -1 scale
(threshold = 0.32) t 
GR
GR
GS
[1.00309 0 0 1.00222 0 0] CT
0.851 0.325 0.098 RC
10.0 ML
2 LW
N
152.686 244.251 M
152.686 209.846 L
350.279 209.846 L
350.279 244.251 L
cp
S
GR
GS
[1.00309 0 0 1.00222 252.25952 213.31915] CT
0.851 0.325 0.098 RC
/Helvetica 23.947 F
GS
[1 0 0 1 0 0] CT
-90.5 23 moveto 
1 -1 scale
(FNMR = 86.67%) t 
GR
GR
%%Trailer
%%Pages: 1
%%EOF
