%!PS-Adobe-3.0 EPSF-3.0
%%Creator: (MATLAB, The Mathworks, Inc. Version 9.3.0.713579 \(R2017b\). Operating System: Mac OS X)
%%Title: ./shortTerm_OSIRIS_normalized.eps
%%CreationDate: 2018-07-30T11:01:30
%%Pages: (atend)
%%BoundingBox:     7     5   509   414
%%LanguageLevel: 3
%%EndComments
%%BeginProlog
%%BeginResource: procset (Apache XML Graphics Std ProcSet) 1.2 0
%%Version: 1.2 0
%%Copyright: (Copyright 2001-2003,2010 The Apache Software Foundation. License terms: http://www.apache.org/licenses/LICENSE-2.0)
/bd{bind def}bind def
/ld{load def}bd
/GR/grestore ld
/GS/gsave ld
/RM/rmoveto ld
/C/curveto ld
/t/show ld
/L/lineto ld
/ML/setmiterlimit ld
/CT/concat ld
/f/fill ld
/N/newpath ld
/S/stroke ld
/CC/setcmykcolor ld
/A/ashow ld
/cp/closepath ld
/RC/setrgbcolor ld
/LJ/setlinejoin ld
/GC/setgray ld
/LW/setlinewidth ld
/M/moveto ld
/re {4 2 roll M
1 index 0 rlineto
0 exch rlineto
neg 0 rlineto
cp } bd
/_ctm matrix def
/_tm matrix def
/BT { _ctm currentmatrix pop matrix _tm copy pop 0 0 moveto } bd
/ET { _ctm setmatrix } bd
/iTm { _ctm setmatrix _tm concat } bd
/Tm { _tm astore pop iTm 0 0 moveto } bd
/ux 0.0 def
/uy 0.0 def
/F {
  /Tp exch def
  /Tf exch def
  Tf findfont Tp scalefont setfont
  /cf Tf def  /cs Tp def
} bd
/ULS {currentpoint /uy exch def /ux exch def} bd
/ULE {
  /Tcx currentpoint pop def
  gsave
  newpath
  cf findfont cs scalefont dup
  /FontMatrix get 0 get /Ts exch def /FontInfo get dup
  /UnderlinePosition get Ts mul /To exch def
  /UnderlineThickness get Ts mul /Tt exch def
  ux uy To add moveto  Tcx uy To add lineto
  Tt setlinewidth stroke
  grestore
} bd
/OLE {
  /Tcx currentpoint pop def
  gsave
  newpath
  cf findfont cs scalefont dup
  /FontMatrix get 0 get /Ts exch def /FontInfo get dup
  /UnderlinePosition get Ts mul /To exch def
  /UnderlineThickness get Ts mul /Tt exch def
  ux uy To add cs add moveto Tcx uy To add cs add lineto
  Tt setlinewidth stroke
  grestore
} bd
/SOE {
  /Tcx currentpoint pop def
  gsave
  newpath
  cf findfont cs scalefont dup
  /FontMatrix get 0 get /Ts exch def /FontInfo get dup
  /UnderlinePosition get Ts mul /To exch def
  /UnderlineThickness get Ts mul /Tt exch def
  ux uy To add cs 10 mul 26 idiv add moveto Tcx uy To add cs 10 mul 26 idiv add lineto
  Tt setlinewidth stroke
  grestore
} bd
/QT {
/Y22 exch store
/X22 exch store
/Y21 exch store
/X21 exch store
currentpoint
/Y21 load 2 mul add 3 div exch
/X21 load 2 mul add 3 div exch
/X21 load 2 mul /X22 load add 3 div
/Y21 load 2 mul /Y22 load add 3 div
/X22 load /Y22 load curveto
} bd
/SSPD {
dup length /d exch dict def
{
/v exch def
/k exch def
currentpagedevice k known {
/cpdv currentpagedevice k get def
v cpdv ne {
/upd false def
/nullv v type /nulltype eq def
/nullcpdv cpdv type /nulltype eq def
nullv nullcpdv or
{
/upd true def
} {
/sametype v type cpdv type eq def
sametype {
v type /arraytype eq {
/vlen v length def
/cpdvlen cpdv length def
vlen cpdvlen eq {
0 1 vlen 1 sub {
/i exch def
/obj v i get def
/cpdobj cpdv i get def
obj cpdobj ne {
/upd true def
exit
} if
} for
} {
/upd true def
} ifelse
} {
v type /dicttype eq {
v {
/dv exch def
/dk exch def
/cpddv cpdv dk get def
dv cpddv ne {
/upd true def
exit
} if
} forall
} {
/upd true def
} ifelse
} ifelse
} if
} ifelse
upd true eq {
d k v put
} if
} if
} if
} forall
d length 0 gt {
d setpagedevice
} if
} bd
/RE { % /NewFontName [NewEncodingArray] /FontName RE -
  findfont dup length dict begin
  {
    1 index /FID ne
    {def} {pop pop} ifelse
  } forall
  /Encoding exch def
  /FontName 1 index def
  currentdict definefont pop
  end
} bind def
%%EndResource
%%BeginResource: procset (Apache XML Graphics EPS ProcSet) 1.0 0
%%Version: 1.0 0
%%Copyright: (Copyright 2002-2003 The Apache Software Foundation. License terms: http://www.apache.org/licenses/LICENSE-2.0)
/BeginEPSF { %def
/b4_Inc_state save def         % Save state for cleanup
/dict_count countdictstack def % Count objects on dict stack
/op_count count 1 sub def      % Count objects on operand stack
userdict begin                 % Push userdict on dict stack
/showpage { } def              % Redefine showpage, { } = null proc
0 setgray 0 setlinecap         % Prepare graphics state
1 setlinewidth 0 setlinejoin
10 setmiterlimit [ ] 0 setdash newpath
/languagelevel where           % If level not equal to 1 then
{pop languagelevel             % set strokeadjust and
1 ne                           % overprint to their defaults.
{false setstrokeadjust false setoverprint
} if
} if
} bd
/EndEPSF { %def
count op_count sub {pop} repeat            % Clean up stacks
countdictstack dict_count sub {end} repeat
b4_Inc_state restore
} bd
%%EndResource
%FOPBeginFontDict
%%IncludeResource: font Courier-Oblique
%%IncludeResource: font Courier-BoldOblique
%%IncludeResource: font Courier-Bold
%%IncludeResource: font ZapfDingbats
%%IncludeResource: font Symbol
%%IncludeResource: font Helvetica
%%IncludeResource: font Helvetica-Oblique
%%IncludeResource: font Helvetica-Bold
%%IncludeResource: font Helvetica-BoldOblique
%%IncludeResource: font Times-Roman
%%IncludeResource: font Times-Italic
%%IncludeResource: font Times-Bold
%%IncludeResource: font Times-BoldItalic
%%IncludeResource: font Courier
%FOPEndFontDict
%%BeginResource: encoding WinAnsiEncoding
/WinAnsiEncoding [
/.notdef /.notdef /.notdef /.notdef /.notdef
/.notdef /.notdef /.notdef /.notdef /.notdef
/.notdef /.notdef /.notdef /.notdef /.notdef
/.notdef /.notdef /.notdef /.notdef /.notdef
/.notdef /.notdef /.notdef /.notdef /.notdef
/.notdef /.notdef /.notdef /.notdef /.notdef
/.notdef /.notdef /space /exclam /quotedbl
/numbersign /dollar /percent /ampersand /quotesingle
/parenleft /parenright /asterisk /plus /comma
/hyphen /period /slash /zero /one
/two /three /four /five /six
/seven /eight /nine /colon /semicolon
/less /equal /greater /question /at
/A /B /C /D /E
/F /G /H /I /J
/K /L /M /N /O
/P /Q /R /S /T
/U /V /W /X /Y
/Z /bracketleft /backslash /bracketright /asciicircum
/underscore /quoteleft /a /b /c
/d /e /f /g /h
/i /j /k /l /m
/n /o /p /q /r
/s /t /u /v /w
/x /y /z /braceleft /bar
/braceright /asciitilde /bullet /Euro /bullet
/quotesinglbase /florin /quotedblbase /ellipsis /dagger
/daggerdbl /circumflex /perthousand /Scaron /guilsinglleft
/OE /bullet /Zcaron /bullet /bullet
/quoteleft /quoteright /quotedblleft /quotedblright /bullet
/endash /emdash /asciitilde /trademark /scaron
/guilsinglright /oe /bullet /zcaron /Ydieresis
/space /exclamdown /cent /sterling /currency
/yen /brokenbar /section /dieresis /copyright
/ordfeminine /guillemotleft /logicalnot /sfthyphen /registered
/macron /degree /plusminus /twosuperior /threesuperior
/acute /mu /paragraph /middot /cedilla
/onesuperior /ordmasculine /guillemotright /onequarter /onehalf
/threequarters /questiondown /Agrave /Aacute /Acircumflex
/Atilde /Adieresis /Aring /AE /Ccedilla
/Egrave /Eacute /Ecircumflex /Edieresis /Igrave
/Iacute /Icircumflex /Idieresis /Eth /Ntilde
/Ograve /Oacute /Ocircumflex /Otilde /Odieresis
/multiply /Oslash /Ugrave /Uacute /Ucircumflex
/Udieresis /Yacute /Thorn /germandbls /agrave
/aacute /acircumflex /atilde /adieresis /aring
/ae /ccedilla /egrave /eacute /ecircumflex
/edieresis /igrave /iacute /icircumflex /idieresis
/eth /ntilde /ograve /oacute /ocircumflex
/otilde /odieresis /divide /oslash /ugrave
/uacute /ucircumflex /udieresis /yacute /thorn
/ydieresis
] def
%%EndResource
%FOPBeginFontReencode
/Courier-Oblique findfont
dup length dict begin
  {1 index /FID ne {def} {pop pop} ifelse} forall
  /Encoding WinAnsiEncoding def
  currentdict
end
/Courier-Oblique exch definefont pop
/Courier-BoldOblique findfont
dup length dict begin
  {1 index /FID ne {def} {pop pop} ifelse} forall
  /Encoding WinAnsiEncoding def
  currentdict
end
/Courier-BoldOblique exch definefont pop
/Courier-Bold findfont
dup length dict begin
  {1 index /FID ne {def} {pop pop} ifelse} forall
  /Encoding WinAnsiEncoding def
  currentdict
end
/Courier-Bold exch definefont pop
/Helvetica findfont
dup length dict begin
  {1 index /FID ne {def} {pop pop} ifelse} forall
  /Encoding WinAnsiEncoding def
  currentdict
end
/Helvetica exch definefont pop
/Helvetica-Oblique findfont
dup length dict begin
  {1 index /FID ne {def} {pop pop} ifelse} forall
  /Encoding WinAnsiEncoding def
  currentdict
end
/Helvetica-Oblique exch definefont pop
/Helvetica-Bold findfont
dup length dict begin
  {1 index /FID ne {def} {pop pop} ifelse} forall
  /Encoding WinAnsiEncoding def
  currentdict
end
/Helvetica-Bold exch definefont pop
/Helvetica-BoldOblique findfont
dup length dict begin
  {1 index /FID ne {def} {pop pop} ifelse} forall
  /Encoding WinAnsiEncoding def
  currentdict
end
/Helvetica-BoldOblique exch definefont pop
/Times-Roman findfont
dup length dict begin
  {1 index /FID ne {def} {pop pop} ifelse} forall
  /Encoding WinAnsiEncoding def
  currentdict
end
/Times-Roman exch definefont pop
/Times-Italic findfont
dup length dict begin
  {1 index /FID ne {def} {pop pop} ifelse} forall
  /Encoding WinAnsiEncoding def
  currentdict
end
/Times-Italic exch definefont pop
/Times-Bold findfont
dup length dict begin
  {1 index /FID ne {def} {pop pop} ifelse} forall
  /Encoding WinAnsiEncoding def
  currentdict
end
/Times-Bold exch definefont pop
/Times-BoldItalic findfont
dup length dict begin
  {1 index /FID ne {def} {pop pop} ifelse} forall
  /Encoding WinAnsiEncoding def
  currentdict
end
/Times-BoldItalic exch definefont pop
/Courier findfont
dup length dict begin
  {1 index /FID ne {def} {pop pop} ifelse} forall
  /Encoding WinAnsiEncoding def
  currentdict
end
/Courier exch definefont pop
%FOPEndFontReencode
%%EndProlog
%%Page: 1 1
%%PageBoundingBox: 0 0 560 420
%%BeginPageSetup
[1 0 0 -1 0 420] CT
%%EndPageSetup
GS
1 GC
N
0 0 560 420 re
f
GR
GS
1 GC
N
0 0 560 420 re
f
GR
GS
1 GC
N
76 351 M
507 351 L
507 39 L
76 39 L
cp
f
GR
GS
0.873 GC
1 LJ
0.5 LW
N
76 351 M
76 39 L
S
GR
GS
0.873 GC
1 LJ
0.5 LW
N
162.2 351 M
162.2 39 L
S
GR
GS
0.873 GC
1 LJ
0.5 LW
N
248.4 351 M
248.4 39 L
S
GR
GS
0.873 GC
1 LJ
0.5 LW
N
334.6 351 M
334.6 39 L
S
GR
GS
0.873 GC
1 LJ
0.5 LW
N
420.8 351 M
420.8 39 L
S
GR
GS
0.873 GC
1 LJ
0.5 LW
N
507 351 M
507 39 L
S
GR
GS
0.873 GC
1 LJ
0.5 LW
N
507 351 M
76 351 L
S
GR
GS
0.873 GC
1 LJ
0.5 LW
N
507 288.6 M
76 288.6 L
S
GR
GS
0.873 GC
1 LJ
0.5 LW
N
507 226.2 M
76 226.2 L
S
GR
GS
0.873 GC
1 LJ
0.5 LW
N
507 163.8 M
76 163.8 L
S
GR
GS
0.873 GC
1 LJ
0.5 LW
N
507 101.4 M
76 101.4 L
S
GR
GS
0.873 GC
1 LJ
0.5 LW
N
507 39 M
76 39 L
S
GR
GS
0.149 GC
2 setlinecap
1 LJ
0.5 LW
N
76 351 M
507 351 L
S
GR
GS
0.149 GC
2 setlinecap
1 LJ
0.5 LW
N
76 39 M
507 39 L
S
GR
GS
0.149 GC
2 setlinecap
1 LJ
0.5 LW
N
76 351 M
76 346.69 L
S
GR
GS
0.149 GC
2 setlinecap
1 LJ
0.5 LW
N
162.2 351 M
162.2 346.69 L
S
GR
GS
0.149 GC
2 setlinecap
1 LJ
0.5 LW
N
248.4 351 M
248.4 346.69 L
S
GR
GS
0.149 GC
2 setlinecap
1 LJ
0.5 LW
N
334.6 351 M
334.6 346.69 L
S
GR
GS
0.149 GC
2 setlinecap
1 LJ
0.5 LW
N
420.8 351 M
420.8 346.69 L
S
GR
GS
0.149 GC
2 setlinecap
1 LJ
0.5 LW
N
507 351 M
507 346.69 L
S
GR
GS
0.149 GC
2 setlinecap
1 LJ
0.5 LW
N
76 39 M
76 43.31 L
S
GR
GS
0.149 GC
2 setlinecap
1 LJ
0.5 LW
N
162.2 39 M
162.2 43.31 L
S
GR
GS
0.149 GC
2 setlinecap
1 LJ
0.5 LW
N
248.4 39 M
248.4 43.31 L
S
GR
GS
0.149 GC
2 setlinecap
1 LJ
0.5 LW
N
334.6 39 M
334.6 43.31 L
S
GR
GS
0.149 GC
2 setlinecap
1 LJ
0.5 LW
N
420.8 39 M
420.8 43.31 L
S
GR
GS
0.149 GC
2 setlinecap
1 LJ
0.5 LW
N
507 39 M
507 43.31 L
S
GR
GS
[1 0 0 1 76 357.79999] CT
0.149 GC
/Helvetica 24 F
GS
[1 0 0 1 0 0] CT
-7 23 moveto 
1 -1 scale
(0) t 
GR
GR
GS
[1 0 0 1 162.2 357.79999] CT
0.149 GC
/Helvetica 24 F
GS
[1 0 0 1 0 0] CT
-17 23 moveto 
1 -1 scale
(0.2) t 
GR
GR
GS
[1 0 0 1 248.40001 357.79999] CT
0.149 GC
/Helvetica 24 F
GS
[1 0 0 1 0 0] CT
-17 23 moveto 
1 -1 scale
(0.4) t 
GR
GR
GS
[1 0 0 1 334.60001 357.79999] CT
0.149 GC
/Helvetica 24 F
GS
[1 0 0 1 0 0] CT
-17 23 moveto 
1 -1 scale
(0.6) t 
GR
GR
GS
[1 0 0 1 420.80002 357.79999] CT
0.149 GC
/Helvetica 24 F
GS
[1 0 0 1 0 0] CT
-17 23 moveto 
1 -1 scale
(0.8) t 
GR
GR
GS
[1 0 0 1 507 357.79999] CT
0.149 GC
/Helvetica 24 F
GS
[1 0 0 1 0 0] CT
-7 23 moveto 
1 -1 scale
(1) t 
GR
GR
GS
[1 0 0 1 291.50021 387.79999] CT
0.149 GC
/Helvetica 26.4 F
GS
[1 0 0 1 0 0] CT
-112.5 26 moveto 
1 -1 scale
(False Positive Rate) t 
GR
GR
GS
0.149 GC
2 setlinecap
1 LJ
0.5 LW
N
76 351 M
76 39 L
S
GR
GS
0.149 GC
2 setlinecap
1 LJ
0.5 LW
N
507 351 M
507 39 L
S
GR
GS
0.149 GC
2 setlinecap
1 LJ
0.5 LW
N
76 351 M
80.31 351 L
S
GR
GS
0.149 GC
2 setlinecap
1 LJ
0.5 LW
N
76 288.6 M
80.31 288.6 L
S
GR
GS
0.149 GC
2 setlinecap
1 LJ
0.5 LW
N
76 226.2 M
80.31 226.2 L
S
GR
GS
0.149 GC
2 setlinecap
1 LJ
0.5 LW
N
76 163.8 M
80.31 163.8 L
S
GR
GS
0.149 GC
2 setlinecap
1 LJ
0.5 LW
N
76 101.4 M
80.31 101.4 L
S
GR
GS
0.149 GC
2 setlinecap
1 LJ
0.5 LW
N
76 39 M
80.31 39 L
S
GR
GS
0.149 GC
2 setlinecap
1 LJ
0.5 LW
N
507 351 M
502.69 351 L
S
GR
GS
0.149 GC
2 setlinecap
1 LJ
0.5 LW
N
507 288.6 M
502.69 288.6 L
S
GR
GS
0.149 GC
2 setlinecap
1 LJ
0.5 LW
N
507 226.2 M
502.69 226.2 L
S
GR
GS
0.149 GC
2 setlinecap
1 LJ
0.5 LW
N
507 163.8 M
502.69 163.8 L
S
GR
GS
0.149 GC
2 setlinecap
1 LJ
0.5 LW
N
507 101.4 M
502.69 101.4 L
S
GR
GS
0.149 GC
2 setlinecap
1 LJ
0.5 LW
N
507 39 M
502.69 39 L
S
GR
GS
[1 0 0 1 69.2 351] CT
0.149 GC
/Helvetica 24 F
GS
[1 0 0 1 0 0] CT
-14 8.5 moveto 
1 -1 scale
(0) t 
GR
GR
GS
[1 0 0 1 69.2 288.60001] CT
0.149 GC
/Helvetica 24 F
GS
[1 0 0 1 0 0] CT
-34 8.5 moveto 
1 -1 scale
(0.2) t 
GR
GR
GS
[1 0 0 1 69.2 226.2] CT
0.149 GC
/Helvetica 24 F
GS
[1 0 0 1 0 0] CT
-34 8.5 moveto 
1 -1 scale
(0.4) t 
GR
GR
GS
[1 0 0 1 69.2 163.79999] CT
0.149 GC
/Helvetica 24 F
GS
[1 0 0 1 0 0] CT
-34 8.5 moveto 
1 -1 scale
(0.6) t 
GR
GR
GS
[1 0 0 1 69.2 101.39999] CT
0.149 GC
/Helvetica 24 F
GS
[1 0 0 1 0 0] CT
-34 8.5 moveto 
1 -1 scale
(0.8) t 
GR
GR
GS
[1 0 0 1 69.2 39] CT
0.149 GC
/Helvetica 24 F
GS
[1 0 0 1 0 0] CT
-14 8.5 moveto 
1 -1 scale
(1) t 
GR
GR
GS
[0 -1 1 0 32.2 194.99985] CT
0.149 GC
/Helvetica 26.4 F
GS
[1 0 0 1 0 0] CT
-108 -6 moveto 
1 -1 scale
(True Positive Rate) t 
GR
GR
GS
[1 0 0 1 291.50027 32.40001] CT
/Helvetica-Bold 26.4 F
GS
[1 0 0 1 0 0] CT
-45 -6 moveto 
1 -1 scale
(OSIRIS) t 
GR
GR
GS
0 0 1 RC
1 LJ
3 LW
N
76 348.17 M
76 348.17 L
76 348.17 L
76 348.17 L
76 347.463 L
76 347.463 L
76 347.463 L
76 347.463 L
76 347.463 L
76 347.463 L
76 347.463 L
76 347.463 L
76 347.463 L
76 347.463 L
76 347.463 L
76 347.463 L
76 347.463 L
76 347.463 L
76 347.463 L
76 347.463 L
76 347.463 L
76 347.463 L
76 347.463 L
76 347.463 L
76 347.463 L
76 347.463 L
76 347.463 L
76 347.463 L
76 347.463 L
76 347.463 L
76 347.463 L
76 347.463 L
76 347.463 L
76 347.463 L
76 347.463 L
76 347.463 L
76 347.463 L
76 347.463 L
76 347.463 L
76 347.463 L
76 347.463 L
76 347.463 L
76 347.463 L
76 347.463 L
76 347.463 L
76 347.463 L
76 347.463 L
76 347.463 L
76 347.463 L
76 347.463 L
76 347.463 L
76 347.463 L
76 347.463 L
76 347.463 L
76 347.463 L
76 347.463 L
76 347.463 L
76 347.463 L
76 347.463 L
76 347.463 L
76 347.463 L
76 346.755 L
76 346.755 L
76 346.755 L
76 346.755 L
76 346.755 L
76 346.048 L
76 346.048 L
76 346.048 L
76 346.048 L
76 346.048 L
76 346.048 L
76 346.048 L
76 346.048 L
76 346.048 L
76 346.048 L
76 346.048 L
76 346.048 L
76 346.048 L
76 346.048 L
76 346.048 L
76 346.048 L
76 346.048 L
76 346.048 L
76 346.048 L
76 346.048 L
76 346.048 L
76 346.048 L
76 346.048 L
76 346.048 L
76 346.048 L
76 346.048 L
76 346.048 L
76 346.048 L
76 346.048 L
76 346.048 L
76 346.048 L
76 346.048 L
76 346.048 L
76 346.048 L
76 346.048 L
76 346.048 L
76 346.048 L
76 346.048 L
76 346.048 L
76 346.048 L
76 346.048 L
76 346.048 L
76 346.048 L
76 346.048 L
76 346.048 L
76 346.048 L
76 346.048 L
76 346.048 L
76 346.048 L
76 346.048 L
76 346.048 L
76 346.048 L
76 346.048 L
76 346.048 L
76 346.048 L
76 346.048 L
76 346.048 L
76 346.048 L
76 346.048 L
76 346.048 L
76 346.048 L
76 346.048 L
76 346.048 L
76 346.048 L
76 346.048 L
76 346.048 L
76 346.048 L
76 346.048 L
76 346.048 L
76 346.048 L
76 346.048 L
76 346.048 L
76 346.048 L
76 346.048 L
76 346.048 L
76 346.048 L
76 346.048 L
76 346.048 L
76 346.048 L
76 346.048 L
76 346.048 L
76 346.048 L
76 346.048 L
76 346.048 L
76 346.048 L
76 346.048 L
76 346.048 L
76 346.048 L
76 346.048 L
76 346.048 L
76 346.048 L
76 346.048 L
76 346.048 L
76 346.048 L
76 346.048 L
76 346.048 L
76 346.048 L
76 346.048 L
76 346.048 L
76 346.048 L
76 346.048 L
76 346.048 L
76 346.048 L
76 346.048 L
76 346.048 L
76 346.048 L
76 346.048 L
76 346.048 L
76 346.048 L
76 346.048 L
76 346.048 L
76 346.048 L
76 346.048 L
76 346.048 L
76 346.048 L
76 345.34 L
76 345.34 L
76 345.34 L
76 345.34 L
76 345.34 L
76 345.34 L
76 345.34 L
76 345.34 L
76 345.34 L
76 345.34 L
76 345.34 L
76 344.633 L
76 344.633 L
76 344.633 L
76 344.633 L
76 344.633 L
76 344.633 L
76 344.633 L
76 344.633 L
76 344.633 L
76 344.633 L
76 344.633 L
76 344.633 L
76 343.925 L
76 343.218 L
76 343.218 L
76 343.218 L
76 343.218 L
76 343.218 L
76 343.218 L
76 343.218 L
76 343.218 L
76 343.218 L
76 343.218 L
76 343.218 L
76 343.218 L
76 343.218 L
76 343.218 L
76 342.51 L
76 342.51 L
76 342.51 L
76 341.803 L
76 341.803 L
76 341.803 L
76 341.095 L
76 341.095 L
76 341.095 L
76 341.095 L
76 340.388 L
76 340.388 L
76 339.68 L
76 339.68 L
76 339.68 L
76 339.68 L
76 339.68 L
76 339.68 L
76 338.973 L
76 338.973 L
76 338.265 L
76 338.265 L
76 338.265 L
76 337.558 L
76 337.558 L
76 337.558 L
76 337.558 L
76 337.558 L
76 336.85 L
76 336.85 L
76 336.85 L
76 336.85 L
76 335.435 L
76 334.02 L
76 332.605 L
76 331.898 L
76 331.19 L
76 330.483 L
76 330.483 L
76 330.483 L
76 329.776 L
76 329.776 L
76 328.361 L
76 327.653 L
76 326.238 L
76 326.238 L
76 324.823 L
76 323.408 L
76 321.286 L
76 321.286 L
76 320.578 L
76 319.871 L
76 317.748 L
76 317.748 L
76 317.041 L
76 315.626 L
76 314.918 L
76 314.918 L
76 314.918 L
76 313.503 L
76 312.088 L
76 312.088 L
76 312.088 L
76 311.381 L
76 309.259 L
76 308.551 L
76 307.844 L
76 304.306 L
76 303.599 L
76 302.891 L
76 301.476 L
76 300.769 L
76 300.061 L
76 297.231 L
76 297.231 L
76 296.524 L
76 295.816 L
76 295.816 L
76 295.816 L
76 295.109 L
76 295.109 L
76 295.109 L
76 294.401 L
76 293.694 L
76 293.694 L
76 293.694 L
76 293.694 L
76 293.694 L
76 292.986 L
76 292.986 L
76 291.571 L
76 290.864 L
76 290.864 L
76 290.864 L
76 290.156 L
76 290.156 L
76 289.449 L
76 288.741 L
76 288.034 L
76 285.912 L
76 285.912 L
76 285.204 L
76 284.497 L
76 284.497 L
76 283.082 L
76 282.374 L
76 281.667 L
76 279.544 L
76 278.837 L
76 278.837 L
76 278.129 L
76 276.714 L
76 276.007 L
76 276.007 L
76 276.007 L
76 274.592 L
76 274.592 L
76 273.884 L
76 271.762 L
76 271.762 L
76 271.762 L
76 271.054 L
76 269.639 L
76 268.224 L
76 266.81 L
76 266.81 L
76 263.98 L
76 263.272 L
76 263.272 L
76 262.565 L
76 261.857 L
76 259.735 L
76 257.612 L
76 257.612 L
76 256.905 L
76 253.367 L
76 251.952 L
76 250.537 L
76 249.83 L
76 246.293 L
76 244.878 L
76 244.17 L
76 240.633 L
76 239.218 L
76 238.51 L
76 237.803 L
76 236.388 L
76 235.68 L
76 233.558 L
76 232.85 L
76 232.143 L
76 232.143 L
76 230.728 L
76 229.313 L
76 229.313 L
76 228.605 L
76 227.898 L
76 226.483 L
76 226.483 L
76 225.776 L
76 224.361 L
76 222.238 L
76 220.116 L
76 220.116 L
76 219.408 L
76 219.408 L
76 218.701 L
76 217.286 L
76 214.456 L
76 213.748 L
76 213.748 L
76 213.041 L
76 211.626 L
76 210.918 L
76 209.503 L
76 208.796 L
76 208.796 L
76 207.381 L
76 206.673 L
76 206.673 L
76 206.673 L
76 206.673 L
76 205.259 L
76 205.259 L
76 205.259 L
76 203.844 L
76 203.136 L
76 202.429 L
76 201.721 L
76 200.306 L
76 199.599 L
76 198.891 L
76 196.061 L
76 195.354 L
76 194.646 L
76 193.231 L
76 192.524 L
76 191.816 L
76 191.816 L
76 191.109 L
76 189.694 L
76 189.694 L
76 189.694 L
76 189.694 L
76 188.279 L
76 187.571 L
76 186.864 L
76 185.449 L
76 184.741 L
76 184.741 L
76 184.034 L
76 182.619 L
76 182.619 L
76 181.912 L
76 181.204 L
76 181.204 L
76 179.789 L
76 179.789 L
76 179.082 L
76 177.667 L
76 176.959 L
76 175.544 L
76 175.544 L
76 174.837 L
76 173.422 L
76 172.714 L
76 172.007 L
76 171.299 L
76 171.299 L
76 170.592 L
76 170.592 L
76 169.884 L
76 169.177 L
76 167.762 L
76 167.762 L
76 167.762 L
76 167.054 L
76 165.639 L
76 165.639 L
76 165.639 L
76 165.639 L
76 165.639 L
76 164.932 L
76 164.225 L
76 164.225 L
76 164.225 L
76 162.102 L
76 162.102 L
76 160.687 L
76 159.272 L
76 157.15 L
76 155.027 L
76 154.32 L
76 154.32 L
76 154.32 L
76 153.612 L
76 152.197 L
76 150.782 L
76 150.782 L
76 149.367 L
76 149.367 L
76 148.66 L
76 147.952 L
76 147.245 L
76 146.537 L
76 145.83 L
76 145.122 L
76 144.415 L
76 143.707 L
76 143.707 L
76 142.293 L
76 142.293 L
76 140.878 L
76 140.878 L
76 139.463 L
76 138.755 L
76 136.633 L
76 136.633 L
76 136.633 L
76 136.633 L
76 136.633 L
76 136.633 L
76 136.633 L
76 136.633 L
76 135.925 L
76 134.51 L
76 134.51 L
76 134.51 L
76 133.803 L
76 133.803 L
76 133.803 L
76 133.095 L
76 133.095 L
76 132.388 L
76 132.388 L
76 132.388 L
76 131.68 L
76 131.68 L
76 131.68 L
76 131.68 L
76 130.973 L
76 130.973 L
76 129.558 L
76 128.143 L
76 127.435 L
76 127.435 L
76 127.435 L
76 126.728 L
76 126.728 L
76 126.728 L
76 126.02 L
76 126.02 L
76 126.02 L
76 125.313 L
76 124.605 L
76 124.605 L
76 124.605 L
76 124.605 L
76 124.605 L
76 123.898 L
76 123.898 L
76 123.19 L
76 123.19 L
76 123.19 L
76 122.483 L
76 121.776 L
76 121.776 L
76 121.776 L
76 121.068 L
76 120.361 L
76 120.361 L
76 119.653 L
76 118.946 L
76 118.238 L
76 118.238 L
76 118.238 L
76 118.238 L
76 118.238 L
76 118.238 L
76 118.238 L
76 118.238 L
76 118.238 L
76 118.238 L
76 118.238 L
76 117.531 L
76 116.823 L
76 116.116 L
76 116.116 L
76 115.408 L
76 115.408 L
76 115.408 L
76 115.408 L
76 115.408 L
76 115.408 L
76 114.701 L
76 114.701 L
76 114.701 L
76 113.993 L
76 113.286 L
76 113.286 L
76 113.286 L
76 112.578 L
76 111.871 L
76 111.871 L
76 111.871 L
76 111.163 L
76 111.163 L
76 110.456 L
76 110.456 L
76 110.456 L
76 110.456 L
76 110.456 L
76 110.456 L
76 110.456 L
76 110.456 L
76 110.456 L
76 110.456 L
76 110.456 L
76 110.456 L
76 110.456 L
76 110.456 L
76 110.456 L
76 110.456 L
76 110.456 L
76 110.456 L
76 109.041 L
76 107.626 L
76 107.626 L
76 107.626 L
76 106.211 L
76 105.503 L
76 105.503 L
76 105.503 L
76 105.503 L
76 105.503 L
76 105.503 L
76 104.796 L
76 104.796 L
76 104.796 L
76 104.796 L
76 104.796 L
76 104.088 L
76 104.088 L
76 104.088 L
76 104.088 L
76 104.088 L
76 103.381 L
76 103.381 L
76 102.673 L
76 102.673 L
76 101.966 L
76 99.844 L
76 99.844 L
76 99.136 L
76.012 99.136 L
76.012 98.429 L
76.012 98.429 L
76.012 97.721 L
76.012 97.721 L
76.012 97.721 L
76.012 97.721 L
76.012 97.014 L
76.012 97.014 L
76.025 97.014 L
76.025 97.014 L
76.025 95.599 L
76.025 95.599 L
76.037 95.599 L
76.037 95.599 L
76.037 95.599 L
76.037 95.599 L
76.05 95.599 L
76.062 94.891 L
76.087 94.891 L
76.099 94.891 L
76.124 94.184 L
76.124 94.184 L
76.124 94.184 L
76.124 94.184 L
76.124 94.184 L
76.124 94.184 L
76.124 94.184 L
76.124 94.184 L
76.124 94.184 L
76.124 94.184 L
76.124 93.476 L
76.124 93.476 L
76.124 93.476 L
76.124 93.476 L
76.124 93.476 L
76.124 93.476 L
76.124 93.476 L
76.136 93.476 L
76.149 93.476 L
76.161 93.476 L
76.173 93.476 L
76.173 92.769 L
76.186 92.061 L
76.223 91.354 L
76.235 91.354 L
76.322 91.354 L
76.359 90.646 L
76.359 90.646 L
76.396 90.646 L
76.446 90.646 L
76.446 90.646 L
76.458 90.646 L
76.458 90.646 L
76.483 90.646 L
76.557 90.646 L
76.582 89.939 L
76.619 89.231 L
76.669 89.231 L
76.681 89.231 L
76.755 89.231 L
76.817 89.231 L
76.842 88.524 L
76.892 88.524 L
76.978 88.524 L
77.04 87.816 L
77.065 87.109 L
77.102 87.109 L
77.164 87.109 L
77.201 87.109 L
77.251 86.401 L
77.288 86.401 L
77.325 86.401 L
77.461 85.694 L
77.61 84.279 L
77.672 84.279 L
77.734 84.279 L
77.919 84.279 L
78.006 84.279 L
78.18 84.279 L
78.291 84.279 L
78.501 84.279 L
78.687 83.571 L
78.873 82.864 L
79.084 82.864 L
79.331 82.864 L
79.542 82.864 L
79.789 82.864 L
80.025 82.156 L
80.21 82.156 L
80.483 82.156 L
80.706 82.156 L
80.941 81.449 L
81.226 81.449 L
81.56 81.449 L
81.907 81.449 L
82.415 81.449 L
82.7 81.449 L
83.133 81.449 L
83.591 81.449 L
83.987 81.449 L
84.532 81.449 L
85.09 81.449 L
85.573 81.449 L
86.142 81.449 L
86.774 81.449 L
87.442 80.742 L
88.025 80.034 L
88.631 80.034 L
89.387 80.034 L
90.13 80.034 L
90.86 79.327 L
91.826 79.327 L
92.718 78.619 L
93.597 78.619 L
94.377 77.912 L
95.393 77.912 L
96.383 76.497 L
97.387 76.497 L
98.551 76.497 L
99.566 76.497 L
100.718 76.497 L
102.018 76.497 L
103.331 76.497 L
104.619 76.497 L
106.043 76.497 L
107.442 76.497 L
109.002 75.789 L
110.662 75.082 L
112.334 75.082 L
114.265 74.374 L
116.086 73.667 L
117.931 73.667 L
119.603 72.959 L
121.733 72.959 L
123.355 72.252 L
125.25 72.252 L
127.318 72.252 L
129.782 72.252 L
132.048 71.544 L
134.203 71.544 L
136.655 70.837 L
139.082 70.837 L
141.72 70.837 L
143.862 70.837 L
146.958 70.837 L
149.683 70.837 L
152.556 70.837 L
155.119 70.837 L
158.079 70.837 L
161.162 70.129 L
164.32 70.129 L
167.664 70.129 L
170.512 70.129 L
173.769 70.129 L
177.174 69.422 L
180.543 69.422 L
184.134 68.714 L
188.233 68.714 L
191.837 68.714 L
195.502 68.714 L
198.895 68.714 L
202.647 68.714 L
206.164 68.714 L
210.734 68.714 L
214.783 68.007 L
218.337 68.007 L
222.721 67.299 L
227.093 67.299 L
230.882 67.299 L
235.402 67.299 L
239.167 67.299 L
243.315 67.299 L
247.6 67.299 L
251.6 66.592 L
256.269 66.592 L
260.739 66.592 L
264.702 66.592 L
269.011 65.884 L
273.346 65.177 L
277.432 64.469 L
281.841 64.469 L
286.286 63.762 L
290.881 63.762 L
295.71 63.762 L
300.305 63.762 L
304.131 61.639 L
308.478 61.639 L
312.825 60.932 L
316.775 60.224 L
321.146 60.224 L
325.456 60.224 L
329.815 60.224 L
333.753 58.81 L
337.74 58.81 L
341.951 58.81 L
346.062 58.81 L
349.579 58.81 L
353.814 58.81 L
357.307 58.102 L
361.294 57.395 L
365.121 57.395 L
368.241 56.687 L
371.981 56.687 L
375.684 56.687 L
379.622 55.98 L
383.139 55.98 L
387.238 53.857 L
390.817 53.15 L
394.247 53.15 L
397.392 52.442 L
400.947 52.442 L
404.154 52.442 L
407.485 51.735 L
410.742 51.735 L
413.714 51.735 L
416.971 51.735 L
419.77 51.735 L
422.667 51.027 L
425.268 51.027 L
427.906 50.32 L
430.704 50.32 L
433.107 49.612 L
435.918 49.612 L
438.308 49.612 L
440.723 49.612 L
443.237 49.612 L
445.169 49.612 L
447.422 48.905 L
449.478 48.197 L
451.695 48.197 L
453.936 48.197 L
455.868 48.197 L
457.948 48.197 L
459.781 48.197 L
461.354 48.197 L
462.976 48.197 L
464.4 47.49 L
465.899 47.49 L
467.496 47.49 L
469.391 47.49 L
471.434 47.49 L
472.524 47.49 L
473.589 47.49 L
475.224 47.49 L
476.883 47.49 L
478.419 47.49 L
479.645 46.782 L
480.747 46.075 L
482.171 46.075 L
483.075 46.075 L
484.09 46.075 L
485.106 46.075 L
486.096 46.075 L
487.025 46.075 L
488.065 45.367 L
489.056 45.367 L
490.022 44.66 L
490.951 44.66 L
491.805 44.66 L
492.486 43.952 L
493.403 43.952 L
493.935 43.952 L
494.443 43.245 L
495.186 43.245 L
495.719 43.245 L
496.375 43.245 L
496.932 42.537 L
497.613 42.537 L
498.17 42.537 L
498.666 42.537 L
499.05 42.537 L
499.434 41.83 L
499.743 41.122 L
500.152 41.122 L
500.499 41.122 L
500.808 41.122 L
501.081 41.122 L
501.39 41.122 L
501.601 41.122 L
501.91 41.122 L
502.22 41.122 L
502.468 41.122 L
502.802 41.122 L
503.012 41.122 L
503.223 41.122 L
503.384 41.122 L
503.533 41.122 L
503.793 41.122 L
503.904 41.122 L
504.139 41.122 L
504.362 40.415 L
504.536 40.415 L
504.746 40.415 L
504.82 40.415 L
504.907 40.415 L
504.994 39 L
505.093 39 L
505.204 39 L
505.341 39 L
505.514 39 L
505.613 39 L
505.712 39 L
505.799 39 L
505.848 39 L
505.885 39 L
505.935 39 L
505.985 39 L
506.034 39 L
506.158 39 L
506.207 39 L
506.22 39 L
506.245 39 L
506.307 39 L
506.368 39 L
506.393 39 L
506.455 39 L
506.467 39 L
506.517 39 L
506.579 39 L
506.591 39 L
506.653 39 L
506.666 39 L
506.703 39 L
506.715 39 L
506.765 39 L
506.777 39 L
506.802 39 L
506.814 39 L
506.839 39 L
506.839 39 L
506.839 39 L
506.839 39 L
506.839 39 L
506.851 39 L
506.851 39 L
506.851 39 L
506.864 39 L
506.876 39 L
506.901 39 L
506.901 39 L
506.901 39 L
506.901 39 L
506.901 39 L
506.938 39 L
506.938 39 L
506.938 39 L
506.938 39 L
506.95 39 L
506.95 39 L
506.95 39 L
506.95 39 L
506.95 39 L
506.95 39 L
506.975 39 L
506.975 39 L
506.975 39 L
506.975 39 L
506.975 39 L
506.988 39 L
506.988 39 L
506.988 39 L
506.988 39 L
506.988 39 L
506.988 39 L
506.988 39 L
506.988 39 L
507 39 L
S
GR
GS
1 0 0 RC
1 LJ
3 LW
N
76 350.692 M
76 350.692 L
76 350.692 L
76 350.692 L
76 350.692 L
76 350.692 L
76 350.692 L
76 350.692 L
76 350.384 L
76 350.384 L
76 350.384 L
76 350.384 L
76 350.384 L
76 350.076 L
76 350.076 L
76 349.768 L
76 349.46 L
76 349.46 L
76 349.46 L
76 349.46 L
76 349.46 L
76 349.152 L
76 349.152 L
76 349.152 L
76 349.152 L
76 349.152 L
76 348.844 L
76 348.536 L
76 348.536 L
76 348.228 L
76 347.92 L
76 347.612 L
76 347.612 L
76 347.612 L
76 347.612 L
76 347.612 L
76 347.612 L
76 347.304 L
76 347.304 L
76 347.304 L
76 346.996 L
76 346.688 L
76 346.38 L
76 346.38 L
76 346.072 L
76 345.456 L
76 344.84 L
76 344.224 L
76 343.3 L
76 343.3 L
76 342.376 L
76 342.376 L
76 342.376 L
76 342.068 L
76 341.452 L
76 341.144 L
76 341.144 L
76 340.836 L
76 340.22 L
76 339.912 L
76 339.296 L
76 338.988 L
76 337.756 L
76 337.756 L
76 336.832 L
76 336.524 L
76 336.524 L
76 335.6 L
76 334.984 L
76 334.984 L
76 334.984 L
76 334.676 L
76 334.676 L
76 334.368 L
76 334.06 L
76 333.444 L
76 332.828 L
76 332.828 L
76 332.52 L
76 332.212 L
76 331.904 L
76 330.98 L
76 330.364 L
76 330.056 L
76 330.056 L
76 329.748 L
76 329.44 L
76 329.44 L
76 329.132 L
76 328.208 L
76 327.9 L
76 327.592 L
76 327.592 L
76 326.668 L
76 326.36 L
76 326.052 L
76 325.128 L
76 324.82 L
76 324.512 L
76 324.204 L
76 323.588 L
76 323.28 L
76 322.356 L
76 321.74 L
76 321.74 L
76 321.432 L
76 320.2 L
76 319.892 L
76 318.352 L
76 318.044 L
76 317.736 L
76 317.12 L
76 315.58 L
76 315.272 L
76 314.964 L
76 314.656 L
76 313.732 L
76 313.732 L
76 313.732 L
76 313.732 L
76 313.116 L
76 312.809 L
76 312.809 L
76 311.884 L
76 310.961 L
76 309.729 L
76 309.113 L
76 308.497 L
76 308.189 L
76 307.881 L
76 307.265 L
76 306.033 L
76 305.725 L
76 304.801 L
76 303.877 L
76 303.261 L
76 302.645 L
76 302.645 L
76 302.337 L
76 302.029 L
76 301.413 L
76 300.489 L
76 300.489 L
76 300.489 L
76 298.949 L
76 298.949 L
76 298.025 L
76 295.869 L
76 294.945 L
76 294.945 L
76 294.637 L
76 293.405 L
76 293.405 L
76 293.405 L
76 292.173 L
76 291.557 L
76 291.557 L
76 290.325 L
76 290.017 L
76 289.709 L
76 288.477 L
76 288.169 L
76 287.861 L
76 287.553 L
76 287.245 L
76 286.937 L
76 286.937 L
76 286.321 L
76 285.705 L
76 284.781 L
76 284.781 L
76 283.857 L
76 282.625 L
76 282.625 L
76 281.393 L
76 280.161 L
76 279.545 L
76 278.621 L
76 276.773 L
76 276.157 L
76 276.157 L
76 274.925 L
76 274.001 L
76 273.385 L
76 272.153 L
76 271.845 L
76 271.537 L
76 271.537 L
76 271.537 L
76 271.537 L
76 271.537 L
76 270.921 L
76 270.305 L
76 270.305 L
76 269.997 L
76 269.997 L
76 269.381 L
76 269.381 L
76 269.381 L
76 268.765 L
76 267.841 L
76 267.225 L
76 265.993 L
76 265.069 L
76 265.069 L
76 265.069 L
76 264.453 L
76 264.145 L
76 263.837 L
76 263.529 L
76 263.529 L
76 263.221 L
76 262.913 L
76 262.297 L
76 261.989 L
76 261.681 L
76 260.449 L
76 260.449 L
76 260.449 L
76 259.833 L
76 259.217 L
76 258.909 L
76 257.369 L
76 256.753 L
76 256.445 L
76 255.521 L
76 254.905 L
76 254.289 L
76 253.365 L
76 252.749 L
76 252.441 L
76 251.209 L
76 250.285 L
76 249.977 L
76 248.437 L
76 248.437 L
76 246.589 L
76 245.049 L
76 244.741 L
76 243.817 L
76 242.585 L
76 242.277 L
76 241.353 L
76 239.813 L
76 239.197 L
76 238.581 L
76 237.349 L
76 237.041 L
76 236.425 L
76 235.809 L
76 235.809 L
76 234.27 L
76 233.962 L
76 233.654 L
76 232.73 L
76 232.73 L
76 232.114 L
76 229.958 L
76 229.342 L
76 229.034 L
76 227.802 L
76 226.57 L
76 225.954 L
76 225.954 L
76 225.03 L
76 224.414 L
76 224.106 L
76 223.798 L
76 222.258 L
76 221.334 L
76 220.41 L
76 219.178 L
76 219.178 L
76 218.87 L
76 218.254 L
76 218.254 L
76 217.022 L
76 216.714 L
76 216.098 L
76 214.866 L
76 214.558 L
76 214.558 L
76 214.558 L
76 214.558 L
76 213.634 L
76 213.018 L
76 212.71 L
76 212.402 L
76 211.786 L
76 210.554 L
76 210.554 L
76 209.63 L
76 208.706 L
76 207.166 L
76 206.858 L
76 205.934 L
76 204.086 L
76 203.162 L
76 202.546 L
76 202.238 L
76 201.006 L
76 199.774 L
76 198.542 L
76 197.31 L
76 197.002 L
76 196.386 L
76 195.154 L
76 194.538 L
76 193.614 L
76 192.998 L
76 191.458 L
76 190.226 L
76 190.226 L
76 189.302 L
76 188.994 L
76 187.454 L
76 185.606 L
76 185.606 L
76 185.298 L
76 185.298 L
76 184.066 L
76 183.142 L
76 182.834 L
76 182.526 L
76 181.91 L
76 181.602 L
76 180.678 L
76 180.678 L
76 179.754 L
76 178.83 L
76 177.906 L
76 176.982 L
76 176.674 L
76 176.366 L
76 176.366 L
76 175.134 L
76 175.134 L
76 174.826 L
76 174.21 L
76 172.362 L
76 172.054 L
76 171.13 L
76 170.822 L
76 170.822 L
76 170.206 L
76 169.898 L
76 168.974 L
76 168.358 L
76 168.05 L
76 167.742 L
76 166.51 L
76 166.202 L
76 165.894 L
76 164.662 L
76 164.046 L
76 163.738 L
76 163.122 L
76 162.814 L
76 162.198 L
76 162.198 L
76 161.89 L
76 161.89 L
76 161.89 L
76 161.274 L
76 160.658 L
76 160.658 L
76 160.35 L
76 160.042 L
76 160.042 L
76 159.734 L
76 159.426 L
76 159.118 L
76 159.118 L
76 159.118 L
76 159.118 L
76 159.118 L
76 158.502 L
76 157.886 L
76 157.886 L
76 157.578 L
76 157.578 L
76 157.27 L
76 156.654 L
76 156.346 L
76 155.423 L
76 155.423 L
76 155.115 L
76 155.115 L
76 154.807 L
76 154.191 L
76 153.883 L
76 153.267 L
76 152.651 L
76 152.343 L
76 151.727 L
76 151.727 L
76 151.111 L
76 150.187 L
76 150.187 L
76 149.571 L
76 149.263 L
76 148.647 L
76 148.031 L
76 148.031 L
76 147.107 L
76 146.491 L
76 146.491 L
76 146.491 L
76 145.875 L
76 145.567 L
76 145.259 L
76 144.951 L
76 144.643 L
76 144.335 L
76 144.335 L
76 144.027 L
76 144.027 L
76 143.719 L
76 143.719 L
76 143.103 L
76 142.487 L
76 142.179 L
76 142.179 L
76 141.255 L
76 140.639 L
76 140.023 L
76 139.715 L
76 139.715 L
76 139.715 L
76 139.407 L
76 139.407 L
76 139.099 L
76 138.791 L
76 138.791 L
76 138.483 L
76 138.483 L
76 137.559 L
76 137.559 L
76 136.943 L
76 136.635 L
76 136.327 L
76 136.019 L
76 135.711 L
76 135.711 L
76 135.403 L
76 135.095 L
76 134.479 L
76 134.479 L
76 134.171 L
76 134.171 L
76 134.171 L
76 133.863 L
76 133.555 L
76 132.939 L
76 132.939 L
76 132.323 L
76 132.323 L
76 132.015 L
76 132.015 L
76 131.707 L
76 130.783 L
76 130.783 L
76 130.783 L
76 130.167 L
76 129.551 L
76 128.319 L
76 128.011 L
76 128.011 L
76 128.011 L
76 126.779 L
76 126.471 L
76 125.855 L
76 125.239 L
76 124.931 L
76 124.315 L
76 124.007 L
76 123.699 L
76 123.391 L
76 123.391 L
76 122.775 L
76 122.467 L
76 122.159 L
76 121.235 L
76 121.235 L
76 121.235 L
76 120.927 L
76 120.619 L
76 120.003 L
76 119.695 L
76 119.387 L
76 119.387 L
76 118.771 L
76 118.771 L
76 118.771 L
76 118.463 L
76 118.155 L
76 117.539 L
76 117.539 L
76 117.231 L
76 116.615 L
76 115.999 L
76 115.691 L
76 115.075 L
76 114.767 L
76 114.459 L
76 114.151 L
76 113.227 L
76 112.919 L
76 112.611 L
76 112.611 L
76 111.995 L
76 111.995 L
76 111.379 L
76 110.763 L
76 110.763 L
76 110.147 L
76 108.607 L
76 107.991 L
76 107.683 L
76 107.375 L
76 107.375 L
76 106.759 L
76 105.835 L
76 105.527 L
76 105.527 L
76 105.527 L
76 105.527 L
76 105.219 L
76 104.911 L
76 103.987 L
76 103.987 L
76 103.987 L
76 103.063 L
76 102.755 L
76 102.139 L
76 102.139 L
76 101.831 L
76 101.831 L
76 100.907 L
76 100.599 L
76 100.599 L
76 100.599 L
76 100.599 L
76 99.367 L
76 99.059 L
76 98.751 L
76 98.443 L
76 97.519 L
76 96.903 L
76 96.903 L
76 96.903 L
76 96.903 L
76 96.595 L
76 96.287 L
76 95.979 L
76 95.671 L
76 95.363 L
76 95.055 L
76 94.747 L
76 94.747 L
76 94.131 L
76 93.823 L
76 93.823 L
76 93.823 L
76 93.515 L
76 93.515 L
76 93.207 L
76 93.207 L
76 92.899 L
76 92.283 L
76 92.283 L
76 92.283 L
76 91.975 L
76 91.975 L
76 91.359 L
76 91.359 L
76 91.051 L
76 91.051 L
76 90.435 L
76 90.127 L
76 90.127 L
76 90.127 L
76 90.127 L
76 90.127 L
76 90.127 L
76 89.819 L
76 89.511 L
76 89.511 L
76 89.511 L
76 89.511 L
76 89.511 L
76 89.511 L
76 89.511 L
76 88.587 L
76 88.587 L
76 88.587 L
76 88.279 L
76 88.279 L
76 87.355 L
76 87.047 L
76 86.739 L
76 86.739 L
76 86.431 L
76 86.431 L
76 86.123 L
76 86.123 L
76 86.123 L
76 85.815 L
76 85.507 L
76 85.199 L
76 85.199 L
76 85.199 L
76 85.199 L
76 84.891 L
76 84.891 L
76 84.891 L
76 84.891 L
76 84.583 L
76 83.967 L
76 83.967 L
76 83.967 L
76 83.967 L
76 83.351 L
76 83.351 L
76 82.427 L
76 82.119 L
76 81.195 L
76 81.195 L
76 80.887 L
76 80.887 L
76 80.887 L
76 80.887 L
76 80.271 L
76 79.655 L
76 79.347 L
76 79.347 L
76 79.347 L
76 79.039 L
76 79.039 L
76 78.424 L
76 78.424 L
76 78.424 L
76 78.424 L
76 78.424 L
76 77.808 L
76 77.808 L
76 77.808 L
76 77.808 L
76 77.808 L
76 77.808 L
76 77.808 L
76 77.5 L
76 77.192 L
76 76.884 L
76 76.884 L
76 76.884 L
76 76.576 L
76 76.576 L
76 76.576 L
76 76.576 L
76 76.576 L
76 75.96 L
76 75.96 L
76 75.96 L
76 75.96 L
76 75.652 L
76 75.652 L
76.006 75.652 L
76.006 75.652 L
76.006 75.652 L
76.006 75.344 L
76.006 75.344 L
76.017 75.036 L
76.023 75.036 L
76.029 74.728 L
76.035 74.728 L
76.041 74.728 L
76.046 74.728 L
76.052 74.728 L
76.064 74.728 L
76.069 74.728 L
76.087 74.728 L
76.093 74.728 L
76.098 74.728 L
76.104 74.112 L
76.133 73.804 L
76.168 73.496 L
76.185 73.496 L
76.203 73.496 L
76.237 73.496 L
76.26 73.496 L
76.289 73.496 L
76.33 73.188 L
76.37 73.188 L
76.382 72.88 L
76.44 72.264 L
76.463 72.264 L
76.515 71.956 L
76.556 71.34 L
76.596 71.34 L
76.637 71.032 L
76.683 71.032 L
76.712 71.032 L
76.782 71.032 L
76.839 70.416 L
76.909 69.8 L
76.984 69.492 L
77.048 69.492 L
77.077 69.184 L
77.175 69.184 L
77.262 68.876 L
77.337 68.26 L
77.424 67.952 L
77.499 67.952 L
77.586 67.644 L
77.65 67.336 L
77.737 67.336 L
77.835 67.028 L
77.991 66.412 L
78.107 65.796 L
78.182 65.796 L
78.269 65.488 L
78.402 65.488 L
78.57 65.488 L
78.727 65.18 L
78.86 64.564 L
79.022 63.948 L
79.172 63.948 L
79.305 63.948 L
79.468 63.948 L
79.647 63.64 L
79.879 63.64 L
80.006 63.332 L
80.307 63.024 L
80.591 62.1 L
80.828 62.1 L
81.129 61.484 L
81.401 61.484 L
81.69 61.176 L
81.986 60.252 L
82.426 59.944 L
82.785 59.944 L
83.12 59.944 L
83.439 59.636 L
83.838 59.636 L
84.151 59.636 L
84.568 59.328 L
85.158 59.328 L
85.673 59.328 L
86.05 59.02 L
86.628 59.02 L
87.236 59.02 L
87.641 59.02 L
88.249 59.02 L
88.903 58.712 L
89.453 58.712 L
90.009 58.404 L
90.646 58.096 L
91.335 57.788 L
91.908 57.788 L
92.857 57.788 L
93.83 57.788 L
94.721 57.48 L
95.474 57.172 L
96.388 57.172 L
97.396 57.172 L
98.264 56.864 L
99.41 56.864 L
100.209 56.556 L
101.402 56.556 L
102.357 56.248 L
103.497 55.94 L
104.84 55.94 L
105.876 55.632 L
107.098 55.324 L
108.493 55.324 L
109.772 55.324 L
111.092 55.016 L
112.736 55.016 L
114.375 55.016 L
115.787 54.708 L
117.414 54.4 L
119.278 54.092 L
120.713 54.092 L
122.676 54.092 L
124.783 53.784 L
126.769 53.476 L
128.557 53.168 L
130.624 53.168 L
132.691 52.86 L
134.346 52.86 L
136.477 52.86 L
139.041 52.86 L
141.304 52.552 L
143.307 52.552 L
145.553 52.552 L
148.014 52.552 L
150.266 52.244 L
152.952 51.936 L
155.539 51.936 L
158.411 51.936 L
160.935 51.628 L
163.597 51.628 L
166.683 51.628 L
169.161 51.32 L
172.24 51.32 L
175.413 51.012 L
178.376 50.704 L
180.941 50.396 L
183.928 49.78 L
187.708 48.856 L
190.579 48.856 L
193.792 48.856 L
197.289 48.856 L
200.16 48.548 L
203.743 48.24 L
207.506 48.24 L
211.026 48.24 L
214.447 47.932 L
218.459 47.932 L
222.355 47.008 L
225.77 47.008 L
229.938 46.7 L
233.689 46.392 L
237.464 46.084 L
241.012 46.084 L
244.972 46.084 L
249.018 46.084 L
252.932 46.084 L
256.712 46.084 L
261.441 45.468 L
265.476 45.468 L
269.297 45.468 L
273.581 45.468 L
277.905 45.16 L
281.934 45.16 L
286.218 45.16 L
290.907 44.544 L
295.202 44.544 L
298.791 44.544 L
302.82 44.544 L
307.422 44.544 L
310.757 44.544 L
315.023 44.236 L
319.672 43.928 L
324.256 43.928 L
327.909 43.928 L
331.875 43.928 L
336.564 43.928 L
340.182 43.928 L
344.06 43.928 L
348.581 43.928 L
352.529 43.62 L
356.443 43.62 L
360.738 43.62 L
365.126 43.004 L
368.321 43.004 L
372.119 43.004 L
376.872 43.004 L
380.108 43.004 L
383.558 43.004 L
387.454 43.004 L
391.355 43.004 L
394.146 43.004 L
398.053 43.004 L
402.111 43.004 L
405.22 42.696 L
408.352 42.696 L
412.039 42.696 L
415.061 42.696 L
417.938 42.696 L
421.203 42.696 L
424.624 42.696 L
427.223 42.696 L
429.973 42.388 L
433.226 42.388 L
436.248 42.08 L
438.176 42.08 L
440.827 42.08 L
444.057 42.08 L
446.188 42.08 L
448.752 42.08 L
451.49 42.08 L
453.91 41.772 L
455.682 41.464 L
457.742 41.464 L
460.342 41.156 L
462.015 41.156 L
463.89 41.156 L
466.154 41.156 L
467.792 41.156 L
469.187 40.848 L
471.045 40.54 L
473.245 40.54 L
474.246 40.54 L
475.746 40.54 L
477.535 40.54 L
478.82 40.232 L
479.96 40.232 L
481.413 40.232 L
483.219 39.924 L
483.624 39.924 L
484.962 39.924 L
486.71 39.924 L
487.289 39.924 L
488.418 39.924 L
489.575 39.924 L
490.907 39.616 L
490.907 39.616 L
492.14 39.616 L
493.385 39.616 L
493.518 39.616 L
494.629 39.616 L
495.567 39.616 L
495.723 39.616 L
496.482 39.616 L
497.182 39.616 L
497.639 39.616 L
497.952 39.308 L
498.623 39.308 L
499.035 39.308 L
499.33 39.308 L
499.845 39.308 L
500.308 39.308 L
500.8 39.308 L
501.147 39 L
501.553 39 L
501.917 39 L
502.184 39 L
502.502 39 L
502.815 39 L
503.064 39 L
503.318 39 L
503.585 39 L
503.741 39 L
503.955 39 L
504.106 39 L
504.337 39 L
504.447 39 L
504.655 39 L
504.829 39 L
504.951 39 L
505.09 39 L
505.281 39 L
505.362 39 L
505.46 39 L
505.605 39 L
505.709 39 L
505.813 39 L
505.917 39 L
505.958 39 L
506.016 39 L
506.109 39 L
506.149 39 L
506.201 39 L
506.242 39 L
506.305 39 L
506.357 39 L
506.438 39 L
506.491 39 L
506.52 39 L
506.572 39 L
506.589 39 L
506.606 39 L
506.641 39 L
506.658 39 L
506.682 39 L
506.705 39 L
506.728 39 L
506.728 39 L
506.751 39 L
506.768 39 L
506.774 39 L
506.786 39 L
506.792 39 L
506.792 39 L
506.809 39 L
506.809 39 L
506.826 39 L
506.849 39 L
506.849 39 L
506.855 39 L
506.873 39 L
506.878 39 L
506.896 39 L
506.902 39 L
506.913 39 L
506.913 39 L
506.919 39 L
506.931 39 L
506.931 39 L
506.954 39 L
506.959 39 L
506.971 39 L
506.977 39 L
506.983 39 L
506.988 39 L
506.988 39 L
506.988 39 L
506.988 39 L
507 39 L
S
GR
GS
[12 12] 0 setdash
2 LJ
3 LW
N
76 350.792 M
76 350.792 L
76 350.792 L
76 350.792 L
76 350.792 L
76 350.792 L
76 350.792 L
76 350.792 L
76 350.792 L
76 350.792 L
76 350.792 L
76 350.792 L
76 350.792 L
76 350.792 L
76 350.792 L
76 350.792 L
76 350.792 L
76 350.792 L
76 350.792 L
76 350.792 L
76 350.792 L
76 350.792 L
76 350.792 L
76 350.792 L
76 350.792 L
76 350.792 L
76 350.585 L
76 350.585 L
76 350.585 L
76 350.585 L
76 350.585 L
76 350.585 L
76 350.585 L
76 350.585 L
76 350.585 L
76 350.585 L
76 350.585 L
76 350.585 L
76 350.585 L
76 350.585 L
76 350.377 L
76 350.377 L
76 350.169 L
76 350.169 L
76 350.169 L
76 350.169 L
76 350.169 L
76 350.169 L
76 350.169 L
76 350.169 L
76 350.169 L
76 350.169 L
76 350.169 L
76 350.169 L
76 350.169 L
76 350.169 L
76 350.169 L
76 350.169 L
76 350.169 L
76 350.169 L
76 350.169 L
76 350.169 L
76 350.169 L
76 350.169 L
76 350.169 L
76 350.169 L
76 350.169 L
76 350.169 L
76 350.169 L
76 350.169 L
76 350.169 L
76 350.169 L
76 350.169 L
76 350.169 L
76 350.169 L
76 349.961 L
76 349.961 L
76 349.754 L
76 349.754 L
76 349.754 L
76 349.754 L
76 349.754 L
76 349.754 L
76 349.546 L
76 349.546 L
76 349.13 L
76 349.13 L
76 349.13 L
76 349.13 L
76 349.13 L
76 348.923 L
76 348.923 L
76 348.923 L
76 348.923 L
76 348.715 L
76 348.715 L
76 348.715 L
76 348.715 L
76 348.715 L
76 348.715 L
76 348.715 L
76 348.507 L
76 348.507 L
76 348.507 L
76 348.507 L
76 348.507 L
76 348.507 L
76 348.507 L
76 348.507 L
76 348.507 L
76 348.507 L
76 348.507 L
76 348.507 L
76 348.507 L
76 348.507 L
76 348.3 L
76 348.3 L
76 348.3 L
76 348.3 L
76 348.3 L
76 348.3 L
76 348.3 L
76 348.3 L
76 348.092 L
76 348.092 L
76 348.092 L
76 348.092 L
76 348.092 L
76 348.092 L
76 348.092 L
76 347.884 L
76 347.676 L
76 347.676 L
76 347.676 L
76 347.676 L
76 347.676 L
76 347.676 L
76 347.676 L
76 347.469 L
76 347.469 L
76 347.469 L
76 347.469 L
76 347.261 L
76 347.261 L
76 347.053 L
76 346.846 L
76 346.846 L
76 346.846 L
76 346.846 L
76 346.846 L
76 346.638 L
76 346.638 L
76 346.638 L
76 346.638 L
76 346.638 L
76 346.638 L
76 346.638 L
76 346.638 L
76 346.638 L
76 346.638 L
76 346.638 L
76 346.638 L
76 346.638 L
76 346.43 L
76 346.222 L
76 346.222 L
76 346.222 L
76 346.222 L
76 346.222 L
76 346.222 L
76 346.222 L
76 346.222 L
76 346.015 L
76 345.807 L
76 345.599 L
76 345.599 L
76 345.391 L
76 345.184 L
76 344.768 L
76 344.561 L
76 344.561 L
76 344.353 L
76 344.353 L
76 344.353 L
76 344.145 L
76 344.145 L
76 343.937 L
76 343.937 L
76 343.73 L
76 343.522 L
76 343.522 L
76 343.522 L
76 343.522 L
76 343.522 L
76 343.522 L
76 343.522 L
76 342.899 L
76 342.691 L
76 342.483 L
76 342.276 L
76 342.068 L
76 341.445 L
76 341.445 L
76 341.237 L
76 341.237 L
76 341.029 L
76 341.029 L
76 340.822 L
76 340.822 L
76 340.406 L
76 340.406 L
76 340.406 L
76 339.991 L
76 339.991 L
76 339.783 L
76 339.16 L
76 339.16 L
76 339.16 L
76 339.16 L
76 338.952 L
76 338.952 L
76 338.744 L
76 338.537 L
76 338.329 L
76 338.329 L
76 338.329 L
76 338.329 L
76 337.706 L
76 337.706 L
76 337.706 L
76 337.706 L
76 337.498 L
76 337.498 L
76 337.498 L
76 337.29 L
76 337.29 L
76 337.083 L
76 336.875 L
76 336.875 L
76 336.875 L
76 336.875 L
76 336.667 L
76 336.252 L
76 336.252 L
76 336.252 L
76 336.252 L
76 336.252 L
76 336.252 L
76 336.252 L
76 335.836 L
76 335.629 L
76 335.421 L
76 335.213 L
76 335.005 L
76 334.798 L
76 334.59 L
76 334.382 L
76 334.174 L
76 333.967 L
76 333.967 L
76 333.551 L
76 333.136 L
76 332.928 L
76 332.928 L
76 332.513 L
76 332.513 L
76 331.889 L
76 331.682 L
76 330.643 L
76 330.435 L
76 330.228 L
76 329.812 L
76 329.397 L
76 329.397 L
76 328.981 L
76 328.566 L
76 328.566 L
76 328.15 L
76 327.943 L
76 327.735 L
76 327.32 L
76 327.32 L
76 326.696 L
76 325.866 L
76 325.242 L
76 324.411 L
76 323.996 L
76 323.581 L
76 322.957 L
76 322.542 L
76 321.711 L
76 321.711 L
76 321.503 L
76 321.296 L
76 321.088 L
76 320.465 L
76 320.465 L
76 320.465 L
76 320.257 L
76 319.842 L
76 319.842 L
76 319.426 L
76 318.803 L
76 318.803 L
76 317.972 L
76 317.141 L
76 316.726 L
76 316.103 L
76 315.272 L
76 314.856 L
76 314.856 L
76 314.856 L
76 314.233 L
76 314.233 L
76 314.025 L
76 313.818 L
76 313.402 L
76 313.402 L
76 312.987 L
76 312.571 L
76 312.156 L
76 312.156 L
76 311.74 L
76 311.325 L
76 311.117 L
76 310.286 L
76 310.286 L
76 309.871 L
76 309.455 L
76 309.04 L
76 308.832 L
76 307.794 L
76 307.586 L
76 307.378 L
76 306.755 L
76 306.34 L
76 305.924 L
76 305.924 L
76 305.509 L
76 305.301 L
76 305.093 L
76 304.47 L
76 304.47 L
76 304.055 L
76 304.055 L
76 303.224 L
76 303.016 L
76 301.977 L
76 301.354 L
76 300.939 L
76 300.731 L
76 300.108 L
76 300.108 L
76 299.692 L
76 299.485 L
76 298.862 L
76 298.446 L
76 297.823 L
76 297.407 L
76 296.992 L
76 295.746 L
76 295.538 L
76 295.122 L
76 294.499 L
76 294.084 L
76 293.668 L
76 293.461 L
76 292.838 L
76 292.214 L
76 291.591 L
76 290.553 L
76 290.137 L
76 289.514 L
76 289.099 L
76 288.683 L
76 288.06 L
76 287.437 L
76 286.814 L
76 286.19 L
76 285.775 L
76 284.944 L
76 284.529 L
76 284.321 L
76 284.113 L
76 283.49 L
76 283.075 L
76 282.036 L
76 282.036 L
76 281.621 L
76 280.997 L
76 280.166 L
76 279.751 L
76 279.543 L
76 279.336 L
76 279.128 L
76 278.92 L
76 278.505 L
76 278.089 L
76 277.258 L
76 276.635 L
76 275.181 L
76 274.766 L
76 274.35 L
76 273.727 L
76 273.727 L
76 272.065 L
76 271.442 L
76 270.819 L
76 270.403 L
76 269.365 L
76 268.949 L
76 268.949 L
76 268.326 L
76 267.495 L
76 267.288 L
76 266.249 L
76 265.834 L
76 264.795 L
76 264.587 L
76 264.379 L
76 263.964 L
76 263.964 L
76 263.964 L
76 263.341 L
76 262.302 L
76 261.679 L
76.004 260.848 L
76.004 260.017 L
76.004 259.602 L
76.004 259.394 L
76.004 259.186 L
76.004 259.186 L
76.004 258.148 L
76.004 257.94 L
76.004 257.732 L
76.004 257.317 L
76.004 257.317 L
76.004 256.901 L
76.004 256.901 L
76.004 256.694 L
76.004 256.071 L
76.004 255.863 L
76.004 254.824 L
76.004 254.617 L
76.004 253.786 L
76.004 253.162 L
76.004 252.955 L
76.004 252.539 L
76.004 251.916 L
76.004 251.293 L
76.004 251.293 L
76.004 250.878 L
76.004 250.67 L
76.004 249.839 L
76.004 249.216 L
76.004 248.177 L
76.004 247.762 L
76.008 247.554 L
76.013 247.554 L
76.013 247.138 L
76.013 246.308 L
76.017 246.308 L
76.017 246.1 L
76.017 245.684 L
76.017 245.684 L
76.017 244.854 L
76.017 244.438 L
76.021 243.815 L
76.021 243.399 L
76.021 242.361 L
76.025 242.153 L
76.034 241.945 L
76.034 241.115 L
76.034 240.907 L
76.042 240.076 L
76.042 239.66 L
76.042 239.037 L
76.051 238.414 L
76.055 237.999 L
76.059 237.376 L
76.059 236.96 L
76.059 236.545 L
76.063 236.129 L
76.072 235.714 L
76.08 235.091 L
76.08 234.467 L
76.089 234.467 L
76.093 233.844 L
76.097 233.844 L
76.097 233.221 L
76.097 232.806 L
76.114 232.39 L
76.123 231.975 L
76.123 231.767 L
76.123 231.144 L
76.139 230.521 L
76.156 230.105 L
76.178 229.274 L
76.182 229.067 L
76.199 228.236 L
76.203 227.82 L
76.211 227.405 L
76.224 226.782 L
76.228 225.535 L
76.241 225.12 L
76.266 224.912 L
76.287 224.704 L
76.296 224.289 L
76.325 224.081 L
76.355 223.458 L
76.368 222.835 L
76.397 222.004 L
76.423 220.55 L
76.452 219.927 L
76.482 219.511 L
76.511 218.888 L
76.541 218.473 L
76.562 218.057 L
76.604 216.811 L
76.63 216.395 L
76.659 216.188 L
76.719 216.188 L
76.757 215.772 L
76.782 215.357 L
76.828 213.28 L
76.888 212.033 L
76.926 211.41 L
76.968 210.372 L
77.019 209.748 L
77.074 209.333 L
77.12 208.087 L
77.15 207.879 L
77.209 207.671 L
77.238 207.048 L
77.298 206.632 L
77.378 206.217 L
77.458 206.009 L
77.492 205.802 L
77.56 205.386 L
77.606 204.763 L
77.712 203.309 L
77.763 202.27 L
77.868 201.647 L
77.982 200.609 L
78.109 199.778 L
78.151 199.57 L
78.27 198.739 L
78.384 197.908 L
78.489 197.493 L
78.65 196.454 L
78.806 196.039 L
78.929 195.623 L
79.09 194.169 L
79.246 193.546 L
79.402 192.507 L
79.563 192.3 L
79.783 190.638 L
79.914 190.015 L
80.117 190.015 L
80.303 189.184 L
80.468 188.561 L
80.679 187.522 L
80.928 186.276 L
81.097 185.86 L
81.368 184.822 L
81.554 184.614 L
81.837 184.406 L
82.019 183.991 L
82.315 182.952 L
82.509 182.329 L
82.834 181.083 L
83.054 180.459 L
83.422 179.836 L
83.667 179.421 L
84.035 178.382 L
84.365 177.344 L
84.703 176.513 L
85.079 175.059 L
85.387 174.851 L
85.78 173.812 L
86.114 173.605 L
86.596 172.981 L
87.015 172.15 L
87.513 171.527 L
87.966 171.527 L
88.38 171.112 L
88.735 170.281 L
89.272 169.242 L
89.741 168.827 L
90.252 168.204 L
90.666 167.996 L
91.229 166.75 L
91.748 165.711 L
92.421 164.465 L
92.953 163.842 L
93.667 163.011 L
94.344 161.557 L
95.037 161.141 L
95.658 161.141 L
96.457 160.726 L
97.108 159.895 L
97.848 159.064 L
98.477 158.233 L
99.378 157.61 L
100.1 156.987 L
101.039 156.364 L
101.833 156.364 L
102.886 155.74 L
103.841 155.117 L
104.923 153.871 L
105.857 153.455 L
106.846 153.248 L
107.62 153.04 L
108.579 151.794 L
109.615 150.755 L
110.743 150.132 L
111.711 149.301 L
113.055 149.093 L
114.175 148.885 L
115.523 148.678 L
116.783 148.055 L
118.059 147.639 L
119.374 146.393 L
120.815 145.77 L
121.952 145.354 L
123.423 144.731 L
124.763 144.316 L
126.141 143.277 L
127.493 141.407 L
129.061 140.784 L
130.575 140.577 L
132.231 139.538 L
133.956 139.33 L
135.659 138.915 L
137.029 137.876 L
138.855 137.045 L
140.228 136.838 L
142.134 135.799 L
144.117 135.176 L
145.697 134.553 L
147.769 133.929 L
149.451 133.099 L
151.649 132.475 L
153.327 131.644 L
155.609 130.606 L
157.321 129.567 L
159.536 128.944 L
161.357 127.905 L
163.69 126.867 L
165.554 125.621 L
167.845 124.374 L
169.849 123.336 L
172.106 122.712 L
174.287 122.297 L
176.975 121.051 L
178.932 120.427 L
181.451 119.389 L
183.83 118.142 L
186.721 117.935 L
189.097 117.104 L
191.624 115.65 L
193.746 115.027 L
196.379 114.196 L
198.493 113.157 L
201.291 112.326 L
203.518 111.911 L
206.68 111.288 L
209.008 110.249 L
211.79 109.21 L
214.262 108.795 L
217.225 108.587 L
219.74 107.964 L
222.737 106.925 L
225.243 106.718 L
228.413 106.302 L
231.156 105.887 L
234.339 105.056 L
236.904 104.848 L
239.956 103.602 L
242.957 102.563 L
245.899 102.148 L
248.84 100.901 L
251.706 100.071 L
254.415 99.863 L
257.556 99.24 L
260.197 99.032 L
263.3 98.201 L
266.178 97.578 L
269.352 96.332 L
272.15 96.124 L
275.337 95.293 L
278.279 94.878 L
281.496 94.254 L
284.488 93.839 L
287.396 92.8 L
290.481 92.385 L
293.394 91.554 L
296.196 90.723 L
299.315 90.1 L
302.455 89.269 L
305.342 88.854 L
308.829 88.023 L
311.424 87.399 L
315.165 86.361 L
317.667 86.153 L
321.205 85.738 L
323.517 84.907 L
326.915 84.076 L
329.422 82.83 L
333.111 82.206 L
335.352 81.791 L
339.379 81.375 L
341.311 81.168 L
345.073 80.337 L
346.996 80.129 L
350.555 79.298 L
352.495 78.883 L
355.944 78.467 L
358.006 77.013 L
361.388 76.598 L
363.552 75.352 L
367.022 74.105 L
369.072 73.69 L
372.516 73.067 L
374.38 72.859 L
377.686 72.028 L
379.761 72.028 L
382.855 71.197 L
384.715 70.574 L
387.724 69.12 L
389.829 68.704 L
392.952 68.289 L
394.859 67.666 L
397.783 66.835 L
399.804 66.419 L
402.598 66.004 L
404.309 65.381 L
407.145 64.134 L
409.081 63.511 L
411.676 63.096 L
413.667 62.68 L
416.123 61.434 L
418.042 61.226 L
420.48 60.811 L
422.289 59.98 L
424.678 59.357 L
426.347 59.357 L
428.655 59.357 L
430.438 58.526 L
432.518 57.695 L
434.221 57.695 L
436.132 57.695 L
437.721 57.072 L
439.505 56.656 L
441.242 56.449 L
442.975 56.033 L
444.746 55.618 L
446.204 55.618 L
447.971 54.787 L
449.42 54.372 L
451.318 54.164 L
452.476 53.956 L
454.285 53.125 L
455.257 52.917 L
457.717 52.502 L
458.457 52.502 L
461.09 52.502 L
461.166 52.294 L
463.753 50.217 L
463.753 50.217 L
466.449 49.802 L
466.449 49.802 L
467.963 49.802 L
468.854 49.386 L
470.224 49.178 L
471.124 48.555 L
472.405 48.348 L
473.394 48.14 L
474.467 47.932 L
475.533 47.101 L
476.678 47.101 L
477.604 46.893 L
478.753 46.478 L
479.548 46.478 L
480.651 46.27 L
481.37 46.27 L
482.253 46.063 L
482.921 46.063 L
483.804 45.855 L
484.425 45.855 L
485.326 45.647 L
485.884 45.647 L
486.678 45.232 L
487.19 45.024 L
488.065 44.816 L
488.534 44.816 L
489.214 44.816 L
489.675 44.816 L
490.398 44.816 L
490.854 44.609 L
491.552 44.193 L
491.932 43.985 L
492.617 43.985 L
492.917 43.985 L
493.678 43.985 L
494.045 43.985 L
494.633 43.985 L
494.929 43.57 L
495.516 43.57 L
495.884 43.362 L
496.353 42.947 L
496.704 42.947 L
497.203 42.739 L
497.414 42.531 L
497.854 42.324 L
498.069 42.324 L
498.449 42.324 L
498.678 42.116 L
499.033 41.908 L
499.278 41.908 L
499.688 41.908 L
499.929 41.908 L
500.326 41.7 L
500.521 41.7 L
500.787 41.7 L
500.998 41.7 L
501.307 41.7 L
501.476 41.7 L
501.759 41.493 L
502.013 41.493 L
502.224 41.493 L
502.477 41.493 L
502.625 41.493 L
502.799 41.493 L
502.959 41.285 L
503.095 41.285 L
503.209 41.285 L
503.416 41.077 L
503.526 40.87 L
503.669 40.662 L
503.788 40.662 L
503.906 40.662 L
504.058 40.662 L
504.185 40.662 L
504.274 40.662 L
504.363 40.662 L
504.447 40.662 L
504.574 40.662 L
504.684 40.662 L
504.836 40.662 L
504.908 40.454 L
505.039 40.246 L
505.094 40.246 L
505.212 40.246 L
505.271 40.246 L
505.343 40.246 L
505.394 40.246 L
505.445 40.246 L
505.483 40.246 L
505.605 40.039 L
505.69 40.039 L
505.757 40.039 L
505.8 40.039 L
505.888 40.039 L
505.905 40.039 L
505.96 40.039 L
505.986 40.039 L
506.045 40.039 L
506.057 40.039 L
506.108 40.039 L
506.129 40.039 L
506.167 39.831 L
506.21 39.831 L
506.222 39.831 L
506.26 39.831 L
506.286 39.831 L
506.303 39.831 L
506.366 39.831 L
506.391 39.831 L
506.4 39.831 L
506.438 39.831 L
506.467 39.831 L
506.493 39.831 L
506.535 39.831 L
506.548 39.831 L
506.577 39.831 L
506.582 39.831 L
506.603 39.831 L
506.607 39.831 L
506.628 39.831 L
506.645 39.831 L
506.658 39.831 L
506.67 39.623 L
506.683 39.623 L
506.717 39.623 L
506.734 39.623 L
506.746 39.623 L
506.763 39.623 L
506.768 39.623 L
506.776 39.623 L
506.784 39.623 L
506.784 39.623 L
506.801 39.623 L
506.806 39.623 L
506.814 39.623 L
506.814 39.623 L
506.818 39.623 L
506.822 39.623 L
506.827 39.623 L
506.831 39.623 L
506.831 39.208 L
506.835 39.208 L
506.844 39.208 L
506.844 39.208 L
506.848 39.208 L
506.852 39.208 L
506.861 39.208 L
506.865 39.208 L
506.865 39 L
506.865 39 L
506.873 39 L
506.882 39 L
506.894 39 L
506.907 39 L
506.915 39 L
506.915 39 L
506.92 39 L
506.924 39 L
506.932 39 L
506.932 39 L
506.932 39 L
506.937 39 L
506.937 39 L
506.937 39 L
506.937 39 L
506.937 39 L
506.949 39 L
506.949 39 L
506.949 39 L
506.949 39 L
506.953 39 L
506.953 39 L
506.953 39 L
506.953 39 L
506.953 39 L
506.953 39 L
506.953 39 L
506.953 39 L
506.958 39 L
506.962 39 L
506.966 39 L
506.966 39 L
506.966 39 L
506.966 39 L
506.97 39 L
506.97 39 L
506.975 39 L
506.975 39 L
506.975 39 L
506.975 39 L
506.975 39 L
506.975 39 L
506.975 39 L
506.975 39 L
506.975 39 L
506.975 39 L
506.979 39 L
506.979 39 L
506.979 39 L
506.979 39 L
506.983 39 L
506.983 39 L
506.983 39 L
506.983 39 L
506.983 39 L
506.987 39 L
506.987 39 L
506.987 39 L
506.987 39 L
506.987 39 L
506.987 39 L
506.987 39 L
506.987 39 L
506.987 39 L
506.992 39 L
506.992 39 L
506.992 39 L
506.992 39 L
506.992 39 L
506.992 39 L
506.992 39 L
506.992 39 L
506.996 39 L
506.996 39 L
506.996 39 L
506.996 39 L
506.996 39 L
506.996 39 L
506.996 39 L
506.996 39 L
507 39 L
S
GR
GS
[1 0 0 1 338.91 216.84] CT
/Helvetica 24 F
GS
[1 0 0 1 0 0] CT
0 8.5 moveto 
1 -1 scale
(EER line) t 
GR
GR
GS
[10 6] 0 setdash
2 LJ
0.5 LW
N
507 351 M
76 39 L
S
GR
GS
1 GC
N
497 341 M
497 249 L
132 249 L
132 341 L
cp
f
GR
GS
[1 0 0 1 169 265.5] CT
/Helvetica 24 F
GS
[1 0 0 1 0 0] CT
0 8.5 moveto 
1 -1 scale
(NIR images, EER = 0.11) t 
GR
GR
GS
0 0 1 RC
1 LJ
3 LW
N
136 265.5 M
166 265.5 L
S
GR
GS
[1 0 0 1 169 295] CT
/Helvetica 24 F
GS
[1 0 0 1 0 0] CT
0 8.5 moveto 
1 -1 scale
(R images, EER = 0.06) t 
GR
GR
GS
1 0 0 RC
1 LJ
3 LW
N
136 295 M
166 295 L
S
GR
GS
[1 0 0 1 169 324.5] CT
/Helvetica 24 F
GS
[1 0 0 1 0 0] CT
0 8.5 moveto 
1 -1 scale
(cross-wavelength, EER = 0.25) t 
GR
GR
GS
[12 12] 0 setdash
2 LJ
3 LW
N
136 324.5 M
166 324.5 L
S
GR
GS
0.149 GC
10.0 ML
0.5 LW
N
132 341 M
132 249 L
497 249 L
497 341 L
cp
S
GR
%%Trailer
%%Pages: 1
%%EOF
