%!PS-Adobe-3.0 EPSF-3.0
%%Creator: (MATLAB, The Mathworks, Inc. Version 9.3.0.713579 \(R2017b\). Operating System: Mac OS X)
%%Title: ./shortTerm_VeriEye.eps
%%CreationDate: 2018-02-12T15:10:58
%%Pages: (atend)
%%BoundingBox:     7     5   509   413
%%LanguageLevel: 3
%%EndComments
%%BeginProlog
%%BeginResource: procset (Apache XML Graphics Std ProcSet) 1.2 0
%%Version: 1.2 0
%%Copyright: (Copyright 2001-2003,2010 The Apache Software Foundation. License terms: http://www.apache.org/licenses/LICENSE-2.0)
/bd{bind def}bind def
/ld{load def}bd
/GR/grestore ld
/GS/gsave ld
/RM/rmoveto ld
/C/curveto ld
/t/show ld
/L/lineto ld
/ML/setmiterlimit ld
/CT/concat ld
/f/fill ld
/N/newpath ld
/S/stroke ld
/CC/setcmykcolor ld
/A/ashow ld
/cp/closepath ld
/RC/setrgbcolor ld
/LJ/setlinejoin ld
/GC/setgray ld
/LW/setlinewidth ld
/M/moveto ld
/re {4 2 roll M
1 index 0 rlineto
0 exch rlineto
neg 0 rlineto
cp } bd
/_ctm matrix def
/_tm matrix def
/BT { _ctm currentmatrix pop matrix _tm copy pop 0 0 moveto } bd
/ET { _ctm setmatrix } bd
/iTm { _ctm setmatrix _tm concat } bd
/Tm { _tm astore pop iTm 0 0 moveto } bd
/ux 0.0 def
/uy 0.0 def
/F {
  /Tp exch def
  /Tf exch def
  Tf findfont Tp scalefont setfont
  /cf Tf def  /cs Tp def
} bd
/ULS {currentpoint /uy exch def /ux exch def} bd
/ULE {
  /Tcx currentpoint pop def
  gsave
  newpath
  cf findfont cs scalefont dup
  /FontMatrix get 0 get /Ts exch def /FontInfo get dup
  /UnderlinePosition get Ts mul /To exch def
  /UnderlineThickness get Ts mul /Tt exch def
  ux uy To add moveto  Tcx uy To add lineto
  Tt setlinewidth stroke
  grestore
} bd
/OLE {
  /Tcx currentpoint pop def
  gsave
  newpath
  cf findfont cs scalefont dup
  /FontMatrix get 0 get /Ts exch def /FontInfo get dup
  /UnderlinePosition get Ts mul /To exch def
  /UnderlineThickness get Ts mul /Tt exch def
  ux uy To add cs add moveto Tcx uy To add cs add lineto
  Tt setlinewidth stroke
  grestore
} bd
/SOE {
  /Tcx currentpoint pop def
  gsave
  newpath
  cf findfont cs scalefont dup
  /FontMatrix get 0 get /Ts exch def /FontInfo get dup
  /UnderlinePosition get Ts mul /To exch def
  /UnderlineThickness get Ts mul /Tt exch def
  ux uy To add cs 10 mul 26 idiv add moveto Tcx uy To add cs 10 mul 26 idiv add lineto
  Tt setlinewidth stroke
  grestore
} bd
/QT {
/Y22 exch store
/X22 exch store
/Y21 exch store
/X21 exch store
currentpoint
/Y21 load 2 mul add 3 div exch
/X21 load 2 mul add 3 div exch
/X21 load 2 mul /X22 load add 3 div
/Y21 load 2 mul /Y22 load add 3 div
/X22 load /Y22 load curveto
} bd
/SSPD {
dup length /d exch dict def
{
/v exch def
/k exch def
currentpagedevice k known {
/cpdv currentpagedevice k get def
v cpdv ne {
/upd false def
/nullv v type /nulltype eq def
/nullcpdv cpdv type /nulltype eq def
nullv nullcpdv or
{
/upd true def
} {
/sametype v type cpdv type eq def
sametype {
v type /arraytype eq {
/vlen v length def
/cpdvlen cpdv length def
vlen cpdvlen eq {
0 1 vlen 1 sub {
/i exch def
/obj v i get def
/cpdobj cpdv i get def
obj cpdobj ne {
/upd true def
exit
} if
} for
} {
/upd true def
} ifelse
} {
v type /dicttype eq {
v {
/dv exch def
/dk exch def
/cpddv cpdv dk get def
dv cpddv ne {
/upd true def
exit
} if
} forall
} {
/upd true def
} ifelse
} ifelse
} if
} ifelse
upd true eq {
d k v put
} if
} if
} if
} forall
d length 0 gt {
d setpagedevice
} if
} bd
/RE { % /NewFontName [NewEncodingArray] /FontName RE -
  findfont dup length dict begin
  {
    1 index /FID ne
    {def} {pop pop} ifelse
  } forall
  /Encoding exch def
  /FontName 1 index def
  currentdict definefont pop
  end
} bind def
%%EndResource
%%BeginResource: procset (Apache XML Graphics EPS ProcSet) 1.0 0
%%Version: 1.0 0
%%Copyright: (Copyright 2002-2003 The Apache Software Foundation. License terms: http://www.apache.org/licenses/LICENSE-2.0)
/BeginEPSF { %def
/b4_Inc_state save def         % Save state for cleanup
/dict_count countdictstack def % Count objects on dict stack
/op_count count 1 sub def      % Count objects on operand stack
userdict begin                 % Push userdict on dict stack
/showpage { } def              % Redefine showpage, { } = null proc
0 setgray 0 setlinecap         % Prepare graphics state
1 setlinewidth 0 setlinejoin
10 setmiterlimit [ ] 0 setdash newpath
/languagelevel where           % If level not equal to 1 then
{pop languagelevel             % set strokeadjust and
1 ne                           % overprint to their defaults.
{false setstrokeadjust false setoverprint
} if
} if
} bd
/EndEPSF { %def
count op_count sub {pop} repeat            % Clean up stacks
countdictstack dict_count sub {end} repeat
b4_Inc_state restore
} bd
%%EndResource
%FOPBeginFontDict
%%IncludeResource: font Courier-Oblique
%%IncludeResource: font Courier-BoldOblique
%%IncludeResource: font Courier-Bold
%%IncludeResource: font ZapfDingbats
%%IncludeResource: font Symbol
%%IncludeResource: font Helvetica
%%IncludeResource: font Helvetica-Oblique
%%IncludeResource: font Helvetica-Bold
%%IncludeResource: font Helvetica-BoldOblique
%%IncludeResource: font Times-Roman
%%IncludeResource: font Times-Italic
%%IncludeResource: font Times-Bold
%%IncludeResource: font Times-BoldItalic
%%IncludeResource: font Courier
%FOPEndFontDict
%%BeginResource: encoding WinAnsiEncoding
/WinAnsiEncoding [
/.notdef /.notdef /.notdef /.notdef /.notdef
/.notdef /.notdef /.notdef /.notdef /.notdef
/.notdef /.notdef /.notdef /.notdef /.notdef
/.notdef /.notdef /.notdef /.notdef /.notdef
/.notdef /.notdef /.notdef /.notdef /.notdef
/.notdef /.notdef /.notdef /.notdef /.notdef
/.notdef /.notdef /space /exclam /quotedbl
/numbersign /dollar /percent /ampersand /quotesingle
/parenleft /parenright /asterisk /plus /comma
/hyphen /period /slash /zero /one
/two /three /four /five /six
/seven /eight /nine /colon /semicolon
/less /equal /greater /question /at
/A /B /C /D /E
/F /G /H /I /J
/K /L /M /N /O
/P /Q /R /S /T
/U /V /W /X /Y
/Z /bracketleft /backslash /bracketright /asciicircum
/underscore /quoteleft /a /b /c
/d /e /f /g /h
/i /j /k /l /m
/n /o /p /q /r
/s /t /u /v /w
/x /y /z /braceleft /bar
/braceright /asciitilde /bullet /Euro /bullet
/quotesinglbase /florin /quotedblbase /ellipsis /dagger
/daggerdbl /circumflex /perthousand /Scaron /guilsinglleft
/OE /bullet /Zcaron /bullet /bullet
/quoteleft /quoteright /quotedblleft /quotedblright /bullet
/endash /emdash /asciitilde /trademark /scaron
/guilsinglright /oe /bullet /zcaron /Ydieresis
/space /exclamdown /cent /sterling /currency
/yen /brokenbar /section /dieresis /copyright
/ordfeminine /guillemotleft /logicalnot /sfthyphen /registered
/macron /degree /plusminus /twosuperior /threesuperior
/acute /mu /paragraph /middot /cedilla
/onesuperior /ordmasculine /guillemotright /onequarter /onehalf
/threequarters /questiondown /Agrave /Aacute /Acircumflex
/Atilde /Adieresis /Aring /AE /Ccedilla
/Egrave /Eacute /Ecircumflex /Edieresis /Igrave
/Iacute /Icircumflex /Idieresis /Eth /Ntilde
/Ograve /Oacute /Ocircumflex /Otilde /Odieresis
/multiply /Oslash /Ugrave /Uacute /Ucircumflex
/Udieresis /Yacute /Thorn /germandbls /agrave
/aacute /acircumflex /atilde /adieresis /aring
/ae /ccedilla /egrave /eacute /ecircumflex
/edieresis /igrave /iacute /icircumflex /idieresis
/eth /ntilde /ograve /oacute /ocircumflex
/otilde /odieresis /divide /oslash /ugrave
/uacute /ucircumflex /udieresis /yacute /thorn
/ydieresis
] def
%%EndResource
%FOPBeginFontReencode
/Courier-Oblique findfont
dup length dict begin
  {1 index /FID ne {def} {pop pop} ifelse} forall
  /Encoding WinAnsiEncoding def
  currentdict
end
/Courier-Oblique exch definefont pop
/Courier-BoldOblique findfont
dup length dict begin
  {1 index /FID ne {def} {pop pop} ifelse} forall
  /Encoding WinAnsiEncoding def
  currentdict
end
/Courier-BoldOblique exch definefont pop
/Courier-Bold findfont
dup length dict begin
  {1 index /FID ne {def} {pop pop} ifelse} forall
  /Encoding WinAnsiEncoding def
  currentdict
end
/Courier-Bold exch definefont pop
/Helvetica findfont
dup length dict begin
  {1 index /FID ne {def} {pop pop} ifelse} forall
  /Encoding WinAnsiEncoding def
  currentdict
end
/Helvetica exch definefont pop
/Helvetica-Oblique findfont
dup length dict begin
  {1 index /FID ne {def} {pop pop} ifelse} forall
  /Encoding WinAnsiEncoding def
  currentdict
end
/Helvetica-Oblique exch definefont pop
/Helvetica-Bold findfont
dup length dict begin
  {1 index /FID ne {def} {pop pop} ifelse} forall
  /Encoding WinAnsiEncoding def
  currentdict
end
/Helvetica-Bold exch definefont pop
/Helvetica-BoldOblique findfont
dup length dict begin
  {1 index /FID ne {def} {pop pop} ifelse} forall
  /Encoding WinAnsiEncoding def
  currentdict
end
/Helvetica-BoldOblique exch definefont pop
/Times-Roman findfont
dup length dict begin
  {1 index /FID ne {def} {pop pop} ifelse} forall
  /Encoding WinAnsiEncoding def
  currentdict
end
/Times-Roman exch definefont pop
/Times-Italic findfont
dup length dict begin
  {1 index /FID ne {def} {pop pop} ifelse} forall
  /Encoding WinAnsiEncoding def
  currentdict
end
/Times-Italic exch definefont pop
/Times-Bold findfont
dup length dict begin
  {1 index /FID ne {def} {pop pop} ifelse} forall
  /Encoding WinAnsiEncoding def
  currentdict
end
/Times-Bold exch definefont pop
/Times-BoldItalic findfont
dup length dict begin
  {1 index /FID ne {def} {pop pop} ifelse} forall
  /Encoding WinAnsiEncoding def
  currentdict
end
/Times-BoldItalic exch definefont pop
/Courier findfont
dup length dict begin
  {1 index /FID ne {def} {pop pop} ifelse} forall
  /Encoding WinAnsiEncoding def
  currentdict
end
/Courier exch definefont pop
%FOPEndFontReencode
%%EndProlog
%%Page: 1 1
%%PageBoundingBox: 0 0 560 420
%%BeginPageSetup
[1 0 0 -1 0 420] CT
%%EndPageSetup
GS
1 GC
N
0 0 560 420 re
f
GR
GS
1 GC
N
0 0 560 420 re
f
GR
GS
1 GC
N
76 351 M
507 351 L
507 39 L
76 39 L
cp
f
GR
GS
0.873 GC
1 LJ
0.5 LW
N
76 351 M
76 39 L
S
GR
GS
0.873 GC
1 LJ
0.5 LW
N
162.2 351 M
162.2 39 L
S
GR
GS
0.873 GC
1 LJ
0.5 LW
N
248.4 351 M
248.4 39 L
S
GR
GS
0.873 GC
1 LJ
0.5 LW
N
334.6 351 M
334.6 39 L
S
GR
GS
0.873 GC
1 LJ
0.5 LW
N
420.8 351 M
420.8 39 L
S
GR
GS
0.873 GC
1 LJ
0.5 LW
N
507 351 M
507 39 L
S
GR
GS
0.873 GC
1 LJ
0.5 LW
N
507 351 M
76 351 L
S
GR
GS
0.873 GC
1 LJ
0.5 LW
N
507 288.6 M
76 288.6 L
S
GR
GS
0.873 GC
1 LJ
0.5 LW
N
507 226.2 M
76 226.2 L
S
GR
GS
0.873 GC
1 LJ
0.5 LW
N
507 163.8 M
76 163.8 L
S
GR
GS
0.873 GC
1 LJ
0.5 LW
N
507 101.4 M
76 101.4 L
S
GR
GS
0.873 GC
1 LJ
0.5 LW
N
507 39 M
76 39 L
S
GR
GS
0.149 GC
2 setlinecap
1 LJ
0.5 LW
N
76 351 M
507 351 L
S
GR
GS
0.149 GC
2 setlinecap
1 LJ
0.5 LW
N
76 39 M
507 39 L
S
GR
GS
0.149 GC
2 setlinecap
1 LJ
0.5 LW
N
76 351 M
76 346.69 L
S
GR
GS
0.149 GC
2 setlinecap
1 LJ
0.5 LW
N
162.2 351 M
162.2 346.69 L
S
GR
GS
0.149 GC
2 setlinecap
1 LJ
0.5 LW
N
248.4 351 M
248.4 346.69 L
S
GR
GS
0.149 GC
2 setlinecap
1 LJ
0.5 LW
N
334.6 351 M
334.6 346.69 L
S
GR
GS
0.149 GC
2 setlinecap
1 LJ
0.5 LW
N
420.8 351 M
420.8 346.69 L
S
GR
GS
0.149 GC
2 setlinecap
1 LJ
0.5 LW
N
507 351 M
507 346.69 L
S
GR
GS
0.149 GC
2 setlinecap
1 LJ
0.5 LW
N
76 39 M
76 43.31 L
S
GR
GS
0.149 GC
2 setlinecap
1 LJ
0.5 LW
N
162.2 39 M
162.2 43.31 L
S
GR
GS
0.149 GC
2 setlinecap
1 LJ
0.5 LW
N
248.4 39 M
248.4 43.31 L
S
GR
GS
0.149 GC
2 setlinecap
1 LJ
0.5 LW
N
334.6 39 M
334.6 43.31 L
S
GR
GS
0.149 GC
2 setlinecap
1 LJ
0.5 LW
N
420.8 39 M
420.8 43.31 L
S
GR
GS
0.149 GC
2 setlinecap
1 LJ
0.5 LW
N
507 39 M
507 43.31 L
S
GR
GS
[1 0 0 1 76 357.79999] CT
0.149 GC
/Helvetica 24 F
GS
[1 0 0 1 0 0] CT
-7 23 moveto 
1 -1 scale
(0) t 
GR
GR
GS
[1 0 0 1 162.2 357.79999] CT
0.149 GC
/Helvetica 24 F
GS
[1 0 0 1 0 0] CT
-17 23 moveto 
1 -1 scale
(0.2) t 
GR
GR
GS
[1 0 0 1 248.40001 357.79999] CT
0.149 GC
/Helvetica 24 F
GS
[1 0 0 1 0 0] CT
-17 23 moveto 
1 -1 scale
(0.4) t 
GR
GR
GS
[1 0 0 1 334.60001 357.79999] CT
0.149 GC
/Helvetica 24 F
GS
[1 0 0 1 0 0] CT
-17 23 moveto 
1 -1 scale
(0.6) t 
GR
GR
GS
[1 0 0 1 420.80002 357.79999] CT
0.149 GC
/Helvetica 24 F
GS
[1 0 0 1 0 0] CT
-17 23 moveto 
1 -1 scale
(0.8) t 
GR
GR
GS
[1 0 0 1 507 357.79999] CT
0.149 GC
/Helvetica 24 F
GS
[1 0 0 1 0 0] CT
-7 23 moveto 
1 -1 scale
(1) t 
GR
GR
GS
[1 0 0 1 291.50021 387.79999] CT
0.149 GC
/Helvetica 26.4 F
GS
[1 0 0 1 0 0] CT
-112.5 26 moveto 
1 -1 scale
(False Positive Rate) t 
GR
GR
GS
0.149 GC
2 setlinecap
1 LJ
0.5 LW
N
76 351 M
76 39 L
S
GR
GS
0.149 GC
2 setlinecap
1 LJ
0.5 LW
N
507 351 M
507 39 L
S
GR
GS
0.149 GC
2 setlinecap
1 LJ
0.5 LW
N
76 351 M
80.31 351 L
S
GR
GS
0.149 GC
2 setlinecap
1 LJ
0.5 LW
N
76 288.6 M
80.31 288.6 L
S
GR
GS
0.149 GC
2 setlinecap
1 LJ
0.5 LW
N
76 226.2 M
80.31 226.2 L
S
GR
GS
0.149 GC
2 setlinecap
1 LJ
0.5 LW
N
76 163.8 M
80.31 163.8 L
S
GR
GS
0.149 GC
2 setlinecap
1 LJ
0.5 LW
N
76 101.4 M
80.31 101.4 L
S
GR
GS
0.149 GC
2 setlinecap
1 LJ
0.5 LW
N
76 39 M
80.31 39 L
S
GR
GS
0.149 GC
2 setlinecap
1 LJ
0.5 LW
N
507 351 M
502.69 351 L
S
GR
GS
0.149 GC
2 setlinecap
1 LJ
0.5 LW
N
507 288.6 M
502.69 288.6 L
S
GR
GS
0.149 GC
2 setlinecap
1 LJ
0.5 LW
N
507 226.2 M
502.69 226.2 L
S
GR
GS
0.149 GC
2 setlinecap
1 LJ
0.5 LW
N
507 163.8 M
502.69 163.8 L
S
GR
GS
0.149 GC
2 setlinecap
1 LJ
0.5 LW
N
507 101.4 M
502.69 101.4 L
S
GR
GS
0.149 GC
2 setlinecap
1 LJ
0.5 LW
N
507 39 M
502.69 39 L
S
GR
GS
[1 0 0 1 69.2 351] CT
0.149 GC
/Helvetica 24 F
GS
[1 0 0 1 0 0] CT
-14 8.5 moveto 
1 -1 scale
(0) t 
GR
GR
GS
[1 0 0 1 69.2 288.60001] CT
0.149 GC
/Helvetica 24 F
GS
[1 0 0 1 0 0] CT
-34 8.5 moveto 
1 -1 scale
(0.2) t 
GR
GR
GS
[1 0 0 1 69.2 226.2] CT
0.149 GC
/Helvetica 24 F
GS
[1 0 0 1 0 0] CT
-34 8.5 moveto 
1 -1 scale
(0.4) t 
GR
GR
GS
[1 0 0 1 69.2 163.79999] CT
0.149 GC
/Helvetica 24 F
GS
[1 0 0 1 0 0] CT
-34 8.5 moveto 
1 -1 scale
(0.6) t 
GR
GR
GS
[1 0 0 1 69.2 101.39999] CT
0.149 GC
/Helvetica 24 F
GS
[1 0 0 1 0 0] CT
-34 8.5 moveto 
1 -1 scale
(0.8) t 
GR
GR
GS
[1 0 0 1 69.2 39] CT
0.149 GC
/Helvetica 24 F
GS
[1 0 0 1 0 0] CT
-14 8.5 moveto 
1 -1 scale
(1) t 
GR
GR
GS
[0 -1 1 0 32.2 194.99985] CT
0.149 GC
/Helvetica 26.4 F
GS
[1 0 0 1 0 0] CT
-108 -6 moveto 
1 -1 scale
(True Positive Rate) t 
GR
GR
GS
[1 0 0 1 291.50027 32.40001] CT
/Helvetica-Bold 26.4 F
GS
[1 0 0 1 0 0] CT
-47.5 -6 moveto 
1 -1 scale
(VeriEye) t 
GR
GR
GS
0 0 1 RC
1 LJ
3 LW
N
507 39 M
214.496 71.644 L
181.415 75.41 L
166.201 76.038 L
141.271 79.177 L
130.894 81.688 L
114.182 83.571 L
107.506 83.571 L
97.471 86.082 L
90.586 86.082 L
89.836 86.082 L
88.459 86.082 L
87.093 86.71 L
84.405 86.71 L
82.951 86.71 L
81.045 87.966 L
80.23 87.966 L
78.897 89.221 L
77.884 89.221 L
77.553 89.221 L
77.135 89.849 L
76.947 90.477 L
76.606 90.477 L
76.496 91.105 L
76.297 91.732 L
76.264 91.732 L
76.198 92.36 L
76.165 92.988 L
76.143 92.988 L
76.099 93.616 L
76.088 94.243 L
76.055 94.871 L
76.055 94.871 L
76.033 95.499 L
76.033 96.127 L
76.011 97.382 L
76.011 97.382 L
76.011 97.382 L
76 98.638 L
76 99.893 L
76 99.893 L
76 99.893 L
76 99.893 L
76 99.893 L
76 99.893 L
76 100.521 L
76 101.149 L
76 101.777 L
76 101.777 L
76 101.777 L
76 101.777 L
76 101.777 L
76 101.777 L
76 101.777 L
76 103.032 L
76 103.032 L
76 104.288 L
76 104.915 L
76 105.543 L
76 105.543 L
76 106.171 L
76 106.171 L
76 106.171 L
76 106.799 L
76 106.799 L
76 107.427 L
76 107.427 L
76 108.682 L
76 108.682 L
76 108.682 L
76 108.682 L
76 110.565 L
76 111.193 L
76 111.193 L
76 111.193 L
76 111.193 L
76 111.193 L
76 111.821 L
76 112.449 L
76 114.332 L
76 116.215 L
76 116.843 L
76 116.843 L
76 117.471 L
76 117.471 L
76 117.471 L
76 117.471 L
76 117.471 L
76 119.982 L
76 119.982 L
76 119.982 L
76 120.61 L
76 121.237 L
76 122.493 L
76 122.493 L
76 123.121 L
76 123.121 L
76 123.121 L
76 123.748 L
76 125.632 L
76 125.632 L
76 126.26 L
76 126.887 L
76 126.887 L
76 126.887 L
76 127.515 L
76 128.143 L
76 129.398 L
76 130.654 L
76 130.654 L
76 130.654 L
76 131.909 L
76 131.909 L
76 133.165 L
76 133.793 L
76 134.421 L
76 135.676 L
76 137.559 L
76 138.187 L
76 139.443 L
76 139.443 L
76 142.581 L
76 142.581 L
76 145.72 L
76 145.72 L
76 145.72 L
76 147.604 L
76 148.231 L
76 150.115 L
76 150.115 L
76 152.626 L
76 153.254 L
76 156.392 L
76 157.02 L
76 158.903 L
76 161.414 L
76 162.042 L
76 163.926 L
76 163.926 L
76 165.181 L
76 165.809 L
76 166.437 L
76 167.692 L
76 169.575 L
76 170.203 L
76 170.203 L
76 172.087 L
76 172.087 L
76 173.342 L
76 173.342 L
76 173.97 L
76 177.109 L
76 177.736 L
76 180.875 L
76 181.503 L
76 181.503 L
76 183.386 L
76 184.642 L
76 185.27 L
76 185.897 L
76 187.781 L
76 188.408 L
76 188.408 L
76 189.036 L
76 191.547 L
76 192.175 L
76 193.431 L
76 194.686 L
76 194.686 L
76 197.825 L
76 199.08 L
76 200.336 L
76 200.964 L
76 203.475 L
76 203.475 L
76 204.103 L
76 205.986 L
76 208.497 L
76 209.125 L
76 209.753 L
76 210.38 L
76 211.008 L
76 211.008 L
76 211.636 L
76 212.891 L
76 214.775 L
76 215.402 L
76 216.658 L
76 217.286 L
76 218.541 L
76 219.169 L
76 220.425 L
76 220.425 L
76 222.936 L
76 225.447 L
76 226.702 L
76 228.586 L
76 229.213 L
76 229.841 L
76 230.469 L
76 231.097 L
76 231.724 L
76 232.352 L
76 232.352 L
76 234.235 L
76 237.374 L
76 237.374 L
76 238.63 L
76 239.885 L
76 240.513 L
76 240.513 L
76 241.769 L
76 241.769 L
76 242.396 L
76 243.024 L
76 243.024 L
76 244.907 L
76 246.163 L
76 248.674 L
76 248.674 L
76 251.185 L
76 253.696 L
76 256.835 L
76 259.974 L
76 260.602 L
76 261.229 L
76 262.485 L
76 262.485 L
76 263.74 L
76 264.996 L
76 264.996 L
76 265.624 L
76 269.39 L
76 270.018 L
76 273.785 L
76 273.785 L
76 274.412 L
76 275.04 L
76 275.668 L
76 276.924 L
76 276.924 L
76 277.551 L
76 278.179 L
76 280.062 L
76 280.062 L
76 280.062 L
76 280.062 L
76 281.318 L
76 281.318 L
76 281.318 L
76 282.573 L
76 282.573 L
76 283.201 L
76 283.201 L
76 283.829 L
76 284.457 L
76 284.457 L
76 286.968 L
76 287.596 L
76 288.223 L
76 288.851 L
76 290.107 L
76 291.362 L
76 293.245 L
76 293.873 L
76 293.873 L
76 295.129 L
76 295.129 L
76 295.129 L
76 295.129 L
76 295.129 L
76 295.129 L
76 295.757 L
76 297.012 L
76 297.012 L
76 297.64 L
76 297.64 L
76 299.523 L
76 299.523 L
76 300.151 L
76 300.779 L
76 302.034 L
76 305.801 L
76 306.429 L
76 306.429 L
76 306.429 L
76 308.94 L
76 309.567 L
76 309.567 L
76 310.195 L
76 310.195 L
76 310.823 L
76 310.823 L
76 310.823 L
76 310.823 L
76 310.823 L
76 310.823 L
76 311.451 L
76 311.451 L
76 311.451 L
76 311.451 L
76 311.451 L
76 312.078 L
76 312.706 L
76 312.706 L
76 312.706 L
76 313.962 L
76 314.59 L
76 315.217 L
76 315.845 L
76 315.845 L
76 315.845 L
76 315.845 L
76 317.728 L
76 318.984 L
76 319.612 L
76 320.239 L
76 320.867 L
76 320.867 L
76 320.867 L
76 321.495 L
76 322.123 L
76 323.378 L
76 323.378 L
76 324.634 L
76 325.262 L
76 325.262 L
76 325.889 L
76 326.517 L
76 326.517 L
76 326.517 L
76 326.517 L
76 327.145 L
76 327.145 L
76 328.4 L
76 328.4 L
76 328.4 L
76 329.656 L
76 330.284 L
76 330.284 L
76 330.284 L
76 330.284 L
76 330.284 L
76 330.911 L
76 330.911 L
76 331.539 L
76 331.539 L
76 332.795 L
76 332.795 L
76 332.795 L
76 332.795 L
76 332.795 L
76 332.795 L
76 332.795 L
76 334.05 L
76 334.05 L
76 334.678 L
76 334.678 L
76 334.678 L
76 335.306 L
76 335.306 L
76 335.306 L
76 335.306 L
76 335.306 L
76 335.934 L
76 336.561 L
76 336.561 L
76 336.561 L
76 337.817 L
76 338.445 L
76 338.445 L
76 338.445 L
76 338.445 L
76 338.445 L
76 338.445 L
76 338.445 L
76 338.445 L
76 338.445 L
76 339.072 L
76 340.328 L
76 340.328 L
76 340.956 L
76 340.956 L
76 340.956 L
76 340.956 L
76 340.956 L
76 340.956 L
76 341.583 L
76 342.211 L
76 342.211 L
76 342.211 L
76 342.211 L
76 342.211 L
76 342.211 L
76 342.211 L
76 342.211 L
76 342.211 L
76 342.211 L
76 342.211 L
76 342.211 L
76 342.211 L
76 342.211 L
76 342.211 L
76 342.211 L
76 342.211 L
76 342.211 L
76 342.211 L
76 342.211 L
76 342.839 L
76 342.839 L
76 342.839 L
76 342.839 L
76 342.839 L
76 342.839 L
76 342.839 L
76 342.839 L
76 342.839 L
76 342.839 L
76 342.839 L
76 342.839 L
76 342.839 L
76 342.839 L
76 342.839 L
76 342.839 L
76 344.722 L
76 344.722 L
76 344.722 L
76 344.722 L
76 344.722 L
76 344.722 L
76 344.722 L
76 344.722 L
76 344.722 L
76 344.722 L
76 344.722 L
76 344.722 L
76 344.722 L
76 344.722 L
76 344.722 L
76 344.722 L
76 344.722 L
76 344.722 L
76 344.722 L
76 344.722 L
76 344.722 L
76 344.722 L
76 344.722 L
76 344.722 L
76 344.722 L
76 344.722 L
76 344.722 L
76 344.722 L
76 344.722 L
76 344.722 L
76 344.722 L
76 344.722 L
76 344.722 L
76 344.722 L
76 344.722 L
76 344.722 L
76 344.722 L
76 344.722 L
76 344.722 L
76 344.722 L
76 344.722 L
76 344.722 L
76 344.722 L
76 344.722 L
76 344.722 L
76 344.722 L
76 344.722 L
76 344.722 L
76 344.722 L
76 344.722 L
76 344.722 L
76 344.722 L
76 344.722 L
76 344.722 L
76 344.722 L
76 344.722 L
76 344.722 L
76 344.722 L
76 344.722 L
76 344.722 L
76 344.722 L
76 344.722 L
76 344.722 L
76 344.722 L
76 344.722 L
76 344.722 L
76 344.722 L
76 344.722 L
76 344.722 L
76 344.722 L
76 344.722 L
76 344.722 L
76 344.722 L
76 344.722 L
76 344.722 L
76 344.722 L
76 344.722 L
76 344.722 L
76 344.722 L
76 344.722 L
76 344.722 L
76 344.722 L
76 344.722 L
76 344.722 L
76 344.722 L
76 344.722 L
76 344.722 L
76 344.722 L
76 344.722 L
76 344.722 L
76 344.722 L
76 344.722 L
76 344.722 L
76 344.722 L
76 344.722 L
76 344.722 L
76 344.722 L
76 344.722 L
76 344.722 L
76 344.722 L
76 344.722 L
76 344.722 L
76 344.722 L
76 344.722 L
76 344.722 L
76 344.722 L
76 344.722 L
76 344.722 L
76 344.722 L
76 344.722 L
76 344.722 L
76 344.722 L
76 344.722 L
76 344.722 L
76 344.722 L
76 344.722 L
76 344.722 L
76 344.722 L
76 344.722 L
76 344.722 L
76 344.722 L
76 344.722 L
76 344.722 L
76 344.722 L
76 344.722 L
76 344.722 L
76 344.722 L
76 344.722 L
76 344.722 L
76 344.722 L
76 344.722 L
76 344.722 L
76 344.722 L
76 344.722 L
76 344.722 L
76 344.722 L
76 344.722 L
76 344.722 L
76 344.722 L
76 344.722 L
76 344.722 L
76 344.722 L
76 344.722 L
76 344.722 L
76 344.722 L
76 344.722 L
76 344.722 L
76 344.722 L
76 344.722 L
76 344.722 L
76 344.722 L
76 344.722 L
76 344.722 L
76 344.722 L
76 344.722 L
76 344.722 L
76 344.722 L
76 344.722 L
76 344.722 L
76 344.722 L
76 344.722 L
76 344.722 L
76 344.722 L
76 344.722 L
76 344.722 L
76 344.722 L
76 344.722 L
76 344.722 L
76 344.722 L
76 344.722 L
76 344.722 L
76 344.722 L
76 344.722 L
76 344.722 L
76 344.722 L
76 344.722 L
76 344.722 L
76 344.722 L
76 344.722 L
76 344.722 L
76 344.722 L
76 344.722 L
76 344.722 L
76 344.722 L
76 344.722 L
76 344.722 L
76 344.722 L
76 344.722 L
76 344.722 L
76 344.722 L
76 344.722 L
76 344.722 L
76 344.722 L
76 344.722 L
76 344.722 L
76 344.722 L
76 344.722 L
76 344.722 L
76 344.722 L
76 344.722 L
76 344.722 L
76 344.722 L
76 344.722 L
76 344.722 L
76 344.722 L
76 344.722 L
76 344.722 L
76 344.722 L
76 344.722 L
76 344.722 L
76 344.722 L
76 344.722 L
76 344.722 L
76 344.722 L
76 344.722 L
76 344.722 L
76 344.722 L
76 344.722 L
76 344.722 L
76 344.722 L
76 344.722 L
76 344.722 L
76 344.722 L
76 344.722 L
76 344.722 L
76 344.722 L
76 344.722 L
76 344.722 L
76 344.722 L
76 344.722 L
76 344.722 L
76 344.722 L
76 344.722 L
76 344.722 L
76 344.722 L
76 344.722 L
76 344.722 L
76 344.722 L
76 344.722 L
76 344.722 L
76 344.722 L
76 344.722 L
76 344.722 L
76 344.722 L
76 344.722 L
76 344.722 L
76 344.722 L
76 344.722 L
76 344.722 L
76 344.722 L
76 344.722 L
76 344.722 L
76 344.722 L
76 344.722 L
76 344.722 L
76 344.722 L
76 344.722 L
76 344.722 L
76 344.722 L
76 344.722 L
76 344.722 L
76 344.722 L
76 344.722 L
76 344.722 L
76 344.722 L
76 344.722 L
76 344.722 L
76 344.722 L
76 344.722 L
76 344.722 L
76 344.722 L
76 344.722 L
76 344.722 L
76 344.722 L
76 344.722 L
76 344.722 L
76 344.722 L
76 344.722 L
76 344.722 L
76 344.722 L
76 344.722 L
76 344.722 L
76 344.722 L
76 344.722 L
76 344.722 L
76 344.722 L
76 344.722 L
76 344.722 L
76 344.722 L
76 344.722 L
76 344.722 L
76 344.722 L
76 344.722 L
76 344.722 L
76 344.722 L
76 344.722 L
76 344.722 L
76 344.722 L
76 344.722 L
76 344.722 L
76 344.722 L
76 344.722 L
76 344.722 L
76 344.722 L
76 344.722 L
76 344.722 L
76 344.722 L
76 344.722 L
76 344.722 L
76 344.722 L
76 344.722 L
76 344.722 L
76 344.722 L
76 344.722 L
76 344.722 L
76 344.722 L
76 344.722 L
76 344.722 L
76 344.722 L
76 344.722 L
76 344.722 L
76 344.722 L
76 344.722 L
76 344.722 L
76 344.722 L
76 344.722 L
76 344.722 L
76 344.722 L
76 344.722 L
76 344.722 L
76 344.722 L
76 344.722 L
76 344.722 L
76 344.722 L
76 344.722 L
76 344.722 L
76 344.722 L
76 344.722 L
76 344.722 L
76 344.722 L
76 344.722 L
76 344.722 L
76 344.722 L
76 344.722 L
76 344.722 L
76 344.722 L
76 344.722 L
76 344.722 L
76 344.722 L
76 344.722 L
76 344.722 L
76 344.722 L
76 344.722 L
76 344.722 L
76 344.722 L
76 344.722 L
76 344.722 L
76 344.722 L
76 344.722 L
76 344.722 L
76 344.722 L
76 344.722 L
76 344.722 L
76 344.722 L
76 344.722 L
76 344.722 L
76 344.722 L
76 344.722 L
76 344.722 L
76 344.722 L
76 344.722 L
76 344.722 L
76 344.722 L
76 344.722 L
76 344.722 L
76 344.722 L
76 344.722 L
76 344.722 L
76 344.722 L
76 344.722 L
76 344.722 L
76 344.722 L
76 344.722 L
76 344.722 L
76 344.722 L
76 344.722 L
76 344.722 L
76 344.722 L
76 344.722 L
76 344.722 L
76 344.722 L
76 344.722 L
76 344.722 L
76 344.722 L
76 344.722 L
76 344.722 L
76 344.722 L
76 344.722 L
76 344.722 L
76 344.722 L
76 344.722 L
76 344.722 L
76 344.722 L
76 344.722 L
76 344.722 L
76 344.722 L
76 344.722 L
76 344.722 L
76 344.722 L
76 344.722 L
76 344.722 L
76 344.722 L
76 344.722 L
76 344.722 L
76 344.722 L
76 344.722 L
76 344.722 L
76 344.722 L
76 344.722 L
76 344.722 L
76 344.722 L
76 344.722 L
76 344.722 L
76 344.722 L
76 344.722 L
76 344.722 L
76 344.722 L
76 344.722 L
76 344.722 L
76 344.722 L
76 344.722 L
76 344.722 L
76 344.722 L
76 344.722 L
76 344.722 L
76 344.722 L
76 344.722 L
76 344.722 L
76 344.722 L
76 344.722 L
76 344.722 L
76 344.722 L
76 344.722 L
76 344.722 L
76 344.722 L
76 344.722 L
76 344.722 L
76 344.722 L
76 344.722 L
76 344.722 L
76 344.722 L
76 344.722 L
76 344.722 L
76 344.722 L
76 344.722 L
76 344.722 L
76 344.722 L
76 344.722 L
76 344.722 L
76 344.722 L
76 344.722 L
76 344.722 L
76 344.722 L
76 344.722 L
76 344.722 L
76 344.722 L
76 344.722 L
76 344.722 L
76 344.722 L
76 344.722 L
76 344.722 L
76 344.722 L
76 344.722 L
76 344.722 L
76 344.722 L
76 344.722 L
76 344.722 L
76 344.722 L
76 344.722 L
76 344.722 L
76 344.722 L
76 344.722 L
76 344.722 L
76 344.722 L
76 344.722 L
76 344.722 L
76 344.722 L
76 344.722 L
76 344.722 L
76 344.722 L
76 344.722 L
76 344.722 L
76 344.722 L
76 344.722 L
76 344.722 L
76 344.722 L
76 344.722 L
76 344.722 L
76 344.722 L
76 344.722 L
76 344.722 L
76 344.722 L
76 344.722 L
76 344.722 L
76 344.722 L
76 344.722 L
76 344.722 L
76 344.722 L
76 344.722 L
76 344.722 L
76 344.722 L
76 344.722 L
76 344.722 L
76 344.722 L
76 344.722 L
76 344.722 L
76 344.722 L
76 344.722 L
76 344.722 L
76 344.722 L
76 344.722 L
76 344.722 L
76 344.722 L
76 344.722 L
76 344.722 L
76 344.722 L
76 344.722 L
76 344.722 L
76 344.722 L
76 344.722 L
76 344.722 L
76 344.722 L
76 344.722 L
76 344.722 L
76 344.722 L
76 344.722 L
76 344.722 L
76 344.722 L
76 344.722 L
76 344.722 L
76 344.722 L
76 344.722 L
76 344.722 L
76 344.722 L
76 344.722 L
76 344.722 L
76 344.722 L
76 344.722 L
76 344.722 L
76 344.722 L
76 344.722 L
76 344.722 L
76 344.722 L
76 344.722 L
76 344.722 L
76 344.722 L
76 344.722 L
76 344.722 L
76 344.722 L
76 344.722 L
76 344.722 L
76 344.722 L
76 344.722 L
76 344.722 L
76 344.722 L
76 344.722 L
76 344.722 L
76 344.722 L
76 344.722 L
76 344.722 L
76 344.722 L
76 344.722 L
76 344.722 L
76 344.722 L
76 344.722 L
76 344.722 L
76 344.722 L
S
GR
GS
1 0 0 RC
1 LJ
3 LW
N
507 39 M
238.144 43.856 L
218.731 43.856 L
200.698 44.16 L
183.674 44.16 L
183.674 44.16 L
168.019 44.16 L
153.774 44.16 L
141.054 44.16 L
141.054 44.16 L
130.126 44.16 L
120.362 44.463 L
112.615 44.463 L
112.615 44.463 L
105.756 44.463 L
100.221 44.463 L
95.494 44.463 L
91.397 44.767 L
91.397 44.767 L
88.274 44.767 L
87.466 44.767 L
86.99 44.767 L
86.99 44.767 L
86.056 44.767 L
84.715 45.07 L
83.415 45.07 L
83.415 45.07 L
81.919 45.374 L
80.716 45.374 L
79.776 45.374 L
78.951 45.981 L
78.951 45.981 L
78.292 45.981 L
77.834 46.284 L
77.421 46.588 L
77.421 46.588 L
77.135 46.891 L
76.877 47.498 L
76.665 47.802 L
76.665 47.802 L
76.521 47.802 L
76.384 48.105 L
76.327 48.105 L
76.327 48.105 L
76.241 48.409 L
76.195 48.409 L
76.16 48.712 L
76.12 49.016 L
76.12 49.016 L
76.092 49.016 L
76.046 49.319 L
76.034 49.623 L
76.034 49.623 L
76.017 49.926 L
76.017 50.23 L
76.011 50.533 L
76.011 50.533 L
76.011 50.533 L
76.011 50.533 L
76.006 51.444 L
76.006 51.444 L
76.006 51.444 L
76.006 51.747 L
76.006 51.747 L
76 51.747 L
76 51.747 L
76 51.747 L
76 51.747 L
76 51.747 L
76 51.747 L
76 51.747 L
76 51.747 L
76 51.747 L
76 51.747 L
76 52.051 L
76 52.051 L
76 52.051 L
76 52.051 L
76 52.051 L
76 52.354 L
76 52.658 L
76 52.658 L
76 52.658 L
76 52.961 L
76 52.961 L
76 52.961 L
76 52.961 L
76 53.568 L
76 53.568 L
76 53.872 L
76 53.872 L
76 53.872 L
76 54.479 L
76 54.479 L
76 54.479 L
76 54.479 L
76 54.479 L
76 54.479 L
76 54.479 L
76 54.479 L
76 54.479 L
76 54.479 L
76 54.479 L
76 55.389 L
76 55.389 L
76 55.693 L
76 55.693 L
76 55.693 L
76 55.693 L
76 55.693 L
76 55.693 L
76 55.693 L
76 55.693 L
76 55.693 L
76 55.996 L
76 55.996 L
76 55.996 L
76 55.996 L
76 56.3 L
76 56.603 L
76 56.603 L
76 56.603 L
76 56.907 L
76 56.907 L
76 56.907 L
76 56.907 L
76 58.121 L
76 58.424 L
76 58.424 L
76 58.424 L
76 59.335 L
76 59.638 L
76 60.245 L
76 60.549 L
76 60.549 L
76 61.459 L
76 61.763 L
76 61.763 L
76 61.763 L
76 62.066 L
76 62.066 L
76 62.37 L
76 62.37 L
76 62.37 L
76 62.673 L
76 62.977 L
76 62.977 L
76 62.977 L
76 63.28 L
76 63.887 L
76 64.494 L
76 64.494 L
76 64.494 L
76 64.798 L
76 64.798 L
76 64.798 L
76 64.798 L
76 65.405 L
76 66.922 L
76 66.922 L
76 68.136 L
76 68.136 L
76 68.136 L
76 68.44 L
76 68.44 L
76 68.743 L
76 69.047 L
76 69.35 L
76 69.35 L
76 69.957 L
76 70.261 L
76 70.868 L
76 70.868 L
76 71.171 L
76 71.778 L
76 72.992 L
76 72.992 L
76 73.296 L
76 74.206 L
76 75.117 L
76 75.117 L
76 75.117 L
76 75.42 L
76 75.42 L
76 75.724 L
76 75.724 L
76 76.027 L
76 76.027 L
76 76.331 L
76 76.331 L
76 76.331 L
76 76.634 L
76 76.634 L
76 76.938 L
76 76.938 L
76 77.545 L
76 77.848 L
76 78.455 L
76 78.455 L
76 79.062 L
76 79.366 L
76 79.669 L
76 79.669 L
76 79.973 L
76 80.883 L
76 80.883 L
76 81.187 L
76 81.187 L
76 81.49 L
76 81.794 L
76 81.794 L
76 81.794 L
76 81.794 L
76 82.097 L
76 82.401 L
76 82.401 L
76 82.704 L
76 82.704 L
76 82.704 L
76 82.704 L
76 82.704 L
76 82.704 L
76 83.311 L
76 83.311 L
76 83.311 L
76 83.918 L
76 84.222 L
76 84.525 L
76 84.525 L
76 84.525 L
76 84.829 L
76 84.829 L
76 84.829 L
76 85.436 L
76 86.043 L
76 86.65 L
76 86.65 L
76 86.65 L
76 87.257 L
76 87.864 L
76 88.167 L
76 88.167 L
76 88.471 L
76 89.078 L
76 89.685 L
76 89.685 L
76 90.595 L
76 90.899 L
76 91.506 L
76 91.506 L
76 91.809 L
76 91.809 L
76 92.113 L
76 93.023 L
76 93.023 L
76 93.023 L
76 93.023 L
76 93.63 L
76 93.63 L
76 93.63 L
76 93.63 L
76 93.63 L
76 93.63 L
76 94.237 L
76 94.541 L
76 95.148 L
76 95.148 L
76 95.148 L
76 95.755 L
76 96.058 L
76 96.362 L
76 96.362 L
76 96.969 L
76 97.576 L
76 98.486 L
76 98.486 L
76 99.093 L
76 100.307 L
76 101.218 L
76 101.218 L
76 101.218 L
76 101.521 L
76 101.521 L
76 101.825 L
76 101.825 L
76 101.825 L
76 102.128 L
76 103.646 L
76 103.646 L
76 103.949 L
76 104.253 L
76 104.556 L
76 104.556 L
76 104.86 L
76 105.163 L
76 105.467 L
76 105.77 L
76 105.77 L
76 106.377 L
76 106.377 L
76 106.377 L
76 106.377 L
76 106.984 L
76 108.198 L
76 108.805 L
76 108.805 L
76 109.716 L
76 110.323 L
76 110.93 L
76 111.233 L
76 111.233 L
76 112.144 L
76 112.751 L
76 113.965 L
76 113.965 L
76 114.875 L
76 115.179 L
76 115.482 L
76 115.482 L
76 117 L
76 117.303 L
76 117.911 L
76 117.911 L
76 118.518 L
76 118.821 L
76 119.732 L
76 119.732 L
76 119.732 L
76 120.035 L
76 120.339 L
76 121.249 L
76 121.249 L
76 121.553 L
76 122.463 L
76 122.767 L
76 122.767 L
76 123.374 L
76 124.588 L
76 124.891 L
76 125.195 L
76 125.195 L
76 125.498 L
76 125.802 L
76 125.802 L
76 125.802 L
76 126.712 L
76 127.319 L
76 129.14 L
76 129.14 L
76 129.747 L
76 130.658 L
76 130.961 L
76 130.961 L
76 130.961 L
76 131.265 L
76 132.175 L
76 132.479 L
76 132.479 L
76 134.3 L
76 135.514 L
76 136.121 L
76 136.121 L
76 137.335 L
76 139.156 L
76 140.066 L
76 140.066 L
76 142.191 L
76 142.191 L
76 143.708 L
76 144.315 L
76 144.315 L
76 145.226 L
76 146.136 L
76 146.743 L
76 146.743 L
76 147.047 L
76 148.261 L
76 148.564 L
76 148.564 L
76 150.082 L
76 150.689 L
76 150.992 L
76 150.992 L
76 152.813 L
76 153.42 L
76 154.027 L
76 154.027 L
76 154.027 L
76 154.938 L
76 155.241 L
76 156.152 L
76 156.152 L
76 156.455 L
76 157.062 L
76 159.187 L
76 159.187 L
76 159.794 L
76 159.794 L
76 160.401 L
76 161.008 L
76 161.008 L
76 162.525 L
76 163.132 L
76 163.132 L
76 163.132 L
76 165.257 L
76 165.257 L
76 167.078 L
76 167.078 L
76 167.685 L
76 168.899 L
76 170.416 L
76 171.023 L
76 171.023 L
76 171.934 L
76 173.451 L
76 173.755 L
76 173.755 L
76 174.665 L
76 175.879 L
76 176.183 L
76 176.183 L
76 177.093 L
76 177.397 L
76 178.307 L
76 178.307 L
76 179.218 L
76 180.128 L
76 181.039 L
76 181.342 L
76 181.342 L
76 181.646 L
76 181.949 L
76 182.86 L
76 182.86 L
76 183.467 L
76 184.074 L
76 184.681 L
76 184.681 L
76 185.591 L
76 186.198 L
76 187.109 L
76 188.93 L
76 188.93 L
76 189.84 L
76 191.358 L
76 192.268 L
76 192.268 L
76 193.179 L
76 193.786 L
76 194.089 L
76 194.089 L
76 194.393 L
76 195 L
76 195.607 L
76 195.607 L
76 195.911 L
76 196.518 L
76 197.125 L
76 197.732 L
76 197.732 L
76 198.035 L
76 199.249 L
76 199.553 L
76 199.553 L
76 200.463 L
76 201.07 L
76 201.981 L
76 201.981 L
76 202.588 L
76 202.891 L
76 203.802 L
76 204.712 L
76 204.712 L
76 205.319 L
76 205.926 L
76 206.23 L
76 206.23 L
76 208.051 L
76 208.658 L
76 208.961 L
76 208.961 L
76 209.872 L
76 211.389 L
76 211.996 L
76 211.996 L
76 212.603 L
76 212.907 L
76 214.121 L
76 214.728 L
76 214.728 L
76 214.728 L
76 215.638 L
76 215.638 L
76 215.638 L
76 216.852 L
76 217.763 L
76 217.763 L
76 217.763 L
76 218.066 L
76 218.066 L
76 218.977 L
76 219.28 L
76 219.28 L
76 219.584 L
76 220.798 L
76 221.405 L
76 221.405 L
76 222.315 L
76 222.922 L
76 222.922 L
76 222.922 L
76 223.529 L
76 223.529 L
76 224.44 L
76 224.44 L
76 224.44 L
76 224.743 L
76 224.743 L
76 225.35 L
76 225.35 L
76 225.957 L
76 226.261 L
76 226.564 L
76 226.564 L
76 226.868 L
76 227.778 L
76 228.082 L
76 228.082 L
76 228.385 L
76 228.689 L
76 228.689 L
76 228.992 L
76 228.992 L
76 229.599 L
76 229.903 L
76 230.813 L
76 230.813 L
76 231.117 L
76 231.724 L
76 231.724 L
76 231.724 L
76 232.634 L
76 233.545 L
76 234.152 L
76 234.152 L
76 234.152 L
76 235.062 L
76 235.669 L
76 235.973 L
76 235.973 L
76 236.276 L
76 237.187 L
76 237.49 L
76 237.49 L
76 238.097 L
76 239.008 L
76 239.615 L
76 239.615 L
76 240.525 L
76 241.739 L
76 242.043 L
76 242.346 L
76 242.346 L
76 242.65 L
76 243.257 L
76 243.864 L
76 243.864 L
76 244.167 L
76 245.078 L
76 245.381 L
76 245.381 L
76 245.988 L
76 246.595 L
76 247.202 L
76 247.809 L
76 247.809 L
76 248.113 L
76 248.113 L
76 249.023 L
76 249.023 L
76 249.934 L
76 250.844 L
76 252.058 L
76 252.058 L
76 252.665 L
76 252.665 L
76 253.272 L
76 253.272 L
76 253.576 L
76 253.879 L
76 254.486 L
76 254.79 L
76 254.79 L
76 255.397 L
76 256.004 L
76 256.611 L
76 256.611 L
76 258.128 L
76 258.128 L
76 258.128 L
76 258.128 L
76 258.735 L
76 259.342 L
76 259.342 L
76 260.253 L
76 260.253 L
76 261.163 L
76 261.467 L
76 261.77 L
76 261.77 L
76 262.074 L
76 263.288 L
76 263.895 L
76 263.895 L
76 265.412 L
76 266.019 L
76 267.233 L
76 267.233 L
76 267.233 L
76 267.84 L
76 268.144 L
76 268.447 L
76 268.447 L
76 268.751 L
76 269.358 L
76 270.572 L
76 270.572 L
76 270.875 L
76 271.482 L
76 272.09 L
76 272.09 L
76 272.697 L
76 273.607 L
76 274.214 L
76 274.518 L
76 274.518 L
76 274.518 L
76 274.821 L
76 275.125 L
76 275.125 L
76 276.339 L
76 277.249 L
76 277.249 L
76 277.249 L
76 278.16 L
76 278.767 L
76 279.07 L
76 279.677 L
76 279.677 L
76 280.588 L
76 281.498 L
76 282.105 L
76 282.105 L
76 282.409 L
76 283.016 L
76 283.319 L
76 283.319 L
76 284.533 L
76 284.533 L
76 285.747 L
76 285.747 L
76 286.051 L
76 286.051 L
76 286.354 L
76 287.265 L
76 287.265 L
76 287.872 L
76 287.872 L
76 287.872 L
76 287.872 L
76 287.872 L
76 288.175 L
76 288.782 L
76 288.782 L
76 289.389 L
76 289.389 L
76 290.3 L
76 291.514 L
76 291.514 L
76 292.728 L
76 293.638 L
76 294.852 L
76 294.852 L
76 295.156 L
76 295.763 L
76 296.066 L
76 296.066 L
76 296.977 L
76 296.977 L
76 297.584 L
76 297.584 L
76 298.191 L
76 298.191 L
76 298.798 L
76 299.405 L
76 299.405 L
76 300.012 L
76 300.315 L
76 300.315 L
76 300.315 L
76 300.619 L
76 301.529 L
76 302.136 L
76 302.136 L
76 302.136 L
76 302.743 L
76 302.743 L
76 303.047 L
76 303.047 L
76 303.957 L
76 304.868 L
76 305.171 L
76 305.171 L
76 305.475 L
76 305.475 L
76 306.082 L
76 306.082 L
76 306.082 L
76 307.296 L
76 308.51 L
76 308.51 L
76 308.51 L
76 308.51 L
76 308.51 L
76 308.813 L
76 308.813 L
76 309.42 L
76 310.331 L
76 310.634 L
76 310.634 L
76 310.938 L
76 310.938 L
76 311.848 L
76 311.848 L
76 311.848 L
76 312.152 L
76 313.366 L
76 313.973 L
76 313.973 L
76 314.276 L
76 314.58 L
76 314.883 L
76 314.883 L
76 315.794 L
76 316.704 L
76 317.008 L
76 317.008 L
76 317.008 L
76 317.615 L
76 317.615 L
76 317.615 L
76 317.615 L
76 317.918 L
76 318.222 L
76 318.525 L
76 318.525 L
76 318.829 L
76 319.739 L
76 320.346 L
76 320.346 L
76 320.65 L
76 320.953 L
76 320.953 L
76 320.953 L
76 321.257 L
76 322.471 L
76 322.471 L
76 322.774 L
76 322.774 L
76 322.774 L
76 323.078 L
76 323.685 L
76 323.685 L
76 324.292 L
76 324.899 L
76 325.202 L
76 325.202 L
76 325.202 L
76 325.506 L
76 326.416 L
76 326.72 L
76 326.72 L
76 326.72 L
76 327.327 L
76 327.327 L
76 327.327 L
76 327.327 L
76 327.63 L
76 327.63 L
76 327.63 L
76 327.934 L
76 328.237 L
76 328.541 L
76 328.541 L
76 328.844 L
76 328.844 L
76 328.844 L
76 328.844 L
76 328.844 L
76 329.148 L
76 329.451 L
76 329.755 L
76 329.755 L
76 329.755 L
76 329.755 L
76 330.058 L
76 330.058 L
76 330.665 L
76 330.665 L
76 331.272 L
76 331.879 L
76 331.879 L
76 332.183 L
76 332.79 L
76 333.093 L
76 333.093 L
76 333.397 L
76 333.397 L
76 333.7 L
76 333.7 L
76 333.7 L
76 333.7 L
76 333.7 L
76 333.7 L
76 333.7 L
76 334.004 L
76 334.307 L
76 334.914 L
76 334.914 L
76 335.218 L
76 335.825 L
76 336.432 L
76 336.432 L
76 337.039 L
76 337.646 L
76 337.949 L
76 337.949 L
76 337.949 L
76 337.949 L
76 338.556 L
76 338.86 L
76 338.86 L
76 339.163 L
76 339.163 L
76 339.467 L
76 339.467 L
76 339.467 L
76 339.467 L
76 339.77 L
76 339.77 L
76 340.377 L
76 340.377 L
76 340.984 L
76 340.984 L
76 340.984 L
76 341.895 L
76 341.895 L
76 342.198 L
76 342.198 L
76 342.198 L
76 342.805 L
76 342.805 L
76 342.805 L
76 342.805 L
76 342.805 L
76 342.805 L
76 342.805 L
76 343.109 L
76 343.412 L
76 343.412 L
76 343.412 L
76 343.412 L
76 343.412 L
76 343.412 L
76 343.412 L
76 343.412 L
76 343.716 L
76 343.716 L
76 343.716 L
76 343.716 L
76 344.019 L
76 344.323 L
76 344.323 L
76 345.233 L
76 345.233 L
76 345.233 L
76 345.233 L
76 345.537 L
76 345.537 L
76 345.84 L
76 345.84 L
76 345.84 L
76 345.84 L
76 346.144 L
76 346.447 L
76 346.751 L
76 346.751 L
76 346.751 L
76 346.751 L
76 346.751 L
76 347.054 L
76 347.054 L
76 347.054 L
76 347.054 L
76 347.054 L
76 347.054 L
76 347.358 L
76 347.358 L
76 347.358 L
76 347.358 L
76 347.358 L
76 347.358 L
76 347.358 L
76 347.358 L
76 347.358 L
76 347.358 L
76 347.358 L
76 347.358 L
76 347.358 L
76 347.358 L
76 347.358 L
76 347.965 L
76 347.965 L
76 347.965 L
76 347.965 L
76 347.965 L
76 348.268 L
76 348.268 L
76 348.268 L
76 348.268 L
76 348.572 L
76 348.572 L
76 348.572 L
76 348.572 L
76 348.572 L
76 348.572 L
76 348.572 L
76 348.572 L
76 348.875 L
76 348.875 L
76 348.875 L
76 348.875 L
76 349.179 L
76 349.179 L
76 349.179 L
76 349.179 L
76 349.179 L
76 349.482 L
76 349.482 L
76 349.482 L
76 349.482 L
76 349.482 L
76 349.482 L
76 349.482 L
76 349.482 L
76 349.482 L
76 349.482 L
76 349.482 L
76 349.786 L
76 349.786 L
76 349.786 L
76 349.786 L
76 349.786 L
76 349.786 L
76 349.786 L
76 349.786 L
76 349.786 L
76 349.786 L
76 349.786 L
76 349.786 L
76 349.786 L
76 349.786 L
76 349.786 L
76 349.786 L
76 349.786 L
76 349.786 L
76 349.786 L
76 349.786 L
76 349.786 L
76 349.786 L
76 349.786 L
76 350.09 L
76 350.09 L
76 350.09 L
76 350.09 L
76 350.393 L
76 350.393 L
76 350.393 L
76 350.393 L
76 350.393 L
76 350.393 L
76 350.393 L
76 350.393 L
76 350.393 L
76 350.393 L
76 350.393 L
76 350.393 L
76 350.697 L
76 350.697 L
76 350.697 L
S
GR
GS
[12 12] 0 setdash
2 LJ
3 LW
N
507 39 M
205.975 159.648 L
205.975 159.648 L
205.975 159.648 L
189.111 164.348 L
189.111 164.348 L
189.111 164.348 L
189.111 164.348 L
173.255 167.678 L
173.255 167.678 L
173.255 167.678 L
173.255 167.678 L
158.968 171.203 L
158.968 171.203 L
158.968 171.203 L
146.114 174.141 L
146.114 174.141 L
146.114 174.141 L
146.114 174.141 L
134.572 178.058 L
134.572 178.058 L
134.572 178.058 L
134.572 178.058 L
124.605 181.976 L
124.605 181.976 L
124.605 181.976 L
116.518 185.697 L
116.518 185.697 L
116.518 185.697 L
116.518 185.697 L
108.967 188.243 L
108.967 188.243 L
108.967 188.243 L
108.967 188.243 L
102.724 189.222 L
102.724 189.222 L
102.724 189.222 L
97.687 192.552 L
97.687 192.552 L
97.687 192.552 L
97.687 192.552 L
93.443 194.51 L
93.443 194.51 L
93.443 194.51 L
93.443 194.51 L
90.072 195.881 L
90.072 195.881 L
90.072 195.881 L
87.351 197.252 L
87.351 197.252 L
87.351 197.252 L
87.351 197.252 L
85.063 199.211 L
85.063 199.211 L
85.063 199.211 L
85.063 199.211 L
84.523 199.994 L
84.523 199.994 L
84.523 199.994 L
84.523 199.994 L
84.17 199.994 L
84.17 199.994 L
84.17 199.994 L
83.361 200.19 L
83.361 200.19 L
83.361 200.19 L
83.361 200.19 L
82.401 200.582 L
82.401 200.582 L
82.401 200.582 L
82.401 200.582 L
81.275 200.974 L
81.275 200.974 L
81.275 200.974 L
80.283 202.149 L
80.283 202.149 L
80.283 202.149 L
80.283 202.149 L
79.316 203.52 L
79.316 203.52 L
79.316 203.52 L
79.316 203.52 L
78.673 205.087 L
78.673 205.087 L
78.673 205.087 L
78.126 207.045 L
78.126 207.045 L
78.126 207.045 L
78.126 207.045 L
77.638 208.416 L
77.638 208.416 L
77.638 208.416 L
77.638 208.416 L
77.233 209.983 L
77.233 209.983 L
77.233 209.983 L
76.98 211.158 L
76.98 211.158 L
76.98 211.158 L
76.98 211.158 L
76.805 213.117 L
76.805 213.117 L
76.805 213.117 L
76.805 213.117 L
76.631 214.879 L
76.631 214.879 L
76.631 214.879 L
76.631 214.879 L
76.508 216.642 L
76.508 216.642 L
76.508 216.642 L
76.377 218.013 L
76.377 218.013 L
76.377 218.013 L
76.377 218.013 L
76.301 219.384 L
76.301 219.384 L
76.301 219.384 L
76.301 219.384 L
76.238 221.539 L
76.238 221.539 L
76.238 221.539 L
76.194 223.497 L
76.194 223.497 L
76.194 223.497 L
76.194 223.497 L
76.139 226.043 L
76.139 226.043 L
76.139 226.043 L
76.139 226.043 L
76.111 228.002 L
76.111 228.002 L
76.111 228.002 L
76.075 229.96 L
76.075 229.96 L
76.075 229.96 L
76.075 229.96 L
76.059 232.898 L
76.059 232.898 L
76.059 232.898 L
76.059 232.898 L
76.056 235.249 L
76.056 235.249 L
76.056 235.249 L
76.04 237.599 L
76.04 237.599 L
76.04 237.599 L
76.04 237.599 L
76.028 239.557 L
76.028 239.557 L
76.028 239.557 L
76.028 239.557 L
76.008 241.712 L
76.008 241.712 L
76.008 241.712 L
76.008 244.454 L
76.008 244.454 L
76.008 244.454 L
76.008 244.454 L
76.004 247 L
76.004 247 L
76.004 247 L
76.004 247 L
76 248.371 L
76 248.371 L
76 248.371 L
76 248.371 L
76 249.35 L
76 249.35 L
76 249.35 L
76 250.721 L
76 250.721 L
76 250.721 L
76 250.721 L
76 252.68 L
76 252.68 L
76 252.68 L
76 252.68 L
76 253.463 L
76 253.463 L
76 253.463 L
76 255.226 L
76 255.226 L
76 255.226 L
76 255.226 L
76 256.793 L
76 256.793 L
76 256.793 L
76 256.793 L
76 257.576 L
76 257.576 L
76 257.576 L
76 258.36 L
76 258.36 L
76 258.36 L
76 258.36 L
76 259.731 L
76 259.731 L
76 259.731 L
76 259.731 L
76 261.298 L
76 261.298 L
76 261.298 L
76 262.081 L
76 262.081 L
76 262.081 L
76 262.081 L
76 263.256 L
76 263.256 L
76 263.256 L
76 263.256 L
76 264.627 L
76 264.627 L
76 264.627 L
76 264.627 L
76 265.019 L
76 265.019 L
76 265.019 L
76 265.802 L
76 265.802 L
76 265.802 L
76 265.802 L
76 266.586 L
76 266.586 L
76 266.586 L
76 266.586 L
76 267.173 L
76 267.173 L
76 267.173 L
76 267.957 L
76 267.957 L
76 267.957 L
76 267.957 L
76 269.132 L
76 269.132 L
76 269.132 L
76 269.132 L
76 270.111 L
76 270.111 L
76 270.111 L
76 270.895 L
76 270.895 L
76 270.895 L
76 270.895 L
76 271.678 L
76 271.678 L
76 271.678 L
76 271.678 L
76 273.245 L
76 273.245 L
76 273.245 L
76 273.637 L
76 273.637 L
76 273.637 L
76 273.637 L
76 274.42 L
76 274.42 L
76 274.42 L
76 274.42 L
76 274.812 L
76 274.812 L
76 274.812 L
76 276.574 L
76 276.574 L
76 276.574 L
76 276.574 L
76 276.966 L
76 276.966 L
76 276.966 L
76 276.966 L
76 279.316 L
76 279.316 L
76 279.316 L
76 279.316 L
76 280.1 L
76 280.1 L
76 280.1 L
76 281.275 L
76 281.275 L
76 281.275 L
76 281.275 L
76 282.254 L
76 282.254 L
76 282.254 L
76 282.254 L
76 283.429 L
76 283.429 L
76 283.429 L
76 284.605 L
76 284.605 L
76 284.605 L
76 284.605 L
76 284.996 L
76 284.996 L
76 284.996 L
76 284.996 L
76 285.976 L
76 285.976 L
76 285.976 L
76 286.759 L
76 286.759 L
76 286.759 L
76 286.759 L
76 288.718 L
76 288.718 L
76 288.718 L
76 288.718 L
76 289.305 L
76 289.305 L
76 289.305 L
76 290.48 L
76 290.48 L
76 290.48 L
76 290.48 L
76 291.264 L
76 291.264 L
76 291.264 L
76 291.264 L
76 291.655 L
76 291.655 L
76 291.655 L
76 291.655 L
76 293.81 L
76 293.81 L
76 293.81 L
76 294.789 L
76 294.789 L
76 294.789 L
76 294.789 L
76 295.964 L
76 295.964 L
76 295.964 L
76 295.964 L
76 297.335 L
76 297.335 L
76 297.335 L
76 298.119 L
76 298.119 L
76 298.119 L
76 298.119 L
76 299.49 L
76 299.49 L
76 299.49 L
76 299.49 L
76 300.665 L
76 300.665 L
76 300.665 L
76 301.448 L
76 301.448 L
76 301.448 L
76 301.448 L
76 302.427 L
76 302.427 L
76 302.427 L
76 302.427 L
76 302.819 L
76 302.819 L
76 302.819 L
76 303.798 L
76 303.798 L
76 303.798 L
76 303.798 L
76 304.19 L
76 304.19 L
76 304.19 L
76 304.19 L
76 304.778 L
76 304.778 L
76 304.778 L
76 304.778 L
76 305.561 L
76 305.561 L
76 305.561 L
76 307.324 L
76 307.324 L
76 307.324 L
76 307.324 L
76 307.911 L
76 307.911 L
76 307.911 L
76 307.911 L
76 308.695 L
76 308.695 L
76 308.695 L
76 309.478 L
76 309.478 L
76 309.478 L
76 309.478 L
76 310.066 L
76 310.066 L
76 310.066 L
76 310.066 L
76 311.045 L
76 311.045 L
76 311.045 L
76 311.437 L
76 311.437 L
76 311.437 L
76 311.437 L
76 312.416 L
76 312.416 L
76 312.416 L
76 312.416 L
76 312.808 L
76 312.808 L
76 312.808 L
76 313.787 L
76 313.787 L
76 313.787 L
76 313.787 L
76 314.375 L
76 314.375 L
76 314.375 L
76 314.375 L
76 314.962 L
76 314.962 L
76 314.962 L
76 315.158 L
76 315.158 L
76 315.158 L
76 315.158 L
76 316.137 L
76 316.137 L
76 316.137 L
76 316.137 L
76 317.117 L
76 317.117 L
76 317.117 L
76 317.117 L
76 317.508 L
76 317.508 L
76 317.508 L
76 317.508 L
76 317.508 L
76 317.508 L
76 317.508 L
76 318.096 L
76 318.096 L
76 318.096 L
76 318.096 L
76 318.488 L
76 318.488 L
76 318.488 L
76 318.879 L
76 318.879 L
76 318.879 L
76 318.879 L
76 319.663 L
76 319.663 L
76 319.663 L
76 319.663 L
76 319.859 L
76 319.859 L
76 319.859 L
76 320.446 L
76 320.446 L
76 320.446 L
76 320.446 L
76 320.642 L
76 320.642 L
76 320.642 L
76 320.642 L
76 321.426 L
76 321.426 L
76 321.426 L
76 322.405 L
76 322.405 L
76 322.405 L
76 322.405 L
76 322.797 L
76 322.797 L
76 322.797 L
76 322.797 L
76 323.188 L
76 323.188 L
76 323.188 L
76 323.188 L
76 324.363 L
76 324.363 L
76 324.363 L
76 324.951 L
76 324.951 L
76 324.951 L
76 324.951 L
76 325.734 L
76 325.734 L
76 325.734 L
76 325.734 L
76 326.518 L
76 326.518 L
76 326.518 L
76 327.301 L
76 327.301 L
76 327.301 L
76 327.301 L
76 327.693 L
76 327.693 L
76 327.693 L
76 327.693 L
76 327.693 L
76 327.693 L
76 327.693 L
76 327.889 L
76 327.889 L
76 327.889 L
76 327.889 L
76 327.889 L
76 327.889 L
76 327.889 L
76 327.889 L
76 328.281 L
76 328.281 L
76 328.281 L
76 329.652 L
76 329.652 L
76 329.652 L
76 329.652 L
76 330.043 L
76 330.043 L
76 330.043 L
76 330.043 L
76 330.239 L
76 330.239 L
76 330.239 L
76 331.218 L
76 331.218 L
76 331.218 L
76 331.218 L
76 332.002 L
76 332.002 L
76 332.002 L
76 332.002 L
76 333.373 L
76 333.373 L
76 333.373 L
76 333.373 L
76 333.765 L
76 333.765 L
76 333.765 L
76 334.156 L
76 334.156 L
76 334.156 L
76 334.156 L
76 335.136 L
76 335.136 L
76 335.136 L
76 335.136 L
76 335.723 L
76 335.723 L
76 335.723 L
76 336.507 L
76 336.507 L
76 336.507 L
76 336.507 L
76 337.29 L
76 337.29 L
76 337.29 L
76 337.29 L
76 337.486 L
76 337.486 L
76 337.486 L
76 338.073 L
76 338.073 L
76 338.073 L
76 338.073 L
76 338.465 L
76 338.465 L
76 338.465 L
76 338.465 L
76 338.465 L
76 338.465 L
76 338.465 L
76 338.661 L
76 338.661 L
76 338.661 L
76 338.661 L
76 339.053 L
76 339.053 L
76 339.053 L
76 339.053 L
76 339.444 L
76 339.444 L
76 339.444 L
76 339.444 L
76 339.836 L
76 339.836 L
76 339.836 L
76 339.836 L
76 339.836 L
76 339.836 L
76 339.836 L
76 340.424 L
76 340.424 L
76 340.424 L
76 340.424 L
76 340.815 L
76 340.815 L
76 340.815 L
76 341.403 L
76 341.403 L
76 341.403 L
76 341.403 L
76 341.599 L
76 341.599 L
76 341.599 L
76 341.599 L
76 342.186 L
76 342.186 L
76 342.186 L
76 342.578 L
76 342.578 L
76 342.578 L
76 342.578 L
76 342.774 L
76 342.774 L
76 342.774 L
76 342.774 L
76 342.97 L
76 342.97 L
76 342.97 L
76 343.362 L
76 343.362 L
76 343.362 L
76 343.362 L
76 343.557 L
76 343.557 L
76 343.557 L
76 343.557 L
76 344.537 L
76 344.537 L
76 344.537 L
76 344.537 L
76 344.537 L
76 344.537 L
76 344.537 L
76 345.124 L
76 345.124 L
76 345.124 L
76 345.124 L
76 345.32 L
76 345.32 L
76 345.32 L
76 345.32 L
76 345.516 L
76 345.516 L
76 345.516 L
76 345.516 L
76 345.516 L
76 345.516 L
76 345.516 L
76 345.712 L
76 345.712 L
76 345.712 L
76 345.712 L
76 345.908 L
76 345.908 L
76 345.908 L
76 346.495 L
76 346.495 L
76 346.495 L
76 346.495 L
76 346.495 L
76 346.495 L
76 346.495 L
76 346.495 L
76 346.887 L
76 346.887 L
76 346.887 L
76 347.083 L
76 347.083 L
76 347.083 L
76 347.083 L
76 347.083 L
76 347.083 L
76 347.083 L
76 347.083 L
76 347.083 L
76 347.083 L
76 347.083 L
76 347.279 L
76 347.279 L
76 347.279 L
76 347.279 L
76 347.279 L
76 347.279 L
76 347.279 L
76 347.279 L
76 347.279 L
76 347.279 L
76 347.279 L
76 347.279 L
76 347.279 L
76 347.279 L
76 347.279 L
76 347.475 L
76 347.475 L
76 347.475 L
76 347.475 L
76 347.67 L
76 347.67 L
76 347.67 L
76 347.67 L
76 347.866 L
76 347.866 L
76 347.866 L
76 348.454 L
76 348.454 L
76 348.454 L
76 348.454 L
76 348.846 L
76 348.846 L
76 348.846 L
76 348.846 L
76 349.041 L
76 349.041 L
76 349.041 L
76 349.041 L
76 349.041 L
76 349.041 L
76 349.041 L
76 349.041 L
76 349.041 L
76 349.041 L
76 349.041 L
76 349.433 L
76 349.433 L
76 349.433 L
76 349.433 L
76 349.433 L
76 349.433 L
76 349.433 L
76 349.433 L
76 349.433 L
76 349.433 L
76 349.433 L
76 349.433 L
76 349.433 L
76 349.433 L
76 349.433 L
76 349.433 L
76 349.433 L
76 349.433 L
76 349.433 L
76 349.433 L
76 349.433 L
76 349.433 L
76 349.433 L
76 349.433 L
76 349.433 L
76 349.433 L
76 349.433 L
76 349.433 L
76 349.433 L
76 349.433 L
76 349.433 L
76 349.433 L
76 349.433 L
76 349.433 L
76 349.433 L
76 349.433 L
76 349.433 L
76 349.433 L
76 349.433 L
76 349.433 L
76 349.629 L
76 349.629 L
76 349.629 L
76 349.629 L
76 349.629 L
76 349.629 L
76 349.629 L
76 349.629 L
76 349.629 L
76 349.629 L
76 349.629 L
76 349.629 L
76 349.629 L
76 349.629 L
76 349.629 L
76 349.629 L
76 349.629 L
76 349.629 L
76 349.629 L
76 349.629 L
76 349.629 L
76 349.629 L
76 349.629 L
76 349.629 L
76 349.629 L
76 349.629 L
76 349.629 L
76 349.629 L
76 349.629 L
76 349.629 L
76 349.629 L
76 349.629 L
76 349.629 L
76 349.629 L
76 349.629 L
76 349.629 L
76 349.629 L
76 349.629 L
76 349.629 L
76 349.629 L
76 349.629 L
76 349.629 L
76 349.629 L
76 349.629 L
76 349.629 L
76 349.629 L
76 349.629 L
76 349.629 L
76 349.629 L
76 349.629 L
76 349.629 L
76 349.629 L
76 349.825 L
76 349.825 L
76 349.825 L
76 349.825 L
76 349.825 L
76 349.825 L
76 349.825 L
76 349.825 L
76 349.825 L
76 349.825 L
76 349.825 L
76 349.825 L
76 349.825 L
76 349.825 L
76 349.825 L
76 349.825 L
76 349.825 L
76 349.825 L
76 349.825 L
76 349.825 L
76 349.825 L
76 349.825 L
76 349.825 L
76 349.825 L
76 349.825 L
76 349.825 L
76 349.825 L
76 349.825 L
76 349.825 L
76 349.825 L
76 350.021 L
76 350.021 L
76 350.021 L
76 350.021 L
76 350.021 L
76 350.021 L
76 350.021 L
76 350.021 L
76 350.021 L
76 350.021 L
76 350.021 L
76 350.021 L
76 350.021 L
76 350.021 L
76 350.021 L
76 350.021 L
76 350.021 L
76 350.021 L
76 350.021 L
76 350.021 L
76 350.021 L
76 350.021 L
76 350.021 L
76 350.021 L
76 350.021 L
76 350.021 L
76 350.021 L
76 350.021 L
76 350.021 L
76 350.021 L
76 350.021 L
76 350.021 L
76 350.021 L
76 350.021 L
76 350.021 L
76 350.021 L
76 350.021 L
76 350.021 L
76 350.021 L
76 350.021 L
76 350.021 L
76 350.021 L
76 350.021 L
76 350.021 L
76 350.021 L
76 350.021 L
76 350.021 L
76 350.021 L
76 350.021 L
76 350.021 L
76 350.021 L
76 350.021 L
76 350.021 L
76 350.021 L
76 350.021 L
76 350.021 L
76 350.021 L
76 350.021 L
76 350.021 L
76 350.021 L
76 350.021 L
76 350.021 L
76 350.021 L
76 350.021 L
76 350.021 L
76 350.021 L
76 350.217 L
76 350.217 L
76 350.217 L
76 350.217 L
76 350.217 L
76 350.217 L
76 350.217 L
76 350.217 L
76 350.217 L
76 350.217 L
76 350.217 L
76 350.217 L
76 350.217 L
76 350.217 L
76 350.217 L
76 350.217 L
76 350.217 L
76 350.217 L
76 350.217 L
76 350.217 L
76 350.217 L
76 350.217 L
76 350.217 L
76 350.217 L
76 350.217 L
76 350.217 L
76 350.217 L
76 350.217 L
76 350.217 L
76 350.217 L
76 350.217 L
76 350.217 L
76 350.217 L
76 350.412 L
76 350.412 L
76 350.412 L
76 350.412 L
76 350.412 L
76 350.412 L
76 350.412 L
76 350.412 L
76 350.412 L
76 350.412 L
76 350.412 L
76 350.412 L
76 350.412 L
76 350.412 L
76 350.412 L
76 350.412 L
76 350.412 L
76 350.412 L
76 350.412 L
76 350.412 L
76 350.412 L
76 350.412 L
76 350.412 L
76 350.412 L
76 350.412 L
76 350.412 L
76 350.412 L
76 350.412 L
76 350.412 L
76 350.412 L
76 350.608 L
76 350.608 L
76 350.608 L
76 350.608 L
76 350.608 L
76 350.608 L
76 350.608 L
76 350.608 L
76 350.608 L
76 350.608 L
76 350.608 L
76 350.608 L
76 350.608 L
76 350.608 L
76 350.608 L
76 350.608 L
76 350.608 L
76 350.608 L
76 350.804 L
76 350.804 L
76 350.804 L
76 350.804 L
76 350.804 L
76 350.804 L
76 350.804 L
76 350.804 L
S
GR
GS
[1 0 0 1 338.91 216.84] CT
/Helvetica 24 F
GS
[1 0 0 1 0 0] CT
0 8.5 moveto 
1 -1 scale
(EER line) t 
GR
GR
GS
[10 6] 0 setdash
2 LJ
0.5 LW
N
507 351 M
76 39 L
S
GR
GS
1 GC
N
497 341 M
497 249 L
132 249 L
132 341 L
cp
f
GR
GS
[1 0 0 1 169 265.5] CT
/Helvetica 24 F
GS
[1 0 0 1 0 0] CT
0 8.5 moveto 
1 -1 scale
(NIR images, EER = 0.13) t 
GR
GR
GS
0 0 1 RC
1 LJ
3 LW
N
136 265.5 M
166 265.5 L
S
GR
GS
[1 0 0 1 169 295] CT
/Helvetica 24 F
GS
[1 0 0 1 0 0] CT
0 8.5 moveto 
1 -1 scale
(R images, EER = 0.02) t 
GR
GR
GS
1 0 0 RC
1 LJ
3 LW
N
136 295 M
166 295 L
S
GR
GS
[1 0 0 1 169 324.5] CT
/Helvetica 24 F
GS
[1 0 0 1 0 0] CT
0 8.5 moveto 
1 -1 scale
(cross-wavelength, EER = 0.34) t 
GR
GR
GS
[12 12] 0 setdash
2 LJ
3 LW
N
136 324.5 M
166 324.5 L
S
GR
GS
0.149 GC
10.0 ML
0.5 LW
N
132 341 M
132 249 L
497 249 L
497 341 L
cp
S
GR
%%Trailer
%%Pages: 1
%%EOF
