%!PS-Adobe-3.0 EPSF-3.0
%%Creator: (MATLAB, The Mathworks, Inc. Version 9.3.0.713579 \(R2017b\). Operating System: Mac OS X)
%%Title: ./shortTerm_OSIRIS.eps
%%CreationDate: 2018-07-30T10:54:38
%%Pages: (atend)
%%BoundingBox:     7     5   509   414
%%LanguageLevel: 3
%%EndComments
%%BeginProlog
%%BeginResource: procset (Apache XML Graphics Std ProcSet) 1.2 0
%%Version: 1.2 0
%%Copyright: (Copyright 2001-2003,2010 The Apache Software Foundation. License terms: http://www.apache.org/licenses/LICENSE-2.0)
/bd{bind def}bind def
/ld{load def}bd
/GR/grestore ld
/GS/gsave ld
/RM/rmoveto ld
/C/curveto ld
/t/show ld
/L/lineto ld
/ML/setmiterlimit ld
/CT/concat ld
/f/fill ld
/N/newpath ld
/S/stroke ld
/CC/setcmykcolor ld
/A/ashow ld
/cp/closepath ld
/RC/setrgbcolor ld
/LJ/setlinejoin ld
/GC/setgray ld
/LW/setlinewidth ld
/M/moveto ld
/re {4 2 roll M
1 index 0 rlineto
0 exch rlineto
neg 0 rlineto
cp } bd
/_ctm matrix def
/_tm matrix def
/BT { _ctm currentmatrix pop matrix _tm copy pop 0 0 moveto } bd
/ET { _ctm setmatrix } bd
/iTm { _ctm setmatrix _tm concat } bd
/Tm { _tm astore pop iTm 0 0 moveto } bd
/ux 0.0 def
/uy 0.0 def
/F {
  /Tp exch def
  /Tf exch def
  Tf findfont Tp scalefont setfont
  /cf Tf def  /cs Tp def
} bd
/ULS {currentpoint /uy exch def /ux exch def} bd
/ULE {
  /Tcx currentpoint pop def
  gsave
  newpath
  cf findfont cs scalefont dup
  /FontMatrix get 0 get /Ts exch def /FontInfo get dup
  /UnderlinePosition get Ts mul /To exch def
  /UnderlineThickness get Ts mul /Tt exch def
  ux uy To add moveto  Tcx uy To add lineto
  Tt setlinewidth stroke
  grestore
} bd
/OLE {
  /Tcx currentpoint pop def
  gsave
  newpath
  cf findfont cs scalefont dup
  /FontMatrix get 0 get /Ts exch def /FontInfo get dup
  /UnderlinePosition get Ts mul /To exch def
  /UnderlineThickness get Ts mul /Tt exch def
  ux uy To add cs add moveto Tcx uy To add cs add lineto
  Tt setlinewidth stroke
  grestore
} bd
/SOE {
  /Tcx currentpoint pop def
  gsave
  newpath
  cf findfont cs scalefont dup
  /FontMatrix get 0 get /Ts exch def /FontInfo get dup
  /UnderlinePosition get Ts mul /To exch def
  /UnderlineThickness get Ts mul /Tt exch def
  ux uy To add cs 10 mul 26 idiv add moveto Tcx uy To add cs 10 mul 26 idiv add lineto
  Tt setlinewidth stroke
  grestore
} bd
/QT {
/Y22 exch store
/X22 exch store
/Y21 exch store
/X21 exch store
currentpoint
/Y21 load 2 mul add 3 div exch
/X21 load 2 mul add 3 div exch
/X21 load 2 mul /X22 load add 3 div
/Y21 load 2 mul /Y22 load add 3 div
/X22 load /Y22 load curveto
} bd
/SSPD {
dup length /d exch dict def
{
/v exch def
/k exch def
currentpagedevice k known {
/cpdv currentpagedevice k get def
v cpdv ne {
/upd false def
/nullv v type /nulltype eq def
/nullcpdv cpdv type /nulltype eq def
nullv nullcpdv or
{
/upd true def
} {
/sametype v type cpdv type eq def
sametype {
v type /arraytype eq {
/vlen v length def
/cpdvlen cpdv length def
vlen cpdvlen eq {
0 1 vlen 1 sub {
/i exch def
/obj v i get def
/cpdobj cpdv i get def
obj cpdobj ne {
/upd true def
exit
} if
} for
} {
/upd true def
} ifelse
} {
v type /dicttype eq {
v {
/dv exch def
/dk exch def
/cpddv cpdv dk get def
dv cpddv ne {
/upd true def
exit
} if
} forall
} {
/upd true def
} ifelse
} ifelse
} if
} ifelse
upd true eq {
d k v put
} if
} if
} if
} forall
d length 0 gt {
d setpagedevice
} if
} bd
/RE { % /NewFontName [NewEncodingArray] /FontName RE -
  findfont dup length dict begin
  {
    1 index /FID ne
    {def} {pop pop} ifelse
  } forall
  /Encoding exch def
  /FontName 1 index def
  currentdict definefont pop
  end
} bind def
%%EndResource
%%BeginResource: procset (Apache XML Graphics EPS ProcSet) 1.0 0
%%Version: 1.0 0
%%Copyright: (Copyright 2002-2003 The Apache Software Foundation. License terms: http://www.apache.org/licenses/LICENSE-2.0)
/BeginEPSF { %def
/b4_Inc_state save def         % Save state for cleanup
/dict_count countdictstack def % Count objects on dict stack
/op_count count 1 sub def      % Count objects on operand stack
userdict begin                 % Push userdict on dict stack
/showpage { } def              % Redefine showpage, { } = null proc
0 setgray 0 setlinecap         % Prepare graphics state
1 setlinewidth 0 setlinejoin
10 setmiterlimit [ ] 0 setdash newpath
/languagelevel where           % If level not equal to 1 then
{pop languagelevel             % set strokeadjust and
1 ne                           % overprint to their defaults.
{false setstrokeadjust false setoverprint
} if
} if
} bd
/EndEPSF { %def
count op_count sub {pop} repeat            % Clean up stacks
countdictstack dict_count sub {end} repeat
b4_Inc_state restore
} bd
%%EndResource
%FOPBeginFontDict
%%IncludeResource: font Courier-Oblique
%%IncludeResource: font Courier-BoldOblique
%%IncludeResource: font Courier-Bold
%%IncludeResource: font ZapfDingbats
%%IncludeResource: font Symbol
%%IncludeResource: font Helvetica
%%IncludeResource: font Helvetica-Oblique
%%IncludeResource: font Helvetica-Bold
%%IncludeResource: font Helvetica-BoldOblique
%%IncludeResource: font Times-Roman
%%IncludeResource: font Times-Italic
%%IncludeResource: font Times-Bold
%%IncludeResource: font Times-BoldItalic
%%IncludeResource: font Courier
%FOPEndFontDict
%%BeginResource: encoding WinAnsiEncoding
/WinAnsiEncoding [
/.notdef /.notdef /.notdef /.notdef /.notdef
/.notdef /.notdef /.notdef /.notdef /.notdef
/.notdef /.notdef /.notdef /.notdef /.notdef
/.notdef /.notdef /.notdef /.notdef /.notdef
/.notdef /.notdef /.notdef /.notdef /.notdef
/.notdef /.notdef /.notdef /.notdef /.notdef
/.notdef /.notdef /space /exclam /quotedbl
/numbersign /dollar /percent /ampersand /quotesingle
/parenleft /parenright /asterisk /plus /comma
/hyphen /period /slash /zero /one
/two /three /four /five /six
/seven /eight /nine /colon /semicolon
/less /equal /greater /question /at
/A /B /C /D /E
/F /G /H /I /J
/K /L /M /N /O
/P /Q /R /S /T
/U /V /W /X /Y
/Z /bracketleft /backslash /bracketright /asciicircum
/underscore /quoteleft /a /b /c
/d /e /f /g /h
/i /j /k /l /m
/n /o /p /q /r
/s /t /u /v /w
/x /y /z /braceleft /bar
/braceright /asciitilde /bullet /Euro /bullet
/quotesinglbase /florin /quotedblbase /ellipsis /dagger
/daggerdbl /circumflex /perthousand /Scaron /guilsinglleft
/OE /bullet /Zcaron /bullet /bullet
/quoteleft /quoteright /quotedblleft /quotedblright /bullet
/endash /emdash /asciitilde /trademark /scaron
/guilsinglright /oe /bullet /zcaron /Ydieresis
/space /exclamdown /cent /sterling /currency
/yen /brokenbar /section /dieresis /copyright
/ordfeminine /guillemotleft /logicalnot /sfthyphen /registered
/macron /degree /plusminus /twosuperior /threesuperior
/acute /mu /paragraph /middot /cedilla
/onesuperior /ordmasculine /guillemotright /onequarter /onehalf
/threequarters /questiondown /Agrave /Aacute /Acircumflex
/Atilde /Adieresis /Aring /AE /Ccedilla
/Egrave /Eacute /Ecircumflex /Edieresis /Igrave
/Iacute /Icircumflex /Idieresis /Eth /Ntilde
/Ograve /Oacute /Ocircumflex /Otilde /Odieresis
/multiply /Oslash /Ugrave /Uacute /Ucircumflex
/Udieresis /Yacute /Thorn /germandbls /agrave
/aacute /acircumflex /atilde /adieresis /aring
/ae /ccedilla /egrave /eacute /ecircumflex
/edieresis /igrave /iacute /icircumflex /idieresis
/eth /ntilde /ograve /oacute /ocircumflex
/otilde /odieresis /divide /oslash /ugrave
/uacute /ucircumflex /udieresis /yacute /thorn
/ydieresis
] def
%%EndResource
%FOPBeginFontReencode
/Courier-Oblique findfont
dup length dict begin
  {1 index /FID ne {def} {pop pop} ifelse} forall
  /Encoding WinAnsiEncoding def
  currentdict
end
/Courier-Oblique exch definefont pop
/Courier-BoldOblique findfont
dup length dict begin
  {1 index /FID ne {def} {pop pop} ifelse} forall
  /Encoding WinAnsiEncoding def
  currentdict
end
/Courier-BoldOblique exch definefont pop
/Courier-Bold findfont
dup length dict begin
  {1 index /FID ne {def} {pop pop} ifelse} forall
  /Encoding WinAnsiEncoding def
  currentdict
end
/Courier-Bold exch definefont pop
/Helvetica findfont
dup length dict begin
  {1 index /FID ne {def} {pop pop} ifelse} forall
  /Encoding WinAnsiEncoding def
  currentdict
end
/Helvetica exch definefont pop
/Helvetica-Oblique findfont
dup length dict begin
  {1 index /FID ne {def} {pop pop} ifelse} forall
  /Encoding WinAnsiEncoding def
  currentdict
end
/Helvetica-Oblique exch definefont pop
/Helvetica-Bold findfont
dup length dict begin
  {1 index /FID ne {def} {pop pop} ifelse} forall
  /Encoding WinAnsiEncoding def
  currentdict
end
/Helvetica-Bold exch definefont pop
/Helvetica-BoldOblique findfont
dup length dict begin
  {1 index /FID ne {def} {pop pop} ifelse} forall
  /Encoding WinAnsiEncoding def
  currentdict
end
/Helvetica-BoldOblique exch definefont pop
/Times-Roman findfont
dup length dict begin
  {1 index /FID ne {def} {pop pop} ifelse} forall
  /Encoding WinAnsiEncoding def
  currentdict
end
/Times-Roman exch definefont pop
/Times-Italic findfont
dup length dict begin
  {1 index /FID ne {def} {pop pop} ifelse} forall
  /Encoding WinAnsiEncoding def
  currentdict
end
/Times-Italic exch definefont pop
/Times-Bold findfont
dup length dict begin
  {1 index /FID ne {def} {pop pop} ifelse} forall
  /Encoding WinAnsiEncoding def
  currentdict
end
/Times-Bold exch definefont pop
/Times-BoldItalic findfont
dup length dict begin
  {1 index /FID ne {def} {pop pop} ifelse} forall
  /Encoding WinAnsiEncoding def
  currentdict
end
/Times-BoldItalic exch definefont pop
/Courier findfont
dup length dict begin
  {1 index /FID ne {def} {pop pop} ifelse} forall
  /Encoding WinAnsiEncoding def
  currentdict
end
/Courier exch definefont pop
%FOPEndFontReencode
%%EndProlog
%%Page: 1 1
%%PageBoundingBox: 0 0 560 420
%%BeginPageSetup
[1 0 0 -1 0 420] CT
%%EndPageSetup
GS
1 GC
N
0 0 560 420 re
f
GR
GS
1 GC
N
0 0 560 420 re
f
GR
GS
1 GC
N
76 351 M
507 351 L
507 39 L
76 39 L
cp
f
GR
GS
0.873 GC
1 LJ
0.5 LW
N
76 351 M
76 39 L
S
GR
GS
0.873 GC
1 LJ
0.5 LW
N
162.2 351 M
162.2 39 L
S
GR
GS
0.873 GC
1 LJ
0.5 LW
N
248.4 351 M
248.4 39 L
S
GR
GS
0.873 GC
1 LJ
0.5 LW
N
334.6 351 M
334.6 39 L
S
GR
GS
0.873 GC
1 LJ
0.5 LW
N
420.8 351 M
420.8 39 L
S
GR
GS
0.873 GC
1 LJ
0.5 LW
N
507 351 M
507 39 L
S
GR
GS
0.873 GC
1 LJ
0.5 LW
N
507 351 M
76 351 L
S
GR
GS
0.873 GC
1 LJ
0.5 LW
N
507 288.6 M
76 288.6 L
S
GR
GS
0.873 GC
1 LJ
0.5 LW
N
507 226.2 M
76 226.2 L
S
GR
GS
0.873 GC
1 LJ
0.5 LW
N
507 163.8 M
76 163.8 L
S
GR
GS
0.873 GC
1 LJ
0.5 LW
N
507 101.4 M
76 101.4 L
S
GR
GS
0.873 GC
1 LJ
0.5 LW
N
507 39 M
76 39 L
S
GR
GS
0.149 GC
2 setlinecap
1 LJ
0.5 LW
N
76 351 M
507 351 L
S
GR
GS
0.149 GC
2 setlinecap
1 LJ
0.5 LW
N
76 39 M
507 39 L
S
GR
GS
0.149 GC
2 setlinecap
1 LJ
0.5 LW
N
76 351 M
76 346.69 L
S
GR
GS
0.149 GC
2 setlinecap
1 LJ
0.5 LW
N
162.2 351 M
162.2 346.69 L
S
GR
GS
0.149 GC
2 setlinecap
1 LJ
0.5 LW
N
248.4 351 M
248.4 346.69 L
S
GR
GS
0.149 GC
2 setlinecap
1 LJ
0.5 LW
N
334.6 351 M
334.6 346.69 L
S
GR
GS
0.149 GC
2 setlinecap
1 LJ
0.5 LW
N
420.8 351 M
420.8 346.69 L
S
GR
GS
0.149 GC
2 setlinecap
1 LJ
0.5 LW
N
507 351 M
507 346.69 L
S
GR
GS
0.149 GC
2 setlinecap
1 LJ
0.5 LW
N
76 39 M
76 43.31 L
S
GR
GS
0.149 GC
2 setlinecap
1 LJ
0.5 LW
N
162.2 39 M
162.2 43.31 L
S
GR
GS
0.149 GC
2 setlinecap
1 LJ
0.5 LW
N
248.4 39 M
248.4 43.31 L
S
GR
GS
0.149 GC
2 setlinecap
1 LJ
0.5 LW
N
334.6 39 M
334.6 43.31 L
S
GR
GS
0.149 GC
2 setlinecap
1 LJ
0.5 LW
N
420.8 39 M
420.8 43.31 L
S
GR
GS
0.149 GC
2 setlinecap
1 LJ
0.5 LW
N
507 39 M
507 43.31 L
S
GR
GS
[1 0 0 1 76 357.79999] CT
0.149 GC
/Helvetica 24 F
GS
[1 0 0 1 0 0] CT
-7 23 moveto 
1 -1 scale
(0) t 
GR
GR
GS
[1 0 0 1 162.2 357.79999] CT
0.149 GC
/Helvetica 24 F
GS
[1 0 0 1 0 0] CT
-17 23 moveto 
1 -1 scale
(0.2) t 
GR
GR
GS
[1 0 0 1 248.40001 357.79999] CT
0.149 GC
/Helvetica 24 F
GS
[1 0 0 1 0 0] CT
-17 23 moveto 
1 -1 scale
(0.4) t 
GR
GR
GS
[1 0 0 1 334.60001 357.79999] CT
0.149 GC
/Helvetica 24 F
GS
[1 0 0 1 0 0] CT
-17 23 moveto 
1 -1 scale
(0.6) t 
GR
GR
GS
[1 0 0 1 420.80002 357.79999] CT
0.149 GC
/Helvetica 24 F
GS
[1 0 0 1 0 0] CT
-17 23 moveto 
1 -1 scale
(0.8) t 
GR
GR
GS
[1 0 0 1 507 357.79999] CT
0.149 GC
/Helvetica 24 F
GS
[1 0 0 1 0 0] CT
-7 23 moveto 
1 -1 scale
(1) t 
GR
GR
GS
[1 0 0 1 291.50021 387.79999] CT
0.149 GC
/Helvetica 26.4 F
GS
[1 0 0 1 0 0] CT
-112.5 26 moveto 
1 -1 scale
(False Positive Rate) t 
GR
GR
GS
0.149 GC
2 setlinecap
1 LJ
0.5 LW
N
76 351 M
76 39 L
S
GR
GS
0.149 GC
2 setlinecap
1 LJ
0.5 LW
N
507 351 M
507 39 L
S
GR
GS
0.149 GC
2 setlinecap
1 LJ
0.5 LW
N
76 351 M
80.31 351 L
S
GR
GS
0.149 GC
2 setlinecap
1 LJ
0.5 LW
N
76 288.6 M
80.31 288.6 L
S
GR
GS
0.149 GC
2 setlinecap
1 LJ
0.5 LW
N
76 226.2 M
80.31 226.2 L
S
GR
GS
0.149 GC
2 setlinecap
1 LJ
0.5 LW
N
76 163.8 M
80.31 163.8 L
S
GR
GS
0.149 GC
2 setlinecap
1 LJ
0.5 LW
N
76 101.4 M
80.31 101.4 L
S
GR
GS
0.149 GC
2 setlinecap
1 LJ
0.5 LW
N
76 39 M
80.31 39 L
S
GR
GS
0.149 GC
2 setlinecap
1 LJ
0.5 LW
N
507 351 M
502.69 351 L
S
GR
GS
0.149 GC
2 setlinecap
1 LJ
0.5 LW
N
507 288.6 M
502.69 288.6 L
S
GR
GS
0.149 GC
2 setlinecap
1 LJ
0.5 LW
N
507 226.2 M
502.69 226.2 L
S
GR
GS
0.149 GC
2 setlinecap
1 LJ
0.5 LW
N
507 163.8 M
502.69 163.8 L
S
GR
GS
0.149 GC
2 setlinecap
1 LJ
0.5 LW
N
507 101.4 M
502.69 101.4 L
S
GR
GS
0.149 GC
2 setlinecap
1 LJ
0.5 LW
N
507 39 M
502.69 39 L
S
GR
GS
[1 0 0 1 69.2 351] CT
0.149 GC
/Helvetica 24 F
GS
[1 0 0 1 0 0] CT
-14 8.5 moveto 
1 -1 scale
(0) t 
GR
GR
GS
[1 0 0 1 69.2 288.60001] CT
0.149 GC
/Helvetica 24 F
GS
[1 0 0 1 0 0] CT
-34 8.5 moveto 
1 -1 scale
(0.2) t 
GR
GR
GS
[1 0 0 1 69.2 226.2] CT
0.149 GC
/Helvetica 24 F
GS
[1 0 0 1 0 0] CT
-34 8.5 moveto 
1 -1 scale
(0.4) t 
GR
GR
GS
[1 0 0 1 69.2 163.79999] CT
0.149 GC
/Helvetica 24 F
GS
[1 0 0 1 0 0] CT
-34 8.5 moveto 
1 -1 scale
(0.6) t 
GR
GR
GS
[1 0 0 1 69.2 101.39999] CT
0.149 GC
/Helvetica 24 F
GS
[1 0 0 1 0 0] CT
-34 8.5 moveto 
1 -1 scale
(0.8) t 
GR
GR
GS
[1 0 0 1 69.2 39] CT
0.149 GC
/Helvetica 24 F
GS
[1 0 0 1 0 0] CT
-14 8.5 moveto 
1 -1 scale
(1) t 
GR
GR
GS
[0 -1 1 0 32.2 194.99985] CT
0.149 GC
/Helvetica 26.4 F
GS
[1 0 0 1 0 0] CT
-108 -6 moveto 
1 -1 scale
(True Positive Rate) t 
GR
GR
GS
[1 0 0 1 291.50027 32.40001] CT
/Helvetica-Bold 26.4 F
GS
[1 0 0 1 0 0] CT
-45 -6 moveto 
1 -1 scale
(OSIRIS) t 
GR
GR
GS
0 0 1 RC
1 LJ
3 LW
N
76 346.048 M
76 346.048 L
76 346.048 L
76 346.048 L
76 346.048 L
76 346.048 L
76 346.048 L
76 346.048 L
76 346.048 L
76 346.048 L
76 346.048 L
76 346.048 L
76 346.048 L
76 346.048 L
76 346.048 L
76 346.048 L
76 346.048 L
76 346.048 L
76 346.048 L
76 346.048 L
76 346.048 L
76 346.048 L
76 346.048 L
76 346.048 L
76 346.048 L
76 346.048 L
76 346.048 L
76 346.048 L
76 346.048 L
76 346.048 L
76 346.048 L
76 346.048 L
76 346.048 L
76 346.048 L
76 346.048 L
76 346.048 L
76 346.048 L
76 346.048 L
76 346.048 L
76 346.048 L
76 346.048 L
76 346.048 L
76 346.048 L
76 346.048 L
76 346.048 L
76 346.048 L
76 346.048 L
76 346.048 L
76 346.048 L
76 346.048 L
76 346.048 L
76 346.048 L
76 346.048 L
76 346.048 L
76 346.048 L
76 346.048 L
76 346.048 L
76 346.048 L
76 346.048 L
76 346.048 L
76 346.048 L
76 346.048 L
76 346.048 L
76 346.048 L
76 346.048 L
76 346.048 L
76 346.048 L
76 346.048 L
76 346.048 L
76 346.048 L
76 346.048 L
76 346.048 L
76 346.048 L
76 346.048 L
76 346.048 L
76 346.048 L
76 346.048 L
76 346.048 L
76 346.048 L
76 346.048 L
76 346.048 L
76 346.048 L
76 346.048 L
76 346.048 L
76 346.048 L
76 346.048 L
76 346.048 L
76 346.048 L
76 346.048 L
76 346.048 L
76 346.048 L
76 346.048 L
76 346.048 L
76 346.048 L
76 346.048 L
76 346.048 L
76 346.048 L
76 346.048 L
76 346.048 L
76 346.048 L
76 346.048 L
76 346.048 L
76 346.048 L
76 346.048 L
76 345.34 L
76 344.633 L
76 344.633 L
76 343.925 L
76 343.925 L
76 343.925 L
76 343.218 L
76 343.218 L
76 343.218 L
76 343.218 L
76 343.218 L
76 343.218 L
76 343.218 L
76 342.51 L
76 341.803 L
76 341.095 L
76 341.095 L
76 340.388 L
76 340.388 L
76 339.68 L
76 339.68 L
76 339.68 L
76 339.68 L
76 339.68 L
76 338.973 L
76 338.265 L
76 338.265 L
76 337.558 L
76 337.558 L
76 337.558 L
76 337.558 L
76 337.558 L
76 336.85 L
76 335.435 L
76 335.435 L
76 334.02 L
76 333.313 L
76 333.313 L
76 329.776 L
76 329.068 L
76 325.531 L
76 324.116 L
76 323.408 L
76 321.993 L
76 321.286 L
76 319.871 L
76 317.748 L
76 316.333 L
76 314.918 L
76 312.796 L
76 312.088 L
76 310.673 L
76 309.966 L
76 307.844 L
76 307.136 L
76 305.721 L
76 305.014 L
76 302.184 L
76 300.061 L
76 297.939 L
76 294.401 L
76 293.694 L
76 291.571 L
76 288.741 L
76 288.034 L
76 287.327 L
76 287.327 L
76 285.204 L
76 285.204 L
76 283.082 L
76 280.959 L
76 280.959 L
76 278.837 L
76 278.129 L
76 275.299 L
76 275.299 L
76 275.299 L
76 273.177 L
76 272.469 L
76 271.762 L
76 269.639 L
76 268.224 L
76 266.81 L
76 263.272 L
76 261.857 L
76 259.735 L
76 259.735 L
76 256.905 L
76 256.197 L
76 253.367 L
76 252.66 L
76 249.83 L
76 247 L
76 243.463 L
76 240.633 L
76 237.803 L
76 236.388 L
76 234.973 L
76 232.143 L
76 230.728 L
76 227.19 L
76 226.483 L
76 223.653 L
76 221.531 L
76 220.823 L
76 218.701 L
76 217.286 L
76 214.456 L
76 213.748 L
76 212.333 L
76 211.626 L
76 210.211 L
76 210.211 L
76 208.088 L
76 205.966 L
76 205.259 L
76 205.259 L
76 203.136 L
76 199.599 L
76 198.891 L
76 197.476 L
76 196.769 L
76 196.769 L
76 194.646 L
76 192.524 L
76 191.816 L
76 191.109 L
76 190.401 L
76 190.401 L
76 189.694 L
76 187.571 L
76 184.741 L
76 183.327 L
76 181.912 L
76 181.912 L
76 181.912 L
76 177.667 L
76 176.252 L
76 174.837 L
76 174.129 L
76 172.714 L
76 172.714 L
76 172.007 L
76 168.469 L
76 166.347 L
76 166.347 L
76 164.932 L
76 162.81 L
76 160.687 L
76 159.272 L
76 158.565 L
76 157.15 L
76 156.442 L
76 156.442 L
76 153.612 L
76 152.197 L
76 151.49 L
76 150.782 L
76 150.075 L
76 150.075 L
76 148.66 L
76 148.66 L
76 146.537 L
76 145.83 L
76 145.122 L
76 143 L
76 141.585 L
76 141.585 L
76 140.878 L
76 139.463 L
76 138.755 L
76 137.34 L
76 137.34 L
76 136.633 L
76 135.218 L
76 134.51 L
76 133.095 L
76 131.68 L
76 130.265 L
76 130.265 L
76 128.85 L
76 128.143 L
76 128.143 L
76 128.143 L
76 126.728 L
76 125.313 L
76 123.898 L
76 123.19 L
76 123.19 L
76 122.483 L
76.012 121.776 L
76.012 121.068 L
76.012 121.068 L
76.012 120.361 L
76.012 119.653 L
76.012 119.653 L
76.037 118.946 L
76.037 118.238 L
76.037 118.238 L
76.037 117.531 L
76.037 116.116 L
76.037 116.116 L
76.037 116.116 L
76.037 114.701 L
76.037 114.701 L
76.037 114.701 L
76.05 114.701 L
76.05 114.701 L
76.05 114.701 L
76.05 114.701 L
76.099 113.993 L
76.111 113.993 L
76.111 113.993 L
76.124 113.993 L
76.124 112.578 L
76.124 112.578 L
76.124 111.871 L
76.124 111.163 L
76.124 110.456 L
76.136 110.456 L
76.136 109.041 L
76.136 109.041 L
76.136 109.041 L
76.149 109.041 L
76.149 109.041 L
76.173 109.041 L
76.173 109.041 L
76.173 108.333 L
76.173 107.626 L
76.173 106.918 L
76.223 106.211 L
76.223 106.211 L
76.223 106.211 L
76.235 104.796 L
76.235 104.796 L
76.235 104.796 L
76.285 104.796 L
76.31 104.796 L
76.322 102.673 L
76.322 102.673 L
76.322 102.673 L
76.334 102.673 L
76.334 102.673 L
76.372 102.673 L
76.409 102.673 L
76.421 101.966 L
76.421 101.966 L
76.421 101.966 L
76.433 101.966 L
76.433 101.258 L
76.532 100.551 L
76.557 100.551 L
76.557 99.844 L
76.582 98.429 L
76.594 98.429 L
76.594 98.429 L
76.693 96.306 L
76.693 95.599 L
76.706 94.891 L
76.706 94.891 L
76.706 94.891 L
76.718 94.891 L
76.743 94.891 L
76.793 94.891 L
76.805 94.184 L
76.879 94.184 L
76.916 92.769 L
76.929 92.769 L
76.991 92.769 L
77.015 92.769 L
77.189 92.769 L
77.214 92.061 L
77.238 92.061 L
77.251 90.646 L
77.313 90.646 L
77.337 89.939 L
77.474 89.939 L
77.536 89.939 L
77.56 88.524 L
77.597 87.109 L
77.659 86.401 L
77.697 85.694 L
77.734 84.986 L
77.858 84.279 L
77.882 84.279 L
78.105 84.279 L
78.241 84.279 L
78.353 84.279 L
78.44 83.571 L
78.613 83.571 L
78.885 81.449 L
79.096 81.449 L
79.245 81.449 L
79.43 80.742 L
79.715 80.742 L
79.963 80.034 L
80.359 80.034 L
80.669 80.034 L
80.892 80.034 L
81.238 78.619 L
81.696 78.619 L
81.919 78.619 L
82.328 78.619 L
82.885 78.619 L
83.405 77.204 L
84 77.204 L
84.47 77.204 L
85.028 75.789 L
85.746 75.789 L
86.452 75.789 L
87.306 75.082 L
88.148 75.082 L
88.966 74.374 L
89.969 74.374 L
91.083 73.667 L
92.297 73.667 L
93.548 73.667 L
94.897 73.667 L
96.309 72.959 L
97.795 72.959 L
99.405 72.252 L
101.027 72.252 L
102.835 72.252 L
104.408 71.544 L
106.6 71.544 L
108.656 71.544 L
111.207 71.544 L
113.721 71.544 L
116.222 71.544 L
119.157 71.544 L
122.24 71.544 L
125.51 70.837 L
128.73 70.129 L
132.407 70.129 L
135.726 68.714 L
139.763 68.714 L
143.8 68.714 L
148.333 68.714 L
152.618 68.714 L
157.41 68.007 L
162.289 66.592 L
167.812 66.592 L
173.137 66.592 L
178.239 65.884 L
184.258 65.884 L
189.632 65.884 L
195.353 65.177 L
201.05 64.469 L
207.428 64.469 L
213.718 63.762 L
220.294 63.054 L
227.254 62.347 L
233.941 62.347 L
240.331 62.347 L
247.612 62.347 L
254.659 62.347 L
261.581 62.347 L
268.813 61.639 L
275.637 61.639 L
282.931 60.932 L
290.014 60.932 L
297.035 60.224 L
303.946 58.81 L
311.24 57.395 L
318.323 56.687 L
325.307 56.687 L
332.131 56.687 L
338.595 56.687 L
345.455 56.687 L
351.907 56.687 L
358.471 56.687 L
364.427 55.98 L
370.83 54.565 L
376.798 54.565 L
382.223 54.565 L
388.266 54.565 L
393.999 53.15 L
399.3 51.735 L
404.649 51.735 L
410.086 51.027 L
415.151 49.612 L
419.695 49.612 L
424.76 48.905 L
429.429 48.905 L
432.971 48.905 L
437.305 48.905 L
440.673 48.905 L
444.772 48.905 L
447.93 48.905 L
451.36 48.197 L
454.518 47.49 L
457.775 47.49 L
460.487 47.49 L
463.187 47.49 L
465.49 47.49 L
467.781 47.49 L
471.422 47.49 L
472.982 47.49 L
475.162 47.49 L
477.316 47.49 L
479.384 46.782 L
481.242 46.075 L
482.753 46.075 L
484.35 46.075 L
486.059 46.075 L
487.595 46.075 L
488.92 45.367 L
490.133 45.367 L
491.31 44.66 L
492.375 43.952 L
493.465 43.952 L
494.493 43.952 L
495.533 43.245 L
496.251 43.245 L
497.006 43.245 L
497.675 43.245 L
498.232 42.537 L
498.777 42.537 L
499.396 42.537 L
499.991 41.83 L
500.523 41.122 L
500.957 41.122 L
501.452 41.122 L
501.886 41.122 L
502.257 41.122 L
502.53 41.122 L
502.777 41.122 L
503.062 41.122 L
503.285 41.122 L
503.582 41.122 L
503.793 41.122 L
504.016 41.122 L
504.325 41.122 L
504.548 40.415 L
504.734 40.415 L
504.87 40.415 L
505.031 39.707 L
505.167 39 L
505.291 39 L
505.452 39 L
505.539 39 L
505.601 39 L
505.675 39 L
505.786 39 L
505.836 39 L
505.935 39 L
506.009 39 L
506.071 39 L
506.158 39 L
506.195 39 L
506.22 39 L
506.257 39 L
506.282 39 L
506.282 39 L
506.319 39 L
506.331 39 L
506.356 39 L
506.356 39 L
506.406 39 L
506.467 39 L
506.492 39 L
506.517 39 L
506.579 39 L
506.629 39 L
506.629 39 L
506.653 39 L
506.678 39 L
506.69 39 L
506.715 39 L
506.74 39 L
506.777 39 L
506.777 39 L
506.777 39 L
506.789 39 L
506.802 39 L
506.802 39 L
506.827 39 L
506.839 39 L
506.851 39 L
506.876 39 L
506.876 39 L
506.876 39 L
506.876 39 L
506.889 39 L
506.889 39 L
506.889 39 L
506.901 39 L
506.901 39 L
506.901 39 L
506.901 39 L
506.926 39 L
506.95 39 L
506.95 39 L
506.95 39 L
506.95 39 L
506.963 39 L
506.963 39 L
506.963 39 L
506.963 39 L
506.963 39 L
506.963 39 L
506.963 39 L
506.975 39 L
506.975 39 L
506.975 39 L
506.975 39 L
506.975 39 L
506.975 39 L
506.975 39 L
506.975 39 L
506.975 39 L
506.975 39 L
506.975 39 L
506.975 39 L
506.975 39 L
506.975 39 L
506.975 39 L
506.975 39 L
506.975 39 L
506.975 39 L
506.975 39 L
506.975 39 L
506.975 39 L
506.975 39 L
506.975 39 L
506.975 39 L
506.975 39 L
506.975 39 L
506.975 39 L
506.975 39 L
506.975 39 L
506.975 39 L
506.975 39 L
506.975 39 L
506.975 39 L
506.975 39 L
506.975 39 L
506.975 39 L
506.975 39 L
506.975 39 L
506.975 39 L
506.975 39 L
506.975 39 L
506.975 39 L
506.975 39 L
506.975 39 L
506.975 39 L
506.975 39 L
506.975 39 L
506.975 39 L
506.975 39 L
506.975 39 L
506.975 39 L
506.975 39 L
506.975 39 L
506.975 39 L
506.975 39 L
506.975 39 L
506.975 39 L
506.975 39 L
506.975 39 L
506.975 39 L
506.975 39 L
506.988 39 L
506.988 39 L
506.988 39 L
506.988 39 L
506.988 39 L
506.988 39 L
506.988 39 L
506.988 39 L
506.988 39 L
506.988 39 L
506.988 39 L
506.988 39 L
506.988 39 L
506.988 39 L
506.988 39 L
506.988 39 L
506.988 39 L
506.988 39 L
506.988 39 L
506.988 39 L
506.988 39 L
506.988 39 L
506.988 39 L
506.988 39 L
506.988 39 L
506.988 39 L
506.988 39 L
506.988 39 L
506.988 39 L
506.988 39 L
506.988 39 L
506.988 39 L
506.988 39 L
506.988 39 L
506.988 39 L
506.988 39 L
506.988 39 L
506.988 39 L
506.988 39 L
506.988 39 L
506.988 39 L
506.988 39 L
506.988 39 L
506.988 39 L
506.988 39 L
506.988 39 L
506.988 39 L
506.988 39 L
506.988 39 L
506.988 39 L
506.988 39 L
506.988 39 L
506.988 39 L
506.988 39 L
506.988 39 L
506.988 39 L
506.988 39 L
506.988 39 L
506.988 39 L
506.988 39 L
506.988 39 L
506.988 39 L
506.988 39 L
506.988 39 L
506.988 39 L
506.988 39 L
506.988 39 L
506.988 39 L
506.988 39 L
506.988 39 L
506.988 39 L
506.988 39 L
506.988 39 L
506.988 39 L
506.988 39 L
506.988 39 L
506.988 39 L
506.988 39 L
506.988 39 L
506.988 39 L
506.988 39 L
506.988 39 L
506.988 39 L
506.988 39 L
506.988 39 L
506.988 39 L
506.988 39 L
506.988 39 L
506.988 39 L
506.988 39 L
506.988 39 L
506.988 39 L
506.988 39 L
506.988 39 L
506.988 39 L
506.988 39 L
506.988 39 L
506.988 39 L
506.988 39 L
506.988 39 L
506.988 39 L
506.988 39 L
506.988 39 L
506.988 39 L
506.988 39 L
506.988 39 L
506.988 39 L
506.988 39 L
506.988 39 L
506.988 39 L
506.988 39 L
506.988 39 L
506.988 39 L
506.988 39 L
506.988 39 L
506.988 39 L
506.988 39 L
506.988 39 L
506.988 39 L
506.988 39 L
506.988 39 L
506.988 39 L
506.988 39 L
506.988 39 L
506.988 39 L
506.988 39 L
506.988 39 L
506.988 39 L
506.988 39 L
506.988 39 L
506.988 39 L
506.988 39 L
506.988 39 L
506.988 39 L
506.988 39 L
506.988 39 L
506.988 39 L
506.988 39 L
506.988 39 L
506.988 39 L
506.988 39 L
506.988 39 L
506.988 39 L
506.988 39 L
506.988 39 L
506.988 39 L
506.988 39 L
506.988 39 L
506.988 39 L
506.988 39 L
506.988 39 L
506.988 39 L
506.988 39 L
506.988 39 L
506.988 39 L
506.988 39 L
506.988 39 L
506.988 39 L
506.988 39 L
506.988 39 L
506.988 39 L
506.988 39 L
506.988 39 L
506.988 39 L
506.988 39 L
506.988 39 L
506.988 39 L
506.988 39 L
506.988 39 L
506.988 39 L
506.988 39 L
506.988 39 L
506.988 39 L
506.988 39 L
506.988 39 L
506.988 39 L
506.988 39 L
506.988 39 L
506.988 39 L
506.988 39 L
506.988 39 L
506.988 39 L
506.988 39 L
506.988 39 L
506.988 39 L
506.988 39 L
506.988 39 L
506.988 39 L
506.988 39 L
506.988 39 L
506.988 39 L
506.988 39 L
506.988 39 L
506.988 39 L
506.988 39 L
506.988 39 L
506.988 39 L
506.988 39 L
506.988 39 L
506.988 39 L
506.988 39 L
506.988 39 L
506.988 39 L
506.988 39 L
506.988 39 L
506.988 39 L
506.988 39 L
506.988 39 L
506.988 39 L
506.988 39 L
506.988 39 L
506.988 39 L
506.988 39 L
506.988 39 L
506.988 39 L
506.988 39 L
506.988 39 L
506.988 39 L
506.988 39 L
506.988 39 L
506.988 39 L
506.988 39 L
506.988 39 L
506.988 39 L
506.988 39 L
506.988 39 L
506.988 39 L
506.988 39 L
506.988 39 L
506.988 39 L
506.988 39 L
506.988 39 L
506.988 39 L
506.988 39 L
506.988 39 L
506.988 39 L
506.988 39 L
506.988 39 L
506.988 39 L
506.988 39 L
506.988 39 L
506.988 39 L
506.988 39 L
506.988 39 L
506.988 39 L
506.988 39 L
506.988 39 L
506.988 39 L
506.988 39 L
506.988 39 L
506.988 39 L
506.988 39 L
506.988 39 L
506.988 39 L
506.988 39 L
506.988 39 L
506.988 39 L
506.988 39 L
506.988 39 L
506.988 39 L
506.988 39 L
506.988 39 L
506.988 39 L
506.988 39 L
506.988 39 L
506.988 39 L
506.988 39 L
506.988 39 L
506.988 39 L
506.988 39 L
506.988 39 L
506.988 39 L
506.988 39 L
506.988 39 L
506.988 39 L
506.988 39 L
506.988 39 L
506.988 39 L
506.988 39 L
506.988 39 L
506.988 39 L
506.988 39 L
506.988 39 L
506.988 39 L
506.988 39 L
506.988 39 L
506.988 39 L
506.988 39 L
506.988 39 L
506.988 39 L
506.988 39 L
506.988 39 L
506.988 39 L
506.988 39 L
506.988 39 L
506.988 39 L
506.988 39 L
506.988 39 L
506.988 39 L
506.988 39 L
506.988 39 L
506.988 39 L
506.988 39 L
506.988 39 L
506.988 39 L
506.988 39 L
506.988 39 L
506.988 39 L
506.988 39 L
506.988 39 L
506.988 39 L
506.988 39 L
506.988 39 L
506.988 39 L
506.988 39 L
506.988 39 L
506.988 39 L
506.988 39 L
506.988 39 L
506.988 39 L
506.988 39 L
506.988 39 L
506.988 39 L
506.988 39 L
506.988 39 L
506.988 39 L
506.988 39 L
506.988 39 L
506.988 39 L
506.988 39 L
506.988 39 L
506.988 39 L
506.988 39 L
507 39 L
S
GR
GS
1 0 0 RC
1 LJ
3 LW
N
76 350.692 M
76 350.692 L
76 350.692 L
76 350.692 L
76 350.692 L
76 350.692 L
76 350.692 L
76 350.384 L
76 350.384 L
76 350.384 L
76 350.384 L
76 350.076 L
76 350.076 L
76 349.768 L
76 349.46 L
76 348.844 L
76 348.844 L
76 348.844 L
76 348.844 L
76 348.536 L
76 348.536 L
76 348.228 L
76 348.228 L
76 347.92 L
76 347.92 L
76 347.92 L
76 347.92 L
76 347.612 L
76 347.612 L
76 347.304 L
76 346.996 L
76 346.996 L
76 346.688 L
76 346.38 L
76 346.072 L
76 346.072 L
76 345.764 L
76 345.764 L
76 345.456 L
76 345.456 L
76 345.456 L
76 345.456 L
76 345.148 L
76 344.224 L
76 343.3 L
76 342.684 L
76 342.376 L
76 342.068 L
76 341.452 L
76 341.144 L
76 340.836 L
76 340.528 L
76 340.528 L
76 340.22 L
76 339.912 L
76 339.912 L
76 338.988 L
76 337.756 L
76 336.832 L
76 336.832 L
76 336.524 L
76 335.6 L
76 335.292 L
76 334.676 L
76 334.06 L
76 332.828 L
76 332.52 L
76 331.904 L
76 331.596 L
76 331.596 L
76 331.596 L
76 331.596 L
76 331.288 L
76 331.288 L
76 330.364 L
76 330.364 L
76 330.056 L
76 329.44 L
76 328.824 L
76 328.208 L
76 328.208 L
76 327.9 L
76 327.9 L
76 327.592 L
76 326.976 L
76 325.744 L
76 325.128 L
76 324.204 L
76 323.588 L
76 322.972 L
76 322.972 L
76 322.972 L
76 321.432 L
76 320.816 L
76 320.2 L
76 319.892 L
76 318.968 L
76 318.044 L
76 317.736 L
76 317.12 L
76 316.196 L
76 315.272 L
76 314.964 L
76 314.04 L
76 313.424 L
76 312.809 L
76 312.809 L
76 312.193 L
76 311.577 L
76 310.653 L
76 310.037 L
76 310.037 L
76 310.037 L
76 308.805 L
76 308.805 L
76 308.189 L
76 306.957 L
76 306.033 L
76 305.417 L
76 303.261 L
76 302.029 L
76 302.029 L
76 301.105 L
76 301.105 L
76 301.105 L
76 300.797 L
76 299.565 L
76 298.949 L
76 298.333 L
76 298.025 L
76 297.101 L
76 296.793 L
76 296.177 L
76 296.177 L
76 294.945 L
76 293.405 L
76 293.097 L
76 292.789 L
76 291.557 L
76 290.325 L
76 288.785 L
76 288.477 L
76 288.169 L
76 287.861 L
76 287.245 L
76 286.629 L
76 285.705 L
76 284.781 L
76 284.165 L
76 284.165 L
76 282.933 L
76 282.933 L
76 281.393 L
76 281.393 L
76 281.085 L
76 279.853 L
76 278.929 L
76 278.929 L
76 278.005 L
76 277.389 L
76 277.081 L
76 276.773 L
76 276.773 L
76 275.849 L
76 275.541 L
76 274.925 L
76 274.617 L
76 273.693 L
76 273.077 L
76 272.153 L
76 271.537 L
76 270.613 L
76 270.613 L
76 269.997 L
76 269.073 L
76 268.149 L
76 268.149 L
76 268.149 L
76 267.225 L
76 266.301 L
76 266.301 L
76 265.993 L
76 265.377 L
76 265.069 L
76 264.761 L
76 264.453 L
76 264.453 L
76 263.837 L
76 263.221 L
76 262.297 L
76 261.989 L
76 260.757 L
76 260.757 L
76 259.833 L
76 259.217 L
76 258.909 L
76 258.601 L
76 257.985 L
76 257.677 L
76 256.753 L
76 256.137 L
76 255.829 L
76 255.213 L
76 254.597 L
76 253.673 L
76 252.441 L
76 251.825 L
76 251.517 L
76 251.209 L
76 249.361 L
76 249.053 L
76 248.437 L
76 246.589 L
76 245.665 L
76 245.357 L
76 244.741 L
76 243.201 L
76 242.585 L
76 241.969 L
76 241.661 L
76 240.121 L
76 239.505 L
76 239.197 L
76 238.581 L
76 237.965 L
76 237.041 L
76 236.733 L
76 236.425 L
76 235.501 L
76 234.885 L
76 233.962 L
76 233.654 L
76 232.73 L
76 232.73 L
76 231.19 L
76 230.574 L
76 229.958 L
76 229.034 L
76 229.034 L
76 228.726 L
76 227.494 L
76 226.878 L
76 226.262 L
76 225.646 L
76 225.03 L
76 222.874 L
76 222.566 L
76 222.258 L
76 221.642 L
76 220.41 L
76 219.178 L
76 218.254 L
76 217.33 L
76 217.022 L
76 216.714 L
76 215.79 L
76 214.866 L
76 214.866 L
76 213.942 L
76 213.942 L
76 213.634 L
76 212.71 L
76 212.402 L
76 212.402 L
76 211.786 L
76 210.862 L
76 209.938 L
76 208.09 L
76 207.782 L
76 206.55 L
76 205.626 L
76 204.702 L
76 204.394 L
76 203.162 L
76 202.238 L
76 201.622 L
76 199.774 L
76 199.158 L
76 197.618 L
76 195.77 L
76 195.154 L
76 194.23 L
76 192.998 L
76 191.15 L
76 190.842 L
76 189.61 L
76 188.994 L
76 188.378 L
76 187.762 L
76 187.146 L
76 186.222 L
76 184.99 L
76 184.682 L
76 184.682 L
76 184.066 L
76 183.758 L
76 183.142 L
76 183.142 L
76 182.834 L
76 181.91 L
76 181.294 L
76 180.678 L
76 180.062 L
76 179.754 L
76 179.138 L
76 177.906 L
76 176.982 L
76 176.674 L
76 176.366 L
76 176.366 L
76 174.826 L
76 173.286 L
76 172.978 L
76 172.362 L
76 171.746 L
76 171.438 L
76 171.13 L
76 171.13 L
76 170.514 L
76 170.206 L
76 169.282 L
76 168.666 L
76 168.05 L
76 167.742 L
76 167.434 L
76 167.434 L
76 166.202 L
76 166.202 L
76 166.202 L
76 165.278 L
76 164.662 L
76 164.662 L
76 164.354 L
76 163.738 L
76 162.506 L
76 161.89 L
76 161.274 L
76 161.274 L
76 160.658 L
76 160.35 L
76 160.35 L
76 160.042 L
76 160.042 L
76 159.426 L
76 158.81 L
76 158.502 L
76 157.886 L
76 157.886 L
76 157.578 L
76 157.578 L
76 156.962 L
76 156.038 L
76 155.73 L
76 155.423 L
76 154.807 L
76 153.883 L
76 153.883 L
76 153.575 L
76 153.267 L
76 152.959 L
76 152.651 L
76 152.651 L
76 152.343 L
76 151.727 L
76 151.727 L
76 151.727 L
76 151.727 L
76 151.727 L
76 151.419 L
76 151.111 L
76 150.495 L
76 149.571 L
76 149.263 L
76 148.647 L
76 148.031 L
76 146.799 L
76 146.799 L
76 146.183 L
76 145.567 L
76 144.951 L
76 144.951 L
76 144.951 L
76 144.335 L
76 144.335 L
76 143.719 L
76 143.411 L
76 143.411 L
76 143.411 L
76 142.795 L
76 142.795 L
76 142.487 L
76 142.179 L
76 141.871 L
76 141.563 L
76 141.255 L
76 140.639 L
76 140.331 L
76 140.023 L
76 139.407 L
76 139.407 L
76 139.099 L
76 138.791 L
76 138.483 L
76 138.483 L
76 138.175 L
76 137.867 L
76 137.867 L
76 137.559 L
76 137.559 L
76 137.251 L
76 136.943 L
76 136.943 L
76 136.019 L
76 135.095 L
76 134.171 L
76 133.863 L
76 133.555 L
76 133.555 L
76 133.555 L
76 133.247 L
76 132.631 L
76 132.015 L
76 132.015 L
76 132.015 L
76 132.015 L
76 131.707 L
76 131.707 L
76 131.707 L
76 131.707 L
76 131.399 L
76 131.399 L
76 130.167 L
76 129.859 L
76 129.243 L
76 129.243 L
76 128.319 L
76 128.319 L
76 127.703 L
76 127.395 L
76 126.779 L
76 126.471 L
76 126.163 L
76 125.547 L
76 125.239 L
76 124.315 L
76 124.315 L
76 123.083 L
76 122.467 L
76 121.851 L
76 121.851 L
76 121.543 L
76 121.235 L
76 121.235 L
76 121.235 L
76 120.619 L
76 120.311 L
76 119.695 L
76 119.387 L
76 118.771 L
76 118.771 L
76 118.463 L
76 117.847 L
76 117.539 L
76 116.923 L
76 116.923 L
76 116.923 L
76 116.615 L
76 116.307 L
76 115.999 L
76 115.999 L
76 115.383 L
76 115.075 L
76 114.767 L
76 114.151 L
76 113.843 L
76 113.843 L
76 113.227 L
76 112.611 L
76 112.303 L
76 111.995 L
76 111.687 L
76 111.071 L
76 111.071 L
76 110.455 L
76 109.839 L
76 109.839 L
76 109.531 L
76 108.915 L
76 108.299 L
76 107.375 L
76 106.451 L
76 106.143 L
76 105.527 L
76 104.911 L
76 104.295 L
76 103.987 L
76 103.679 L
76 103.679 L
76 103.679 L
76 103.063 L
76 102.755 L
76 102.755 L
76 102.447 L
76 101.831 L
76 100.907 L
76 100.599 L
76 99.983 L
76 99.059 L
76 99.059 L
76 98.751 L
76 98.751 L
76 98.443 L
76 97.827 L
76 97.827 L
76 97.827 L
76 97.827 L
76 97.519 L
76 97.519 L
76 96.287 L
76 96.287 L
76 95.979 L
76 95.979 L
76 95.671 L
76 95.671 L
76 94.747 L
76 94.747 L
76 94.131 L
76 94.131 L
76 93.515 L
76 93.515 L
76 93.207 L
76 92.899 L
76 92.899 L
76 92.591 L
76 92.283 L
76 92.283 L
76 91.975 L
76 91.667 L
76 91.667 L
76 91.359 L
76 91.051 L
76 91.051 L
76 91.051 L
76 91.051 L
76 90.435 L
76 90.435 L
76 90.127 L
76 90.127 L
76 90.127 L
76 89.819 L
76.006 89.511 L
76.006 89.203 L
76.006 88.895 L
76.006 88.895 L
76.006 88.587 L
76.006 88.587 L
76.006 88.587 L
76.006 88.587 L
76.006 88.587 L
76.006 88.279 L
76.006 87.971 L
76.006 87.971 L
76.006 87.971 L
76.012 87.663 L
76.012 87.047 L
76.012 87.047 L
76.012 87.047 L
76.012 86.739 L
76.012 86.739 L
76.017 86.739 L
76.017 86.431 L
76.017 86.431 L
76.017 86.123 L
76.017 85.507 L
76.017 85.199 L
76.017 85.199 L
76.017 84.891 L
76.017 84.583 L
76.017 84.583 L
76.017 84.583 L
76.017 84.583 L
76.017 84.583 L
76.017 84.275 L
76.017 83.351 L
76.017 83.351 L
76.017 83.351 L
76.017 83.351 L
76.017 83.351 L
76.017 83.351 L
76.017 83.043 L
76.023 82.427 L
76.023 82.119 L
76.023 82.119 L
76.023 82.119 L
76.023 81.811 L
76.023 81.195 L
76.023 80.887 L
76.035 80.887 L
76.035 80.887 L
76.041 80.887 L
76.041 79.347 L
76.041 78.731 L
76.041 78.424 L
76.041 78.116 L
76.041 78.116 L
76.046 78.116 L
76.052 78.116 L
76.052 78.116 L
76.058 77.808 L
76.064 77.808 L
76.064 77.808 L
76.064 77.5 L
76.064 77.192 L
76.064 76.884 L
76.064 76.576 L
76.075 76.576 L
76.081 76.576 L
76.087 76.576 L
76.093 76.576 L
76.093 76.576 L
76.11 76.576 L
76.127 76.268 L
76.133 75.96 L
76.139 75.96 L
76.145 75.96 L
76.156 75.96 L
76.156 75.96 L
76.156 75.96 L
76.156 75.96 L
76.156 75.96 L
76.156 75.96 L
76.156 75.652 L
76.156 75.652 L
76.156 75.652 L
76.174 75.652 L
76.174 75.036 L
76.191 75.036 L
76.197 75.036 L
76.208 74.728 L
76.226 74.728 L
76.232 74.728 L
76.243 74.728 L
76.272 74.728 L
76.295 74.42 L
76.307 74.42 L
76.313 74.112 L
76.33 74.112 L
76.353 73.804 L
76.388 73.804 L
76.411 73.804 L
76.446 73.804 L
76.475 73.804 L
76.492 73.804 L
76.556 73.496 L
76.59 73.188 L
76.648 73.188 L
76.683 73.188 L
76.724 73.188 L
76.77 72.88 L
76.805 72.264 L
76.863 72.264 L
76.897 71.956 L
76.949 71.648 L
77.007 71.032 L
77.071 71.032 L
77.129 71.032 L
77.21 70.416 L
77.268 70.416 L
77.32 70.108 L
77.424 70.108 L
77.546 69.8 L
77.586 69.8 L
77.673 69.492 L
77.777 68.876 L
77.933 68.568 L
78.049 68.26 L
78.206 67.644 L
78.321 67.336 L
78.437 67.028 L
78.564 66.412 L
78.634 66.412 L
78.721 66.412 L
78.866 66.412 L
78.999 65.796 L
79.143 65.18 L
79.282 64.872 L
79.427 64.256 L
79.549 64.256 L
79.751 64.256 L
79.884 64.256 L
80.145 63.948 L
80.29 63.64 L
80.498 63.024 L
80.718 62.408 L
81.002 62.408 L
81.123 62.408 L
81.499 62.1 L
81.696 62.1 L
81.992 61.792 L
82.35 61.176 L
82.686 60.868 L
82.964 60.56 L
83.306 60.56 L
83.641 59.636 L
83.931 59.328 L
84.44 59.02 L
84.967 58.096 L
85.326 58.096 L
85.737 57.788 L
86.275 57.788 L
86.779 57.788 L
87.213 57.788 L
87.763 57.48 L
88.463 57.172 L
88.979 57.172 L
89.662 57.172 L
90.258 57.172 L
90.964 56.864 L
91.543 56.864 L
92.302 56.556 L
92.938 56.248 L
93.83 56.248 L
94.42 56.248 L
95.323 56.248 L
96.255 56.248 L
97.303 55.632 L
98.108 55.632 L
99.271 54.708 L
100.354 54.092 L
101.425 54.092 L
102.339 53.784 L
103.445 53.476 L
104.753 53.476 L
105.952 53.168 L
107.057 53.168 L
108.522 52.86 L
109.842 52.244 L
111.393 51.936 L
112.62 51.936 L
114.172 51.32 L
115.712 51.32 L
117.419 51.32 L
118.687 51.32 L
120.528 51.012 L
122.375 50.704 L
124.488 50.704 L
126.138 50.704 L
128.013 50.396 L
130.358 50.088 L
132.222 50.088 L
134.468 50.088 L
136.361 49.78 L
138.456 49.164 L
140.419 49.164 L
142.856 49.164 L
145.438 49.164 L
148.008 49.164 L
150.283 49.164 L
152.697 48.856 L
155.4 48.856 L
158.318 48.856 L
160.5 48.548 L
163.291 48.24 L
166.469 48.24 L
169.705 48.24 L
172.02 47.624 L
175.123 47.316 L
178.417 47.316 L
182.023 47.008 L
184.75 47.008 L
187.639 47.008 L
190.909 47.008 L
194.736 46.7 L
197.717 46.7 L
201.277 46.392 L
204.756 46.392 L
208.172 46.392 L
211.362 46.084 L
215.055 45.776 L
219.275 45.468 L
223.42 45.16 L
226.841 45.16 L
230.442 45.16 L
234.83 45.16 L
238.94 45.16 L
241.95 44.852 L
246.245 44.852 L
250.344 44.852 L
253.8 44.852 L
258.043 44.544 L
262.344 44.544 L
266.894 44.544 L
270.536 44.236 L
274.895 43.928 L
279.45 43.928 L
283.746 43.928 L
287.439 43.928 L
291.885 43.928 L
296.823 43.928 L
301.049 43.62 L
304.852 43.62 L
309.032 43.62 L
313.35 43.62 L
318.184 43.62 L
321.339 43.62 L
325.634 43.62 L
330.352 43.312 L
334.815 43.312 L
338.601 43.312 L
342.428 43.312 L
347.325 43.312 L
351.377 43.312 L
354.492 43.004 L
359.14 42.696 L
363.378 42.696 L
367.551 42.696 L
370.984 42.696 L
375.002 42.696 L
379.401 42.696 L
383.448 42.696 L
386.331 42.388 L
390.018 42.388 L
393.549 42.388 L
397.445 42.388 L
400.861 42.08 L
404.282 42.08 L
407.888 42.08 L
410.939 42.08 L
414.279 42.08 L
417.741 42.08 L
420.902 42.08 L
423.848 42.08 L
426.818 42.08 L
429.904 42.08 L
433.093 42.08 L
435.774 41.772 L
438.35 41.464 L
441.041 41.464 L
443.878 41.464 L
446.246 41.464 L
448.793 41.464 L
451.496 41.464 L
454.078 41.156 L
456.203 40.848 L
458.067 40.848 L
460.081 40.848 L
462.524 40.848 L
464.191 40.848 L
466.2 40.848 L
467.861 40.848 L
469.766 40.848 L
471.144 40.848 L
472.846 40.54 L
474.53 40.54 L
476.33 40.54 L
477.604 40.54 L
478.785 40.54 L
480.388 39.924 L
481.923 39.924 L
482.739 39.924 L
483.897 39.924 L
485.315 39.924 L
486.947 39.924 L
487.463 39.924 L
488.505 39.924 L
489.732 39.616 L
490.71 39.616 L
490.907 39.616 L
492.14 39.616 L
493.373 39.616 L
493.402 39.616 L
494.583 39.616 L
495.324 39.616 L
495.897 39.616 L
496.372 39.616 L
497.02 39.616 L
497.622 39.616 L
498.149 39.616 L
498.485 39.308 L
498.924 39.308 L
499.336 39.308 L
499.77 39.308 L
500.094 39.308 L
500.557 39.308 L
501.037 39.308 L
501.344 39.308 L
501.639 39.308 L
502.039 39 L
502.27 39 L
502.514 39 L
502.838 39 L
503.011 39 L
503.214 39 L
503.44 39 L
503.631 39 L
503.857 39 L
504.088 39 L
504.268 39 L
504.412 39 L
504.551 39 L
504.713 39 L
504.881 39 L
505.003 39 L
505.153 39 L
505.246 39 L
505.339 39 L
505.495 39 L
505.599 39 L
505.634 39 L
505.726 39 L
505.773 39 L
505.836 39 L
505.917 39 L
505.952 39 L
506.016 39 L
506.068 39 L
506.143 39 L
506.207 39 L
506.265 39 L
506.305 39 L
506.363 39 L
506.386 39 L
506.444 39 L
506.467 39 L
506.496 39 L
506.531 39 L
506.577 39 L
506.589 39 L
506.601 39 L
506.601 39 L
506.612 39 L
506.641 39 L
506.647 39 L
506.658 39 L
506.67 39 L
506.693 39 L
506.693 39 L
506.705 39 L
506.728 39 L
506.734 39 L
506.745 39 L
506.757 39 L
506.774 39 L
506.792 39 L
506.815 39 L
506.821 39 L
506.838 39 L
506.849 39 L
506.855 39 L
506.873 39 L
506.896 39 L
506.902 39 L
506.913 39 L
506.919 39 L
506.925 39 L
506.925 39 L
506.931 39 L
506.936 39 L
506.942 39 L
506.948 39 L
506.948 39 L
506.959 39 L
506.959 39 L
506.965 39 L
506.965 39 L
506.971 39 L
506.971 39 L
506.971 39 L
506.977 39 L
506.988 39 L
506.988 39 L
506.988 39 L
506.988 39 L
506.988 39 L
506.988 39 L
506.988 39 L
506.988 39 L
506.988 39 L
506.988 39 L
506.988 39 L
506.988 39 L
506.988 39 L
506.988 39 L
506.988 39 L
506.988 39 L
506.988 39 L
506.988 39 L
506.988 39 L
506.988 39 L
506.994 39 L
506.994 39 L
506.994 39 L
506.994 39 L
506.994 39 L
506.994 39 L
506.994 39 L
506.994 39 L
506.994 39 L
506.994 39 L
506.994 39 L
507 39 L
S
GR
GS
[12 12] 0 setdash
2 LJ
3 LW
N
76.004 351 M
76.004 351 L
76.004 351 L
76.004 351 L
76.004 351 L
76.004 351 L
76.004 351 L
76.004 351 L
76.004 351 L
76.004 351 L
76.004 351 L
76.004 351 L
76.004 351 L
76.004 351 L
76.004 351 L
76.004 351 L
76.004 351 L
76.004 351 L
76.004 351 L
76.004 351 L
76.004 351 L
76.004 351 L
76.004 351 L
76.004 351 L
76.004 351 L
76.004 351 L
76.004 351 L
76.004 351 L
76.004 351 L
76.004 351 L
76.004 351 L
76.004 351 L
76.004 351 L
76.004 351 L
76.004 351 L
76.004 351 L
76.004 351 L
76.004 351 L
76.004 351 L
76.004 351 L
76.004 351 L
76.004 351 L
76.004 351 L
76.004 351 L
76.004 351 L
76.004 351 L
76.004 351 L
76.004 351 L
76.004 351 L
76.004 351 L
76.004 351 L
76.004 351 L
76.004 351 L
76.004 351 L
76.004 351 L
76.004 351 L
76.004 351 L
76.004 351 L
76.004 351 L
76.004 351 L
76.004 351 L
76.004 351 L
76.004 351 L
76.004 351 L
76.004 351 L
76.004 351 L
76.004 351 L
76.004 351 L
76.004 351 L
76.004 351 L
76.004 351 L
76.004 351 L
76.004 351 L
76.004 351 L
76.004 351 L
76.004 351 L
76.004 351 L
76.004 351 L
76.004 351 L
76.004 351 L
76.004 351 L
76.004 350.792 L
76.004 350.792 L
76.004 350.792 L
76.004 350.792 L
76.004 350.792 L
76.004 350.792 L
76.004 350.792 L
76.004 350.792 L
76.004 350.792 L
76.004 350.792 L
76.004 350.792 L
76.004 350.792 L
76.004 350.792 L
76.004 350.792 L
76.004 350.792 L
76.004 350.792 L
76.004 350.792 L
76.004 350.792 L
76.004 350.792 L
76.004 350.585 L
76.004 350.585 L
76.004 350.585 L
76.004 350.585 L
76.004 350.585 L
76.004 350.585 L
76.004 350.585 L
76.004 350.585 L
76.004 350.585 L
76.004 350.585 L
76.004 350.377 L
76.004 350.169 L
76.004 350.169 L
76.004 350.169 L
76.004 350.169 L
76.004 350.169 L
76.004 350.169 L
76.004 350.169 L
76.004 350.169 L
76.004 350.169 L
76.004 350.169 L
76.004 350.169 L
76.004 350.169 L
76.004 350.169 L
76.004 350.169 L
76.004 350.169 L
76.004 350.169 L
76.004 350.169 L
76.004 350.169 L
76.004 350.169 L
76.004 350.169 L
76.004 350.169 L
76.004 350.169 L
76.004 350.169 L
76.004 350.169 L
76.004 349.961 L
76.004 349.961 L
76.008 349.754 L
76.008 349.754 L
76.008 349.754 L
76.008 349.754 L
76.008 349.546 L
76.013 349.546 L
76.013 349.13 L
76.013 349.13 L
76.013 348.923 L
76.013 348.923 L
76.013 348.923 L
76.013 348.715 L
76.013 348.715 L
76.013 348.715 L
76.013 348.715 L
76.013 348.715 L
76.013 348.715 L
76.013 348.507 L
76.013 348.507 L
76.013 348.507 L
76.013 348.507 L
76.013 348.507 L
76.013 348.507 L
76.013 348.507 L
76.013 348.507 L
76.013 348.507 L
76.013 348.3 L
76.013 348.3 L
76.013 348.3 L
76.013 348.3 L
76.013 348.3 L
76.013 348.3 L
76.013 347.884 L
76.013 347.884 L
76.013 347.676 L
76.013 347.676 L
76.013 347.676 L
76.013 347.676 L
76.013 347.469 L
76.013 347.469 L
76.013 347.469 L
76.013 347.469 L
76.013 347.469 L
76.013 347.469 L
76.013 347.469 L
76.013 347.469 L
76.013 347.469 L
76.013 347.053 L
76.013 346.638 L
76.013 346.638 L
76.013 346.43 L
76.013 346.43 L
76.013 346.43 L
76.013 346.43 L
76.013 346.43 L
76.013 346.43 L
76.013 346.222 L
76.013 346.222 L
76.013 346.222 L
76.013 346.015 L
76.013 345.807 L
76.013 345.807 L
76.013 345.599 L
76.013 345.391 L
76.017 345.391 L
76.017 345.391 L
76.017 344.353 L
76.017 344.353 L
76.017 344.145 L
76.017 343.522 L
76.021 343.107 L
76.021 343.107 L
76.021 342.899 L
76.021 342.899 L
76.021 342.691 L
76.021 341.86 L
76.025 341.445 L
76.025 341.029 L
76.03 340.614 L
76.03 340.614 L
76.03 340.614 L
76.03 340.406 L
76.03 340.406 L
76.03 340.406 L
76.03 339.991 L
76.03 339.783 L
76.03 339.783 L
76.038 339.783 L
76.038 339.783 L
76.038 339.783 L
76.038 339.783 L
76.038 339.783 L
76.038 339.783 L
76.046 339.575 L
76.046 339.16 L
76.046 339.16 L
76.046 339.16 L
76.046 338.744 L
76.046 338.121 L
76.046 337.913 L
76.046 337.706 L
76.046 337.706 L
76.046 337.706 L
76.046 337.498 L
76.046 337.29 L
76.046 337.083 L
76.046 337.083 L
76.051 336.875 L
76.051 336.459 L
76.051 336.459 L
76.051 336.044 L
76.051 335.836 L
76.051 335.836 L
76.051 335.836 L
76.051 335.629 L
76.051 335.213 L
76.051 335.005 L
76.055 334.798 L
76.055 334.382 L
76.055 334.174 L
76.055 333.759 L
76.059 333.551 L
76.08 333.551 L
76.08 332.513 L
76.08 332.097 L
76.08 331.682 L
76.08 331.266 L
76.08 331.059 L
76.08 330.851 L
76.08 330.851 L
76.08 330.643 L
76.08 330.435 L
76.08 329.812 L
76.08 328.774 L
76.08 328.566 L
76.08 327.527 L
76.08 326.281 L
76.08 326.281 L
76.08 325.866 L
76.08 325.45 L
76.08 325.45 L
76.08 324.411 L
76.08 323.788 L
76.08 323.788 L
76.08 323.788 L
76.08 323.165 L
76.08 322.75 L
76.08 322.542 L
76.085 321.711 L
76.085 320.672 L
76.085 320.257 L
76.106 320.049 L
76.106 319.634 L
76.106 319.011 L
76.106 318.595 L
76.106 318.18 L
76.106 318.18 L
76.106 317.972 L
76.106 317.764 L
76.11 317.764 L
76.11 317.557 L
76.11 316.518 L
76.11 315.895 L
76.11 315.064 L
76.114 314.856 L
76.139 314.025 L
76.139 313.402 L
76.139 313.402 L
76.139 313.194 L
76.139 311.74 L
76.139 311.325 L
76.139 311.325 L
76.139 310.494 L
76.139 310.286 L
76.139 309.871 L
76.139 309.248 L
76.139 308.832 L
76.139 307.794 L
76.139 307.378 L
76.144 306.963 L
76.156 306.755 L
76.156 306.547 L
76.169 305.924 L
76.169 305.301 L
76.169 304.678 L
76.169 304.47 L
76.169 303.639 L
76.169 303.016 L
76.169 302.393 L
76.169 302.393 L
76.173 301.77 L
76.178 301.354 L
76.178 300.731 L
76.178 300.316 L
76.245 299.069 L
76.245 298.238 L
76.245 297.823 L
76.245 297.615 L
76.249 297.407 L
76.249 296.369 L
76.249 294.915 L
76.258 294.292 L
76.258 292.422 L
76.266 291.591 L
76.271 290.553 L
76.271 289.722 L
76.279 288.891 L
76.283 288.475 L
76.283 287.644 L
76.334 287.021 L
76.334 286.398 L
76.334 285.567 L
76.334 284.736 L
76.334 283.905 L
76.334 283.698 L
76.338 283.49 L
76.347 282.867 L
76.347 282.451 L
76.351 281.828 L
76.359 281.621 L
76.359 280.997 L
76.359 279.959 L
76.368 279.543 L
76.406 278.92 L
76.414 278.089 L
76.418 277.051 L
76.423 276.22 L
76.427 275.389 L
76.427 274.766 L
76.431 273.727 L
76.435 272.896 L
76.44 271.65 L
76.444 270.611 L
76.444 268.742 L
76.448 267.703 L
76.452 266.457 L
76.461 265.418 L
76.465 264.795 L
76.524 264.587 L
76.528 263.756 L
76.528 263.133 L
76.533 262.718 L
76.537 262.302 L
76.541 261.679 L
76.549 260.848 L
76.562 260.433 L
76.566 259.602 L
76.583 258.356 L
76.592 257.94 L
76.6 257.317 L
76.609 257.109 L
76.617 257.109 L
76.621 256.901 L
76.685 256.486 L
76.697 256.071 L
76.706 255.655 L
76.727 254.824 L
76.731 254.409 L
76.731 253.578 L
76.748 253.162 L
76.748 252.332 L
76.752 251.916 L
76.769 251.501 L
76.786 251.085 L
76.799 250.462 L
76.807 250.047 L
76.82 249.423 L
76.913 248.8 L
76.93 248.177 L
76.943 247.346 L
76.959 245.892 L
76.959 244.854 L
76.964 244.438 L
76.989 244.023 L
76.997 243.815 L
77.01 243.192 L
77.027 242.984 L
77.04 242.153 L
77.074 241.115 L
77.086 240.284 L
77.103 239.453 L
77.133 238.206 L
77.247 237.791 L
77.272 237.376 L
77.302 236.96 L
77.306 235.506 L
77.323 235.091 L
77.348 234.26 L
77.374 233.221 L
77.391 231.975 L
77.429 231.352 L
77.492 230.936 L
77.534 230.521 L
77.577 230.521 L
77.589 229.897 L
77.61 228.859 L
77.729 228.028 L
77.779 227.197 L
77.817 225.951 L
77.86 225.535 L
77.919 224.497 L
77.97 223.874 L
78.029 222.835 L
78.118 222.419 L
78.168 221.589 L
78.236 221.173 L
78.312 220.134 L
78.371 219.304 L
78.456 218.473 L
78.519 217.642 L
78.625 217.226 L
78.768 216.603 L
78.861 215.357 L
78.971 214.111 L
79.077 212.449 L
79.174 211.826 L
79.25 211.202 L
79.356 210.372 L
79.483 208.917 L
79.563 208.294 L
79.69 206.632 L
79.825 205.386 L
79.935 204.555 L
80.062 204.14 L
80.189 202.686 L
80.413 202.27 L
80.577 201.232 L
80.793 200.816 L
80.933 200.193 L
81.11 198.947 L
81.262 198.324 L
81.402 197.7 L
81.626 196.662 L
81.913 195.831 L
82.112 194.377 L
82.344 192.507 L
82.556 190.43 L
82.813 189.184 L
83.046 187.73 L
83.329 186.691 L
83.693 186.068 L
84.005 185.237 L
84.331 182.952 L
84.673 182.952 L
84.956 182.329 L
85.379 180.667 L
85.751 180.044 L
86.102 178.382 L
86.558 177.136 L
86.998 175.266 L
87.437 174.02 L
87.881 173.189 L
88.393 172.15 L
88.815 170.904 L
89.491 169.035 L
90.096 167.996 L
90.789 167.373 L
91.267 166.957 L
91.863 166.334 L
92.539 165.296 L
93.173 164.465 L
93.794 163.218 L
94.53 162.387 L
95.413 161.349 L
96.03 160.103 L
96.913 159.479 L
97.607 158.648 L
98.498 158.441 L
99.39 156.987 L
100.362 155.325 L
101.267 154.494 L
102.222 153.663 L
103.355 153.04 L
104.454 151.17 L
105.447 150.755 L
106.571 149.716 L
107.818 149.509 L
108.896 149.093 L
109.932 148.47 L
111.436 147.639 L
112.78 147.431 L
114.272 146.808 L
115.959 146.601 L
117.387 145.77 L
118.858 144.523 L
120.388 143.9 L
122.147 142.862 L
123.694 141.823 L
125.566 140.577 L
127.358 139.746 L
129.277 139.122 L
130.972 138.084 L
132.967 137.461 L
134.966 136.214 L
137.1 135.383 L
138.99 133.929 L
141.298 132.683 L
143.411 131.852 L
145.824 131.644 L
148.512 130.814 L
150.896 129.567 L
153.086 128.944 L
155.406 128.113 L
157.989 127.282 L
160.254 126.244 L
163.111 125.621 L
165.968 123.336 L
168.23 122.712 L
170.766 122.089 L
173.915 121.674 L
177.08 120.012 L
179.68 118.766 L
182.647 117.519 L
185.762 116.065 L
188.978 114.403 L
192.182 113.573 L
195.534 112.949 L
199.207 112.326 L
201.971 111.495 L
205.445 110.457 L
209.085 109.21 L
212.204 108.587 L
215.695 106.925 L
219.321 106.302 L
222.622 105.264 L
226.291 104.225 L
229.82 102.979 L
234.187 102.563 L
237.018 101.732 L
241.182 101.525 L
245.146 100.901 L
248.578 100.278 L
252.518 99.655 L
256.926 98.617 L
260.235 98.201 L
264.132 96.955 L
268.169 96.332 L
272.062 94.878 L
275.299 94.047 L
278.972 93.008 L
283.258 91.762 L
286.99 90.723 L
291.001 90.1 L
295.169 89.061 L
299.488 88.023 L
302.764 87.192 L
306.923 86.153 L
311.137 85.115 L
314.493 83.66 L
318.555 83.037 L
322.646 82.83 L
326.336 81.791 L
330.034 81.375 L
333.898 80.545 L
337.993 79.506 L
341.476 78.675 L
345.411 78.26 L
349.38 77.844 L
352.765 77.013 L
356.544 76.182 L
360.175 74.521 L
363.493 73.897 L
367.212 73.69 L
370.678 72.443 L
374.448 71.197 L
377.407 70.574 L
380.572 69.328 L
384.554 68.289 L
387.483 67.874 L
390.687 67.458 L
394.406 66.835 L
397.919 65.173 L
400.467 64.965 L
403.802 64.342 L
407.065 63.511 L
409.609 62.473 L
412.598 61.434 L
415.789 60.395 L
418.557 59.98 L
421.076 59.772 L
423.955 59.357 L
426.842 58.734 L
428.951 58.318 L
431.491 58.318 L
434.335 57.487 L
436.483 57.28 L
438.609 56.864 L
441.052 56.449 L
443.507 55.41 L
445.354 55.202 L
447.353 54.579 L
449.966 53.956 L
451.58 53.748 L
453.347 52.917 L
455.769 52.917 L
457.497 52.502 L
459.121 52.294 L
461.335 52.087 L
463.753 50.217 L
463.753 50.217 L
466.449 49.802 L
468.039 49.802 L
468.698 49.386 L
470.845 48.763 L
472.439 48.348 L
473.166 48.14 L
474.903 47.724 L
476.484 47.101 L
477.823 46.893 L
478.825 46.686 L
480.266 46.478 L
481.391 46.27 L
482.19 46.27 L
483.428 46.063 L
484.371 45.647 L
485.262 45.647 L
486.103 45.647 L
487.092 45.647 L
487.989 45.439 L
488.58 45.232 L
489.527 45.024 L
490.267 44.816 L
490.846 44.609 L
491.619 44.401 L
492.405 44.193 L
493.018 44.193 L
493.648 43.985 L
494.307 43.778 L
494.958 43.57 L
495.343 43.362 L
495.909 43.154 L
496.535 42.739 L
496.784 42.531 L
497.317 42.531 L
497.79 42.324 L
498.183 41.908 L
498.568 41.908 L
498.961 41.908 L
499.367 41.908 L
499.667 41.908 L
500.051 41.908 L
500.415 41.908 L
500.812 41.908 L
501.087 41.908 L
501.362 41.908 L
501.615 41.908 L
501.856 41.908 L
502.156 41.908 L
502.418 41.908 L
502.587 41.908 L
502.786 41.908 L
503.002 41.908 L
503.188 41.908 L
503.348 41.908 L
503.513 41.493 L
503.648 41.493 L
503.779 41.493 L
503.991 41.493 L
504.126 41.493 L
504.198 41.285 L
504.409 41.077 L
504.498 41.077 L
504.612 41.077 L
504.671 41.077 L
504.811 40.87 L
504.929 40.87 L
505.001 40.87 L
505.14 40.662 L
505.25 40.662 L
505.377 40.454 L
505.457 40.246 L
505.538 40.246 L
505.58 40.039 L
505.652 40.039 L
505.698 40.039 L
505.736 40.039 L
505.779 40.039 L
505.846 40.039 L
505.867 40.039 L
505.931 40.039 L
505.964 40.039 L
506.019 40.039 L
506.095 40.039 L
506.117 40.039 L
506.146 40.039 L
506.201 39.831 L
506.218 39.831 L
506.248 39.831 L
506.281 39.831 L
506.341 39.623 L
506.37 39.623 L
506.4 39.623 L
506.446 39.623 L
506.451 39.623 L
506.472 39.623 L
506.493 39.623 L
506.501 39.623 L
506.527 39.623 L
506.539 39.623 L
506.548 39.623 L
506.573 39.623 L
506.586 39.415 L
506.603 39.208 L
506.62 39.208 L
506.628 39.208 L
506.637 39.208 L
506.637 39 L
506.649 39 L
506.649 39 L
506.67 39 L
506.675 39 L
506.696 39 L
506.721 39 L
506.738 39 L
506.742 39 L
506.755 39 L
506.763 39 L
506.772 39 L
506.78 39 L
506.793 39 L
506.793 39 L
506.81 39 L
506.814 39 L
506.818 39 L
506.822 39 L
506.827 39 L
506.831 39 L
506.839 39 L
506.844 39 L
506.848 39 L
506.856 39 L
506.861 39 L
506.861 39 L
506.865 39 L
506.865 39 L
506.865 39 L
506.873 39 L
506.877 39 L
506.877 39 L
506.882 39 L
506.886 39 L
506.886 39 L
506.89 39 L
506.89 39 L
506.89 39 L
506.894 39 L
506.894 39 L
506.894 39 L
506.899 39 L
506.899 39 L
506.899 39 L
506.903 39 L
506.907 39 L
506.907 39 L
506.911 39 L
506.915 39 L
506.915 39 L
506.92 39 L
506.924 39 L
506.924 39 L
506.924 39 L
506.928 39 L
506.928 39 L
506.937 39 L
506.937 39 L
506.941 39 L
506.941 39 L
506.941 39 L
506.945 39 L
506.945 39 L
506.949 39 L
506.949 39 L
506.949 39 L
506.949 39 L
506.953 39 L
506.953 39 L
506.953 39 L
506.953 39 L
506.953 39 L
506.953 39 L
506.953 39 L
506.953 39 L
506.953 39 L
506.953 39 L
506.953 39 L
506.953 39 L
506.953 39 L
506.953 39 L
506.958 39 L
506.962 39 L
506.962 39 L
506.962 39 L
506.962 39 L
506.962 39 L
506.966 39 L
506.966 39 L
506.966 39 L
506.966 39 L
506.966 39 L
506.966 39 L
506.966 39 L
506.966 39 L
506.966 39 L
506.966 39 L
506.966 39 L
506.966 39 L
506.97 39 L
506.97 39 L
506.97 39 L
506.97 39 L
506.97 39 L
506.97 39 L
506.97 39 L
506.97 39 L
506.97 39 L
506.975 39 L
506.975 39 L
506.975 39 L
506.975 39 L
506.975 39 L
506.975 39 L
506.975 39 L
506.975 39 L
506.975 39 L
506.975 39 L
506.975 39 L
506.975 39 L
506.975 39 L
506.975 39 L
506.975 39 L
506.975 39 L
506.975 39 L
506.975 39 L
506.975 39 L
506.975 39 L
506.979 39 L
506.979 39 L
506.979 39 L
506.979 39 L
506.979 39 L
506.979 39 L
506.979 39 L
506.983 39 L
506.983 39 L
506.983 39 L
506.983 39 L
506.983 39 L
506.983 39 L
506.983 39 L
506.983 39 L
506.983 39 L
506.983 39 L
506.983 39 L
506.983 39 L
506.983 39 L
506.983 39 L
506.983 39 L
506.983 39 L
506.983 39 L
506.983 39 L
506.987 39 L
506.987 39 L
506.987 39 L
506.987 39 L
506.987 39 L
506.987 39 L
506.987 39 L
506.987 39 L
506.987 39 L
506.987 39 L
506.987 39 L
506.987 39 L
506.987 39 L
506.987 39 L
506.987 39 L
506.987 39 L
506.987 39 L
506.987 39 L
506.987 39 L
506.987 39 L
506.987 39 L
506.987 39 L
506.987 39 L
506.987 39 L
506.987 39 L
506.987 39 L
506.987 39 L
506.987 39 L
506.987 39 L
506.987 39 L
506.987 39 L
506.987 39 L
506.987 39 L
506.987 39 L
506.987 39 L
506.987 39 L
506.987 39 L
506.987 39 L
506.987 39 L
506.987 39 L
506.987 39 L
506.987 39 L
506.987 39 L
506.987 39 L
506.987 39 L
506.987 39 L
506.987 39 L
506.987 39 L
506.987 39 L
506.987 39 L
506.987 39 L
506.987 39 L
506.987 39 L
506.987 39 L
506.987 39 L
506.987 39 L
506.987 39 L
506.992 39 L
506.992 39 L
506.992 39 L
506.992 39 L
506.992 39 L
506.992 39 L
506.992 39 L
506.992 39 L
506.992 39 L
506.992 39 L
506.992 39 L
506.992 39 L
506.992 39 L
506.992 39 L
506.992 39 L
506.992 39 L
506.992 39 L
506.992 39 L
506.992 39 L
506.992 39 L
506.992 39 L
506.992 39 L
506.992 39 L
506.992 39 L
506.992 39 L
506.992 39 L
506.992 39 L
506.992 39 L
506.992 39 L
506.992 39 L
506.992 39 L
506.992 39 L
506.992 39 L
506.992 39 L
506.992 39 L
506.996 39 L
506.996 39 L
506.996 39 L
506.996 39 L
506.996 39 L
506.996 39 L
506.996 39 L
506.996 39 L
506.996 39 L
506.996 39 L
506.996 39 L
507 39 L
S
GR
GS
[1 0 0 1 338.91 216.84] CT
/Helvetica 24 F
GS
[1 0 0 1 0 0] CT
0 8.5 moveto 
1 -1 scale
(EER line) t 
GR
GR
GS
[10 6] 0 setdash
2 LJ
0.5 LW
N
507 351 M
76 39 L
S
GR
GS
1 GC
N
497 341 M
497 249 L
132 249 L
132 341 L
cp
f
GR
GS
[1 0 0 1 169 265.5] CT
/Helvetica 24 F
GS
[1 0 0 1 0 0] CT
0 8.5 moveto 
1 -1 scale
(NIR images, EER = 0.10) t 
GR
GR
GS
0 0 1 RC
1 LJ
3 LW
N
136 265.5 M
166 265.5 L
S
GR
GS
[1 0 0 1 169 295] CT
/Helvetica 24 F
GS
[1 0 0 1 0 0] CT
0 8.5 moveto 
1 -1 scale
(R images, EER = 0.05) t 
GR
GR
GS
1 0 0 RC
1 LJ
3 LW
N
136 295 M
166 295 L
S
GR
GS
[1 0 0 1 169 324.5] CT
/Helvetica 24 F
GS
[1 0 0 1 0 0] CT
0 8.5 moveto 
1 -1 scale
(cross-wavelength, EER = 0.25) t 
GR
GR
GS
[12 12] 0 setdash
2 LJ
3 LW
N
136 324.5 M
166 324.5 L
S
GR
GS
0.149 GC
10.0 ML
0.5 LW
N
132 341 M
132 249 L
497 249 L
497 341 L
cp
S
GR
%%Trailer
%%Pages: 1
%%EOF
