%!PS-Adobe-3.0 EPSF-3.0
%%Creator: (MATLAB, The Mathworks, Inc. Version 9.3.0.713579 \(R2017b\). Operating System: Mac OS X)
%%Title: (./shortTerm_OSIRIS | manual segmentation_normalized.eps)
%%CreationDate: 2018-07-30T11:13:05
%%Pages: (atend)
%%BoundingBox:     7     5   509   414
%%LanguageLevel: 3
%%EndComments
%%BeginProlog
%%BeginResource: procset (Apache XML Graphics Std ProcSet) 1.2 0
%%Version: 1.2 0
%%Copyright: (Copyright 2001-2003,2010 The Apache Software Foundation. License terms: http://www.apache.org/licenses/LICENSE-2.0)
/bd{bind def}bind def
/ld{load def}bd
/GR/grestore ld
/GS/gsave ld
/RM/rmoveto ld
/C/curveto ld
/t/show ld
/L/lineto ld
/ML/setmiterlimit ld
/CT/concat ld
/f/fill ld
/N/newpath ld
/S/stroke ld
/CC/setcmykcolor ld
/A/ashow ld
/cp/closepath ld
/RC/setrgbcolor ld
/LJ/setlinejoin ld
/GC/setgray ld
/LW/setlinewidth ld
/M/moveto ld
/re {4 2 roll M
1 index 0 rlineto
0 exch rlineto
neg 0 rlineto
cp } bd
/_ctm matrix def
/_tm matrix def
/BT { _ctm currentmatrix pop matrix _tm copy pop 0 0 moveto } bd
/ET { _ctm setmatrix } bd
/iTm { _ctm setmatrix _tm concat } bd
/Tm { _tm astore pop iTm 0 0 moveto } bd
/ux 0.0 def
/uy 0.0 def
/F {
  /Tp exch def
  /Tf exch def
  Tf findfont Tp scalefont setfont
  /cf Tf def  /cs Tp def
} bd
/ULS {currentpoint /uy exch def /ux exch def} bd
/ULE {
  /Tcx currentpoint pop def
  gsave
  newpath
  cf findfont cs scalefont dup
  /FontMatrix get 0 get /Ts exch def /FontInfo get dup
  /UnderlinePosition get Ts mul /To exch def
  /UnderlineThickness get Ts mul /Tt exch def
  ux uy To add moveto  Tcx uy To add lineto
  Tt setlinewidth stroke
  grestore
} bd
/OLE {
  /Tcx currentpoint pop def
  gsave
  newpath
  cf findfont cs scalefont dup
  /FontMatrix get 0 get /Ts exch def /FontInfo get dup
  /UnderlinePosition get Ts mul /To exch def
  /UnderlineThickness get Ts mul /Tt exch def
  ux uy To add cs add moveto Tcx uy To add cs add lineto
  Tt setlinewidth stroke
  grestore
} bd
/SOE {
  /Tcx currentpoint pop def
  gsave
  newpath
  cf findfont cs scalefont dup
  /FontMatrix get 0 get /Ts exch def /FontInfo get dup
  /UnderlinePosition get Ts mul /To exch def
  /UnderlineThickness get Ts mul /Tt exch def
  ux uy To add cs 10 mul 26 idiv add moveto Tcx uy To add cs 10 mul 26 idiv add lineto
  Tt setlinewidth stroke
  grestore
} bd
/QT {
/Y22 exch store
/X22 exch store
/Y21 exch store
/X21 exch store
currentpoint
/Y21 load 2 mul add 3 div exch
/X21 load 2 mul add 3 div exch
/X21 load 2 mul /X22 load add 3 div
/Y21 load 2 mul /Y22 load add 3 div
/X22 load /Y22 load curveto
} bd
/SSPD {
dup length /d exch dict def
{
/v exch def
/k exch def
currentpagedevice k known {
/cpdv currentpagedevice k get def
v cpdv ne {
/upd false def
/nullv v type /nulltype eq def
/nullcpdv cpdv type /nulltype eq def
nullv nullcpdv or
{
/upd true def
} {
/sametype v type cpdv type eq def
sametype {
v type /arraytype eq {
/vlen v length def
/cpdvlen cpdv length def
vlen cpdvlen eq {
0 1 vlen 1 sub {
/i exch def
/obj v i get def
/cpdobj cpdv i get def
obj cpdobj ne {
/upd true def
exit
} if
} for
} {
/upd true def
} ifelse
} {
v type /dicttype eq {
v {
/dv exch def
/dk exch def
/cpddv cpdv dk get def
dv cpddv ne {
/upd true def
exit
} if
} forall
} {
/upd true def
} ifelse
} ifelse
} if
} ifelse
upd true eq {
d k v put
} if
} if
} if
} forall
d length 0 gt {
d setpagedevice
} if
} bd
/RE { % /NewFontName [NewEncodingArray] /FontName RE -
  findfont dup length dict begin
  {
    1 index /FID ne
    {def} {pop pop} ifelse
  } forall
  /Encoding exch def
  /FontName 1 index def
  currentdict definefont pop
  end
} bind def
%%EndResource
%%BeginResource: procset (Apache XML Graphics EPS ProcSet) 1.0 0
%%Version: 1.0 0
%%Copyright: (Copyright 2002-2003 The Apache Software Foundation. License terms: http://www.apache.org/licenses/LICENSE-2.0)
/BeginEPSF { %def
/b4_Inc_state save def         % Save state for cleanup
/dict_count countdictstack def % Count objects on dict stack
/op_count count 1 sub def      % Count objects on operand stack
userdict begin                 % Push userdict on dict stack
/showpage { } def              % Redefine showpage, { } = null proc
0 setgray 0 setlinecap         % Prepare graphics state
1 setlinewidth 0 setlinejoin
10 setmiterlimit [ ] 0 setdash newpath
/languagelevel where           % If level not equal to 1 then
{pop languagelevel             % set strokeadjust and
1 ne                           % overprint to their defaults.
{false setstrokeadjust false setoverprint
} if
} if
} bd
/EndEPSF { %def
count op_count sub {pop} repeat            % Clean up stacks
countdictstack dict_count sub {end} repeat
b4_Inc_state restore
} bd
%%EndResource
%FOPBeginFontDict
%%IncludeResource: font Courier-Oblique
%%IncludeResource: font Courier-BoldOblique
%%IncludeResource: font Courier-Bold
%%IncludeResource: font ZapfDingbats
%%IncludeResource: font Symbol
%%IncludeResource: font Helvetica
%%IncludeResource: font Helvetica-Oblique
%%IncludeResource: font Helvetica-Bold
%%IncludeResource: font Helvetica-BoldOblique
%%IncludeResource: font Times-Roman
%%IncludeResource: font Times-Italic
%%IncludeResource: font Times-Bold
%%IncludeResource: font Times-BoldItalic
%%IncludeResource: font Courier
%FOPEndFontDict
%%BeginResource: encoding WinAnsiEncoding
/WinAnsiEncoding [
/.notdef /.notdef /.notdef /.notdef /.notdef
/.notdef /.notdef /.notdef /.notdef /.notdef
/.notdef /.notdef /.notdef /.notdef /.notdef
/.notdef /.notdef /.notdef /.notdef /.notdef
/.notdef /.notdef /.notdef /.notdef /.notdef
/.notdef /.notdef /.notdef /.notdef /.notdef
/.notdef /.notdef /space /exclam /quotedbl
/numbersign /dollar /percent /ampersand /quotesingle
/parenleft /parenright /asterisk /plus /comma
/hyphen /period /slash /zero /one
/two /three /four /five /six
/seven /eight /nine /colon /semicolon
/less /equal /greater /question /at
/A /B /C /D /E
/F /G /H /I /J
/K /L /M /N /O
/P /Q /R /S /T
/U /V /W /X /Y
/Z /bracketleft /backslash /bracketright /asciicircum
/underscore /quoteleft /a /b /c
/d /e /f /g /h
/i /j /k /l /m
/n /o /p /q /r
/s /t /u /v /w
/x /y /z /braceleft /bar
/braceright /asciitilde /bullet /Euro /bullet
/quotesinglbase /florin /quotedblbase /ellipsis /dagger
/daggerdbl /circumflex /perthousand /Scaron /guilsinglleft
/OE /bullet /Zcaron /bullet /bullet
/quoteleft /quoteright /quotedblleft /quotedblright /bullet
/endash /emdash /asciitilde /trademark /scaron
/guilsinglright /oe /bullet /zcaron /Ydieresis
/space /exclamdown /cent /sterling /currency
/yen /brokenbar /section /dieresis /copyright
/ordfeminine /guillemotleft /logicalnot /sfthyphen /registered
/macron /degree /plusminus /twosuperior /threesuperior
/acute /mu /paragraph /middot /cedilla
/onesuperior /ordmasculine /guillemotright /onequarter /onehalf
/threequarters /questiondown /Agrave /Aacute /Acircumflex
/Atilde /Adieresis /Aring /AE /Ccedilla
/Egrave /Eacute /Ecircumflex /Edieresis /Igrave
/Iacute /Icircumflex /Idieresis /Eth /Ntilde
/Ograve /Oacute /Ocircumflex /Otilde /Odieresis
/multiply /Oslash /Ugrave /Uacute /Ucircumflex
/Udieresis /Yacute /Thorn /germandbls /agrave
/aacute /acircumflex /atilde /adieresis /aring
/ae /ccedilla /egrave /eacute /ecircumflex
/edieresis /igrave /iacute /icircumflex /idieresis
/eth /ntilde /ograve /oacute /ocircumflex
/otilde /odieresis /divide /oslash /ugrave
/uacute /ucircumflex /udieresis /yacute /thorn
/ydieresis
] def
%%EndResource
%FOPBeginFontReencode
/Courier-Oblique findfont
dup length dict begin
  {1 index /FID ne {def} {pop pop} ifelse} forall
  /Encoding WinAnsiEncoding def
  currentdict
end
/Courier-Oblique exch definefont pop
/Courier-BoldOblique findfont
dup length dict begin
  {1 index /FID ne {def} {pop pop} ifelse} forall
  /Encoding WinAnsiEncoding def
  currentdict
end
/Courier-BoldOblique exch definefont pop
/Courier-Bold findfont
dup length dict begin
  {1 index /FID ne {def} {pop pop} ifelse} forall
  /Encoding WinAnsiEncoding def
  currentdict
end
/Courier-Bold exch definefont pop
/Helvetica findfont
dup length dict begin
  {1 index /FID ne {def} {pop pop} ifelse} forall
  /Encoding WinAnsiEncoding def
  currentdict
end
/Helvetica exch definefont pop
/Helvetica-Oblique findfont
dup length dict begin
  {1 index /FID ne {def} {pop pop} ifelse} forall
  /Encoding WinAnsiEncoding def
  currentdict
end
/Helvetica-Oblique exch definefont pop
/Helvetica-Bold findfont
dup length dict begin
  {1 index /FID ne {def} {pop pop} ifelse} forall
  /Encoding WinAnsiEncoding def
  currentdict
end
/Helvetica-Bold exch definefont pop
/Helvetica-BoldOblique findfont
dup length dict begin
  {1 index /FID ne {def} {pop pop} ifelse} forall
  /Encoding WinAnsiEncoding def
  currentdict
end
/Helvetica-BoldOblique exch definefont pop
/Times-Roman findfont
dup length dict begin
  {1 index /FID ne {def} {pop pop} ifelse} forall
  /Encoding WinAnsiEncoding def
  currentdict
end
/Times-Roman exch definefont pop
/Times-Italic findfont
dup length dict begin
  {1 index /FID ne {def} {pop pop} ifelse} forall
  /Encoding WinAnsiEncoding def
  currentdict
end
/Times-Italic exch definefont pop
/Times-Bold findfont
dup length dict begin
  {1 index /FID ne {def} {pop pop} ifelse} forall
  /Encoding WinAnsiEncoding def
  currentdict
end
/Times-Bold exch definefont pop
/Times-BoldItalic findfont
dup length dict begin
  {1 index /FID ne {def} {pop pop} ifelse} forall
  /Encoding WinAnsiEncoding def
  currentdict
end
/Times-BoldItalic exch definefont pop
/Courier findfont
dup length dict begin
  {1 index /FID ne {def} {pop pop} ifelse} forall
  /Encoding WinAnsiEncoding def
  currentdict
end
/Courier exch definefont pop
%FOPEndFontReencode
%%EndProlog
%%Page: 1 1
%%PageBoundingBox: 0 0 560 420
%%BeginPageSetup
[1 0 0 -1 0 420] CT
%%EndPageSetup
GS
1 GC
N
0 0 560 420 re
f
GR
GS
1 GC
N
0 0 560 420 re
f
GR
GS
1 GC
N
76 351 M
507 351 L
507 39 L
76 39 L
cp
f
GR
GS
0.873 GC
1 LJ
0.5 LW
N
76 351 M
76 39 L
S
GR
GS
0.873 GC
1 LJ
0.5 LW
N
162.2 351 M
162.2 39 L
S
GR
GS
0.873 GC
1 LJ
0.5 LW
N
248.4 351 M
248.4 39 L
S
GR
GS
0.873 GC
1 LJ
0.5 LW
N
334.6 351 M
334.6 39 L
S
GR
GS
0.873 GC
1 LJ
0.5 LW
N
420.8 351 M
420.8 39 L
S
GR
GS
0.873 GC
1 LJ
0.5 LW
N
507 351 M
507 39 L
S
GR
GS
0.873 GC
1 LJ
0.5 LW
N
507 351 M
76 351 L
S
GR
GS
0.873 GC
1 LJ
0.5 LW
N
507 288.6 M
76 288.6 L
S
GR
GS
0.873 GC
1 LJ
0.5 LW
N
507 226.2 M
76 226.2 L
S
GR
GS
0.873 GC
1 LJ
0.5 LW
N
507 163.8 M
76 163.8 L
S
GR
GS
0.873 GC
1 LJ
0.5 LW
N
507 101.4 M
76 101.4 L
S
GR
GS
0.873 GC
1 LJ
0.5 LW
N
507 39 M
76 39 L
S
GR
GS
0.149 GC
2 setlinecap
1 LJ
0.5 LW
N
76 351 M
507 351 L
S
GR
GS
0.149 GC
2 setlinecap
1 LJ
0.5 LW
N
76 39 M
507 39 L
S
GR
GS
0.149 GC
2 setlinecap
1 LJ
0.5 LW
N
76 351 M
76 346.69 L
S
GR
GS
0.149 GC
2 setlinecap
1 LJ
0.5 LW
N
162.2 351 M
162.2 346.69 L
S
GR
GS
0.149 GC
2 setlinecap
1 LJ
0.5 LW
N
248.4 351 M
248.4 346.69 L
S
GR
GS
0.149 GC
2 setlinecap
1 LJ
0.5 LW
N
334.6 351 M
334.6 346.69 L
S
GR
GS
0.149 GC
2 setlinecap
1 LJ
0.5 LW
N
420.8 351 M
420.8 346.69 L
S
GR
GS
0.149 GC
2 setlinecap
1 LJ
0.5 LW
N
507 351 M
507 346.69 L
S
GR
GS
0.149 GC
2 setlinecap
1 LJ
0.5 LW
N
76 39 M
76 43.31 L
S
GR
GS
0.149 GC
2 setlinecap
1 LJ
0.5 LW
N
162.2 39 M
162.2 43.31 L
S
GR
GS
0.149 GC
2 setlinecap
1 LJ
0.5 LW
N
248.4 39 M
248.4 43.31 L
S
GR
GS
0.149 GC
2 setlinecap
1 LJ
0.5 LW
N
334.6 39 M
334.6 43.31 L
S
GR
GS
0.149 GC
2 setlinecap
1 LJ
0.5 LW
N
420.8 39 M
420.8 43.31 L
S
GR
GS
0.149 GC
2 setlinecap
1 LJ
0.5 LW
N
507 39 M
507 43.31 L
S
GR
GS
[1 0 0 1 76 357.79999] CT
0.149 GC
/Helvetica 24 F
GS
[1 0 0 1 0 0] CT
-7 23 moveto 
1 -1 scale
(0) t 
GR
GR
GS
[1 0 0 1 162.2 357.79999] CT
0.149 GC
/Helvetica 24 F
GS
[1 0 0 1 0 0] CT
-17 23 moveto 
1 -1 scale
(0.2) t 
GR
GR
GS
[1 0 0 1 248.40001 357.79999] CT
0.149 GC
/Helvetica 24 F
GS
[1 0 0 1 0 0] CT
-17 23 moveto 
1 -1 scale
(0.4) t 
GR
GR
GS
[1 0 0 1 334.60001 357.79999] CT
0.149 GC
/Helvetica 24 F
GS
[1 0 0 1 0 0] CT
-17 23 moveto 
1 -1 scale
(0.6) t 
GR
GR
GS
[1 0 0 1 420.80002 357.79999] CT
0.149 GC
/Helvetica 24 F
GS
[1 0 0 1 0 0] CT
-17 23 moveto 
1 -1 scale
(0.8) t 
GR
GR
GS
[1 0 0 1 507 357.79999] CT
0.149 GC
/Helvetica 24 F
GS
[1 0 0 1 0 0] CT
-7 23 moveto 
1 -1 scale
(1) t 
GR
GR
GS
[1 0 0 1 291.50021 387.79999] CT
0.149 GC
/Helvetica 26.4 F
GS
[1 0 0 1 0 0] CT
-112.5 26 moveto 
1 -1 scale
(False Positive Rate) t 
GR
GR
GS
0.149 GC
2 setlinecap
1 LJ
0.5 LW
N
76 351 M
76 39 L
S
GR
GS
0.149 GC
2 setlinecap
1 LJ
0.5 LW
N
507 351 M
507 39 L
S
GR
GS
0.149 GC
2 setlinecap
1 LJ
0.5 LW
N
76 351 M
80.31 351 L
S
GR
GS
0.149 GC
2 setlinecap
1 LJ
0.5 LW
N
76 288.6 M
80.31 288.6 L
S
GR
GS
0.149 GC
2 setlinecap
1 LJ
0.5 LW
N
76 226.2 M
80.31 226.2 L
S
GR
GS
0.149 GC
2 setlinecap
1 LJ
0.5 LW
N
76 163.8 M
80.31 163.8 L
S
GR
GS
0.149 GC
2 setlinecap
1 LJ
0.5 LW
N
76 101.4 M
80.31 101.4 L
S
GR
GS
0.149 GC
2 setlinecap
1 LJ
0.5 LW
N
76 39 M
80.31 39 L
S
GR
GS
0.149 GC
2 setlinecap
1 LJ
0.5 LW
N
507 351 M
502.69 351 L
S
GR
GS
0.149 GC
2 setlinecap
1 LJ
0.5 LW
N
507 288.6 M
502.69 288.6 L
S
GR
GS
0.149 GC
2 setlinecap
1 LJ
0.5 LW
N
507 226.2 M
502.69 226.2 L
S
GR
GS
0.149 GC
2 setlinecap
1 LJ
0.5 LW
N
507 163.8 M
502.69 163.8 L
S
GR
GS
0.149 GC
2 setlinecap
1 LJ
0.5 LW
N
507 101.4 M
502.69 101.4 L
S
GR
GS
0.149 GC
2 setlinecap
1 LJ
0.5 LW
N
507 39 M
502.69 39 L
S
GR
GS
[1 0 0 1 69.2 351] CT
0.149 GC
/Helvetica 24 F
GS
[1 0 0 1 0 0] CT
-14 8.5 moveto 
1 -1 scale
(0) t 
GR
GR
GS
[1 0 0 1 69.2 288.60001] CT
0.149 GC
/Helvetica 24 F
GS
[1 0 0 1 0 0] CT
-34 8.5 moveto 
1 -1 scale
(0.2) t 
GR
GR
GS
[1 0 0 1 69.2 226.2] CT
0.149 GC
/Helvetica 24 F
GS
[1 0 0 1 0 0] CT
-34 8.5 moveto 
1 -1 scale
(0.4) t 
GR
GR
GS
[1 0 0 1 69.2 163.79999] CT
0.149 GC
/Helvetica 24 F
GS
[1 0 0 1 0 0] CT
-34 8.5 moveto 
1 -1 scale
(0.6) t 
GR
GR
GS
[1 0 0 1 69.2 101.39999] CT
0.149 GC
/Helvetica 24 F
GS
[1 0 0 1 0 0] CT
-34 8.5 moveto 
1 -1 scale
(0.8) t 
GR
GR
GS
[1 0 0 1 69.2 39] CT
0.149 GC
/Helvetica 24 F
GS
[1 0 0 1 0 0] CT
-14 8.5 moveto 
1 -1 scale
(1) t 
GR
GR
GS
[0 -1 1 0 32.2 194.99985] CT
0.149 GC
/Helvetica 26.4 F
GS
[1 0 0 1 0 0] CT
-108 -6 moveto 
1 -1 scale
(True Positive Rate) t 
GR
GR
GS
[1 0 0 1 291.50027 32.40001] CT
/Helvetica-Bold 26.4 F
GS
[1 0 0 1 0 0] CT
-191.5 -6 moveto 
1 -1 scale
(OSIRIS | manual segmentation) t 
GR
GR
GS
0 0 1 RC
1 LJ
3 LW
N
76 350.372 M
76 350.372 L
76 350.372 L
76 350.372 L
76 350.372 L
76 350.372 L
76 350.372 L
76 350.372 L
76 349.744 L
76 349.744 L
76 349.744 L
76 349.744 L
76 349.744 L
76 349.744 L
76 349.744 L
76 349.744 L
76 349.744 L
76 349.744 L
76 349.744 L
76 349.744 L
76 349.744 L
76 349.744 L
76 349.744 L
76 349.744 L
76 349.744 L
76 349.744 L
76 349.744 L
76 349.744 L
76 349.117 L
76 349.117 L
76 349.117 L
76 349.117 L
76 349.117 L
76 349.117 L
76 349.117 L
76 349.117 L
76 349.117 L
76 349.117 L
76 349.117 L
76 349.117 L
76 348.489 L
76 348.489 L
76 348.489 L
76 348.489 L
76 348.489 L
76 347.861 L
76 347.861 L
76 347.861 L
76 347.861 L
76 347.861 L
76 347.861 L
76 347.861 L
76 347.861 L
76 347.861 L
76 347.233 L
76 347.233 L
76 347.233 L
76 347.233 L
76 347.233 L
76 347.233 L
76 346.606 L
76 346.606 L
76 346.606 L
76 346.606 L
76 345.978 L
76 345.978 L
76 345.978 L
76 345.978 L
76 345.978 L
76 345.35 L
76 344.722 L
76 344.722 L
76 344.722 L
76 344.722 L
76 344.722 L
76 344.722 L
76 344.095 L
76 343.467 L
76 343.467 L
76 343.467 L
76 343.467 L
76 343.467 L
76 343.467 L
76 342.839 L
76 342.839 L
76 342.839 L
76 342.839 L
76 342.839 L
76 342.839 L
76 342.839 L
76 342.211 L
76 342.211 L
76 342.211 L
76 342.211 L
76 342.211 L
76 342.211 L
76 341.583 L
76 340.956 L
76 340.956 L
76 340.956 L
76 340.956 L
76 340.956 L
76 340.956 L
76 340.328 L
76 340.328 L
76 340.328 L
76 340.328 L
76 339.7 L
76 339.7 L
76 339.7 L
76 337.817 L
76 337.817 L
76 337.817 L
76 337.817 L
76 337.817 L
76 337.189 L
76 337.189 L
76 337.189 L
76 337.189 L
76 335.934 L
76 335.934 L
76 335.934 L
76 335.934 L
76 335.306 L
76 335.306 L
76 335.306 L
76 335.306 L
76 335.306 L
76 335.306 L
76 335.306 L
76 335.306 L
76 335.306 L
76 334.678 L
76 333.423 L
76 333.423 L
76 333.423 L
76 332.795 L
76 332.795 L
76 332.167 L
76 332.167 L
76 332.167 L
76 330.284 L
76 329.656 L
76 329.656 L
76 329.656 L
76 329.656 L
76 329.656 L
76 329.656 L
76 329.028 L
76 329.028 L
76 329.028 L
76 328.4 L
76 327.145 L
76 327.145 L
76 326.517 L
76 325.262 L
76 325.262 L
76 324.634 L
76 324.634 L
76 324.634 L
76 324.634 L
76 324.634 L
76 324.634 L
76 324.634 L
76 324.634 L
76 323.378 L
76 323.378 L
76 323.378 L
76 323.378 L
76 323.378 L
76 322.75 L
76 322.75 L
76 322.75 L
76 322.75 L
76 322.123 L
76 320.867 L
76 320.867 L
76 320.867 L
76 320.239 L
76 320.239 L
76 320.239 L
76 320.239 L
76 320.239 L
76 319.612 L
76 318.984 L
76 318.356 L
76 318.356 L
76 317.101 L
76 316.473 L
76 316.473 L
76 315.845 L
76 315.217 L
76 315.217 L
76 314.59 L
76 314.59 L
76 314.59 L
76 312.706 L
76 312.078 L
76 312.078 L
76 311.451 L
76 310.823 L
76 310.823 L
76 310.823 L
76 308.312 L
76 307.056 L
76 307.056 L
76 306.429 L
76 305.173 L
76 305.173 L
76 304.545 L
76 304.545 L
76 304.545 L
76 303.918 L
76 303.29 L
76 303.29 L
76 303.29 L
76 303.29 L
76 302.662 L
76 302.034 L
76 300.779 L
76 300.779 L
76 300.779 L
76 298.268 L
76 297.64 L
76 297.64 L
76 297.012 L
76 294.501 L
76 292.618 L
76 292.618 L
76 291.99 L
76 290.107 L
76 290.107 L
76 288.851 L
76 288.851 L
76 288.851 L
76 287.596 L
76 285.712 L
76 285.712 L
76 283.829 L
76 281.946 L
76 280.062 L
76 280.062 L
76 278.807 L
76 278.807 L
76 278.807 L
76 276.924 L
76 276.924 L
76 276.924 L
76 275.668 L
76 273.785 L
76 273.785 L
76 273.785 L
76 273.785 L
76 273.157 L
76 273.157 L
76 269.39 L
76 268.135 L
76 268.135 L
76 268.135 L
76 266.251 L
76 266.251 L
76 264.996 L
76 263.113 L
76 262.485 L
76 262.485 L
76 261.857 L
76 261.857 L
76 261.857 L
76 259.974 L
76 259.346 L
76 258.091 L
76 258.091 L
76 257.463 L
76 256.835 L
76 255.579 L
76 253.068 L
76 253.068 L
76 251.813 L
76 251.813 L
76 251.813 L
76 251.185 L
76 250.557 L
76 250.557 L
76 250.557 L
76 249.302 L
76 248.674 L
76 248.674 L
76 246.791 L
76 245.535 L
76 245.535 L
76 245.535 L
76 243.652 L
76 242.396 L
76 242.396 L
76 241.141 L
76 239.258 L
76 239.258 L
76 236.746 L
76 236.746 L
76 236.746 L
76 236.746 L
76 236.746 L
76 236.119 L
76 236.119 L
76 236.119 L
76 234.863 L
76 234.863 L
76 234.863 L
76 234.863 L
76 234.863 L
76 234.863 L
76 234.235 L
76 234.235 L
76 233.608 L
76 233.608 L
76 232.98 L
76 232.98 L
76 232.98 L
76 232.352 L
76 231.724 L
76 230.469 L
76 228.586 L
76 227.958 L
76 227.33 L
76 227.33 L
76 226.702 L
76 225.447 L
76 225.447 L
76 224.191 L
76 222.308 L
76 220.425 L
76 217.913 L
76 217.913 L
76 216.03 L
76 215.402 L
76 215.402 L
76 215.402 L
76 214.775 L
76 214.775 L
76 213.519 L
76 212.264 L
76 211.636 L
76 209.753 L
76 209.125 L
76 209.125 L
76 209.125 L
76 207.869 L
76 207.869 L
76 207.869 L
76 207.869 L
76 206.614 L
76 206.614 L
76 205.358 L
76 202.847 L
76 202.219 L
76 199.708 L
76 198.453 L
76 197.825 L
76 197.825 L
76 197.197 L
76 195.942 L
76 195.942 L
76 195.942 L
76 195.942 L
76 195.942 L
76 195.314 L
76 193.431 L
76 193.431 L
76 193.431 L
76 192.803 L
76 189.036 L
76 189.036 L
76 187.781 L
76 184.642 L
76 184.642 L
76 184.014 L
76 183.386 L
76 183.386 L
76 181.503 L
76 180.875 L
76 180.875 L
76 180.875 L
76 180.875 L
76 179.62 L
76 179.62 L
76 176.481 L
76 176.481 L
76 176.481 L
76 175.225 L
76 172.714 L
76 172.714 L
76 172.087 L
76 170.203 L
76 170.203 L
76 167.692 L
76 167.064 L
76 167.064 L
76 166.437 L
76 165.809 L
76 164.553 L
76 164.553 L
76 163.298 L
76 162.67 L
76 162.67 L
76 160.787 L
76 159.531 L
76 159.531 L
76 158.903 L
76 157.02 L
76 156.392 L
76 153.881 L
76 152.626 L
76 151.998 L
76 151.37 L
76 150.742 L
76 150.115 L
76 150.115 L
76 149.487 L
76 148.859 L
76 148.231 L
76 147.604 L
76 146.976 L
76 146.348 L
76 144.465 L
76 143.837 L
76 143.209 L
76 143.209 L
76 140.07 L
76 139.443 L
76 139.443 L
76 139.443 L
76 138.187 L
76 137.559 L
76 136.932 L
76 136.304 L
76 136.304 L
76 136.304 L
76 135.676 L
76 135.048 L
76 133.793 L
76 132.537 L
76 132.537 L
76 131.909 L
76 131.282 L
76 130.654 L
76 130.654 L
76 130.026 L
76 129.398 L
76 128.771 L
76 128.143 L
76 128.143 L
76 126.887 L
76 126.26 L
76 125.004 L
76 123.121 L
76 123.121 L
76 121.865 L
76 120.61 L
76 119.354 L
76 118.099 L
76 116.843 L
76 116.843 L
76 116.215 L
76 116.215 L
76 114.332 L
76 114.332 L
76 113.704 L
76 113.076 L
76 112.449 L
76 111.821 L
76 111.821 L
76 111.821 L
76 111.193 L
76 109.938 L
76 109.938 L
76 109.31 L
76 109.31 L
76 108.682 L
76 108.054 L
76 108.054 L
76 107.427 L
76 107.427 L
76 106.799 L
76 106.171 L
76 104.915 L
76 104.288 L
76 103.66 L
76 103.032 L
76 101.149 L
76 100.521 L
76 100.521 L
76 99.893 L
76 99.893 L
76 99.266 L
76 99.266 L
76 98.638 L
76 98.01 L
76 98.01 L
76 97.382 L
76 96.755 L
76 96.755 L
76 96.127 L
76 96.127 L
76 96.127 L
76 96.127 L
76 95.499 L
76 94.243 L
76 93.616 L
76 91.732 L
76 91.105 L
76 91.105 L
76 91.105 L
76 90.477 L
76 90.477 L
76 90.477 L
76 89.849 L
76 89.221 L
76 88.594 L
76 88.594 L
76 87.966 L
76 87.966 L
76 87.338 L
76 87.338 L
76 87.338 L
76 87.338 L
76 86.71 L
76 86.71 L
76 86.71 L
76 86.71 L
76 86.71 L
76 86.082 L
76 84.827 L
76 83.571 L
76 83.571 L
76 82.944 L
76 81.688 L
76 81.06 L
76 79.805 L
76 76.666 L
76 76.666 L
76 75.41 L
76 75.41 L
76 74.783 L
76 74.783 L
76 74.783 L
76 74.783 L
76 74.783 L
76 73.527 L
76 73.527 L
76 73.527 L
76 72.899 L
76 72.899 L
76 72.899 L
76 72.899 L
76.011 72.899 L
76.011 72.899 L
76.011 72.899 L
76.011 72.899 L
76.011 71.644 L
76.011 71.644 L
76.011 71.016 L
76.011 71.016 L
76.011 71.016 L
76.011 71.016 L
76.011 71.016 L
76.011 71.016 L
76.011 70.388 L
76.011 69.761 L
76.011 69.761 L
76.011 68.505 L
76.011 67.249 L
76.011 66.622 L
76.011 65.994 L
76.011 65.994 L
76.011 65.994 L
76.011 65.994 L
76.011 65.994 L
76.011 65.994 L
76.011 65.366 L
76.011 64.738 L
76.011 64.738 L
76.011 64.738 L
76.011 64.738 L
76.011 64.738 L
76.011 64.738 L
76.011 64.738 L
76.011 64.111 L
76.011 64.111 L
76.011 64.111 L
76.011 63.483 L
76.011 63.483 L
76.011 63.483 L
76.011 63.483 L
76.033 63.483 L
76.033 63.483 L
76.033 62.227 L
76.033 62.227 L
76.033 62.227 L
76.033 62.227 L
76.033 62.227 L
76.044 61.6 L
76.055 61.6 L
76.066 60.344 L
76.066 60.344 L
76.066 60.344 L
76.066 59.716 L
76.066 59.716 L
76.066 59.716 L
76.066 59.716 L
76.066 59.716 L
76.066 58.461 L
76.066 58.461 L
76.066 58.461 L
76.066 58.461 L
76.077 58.461 L
76.077 58.461 L
76.077 58.461 L
76.077 58.461 L
76.077 58.461 L
76.077 58.461 L
76.077 58.461 L
76.077 57.833 L
76.077 57.833 L
76.088 57.833 L
76.099 57.833 L
76.11 57.833 L
76.121 57.205 L
76.143 56.577 L
76.143 56.577 L
76.187 56.577 L
76.198 56.577 L
76.198 56.577 L
76.231 55.95 L
76.231 55.95 L
76.275 55.95 L
76.297 55.95 L
76.319 55.322 L
76.342 54.066 L
76.386 54.066 L
76.43 54.066 L
76.452 54.066 L
76.496 54.066 L
76.529 54.066 L
76.529 54.066 L
76.54 53.439 L
76.595 53.439 L
76.617 53.439 L
76.672 53.439 L
76.716 53.439 L
76.76 53.439 L
76.76 52.811 L
76.815 52.811 L
76.87 52.811 L
76.903 52.811 L
76.947 52.811 L
77.002 52.183 L
77.047 52.183 L
77.19 52.183 L
77.256 52.183 L
77.289 51.555 L
77.41 51.555 L
77.531 51.555 L
77.674 51.555 L
77.73 51.555 L
77.84 51.555 L
77.972 50.928 L
78.049 50.928 L
78.247 49.672 L
78.446 49.044 L
78.567 49.044 L
78.721 47.789 L
78.963 47.789 L
79.063 47.789 L
79.239 47.789 L
79.47 47.789 L
79.679 47.789 L
79.735 47.789 L
80.043 47.789 L
80.429 47.161 L
80.495 47.161 L
80.836 46.533 L
81.189 45.905 L
81.288 45.905 L
81.53 45.905 L
81.883 45.905 L
81.949 45.905 L
82.323 45.905 L
82.852 45.905 L
83.315 45.905 L
83.513 45.905 L
84.042 45.905 L
84.648 45.905 L
84.769 45.905 L
85.441 45.905 L
86.08 45.278 L
86.344 45.278 L
87.038 45.278 L
87.831 45.278 L
88.118 45.278 L
88.889 44.65 L
89.638 44.022 L
90.541 43.394 L
90.817 43.394 L
91.874 43.394 L
92.723 43.394 L
93.075 43.394 L
93.979 43.394 L
94.992 43.394 L
95.334 43.394 L
96.633 43.394 L
97.702 43.394 L
98.176 43.394 L
99.399 43.394 L
100.919 43.394 L
102.351 42.767 L
102.847 42.767 L
104.29 42.767 L
105.711 42.139 L
106.129 42.139 L
107.551 42.139 L
109.181 42.139 L
109.699 42.139 L
111.472 42.139 L
113.125 42.139 L
113.775 42.139 L
115.592 42.139 L
117.443 42.139 L
119.569 41.511 L
120.153 41.511 L
122.478 41.511 L
124.901 41.511 L
125.507 41.511 L
127.578 41.511 L
130.024 41.511 L
130.707 41.511 L
133.064 41.511 L
135.51 41.511 L
136.369 41.511 L
138.936 40.256 L
141.558 40.256 L
144.213 40.256 L
145.38 40.256 L
148.63 40.256 L
151.715 40.256 L
152.993 40.256 L
155.989 40.256 L
159.096 40.256 L
160.296 40.256 L
163.579 40.256 L
166.994 40.256 L
168.272 40.256 L
171.919 40.256 L
175.411 40.256 L
179.156 39.628 L
180.566 39.628 L
184.18 39.628 L
187.991 39.628 L
189.434 39.628 L
193.323 39.628 L
197.256 39.628 L
198.842 39.628 L
202.566 39.628 L
206.664 39.628 L
208.184 39.628 L
212.183 39.628 L
216.237 39.628 L
220.776 39.628 L
222.428 39.628 L
226.824 39.628 L
231.109 39.628 L
233.169 39 L
237.884 39 L
242.004 39 L
243.734 39 L
247.931 39 L
252.48 39 L
254.287 39 L
258.473 39 L
262.99 39 L
265.116 39 L
269.6 39 L
274.359 39 L
279.195 39 L
281.299 39 L
285.683 39 L
290.431 39 L
292.602 39 L
297.46 39 L
302.208 39 L
304.048 39 L
308.641 39 L
313.147 39 L
314.987 39 L
319.162 39 L
323.965 39 L
328.559 39 L
330.354 39 L
335.003 39 L
339.123 39 L
341.249 39 L
345.601 39 L
349.864 39 L
351.539 39 L
355.714 39 L
360.33 39 L
362.136 39 L
366.388 39 L
370.663 39 L
374.739 39 L
376.568 39 L
380.511 39 L
384.753 39 L
386.361 39 L
390.514 39 L
394.502 39 L
395.846 39 L
399.591 39 L
403.69 39 L
405.21 39 L
408.68 39 L
411.72 39 L
415.168 39 L
416.457 39 L
419.762 39 L
422.957 39 L
424.543 39 L
427.782 39 L
431.098 39 L
432.266 39 L
435.493 39 L
438.622 39 L
439.746 39 L
442.412 39 L
445.045 39 L
447.677 39 L
448.537 39 L
450.861 39 L
453.648 39 L
454.662 39 L
456.898 39 L
459.432 39 L
460.148 39 L
462.318 39 L
464.136 39 L
465.039 39 L
467.286 39 L
469.324 39 L
471.351 39 L
471.946 39 L
473.632 39 L
475.35 39 L
476.033 39 L
477.587 39 L
479.305 39 L
479.977 39 L
481.156 39 L
482.797 39 L
483.491 39 L
484.604 39 L
485.805 39 L
487.171 39 L
487.413 39 L
488.515 39 L
489.903 39 L
490.101 39 L
491.214 39 L
492.381 39 L
492.613 39 L
493.472 39 L
494.53 39 L
494.882 39 L
495.554 39 L
496.501 39 L
497.328 39 L
497.328 39 L
498.121 39 L
498.683 39 L
498.782 39 L
499.498 39 L
500.082 39 L
500.17 39 L
500.776 39 L
501.283 39 L
501.371 39 L
501.69 39 L
502.12 39 L
502.406 39 L
502.549 39 L
502.847 39 L
503.188 39 L
503.265 39 L
503.541 39 L
503.783 39 L
503.926 39 L
504.136 39 L
504.367 39 L
504.411 39 L
504.543 39 L
504.676 39 L
504.797 39 L
504.841 39 L
504.984 39 L
505.072 39 L
505.116 39 L
505.237 39 L
505.414 39 L
505.469 39 L
505.612 39 L
505.689 39 L
505.711 39 L
505.865 39 L
505.953 39 L
506.031 39 L
506.064 39 L
506.141 39 L
506.185 39 L
506.207 39 L
506.295 39 L
506.317 39 L
506.328 39 L
506.394 39 L
506.438 39 L
506.449 39 L
506.482 39 L
506.515 39 L
506.559 39 L
506.581 39 L
506.592 39 L
506.625 39 L
506.647 39 L
506.681 39 L
506.692 39 L
506.703 39 L
506.703 39 L
506.714 39 L
506.714 39 L
506.769 39 L
506.78 39 L
506.802 39 L
506.813 39 L
506.813 39 L
506.813 39 L
506.824 39 L
506.835 39 L
506.846 39 L
506.846 39 L
506.857 39 L
506.879 39 L
506.89 39 L
506.901 39 L
506.901 39 L
506.901 39 L
506.901 39 L
506.912 39 L
506.912 39 L
506.912 39 L
506.923 39 L
506.923 39 L
506.923 39 L
506.923 39 L
506.934 39 L
506.934 39 L
506.934 39 L
506.934 39 L
506.934 39 L
506.934 39 L
506.945 39 L
506.945 39 L
506.945 39 L
506.956 39 L
506.956 39 L
506.956 39 L
506.967 39 L
506.989 39 L
506.989 39 L
506.989 39 L
506.989 39 L
506.989 39 L
506.989 39 L
506.989 39 L
506.989 39 L
506.989 39 L
506.989 39 L
506.989 39 L
506.989 39 L
506.989 39 L
506.989 39 L
506.989 39 L
506.989 39 L
506.989 39 L
506.989 39 L
506.989 39 L
506.989 39 L
506.989 39 L
506.989 39 L
506.989 39 L
506.989 39 L
506.989 39 L
506.989 39 L
506.989 39 L
507 39 L
S
GR
GS
1 0 0 RC
1 LJ
3 LW
N
76 350.697 M
76 350.697 L
76 350.697 L
76 350.697 L
76 350.697 L
76 350.697 L
76 350.697 L
76 350.697 L
76 350.393 L
76 350.393 L
76 350.393 L
76 350.393 L
76 350.393 L
76 350.393 L
76 350.393 L
76 350.393 L
76 350.393 L
76 350.393 L
76 350.393 L
76 350.393 L
76 350.393 L
76 350.393 L
76 350.393 L
76 350.393 L
76 350.393 L
76 350.393 L
76 350.393 L
76 350.393 L
76 350.393 L
76 350.393 L
76 350.393 L
76 350.393 L
76 350.393 L
76 350.393 L
76 350.393 L
76 350.393 L
76 350.393 L
76 350.393 L
76 350.393 L
76 350.393 L
76 350.393 L
76 350.393 L
76 350.393 L
76 350.393 L
76 350.393 L
76 350.393 L
76 350.393 L
76 350.393 L
76 350.393 L
76 350.09 L
76 350.09 L
76 350.09 L
76 349.786 L
76 349.482 L
76 349.179 L
76 349.179 L
76 349.179 L
76 348.875 L
76 348.268 L
76 348.268 L
76 348.268 L
76 347.965 L
76 347.965 L
76 347.965 L
76 347.965 L
76 347.358 L
76 347.054 L
76 346.447 L
76 346.447 L
76 346.447 L
76 346.447 L
76 346.447 L
76 346.144 L
76 345.84 L
76 345.233 L
76 345.233 L
76 345.233 L
76 345.233 L
76 345.233 L
76 345.233 L
76 344.93 L
76 344.323 L
76 344.019 L
76 343.716 L
76 343.412 L
76 343.412 L
76 343.412 L
76 343.109 L
76 343.109 L
76 343.109 L
76 342.805 L
76 342.805 L
76 342.502 L
76 342.198 L
76 341.895 L
76 341.591 L
76 341.591 L
76 341.591 L
76 341.591 L
76 341.591 L
76 341.591 L
76 341.591 L
76 341.288 L
76 340.984 L
76 340.681 L
76 340.074 L
76 340.074 L
76 339.467 L
76 339.163 L
76 338.86 L
76 338.86 L
76 338.556 L
76 338.253 L
76 337.949 L
76 337.646 L
76 337.342 L
76 337.342 L
76 337.342 L
76 337.039 L
76 336.432 L
76 336.432 L
76 336.128 L
76 336.128 L
76 335.825 L
76 335.521 L
76 335.218 L
76 335.218 L
76 334.914 L
76 334.914 L
76 334.914 L
76 334.611 L
76 334.611 L
76 334.611 L
76 334.611 L
76 334.307 L
76 334.004 L
76 334.004 L
76 333.7 L
76 333.397 L
76 333.093 L
76 333.093 L
76 333.093 L
76 332.79 L
76 332.486 L
76 332.486 L
76 331.272 L
76 330.969 L
76 330.969 L
76 330.969 L
76 330.665 L
76 330.362 L
76 329.451 L
76 329.148 L
76 328.844 L
76 328.237 L
76 328.237 L
76 328.237 L
76 327.934 L
76 327.934 L
76 327.63 L
76 327.327 L
76 327.023 L
76 327.023 L
76 327.023 L
76 327.023 L
76 326.72 L
76 326.416 L
76 325.202 L
76 324.595 L
76 324.595 L
76 324.292 L
76 324.292 L
76 324.292 L
76 324.292 L
76 323.988 L
76 322.774 L
76 322.471 L
76 322.471 L
76 322.167 L
76 321.864 L
76 321.257 L
76 320.953 L
76 320.043 L
76 319.739 L
76 319.436 L
76 319.132 L
76 318.222 L
76 318.222 L
76 317.615 L
76 317.008 L
76 316.401 L
76 315.49 L
76 315.49 L
76 315.187 L
76 314.58 L
76 313.366 L
76 313.062 L
76 312.455 L
76 312.455 L
76 311.848 L
76 311.848 L
76 310.938 L
76 310.938 L
76 310.938 L
76 310.331 L
76 309.724 L
76 308.813 L
76 308.813 L
76 308.206 L
76 307.296 L
76 307.296 L
76 306.992 L
76 306.689 L
76 306.385 L
76 306.082 L
76 305.475 L
76 304.564 L
76 303.957 L
76 303.957 L
76 303.35 L
76 303.047 L
76 303.047 L
76 301.833 L
76 301.529 L
76 301.226 L
76 300.619 L
76 300.315 L
76 299.101 L
76 299.101 L
76 298.191 L
76 297.28 L
76 296.977 L
76 296.066 L
76 295.459 L
76 293.942 L
76 293.335 L
76 291.817 L
76 291.817 L
76 291.514 L
76 289.693 L
76 288.782 L
76 288.782 L
76 288.175 L
76 287.568 L
76 286.961 L
76 285.747 L
76 283.926 L
76 283.623 L
76 283.016 L
76 282.409 L
76 282.105 L
76 282.105 L
76 280.588 L
76 280.588 L
76 279.07 L
76 278.463 L
76 277.856 L
76 277.249 L
76 276.946 L
76 275.125 L
76 275.125 L
76 274.821 L
76 274.518 L
76 273.607 L
76 272.09 L
76 271.786 L
76 270.875 L
76 270.572 L
76 269.965 L
76 269.358 L
76 268.144 L
76 267.233 L
76 267.233 L
76 266.019 L
76 265.716 L
76 265.109 L
76 263.591 L
76 263.288 L
76 262.377 L
76 261.77 L
76 261.467 L
76 260.556 L
76 259.646 L
76 259.342 L
76 258.735 L
76 257.825 L
76 257.825 L
76 256.914 L
76 255.7 L
76 254.486 L
76 253.879 L
76 252.665 L
76 252.058 L
76 251.755 L
76 251.148 L
76 250.541 L
76 249.934 L
76 249.934 L
76 249.934 L
76 249.023 L
76 248.72 L
76 248.416 L
76 247.809 L
76 247.202 L
76 246.899 L
76 246.595 L
76 245.988 L
76 245.078 L
76 244.774 L
76 244.167 L
76 243.56 L
76 242.346 L
76 240.829 L
76 240.525 L
76 239.615 L
76 238.704 L
76 237.794 L
76 236.883 L
76 235.973 L
76 234.759 L
76 234.152 L
76 233.848 L
76 232.634 L
76 230.813 L
76 229.599 L
76 228.082 L
76 228.082 L
76 227.475 L
76 227.171 L
76 226.261 L
76 224.743 L
76 224.44 L
76 223.833 L
76 222.012 L
76 221.101 L
76 220.494 L
76 220.494 L
76 219.28 L
76 218.37 L
76 217.459 L
76 216.852 L
76 216.549 L
76 215.335 L
76 215.335 L
76 214.424 L
76 213.817 L
76 211.693 L
76 211.389 L
76 210.479 L
76 209.872 L
76 208.961 L
76 208.961 L
76 208.051 L
76 207.14 L
76 205.623 L
76 205.319 L
76 205.016 L
76 203.802 L
76 203.498 L
76 203.498 L
76 202.284 L
76 201.374 L
76 200.767 L
76 200.463 L
76 200.16 L
76 198.642 L
76 197.732 L
76 197.428 L
76 197.428 L
76 197.125 L
76 197.125 L
76 196.518 L
76 195.911 L
76 195.303 L
76 195.303 L
76 195 L
76 194.697 L
76 194.697 L
76 194.393 L
76 194.393 L
76 192.875 L
76 192.268 L
76 190.751 L
76 190.447 L
76 189.84 L
76 188.93 L
76 188.019 L
76 187.109 L
76 186.502 L
76 185.895 L
76 185.591 L
76 184.377 L
76 184.074 L
76 183.163 L
76 182.253 L
76 181.949 L
76 181.342 L
76 180.735 L
76 178.914 L
76 178.307 L
76 178.307 L
76 178.004 L
76 176.183 L
76 174.665 L
76 174.362 L
76 173.451 L
76 172.541 L
76 172.541 L
76 172.541 L
76 171.63 L
76 171.023 L
76 170.72 L
76 170.416 L
76 168.899 L
76 168.595 L
76 167.685 L
76 167.078 L
76 167.078 L
76 166.774 L
76 166.167 L
76 165.56 L
76 165.257 L
76 163.436 L
76 162.829 L
76 161.918 L
76 160.401 L
76 159.794 L
76 159.187 L
76 157.973 L
76 157.062 L
76 157.062 L
76 155.545 L
76 155.241 L
76 153.724 L
76 153.42 L
76 152.813 L
76 150.385 L
76 149.778 L
76 148.868 L
76 147.35 L
76 147.047 L
76 146.743 L
76 146.44 L
76 146.136 L
76 145.529 L
76 144.922 L
76 143.708 L
76 142.798 L
76 142.191 L
76 141.584 L
76 140.066 L
76 139.763 L
76 138.245 L
76 137.638 L
76 136.424 L
76 135.817 L
76 135.21 L
76 134.907 L
76 133.996 L
76 133.086 L
76 132.479 L
76 132.479 L
76 131.568 L
76 131.265 L
76 131.265 L
76 131.265 L
76 130.961 L
76 130.658 L
76 130.658 L
76 129.747 L
76 128.837 L
76 128.23 L
76 127.926 L
76 126.712 L
76 125.195 L
76 124.891 L
76 124.891 L
76 124.284 L
76 123.677 L
76 123.677 L
76 123.374 L
76 122.16 L
76 120.339 L
76 120.035 L
76 119.125 L
76 118.214 L
76 117.911 L
76 117.911 L
76 117.303 L
76 116.697 L
76 115.786 L
76 115.786 L
76 114.268 L
76 113.358 L
76 112.751 L
76 112.144 L
76 111.537 L
76 110.019 L
76 110.019 L
76 109.716 L
76 108.198 L
76 106.984 L
76 106.074 L
76 105.77 L
76 104.556 L
76 104.253 L
76 103.949 L
76 103.646 L
76 103.039 L
76 102.432 L
76 102.128 L
76 101.825 L
76 100.914 L
76 100.611 L
76 100.307 L
76 100.004 L
76 99.7 L
76 98.486 L
76 97.879 L
76 96.665 L
76 96.362 L
76 96.362 L
76 96.362 L
76 96.058 L
76 95.755 L
76 95.451 L
76 94.844 L
76 93.023 L
76 92.72 L
76 92.416 L
76 91.809 L
76 91.809 L
76 91.809 L
76 91.202 L
76 90.292 L
76 89.988 L
76 89.685 L
76 89.078 L
76 87.56 L
76 86.65 L
76 85.739 L
76 83.918 L
76 82.704 L
76 82.401 L
76 82.097 L
76 81.49 L
76 80.883 L
76 80.883 L
76 80.883 L
76 79.062 L
76 79.062 L
76 79.062 L
76 78.455 L
76 78.152 L
76 77.241 L
76 77.241 L
76 76.331 L
76 75.724 L
76 75.42 L
76 74.51 L
76 74.51 L
76 74.206 L
76 73.903 L
76 73.903 L
76 73.903 L
76 73.903 L
76 73.903 L
76 72.992 L
76 72.992 L
76 72.082 L
76 71.171 L
76 71.171 L
76 70.564 L
76 70.564 L
76 70.564 L
76 69.957 L
76 69.35 L
76 68.44 L
76 67.833 L
76 67.226 L
76 67.226 L
76 66.619 L
76 66.619 L
76 66.619 L
76 66.315 L
76 66.315 L
76 66.315 L
76 65.708 L
76 64.798 L
76 64.798 L
76 64.494 L
76 64.191 L
76 63.887 L
76 63.584 L
76 63.28 L
76 62.673 L
76 62.066 L
76 62.066 L
76 62.066 L
76 61.763 L
76 61.156 L
76 61.156 L
76 60.852 L
76 60.852 L
76 60.549 L
76 60.549 L
76 60.245 L
76 60.245 L
76 60.245 L
76 60.245 L
76 59.942 L
76 59.638 L
76 59.638 L
76 59.638 L
76 59.638 L
76 59.031 L
76 59.031 L
76 58.728 L
76 58.121 L
76 58.121 L
76 57.514 L
76 56.907 L
76 56.907 L
76 56.907 L
76 56.907 L
76 56.907 L
76 56.603 L
76 56.603 L
76 55.996 L
76 55.693 L
76 55.389 L
76 55.389 L
76 55.086 L
76 54.782 L
76 54.479 L
76 54.479 L
76 54.479 L
76 53.872 L
76 53.568 L
76 53.568 L
76.006 53.568 L
76.011 53.265 L
76.011 52.961 L
76.029 52.961 L
76.029 52.658 L
76.029 52.354 L
76.029 52.354 L
76.029 52.354 L
76.029 52.051 L
76.029 52.051 L
76.029 51.747 L
76.029 51.444 L
76.029 50.837 L
76.029 50.837 L
76.034 50.837 L
76.034 50.837 L
76.04 50.23 L
76.04 50.23 L
76.046 49.623 L
76.052 49.016 L
76.052 48.712 L
76.052 48.409 L
76.052 48.409 L
76.063 48.409 L
76.069 48.409 L
76.069 48.409 L
76.069 48.409 L
76.08 48.105 L
76.092 48.105 L
76.097 47.802 L
76.12 47.802 L
76.138 47.802 L
76.138 47.802 L
76.143 47.802 L
76.16 47.498 L
76.172 47.195 L
76.172 47.195 L
76.195 47.195 L
76.212 46.891 L
76.218 46.588 L
76.223 46.588 L
76.252 46.284 L
76.275 45.981 L
76.292 45.981 L
76.309 45.981 L
76.338 45.981 L
76.344 45.981 L
76.401 45.981 L
76.43 45.981 L
76.441 45.981 L
76.481 45.677 L
76.493 45.677 L
76.556 45.677 L
76.613 45.677 L
76.676 45.374 L
76.722 45.374 L
76.819 45.374 L
76.888 45.07 L
77.003 45.07 L
77.049 45.07 L
77.094 44.767 L
77.14 44.767 L
77.221 44.767 L
77.261 44.767 L
77.341 44.767 L
77.421 44.767 L
77.496 44.767 L
77.582 44.463 L
77.662 44.463 L
77.794 44.16 L
77.902 44.16 L
78.063 43.856 L
78.2 43.856 L
78.286 43.856 L
78.412 43.856 L
78.55 43.553 L
78.785 43.249 L
79.003 42.946 L
79.152 42.946 L
79.375 42.946 L
79.576 42.946 L
79.765 42.946 L
80.017 42.946 L
80.28 42.946 L
80.578 42.946 L
80.83 42.642 L
81.094 42.642 L
81.386 42.642 L
81.69 42.642 L
81.948 42.642 L
82.303 42.339 L
82.67 42.339 L
83.071 42.339 L
83.369 42.035 L
83.822 42.035 L
84.343 42.035 L
84.899 42.035 L
85.243 41.732 L
85.833 41.125 L
86.366 41.125 L
86.824 41.125 L
87.311 40.821 L
88.022 40.518 L
88.709 39.911 L
89.277 39.911 L
90.136 39.911 L
90.944 39.911 L
91.809 39.911 L
92.428 39.911 L
93.385 39.607 L
94.313 39.607 L
95.465 39.607 L
96.302 39.607 L
97.385 39.607 L
98.622 39.607 L
99.82 39.607 L
100.668 39.607 L
101.854 39.607 L
103.161 39.607 L
104.192 39.607 L
105.481 39.607 L
106.977 39.607 L
108.392 39.607 L
109.744 39.607 L
111.452 39.607 L
113.217 39.607 L
115.016 39.607 L
116.403 39.607 L
118.219 39.607 L
120.168 39.607 L
121.892 39.607 L
123.795 39.607 L
125.886 39.303 L
127.915 39.303 L
130.361 39.303 L
132.275 39.303 L
134.372 39.303 L
136.922 39.303 L
139.02 39.303 L
141.621 39.303 L
144.114 39.303 L
146.618 39.303 L
148.938 39.303 L
151.849 39.303 L
154.56 39.303 L
157.459 39.303 L
159.843 39.303 L
162.931 39.303 L
166.123 39.303 L
169.303 39.303 L
172.122 39.303 L
175.692 39.303 L
178.941 39.303 L
182.717 39.303 L
185.794 39.303 L
189.421 39.303 L
193.066 39.303 L
196.011 39.303 L
199.804 39.303 L
203.747 39 L
207.763 39 L
211.087 39 L
215.212 39 L
218.851 39 L
223.114 39 L
226.552 39 L
231.05 39 L
235.531 39 L
239.858 39 L
243.41 39 L
247.53 39 L
252.246 39 L
255.455 39 L
260.073 39 L
264.216 39 L
269.482 39 L
273.115 39 L
277.842 39 L
282.409 39 L
287.085 39 L
290.718 39 L
295.417 39 L
300.172 39 L
305.095 39 L
308.802 39 L
313.409 39 L
317.993 39 L
322.566 39 L
326.399 39 L
330.909 39 L
335.395 39 L
339.458 39 L
344.248 39 L
348.156 39 L
352.568 39 L
355.852 39 L
360.361 39 L
364.579 39 L
368.807 39 L
372.102 39 L
376.589 39 L
380.915 39 L
385.064 39 L
388.135 39 L
391.951 39 L
395.98 39 L
398.988 39 L
402.97 39 L
406.574 39 L
410.196 39 L
413.055 39 L
416.396 39 L
419.685 39 L
423.169 39 L
425.954 39 L
429.128 39 L
432.125 39 L
435.403 39 L
437.46 39 L
439.964 39 L
442.514 39 L
445.625 39 L
447.579 39 L
449.946 39 L
452.753 39 L
454.971 39 L
456.994 39 L
459.159 39 L
461.56 39 L
463.532 39 L
465.176 39 L
467.107 39 L
469.307 39 L
470.717 39 L
472.087 39 L
474.081 39 L
476.441 39 L
477.33 39 L
478.808 39 L
480.544 39 L
482.469 39 L
482.704 39 L
484.395 39 L
486.223 39 L
486.95 39 L
487.707 39 L
489.237 39 L
490.744 39 L
490.744 39 L
492.096 39 L
493.414 39 L
494.285 39 L
494.445 39 L
495.437 39 L
496.256 39 L
496.588 39 L
497.116 39 L
497.895 39 L
498.514 39 L
498.709 39 L
499.356 39 L
499.9 39 L
500.342 39 L
500.628 39 L
501.236 39 L
501.648 39 L
502.003 39 L
502.267 39 L
502.674 39 L
503.023 39 L
503.23 39 L
503.424 39 L
503.814 39 L
504.055 39 L
504.284 39 L
504.444 39 L
504.656 39 L
504.817 39 L
504.96 39 L
505.126 39 L
505.281 39 L
505.367 39 L
505.476 39 L
505.631 39 L
505.682 39 L
505.751 39 L
505.808 39 L
505.906 39 L
505.951 39 L
506.026 39 L
506.106 39 L
506.181 39 L
506.261 39 L
506.335 39 L
506.375 39 L
506.416 39 L
506.456 39 L
506.479 39 L
506.513 39 L
506.559 39 L
506.616 39 L
506.628 39 L
506.65 39 L
506.656 39 L
506.696 39 L
506.708 39 L
506.719 39 L
506.736 39 L
506.754 39 L
506.771 39 L
506.788 39 L
506.811 39 L
506.811 39 L
506.822 39 L
506.84 39 L
506.851 39 L
506.851 39 L
506.862 39 L
506.862 39 L
506.868 39 L
506.868 39 L
506.868 39 L
506.885 39 L
506.908 39 L
506.914 39 L
506.92 39 L
506.92 39 L
506.931 39 L
506.931 39 L
506.931 39 L
506.937 39 L
506.937 39 L
506.937 39 L
506.943 39 L
506.954 39 L
506.954 39 L
506.96 39 L
506.96 39 L
506.977 39 L
506.977 39 L
506.989 39 L
506.994 39 L
506.994 39 L
506.994 39 L
506.994 39 L
506.994 39 L
506.994 39 L
506.994 39 L
506.994 39 L
506.994 39 L
506.994 39 L
506.994 39 L
506.994 39 L
506.994 39 L
506.994 39 L
506.994 39 L
506.994 39 L
506.994 39 L
506.994 39 L
506.994 39 L
507 39 L
S
GR
GS
[12 12] 0 setdash
2 LJ
3 LW
N
76 350.804 M
76 350.804 L
76 350.804 L
76 350.804 L
76 350.804 L
76 350.804 L
76 350.608 L
76 350.608 L
76 350.608 L
76 350.608 L
76 350.608 L
76 350.608 L
76 350.608 L
76 350.608 L
76 350.608 L
76 350.608 L
76 350.608 L
76 350.608 L
76 350.608 L
76 350.608 L
76 350.412 L
76 350.412 L
76 350.412 L
76 350.412 L
76 350.412 L
76 350.412 L
76 350.412 L
76 350.412 L
76 350.412 L
76 350.021 L
76 350.021 L
76 350.021 L
76 350.021 L
76 349.825 L
76 349.825 L
76 349.825 L
76 349.825 L
76 349.825 L
76 349.825 L
76 349.825 L
76 349.825 L
76 349.825 L
76 349.825 L
76 349.825 L
76 349.825 L
76 349.825 L
76 349.825 L
76 349.629 L
76 349.629 L
76 349.629 L
76 349.629 L
76 349.433 L
76 349.433 L
76 349.041 L
76 349.041 L
76 349.041 L
76 349.041 L
76 348.846 L
76 348.846 L
76 348.846 L
76 348.846 L
76 348.846 L
76 348.454 L
76 348.454 L
76 348.258 L
76 348.258 L
76 348.062 L
76 348.062 L
76 348.062 L
76 348.062 L
76 348.062 L
76 347.475 L
76 347.475 L
76 347.475 L
76 347.475 L
76 347.475 L
76 347.475 L
76 347.475 L
76 347.475 L
76 347.475 L
76 347.279 L
76 347.279 L
76 347.279 L
76 347.279 L
76 347.279 L
76 347.279 L
76 347.279 L
76 347.083 L
76 347.083 L
76 346.887 L
76 346.887 L
76 346.887 L
76 346.691 L
76 346.691 L
76 346.691 L
76 346.691 L
76 346.495 L
76 346.299 L
76 346.299 L
76 346.299 L
76 346.104 L
76 346.104 L
76 346.104 L
76 346.104 L
76 345.712 L
76 345.516 L
76 345.516 L
76 345.516 L
76 345.516 L
76 344.928 L
76 344.928 L
76 344.733 L
76 344.733 L
76 344.733 L
76 344.733 L
76 344.537 L
76 344.341 L
76 344.341 L
76 344.145 L
76 344.145 L
76 344.145 L
76 344.145 L
76 343.949 L
76 343.949 L
76 343.753 L
76 343.557 L
76 343.557 L
76 343.557 L
76 343.557 L
76 343.362 L
76 343.362 L
76 343.362 L
76 343.362 L
76 343.362 L
76 343.166 L
76 342.97 L
76 342.774 L
76 342.774 L
76 342.774 L
76 342.774 L
76 342.774 L
76 341.991 L
76 341.795 L
76 341.599 L
76 341.599 L
76 341.599 L
76 341.403 L
76 340.815 L
76 340.815 L
76 340.62 L
76 340.228 L
76 340.228 L
76 340.032 L
76 340.032 L
76 339.836 L
76 339.836 L
76 339.64 L
76 339.64 L
76 339.444 L
76 339.249 L
76 339.249 L
76 338.857 L
76 338.661 L
76 338.465 L
76 338.465 L
76 338.073 L
76 338.073 L
76 337.878 L
76 337.878 L
76 337.682 L
76 337.486 L
76 337.29 L
76 336.898 L
76 336.898 L
76 336.311 L
76 336.311 L
76 336.311 L
76 336.115 L
76 336.115 L
76 335.723 L
76 335.723 L
76 335.723 L
76 335.527 L
76 335.331 L
76 334.744 L
76 334.744 L
76 334.744 L
76 334.352 L
76 334.352 L
76 334.156 L
76 333.765 L
76 333.765 L
76 333.569 L
76 333.373 L
76 332.981 L
76 332.981 L
76 332.785 L
76 332.589 L
76 332.589 L
76 332.394 L
76 332.198 L
76 332.198 L
76 332.198 L
76 331.806 L
76 331.61 L
76 331.414 L
76 331.218 L
76 331.218 L
76 330.631 L
76 330.435 L
76 330.239 L
76 330.043 L
76 329.652 L
76 329.456 L
76 329.456 L
76 329.456 L
76 329.26 L
76 329.26 L
76 329.064 L
76 329.064 L
76 329.064 L
76 328.281 L
76 328.281 L
76 328.281 L
76 328.281 L
76 327.889 L
76 327.497 L
76 327.497 L
76 326.518 L
76 326.518 L
76 326.322 L
76 326.322 L
76 325.93 L
76 325.93 L
76 325.93 L
76 325.539 L
76 325.539 L
76 325.147 L
76 324.755 L
76 324.559 L
76 324.559 L
76 324.363 L
76 323.972 L
76 323.972 L
76 323.776 L
76 323.776 L
76 323.384 L
76 322.992 L
76 322.797 L
76 322.601 L
76 322.209 L
76 322.209 L
76 322.209 L
76 321.817 L
76 321.817 L
76 321.426 L
76 321.426 L
76 320.642 L
76 320.25 L
76 319.859 L
76 319.859 L
76 319.271 L
76 319.075 L
76 319.075 L
76 318.292 L
76 318.096 L
76 317.704 L
76 317.704 L
76 317.313 L
76 317.117 L
76 316.921 L
76 316.725 L
76 316.529 L
76 316.529 L
76 316.529 L
76 316.333 L
76 316.137 L
76 315.55 L
76 315.158 L
76 314.179 L
76 313.983 L
76 313.983 L
76 313.983 L
76 313.787 L
76 313.2 L
76 313.004 L
76 312.612 L
76 312.22 L
76 311.829 L
76 311.829 L
76 311.633 L
76 310.653 L
76 310.653 L
76 309.282 L
76 308.891 L
76 308.499 L
76 307.716 L
76 307.52 L
76 307.128 L
76 306.932 L
76 306.54 L
76 306.54 L
76 305.757 L
76 305.561 L
76 304.582 L
76 304.582 L
76 304.19 L
76 304.19 L
76 303.994 L
76 303.798 L
76 303.798 L
76 303.015 L
76 302.819 L
76 302.623 L
76 302.427 L
76 302.427 L
76 301.84 L
76 301.84 L
76 301.644 L
76 301.644 L
76 301.644 L
76 301.252 L
76 300.665 L
76 300.273 L
76 299.881 L
76 299.49 L
76 298.315 L
76 298.119 L
76 298.119 L
76 297.335 L
76 296.944 L
76 295.964 L
76 295.768 L
76 295.377 L
76 295.377 L
76 294.593 L
76 294.397 L
76 294.202 L
76 293.614 L
76 293.418 L
76 293.026 L
76 292.243 L
76 291.851 L
76 291.264 L
76 290.676 L
76 290.676 L
76 290.089 L
76 289.305 L
76 288.913 L
76 288.522 L
76 288.13 L
76 286.563 L
76 285.976 L
76 285.78 L
76 285.192 L
76 285.192 L
76 284.996 L
76 284.8 L
76 283.429 L
76 283.429 L
76 282.646 L
76 282.45 L
76 281.471 L
76 281.079 L
76 281.079 L
76 280.492 L
76 279.708 L
76 278.925 L
76 277.945 L
76 277.554 L
76 277.162 L
76 276.77 L
76 276.379 L
76 275.399 L
76 275.203 L
76 275.008 L
76 274.028 L
76 273.637 L
76 272.461 L
76 272.07 L
76 271.482 L
76 271.09 L
76 270.895 L
76 270.503 L
76 269.915 L
76 268.74 L
76 268.544 L
76 267.957 L
76 267.369 L
76 265.998 L
76.004 265.606 L
76.004 264.627 L
76.004 264.04 L
76.004 263.648 L
76.004 262.864 L
76.004 262.473 L
76.004 261.885 L
76.004 261.493 L
76.008 260.514 L
76.008 260.318 L
76.008 259.731 L
76.008 259.731 L
76.008 259.731 L
76.008 258.36 L
76.008 257.38 L
76.012 257.185 L
76.012 256.793 L
76.012 256.205 L
76.012 256.009 L
76.012 255.422 L
76.012 255.422 L
76.016 255.03 L
76.02 254.247 L
76.02 253.855 L
76.02 252.876 L
76.02 252.484 L
76.02 252.092 L
76.02 252.092 L
76.024 251.113 L
76.024 250.917 L
76.024 249.742 L
76.024 249.154 L
76.024 249.154 L
76.024 248.763 L
76.028 248.371 L
76.032 247.392 L
76.032 246.804 L
76.036 244.65 L
76.04 244.65 L
76.04 243.67 L
76.04 243.279 L
76.04 243.083 L
76.04 241.908 L
76.04 241.516 L
76.044 240.537 L
76.044 239.949 L
76.048 238.382 L
76.052 237.991 L
76.056 237.795 L
76.059 237.011 L
76.059 236.62 L
76.063 236.228 L
76.067 235.836 L
76.067 234.465 L
76.071 234.269 L
76.075 232.898 L
76.075 232.898 L
76.079 232.507 L
76.079 232.507 L
76.079 231.919 L
76.083 231.331 L
76.087 230.94 L
76.087 229.765 L
76.091 229.569 L
76.095 228.981 L
76.095 228.198 L
76.111 227.218 L
76.111 227.218 L
76.111 227.023 L
76.123 226.239 L
76.127 225.847 L
76.139 225.064 L
76.139 224.476 L
76.159 224.085 L
76.163 223.889 L
76.182 222.518 L
76.186 221.93 L
76.186 221.734 L
76.202 220.951 L
76.21 220.559 L
76.226 219.188 L
76.242 218.992 L
76.282 218.405 L
76.286 218.209 L
76.293 217.621 L
76.301 216.838 L
76.337 215.663 L
76.345 215.467 L
76.353 215.271 L
76.377 213.313 L
76.393 212.725 L
76.444 211.746 L
76.444 211.746 L
76.452 211.158 L
76.48 211.158 L
76.516 209.787 L
76.531 209.395 L
76.539 208.612 L
76.583 207.241 L
76.595 207.045 L
76.662 205.87 L
76.678 205.282 L
76.73 204.499 L
76.746 204.499 L
76.793 203.716 L
76.805 203.716 L
76.833 203.52 L
76.884 202.345 L
76.912 201.561 L
76.992 200.386 L
77.003 199.994 L
77.079 199.015 L
77.091 198.427 L
77.162 197.84 L
77.23 197.252 L
77.273 196.665 L
77.368 195.686 L
77.4 195.098 L
77.475 193.727 L
77.511 192.356 L
77.602 191.573 L
77.634 190.397 L
77.761 188.635 L
77.789 188.243 L
77.84 188.047 L
77.983 187.264 L
78.007 187.068 L
78.122 185.893 L
78.173 184.718 L
78.332 183.934 L
78.404 183.542 L
78.538 182.563 L
78.578 181.976 L
78.697 181.192 L
78.875 178.45 L
78.963 177.667 L
79.153 175.316 L
79.26 175.316 L
79.462 173.945 L
79.514 173.75 L
79.74 172.966 L
79.863 172.379 L
80.069 171.399 L
80.141 171.399 L
80.236 169.832 L
80.47 168.853 L
80.561 168.07 L
80.807 166.111 L
80.978 165.719 L
81.243 163.369 L
81.37 162.782 L
81.644 161.802 L
81.755 161.802 L
81.87 161.802 L
82.163 160.235 L
82.358 159.452 L
82.703 157.885 L
82.814 157.102 L
83.115 155.339 L
83.254 154.947 L
83.575 153.772 L
83.742 153.185 L
83.928 152.401 L
84.321 151.618 L
84.559 151.03 L
84.971 148.484 L
85.154 148.484 L
85.582 147.309 L
85.836 146.721 L
86.368 145.35 L
86.653 145.154 L
86.84 144.371 L
87.339 143 L
87.553 142.021 L
88.109 140.062 L
88.418 139.279 L
89.013 138.104 L
89.33 137.908 L
89.949 134.578 L
90.231 134.186 L
90.492 133.795 L
91.183 132.032 L
91.52 131.249 L
92.222 129.486 L
92.571 129.29 L
93.408 127.331 L
93.784 126.548 L
94.601 124.785 L
95.046 123.806 L
96.029 122.043 L
96.45 121.456 L
96.822 121.064 L
97.838 119.497 L
98.218 118.322 L
99.158 116.559 L
99.706 115.972 L
100.689 114.405 L
101.316 114.209 L
102.415 112.838 L
102.859 112.446 L
103.41 112.055 L
104.612 110.488 L
105.1 110.096 L
106.425 109.117 L
106.877 108.921 L
108.114 107.55 L
108.808 107.354 L
110.065 105.983 L
110.767 105.004 L
111.323 104.612 L
112.691 103.045 L
113.326 102.262 L
114.73 101.282 L
115.4 100.499 L
117.022 98.736 L
117.609 98.54 L
119.092 97.953 L
120.025 97.757 L
120.707 96.974 L
122.376 95.603 L
123.213 95.015 L
124.978 94.232 L
125.883 94.036 L
127.624 92.273 L
128.603 91.881 L
130.226 90.314 L
131.173 89.531 L
132.046 88.748 L
133.898 87.181 L
134.89 87.181 L
136.786 86.593 L
137.967 86.006 L
139.855 85.222 L
140.942 84.831 L
143.12 84.047 L
144.119 84.047 L
145.273 84.047 L
147.336 83.068 L
148.573 82.48 L
150.865 80.913 L
152.147 80.522 L
154.197 80.13 L
155.506 79.542 L
157.965 78.367 L
159.012 78.171 L
161.796 77.78 L
162.847 77.388 L
164.303 77.388 L
166.928 76.409 L
168.547 76.017 L
171.022 75.429 L
172.572 74.646 L
174.976 73.275 L
176.396 72.492 L
179.236 71.904 L
180.762 71.512 L
182.194 71.512 L
184.971 71.121 L
186.438 70.337 L
189.242 69.162 L
190.61 68.77 L
193.629 68.183 L
195.235 67.791 L
198.38 67.203 L
199.764 66.812 L
201.514 66.616 L
204.663 66.028 L
206.32 65.832 L
209.295 64.461 L
210.818 64.461 L
214.209 63.678 L
215.819 63.286 L
218.953 62.503 L
220.646 62.111 L
222.185 62.111 L
225.882 61.524 L
227.488 61.524 L
230.55 60.74 L
232.66 60.153 L
235.813 59.957 L
237.863 59.957 L
241.025 59.369 L
242.746 59.173 L
244.475 58.782 L
247.874 58.39 L
249.663 57.998 L
253.339 57.411 L
255.251 57.215 L
258.626 56.627 L
260.463 56.04 L
263.913 55.844 L
265.571 55.648 L
267.491 55.648 L
271.048 55.06 L
273.174 54.864 L
276.621 54.081 L
278.751 53.885 L
282.185 53.885 L
283.994 53.885 L
287.651 53.298 L
289.618 53.298 L
293.358 52.906 L
294.917 52.71 L
297.122 52.318 L
300.652 51.927 L
302.647 51.535 L
306.149 51.339 L
308.14 51.339 L
311.531 51.143 L
313.645 50.751 L
317.191 50.36 L
319.075 50.36 L
321.209 50.36 L
324.445 50.36 L
326.714 49.968 L
329.764 49.38 L
331.818 49.38 L
335.209 48.989 L
336.974 48.989 L
340.643 48.793 L
342.317 48.597 L
344.561 48.597 L
347.651 48.401 L
350.015 48.401 L
353.097 47.618 L
355.345 47.618 L
358.574 47.03 L
360.501 47.03 L
363.857 46.638 L
365.515 46.638 L
367.446 46.638 L
370.282 46.638 L
372.801 46.638 L
375.502 46.247 L
377.417 46.051 L
380.511 45.267 L
382.141 45.267 L
385.167 45.267 L
386.48 45.267 L
388.451 45.267 L
390.894 45.267 L
393.218 44.876 L
395.693 44.484 L
397.665 44.484 L
400.254 44.484 L
401.785 44.484 L
404.867 44.092 L
406.045 44.092 L
409.357 43.505 L
410.233 43.505 L
412.24 43.505 L
414.414 43.309 L
416.167 43.113 L
418.665 43.113 L
419.796 43.113 L
422.584 42.721 L
423.536 42.721 L
426.661 42.525 L
427.296 42.525 L
429.358 42.33 L
431.012 42.134 L
432.464 42.134 L
434.637 41.938 L
435.664 41.938 L
438.278 41.742 L
438.913 41.742 L
441.78 41.35 L
442.264 41.35 L
444.275 41.35 L
445.528 41.35 L
446.706 41.35 L
448.82 41.35 L
449.415 41.35 L
451.862 40.959 L
452.116 40.959 L
454.992 40.567 L
455.13 40.567 L
456.721 40.567 L
458.01 40.567 L
458.633 40.567 L
460.901 40.371 L
461.099 40.371 L
463.832 40.371 L
463.888 40.371 L
466.66 40.371 L
466.66 40.371 L
467.691 40.371 L
469.183 40.175 L
469.183 40.175 L
471.582 40.175 L
471.582 40.175 L
473.593 40.175 L
473.625 40.175 L
475.37 40.175 L
475.87 40.175 L
475.889 40.175 L
477.948 40.175 L
477.999 40.175 L
479.721 40.175 L
479.867 40.175 L
481.311 40.175 L
481.565 40.175 L
482.636 39.979 L
483.294 39.979 L
483.953 39.979 L
484.853 39.979 L
485.004 39.979 L
486.102 39.979 L
486.368 39.979 L
487.399 39.979 L
487.839 39.979 L
488.617 39.588 L
489.196 39.588 L
489.628 39.588 L
490.211 39.588 L
490.394 39.588 L
491.246 39.392 L
491.445 39.392 L
492.262 39.392 L
492.516 39.392 L
493.142 39.196 L
493.563 39.196 L
494.015 39.196 L
494.467 39.196 L
494.637 39.196 L
495.304 39 L
495.518 39 L
496.16 39 L
496.446 39 L
496.866 39 L
497.172 39 L
497.557 39 L
497.866 39 L
497.997 39 L
498.532 39 L
498.723 39 L
499.163 39 L
499.333 39 L
499.623 39 L
499.805 39 L
500.059 39 L
500.285 39 L
500.384 39 L
500.833 39 L
500.928 39 L
501.245 39 L
501.424 39 L
501.697 39 L
501.828 39 L
502.09 39 L
502.229 39 L
502.34 39 L
502.605 39 L
502.724 39 L
502.919 39 L
503.022 39 L
503.161 39 L
503.284 39 L
503.506 39 L
503.617 39 L
503.783 39 L
503.855 39 L
503.926 39 L
504.093 39 L
504.152 39 L
504.283 39 L
504.39 39 L
504.509 39 L
504.596 39 L
504.723 39 L
504.767 39 L
504.811 39 L
504.918 39 L
504.969 39 L
505.076 39 L
505.14 39 L
505.195 39 L
505.247 39 L
505.37 39 L
505.417 39 L
505.433 39 L
505.544 39 L
505.596 39 L
505.691 39 L
505.731 39 L
505.782 39 L
505.818 39 L
505.885 39 L
505.921 39 L
505.949 39 L
505.981 39 L
506.008 39 L
506.06 39 L
506.084 39 L
506.143 39 L
506.175 39 L
506.215 39 L
506.223 39 L
506.238 39 L
506.262 39 L
506.27 39 L
506.306 39 L
506.314 39 L
506.346 39 L
506.357 39 L
506.385 39 L
506.409 39 L
506.425 39 L
506.433 39 L
506.461 39 L
506.496 39 L
506.508 39 L
506.524 39 L
506.532 39 L
506.568 39 L
506.576 39 L
506.607 39 L
506.607 39 L
506.619 39 L
506.643 39 L
506.671 39 L
506.703 39 L
506.706 39 L
506.71 39 L
506.71 39 L
506.73 39 L
506.738 39 L
506.738 39 L
506.758 39 L
506.762 39 L
506.794 39 L
506.794 39 L
506.798 39 L
506.798 39 L
506.802 39 L
506.806 39 L
506.814 39 L
506.826 39 L
506.826 39 L
506.833 39 L
506.837 39 L
506.849 39 L
506.849 39 L
506.853 39 L
506.861 39 L
506.861 39 L
506.869 39 L
506.873 39 L
506.881 39 L
506.881 39 L
506.885 39 L
506.885 39 L
506.893 39 L
506.893 39 L
506.893 39 L
506.901 39 L
506.905 39 L
506.909 39 L
506.909 39 L
506.917 39 L
506.917 39 L
506.921 39 L
506.925 39 L
506.937 39 L
506.937 39 L
506.937 39 L
506.94 39 L
506.94 39 L
506.944 39 L
506.944 39 L
506.944 39 L
506.952 39 L
506.956 39 L
506.956 39 L
506.956 39 L
506.972 39 L
506.972 39 L
506.976 39 L
506.976 39 L
506.976 39 L
506.976 39 L
506.976 39 L
506.976 39 L
506.976 39 L
506.976 39 L
506.976 39 L
506.98 39 L
506.98 39 L
506.98 39 L
506.98 39 L
506.98 39 L
506.98 39 L
506.98 39 L
506.98 39 L
506.98 39 L
506.98 39 L
506.98 39 L
506.98 39 L
506.984 39 L
506.984 39 L
506.984 39 L
506.984 39 L
506.984 39 L
506.984 39 L
506.988 39 L
506.988 39 L
506.988 39 L
506.992 39 L
506.996 39 L
506.996 39 L
507 39 L
S
GR
GS
[1 0 0 1 338.91 216.84] CT
/Helvetica 24 F
GS
[1 0 0 1 0 0] CT
0 8.5 moveto 
1 -1 scale
(EER line) t 
GR
GR
GS
[10 6] 0 setdash
2 LJ
0.5 LW
N
507 351 M
76 39 L
S
GR
GS
1 GC
N
497 341 M
497 249 L
132 249 L
132 341 L
cp
f
GR
GS
[1 0 0 1 169 265.5] CT
/Helvetica 24 F
GS
[1 0 0 1 0 0] CT
0 8.5 moveto 
1 -1 scale
(NIR images, EER = 0.02) t 
GR
GR
GS
0 0 1 RC
1 LJ
3 LW
N
136 265.5 M
166 265.5 L
S
GR
GS
[1 0 0 1 169 295] CT
/Helvetica 24 F
GS
[1 0 0 1 0 0] CT
0 8.5 moveto 
1 -1 scale
(R images, EER = 0.01) t 
GR
GR
GS
1 0 0 RC
1 LJ
3 LW
N
136 295 M
166 295 L
S
GR
GS
[1 0 0 1 169 324.5] CT
/Helvetica 24 F
GS
[1 0 0 1 0 0] CT
0 8.5 moveto 
1 -1 scale
(cross-wavelength, EER = 0.15) t 
GR
GR
GS
[12 12] 0 setdash
2 LJ
3 LW
N
136 324.5 M
166 324.5 L
S
GR
GS
0.149 GC
10.0 ML
0.5 LW
N
132 341 M
132 249 L
497 249 L
497 341 L
cp
S
GR
%%Trailer
%%Pages: 1
%%EOF
