%!PS-Adobe-3.0 EPSF-3.0
%%Creator: (MATLAB, The Mathworks, Inc. Version 9.3.0.713579 \(R2017b\). Operating System: Mac OS X)
%%Title: ./shortTerm_MIRLIN.eps
%%CreationDate: 2018-02-10T12:21:08
%%Pages: (atend)
%%BoundingBox:     7     5   509   413
%%LanguageLevel: 3
%%EndComments
%%BeginProlog
%%BeginResource: procset (Apache XML Graphics Std ProcSet) 1.2 0
%%Version: 1.2 0
%%Copyright: (Copyright 2001-2003,2010 The Apache Software Foundation. License terms: http://www.apache.org/licenses/LICENSE-2.0)
/bd{bind def}bind def
/ld{load def}bd
/GR/grestore ld
/GS/gsave ld
/RM/rmoveto ld
/C/curveto ld
/t/show ld
/L/lineto ld
/ML/setmiterlimit ld
/CT/concat ld
/f/fill ld
/N/newpath ld
/S/stroke ld
/CC/setcmykcolor ld
/A/ashow ld
/cp/closepath ld
/RC/setrgbcolor ld
/LJ/setlinejoin ld
/GC/setgray ld
/LW/setlinewidth ld
/M/moveto ld
/re {4 2 roll M
1 index 0 rlineto
0 exch rlineto
neg 0 rlineto
cp } bd
/_ctm matrix def
/_tm matrix def
/BT { _ctm currentmatrix pop matrix _tm copy pop 0 0 moveto } bd
/ET { _ctm setmatrix } bd
/iTm { _ctm setmatrix _tm concat } bd
/Tm { _tm astore pop iTm 0 0 moveto } bd
/ux 0.0 def
/uy 0.0 def
/F {
  /Tp exch def
  /Tf exch def
  Tf findfont Tp scalefont setfont
  /cf Tf def  /cs Tp def
} bd
/ULS {currentpoint /uy exch def /ux exch def} bd
/ULE {
  /Tcx currentpoint pop def
  gsave
  newpath
  cf findfont cs scalefont dup
  /FontMatrix get 0 get /Ts exch def /FontInfo get dup
  /UnderlinePosition get Ts mul /To exch def
  /UnderlineThickness get Ts mul /Tt exch def
  ux uy To add moveto  Tcx uy To add lineto
  Tt setlinewidth stroke
  grestore
} bd
/OLE {
  /Tcx currentpoint pop def
  gsave
  newpath
  cf findfont cs scalefont dup
  /FontMatrix get 0 get /Ts exch def /FontInfo get dup
  /UnderlinePosition get Ts mul /To exch def
  /UnderlineThickness get Ts mul /Tt exch def
  ux uy To add cs add moveto Tcx uy To add cs add lineto
  Tt setlinewidth stroke
  grestore
} bd
/SOE {
  /Tcx currentpoint pop def
  gsave
  newpath
  cf findfont cs scalefont dup
  /FontMatrix get 0 get /Ts exch def /FontInfo get dup
  /UnderlinePosition get Ts mul /To exch def
  /UnderlineThickness get Ts mul /Tt exch def
  ux uy To add cs 10 mul 26 idiv add moveto Tcx uy To add cs 10 mul 26 idiv add lineto
  Tt setlinewidth stroke
  grestore
} bd
/QT {
/Y22 exch store
/X22 exch store
/Y21 exch store
/X21 exch store
currentpoint
/Y21 load 2 mul add 3 div exch
/X21 load 2 mul add 3 div exch
/X21 load 2 mul /X22 load add 3 div
/Y21 load 2 mul /Y22 load add 3 div
/X22 load /Y22 load curveto
} bd
/SSPD {
dup length /d exch dict def
{
/v exch def
/k exch def
currentpagedevice k known {
/cpdv currentpagedevice k get def
v cpdv ne {
/upd false def
/nullv v type /nulltype eq def
/nullcpdv cpdv type /nulltype eq def
nullv nullcpdv or
{
/upd true def
} {
/sametype v type cpdv type eq def
sametype {
v type /arraytype eq {
/vlen v length def
/cpdvlen cpdv length def
vlen cpdvlen eq {
0 1 vlen 1 sub {
/i exch def
/obj v i get def
/cpdobj cpdv i get def
obj cpdobj ne {
/upd true def
exit
} if
} for
} {
/upd true def
} ifelse
} {
v type /dicttype eq {
v {
/dv exch def
/dk exch def
/cpddv cpdv dk get def
dv cpddv ne {
/upd true def
exit
} if
} forall
} {
/upd true def
} ifelse
} ifelse
} if
} ifelse
upd true eq {
d k v put
} if
} if
} if
} forall
d length 0 gt {
d setpagedevice
} if
} bd
/RE { % /NewFontName [NewEncodingArray] /FontName RE -
  findfont dup length dict begin
  {
    1 index /FID ne
    {def} {pop pop} ifelse
  } forall
  /Encoding exch def
  /FontName 1 index def
  currentdict definefont pop
  end
} bind def
%%EndResource
%%BeginResource: procset (Apache XML Graphics EPS ProcSet) 1.0 0
%%Version: 1.0 0
%%Copyright: (Copyright 2002-2003 The Apache Software Foundation. License terms: http://www.apache.org/licenses/LICENSE-2.0)
/BeginEPSF { %def
/b4_Inc_state save def         % Save state for cleanup
/dict_count countdictstack def % Count objects on dict stack
/op_count count 1 sub def      % Count objects on operand stack
userdict begin                 % Push userdict on dict stack
/showpage { } def              % Redefine showpage, { } = null proc
0 setgray 0 setlinecap         % Prepare graphics state
1 setlinewidth 0 setlinejoin
10 setmiterlimit [ ] 0 setdash newpath
/languagelevel where           % If level not equal to 1 then
{pop languagelevel             % set strokeadjust and
1 ne                           % overprint to their defaults.
{false setstrokeadjust false setoverprint
} if
} if
} bd
/EndEPSF { %def
count op_count sub {pop} repeat            % Clean up stacks
countdictstack dict_count sub {end} repeat
b4_Inc_state restore
} bd
%%EndResource
%FOPBeginFontDict
%%IncludeResource: font Courier-Oblique
%%IncludeResource: font Courier-BoldOblique
%%IncludeResource: font Courier-Bold
%%IncludeResource: font ZapfDingbats
%%IncludeResource: font Symbol
%%IncludeResource: font Helvetica
%%IncludeResource: font Helvetica-Oblique
%%IncludeResource: font Helvetica-Bold
%%IncludeResource: font Helvetica-BoldOblique
%%IncludeResource: font Times-Roman
%%IncludeResource: font Times-Italic
%%IncludeResource: font Times-Bold
%%IncludeResource: font Times-BoldItalic
%%IncludeResource: font Courier
%FOPEndFontDict
%%BeginResource: encoding WinAnsiEncoding
/WinAnsiEncoding [
/.notdef /.notdef /.notdef /.notdef /.notdef
/.notdef /.notdef /.notdef /.notdef /.notdef
/.notdef /.notdef /.notdef /.notdef /.notdef
/.notdef /.notdef /.notdef /.notdef /.notdef
/.notdef /.notdef /.notdef /.notdef /.notdef
/.notdef /.notdef /.notdef /.notdef /.notdef
/.notdef /.notdef /space /exclam /quotedbl
/numbersign /dollar /percent /ampersand /quotesingle
/parenleft /parenright /asterisk /plus /comma
/hyphen /period /slash /zero /one
/two /three /four /five /six
/seven /eight /nine /colon /semicolon
/less /equal /greater /question /at
/A /B /C /D /E
/F /G /H /I /J
/K /L /M /N /O
/P /Q /R /S /T
/U /V /W /X /Y
/Z /bracketleft /backslash /bracketright /asciicircum
/underscore /quoteleft /a /b /c
/d /e /f /g /h
/i /j /k /l /m
/n /o /p /q /r
/s /t /u /v /w
/x /y /z /braceleft /bar
/braceright /asciitilde /bullet /Euro /bullet
/quotesinglbase /florin /quotedblbase /ellipsis /dagger
/daggerdbl /circumflex /perthousand /Scaron /guilsinglleft
/OE /bullet /Zcaron /bullet /bullet
/quoteleft /quoteright /quotedblleft /quotedblright /bullet
/endash /emdash /asciitilde /trademark /scaron
/guilsinglright /oe /bullet /zcaron /Ydieresis
/space /exclamdown /cent /sterling /currency
/yen /brokenbar /section /dieresis /copyright
/ordfeminine /guillemotleft /logicalnot /sfthyphen /registered
/macron /degree /plusminus /twosuperior /threesuperior
/acute /mu /paragraph /middot /cedilla
/onesuperior /ordmasculine /guillemotright /onequarter /onehalf
/threequarters /questiondown /Agrave /Aacute /Acircumflex
/Atilde /Adieresis /Aring /AE /Ccedilla
/Egrave /Eacute /Ecircumflex /Edieresis /Igrave
/Iacute /Icircumflex /Idieresis /Eth /Ntilde
/Ograve /Oacute /Ocircumflex /Otilde /Odieresis
/multiply /Oslash /Ugrave /Uacute /Ucircumflex
/Udieresis /Yacute /Thorn /germandbls /agrave
/aacute /acircumflex /atilde /adieresis /aring
/ae /ccedilla /egrave /eacute /ecircumflex
/edieresis /igrave /iacute /icircumflex /idieresis
/eth /ntilde /ograve /oacute /ocircumflex
/otilde /odieresis /divide /oslash /ugrave
/uacute /ucircumflex /udieresis /yacute /thorn
/ydieresis
] def
%%EndResource
%FOPBeginFontReencode
/Courier-Oblique findfont
dup length dict begin
  {1 index /FID ne {def} {pop pop} ifelse} forall
  /Encoding WinAnsiEncoding def
  currentdict
end
/Courier-Oblique exch definefont pop
/Courier-BoldOblique findfont
dup length dict begin
  {1 index /FID ne {def} {pop pop} ifelse} forall
  /Encoding WinAnsiEncoding def
  currentdict
end
/Courier-BoldOblique exch definefont pop
/Courier-Bold findfont
dup length dict begin
  {1 index /FID ne {def} {pop pop} ifelse} forall
  /Encoding WinAnsiEncoding def
  currentdict
end
/Courier-Bold exch definefont pop
/Helvetica findfont
dup length dict begin
  {1 index /FID ne {def} {pop pop} ifelse} forall
  /Encoding WinAnsiEncoding def
  currentdict
end
/Helvetica exch definefont pop
/Helvetica-Oblique findfont
dup length dict begin
  {1 index /FID ne {def} {pop pop} ifelse} forall
  /Encoding WinAnsiEncoding def
  currentdict
end
/Helvetica-Oblique exch definefont pop
/Helvetica-Bold findfont
dup length dict begin
  {1 index /FID ne {def} {pop pop} ifelse} forall
  /Encoding WinAnsiEncoding def
  currentdict
end
/Helvetica-Bold exch definefont pop
/Helvetica-BoldOblique findfont
dup length dict begin
  {1 index /FID ne {def} {pop pop} ifelse} forall
  /Encoding WinAnsiEncoding def
  currentdict
end
/Helvetica-BoldOblique exch definefont pop
/Times-Roman findfont
dup length dict begin
  {1 index /FID ne {def} {pop pop} ifelse} forall
  /Encoding WinAnsiEncoding def
  currentdict
end
/Times-Roman exch definefont pop
/Times-Italic findfont
dup length dict begin
  {1 index /FID ne {def} {pop pop} ifelse} forall
  /Encoding WinAnsiEncoding def
  currentdict
end
/Times-Italic exch definefont pop
/Times-Bold findfont
dup length dict begin
  {1 index /FID ne {def} {pop pop} ifelse} forall
  /Encoding WinAnsiEncoding def
  currentdict
end
/Times-Bold exch definefont pop
/Times-BoldItalic findfont
dup length dict begin
  {1 index /FID ne {def} {pop pop} ifelse} forall
  /Encoding WinAnsiEncoding def
  currentdict
end
/Times-BoldItalic exch definefont pop
/Courier findfont
dup length dict begin
  {1 index /FID ne {def} {pop pop} ifelse} forall
  /Encoding WinAnsiEncoding def
  currentdict
end
/Courier exch definefont pop
%FOPEndFontReencode
%%EndProlog
%%Page: 1 1
%%PageBoundingBox: 0 0 560 420
%%BeginPageSetup
[1 0 0 -1 0 420] CT
%%EndPageSetup
GS
1 GC
N
0 0 560 420 re
f
GR
GS
1 GC
N
0 0 560 420 re
f
GR
GS
1 GC
N
76 351 M
507 351 L
507 39 L
76 39 L
cp
f
GR
GS
0.873 GC
1 LJ
0.5 LW
N
76 351 M
76 39 L
S
GR
GS
0.873 GC
1 LJ
0.5 LW
N
162.2 351 M
162.2 39 L
S
GR
GS
0.873 GC
1 LJ
0.5 LW
N
248.4 351 M
248.4 39 L
S
GR
GS
0.873 GC
1 LJ
0.5 LW
N
334.6 351 M
334.6 39 L
S
GR
GS
0.873 GC
1 LJ
0.5 LW
N
420.8 351 M
420.8 39 L
S
GR
GS
0.873 GC
1 LJ
0.5 LW
N
507 351 M
507 39 L
S
GR
GS
0.873 GC
1 LJ
0.5 LW
N
507 351 M
76 351 L
S
GR
GS
0.873 GC
1 LJ
0.5 LW
N
507 288.6 M
76 288.6 L
S
GR
GS
0.873 GC
1 LJ
0.5 LW
N
507 226.2 M
76 226.2 L
S
GR
GS
0.873 GC
1 LJ
0.5 LW
N
507 163.8 M
76 163.8 L
S
GR
GS
0.873 GC
1 LJ
0.5 LW
N
507 101.4 M
76 101.4 L
S
GR
GS
0.873 GC
1 LJ
0.5 LW
N
507 39 M
76 39 L
S
GR
GS
0.149 GC
2 setlinecap
1 LJ
0.5 LW
N
76 351 M
507 351 L
S
GR
GS
0.149 GC
2 setlinecap
1 LJ
0.5 LW
N
76 39 M
507 39 L
S
GR
GS
0.149 GC
2 setlinecap
1 LJ
0.5 LW
N
76 351 M
76 346.69 L
S
GR
GS
0.149 GC
2 setlinecap
1 LJ
0.5 LW
N
162.2 351 M
162.2 346.69 L
S
GR
GS
0.149 GC
2 setlinecap
1 LJ
0.5 LW
N
248.4 351 M
248.4 346.69 L
S
GR
GS
0.149 GC
2 setlinecap
1 LJ
0.5 LW
N
334.6 351 M
334.6 346.69 L
S
GR
GS
0.149 GC
2 setlinecap
1 LJ
0.5 LW
N
420.8 351 M
420.8 346.69 L
S
GR
GS
0.149 GC
2 setlinecap
1 LJ
0.5 LW
N
507 351 M
507 346.69 L
S
GR
GS
0.149 GC
2 setlinecap
1 LJ
0.5 LW
N
76 39 M
76 43.31 L
S
GR
GS
0.149 GC
2 setlinecap
1 LJ
0.5 LW
N
162.2 39 M
162.2 43.31 L
S
GR
GS
0.149 GC
2 setlinecap
1 LJ
0.5 LW
N
248.4 39 M
248.4 43.31 L
S
GR
GS
0.149 GC
2 setlinecap
1 LJ
0.5 LW
N
334.6 39 M
334.6 43.31 L
S
GR
GS
0.149 GC
2 setlinecap
1 LJ
0.5 LW
N
420.8 39 M
420.8 43.31 L
S
GR
GS
0.149 GC
2 setlinecap
1 LJ
0.5 LW
N
507 39 M
507 43.31 L
S
GR
GS
[1 0 0 1 76 357.79999] CT
0.149 GC
/Helvetica 24 F
GS
[1 0 0 1 0 0] CT
-7 23 moveto 
1 -1 scale
(0) t 
GR
GR
GS
[1 0 0 1 162.2 357.79999] CT
0.149 GC
/Helvetica 24 F
GS
[1 0 0 1 0 0] CT
-17 23 moveto 
1 -1 scale
(0.2) t 
GR
GR
GS
[1 0 0 1 248.40001 357.79999] CT
0.149 GC
/Helvetica 24 F
GS
[1 0 0 1 0 0] CT
-17 23 moveto 
1 -1 scale
(0.4) t 
GR
GR
GS
[1 0 0 1 334.60001 357.79999] CT
0.149 GC
/Helvetica 24 F
GS
[1 0 0 1 0 0] CT
-17 23 moveto 
1 -1 scale
(0.6) t 
GR
GR
GS
[1 0 0 1 420.80002 357.79999] CT
0.149 GC
/Helvetica 24 F
GS
[1 0 0 1 0 0] CT
-17 23 moveto 
1 -1 scale
(0.8) t 
GR
GR
GS
[1 0 0 1 507 357.79999] CT
0.149 GC
/Helvetica 24 F
GS
[1 0 0 1 0 0] CT
-7 23 moveto 
1 -1 scale
(1) t 
GR
GR
GS
[1 0 0 1 291.50021 387.79999] CT
0.149 GC
/Helvetica 26.4 F
GS
[1 0 0 1 0 0] CT
-112.5 26 moveto 
1 -1 scale
(False Positive Rate) t 
GR
GR
GS
0.149 GC
2 setlinecap
1 LJ
0.5 LW
N
76 351 M
76 39 L
S
GR
GS
0.149 GC
2 setlinecap
1 LJ
0.5 LW
N
507 351 M
507 39 L
S
GR
GS
0.149 GC
2 setlinecap
1 LJ
0.5 LW
N
76 351 M
80.31 351 L
S
GR
GS
0.149 GC
2 setlinecap
1 LJ
0.5 LW
N
76 288.6 M
80.31 288.6 L
S
GR
GS
0.149 GC
2 setlinecap
1 LJ
0.5 LW
N
76 226.2 M
80.31 226.2 L
S
GR
GS
0.149 GC
2 setlinecap
1 LJ
0.5 LW
N
76 163.8 M
80.31 163.8 L
S
GR
GS
0.149 GC
2 setlinecap
1 LJ
0.5 LW
N
76 101.4 M
80.31 101.4 L
S
GR
GS
0.149 GC
2 setlinecap
1 LJ
0.5 LW
N
76 39 M
80.31 39 L
S
GR
GS
0.149 GC
2 setlinecap
1 LJ
0.5 LW
N
507 351 M
502.69 351 L
S
GR
GS
0.149 GC
2 setlinecap
1 LJ
0.5 LW
N
507 288.6 M
502.69 288.6 L
S
GR
GS
0.149 GC
2 setlinecap
1 LJ
0.5 LW
N
507 226.2 M
502.69 226.2 L
S
GR
GS
0.149 GC
2 setlinecap
1 LJ
0.5 LW
N
507 163.8 M
502.69 163.8 L
S
GR
GS
0.149 GC
2 setlinecap
1 LJ
0.5 LW
N
507 101.4 M
502.69 101.4 L
S
GR
GS
0.149 GC
2 setlinecap
1 LJ
0.5 LW
N
507 39 M
502.69 39 L
S
GR
GS
[1 0 0 1 69.2 351] CT
0.149 GC
/Helvetica 24 F
GS
[1 0 0 1 0 0] CT
-14 8.5 moveto 
1 -1 scale
(0) t 
GR
GR
GS
[1 0 0 1 69.2 288.60001] CT
0.149 GC
/Helvetica 24 F
GS
[1 0 0 1 0 0] CT
-34 8.5 moveto 
1 -1 scale
(0.2) t 
GR
GR
GS
[1 0 0 1 69.2 226.2] CT
0.149 GC
/Helvetica 24 F
GS
[1 0 0 1 0 0] CT
-34 8.5 moveto 
1 -1 scale
(0.4) t 
GR
GR
GS
[1 0 0 1 69.2 163.79999] CT
0.149 GC
/Helvetica 24 F
GS
[1 0 0 1 0 0] CT
-34 8.5 moveto 
1 -1 scale
(0.6) t 
GR
GR
GS
[1 0 0 1 69.2 101.39999] CT
0.149 GC
/Helvetica 24 F
GS
[1 0 0 1 0 0] CT
-34 8.5 moveto 
1 -1 scale
(0.8) t 
GR
GR
GS
[1 0 0 1 69.2 39] CT
0.149 GC
/Helvetica 24 F
GS
[1 0 0 1 0 0] CT
-14 8.5 moveto 
1 -1 scale
(1) t 
GR
GR
GS
[0 -1 1 0 32.2 194.99985] CT
0.149 GC
/Helvetica 26.4 F
GS
[1 0 0 1 0 0] CT
-108 -6 moveto 
1 -1 scale
(True Positive Rate) t 
GR
GR
GS
[1 0 0 1 291.50027 32.40001] CT
/Helvetica-Bold 26.4 F
GS
[1 0 0 1 0 0] CT
-47 -6 moveto 
1 -1 scale
(MIRLIN) t 
GR
GR
GS
0 0 1 RC
1 LJ
3 LW
N
76 345.978 M
76 345.35 L
76 343.467 L
76 339.072 L
76 331.539 L
76 324.634 L
76 316.473 L
76 311.451 L
76 299.523 L
76 290.734 L
76 282.573 L
76 275.04 L
76 266.879 L
76 258.718 L
76 253.068 L
76 247.419 L
76 240.513 L
76 234.235 L
76 224.191 L
76 219.797 L
76 217.913 L
76 211.008 L
76 209.125 L
76 203.475 L
76 201.592 L
76 200.336 L
76 197.825 L
76 194.686 L
76 192.175 L
76 190.292 L
76 189.036 L
76 185.897 L
76 182.759 L
76 182.759 L
76 181.503 L
76 178.364 L
76 176.481 L
76 175.225 L
76 173.97 L
76 172.714 L
76 170.831 L
76 168.948 L
76 165.809 L
76 164.553 L
76 163.926 L
76 163.926 L
76 162.67 L
76 161.414 L
76 160.787 L
76 160.159 L
76 160.159 L
76 159.531 L
76 159.531 L
76 159.531 L
76 158.276 L
76 157.648 L
76 156.392 L
76 155.765 L
76 154.509 L
76 153.881 L
76 153.254 L
76 153.254 L
76 153.254 L
76 151.37 L
76 151.37 L
76 150.115 L
76 150.115 L
76 149.487 L
76 149.487 L
76 148.859 L
76 147.604 L
76 146.976 L
76 146.348 L
76 145.72 L
76 145.093 L
76 143.837 L
76 142.581 L
76 141.954 L
76 141.954 L
76 141.326 L
76 141.326 L
76 141.326 L
76 141.326 L
76 141.326 L
76 140.698 L
76 140.07 L
76 140.07 L
76 140.07 L
76 140.07 L
76.011 139.443 L
76.011 139.443 L
76.011 139.443 L
76.011 139.443 L
76.011 138.187 L
76.011 137.559 L
76.011 136.932 L
76.011 136.932 L
76.011 136.932 L
76.011 136.304 L
76.011 135.676 L
76.011 133.793 L
76.011 133.793 L
76.011 133.165 L
76.011 132.537 L
76.011 132.537 L
76.011 132.537 L
76.011 132.537 L
76.011 132.537 L
76.011 132.537 L
76.011 130.026 L
76.011 130.026 L
76.011 130.026 L
76.011 129.398 L
76.011 129.398 L
76.011 129.398 L
76.011 128.771 L
76.011 128.143 L
76.011 128.143 L
76.011 128.143 L
76.011 128.143 L
76.011 128.143 L
76.011 127.515 L
76.011 127.515 L
76.011 127.515 L
76.011 127.515 L
76.011 127.515 L
76.011 127.515 L
76.011 127.515 L
76.011 127.515 L
76.011 126.887 L
76.011 126.887 L
76.011 126.887 L
76.011 126.887 L
76.011 126.887 L
76.011 126.887 L
76.011 126.26 L
76.011 126.26 L
76.011 126.26 L
76.011 126.26 L
76.011 126.26 L
76.011 126.26 L
76.011 126.26 L
76.011 125.632 L
76.011 125.632 L
76.011 125.004 L
76.011 123.121 L
76.011 123.121 L
76.011 123.121 L
76.011 123.121 L
76.011 122.493 L
76.011 122.493 L
76.011 122.493 L
76.011 122.493 L
76.011 121.865 L
76.011 121.865 L
76.011 121.865 L
76.011 121.865 L
76.011 121.237 L
76.011 121.237 L
76.011 121.237 L
76.011 121.237 L
76.011 121.237 L
76.011 121.237 L
76.011 121.237 L
76.011 120.61 L
76.011 120.61 L
76.011 119.982 L
76.011 119.982 L
76.011 119.982 L
76.011 119.982 L
76.011 119.982 L
76.011 119.982 L
76.011 119.982 L
76.011 119.982 L
76.011 119.354 L
76.011 118.099 L
76.011 118.099 L
76.011 118.099 L
76.022 118.099 L
76.022 118.099 L
76.022 118.099 L
76.022 118.099 L
76.022 118.099 L
76.022 118.099 L
76.022 118.099 L
76.022 118.099 L
76.033 118.099 L
76.033 118.099 L
76.033 117.471 L
76.033 116.843 L
76.033 116.843 L
76.033 116.843 L
76.044 116.843 L
76.044 116.843 L
76.044 116.843 L
76.055 116.843 L
76.055 116.843 L
76.055 116.843 L
76.055 116.843 L
76.066 116.843 L
76.077 116.843 L
76.077 116.215 L
76.077 116.215 L
76.077 116.215 L
76.077 116.215 L
76.088 115.588 L
76.088 115.588 L
76.088 114.96 L
76.088 114.96 L
76.099 114.96 L
76.11 114.96 L
76.121 114.96 L
76.132 114.332 L
76.132 114.332 L
76.143 114.332 L
76.143 114.332 L
76.143 114.332 L
76.154 114.332 L
76.154 114.332 L
76.165 114.332 L
76.187 114.332 L
76.198 114.332 L
76.209 113.704 L
76.231 113.704 L
76.242 113.704 L
76.264 113.704 L
76.297 113.704 L
76.297 113.704 L
76.297 113.704 L
76.297 113.704 L
76.308 113.076 L
76.319 113.076 L
76.342 113.076 L
76.375 113.076 L
76.419 112.449 L
76.452 112.449 L
76.474 112.449 L
76.485 111.821 L
76.507 111.821 L
76.529 111.821 L
76.551 111.821 L
76.628 111.193 L
76.705 111.193 L
76.738 111.193 L
76.76 111.193 L
76.793 111.193 L
76.903 111.193 L
76.914 111.193 L
76.969 111.193 L
77.002 111.193 L
77.025 111.193 L
77.091 111.193 L
77.179 111.193 L
77.223 111.193 L
77.289 111.193 L
77.344 111.193 L
77.388 111.193 L
77.498 111.193 L
77.63 111.193 L
77.674 111.193 L
77.719 111.193 L
77.796 111.193 L
77.873 111.193 L
77.983 111.193 L
78.071 111.193 L
78.181 111.193 L
78.28 111.193 L
78.446 111.193 L
78.556 111.193 L
78.677 111.193 L
78.82 111.193 L
78.974 109.938 L
79.129 109.938 L
79.404 109.938 L
79.646 109.938 L
79.79 109.938 L
79.977 109.938 L
80.208 109.938 L
80.451 109.938 L
80.748 109.938 L
81.056 109.938 L
81.31 109.938 L
81.563 109.938 L
81.872 109.938 L
82.18 109.938 L
82.544 109.938 L
82.896 109.938 L
83.304 109.938 L
83.634 109.938 L
83.965 109.938 L
84.405 109.938 L
84.692 109.938 L
85.044 109.938 L
85.529 109.938 L
85.815 109.938 L
86.201 109.938 L
86.609 109.938 L
87.071 109.938 L
87.534 109.938 L
88.206 109.938 L
88.548 109.938 L
89.22 109.938 L
89.88 109.938 L
90.442 109.938 L
91.059 109.938 L
91.698 109.31 L
92.436 109.31 L
92.91 109.31 L
93.725 108.682 L
94.342 108.682 L
95.047 108.682 L
95.763 108.682 L
96.578 108.682 L
97.548 108.682 L
98.319 108.682 L
99.288 108.682 L
100.291 108.682 L
101.216 108.054 L
102.064 108.054 L
103.078 108.054 L
104.334 108.054 L
105.336 108.054 L
106.339 107.427 L
107.462 106.799 L
108.531 106.799 L
109.456 106.799 L
110.613 106.799 L
111.803 106.799 L
112.971 106.799 L
114.171 106.171 L
115.471 106.171 L
116.529 106.171 L
117.983 106.171 L
119.25 106.171 L
120.825 106.171 L
122.125 105.543 L
123.557 105.543 L
125.099 105.543 L
126.543 105.543 L
128.041 104.915 L
129.616 104.915 L
131.191 104.915 L
132.69 104.288 L
134.089 104.288 L
135.719 103.032 L
137.283 103.032 L
138.826 103.032 L
140.302 103.032 L
142.208 103.032 L
143.838 103.032 L
145.678 103.032 L
147.727 103.032 L
149.578 103.032 L
151.45 103.032 L
153.378 103.032 L
155.659 102.404 L
157.884 102.404 L
159.757 102.404 L
161.74 102.404 L
163.767 102.404 L
165.805 101.777 L
167.787 101.777 L
169.803 101.777 L
171.908 101.777 L
174.221 101.777 L
176.017 101.777 L
178.286 101.777 L
180.137 101.777 L
182.373 101.777 L
184.675 101.777 L
187.176 101.777 L
189.445 101.149 L
191.726 101.149 L
193.852 101.149 L
196.143 100.521 L
198.402 100.521 L
200.396 100.521 L
202.731 100.521 L
204.703 100.521 L
207.082 100.521 L
209.605 99.893 L
211.665 99.893 L
214.001 99.893 L
216.347 99.893 L
218.638 99.893 L
220.875 99.893 L
223.298 99.266 L
225.502 98.638 L
228.057 98.638 L
230.206 98.638 L
232.442 98.638 L
234.898 98.638 L
237.212 98.638 L
239.79 98.638 L
242.169 98.638 L
244.328 98.638 L
246.84 98.638 L
249.043 98.638 L
251.247 98.638 L
253.769 98.638 L
256.05 98.01 L
258.396 98.01 L
260.677 98.01 L
263.431 98.01 L
265.667 98.01 L
268.024 98.01 L
270.228 98.01 L
272.475 98.01 L
274.91 98.01 L
277.113 98.01 L
279.536 98.01 L
281.751 98.01 L
283.888 98.01 L
285.738 97.382 L
288.129 97.382 L
290.321 97.382 L
292.392 97.382 L
294.529 97.382 L
296.59 97.382 L
298.683 97.382 L
300.886 97.382 L
303.067 97.382 L
305.127 97.382 L
307 97.382 L
308.807 97.382 L
310.789 97.382 L
312.497 96.755 L
314.227 96.755 L
316.287 96.755 L
318.005 96.755 L
320.032 96.127 L
322.026 96.127 L
323.965 96.127 L
325.97 96.127 L
327.777 96.127 L
329.462 96.127 L
331.048 96.127 L
332.899 96.127 L
334.496 95.499 L
336.127 95.499 L
338.044 95.499 L
339.663 95.499 L
341.238 95.499 L
342.615 95.499 L
344.014 95.499 L
345.876 95.499 L
347.474 95.499 L
348.829 95.499 L
350.294 95.499 L
351.66 95.499 L
353.059 95.499 L
354.282 95.499 L
355.725 95.499 L
357.069 95.499 L
358.281 95.499 L
359.492 95.499 L
360.627 95.499 L
361.629 95.499 L
362.808 95.499 L
363.921 95.499 L
365.155 95.499 L
366.234 95.499 L
367.027 95.499 L
368.129 95.499 L
369.165 95.499 L
370.266 95.499 L
371.247 95.499 L
372.084 95.499 L
372.91 95.499 L
373.747 95.499 L
374.496 95.499 L
375.433 95.499 L
376.16 95.499 L
376.777 95.499 L
377.581 95.499 L
378.176 95.499 L
378.925 95.499 L
379.795 95.499 L
380.566 95.499 L
381.183 95.499 L
381.8 95.499 L
382.362 95.499 L
383.177 95.499 L
383.717 95.499 L
384.224 95.499 L
384.808 95.499 L
385.48 95.499 L
385.986 95.499 L
386.559 95.499 L
387.099 95.499 L
387.452 95.499 L
387.848 95.499 L
388.212 95.499 L
388.63 95.499 L
389.126 95.499 L
389.633 95.499 L
390.107 95.499 L
390.448 95.499 L
390.723 95.499 L
391.153 95.499 L
391.462 95.499 L
391.847 95.499 L
392.288 95.499 L
392.651 95.499 L
392.938 95.499 L
393.356 95.499 L
393.588 95.499 L
393.885 94.871 L
394.16 94.871 L
394.392 94.871 L
394.623 94.871 L
394.866 94.871 L
395.141 94.871 L
395.383 94.871 L
395.549 94.871 L
395.835 94.871 L
396.022 94.871 L
396.188 94.871 L
396.331 94.871 L
396.573 94.871 L
396.738 94.243 L
396.826 94.243 L
397.08 94.243 L
397.245 94.243 L
397.421 94.243 L
397.553 94.243 L
397.675 94.243 L
397.763 94.243 L
397.895 94.243 L
398.038 94.243 L
398.148 94.243 L
398.181 94.243 L
398.27 94.243 L
398.424 94.243 L
398.479 94.243 L
398.589 94.243 L
398.71 94.243 L
398.798 94.243 L
398.842 94.243 L
398.942 94.243 L
398.975 94.243 L
399.063 94.243 L
399.129 94.243 L
399.173 94.243 L
399.217 94.243 L
399.283 94.243 L
399.349 94.243 L
399.393 94.243 L
399.437 94.243 L
399.47 94.243 L
399.525 94.243 L
399.581 94.243 L
399.658 94.243 L
399.735 94.243 L
399.801 94.243 L
399.834 94.243 L
399.9 94.243 L
399.922 94.243 L
399.966 94.243 L
400.021 94.243 L
400.065 94.243 L
400.109 94.243 L
400.142 94.243 L
400.208 94.243 L
400.241 94.243 L
400.252 94.243 L
400.264 94.243 L
400.275 94.243 L
400.308 94.243 L
400.33 94.243 L
400.341 94.243 L
400.363 94.243 L
400.385 94.243 L
400.418 94.243 L
400.418 94.243 L
400.44 94.243 L
400.451 94.243 L
400.451 94.243 L
400.451 94.243 L
400.451 94.243 L
400.462 94.243 L
400.473 94.243 L
400.506 94.243 L
400.517 94.243 L
400.528 94.243 L
400.55 94.243 L
400.572 94.243 L
400.572 94.243 L
400.583 94.243 L
400.583 94.243 L
400.594 94.243 L
400.605 94.243 L
400.616 94.243 L
400.616 94.243 L
400.616 94.243 L
400.627 94.243 L
400.649 94.243 L
400.649 94.243 L
400.66 94.243 L
400.66 94.243 L
400.66 94.243 L
400.66 94.243 L
400.671 94.243 L
400.671 94.243 L
400.682 94.243 L
400.693 94.243 L
400.693 94.243 L
400.693 94.243 L
400.715 94.243 L
400.715 94.243 L
400.726 94.243 L
400.737 94.243 L
400.737 94.243 L
400.737 94.243 L
400.737 94.243 L
400.737 94.243 L
400.737 94.243 L
400.737 94.243 L
400.737 94.243 L
400.737 94.243 L
400.737 94.243 L
400.737 94.243 L
400.737 94.243 L
400.737 94.243 L
400.737 94.243 L
400.737 94.243 L
400.737 94.243 L
400.737 94.243 L
400.748 94.243 L
400.748 94.243 L
400.748 94.243 L
400.748 94.243 L
400.748 94.243 L
400.748 94.243 L
400.748 94.243 L
400.748 94.243 L
400.748 94.243 L
400.748 94.243 L
400.748 94.243 L
400.748 94.243 L
400.748 94.243 L
400.748 94.243 L
400.748 94.243 L
400.748 94.243 L
400.748 94.243 L
400.748 94.243 L
400.748 94.243 L
400.748 94.243 L
400.748 94.243 L
400.748 94.243 L
400.748 94.243 L
400.748 94.243 L
400.748 94.243 L
400.748 94.243 L
400.748 94.243 L
400.748 94.243 L
400.748 94.243 L
400.748 94.243 L
400.748 94.243 L
400.748 94.243 L
400.748 94.243 L
400.748 94.243 L
400.759 94.243 L
400.759 94.243 L
400.77 94.243 L
400.77 94.243 L
400.77 94.243 L
400.77 94.243 L
400.77 94.243 L
400.77 94.243 L
400.77 94.243 L
400.77 94.243 L
400.77 94.243 L
400.77 94.243 L
400.77 94.243 L
400.77 94.243 L
400.77 94.243 L
400.77 94.243 L
400.77 94.243 L
400.77 94.243 L
400.77 94.243 L
400.77 94.243 L
400.77 94.243 L
400.77 94.243 L
400.77 94.243 L
400.77 94.243 L
400.77 94.243 L
400.77 94.243 L
400.77 94.243 L
400.77 94.243 L
400.77 94.243 L
400.77 94.243 L
400.77 94.243 L
400.77 94.243 L
400.77 94.243 L
400.77 94.243 L
400.77 94.243 L
400.77 94.243 L
400.77 94.243 L
400.77 94.243 L
400.77 94.243 L
400.77 94.243 L
400.77 94.243 L
400.77 94.243 L
400.77 94.243 L
400.77 94.243 L
400.77 94.243 L
400.77 94.243 L
400.77 94.243 L
400.77 94.243 L
400.77 94.243 L
400.77 94.243 L
400.77 94.243 L
400.77 94.243 L
400.77 94.243 L
400.77 94.243 L
400.77 94.243 L
400.77 94.243 L
400.77 94.243 L
400.77 94.243 L
400.77 94.243 L
400.77 94.243 L
400.77 94.243 L
400.77 94.243 L
400.77 94.243 L
400.77 94.243 L
400.77 94.243 L
400.77 94.243 L
400.77 94.243 L
400.77 94.243 L
400.77 94.243 L
400.77 94.243 L
400.77 94.243 L
400.77 94.243 L
400.77 94.243 L
400.77 94.243 L
400.77 94.243 L
400.77 94.243 L
400.77 94.243 L
400.77 94.243 L
400.77 94.243 L
400.77 94.243 L
400.77 94.243 L
400.77 94.243 L
400.77 94.243 L
400.77 94.243 L
400.77 94.243 L
400.77 94.243 L
400.77 94.243 L
400.77 94.243 L
400.77 94.243 L
400.77 94.243 L
400.77 94.243 L
400.77 94.243 L
400.77 94.243 L
400.77 94.243 L
400.77 94.243 L
400.77 94.243 L
400.77 94.243 L
400.77 94.243 L
400.77 94.243 L
400.77 94.243 L
400.77 94.243 L
400.77 94.243 L
400.77 94.243 L
400.77 94.243 L
400.77 94.243 L
400.77 94.243 L
400.77 94.243 L
400.77 94.243 L
400.77 94.243 L
400.77 94.243 L
400.77 94.243 L
400.77 94.243 L
400.77 94.243 L
400.77 94.243 L
400.77 94.243 L
400.77 94.243 L
400.77 94.243 L
400.77 94.243 L
400.77 94.243 L
400.77 94.243 L
400.77 94.243 L
400.77 94.243 L
400.77 94.243 L
400.77 94.243 L
400.77 94.243 L
400.77 94.243 L
400.77 94.243 L
400.77 94.243 L
400.77 94.243 L
400.77 94.243 L
400.77 94.243 L
400.77 94.243 L
400.77 94.243 L
400.77 94.243 L
400.77 94.243 L
400.77 94.243 L
400.77 94.243 L
400.77 94.243 L
400.77 94.243 L
400.77 94.243 L
400.77 94.243 L
400.77 94.243 L
400.77 94.243 L
400.77 94.243 L
400.77 94.243 L
400.77 94.243 L
400.77 94.243 L
400.77 94.243 L
400.77 94.243 L
400.77 94.243 L
400.77 94.243 L
400.77 94.243 L
400.77 94.243 L
400.77 94.243 L
400.77 94.243 L
400.77 94.243 L
400.77 94.243 L
400.77 94.243 L
400.77 94.243 L
400.77 94.243 L
400.77 94.243 L
400.77 94.243 L
400.77 94.243 L
400.77 94.243 L
400.77 94.243 L
400.77 94.243 L
400.77 94.243 L
400.77 94.243 L
400.77 94.243 L
400.77 94.243 L
400.77 94.243 L
400.77 94.243 L
400.77 94.243 L
400.77 94.243 L
400.77 94.243 L
400.77 94.243 L
400.77 94.243 L
400.77 94.243 L
400.77 94.243 L
400.77 94.243 L
400.77 94.243 L
400.77 94.243 L
400.77 94.243 L
400.77 94.243 L
400.77 94.243 L
400.77 94.243 L
400.77 94.243 L
400.77 94.243 L
400.77 94.243 L
400.77 94.243 L
400.77 94.243 L
400.77 94.243 L
400.77 94.243 L
400.77 94.243 L
400.77 94.243 L
400.77 94.243 L
400.77 94.243 L
400.77 94.243 L
400.77 94.243 L
400.77 94.243 L
400.77 94.243 L
400.77 94.243 L
400.77 94.243 L
400.77 94.243 L
400.77 94.243 L
400.77 94.243 L
400.77 94.243 L
400.77 94.243 L
400.77 94.243 L
400.77 94.243 L
400.77 94.243 L
400.77 94.243 L
400.77 94.243 L
400.77 94.243 L
400.77 94.243 L
400.77 94.243 L
400.77 94.243 L
400.77 94.243 L
400.77 94.243 L
400.77 94.243 L
400.77 94.243 L
400.77 94.243 L
400.77 94.243 L
400.77 94.243 L
400.77 94.243 L
400.77 94.243 L
400.77 94.243 L
400.77 94.243 L
400.77 94.243 L
400.77 94.243 L
400.77 94.243 L
400.77 94.243 L
400.77 94.243 L
400.77 94.243 L
400.77 94.243 L
400.77 94.243 L
400.77 94.243 L
400.77 94.243 L
400.77 94.243 L
400.77 94.243 L
400.77 94.243 L
400.77 94.243 L
400.77 94.243 L
400.77 94.243 L
400.77 94.243 L
400.77 94.243 L
400.77 94.243 L
400.77 94.243 L
400.77 94.243 L
400.77 94.243 L
400.77 94.243 L
400.77 94.243 L
400.77 94.243 L
400.77 94.243 L
400.77 94.243 L
400.77 94.243 L
400.77 94.243 L
400.77 94.243 L
400.77 94.243 L
400.77 94.243 L
400.77 94.243 L
400.77 94.243 L
400.77 94.243 L
400.77 94.243 L
400.77 94.243 L
400.77 94.243 L
400.77 94.243 L
400.77 94.243 L
400.77 94.243 L
400.77 94.243 L
400.77 94.243 L
400.77 94.243 L
400.77 94.243 L
400.77 94.243 L
400.77 94.243 L
400.77 94.243 L
400.77 94.243 L
400.77 94.243 L
400.77 94.243 L
400.77 94.243 L
400.77 94.243 L
400.77 94.243 L
400.77 94.243 L
400.77 94.243 L
400.77 94.243 L
400.77 94.243 L
400.77 94.243 L
400.77 94.243 L
400.77 94.243 L
400.77 94.243 L
400.77 94.243 L
400.77 94.243 L
400.77 94.243 L
400.77 94.243 L
400.77 94.243 L
400.77 94.243 L
400.77 94.243 L
400.77 94.243 L
400.77 94.243 L
400.77 94.243 L
400.77 94.243 L
400.77 94.243 L
400.77 94.243 L
400.77 94.243 L
400.77 94.243 L
400.77 94.243 L
400.77 94.243 L
400.77 94.243 L
400.77 94.243 L
400.77 94.243 L
400.77 94.243 L
400.77 94.243 L
400.77 94.243 L
400.77 94.243 L
400.77 94.243 L
400.77 94.243 L
400.77 94.243 L
400.77 94.243 L
400.77 94.243 L
400.77 94.243 L
400.77 94.243 L
400.77 94.243 L
400.77 94.243 L
400.77 94.243 L
400.77 94.243 L
400.77 94.243 L
400.77 94.243 L
400.77 94.243 L
400.77 94.243 L
400.77 94.243 L
400.77 94.243 L
400.77 94.243 L
400.77 94.243 L
400.77 94.243 L
400.77 94.243 L
400.77 94.243 L
400.77 94.243 L
400.77 94.243 L
507 39 L
S
GR
GS
1 0 0 RC
1 LJ
3 LW
N
76 350.697 M
76 331.879 L
76 313.062 L
76 293.942 L
76 276.946 L
76 266.323 L
76 252.969 L
76 241.739 L
76 234.152 L
76.006 225.35 L
76.006 218.37 L
76.006 213.21 L
76.006 208.051 L
76.006 200.767 L
76.006 196.214 L
76.006 188.323 L
76.006 183.77 L
76.011 178.004 L
76.017 171.934 L
76.017 166.167 L
76.017 162.222 L
76.017 159.794 L
76.017 156.152 L
76.023 154.027 L
76.029 150.689 L
76.034 145.226 L
76.046 142.191 L
76.057 138.549 L
76.063 137.335 L
76.063 133.693 L
76.063 130.961 L
76.063 129.444 L
76.063 126.712 L
76.063 123.677 L
76.069 120.946 L
76.069 120.339 L
76.074 118.821 L
76.08 117.911 L
76.086 115.786 L
76.086 114.572 L
76.092 113.358 L
76.097 111.537 L
76.103 110.323 L
76.109 109.109 L
76.109 107.895 L
76.115 106.681 L
76.12 105.163 L
76.12 104.253 L
76.132 103.342 L
76.132 102.735 L
76.132 101.825 L
76.138 101.218 L
76.143 100.611 L
76.143 99.397 L
76.16 97.576 L
76.16 97.272 L
76.166 96.058 L
76.189 94.844 L
76.195 93.934 L
76.201 92.72 L
76.206 92.113 L
76.223 91.202 L
76.235 91.202 L
76.252 90.899 L
76.252 89.685 L
76.264 89.685 L
76.275 89.078 L
76.287 88.774 L
76.298 87.56 L
76.309 86.953 L
76.321 86.346 L
76.321 85.739 L
76.327 85.132 L
76.338 84.222 L
76.338 83.615 L
76.35 83.311 L
76.361 83.008 L
76.367 83.008 L
76.378 82.401 L
76.378 82.097 L
76.384 81.794 L
76.407 80.883 L
76.418 80.883 L
76.441 80.883 L
76.447 80.883 L
76.458 80.58 L
76.464 79.366 L
76.464 79.366 L
76.481 79.062 L
76.487 79.062 L
76.499 78.152 L
76.51 78.152 L
76.539 77.848 L
76.544 77.848 L
76.567 77.848 L
76.573 77.848 L
76.59 77.241 L
76.607 77.241 L
76.607 76.938 L
76.625 76.938 L
76.636 76.331 L
76.659 76.027 L
76.659 76.027 L
76.665 76.027 L
76.676 76.027 L
76.688 76.027 L
76.711 75.42 L
76.728 75.117 L
76.751 74.813 L
76.756 74.813 L
76.768 74.51 L
76.774 74.51 L
76.796 74.51 L
76.808 74.51 L
76.814 74.206 L
76.831 74.206 L
76.842 73.599 L
76.86 73.296 L
76.86 73.296 L
76.865 73.296 L
76.871 73.296 L
76.882 72.992 L
76.894 72.992 L
76.9 72.992 L
76.911 72.689 L
76.917 72.385 L
76.917 72.082 L
76.94 72.082 L
76.945 71.778 L
76.945 71.475 L
76.945 71.475 L
76.963 71.171 L
76.974 71.171 L
76.986 71.171 L
77.003 71.171 L
77.014 71.171 L
77.02 70.868 L
77.026 70.868 L
77.026 70.868 L
77.037 70.868 L
77.06 70.868 L
77.066 70.868 L
77.066 70.868 L
77.083 70.868 L
77.089 70.868 L
77.1 70.564 L
77.117 70.564 L
77.117 70.564 L
77.117 70.564 L
77.135 70.261 L
77.135 69.957 L
77.14 69.957 L
77.157 69.654 L
77.157 69.654 L
77.157 69.654 L
77.157 69.35 L
77.169 69.047 L
77.175 68.743 L
77.186 68.743 L
77.186 68.743 L
77.192 68.743 L
77.209 68.743 L
77.215 68.44 L
77.215 68.136 L
77.221 68.136 L
77.226 68.136 L
77.232 67.833 L
77.232 67.833 L
77.243 67.529 L
77.243 67.529 L
77.261 67.529 L
77.266 67.529 L
77.272 67.529 L
77.272 67.529 L
77.272 67.529 L
77.278 67.226 L
77.284 67.226 L
77.306 66.922 L
77.312 66.922 L
77.329 66.922 L
77.347 66.619 L
77.347 66.012 L
77.347 66.012 L
77.347 66.012 L
77.352 66.012 L
77.364 66.012 L
77.364 66.012 L
77.381 66.012 L
77.392 65.708 L
77.404 65.708 L
77.41 65.405 L
77.421 65.101 L
77.421 64.798 L
77.433 64.798 L
77.433 64.798 L
77.444 64.798 L
77.461 64.494 L
77.473 64.494 L
77.496 64.494 L
77.501 64.494 L
77.513 64.494 L
77.513 64.191 L
77.53 64.191 L
77.559 64.191 L
77.582 64.191 L
77.599 64.191 L
77.599 64.191 L
77.616 64.191 L
77.622 64.191 L
77.627 64.191 L
77.645 63.887 L
77.667 63.584 L
77.702 63.584 L
77.725 63.584 L
77.742 63.584 L
77.782 63.584 L
77.799 63.584 L
77.828 63.584 L
77.839 63.584 L
77.845 63.584 L
77.862 63.584 L
77.885 63.584 L
77.914 63.584 L
77.937 63.28 L
77.96 63.28 L
78 63.28 L
78.046 63.28 L
78.08 63.28 L
78.132 62.977 L
78.155 62.977 L
78.195 62.977 L
78.218 62.673 L
78.252 62.673 L
78.258 62.673 L
78.303 62.673 L
78.321 62.673 L
78.378 62.673 L
78.412 62.673 L
78.43 62.673 L
78.464 62.673 L
78.498 62.673 L
78.521 62.37 L
78.527 62.37 L
78.601 62.37 L
78.647 62.066 L
78.693 62.066 L
78.722 62.066 L
78.762 62.066 L
78.813 62.066 L
78.877 62.066 L
78.922 62.066 L
78.985 61.763 L
79.054 61.763 L
79.14 61.763 L
79.243 61.763 L
79.323 61.763 L
79.421 61.763 L
79.495 61.763 L
79.61 61.763 L
79.736 61.763 L
79.868 61.763 L
79.937 61.763 L
80.057 61.459 L
80.177 61.459 L
80.315 61.459 L
80.464 61.459 L
80.607 61.459 L
80.767 61.156 L
80.962 61.156 L
81.197 61.156 L
81.421 61.156 L
81.604 61.156 L
81.816 61.156 L
82.028 61.156 L
82.234 61.156 L
82.423 61.156 L
82.647 61.156 L
82.922 60.852 L
83.191 60.852 L
83.483 60.852 L
83.816 60.549 L
84.085 60.549 L
84.395 60.549 L
84.801 60.549 L
85.145 60.245 L
85.437 60.245 L
85.758 60.245 L
86.079 60.245 L
86.503 60.245 L
86.83 60.245 L
87.283 60.245 L
87.666 59.942 L
88.068 59.942 L
88.509 59.942 L
88.944 59.942 L
89.408 59.942 L
89.724 59.942 L
90.205 59.942 L
90.646 59.942 L
91.145 59.942 L
91.741 59.942 L
92.262 59.942 L
92.761 59.942 L
93.362 59.942 L
94.033 59.942 L
94.686 59.942 L
95.368 59.942 L
96.032 59.942 L
96.668 59.942 L
97.465 59.942 L
98.181 59.942 L
98.978 59.942 L
99.591 59.942 L
100.439 59.942 L
101.252 59.942 L
102.164 59.942 L
103.075 59.942 L
103.883 59.942 L
104.708 59.942 L
105.688 59.942 L
106.742 59.942 L
107.727 59.942 L
108.799 59.942 L
109.744 59.942 L
110.822 59.942 L
112.111 59.942 L
113.263 59.638 L
114.432 59.638 L
115.652 59.638 L
116.873 59.335 L
118.179 59.335 L
119.354 59.335 L
120.66 59.335 L
121.909 59.335 L
123.336 59.335 L
124.803 59.335 L
126.471 59.335 L
128.064 59.335 L
129.49 59.335 L
130.877 59.031 L
132.361 59.031 L
133.92 59.031 L
135.564 59.031 L
137.146 59.031 L
138.796 59.031 L
140.418 59.031 L
142.268 59.031 L
144.073 58.728 L
145.838 58.728 L
147.683 58.728 L
149.465 58.424 L
151.505 58.424 L
153.574 58.424 L
155.534 58.424 L
157.694 58.424 L
159.768 58.424 L
161.928 58.424 L
163.98 58.424 L
166.375 58.424 L
168.621 58.424 L
170.885 58.424 L
172.902 58.424 L
175.188 58.424 L
177.549 58.121 L
179.938 58.121 L
182.373 58.121 L
184.597 57.817 L
187.009 57.817 L
189.295 57.817 L
191.605 57.817 L
194.172 57.817 L
196.721 57.817 L
199.266 57.817 L
201.775 57.817 L
204.423 57.817 L
207.059 57.817 L
209.603 57.817 L
212.359 57.817 L
215.012 57.817 L
217.59 57.514 L
220.341 57.514 L
222.971 57.514 L
225.613 57.21 L
228.111 57.21 L
230.924 57.21 L
233.749 57.21 L
236.288 56.907 L
238.924 56.907 L
241.783 56.907 L
244.717 56.603 L
247.479 56.603 L
250.338 56.603 L
252.934 56.603 L
256.097 56.3 L
258.881 55.996 L
261.603 55.996 L
264.428 55.693 L
267.305 55.389 L
270.09 55.389 L
273.075 55.389 L
275.963 55.389 L
278.96 55.086 L
281.504 55.086 L
284.398 54.782 L
287.177 54.782 L
289.898 54.479 L
292.54 54.479 L
295.56 54.479 L
298.568 54.479 L
301.181 54.479 L
303.679 54.479 L
306.304 54.479 L
309.197 54.479 L
312.051 54.479 L
314.893 54.479 L
317.638 54.479 L
320.52 54.479 L
323.116 54.479 L
325.952 54.479 L
328.548 54.479 L
331.184 54.479 L
333.854 54.479 L
336.427 54.479 L
339.086 54.479 L
341.75 54.479 L
344.214 54.479 L
346.867 54.479 L
349.503 54.479 L
352.202 54.479 L
354.545 54.479 L
357.204 54.175 L
359.582 53.872 L
362.189 53.872 L
364.573 53.872 L
366.962 53.872 L
369.438 53.872 L
371.764 53.872 L
374.154 53.872 L
376.314 53.872 L
378.927 53.872 L
381.007 53.872 L
383.264 53.568 L
385.574 53.568 L
387.665 53.568 L
389.997 53.568 L
392.02 53.568 L
394.129 53.568 L
396.123 53.568 L
398.209 53.568 L
400.122 53.568 L
402.008 53.568 L
403.99 53.568 L
405.87 53.568 L
407.784 53.568 L
409.657 53.568 L
411.267 53.568 L
412.998 53.265 L
414.717 53.265 L
416.51 53.265 L
418.121 53.265 L
419.714 53.265 L
421.215 53.265 L
422.974 53.265 L
424.664 53.265 L
426.171 53.265 L
427.638 53.265 L
429.191 53.265 L
430.733 53.265 L
432.171 53.265 L
433.615 53.265 L
435.001 53.265 L
436.428 52.961 L
437.786 52.961 L
438.904 52.961 L
440.17 52.961 L
441.333 52.961 L
442.628 52.961 L
443.723 52.961 L
444.748 52.961 L
446.003 52.961 L
447.098 52.961 L
448.152 52.961 L
449.08 52.961 L
450.072 52.961 L
451.092 52.961 L
452.066 52.961 L
452.822 52.961 L
453.67 52.961 L
454.53 52.961 L
455.372 52.961 L
456.191 52.961 L
457.045 52.961 L
457.899 52.961 L
458.65 52.961 L
459.423 52.658 L
460.242 52.658 L
460.924 52.658 L
461.526 52.658 L
462.111 52.658 L
462.792 52.658 L
463.434 52.658 L
464.042 52.658 L
464.706 52.658 L
465.159 52.658 L
465.652 52.658 L
466.185 52.658 L
466.672 52.658 L
467.193 52.658 L
467.806 52.658 L
468.23 52.658 L
468.689 52.658 L
469.044 52.658 L
469.428 52.658 L
469.858 52.658 L
470.287 52.658 L
470.66 52.658 L
470.998 52.658 L
471.296 52.658 L
471.6 52.658 L
471.978 52.658 L
472.287 52.658 L
472.619 52.658 L
472.912 52.658 L
473.187 52.658 L
473.485 52.658 L
473.731 52.658 L
473.949 52.658 L
474.224 52.658 L
474.447 52.658 L
474.728 52.658 L
474.957 52.658 L
475.267 52.658 L
475.49 52.658 L
475.691 52.658 L
475.886 52.658 L
476.092 52.658 L
476.275 52.658 L
476.413 52.658 L
476.625 52.658 L
476.831 52.658 L
477.02 52.658 L
477.1 52.658 L
477.198 52.658 L
477.347 52.354 L
477.473 52.354 L
477.605 52.354 L
477.719 52.354 L
477.817 52.354 L
477.954 52.354 L
478.057 52.354 L
478.149 52.354 L
478.229 52.354 L
478.327 52.354 L
478.43 52.354 L
478.516 52.354 L
478.613 52.354 L
478.705 52.354 L
478.808 52.354 L
478.871 52.354 L
478.974 52.354 L
479.031 52.354 L
479.117 52.354 L
479.186 52.354 L
479.243 52.354 L
479.318 52.354 L
479.398 52.354 L
479.49 52.354 L
479.559 52.354 L
479.622 52.354 L
479.662 52.354 L
479.702 52.354 L
479.765 52.354 L
479.811 52.354 L
479.845 52.354 L
479.897 52.354 L
479.908 52.354 L
479.937 52.354 L
479.977 52.354 L
480 52.354 L
480.028 52.354 L
480.04 52.354 L
480.069 52.354 L
480.103 52.354 L
480.126 52.354 L
480.16 52.354 L
480.183 52.354 L
480.223 52.354 L
480.235 52.354 L
480.263 52.354 L
480.286 52.354 L
480.298 52.354 L
480.326 52.354 L
480.326 52.354 L
480.355 52.354 L
480.361 52.354 L
480.378 52.354 L
480.401 52.354 L
480.412 52.354 L
480.424 52.354 L
480.424 52.354 L
480.447 52.354 L
480.458 52.354 L
480.47 52.354 L
480.475 52.354 L
480.475 52.354 L
480.498 52.354 L
480.516 52.354 L
480.533 52.354 L
480.538 52.354 L
480.55 52.354 L
480.55 52.354 L
480.573 52.354 L
480.584 52.354 L
480.584 52.354 L
480.596 52.354 L
480.607 52.354 L
480.619 52.354 L
480.624 52.354 L
480.63 52.354 L
480.63 52.354 L
480.63 52.354 L
480.636 52.354 L
480.636 52.354 L
480.636 52.354 L
480.636 52.354 L
480.647 52.354 L
480.659 52.354 L
480.659 52.354 L
480.665 52.354 L
480.665 52.354 L
480.67 52.354 L
480.676 52.354 L
480.676 52.354 L
480.676 52.354 L
480.699 52.354 L
480.699 52.354 L
480.705 52.354 L
480.71 52.354 L
480.71 52.354 L
480.71 52.354 L
480.722 52.354 L
480.728 52.354 L
480.728 52.354 L
480.739 52.354 L
480.739 52.354 L
480.739 52.354 L
480.739 52.354 L
480.745 52.354 L
480.745 52.354 L
480.745 52.354 L
480.745 52.354 L
480.75 52.354 L
480.75 52.354 L
480.75 52.354 L
480.75 52.354 L
480.75 52.354 L
480.75 52.354 L
480.756 52.354 L
480.762 52.354 L
480.762 52.354 L
480.762 52.354 L
480.762 52.354 L
480.773 52.354 L
480.773 52.354 L
480.773 52.354 L
480.773 52.354 L
480.773 52.354 L
480.773 52.354 L
480.773 52.354 L
480.773 52.354 L
480.773 52.354 L
480.779 52.354 L
480.779 52.354 L
480.779 52.354 L
480.779 52.354 L
480.779 52.354 L
480.779 52.354 L
480.779 52.354 L
480.779 52.354 L
480.779 52.354 L
480.779 52.354 L
480.779 52.354 L
480.779 52.354 L
480.779 52.354 L
480.779 52.354 L
480.779 52.354 L
480.779 52.354 L
480.779 52.354 L
480.779 52.354 L
480.779 52.354 L
480.785 52.354 L
480.785 52.354 L
480.785 52.354 L
480.785 52.354 L
480.785 52.354 L
480.785 52.354 L
480.785 52.354 L
480.796 52.354 L
480.796 52.354 L
480.796 52.354 L
480.796 52.354 L
480.796 52.354 L
480.796 52.354 L
480.796 52.354 L
480.796 52.354 L
480.796 52.354 L
480.796 52.354 L
480.796 52.354 L
480.796 52.354 L
480.796 52.354 L
480.796 52.354 L
480.796 52.354 L
480.796 52.354 L
480.796 52.354 L
480.796 52.354 L
480.802 52.354 L
480.802 52.354 L
480.808 52.354 L
480.808 52.354 L
480.808 52.354 L
480.808 52.354 L
480.808 52.354 L
480.808 52.354 L
480.808 52.354 L
480.808 52.354 L
480.808 52.354 L
480.808 52.354 L
480.808 52.354 L
480.808 52.354 L
480.808 52.354 L
480.808 52.354 L
480.808 52.354 L
480.808 52.354 L
480.808 52.354 L
480.808 52.354 L
480.808 52.354 L
480.808 52.354 L
480.808 52.354 L
480.808 52.354 L
480.808 52.354 L
480.808 52.354 L
480.808 52.354 L
480.808 52.354 L
480.808 52.354 L
480.808 52.354 L
480.808 52.354 L
480.808 52.354 L
480.808 52.354 L
480.808 52.354 L
480.808 52.354 L
480.808 52.354 L
480.808 52.354 L
480.808 52.354 L
480.808 52.354 L
480.808 52.354 L
480.808 52.354 L
480.808 52.354 L
480.808 52.354 L
480.808 52.354 L
480.808 52.354 L
480.808 52.354 L
480.808 52.354 L
480.808 52.354 L
480.808 52.354 L
480.808 52.354 L
480.808 52.354 L
480.808 52.354 L
480.814 52.354 L
480.814 52.354 L
480.814 52.354 L
480.814 52.354 L
480.814 52.354 L
480.814 52.354 L
480.814 52.354 L
480.814 52.354 L
480.814 52.354 L
480.814 52.354 L
480.814 52.354 L
480.814 52.354 L
480.814 52.354 L
480.814 52.354 L
480.814 52.354 L
480.814 52.354 L
480.814 52.354 L
480.814 52.354 L
480.814 52.354 L
480.814 52.354 L
480.814 52.354 L
480.814 52.354 L
480.814 52.354 L
480.814 52.354 L
480.814 52.354 L
480.814 52.354 L
480.814 52.354 L
480.814 52.354 L
480.814 52.354 L
480.814 52.354 L
480.814 52.354 L
480.814 52.354 L
480.814 52.354 L
480.814 52.354 L
480.814 52.354 L
480.814 52.354 L
480.814 52.354 L
480.814 52.354 L
480.814 52.354 L
480.814 52.354 L
480.814 52.354 L
480.814 52.354 L
480.814 52.354 L
480.814 52.354 L
480.814 52.354 L
480.814 52.354 L
480.814 52.354 L
480.814 52.354 L
480.814 52.354 L
480.814 52.354 L
480.814 52.354 L
480.814 52.354 L
480.814 52.354 L
480.814 52.354 L
480.814 52.354 L
480.814 52.354 L
480.814 52.354 L
480.814 52.354 L
480.814 52.354 L
480.814 52.354 L
480.814 52.354 L
480.814 52.354 L
480.814 52.354 L
480.814 52.354 L
480.814 52.354 L
480.814 52.354 L
480.814 52.354 L
480.814 52.354 L
480.814 52.354 L
480.814 52.354 L
480.814 52.354 L
480.814 52.354 L
480.814 52.354 L
480.814 52.354 L
480.814 52.354 L
480.814 52.354 L
480.814 52.354 L
480.814 52.354 L
480.814 52.354 L
480.814 52.354 L
480.814 52.354 L
480.814 52.354 L
480.814 52.354 L
480.814 52.354 L
480.814 52.354 L
480.814 52.354 L
480.814 52.354 L
480.814 52.354 L
480.814 52.354 L
480.814 52.354 L
480.814 52.354 L
480.814 52.354 L
480.814 52.354 L
480.814 52.354 L
480.814 52.354 L
480.814 52.354 L
480.814 52.354 L
480.814 52.354 L
480.814 52.354 L
480.814 52.354 L
480.814 52.354 L
480.814 52.354 L
480.814 52.354 L
480.814 52.354 L
480.814 52.354 L
480.814 52.354 L
480.814 52.354 L
480.814 52.354 L
480.814 52.354 L
480.814 52.354 L
480.814 52.354 L
480.814 52.354 L
480.814 52.354 L
480.814 52.354 L
480.814 52.354 L
480.814 52.354 L
480.814 52.354 L
480.814 52.354 L
480.814 52.354 L
480.814 52.354 L
480.814 52.354 L
480.814 52.354 L
480.814 52.354 L
480.814 52.354 L
480.814 52.354 L
480.814 52.354 L
480.814 52.354 L
480.814 52.354 L
480.814 52.354 L
480.814 52.354 L
480.814 52.354 L
480.814 52.354 L
480.814 52.354 L
480.814 52.354 L
480.814 52.354 L
480.814 52.354 L
480.814 52.354 L
480.814 52.354 L
480.814 52.354 L
480.814 52.354 L
480.814 52.354 L
480.814 52.354 L
480.814 52.354 L
480.814 52.354 L
480.814 52.354 L
480.814 52.354 L
480.814 52.354 L
480.814 52.354 L
480.814 52.354 L
480.814 52.354 L
480.814 52.354 L
480.814 52.354 L
480.814 52.354 L
480.814 52.354 L
480.814 52.354 L
480.814 52.354 L
480.814 52.354 L
480.814 52.354 L
480.814 52.354 L
480.814 52.354 L
480.814 52.354 L
480.814 52.354 L
480.814 52.354 L
480.814 52.354 L
480.814 52.354 L
480.814 52.354 L
480.814 52.354 L
480.814 52.354 L
480.814 52.354 L
480.814 52.354 L
480.814 52.354 L
480.814 52.354 L
480.814 52.354 L
480.814 52.354 L
480.814 52.354 L
480.814 52.354 L
480.814 52.354 L
480.814 52.354 L
480.814 52.354 L
480.814 52.354 L
480.814 52.354 L
480.814 52.354 L
480.814 52.354 L
480.814 52.354 L
480.814 52.354 L
480.814 52.354 L
480.814 52.354 L
480.814 52.354 L
480.814 52.354 L
480.814 52.354 L
480.814 52.354 L
480.814 52.354 L
480.814 52.354 L
480.814 52.354 L
480.814 52.354 L
480.814 52.354 L
480.814 52.354 L
480.814 52.354 L
480.814 52.354 L
480.814 52.354 L
480.814 52.354 L
480.814 52.354 L
480.814 52.354 L
480.814 52.354 L
480.814 52.354 L
480.814 52.354 L
480.814 52.354 L
480.814 52.354 L
480.814 52.354 L
480.814 52.354 L
480.814 52.354 L
480.814 52.354 L
480.814 52.354 L
480.814 52.354 L
480.814 52.354 L
480.814 52.354 L
480.814 52.354 L
480.814 52.354 L
480.814 52.354 L
480.814 52.354 L
480.814 52.354 L
480.814 52.354 L
480.814 52.354 L
480.814 52.354 L
480.814 52.354 L
480.814 52.354 L
480.814 52.354 L
480.814 52.354 L
480.814 52.354 L
480.814 52.354 L
480.814 52.354 L
480.814 52.354 L
480.814 52.354 L
507 39 L
S
GR
GS
[12 12] 0 setdash
2 LJ
3 LW
N
76.004 351 M
76.004 351 L
76.004 351 L
76.004 351 L
76.004 351 L
76.004 351 L
76.004 351 L
76.004 351 L
76.004 351 L
76.004 351 L
76.004 351 L
76.004 351 L
76.004 351 L
76.004 351 L
76.004 351 L
76.004 351 L
76.008 351 L
76.008 351 L
76.008 351 L
76.008 351 L
76.008 351 L
76.012 351 L
76.012 350.804 L
76.016 350.608 L
76.016 350.412 L
76.016 350.217 L
76.016 350.217 L
76.02 350.021 L
76.02 349.825 L
76.02 349.433 L
76.024 349.433 L
76.032 348.846 L
76.032 348.846 L
76.032 348.846 L
76.032 348.454 L
76.032 348.062 L
76.032 347.67 L
76.032 347.67 L
76.032 347.67 L
76.036 347.279 L
76.04 346.887 L
76.04 346.104 L
76.04 345.516 L
76.04 344.733 L
76.04 343.753 L
76.044 343.753 L
76.044 343.362 L
76.048 342.97 L
76.048 342.382 L
76.048 341.795 L
76.048 341.207 L
76.052 340.424 L
76.052 340.228 L
76.052 339.836 L
76.052 339.64 L
76.052 339.053 L
76.052 338.465 L
76.052 337.878 L
76.063 336.702 L
76.063 336.311 L
76.067 334.744 L
76.067 333.96 L
76.071 333.373 L
76.071 332.589 L
76.075 332.394 L
76.075 331.806 L
76.075 331.023 L
76.075 330.043 L
76.079 329.456 L
76.083 327.497 L
76.091 326.714 L
76.091 325.93 L
76.091 324.755 L
76.091 324.363 L
76.091 323.776 L
76.095 322.209 L
76.103 322.013 L
76.103 321.621 L
76.103 321.426 L
76.103 320.838 L
76.103 319.467 L
76.123 318.879 L
76.131 317.508 L
76.135 316.529 L
76.147 315.55 L
76.147 314.571 L
76.147 313.787 L
76.159 313.395 L
76.159 312.808 L
76.159 311.437 L
76.167 310.653 L
76.175 309.478 L
76.175 308.695 L
76.175 307.716 L
76.175 306.736 L
76.178 305.757 L
76.182 304.778 L
76.182 304.19 L
76.182 303.798 L
76.182 302.623 L
76.186 302.427 L
76.186 300.469 L
76.194 299.294 L
76.198 297.923 L
76.202 295.964 L
76.202 295.181 L
76.214 293.81 L
76.226 292.831 L
76.226 291.655 L
76.226 290.872 L
76.23 290.089 L
76.238 288.913 L
76.242 287.738 L
76.246 287.738 L
76.246 286.563 L
76.246 286.171 L
76.258 284.605 L
76.262 284.017 L
76.27 283.038 L
76.27 281.471 L
76.27 280.687 L
76.274 280.1 L
76.282 279.316 L
76.282 278.337 L
76.29 277.945 L
76.293 277.358 L
76.297 277.162 L
76.297 276.574 L
76.301 275.595 L
76.301 274.616 L
76.313 272.853 L
76.317 272.266 L
76.317 271.678 L
76.321 270.111 L
76.329 269.328 L
76.341 268.74 L
76.353 267.369 L
76.361 265.802 L
76.361 264.823 L
76.369 264.235 L
76.377 262.864 L
76.377 261.689 L
76.381 260.71 L
76.389 259.535 L
76.397 258.556 L
76.397 257.576 L
76.401 257.38 L
76.401 256.009 L
76.405 255.226 L
76.409 254.247 L
76.412 252.288 L
76.412 251.113 L
76.416 250.134 L
76.42 248.763 L
76.428 247.196 L
76.428 246.608 L
76.428 243.866 L
76.428 242.887 L
76.436 242.104 L
76.444 240.537 L
76.448 240.145 L
76.452 239.166 L
76.452 237.599 L
76.456 236.815 L
76.456 236.032 L
76.46 235.64 L
76.464 234.465 L
76.464 233.682 L
76.468 232.311 L
76.472 231.919 L
76.472 230.548 L
76.476 229.765 L
76.48 228.785 L
76.48 227.806 L
76.48 227.023 L
76.492 226.043 L
76.492 224.868 L
76.492 223.693 L
76.496 222.518 L
76.496 222.322 L
76.5 221.147 L
76.5 220.559 L
76.504 219.776 L
76.504 218.209 L
76.52 217.23 L
76.524 216.446 L
76.528 215.663 L
76.539 214.292 L
76.539 213.508 L
76.547 212.333 L
76.547 211.746 L
76.551 211.158 L
76.551 210.375 L
76.567 209.395 L
76.567 208.612 L
76.575 208.612 L
76.579 207.633 L
76.579 206.458 L
76.587 205.87 L
76.595 205.674 L
76.603 205.087 L
76.603 203.52 L
76.611 202.345 L
76.611 201.169 L
76.635 200.778 L
76.646 200.19 L
76.658 199.015 L
76.666 198.623 L
76.674 197.252 L
76.682 196.665 L
76.682 196.273 L
76.698 195.294 L
76.706 195.294 L
76.718 195.098 L
76.738 194.119 L
76.754 193.139 L
76.762 192.944 L
76.765 192.356 L
76.781 191.768 L
76.809 191.181 L
76.817 190.789 L
76.857 190.202 L
76.873 189.222 L
76.896 188.439 L
76.92 187.264 L
76.94 186.089 L
76.956 185.893 L
76.964 185.109 L
76.972 184.913 L
76.98 184.718 L
76.992 184.326 L
77.019 183.738 L
77.039 183.542 L
77.067 183.151 L
77.087 182.367 L
77.111 181.78 L
77.158 180.8 L
77.19 180.213 L
77.222 179.625 L
77.261 178.842 L
77.281 178.058 L
77.321 178.058 L
77.341 177.863 L
77.372 177.667 L
77.42 177.275 L
77.467 176.883 L
77.531 175.316 L
77.559 173.945 L
77.622 173.358 L
77.658 172.183 L
77.713 171.008 L
77.773 170.616 L
77.848 170.42 L
77.888 169.832 L
77.983 168.657 L
78.047 167.286 L
78.142 166.699 L
78.229 166.307 L
78.332 165.719 L
78.431 165.132 L
78.519 164.936 L
78.626 164.74 L
78.737 163.957 L
78.872 163.565 L
78.951 162.977 L
79.078 162.39 L
79.209 161.606 L
79.351 161.019 L
79.51 159.452 L
79.645 159.256 L
79.808 158.669 L
79.966 158.473 L
80.125 157.885 L
80.299 157.102 L
80.454 156.906 L
80.613 156.122 L
80.819 155.143 L
80.978 154.947 L
81.196 154.556 L
81.378 153.772 L
81.632 153.38 L
81.83 152.989 L
82.056 152.793 L
82.274 152.205 L
82.493 151.226 L
82.798 150.051 L
83.068 149.855 L
83.322 149.267 L
83.615 148.876 L
83.893 148.68 L
84.277 148.288 L
84.686 148.092 L
85.047 147.505 L
85.348 146.917 L
85.662 146.525 L
85.983 145.938 L
86.28 145.742 L
86.721 145.35 L
87.173 143.979 L
87.641 143 L
88.073 142.804 L
88.553 142.412 L
89.001 141.433 L
89.552 141.237 L
90.016 140.65 L
90.516 139.866 L
91.103 139.475 L
91.722 138.691 L
92.245 138.495 L
92.888 138.104 L
93.463 137.712 L
94.209 137.712 L
94.935 136.733 L
95.553 136.733 L
96.275 136.733 L
96.945 136.537 L
97.758 135.753 L
98.472 135.362 L
99.313 135.362 L
100.031 135.362 L
100.884 134.774 L
101.76 134.774 L
102.788 134.382 L
103.676 133.991 L
104.592 133.011 L
105.52 132.62 L
106.615 131.64 L
107.682 131.64 L
108.717 130.465 L
109.843 130.073 L
110.847 130.073 L
111.898 129.486 L
113.104 129.094 L
114.297 129.094 L
115.463 129.094 L
116.641 128.702 L
117.95 128.507 L
119.156 127.919 L
120.489 127.723 L
121.956 127.527 L
123.352 127.136 L
124.716 126.548 L
126.192 125.765 L
127.505 125.569 L
128.984 124.981 L
130.519 124.589 L
132.102 123.806 L
133.601 123.218 L
135.219 122.827 L
136.924 122.631 L
138.669 122.239 L
140.383 121.652 L
141.934 121.064 L
143.607 120.868 L
145.408 120.085 L
147.181 119.497 L
149.093 119.105 L
150.881 118.518 L
152.761 117.734 L
154.705 117.539 L
156.66 116.951 L
158.552 116.168 L
160.642 115.972 L
162.693 115.58 L
164.739 114.992 L
166.821 114.992 L
168.904 114.601 L
171.137 114.405 L
173.306 113.621 L
175.416 112.446 L
177.776 112.055 L
179.918 111.663 L
182.024 111.663 L
184.197 110.879 L
186.791 110.684 L
189 110.488 L
191.32 109.704 L
193.827 109.508 L
196.167 109.508 L
198.527 108.725 L
200.772 108.529 L
203.076 107.942 L
205.527 107.942 L
207.927 107.55 L
210.334 107.158 L
212.805 106.571 L
215.201 106.375 L
217.906 105.787 L
220.21 105.591 L
222.661 105.2 L
225.184 104.612 L
227.694 104.22 L
230.205 104.024 L
232.846 103.633 L
235.412 103.437 L
237.978 102.849 L
240.489 102.849 L
243.107 102.849 L
245.617 102.653 L
248.12 102.458 L
250.52 102.458 L
253.339 102.066 L
255.874 101.478 L
258.599 101.087 L
261.117 101.087 L
263.723 100.303 L
266.333 100.303 L
268.982 100.303 L
271.512 100.107 L
274.087 99.911 L
276.561 99.52 L
278.961 99.52 L
281.535 99.324 L
283.907 99.128 L
286.437 99.128 L
288.825 98.932 L
291.395 98.736 L
293.917 98.736 L
296.285 98.345 L
298.693 98.345 L
301.112 97.953 L
303.567 97.757 L
305.931 97.757 L
308.243 96.974 L
310.686 96.582 L
313.133 96.582 L
315.501 96.386 L
317.885 96.386 L
320.126 95.994 L
322.537 95.799 L
324.723 95.799 L
326.936 95.799 L
329.216 95.603 L
331.362 95.407 L
333.516 95.211 L
335.899 95.211 L
338.089 94.623 L
340.135 94.623 L
342.194 94.427 L
344.252 94.036 L
346.283 93.84 L
348.401 93.644 L
350.59 93.448 L
352.7 93.252 L
354.588 92.665 L
356.555 92.469 L
358.372 92.469 L
360.236 92.469 L
361.937 92.469 L
363.869 92.077 L
365.65 92.077 L
367.395 92.077 L
369.132 91.881 L
370.833 91.49 L
372.511 91.49 L
373.951 91.49 L
375.573 91.49 L
377.068 91.49 L
378.762 91.294 L
380.316 91.098 L
381.863 91.098 L
383.374 90.902 L
384.866 90.902 L
386.333 90.706 L
387.713 90.706 L
388.998 90.706 L
390.315 90.706 L
391.624 90.706 L
392.842 90.51 L
394.194 90.51 L
395.412 90.314 L
396.606 90.314 L
397.748 90.314 L
399.013 90.119 L
400.151 89.923 L
401.163 89.923 L
402.261 89.923 L
403.273 89.923 L
404.336 89.923 L
405.363 89.923 L
406.461 89.727 L
407.334 89.727 L
408.286 89.531 L
409.083 89.335 L
409.944 89.335 L
410.808 89.139 L
411.733 88.943 L
412.629 88.943 L
413.434 88.943 L
414.223 88.943 L
415.064 88.943 L
415.77 88.748 L
416.46 88.552 L
417.238 88.356 L
417.991 88.16 L
418.657 87.964 L
419.229 87.768 L
419.867 87.768 L
420.581 87.573 L
421.164 87.573 L
421.763 87.573 L
422.366 87.573 L
422.949 87.573 L
423.464 86.985 L
423.96 86.985 L
424.46 86.789 L
424.952 86.397 L
425.44 86.397 L
425.896 86.397 L
426.356 86.397 L
426.764 86.397 L
427.161 86.397 L
427.546 86.397 L
427.883 86.397 L
428.236 86.397 L
428.605 86.397 L
429.025 86.202 L
429.398 86.202 L
429.743 86.202 L
430.124 86.202 L
430.437 86.006 L
430.683 86.006 L
430.933 86.006 L
431.199 86.006 L
431.516 85.81 L
431.77 85.81 L
432.119 85.614 L
432.369 85.418 L
432.531 85.418 L
432.833 85.418 L
432.999 85.418 L
433.193 85.418 L
433.388 85.418 L
433.57 85.418 L
433.777 85.418 L
433.927 85.418 L
434.11 85.418 L
434.268 85.222 L
434.415 85.222 L
434.578 85.026 L
434.697 85.026 L
434.895 85.026 L
435.062 85.026 L
435.22 85.026 L
435.371 85.026 L
435.49 85.026 L
435.609 84.831 L
435.732 84.635 L
435.851 84.635 L
435.962 84.635 L
436.061 84.635 L
436.18 84.635 L
436.295 84.635 L
436.378 84.635 L
436.47 84.635 L
436.565 84.635 L
436.632 84.635 L
436.7 84.635 L
436.767 84.635 L
436.834 84.635 L
436.918 84.635 L
436.993 84.635 L
437.041 84.635 L
437.12 84.635 L
437.168 84.635 L
437.231 84.635 L
437.283 84.635 L
437.318 84.635 L
437.378 84.635 L
437.441 84.635 L
437.497 84.635 L
437.54 84.635 L
437.608 84.635 L
437.647 84.635 L
437.699 84.635 L
437.731 84.635 L
437.774 84.635 L
437.806 84.635 L
437.85 84.439 L
437.882 84.243 L
437.917 84.243 L
437.957 84.047 L
437.977 84.047 L
438.012 84.047 L
438.052 84.047 L
438.088 84.047 L
438.112 84.047 L
438.147 84.047 L
438.167 84.047 L
438.195 83.851 L
438.227 83.851 L
438.254 83.851 L
438.278 83.851 L
438.302 83.851 L
438.318 83.851 L
438.35 83.851 L
438.357 83.851 L
438.369 83.851 L
438.389 83.851 L
438.417 83.851 L
438.433 83.851 L
438.461 83.851 L
438.469 83.851 L
438.488 83.851 L
438.492 83.851 L
438.504 83.851 L
438.512 83.851 L
438.528 83.851 L
438.544 83.851 L
438.564 83.851 L
438.595 83.851 L
438.595 83.851 L
438.599 83.851 L
438.607 83.851 L
438.619 83.851 L
438.631 83.851 L
438.643 83.851 L
438.647 83.851 L
438.663 83.851 L
438.667 83.851 L
438.679 83.851 L
438.699 83.851 L
438.706 83.851 L
438.722 83.851 L
438.722 83.851 L
438.73 83.851 L
438.734 83.851 L
438.742 83.851 L
438.746 83.851 L
438.746 83.851 L
438.746 83.851 L
438.746 83.851 L
438.746 83.851 L
438.75 83.851 L
438.75 83.851 L
438.75 83.851 L
438.758 83.851 L
438.758 83.851 L
438.762 83.851 L
438.766 83.851 L
438.77 83.851 L
438.77 83.851 L
438.774 83.851 L
438.774 83.851 L
438.778 83.851 L
438.778 83.851 L
438.786 83.851 L
438.79 83.851 L
438.806 83.851 L
438.81 83.851 L
438.81 83.851 L
438.81 83.851 L
438.818 83.851 L
438.818 83.851 L
438.818 83.851 L
438.822 83.851 L
438.822 83.851 L
438.822 83.851 L
438.822 83.851 L
438.822 83.851 L
438.825 83.851 L
438.825 83.851 L
438.829 83.851 L
438.833 83.851 L
438.833 83.851 L
438.833 83.851 L
438.837 83.851 L
438.841 83.851 L
438.841 83.851 L
438.841 83.851 L
438.841 83.851 L
438.841 83.851 L
438.841 83.851 L
438.841 83.851 L
438.841 83.851 L
438.841 83.851 L
438.841 83.851 L
438.841 83.851 L
438.845 83.851 L
438.845 83.851 L
438.845 83.851 L
438.845 83.851 L
438.849 83.851 L
438.853 83.851 L
438.853 83.851 L
438.853 83.851 L
438.853 83.851 L
438.853 83.851 L
438.857 83.851 L
438.857 83.851 L
438.861 83.851 L
438.861 83.851 L
438.861 83.851 L
438.861 83.851 L
438.861 83.851 L
438.861 83.851 L
438.861 83.851 L
438.861 83.851 L
438.865 83.851 L
438.865 83.851 L
438.869 83.851 L
438.869 83.851 L
438.869 83.851 L
438.869 83.851 L
438.869 83.851 L
438.869 83.851 L
438.869 83.851 L
438.869 83.851 L
438.869 83.851 L
438.869 83.851 L
438.869 83.851 L
438.869 83.851 L
438.869 83.851 L
438.869 83.851 L
438.869 83.851 L
438.869 83.851 L
438.869 83.851 L
438.869 83.851 L
438.869 83.851 L
438.869 83.851 L
438.869 83.851 L
438.869 83.851 L
438.869 83.851 L
438.869 83.851 L
438.869 83.851 L
438.869 83.851 L
438.869 83.851 L
438.869 83.851 L
438.869 83.851 L
438.869 83.851 L
438.869 83.851 L
438.869 83.851 L
438.869 83.851 L
438.869 83.851 L
438.869 83.851 L
438.869 83.851 L
438.869 83.851 L
438.869 83.851 L
438.869 83.851 L
438.869 83.851 L
438.869 83.851 L
438.869 83.851 L
438.869 83.851 L
438.869 83.851 L
438.869 83.851 L
438.869 83.851 L
438.869 83.851 L
438.869 83.851 L
438.869 83.851 L
438.869 83.851 L
438.869 83.851 L
438.869 83.851 L
438.869 83.851 L
438.869 83.851 L
438.869 83.851 L
438.869 83.851 L
438.869 83.851 L
438.869 83.851 L
438.869 83.851 L
438.869 83.851 L
438.869 83.851 L
438.869 83.851 L
438.869 83.851 L
438.869 83.851 L
438.869 83.851 L
438.869 83.851 L
438.869 83.851 L
438.869 83.851 L
438.869 83.851 L
438.869 83.851 L
438.869 83.851 L
438.869 83.851 L
438.869 83.851 L
438.869 83.851 L
438.869 83.851 L
438.869 83.851 L
438.869 83.851 L
438.869 83.851 L
438.869 83.851 L
438.869 83.851 L
438.869 83.851 L
438.869 83.851 L
438.869 83.851 L
438.869 83.851 L
438.869 83.851 L
438.869 83.851 L
438.869 83.851 L
438.869 83.851 L
438.869 83.851 L
438.869 83.851 L
438.869 83.851 L
438.869 83.851 L
438.869 83.851 L
438.869 83.851 L
438.869 83.851 L
438.869 83.851 L
438.869 83.851 L
438.869 83.851 L
438.869 83.851 L
438.869 83.851 L
438.869 83.851 L
438.869 83.851 L
438.869 83.851 L
438.869 83.851 L
438.869 83.851 L
438.869 83.851 L
438.869 83.851 L
438.869 83.851 L
438.869 83.851 L
438.869 83.851 L
438.869 83.851 L
438.869 83.851 L
438.869 83.851 L
438.869 83.851 L
438.869 83.851 L
438.869 83.851 L
438.869 83.851 L
438.869 83.851 L
438.869 83.851 L
438.869 83.851 L
438.869 83.851 L
438.869 83.851 L
438.869 83.851 L
438.869 83.851 L
438.869 83.851 L
438.869 83.851 L
438.869 83.851 L
438.869 83.851 L
438.869 83.851 L
438.869 83.851 L
438.869 83.851 L
438.869 83.851 L
438.869 83.851 L
438.869 83.851 L
438.869 83.851 L
438.869 83.851 L
438.869 83.851 L
438.869 83.851 L
438.869 83.851 L
438.869 83.851 L
438.869 83.851 L
438.869 83.851 L
438.869 83.851 L
438.869 83.851 L
438.869 83.851 L
438.869 83.851 L
438.869 83.851 L
438.869 83.851 L
438.869 83.851 L
438.869 83.851 L
438.869 83.851 L
438.869 83.851 L
438.869 83.851 L
438.869 83.851 L
438.869 83.851 L
438.869 83.851 L
438.869 83.851 L
438.869 83.851 L
438.869 83.851 L
438.869 83.851 L
438.869 83.851 L
438.869 83.851 L
438.869 83.851 L
438.869 83.851 L
438.869 83.851 L
438.869 83.851 L
438.869 83.851 L
438.869 83.851 L
438.869 83.851 L
438.869 83.851 L
438.869 83.851 L
438.869 83.851 L
438.869 83.851 L
438.869 83.851 L
438.869 83.851 L
438.869 83.851 L
438.869 83.851 L
438.869 83.851 L
438.869 83.851 L
438.869 83.851 L
438.869 83.851 L
438.869 83.851 L
438.869 83.851 L
438.869 83.851 L
438.869 83.851 L
438.869 83.851 L
438.869 83.851 L
438.869 83.851 L
438.869 83.851 L
438.869 83.851 L
438.869 83.851 L
438.869 83.851 L
438.869 83.851 L
438.869 83.851 L
438.869 83.851 L
438.869 83.851 L
438.869 83.851 L
438.869 83.851 L
438.869 83.851 L
438.869 83.851 L
438.869 83.851 L
438.869 83.851 L
438.869 83.851 L
438.869 83.851 L
438.869 83.851 L
438.869 83.851 L
438.869 83.851 L
438.869 83.851 L
438.869 83.851 L
438.869 83.851 L
438.869 83.851 L
438.869 83.851 L
438.869 83.851 L
438.869 83.851 L
438.869 83.851 L
438.869 83.851 L
438.869 83.851 L
438.869 83.851 L
438.869 83.851 L
438.869 83.851 L
438.869 83.851 L
438.869 83.851 L
438.869 83.851 L
438.869 83.851 L
438.869 83.851 L
438.869 83.851 L
438.869 83.851 L
438.869 83.851 L
438.869 83.851 L
438.869 83.851 L
438.869 83.851 L
438.869 83.851 L
438.869 83.851 L
438.869 83.851 L
438.869 83.851 L
438.869 83.851 L
438.869 83.851 L
438.869 83.851 L
438.869 83.851 L
438.869 83.851 L
438.869 83.851 L
438.869 83.851 L
438.869 83.851 L
438.869 83.851 L
438.869 83.851 L
438.869 83.851 L
438.869 83.851 L
438.869 83.851 L
438.869 83.851 L
438.869 83.851 L
438.869 83.851 L
438.869 83.851 L
438.869 83.851 L
438.869 83.851 L
438.869 83.851 L
438.869 83.851 L
438.869 83.851 L
438.869 83.851 L
438.869 83.851 L
438.869 83.851 L
438.869 83.851 L
438.869 83.851 L
438.869 83.851 L
438.869 83.851 L
438.869 83.851 L
438.869 83.851 L
438.869 83.851 L
438.869 83.851 L
438.869 83.851 L
438.869 83.851 L
438.869 83.851 L
438.869 83.851 L
438.869 83.851 L
438.869 83.851 L
438.869 83.851 L
438.869 83.851 L
438.869 83.851 L
438.869 83.851 L
438.869 83.851 L
438.869 83.851 L
438.869 83.851 L
438.869 83.851 L
438.869 83.851 L
438.869 83.851 L
438.869 83.851 L
438.869 83.851 L
438.869 83.851 L
438.869 83.851 L
438.869 83.851 L
438.869 83.851 L
438.869 83.851 L
438.869 83.851 L
438.869 83.851 L
438.869 83.851 L
438.869 83.851 L
438.869 83.851 L
438.869 83.851 L
438.869 83.851 L
438.869 83.851 L
438.869 83.851 L
507 39 L
S
GR
GS
[1 0 0 1 338.91 216.84] CT
/Helvetica 24 F
GS
[1 0 0 1 0 0] CT
0 8.5 moveto 
1 -1 scale
(EER line) t 
GR
GR
GS
[10 6] 0 setdash
2 LJ
0.5 LW
N
507 351 M
76 39 L
S
GR
GS
1 GC
N
497 341 M
497 249 L
132 249 L
132 341 L
cp
f
GR
GS
[1 0 0 1 169 265.5] CT
/Helvetica 24 F
GS
[1 0 0 1 0 0] CT
0 8.5 moveto 
1 -1 scale
(NIR images, EER = 0.20) t 
GR
GR
GS
0 0 1 RC
1 LJ
3 LW
N
136 265.5 M
166 265.5 L
S
GR
GS
[1 0 0 1 169 295] CT
/Helvetica 24 F
GS
[1 0 0 1 0 0] CT
0 8.5 moveto 
1 -1 scale
(R images, EER = 0.07) t 
GR
GR
GS
1 0 0 RC
1 LJ
3 LW
N
136 295 M
166 295 L
S
GR
GS
[1 0 0 1 169 324.5] CT
/Helvetica 24 F
GS
[1 0 0 1 0 0] CT
0 8.5 moveto 
1 -1 scale
(cross-wavelength, EER = 0.24) t 
GR
GR
GS
[12 12] 0 setdash
2 LJ
3 LW
N
136 324.5 M
166 324.5 L
S
GR
GS
0.149 GC
10.0 ML
0.5 LW
N
132 341 M
132 249 L
497 249 L
497 341 L
cp
S
GR
%%Trailer
%%Pages: 1
%%EOF
