%!PS-Adobe-3.0 EPSF-3.0
%%Creator: (MATLAB, The Mathworks, Inc. Version 9.3.0.713579 \(R2017b\). Operating System: Mac OS X)
%%Title: ./shortTerm_OSIRIS_manual.eps
%%CreationDate: 2018-02-16T14:13:59
%%Pages: (atend)
%%BoundingBox:     7     5   509   414
%%LanguageLevel: 3
%%EndComments
%%BeginProlog
%%BeginResource: procset (Apache XML Graphics Std ProcSet) 1.2 0
%%Version: 1.2 0
%%Copyright: (Copyright 2001-2003,2010 The Apache Software Foundation. License terms: http://www.apache.org/licenses/LICENSE-2.0)
/bd{bind def}bind def
/ld{load def}bd
/GR/grestore ld
/GS/gsave ld
/RM/rmoveto ld
/C/curveto ld
/t/show ld
/L/lineto ld
/ML/setmiterlimit ld
/CT/concat ld
/f/fill ld
/N/newpath ld
/S/stroke ld
/CC/setcmykcolor ld
/A/ashow ld
/cp/closepath ld
/RC/setrgbcolor ld
/LJ/setlinejoin ld
/GC/setgray ld
/LW/setlinewidth ld
/M/moveto ld
/re {4 2 roll M
1 index 0 rlineto
0 exch rlineto
neg 0 rlineto
cp } bd
/_ctm matrix def
/_tm matrix def
/BT { _ctm currentmatrix pop matrix _tm copy pop 0 0 moveto } bd
/ET { _ctm setmatrix } bd
/iTm { _ctm setmatrix _tm concat } bd
/Tm { _tm astore pop iTm 0 0 moveto } bd
/ux 0.0 def
/uy 0.0 def
/F {
  /Tp exch def
  /Tf exch def
  Tf findfont Tp scalefont setfont
  /cf Tf def  /cs Tp def
} bd
/ULS {currentpoint /uy exch def /ux exch def} bd
/ULE {
  /Tcx currentpoint pop def
  gsave
  newpath
  cf findfont cs scalefont dup
  /FontMatrix get 0 get /Ts exch def /FontInfo get dup
  /UnderlinePosition get Ts mul /To exch def
  /UnderlineThickness get Ts mul /Tt exch def
  ux uy To add moveto  Tcx uy To add lineto
  Tt setlinewidth stroke
  grestore
} bd
/OLE {
  /Tcx currentpoint pop def
  gsave
  newpath
  cf findfont cs scalefont dup
  /FontMatrix get 0 get /Ts exch def /FontInfo get dup
  /UnderlinePosition get Ts mul /To exch def
  /UnderlineThickness get Ts mul /Tt exch def
  ux uy To add cs add moveto Tcx uy To add cs add lineto
  Tt setlinewidth stroke
  grestore
} bd
/SOE {
  /Tcx currentpoint pop def
  gsave
  newpath
  cf findfont cs scalefont dup
  /FontMatrix get 0 get /Ts exch def /FontInfo get dup
  /UnderlinePosition get Ts mul /To exch def
  /UnderlineThickness get Ts mul /Tt exch def
  ux uy To add cs 10 mul 26 idiv add moveto Tcx uy To add cs 10 mul 26 idiv add lineto
  Tt setlinewidth stroke
  grestore
} bd
/QT {
/Y22 exch store
/X22 exch store
/Y21 exch store
/X21 exch store
currentpoint
/Y21 load 2 mul add 3 div exch
/X21 load 2 mul add 3 div exch
/X21 load 2 mul /X22 load add 3 div
/Y21 load 2 mul /Y22 load add 3 div
/X22 load /Y22 load curveto
} bd
/SSPD {
dup length /d exch dict def
{
/v exch def
/k exch def
currentpagedevice k known {
/cpdv currentpagedevice k get def
v cpdv ne {
/upd false def
/nullv v type /nulltype eq def
/nullcpdv cpdv type /nulltype eq def
nullv nullcpdv or
{
/upd true def
} {
/sametype v type cpdv type eq def
sametype {
v type /arraytype eq {
/vlen v length def
/cpdvlen cpdv length def
vlen cpdvlen eq {
0 1 vlen 1 sub {
/i exch def
/obj v i get def
/cpdobj cpdv i get def
obj cpdobj ne {
/upd true def
exit
} if
} for
} {
/upd true def
} ifelse
} {
v type /dicttype eq {
v {
/dv exch def
/dk exch def
/cpddv cpdv dk get def
dv cpddv ne {
/upd true def
exit
} if
} forall
} {
/upd true def
} ifelse
} ifelse
} if
} ifelse
upd true eq {
d k v put
} if
} if
} if
} forall
d length 0 gt {
d setpagedevice
} if
} bd
/RE { % /NewFontName [NewEncodingArray] /FontName RE -
  findfont dup length dict begin
  {
    1 index /FID ne
    {def} {pop pop} ifelse
  } forall
  /Encoding exch def
  /FontName 1 index def
  currentdict definefont pop
  end
} bind def
%%EndResource
%%BeginResource: procset (Apache XML Graphics EPS ProcSet) 1.0 0
%%Version: 1.0 0
%%Copyright: (Copyright 2002-2003 The Apache Software Foundation. License terms: http://www.apache.org/licenses/LICENSE-2.0)
/BeginEPSF { %def
/b4_Inc_state save def         % Save state for cleanup
/dict_count countdictstack def % Count objects on dict stack
/op_count count 1 sub def      % Count objects on operand stack
userdict begin                 % Push userdict on dict stack
/showpage { } def              % Redefine showpage, { } = null proc
0 setgray 0 setlinecap         % Prepare graphics state
1 setlinewidth 0 setlinejoin
10 setmiterlimit [ ] 0 setdash newpath
/languagelevel where           % If level not equal to 1 then
{pop languagelevel             % set strokeadjust and
1 ne                           % overprint to their defaults.
{false setstrokeadjust false setoverprint
} if
} if
} bd
/EndEPSF { %def
count op_count sub {pop} repeat            % Clean up stacks
countdictstack dict_count sub {end} repeat
b4_Inc_state restore
} bd
%%EndResource
%FOPBeginFontDict
%%IncludeResource: font Courier-Oblique
%%IncludeResource: font Courier-BoldOblique
%%IncludeResource: font Courier-Bold
%%IncludeResource: font ZapfDingbats
%%IncludeResource: font Symbol
%%IncludeResource: font Helvetica
%%IncludeResource: font Helvetica-Oblique
%%IncludeResource: font Helvetica-Bold
%%IncludeResource: font Helvetica-BoldOblique
%%IncludeResource: font Times-Roman
%%IncludeResource: font Times-Italic
%%IncludeResource: font Times-Bold
%%IncludeResource: font Times-BoldItalic
%%IncludeResource: font Courier
%FOPEndFontDict
%%BeginResource: encoding WinAnsiEncoding
/WinAnsiEncoding [
/.notdef /.notdef /.notdef /.notdef /.notdef
/.notdef /.notdef /.notdef /.notdef /.notdef
/.notdef /.notdef /.notdef /.notdef /.notdef
/.notdef /.notdef /.notdef /.notdef /.notdef
/.notdef /.notdef /.notdef /.notdef /.notdef
/.notdef /.notdef /.notdef /.notdef /.notdef
/.notdef /.notdef /space /exclam /quotedbl
/numbersign /dollar /percent /ampersand /quotesingle
/parenleft /parenright /asterisk /plus /comma
/hyphen /period /slash /zero /one
/two /three /four /five /six
/seven /eight /nine /colon /semicolon
/less /equal /greater /question /at
/A /B /C /D /E
/F /G /H /I /J
/K /L /M /N /O
/P /Q /R /S /T
/U /V /W /X /Y
/Z /bracketleft /backslash /bracketright /asciicircum
/underscore /quoteleft /a /b /c
/d /e /f /g /h
/i /j /k /l /m
/n /o /p /q /r
/s /t /u /v /w
/x /y /z /braceleft /bar
/braceright /asciitilde /bullet /Euro /bullet
/quotesinglbase /florin /quotedblbase /ellipsis /dagger
/daggerdbl /circumflex /perthousand /Scaron /guilsinglleft
/OE /bullet /Zcaron /bullet /bullet
/quoteleft /quoteright /quotedblleft /quotedblright /bullet
/endash /emdash /asciitilde /trademark /scaron
/guilsinglright /oe /bullet /zcaron /Ydieresis
/space /exclamdown /cent /sterling /currency
/yen /brokenbar /section /dieresis /copyright
/ordfeminine /guillemotleft /logicalnot /sfthyphen /registered
/macron /degree /plusminus /twosuperior /threesuperior
/acute /mu /paragraph /middot /cedilla
/onesuperior /ordmasculine /guillemotright /onequarter /onehalf
/threequarters /questiondown /Agrave /Aacute /Acircumflex
/Atilde /Adieresis /Aring /AE /Ccedilla
/Egrave /Eacute /Ecircumflex /Edieresis /Igrave
/Iacute /Icircumflex /Idieresis /Eth /Ntilde
/Ograve /Oacute /Ocircumflex /Otilde /Odieresis
/multiply /Oslash /Ugrave /Uacute /Ucircumflex
/Udieresis /Yacute /Thorn /germandbls /agrave
/aacute /acircumflex /atilde /adieresis /aring
/ae /ccedilla /egrave /eacute /ecircumflex
/edieresis /igrave /iacute /icircumflex /idieresis
/eth /ntilde /ograve /oacute /ocircumflex
/otilde /odieresis /divide /oslash /ugrave
/uacute /ucircumflex /udieresis /yacute /thorn
/ydieresis
] def
%%EndResource
%FOPBeginFontReencode
/Courier-Oblique findfont
dup length dict begin
  {1 index /FID ne {def} {pop pop} ifelse} forall
  /Encoding WinAnsiEncoding def
  currentdict
end
/Courier-Oblique exch definefont pop
/Courier-BoldOblique findfont
dup length dict begin
  {1 index /FID ne {def} {pop pop} ifelse} forall
  /Encoding WinAnsiEncoding def
  currentdict
end
/Courier-BoldOblique exch definefont pop
/Courier-Bold findfont
dup length dict begin
  {1 index /FID ne {def} {pop pop} ifelse} forall
  /Encoding WinAnsiEncoding def
  currentdict
end
/Courier-Bold exch definefont pop
/Helvetica findfont
dup length dict begin
  {1 index /FID ne {def} {pop pop} ifelse} forall
  /Encoding WinAnsiEncoding def
  currentdict
end
/Helvetica exch definefont pop
/Helvetica-Oblique findfont
dup length dict begin
  {1 index /FID ne {def} {pop pop} ifelse} forall
  /Encoding WinAnsiEncoding def
  currentdict
end
/Helvetica-Oblique exch definefont pop
/Helvetica-Bold findfont
dup length dict begin
  {1 index /FID ne {def} {pop pop} ifelse} forall
  /Encoding WinAnsiEncoding def
  currentdict
end
/Helvetica-Bold exch definefont pop
/Helvetica-BoldOblique findfont
dup length dict begin
  {1 index /FID ne {def} {pop pop} ifelse} forall
  /Encoding WinAnsiEncoding def
  currentdict
end
/Helvetica-BoldOblique exch definefont pop
/Times-Roman findfont
dup length dict begin
  {1 index /FID ne {def} {pop pop} ifelse} forall
  /Encoding WinAnsiEncoding def
  currentdict
end
/Times-Roman exch definefont pop
/Times-Italic findfont
dup length dict begin
  {1 index /FID ne {def} {pop pop} ifelse} forall
  /Encoding WinAnsiEncoding def
  currentdict
end
/Times-Italic exch definefont pop
/Times-Bold findfont
dup length dict begin
  {1 index /FID ne {def} {pop pop} ifelse} forall
  /Encoding WinAnsiEncoding def
  currentdict
end
/Times-Bold exch definefont pop
/Times-BoldItalic findfont
dup length dict begin
  {1 index /FID ne {def} {pop pop} ifelse} forall
  /Encoding WinAnsiEncoding def
  currentdict
end
/Times-BoldItalic exch definefont pop
/Courier findfont
dup length dict begin
  {1 index /FID ne {def} {pop pop} ifelse} forall
  /Encoding WinAnsiEncoding def
  currentdict
end
/Courier exch definefont pop
%FOPEndFontReencode
%%EndProlog
%%Page: 1 1
%%PageBoundingBox: 0 0 560 420
%%BeginPageSetup
[1 0 0 -1 0 420] CT
%%EndPageSetup
GS
1 GC
N
0 0 560 420 re
f
GR
GS
1 GC
N
0 0 560 420 re
f
GR
GS
1 GC
N
76 351 M
507 351 L
507 39 L
76 39 L
cp
f
GR
GS
0.873 GC
1 LJ
0.5 LW
N
76 351 M
76 39 L
S
GR
GS
0.873 GC
1 LJ
0.5 LW
N
162.2 351 M
162.2 39 L
S
GR
GS
0.873 GC
1 LJ
0.5 LW
N
248.4 351 M
248.4 39 L
S
GR
GS
0.873 GC
1 LJ
0.5 LW
N
334.6 351 M
334.6 39 L
S
GR
GS
0.873 GC
1 LJ
0.5 LW
N
420.8 351 M
420.8 39 L
S
GR
GS
0.873 GC
1 LJ
0.5 LW
N
507 351 M
507 39 L
S
GR
GS
0.873 GC
1 LJ
0.5 LW
N
507 351 M
76 351 L
S
GR
GS
0.873 GC
1 LJ
0.5 LW
N
507 288.6 M
76 288.6 L
S
GR
GS
0.873 GC
1 LJ
0.5 LW
N
507 226.2 M
76 226.2 L
S
GR
GS
0.873 GC
1 LJ
0.5 LW
N
507 163.8 M
76 163.8 L
S
GR
GS
0.873 GC
1 LJ
0.5 LW
N
507 101.4 M
76 101.4 L
S
GR
GS
0.873 GC
1 LJ
0.5 LW
N
507 39 M
76 39 L
S
GR
GS
0.149 GC
2 setlinecap
1 LJ
0.5 LW
N
76 351 M
507 351 L
S
GR
GS
0.149 GC
2 setlinecap
1 LJ
0.5 LW
N
76 39 M
507 39 L
S
GR
GS
0.149 GC
2 setlinecap
1 LJ
0.5 LW
N
76 351 M
76 346.69 L
S
GR
GS
0.149 GC
2 setlinecap
1 LJ
0.5 LW
N
162.2 351 M
162.2 346.69 L
S
GR
GS
0.149 GC
2 setlinecap
1 LJ
0.5 LW
N
248.4 351 M
248.4 346.69 L
S
GR
GS
0.149 GC
2 setlinecap
1 LJ
0.5 LW
N
334.6 351 M
334.6 346.69 L
S
GR
GS
0.149 GC
2 setlinecap
1 LJ
0.5 LW
N
420.8 351 M
420.8 346.69 L
S
GR
GS
0.149 GC
2 setlinecap
1 LJ
0.5 LW
N
507 351 M
507 346.69 L
S
GR
GS
0.149 GC
2 setlinecap
1 LJ
0.5 LW
N
76 39 M
76 43.31 L
S
GR
GS
0.149 GC
2 setlinecap
1 LJ
0.5 LW
N
162.2 39 M
162.2 43.31 L
S
GR
GS
0.149 GC
2 setlinecap
1 LJ
0.5 LW
N
248.4 39 M
248.4 43.31 L
S
GR
GS
0.149 GC
2 setlinecap
1 LJ
0.5 LW
N
334.6 39 M
334.6 43.31 L
S
GR
GS
0.149 GC
2 setlinecap
1 LJ
0.5 LW
N
420.8 39 M
420.8 43.31 L
S
GR
GS
0.149 GC
2 setlinecap
1 LJ
0.5 LW
N
507 39 M
507 43.31 L
S
GR
GS
[1 0 0 1 76 357.79999] CT
0.149 GC
/Helvetica 24 F
GS
[1 0 0 1 0 0] CT
-7 23 moveto 
1 -1 scale
(0) t 
GR
GR
GS
[1 0 0 1 162.2 357.79999] CT
0.149 GC
/Helvetica 24 F
GS
[1 0 0 1 0 0] CT
-17 23 moveto 
1 -1 scale
(0.2) t 
GR
GR
GS
[1 0 0 1 248.40001 357.79999] CT
0.149 GC
/Helvetica 24 F
GS
[1 0 0 1 0 0] CT
-17 23 moveto 
1 -1 scale
(0.4) t 
GR
GR
GS
[1 0 0 1 334.60001 357.79999] CT
0.149 GC
/Helvetica 24 F
GS
[1 0 0 1 0 0] CT
-17 23 moveto 
1 -1 scale
(0.6) t 
GR
GR
GS
[1 0 0 1 420.80002 357.79999] CT
0.149 GC
/Helvetica 24 F
GS
[1 0 0 1 0 0] CT
-17 23 moveto 
1 -1 scale
(0.8) t 
GR
GR
GS
[1 0 0 1 507 357.79999] CT
0.149 GC
/Helvetica 24 F
GS
[1 0 0 1 0 0] CT
-7 23 moveto 
1 -1 scale
(1) t 
GR
GR
GS
[1 0 0 1 291.50021 387.79999] CT
0.149 GC
/Helvetica 26.4 F
GS
[1 0 0 1 0 0] CT
-112.5 26 moveto 
1 -1 scale
(False Positive Rate) t 
GR
GR
GS
0.149 GC
2 setlinecap
1 LJ
0.5 LW
N
76 351 M
76 39 L
S
GR
GS
0.149 GC
2 setlinecap
1 LJ
0.5 LW
N
507 351 M
507 39 L
S
GR
GS
0.149 GC
2 setlinecap
1 LJ
0.5 LW
N
76 351 M
80.31 351 L
S
GR
GS
0.149 GC
2 setlinecap
1 LJ
0.5 LW
N
76 288.6 M
80.31 288.6 L
S
GR
GS
0.149 GC
2 setlinecap
1 LJ
0.5 LW
N
76 226.2 M
80.31 226.2 L
S
GR
GS
0.149 GC
2 setlinecap
1 LJ
0.5 LW
N
76 163.8 M
80.31 163.8 L
S
GR
GS
0.149 GC
2 setlinecap
1 LJ
0.5 LW
N
76 101.4 M
80.31 101.4 L
S
GR
GS
0.149 GC
2 setlinecap
1 LJ
0.5 LW
N
76 39 M
80.31 39 L
S
GR
GS
0.149 GC
2 setlinecap
1 LJ
0.5 LW
N
507 351 M
502.69 351 L
S
GR
GS
0.149 GC
2 setlinecap
1 LJ
0.5 LW
N
507 288.6 M
502.69 288.6 L
S
GR
GS
0.149 GC
2 setlinecap
1 LJ
0.5 LW
N
507 226.2 M
502.69 226.2 L
S
GR
GS
0.149 GC
2 setlinecap
1 LJ
0.5 LW
N
507 163.8 M
502.69 163.8 L
S
GR
GS
0.149 GC
2 setlinecap
1 LJ
0.5 LW
N
507 101.4 M
502.69 101.4 L
S
GR
GS
0.149 GC
2 setlinecap
1 LJ
0.5 LW
N
507 39 M
502.69 39 L
S
GR
GS
[1 0 0 1 69.2 351] CT
0.149 GC
/Helvetica 24 F
GS
[1 0 0 1 0 0] CT
-14 8.5 moveto 
1 -1 scale
(0) t 
GR
GR
GS
[1 0 0 1 69.2 288.60001] CT
0.149 GC
/Helvetica 24 F
GS
[1 0 0 1 0 0] CT
-34 8.5 moveto 
1 -1 scale
(0.2) t 
GR
GR
GS
[1 0 0 1 69.2 226.2] CT
0.149 GC
/Helvetica 24 F
GS
[1 0 0 1 0 0] CT
-34 8.5 moveto 
1 -1 scale
(0.4) t 
GR
GR
GS
[1 0 0 1 69.2 163.79999] CT
0.149 GC
/Helvetica 24 F
GS
[1 0 0 1 0 0] CT
-34 8.5 moveto 
1 -1 scale
(0.6) t 
GR
GR
GS
[1 0 0 1 69.2 101.39999] CT
0.149 GC
/Helvetica 24 F
GS
[1 0 0 1 0 0] CT
-34 8.5 moveto 
1 -1 scale
(0.8) t 
GR
GR
GS
[1 0 0 1 69.2 39] CT
0.149 GC
/Helvetica 24 F
GS
[1 0 0 1 0 0] CT
-14 8.5 moveto 
1 -1 scale
(1) t 
GR
GR
GS
[0 -1 1 0 32.2 194.99985] CT
0.149 GC
/Helvetica 26.4 F
GS
[1 0 0 1 0 0] CT
-108 -6 moveto 
1 -1 scale
(True Positive Rate) t 
GR
GR
GS
[1 0 0 1 291.50027 32.40001] CT
/Helvetica-Bold 26.4 F
GS
[1 0 0 1 0 0] CT
-191.5 -6 moveto 
1 -1 scale
(OSIRIS | manual segmentation) t 
GR
GR
GS
0 0 1 RC
1 LJ
3 LW
N
76 350.372 M
76 350.372 L
76 350.372 L
76 350.372 L
76 350.372 L
76 350.372 L
76 350.372 L
76 350.372 L
76 349.744 L
76 349.744 L
76 349.744 L
76 349.744 L
76 349.744 L
76 349.744 L
76 349.744 L
76 349.744 L
76 349.744 L
76 349.744 L
76 349.744 L
76 349.744 L
76 349.744 L
76 349.744 L
76 349.744 L
76 349.744 L
76 349.744 L
76 349.744 L
76 349.744 L
76 349.744 L
76 349.117 L
76 349.117 L
76 349.117 L
76 349.117 L
76 349.117 L
76 349.117 L
76 349.117 L
76 349.117 L
76 349.117 L
76 349.117 L
76 349.117 L
76 348.489 L
76 348.489 L
76 347.861 L
76 347.233 L
76 347.233 L
76 347.233 L
76 346.606 L
76 346.606 L
76 346.606 L
76 346.606 L
76 346.606 L
76 346.606 L
76 346.606 L
76 346.606 L
76 345.978 L
76 345.978 L
76 345.978 L
76 345.978 L
76 345.978 L
76 345.978 L
76 345.35 L
76 345.35 L
76 345.35 L
76 345.35 L
76 344.722 L
76 344.722 L
76 344.722 L
76 344.722 L
76 344.722 L
76 344.722 L
76 344.722 L
76 344.722 L
76 344.722 L
76 344.722 L
76 344.722 L
76 344.722 L
76 344.095 L
76 343.467 L
76 343.467 L
76 343.467 L
76 343.467 L
76 343.467 L
76 343.467 L
76 342.839 L
76 342.839 L
76 342.839 L
76 342.839 L
76 342.839 L
76 342.839 L
76 342.839 L
76 342.211 L
76 342.211 L
76 342.211 L
76 341.583 L
76 341.583 L
76 341.583 L
76 340.956 L
76 340.328 L
76 340.328 L
76 340.328 L
76 340.328 L
76 340.328 L
76 340.328 L
76 339.7 L
76 339.7 L
76 339.7 L
76 339.7 L
76 339.072 L
76 339.072 L
76 339.072 L
76 337.189 L
76 337.189 L
76 337.189 L
76 337.189 L
76 335.934 L
76 335.934 L
76 335.934 L
76 335.934 L
76 335.934 L
76 335.306 L
76 335.306 L
76 335.306 L
76 335.306 L
76 334.678 L
76 334.678 L
76 334.678 L
76 334.678 L
76 334.678 L
76 334.678 L
76 334.678 L
76 334.678 L
76 334.05 L
76 333.423 L
76 332.167 L
76 332.167 L
76 332.167 L
76 331.539 L
76 330.911 L
76 330.911 L
76 330.284 L
76 327.773 L
76 327.773 L
76 327.145 L
76 327.145 L
76 327.145 L
76 327.145 L
76 327.145 L
76 326.517 L
76 326.517 L
76 326.517 L
76 325.889 L
76 325.889 L
76 325.262 L
76 325.262 L
76 324.634 L
76 324.634 L
76 324.006 L
76 324.006 L
76 324.006 L
76 324.006 L
76 324.006 L
76 324.006 L
76 324.006 L
76 324.006 L
76 322.75 L
76 322.75 L
76 322.123 L
76 322.123 L
76 322.123 L
76 321.495 L
76 321.495 L
76 321.495 L
76 321.495 L
76 320.867 L
76 319.612 L
76 319.612 L
76 319.612 L
76 318.984 L
76 318.984 L
76 318.984 L
76 318.984 L
76 318.984 L
76 318.356 L
76 317.728 L
76 317.101 L
76 317.101 L
76 315.845 L
76 315.217 L
76 315.217 L
76 314.59 L
76 313.962 L
76 313.962 L
76 313.334 L
76 312.706 L
76 311.451 L
76 311.451 L
76 310.823 L
76 310.823 L
76 310.195 L
76 309.567 L
76 308.94 L
76 308.94 L
76 307.056 L
76 305.801 L
76 305.173 L
76 305.173 L
76 303.918 L
76 303.29 L
76 303.29 L
76 303.29 L
76 302.662 L
76 302.662 L
76 302.034 L
76 301.406 L
76 301.406 L
76 301.406 L
76 300.779 L
76 299.523 L
76 299.523 L
76 299.523 L
76 297.012 L
76 296.384 L
76 295.757 L
76 294.501 L
76 292.618 L
76 292.618 L
76 290.734 L
76 290.107 L
76 290.107 L
76 288.223 L
76 286.968 L
76 286.968 L
76 286.968 L
76 285.712 L
76 283.829 L
76 283.829 L
76 281.946 L
76 279.435 L
76 279.435 L
76 277.551 L
76 275.668 L
76 275.668 L
76 275.668 L
76 274.412 L
76 274.412 L
76 274.412 L
76 273.157 L
76 271.274 L
76 271.274 L
76 271.274 L
76 271.274 L
76 271.274 L
76 270.646 L
76 266.879 L
76 265.624 L
76 264.996 L
76 264.996 L
76 263.113 L
76 263.113 L
76 261.857 L
76 259.974 L
76 259.974 L
76 259.974 L
76 258.718 L
76 257.463 L
76 257.463 L
76 255.579 L
76 254.952 L
76 254.952 L
76 254.324 L
76 254.324 L
76 253.696 L
76 252.441 L
76 250.557 L
76 249.302 L
76 249.302 L
76 248.046 L
76 248.046 L
76 248.046 L
76 247.419 L
76 247.419 L
76 247.419 L
76 246.163 L
76 245.535 L
76 243.652 L
76 243.024 L
76 241.769 L
76 241.769 L
76 241.769 L
76 240.513 L
76 239.885 L
76 239.885 L
76 238.63 L
76 236.746 L
76 234.235 L
76 234.235 L
76 233.608 L
76 232.98 L
76 232.98 L
76 232.98 L
76 232.98 L
76 232.98 L
76 232.98 L
76 232.352 L
76 232.352 L
76 232.352 L
76 231.724 L
76 231.724 L
76 231.724 L
76 231.724 L
76 231.097 L
76 230.469 L
76 229.841 L
76 228.586 L
76 228.586 L
76 228.586 L
76 227.958 L
76 226.702 L
76 226.702 L
76 223.563 L
76 222.308 L
76 222.308 L
76 222.308 L
76 221.052 L
76 221.052 L
76 221.052 L
76 219.169 L
76 217.286 L
76 217.286 L
76 214.775 L
76 212.891 L
76 212.264 L
76 210.38 L
76 209.753 L
76 209.753 L
76 209.125 L
76 207.869 L
76 206.614 L
76 206.614 L
76 205.358 L
76 204.73 L
76 204.73 L
76 204.73 L
76 203.475 L
76 203.475 L
76 202.847 L
76 202.219 L
76 201.592 L
76 200.964 L
76 200.336 L
76 197.197 L
76 197.197 L
76 194.686 L
76 193.431 L
76 192.803 L
76 192.175 L
76 190.92 L
76 189.664 L
76 189.664 L
76 189.664 L
76 189.036 L
76 188.408 L
76 187.781 L
76 186.525 L
76 185.897 L
76 185.27 L
76 185.27 L
76 183.386 L
76 183.386 L
76 182.131 L
76 178.992 L
76 177.109 L
76 176.481 L
76 173.97 L
76 173.97 L
76 173.342 L
76 173.342 L
76 173.342 L
76 173.342 L
76 173.342 L
76 172.714 L
76 172.087 L
76 170.203 L
76 170.203 L
76 170.203 L
76 168.948 L
76 165.181 L
76 164.553 L
76 164.553 L
76 162.67 L
76 160.159 L
76 160.159 L
76 159.531 L
76 159.531 L
76 159.531 L
76 159.531 L
76 158.903 L
76 157.648 L
76 155.765 L
76 153.881 L
76 151.37 L
76 151.37 L
76 150.115 L
76 149.487 L
76 149.487 L
76 147.604 L
76 145.093 L
76 144.465 L
76 144.465 L
76 143.837 L
76 143.209 L
76 143.209 L
76 141.954 L
76 140.698 L
76 140.07 L
76 138.815 L
76 138.187 L
76 137.559 L
76 137.559 L
76 136.932 L
76 136.932 L
76 136.304 L
76 135.676 L
76 134.421 L
76 134.421 L
76 133.793 L
76 133.165 L
76 130.654 L
76 130.026 L
76 128.771 L
76 128.771 L
76 128.143 L
76 126.887 L
76 126.887 L
76 126.887 L
76 126.887 L
76 126.26 L
76 125.004 L
76 123.748 L
76 123.121 L
76 122.493 L
76 122.493 L
76 121.237 L
76 121.237 L
76 121.237 L
76 119.982 L
76 119.982 L
76 118.099 L
76 118.099 L
76 116.843 L
76 114.96 L
76 114.96 L
76 114.96 L
76 114.332 L
76 114.332 L
76 112.449 L
76 111.821 L
76 111.193 L
76 110.565 L
76 110.565 L
76 108.682 L
76 108.682 L
76 108.054 L
76 107.427 L
76 107.427 L
76 106.799 L
76 106.799 L
76 106.171 L
76 105.543 L
76 105.543 L
76 104.915 L
76 104.915 L
76 104.915 L
76 103.66 L
76 103.66 L
76 103.032 L
76 102.404 L
76 101.777 L
76 101.149 L
76 100.521 L
76 99.893 L
76 99.893 L
76 99.266 L
76 98.01 L
76 98.01 L
76 97.382 L
76 96.755 L
76 96.127 L
76 96.127 L
76 95.499 L
76 94.871 L
76 94.871 L
76 94.243 L
76 93.616 L
76 93.616 L
76 92.988 L
76 91.732 L
76 91.105 L
76 91.105 L
76 91.105 L
76 90.477 L
76 90.477 L
76 90.477 L
76 88.594 L
76 87.966 L
76 87.338 L
76 87.338 L
76 86.71 L
76 86.71 L
76 86.71 L
76 86.082 L
76 86.082 L
76 85.455 L
76 85.455 L
76 84.827 L
76 84.199 L
76 84.199 L
76 84.199 L
76 84.199 L
76 83.571 L
76 82.944 L
76 82.944 L
76 82.944 L
76 82.316 L
76 82.316 L
76 82.316 L
76 81.06 L
76 79.805 L
76 79.805 L
76 78.549 L
76 78.549 L
76 78.549 L
76 77.922 L
76 76.038 L
76 76.038 L
76 74.783 L
76 74.783 L
76 73.527 L
76 73.527 L
76 72.899 L
76 72.899 L
76 72.899 L
76 71.644 L
76 71.644 L
76 70.388 L
76 70.388 L
76 70.388 L
76 69.761 L
76 69.761 L
76.011 69.761 L
76.011 69.761 L
76.011 69.761 L
76.011 69.133 L
76.011 67.249 L
76.011 67.249 L
76.011 66.622 L
76.011 65.994 L
76.011 65.994 L
76.011 65.994 L
76.011 65.994 L
76.011 65.994 L
76.011 65.994 L
76.011 65.366 L
76.011 65.366 L
76.011 64.738 L
76.011 64.111 L
76.011 63.483 L
76.022 63.483 L
76.022 63.483 L
76.022 62.855 L
76.022 62.855 L
76.022 62.227 L
76.022 62.227 L
76.022 62.227 L
76.022 62.227 L
76.022 62.227 L
76.022 62.227 L
76.022 62.227 L
76.022 62.227 L
76.022 62.227 L
76.022 62.227 L
76.022 62.227 L
76.022 62.227 L
76.022 62.227 L
76.022 62.227 L
76.022 62.227 L
76.022 62.227 L
76.033 62.227 L
76.044 62.227 L
76.044 61.6 L
76.044 61.6 L
76.044 61.6 L
76.044 61.6 L
76.044 60.972 L
76.044 60.972 L
76.066 60.972 L
76.088 59.716 L
76.088 59.716 L
76.099 59.716 L
76.099 59.089 L
76.099 59.089 L
76.11 59.089 L
76.11 59.089 L
76.121 59.089 L
76.121 58.461 L
76.143 57.833 L
76.143 57.833 L
76.143 57.833 L
76.154 57.833 L
76.154 57.833 L
76.165 57.833 L
76.165 57.833 L
76.176 57.205 L
76.176 57.205 L
76.176 57.205 L
76.187 56.577 L
76.198 56.577 L
76.209 56.577 L
76.231 55.95 L
76.242 55.95 L
76.264 55.95 L
76.275 55.322 L
76.286 55.322 L
76.342 55.322 L
76.353 55.322 L
76.364 55.322 L
76.397 55.322 L
76.441 54.694 L
76.474 54.694 L
76.507 54.694 L
76.518 54.694 L
76.551 54.066 L
76.606 54.066 L
76.65 54.066 L
76.661 53.439 L
76.716 52.811 L
76.771 52.811 L
76.793 51.555 L
76.826 51.555 L
76.87 51.555 L
76.947 51.555 L
76.958 50.928 L
77.058 50.3 L
77.124 50.3 L
77.168 50.3 L
77.245 50.3 L
77.355 50.3 L
77.432 50.3 L
77.498 50.3 L
77.542 50.3 L
77.685 50.3 L
77.741 50.3 L
77.84 50.3 L
77.961 50.3 L
78.071 50.3 L
78.192 49.672 L
78.335 49.672 L
78.501 49.672 L
78.622 49.672 L
78.765 49.044 L
79.04 49.044 L
79.217 49.044 L
79.47 47.789 L
79.679 47.161 L
79.79 47.161 L
80.12 47.161 L
80.384 46.533 L
80.693 46.533 L
80.814 46.533 L
81.078 46.533 L
81.475 46.533 L
81.629 46.533 L
81.993 45.905 L
82.489 45.278 L
82.555 45.278 L
83.006 45.278 L
83.359 45.278 L
83.513 44.65 L
83.943 44.65 L
84.449 44.65 L
85 44.65 L
85.132 44.65 L
85.705 44.65 L
86.51 44.65 L
86.763 44.65 L
87.391 44.022 L
88.272 43.394 L
88.481 43.394 L
89.231 42.767 L
89.969 42.767 L
90.916 42.767 L
91.202 42.767 L
92.183 42.767 L
92.976 42.767 L
93.262 42.767 L
94.166 42.767 L
95.311 42.767 L
95.686 42.767 L
96.766 42.767 L
97.801 42.767 L
98.771 42.767 L
99.332 42.767 L
100.665 42.767 L
101.822 42.767 L
102.56 42.767 L
103.893 42.767 L
105.524 42.767 L
106.041 42.767 L
107.606 42.139 L
109.038 42.139 L
110.558 41.511 L
111.153 41.511 L
112.684 41.511 L
114.425 41.511 L
115.141 41.511 L
116.914 41.511 L
118.787 41.511 L
119.679 41.511 L
121.497 41.511 L
123.535 41.511 L
125.661 41.511 L
126.73 41.511 L
129.021 40.883 L
131.335 40.883 L
132.392 40.883 L
134.606 40.883 L
137.129 40.883 L
137.856 40.883 L
140.996 40.256 L
143.574 40.256 L
146.118 40.256 L
147.198 40.256 L
149.897 40.256 L
152.938 40.256 L
154.315 40.256 L
157.3 40.256 L
160.726 40.256 L
161.894 40.256 L
164.758 40.256 L
167.997 39.628 L
171.423 39.628 L
172.513 39.628 L
176.314 39.628 L
180.159 39.628 L
181.238 39.628 L
184.841 39.628 L
188.95 39.628 L
190.261 39.628 L
194.127 39.628 L
198.192 39.628 L
202.114 39.628 L
203.458 39.628 L
207.314 39.628 L
211.214 39.628 L
213.141 39.628 L
217.107 39.628 L
221.018 39.628 L
222.571 39.628 L
226.724 39.628 L
231.561 39.628 L
236.033 39.628 L
237.829 39.628 L
241.795 39 L
246.322 39 L
248.019 39 L
252.524 39 L
256.909 39 L
258.473 39 L
262.858 39 L
267 39 L
271.208 39 L
273.246 39 L
277.597 39 L
282.224 39 L
284.328 39 L
289.209 39 L
293.549 39 L
295.587 39 L
300.236 39 L
304.775 39 L
309.346 39 L
310.999 39 L
315.339 39 L
319.724 39 L
321.64 39 L
326.036 39 L
330.343 39 L
332.26 39 L
336.424 39 L
341.139 39 L
345.766 39 L
347.132 39 L
351.759 39 L
355.692 39 L
357.531 39 L
361.618 39 L
366.355 39 L
367.81 39 L
371.809 39 L
375.918 39 L
379.795 39 L
381.283 39 L
385.05 39 L
389.446 39 L
391.065 39 L
394.689 39 L
398.413 39 L
399.966 39 L
403.767 39 L
407.424 39 L
410.531 39 L
411.786 39 L
415.157 39 L
418.484 39 L
419.718 39 L
423.001 39 L
426.35 39 L
427.397 39 L
430.558 39 L
433.544 39 L
436.815 39 L
437.873 39 L
440.924 39 L
443.634 39 L
444.714 39 L
447.226 39 L
449.815 39 L
450.828 39 L
453.064 39 L
455.389 39 L
457.724 39 L
458.462 39 L
460.688 39 L
462.946 39 L
463.695 39 L
465.524 39 L
467.639 39 L
468.443 39 L
470.36 39 L
472.266 39 L
474.017 39 L
474.601 39 L
476.287 39 L
477.895 39 L
478.523 39 L
480.043 39 L
481.376 39 L
481.927 39 L
483.348 39 L
484.758 39 L
485.948 39 L
486.322 39 L
487.468 39 L
488.592 39 L
489.021 39 L
490.024 39 L
491.269 39 L
491.897 39 L
492.547 39 L
493.483 39 L
494.563 39 L
494.651 39 L
495.554 39 L
496.501 39 L
496.501 39 L
497.328 39 L
498.121 39 L
498.121 39 L
498.738 39 L
499.454 39 L
499.906 39 L
500.126 39 L
500.721 39 L
501.139 39 L
501.305 39 L
501.646 39 L
502.043 39 L
502.109 39 L
502.505 39 L
502.748 39 L
503.089 39 L
503.232 39 L
503.442 39 L
503.706 39 L
503.816 39 L
504.07 39 L
504.29 39 L
504.334 39 L
504.488 39 L
504.632 39 L
504.764 39 L
504.797 39 L
504.907 39 L
505.017 39 L
505.083 39 L
505.215 39 L
505.337 39 L
505.403 39 L
505.546 39 L
505.645 39 L
505.799 39 L
505.865 39 L
505.953 39 L
506.031 39 L
506.064 39 L
506.119 39 L
506.185 39 L
506.196 39 L
506.284 39 L
506.306 39 L
506.372 39 L
506.372 39 L
506.394 39 L
506.416 39 L
506.438 39 L
506.471 39 L
506.537 39 L
506.57 39 L
506.592 39 L
506.625 39 L
506.659 39 L
506.681 39 L
506.692 39 L
506.692 39 L
506.692 39 L
506.703 39 L
506.725 39 L
506.736 39 L
506.747 39 L
506.769 39 L
506.769 39 L
506.791 39 L
506.791 39 L
506.802 39 L
506.802 39 L
506.802 39 L
506.835 39 L
506.835 39 L
506.868 39 L
506.89 39 L
506.89 39 L
506.89 39 L
506.89 39 L
506.901 39 L
506.912 39 L
506.912 39 L
506.912 39 L
506.923 39 L
506.923 39 L
506.923 39 L
506.923 39 L
506.934 39 L
506.934 39 L
506.934 39 L
506.934 39 L
506.934 39 L
506.934 39 L
506.934 39 L
506.934 39 L
506.945 39 L
506.945 39 L
506.945 39 L
506.956 39 L
506.967 39 L
506.967 39 L
506.978 39 L
506.978 39 L
506.978 39 L
506.978 39 L
506.989 39 L
506.989 39 L
506.989 39 L
506.989 39 L
506.989 39 L
506.989 39 L
506.989 39 L
506.989 39 L
506.989 39 L
506.989 39 L
506.989 39 L
506.989 39 L
506.989 39 L
506.989 39 L
506.989 39 L
506.989 39 L
506.989 39 L
506.989 39 L
506.989 39 L
506.989 39 L
506.989 39 L
506.989 39 L
506.989 39 L
506.989 39 L
506.989 39 L
506.989 39 L
506.989 39 L
506.989 39 L
506.989 39 L
506.989 39 L
506.989 39 L
506.989 39 L
507 39 L
S
GR
GS
1 0 0 RC
1 LJ
3 LW
N
76 350.697 M
76 350.697 L
76 350.697 L
76 350.697 L
76 350.697 L
76 350.697 L
76 350.393 L
76 350.393 L
76 350.393 L
76 350.393 L
76 350.393 L
76 350.393 L
76 350.393 L
76 350.393 L
76 350.393 L
76 350.393 L
76 350.393 L
76 350.393 L
76 350.393 L
76 350.393 L
76 350.393 L
76 350.393 L
76 350.393 L
76 350.393 L
76 350.393 L
76 350.393 L
76 350.393 L
76 350.393 L
76 350.393 L
76 350.393 L
76 350.393 L
76 350.393 L
76 350.393 L
76 350.393 L
76 350.393 L
76 350.393 L
76 350.393 L
76 350.393 L
76 350.393 L
76 350.393 L
76 350.393 L
76 350.393 L
76 350.393 L
76 350.393 L
76 350.09 L
76 350.09 L
76 350.09 L
76 350.09 L
76 350.09 L
76 349.786 L
76 349.786 L
76 349.179 L
76 349.179 L
76 348.572 L
76 348.268 L
76 347.965 L
76 347.965 L
76 347.661 L
76 347.358 L
76 347.358 L
76 347.358 L
76 347.054 L
76 346.751 L
76 346.447 L
76 346.447 L
76 346.447 L
76 346.447 L
76 346.447 L
76 346.144 L
76 345.84 L
76 345.84 L
76 345.84 L
76 345.84 L
76 344.93 L
76 344.93 L
76 344.93 L
76 344.626 L
76 344.626 L
76 344.323 L
76 344.019 L
76 343.412 L
76 343.412 L
76 343.109 L
76 343.109 L
76 343.109 L
76 342.805 L
76 342.805 L
76 342.805 L
76 342.502 L
76 342.198 L
76 341.895 L
76 341.895 L
76 341.591 L
76 341.591 L
76 341.288 L
76 341.288 L
76 341.288 L
76 341.288 L
76 340.984 L
76 340.681 L
76 340.377 L
76 339.77 L
76 339.163 L
76 339.163 L
76 338.86 L
76 338.253 L
76 338.253 L
76 337.646 L
76 337.646 L
76 337.646 L
76 337.646 L
76 337.646 L
76 337.342 L
76 336.735 L
76 336.735 L
76 336.128 L
76 335.825 L
76 335.825 L
76 335.825 L
76 335.825 L
76 335.521 L
76 335.521 L
76 335.218 L
76 335.218 L
76 334.914 L
76 334.914 L
76 334.611 L
76 334.611 L
76 334.611 L
76 334.611 L
76 334.611 L
76 334.611 L
76 334.307 L
76 333.7 L
76 333.7 L
76 333.7 L
76 333.397 L
76 333.397 L
76 333.093 L
76 332.79 L
76 332.183 L
76 331.576 L
76 330.969 L
76 330.665 L
76 330.362 L
76 330.362 L
76 329.755 L
76 329.755 L
76 329.451 L
76 329.148 L
76 328.844 L
76 328.237 L
76 327.934 L
76 327.327 L
76 327.327 L
76 327.023 L
76 326.416 L
76 326.113 L
76 326.113 L
76 326.113 L
76 325.809 L
76 325.809 L
76 325.506 L
76 325.202 L
76 324.899 L
76 324.595 L
76 324.292 L
76 323.988 L
76 323.381 L
76 323.381 L
76 323.381 L
76 322.774 L
76 322.471 L
76 321.56 L
76 320.346 L
76 319.436 L
76 318.829 L
76 318.525 L
76 318.525 L
76 318.222 L
76 317.918 L
76 317.311 L
76 316.704 L
76 316.401 L
76 316.097 L
76 315.794 L
76 315.49 L
76 315.187 L
76 314.58 L
76 314.58 L
76 313.973 L
76 313.669 L
76 313.062 L
76 312.759 L
76 312.152 L
76 310.938 L
76 310.331 L
76 310.027 L
76 309.42 L
76 308.813 L
76 308.813 L
76 308.813 L
76 307.599 L
76 307.599 L
76 307.296 L
76 306.689 L
76 306.385 L
76 305.475 L
76 305.475 L
76 305.171 L
76 304.564 L
76 303.957 L
76 303.35 L
76 303.047 L
76 301.529 L
76 300.922 L
76 300.012 L
76 299.101 L
76 298.798 L
76 298.494 L
76 297.887 L
76 296.37 L
76 295.459 L
76 294.852 L
76 294.852 L
76 294.245 L
76 293.031 L
76 292.728 L
76 292.424 L
76 292.121 L
76 290.907 L
76 289.996 L
76 289.086 L
76 288.175 L
76 288.175 L
76 288.175 L
76 287.265 L
76 286.961 L
76 286.051 L
76 286.051 L
76 285.14 L
76 284.23 L
76 283.016 L
76 282.712 L
76 282.712 L
76 281.498 L
76 280.588 L
76 279.981 L
76 279.677 L
76 279.07 L
76 278.767 L
76 278.463 L
76 277.856 L
76 277.553 L
76 277.249 L
76 276.946 L
76 276.642 L
76 275.428 L
76 274.214 L
76 273.607 L
76 272.393 L
76 270.875 L
76 270.875 L
76 269.358 L
76 268.751 L
76 267.84 L
76 267.537 L
76 266.019 L
76 264.502 L
76 264.502 L
76 264.198 L
76 263.895 L
76 263.288 L
76 262.984 L
76 262.377 L
76 261.77 L
76 261.77 L
76 261.163 L
76 261.163 L
76 260.253 L
76 259.342 L
76 257.521 L
76 257.218 L
76 256.307 L
76 255.7 L
76 254.183 L
76 254.183 L
76 253.576 L
76 252.362 L
76 252.058 L
76 251.148 L
76 250.844 L
76 249.63 L
76 248.72 L
76 247.809 L
76 247.202 L
76 245.381 L
76 245.078 L
76 243.56 L
76 242.346 L
76 241.436 L
76 241.132 L
76 240.829 L
76 240.525 L
76 239.311 L
76 238.401 L
76 238.097 L
76 237.49 L
76 236.58 L
76 236.276 L
76 236.276 L
76 235.062 L
76 233.848 L
76 233.545 L
76 232.938 L
76 232.027 L
76 231.42 L
76 230.813 L
76 230.206 L
76 228.992 L
76 228.385 L
76 228.082 L
76 227.475 L
76 226.261 L
76 224.743 L
76 224.136 L
76 223.529 L
76 222.315 L
76 221.708 L
76 220.798 L
76 219.887 L
76 218.977 L
76 218.37 L
76 218.066 L
76 217.763 L
76 215.942 L
76 215.638 L
76 215.335 L
76 214.424 L
76 213.817 L
76 213.817 L
76 213.514 L
76 212.907 L
76 211.996 L
76 211.389 L
76 210.782 L
76 210.479 L
76 209.872 L
76 209.265 L
76 208.354 L
76 207.444 L
76 206.23 L
76 206.23 L
76 205.623 L
76 204.409 L
76 203.802 L
76 203.195 L
76 202.588 L
76 202.284 L
76 201.374 L
76 200.463 L
76 199.856 L
76 199.249 L
76 198.642 L
76 198.035 L
76 196.821 L
76 196.821 L
76 196.518 L
76 195.911 L
76 195.607 L
76 194.089 L
76 193.786 L
76 193.179 L
76 192.572 L
76 191.965 L
76 191.965 L
76 191.358 L
76 190.751 L
76 190.144 L
76 189.84 L
76 189.233 L
76 188.323 L
76 188.019 L
76 187.109 L
76 186.502 L
76 184.984 L
76 182.86 L
76 182.86 L
76 182.556 L
76 182.253 L
76 181.342 L
76 180.735 L
76 180.128 L
76 180.128 L
76 179.825 L
76 179.825 L
76 178.914 L
76 178.004 L
76 177.397 L
76 176.79 L
76 175.879 L
76 174.969 L
76 174.969 L
76 173.451 L
76 172.844 L
76 172.541 L
76 172.541 L
76 172.237 L
76 171.327 L
76 170.72 L
76 169.202 L
76 167.685 L
76 167.685 L
76 167.381 L
76 166.774 L
76 165.56 L
76 164.65 L
76 162.525 L
76 162.222 L
76 161.615 L
76 160.704 L
76 160.401 L
76 159.49 L
76 158.58 L
76 157.366 L
76 157.062 L
76 157.062 L
76 155.545 L
76 154.634 L
76 153.724 L
76 153.42 L
76 152.813 L
76 151.296 L
76 150.689 L
76 150.385 L
76 148.868 L
76 148.564 L
76 147.654 L
76 147.654 L
76 146.44 L
76 143.708 L
76 142.798 L
76 142.191 L
76 140.977 L
76 140.37 L
76 140.37 L
76 139.763 L
76 138.852 L
76 138.245 L
76 137.335 L
76 136.728 L
76 136.121 L
76 135.514 L
76 135.514 L
76 134.907 L
76 134.3 L
76 133.086 L
76 133.086 L
76 132.175 L
76 132.175 L
76 131.265 L
76 131.265 L
76 130.658 L
76 130.354 L
76 129.14 L
76 128.837 L
76 127.926 L
76 127.623 L
76 127.319 L
76 127.319 L
76 127.319 L
76 127.016 L
76 126.105 L
76 125.498 L
76 123.981 L
76 123.374 L
76 122.16 L
76 121.856 L
76 121.249 L
76 120.339 L
76 120.339 L
76 119.732 L
76 118.821 L
76 117.911 L
76 117.303 L
76 116.697 L
76 115.179 L
76 113.965 L
76 113.054 L
76 112.447 L
76 112.144 L
76 110.93 L
76 110.323 L
76 110.323 L
76 108.805 L
76 107.591 L
76 106.984 L
76 106.377 L
76 106.377 L
76 106.074 L
76 106.074 L
76 104.86 L
76 103.949 L
76 103.039 L
76 103.039 L
76 102.432 L
76 102.432 L
76 101.825 L
76 101.825 L
76 101.218 L
76 100.307 L
76 99.7 L
76 99.397 L
76 98.183 L
76 97.576 L
76 97.272 L
76 97.272 L
76 96.969 L
76 96.362 L
76 96.058 L
76 96.058 L
76 94.844 L
76 94.844 L
76 94.844 L
76 94.237 L
76 93.63 L
76 93.327 L
76 93.023 L
76 92.113 L
76 90.899 L
76 89.078 L
76 88.471 L
76 88.167 L
76 87.257 L
76 86.953 L
76 86.65 L
76 85.739 L
76 85.132 L
76 84.829 L
76 84.829 L
76 83.918 L
76 82.704 L
76 81.794 L
76 81.794 L
76 80.58 L
76 79.973 L
76 79.669 L
76 79.366 L
76 78.759 L
76 78.152 L
76 77.545 L
76 77.241 L
76 76.331 L
76 76.027 L
76 75.42 L
76 75.117 L
76 74.206 L
76 73.599 L
76 73.296 L
76 72.689 L
76 71.475 L
76 71.475 L
76 71.171 L
76 71.171 L
76 70.868 L
76 70.564 L
76 70.564 L
76 70.564 L
76 70.564 L
76 69.654 L
76 69.35 L
76 69.047 L
76 68.743 L
76 68.44 L
76 68.44 L
76 68.136 L
76 67.833 L
76 67.833 L
76 67.833 L
76 67.226 L
76 66.619 L
76 65.708 L
76 65.101 L
76 65.101 L
76 64.494 L
76 64.191 L
76 64.191 L
76 63.887 L
76 63.887 L
76 63.584 L
76 63.28 L
76 63.28 L
76 63.28 L
76 62.977 L
76 62.673 L
76 62.37 L
76 62.066 L
76 62.066 L
76 61.763 L
76 61.156 L
76 60.852 L
76 60.852 L
76 60.549 L
76 59.942 L
76 59.638 L
76 59.638 L
76 59.638 L
76 59.638 L
76 59.335 L
76 59.335 L
76 58.728 L
76 58.728 L
76 58.728 L
76 58.424 L
76 58.424 L
76 58.121 L
76 58.121 L
76 58.121 L
76 57.817 L
76 57.514 L
76 57.21 L
76 56.907 L
76 56.3 L
76 55.996 L
76 55.996 L
76 55.996 L
76 55.693 L
76 55.389 L
76 55.086 L
76 55.086 L
76 54.479 L
76 54.175 L
76 54.175 L
76 54.175 L
76 53.872 L
76 53.568 L
76 53.568 L
76.006 53.265 L
76.006 53.265 L
76.006 52.961 L
76.006 52.961 L
76.006 52.658 L
76.006 52.658 L
76.017 52.051 L
76.017 52.051 L
76.029 51.14 L
76.029 51.14 L
76.029 51.14 L
76.029 51.14 L
76.029 51.14 L
76.029 50.837 L
76.034 50.533 L
76.034 50.23 L
76.034 50.23 L
76.034 50.23 L
76.034 50.23 L
76.034 49.926 L
76.034 49.926 L
76.052 48.712 L
76.052 48.712 L
76.052 48.712 L
76.052 48.712 L
76.052 48.409 L
76.057 48.409 L
76.063 48.409 L
76.074 48.409 L
76.074 48.409 L
76.086 48.409 L
76.092 48.105 L
76.097 47.802 L
76.115 47.498 L
76.126 47.498 L
76.132 47.498 L
76.143 47.498 L
76.16 47.498 L
76.166 47.498 L
76.189 47.498 L
76.212 47.195 L
76.223 47.195 L
76.235 47.195 L
76.241 46.891 L
76.258 46.588 L
76.292 46.284 L
76.321 45.981 L
76.338 45.677 L
76.355 45.677 L
76.413 45.677 L
76.43 45.677 L
76.453 45.677 L
76.521 45.677 L
76.562 45.677 L
76.63 45.374 L
76.653 45.374 L
76.733 45.374 L
76.814 45.07 L
76.871 45.07 L
76.94 44.767 L
77.008 44.767 L
77.072 44.767 L
77.117 44.767 L
77.186 44.767 L
77.243 44.767 L
77.335 44.767 L
77.421 44.463 L
77.53 44.16 L
77.604 44.16 L
77.719 44.16 L
77.794 44.16 L
77.914 43.856 L
78.04 43.856 L
78.177 43.856 L
78.292 43.856 L
78.504 43.249 L
78.613 43.249 L
78.791 43.249 L
78.877 43.249 L
79.014 42.946 L
79.432 42.946 L
79.518 42.946 L
79.833 42.946 L
80.057 42.946 L
80.361 42.946 L
80.481 42.946 L
80.785 42.946 L
81.169 42.946 L
81.438 42.642 L
81.736 42.339 L
82.034 42.339 L
82.418 42.035 L
82.79 42.035 L
83.122 41.732 L
83.524 41.732 L
83.999 41.732 L
84.521 41.732 L
84.887 41.428 L
85.397 41.428 L
85.913 41.428 L
86.446 41.125 L
86.887 40.821 L
87.558 40.821 L
88.113 40.821 L
88.835 40.518 L
89.466 40.518 L
90.262 40.518 L
91.11 39.911 L
91.912 39.911 L
92.566 39.911 L
93.471 39.911 L
94.611 39.911 L
95.528 39.911 L
96.548 39.607 L
97.74 39.607 L
98.806 39.607 L
99.843 39.607 L
100.914 39.607 L
102.227 39.607 L
103.642 39.607 L
104.685 39.607 L
106.066 39.607 L
107.452 39.607 L
108.868 39.607 L
110.065 39.607 L
111.784 39.607 L
113.589 39.607 L
115.371 39.607 L
116.884 39.607 L
118.689 39.607 L
120.574 39.303 L
122.437 39.303 L
124.138 39.303 L
126.425 39.303 L
128.648 39.303 L
130.906 39.303 L
132.533 39.303 L
134.796 39.303 L
136.997 39.303 L
139.552 39.303 L
141.713 39.303 L
144.406 39.303 L
146.996 39.303 L
149.546 39.303 L
151.878 39.303 L
154.794 39.303 L
157.757 39.303 L
160.742 39.303 L
163.172 39.303 L
166.134 39.303 L
169.251 39.303 L
172.185 39.303 L
175.698 39.303 L
179.228 39.303 L
182.706 39.303 L
185.817 39.303 L
189.335 39.303 L
192.659 39.303 L
196.263 39.303 L
199.42 39.303 L
203.191 39 L
206.841 39 L
210.669 39 L
213.711 39 L
217.831 39 L
222.278 39 L
226.638 39 L
229.807 39 L
233.996 39 L
238.396 39 L
242.917 39 L
246.453 39 L
250.435 39 L
254.956 39 L
259.317 39 L
263.053 39 L
267.448 39 L
272.273 39 L
276.691 39 L
280.255 39 L
284.85 39 L
289.56 39 L
294.672 39 L
297.267 39 L
302.734 39 L
307.306 39 L
311.919 39 L
315.294 39 L
319.964 39 L
324.577 39 L
327.992 39 L
332.857 39 L
337.596 39 L
341.973 39 L
345.102 39 L
349.514 39 L
353.84 39 L
357.76 39 L
361.221 39 L
365.644 39 L
370.102 39 L
374.251 39 L
377.259 39 L
381.322 39 L
385.625 39 L
389.591 39 L
392.645 39 L
396.358 39 L
400.145 39 L
404.019 39 L
406.592 39 L
410.339 39 L
414.195 39 L
417.313 39 L
419.765 39 L
423.432 39 L
426.487 39 L
429.69 39 L
431.942 39 L
435.076 39 L
437.786 39 L
440.434 39 L
442.393 39 L
445.184 39 L
447.728 39 L
450.335 39 L
452.421 39 L
454.73 39 L
457.079 39 L
458.833 39 L
461.102 39 L
463.004 39 L
465.199 39 L
466.7 39 L
468.505 39 L
470.316 39 L
472.161 39 L
473.594 39 L
475.381 39 L
477.043 39 L
478.854 39 L
480.074 39 L
481.192 39 L
482.641 39 L
484.401 39 L
485.61 39 L
486.337 39 L
487.707 39 L
489.237 39 L
489.305 39 L
490.744 39 L
492.096 39 L
493.122 39 L
493.414 39 L
494.445 39 L
495.311 39 L
495.695 39 L
496.268 39 L
497.035 39 L
497.591 39 L
498.147 39 L
498.605 39 L
499.201 39 L
499.625 39 L
500.101 39 L
500.485 39 L
501.006 39 L
501.39 39 L
501.677 39 L
502.129 39 L
502.445 39 L
502.8 39 L
503.012 39 L
503.339 39 L
503.591 39 L
503.929 39 L
504.095 39 L
504.307 39 L
504.502 39 L
504.708 39 L
504.828 39 L
504.994 39 L
505.195 39 L
505.292 39 L
505.401 39 L
505.545 39 L
505.636 39 L
505.699 39 L
505.751 39 L
505.837 39 L
505.911 39 L
505.997 39 L
506.032 39 L
506.1 39 L
506.209 39 L
506.272 39 L
506.324 39 L
506.404 39 L
506.421 39 L
506.467 39 L
506.484 39 L
506.53 39 L
506.599 39 L
506.622 39 L
506.633 39 L
506.65 39 L
506.662 39 L
506.685 39 L
506.708 39 L
506.725 39 L
506.742 39 L
506.748 39 L
506.771 39 L
506.788 39 L
506.799 39 L
506.811 39 L
506.834 39 L
506.84 39 L
506.857 39 L
506.857 39 L
506.862 39 L
506.862 39 L
506.862 39 L
506.868 39 L
506.868 39 L
506.885 39 L
506.891 39 L
506.897 39 L
506.903 39 L
506.92 39 L
506.931 39 L
506.931 39 L
506.931 39 L
506.937 39 L
506.943 39 L
506.943 39 L
506.948 39 L
506.96 39 L
506.96 39 L
506.96 39 L
506.966 39 L
506.983 39 L
506.983 39 L
506.994 39 L
506.994 39 L
506.994 39 L
506.994 39 L
506.994 39 L
506.994 39 L
506.994 39 L
506.994 39 L
506.994 39 L
506.994 39 L
506.994 39 L
506.994 39 L
506.994 39 L
506.994 39 L
506.994 39 L
506.994 39 L
506.994 39 L
506.994 39 L
506.994 39 L
506.994 39 L
507 39 L
S
GR
GS
[12 12] 0 setdash
2 LJ
3 LW
N
76 350.804 M
76 350.804 L
76 350.804 L
76 350.804 L
76 350.804 L
76 350.804 L
76 350.804 L
76 350.804 L
76 350.804 L
76 350.804 L
76 350.804 L
76 350.804 L
76 350.804 L
76 350.804 L
76 350.804 L
76 350.804 L
76 350.804 L
76 350.804 L
76 350.804 L
76 350.804 L
76 350.608 L
76 350.608 L
76 350.608 L
76 350.608 L
76 350.608 L
76 350.412 L
76 350.412 L
76 350.412 L
76 350.412 L
76 350.412 L
76 350.412 L
76 350.412 L
76 350.412 L
76 350.412 L
76 350.412 L
76 350.412 L
76 350.412 L
76 350.412 L
76 350.412 L
76 350.412 L
76 350.412 L
76 350.021 L
76 350.021 L
76 350.021 L
76 350.021 L
76 350.021 L
76 349.825 L
76 349.825 L
76 349.825 L
76 349.825 L
76 349.825 L
76 349.629 L
76 349.629 L
76 349.433 L
76 349.433 L
76 349.237 L
76 349.041 L
76 349.041 L
76 348.846 L
76 348.65 L
76 348.65 L
76 348.258 L
76 348.258 L
76 348.258 L
76 348.258 L
76 348.062 L
76 347.866 L
76 347.866 L
76 347.866 L
76 347.866 L
76 347.866 L
76 347.866 L
76 347.866 L
76 347.866 L
76 347.866 L
76 347.866 L
76 347.67 L
76 347.67 L
76 347.67 L
76 347.67 L
76 347.67 L
76 347.67 L
76 347.67 L
76 347.475 L
76 347.475 L
76 347.279 L
76 347.279 L
76 347.279 L
76 347.279 L
76 347.279 L
76 347.279 L
76 346.887 L
76 346.887 L
76 346.887 L
76 346.887 L
76 346.887 L
76 346.691 L
76 346.691 L
76 346.495 L
76 346.299 L
76 346.104 L
76 346.104 L
76 346.104 L
76 346.104 L
76 346.104 L
76 346.104 L
76 346.104 L
76 345.908 L
76 345.908 L
76 345.908 L
76 345.908 L
76 345.712 L
76 345.516 L
76 345.516 L
76 345.516 L
76 345.32 L
76 345.32 L
76 345.32 L
76 345.32 L
76 345.32 L
76 344.733 L
76 344.733 L
76 344.537 L
76 344.537 L
76 344.537 L
76 344.537 L
76 344.145 L
76 343.949 L
76 343.557 L
76 343.557 L
76 343.557 L
76 343.557 L
76 343.557 L
76 343.557 L
76 343.557 L
76 342.97 L
76 342.97 L
76 342.97 L
76 342.97 L
76 342.382 L
76 342.186 L
76 342.186 L
76 342.186 L
76 342.186 L
76 342.186 L
76 342.186 L
76 341.795 L
76 341.599 L
76 341.599 L
76 341.599 L
76 341.011 L
76 340.815 L
76 340.815 L
76 340.62 L
76 340.62 L
76 340.62 L
76 340.424 L
76 340.032 L
76 340.032 L
76 339.836 L
76 339.836 L
76 339.64 L
76 339.249 L
76 339.053 L
76 338.857 L
76 338.661 L
76 338.661 L
76 338.465 L
76 338.269 L
76 338.269 L
76 337.878 L
76 337.878 L
76 337.486 L
76 337.29 L
76 336.898 L
76 336.898 L
76 336.702 L
76 336.702 L
76 336.507 L
76 336.507 L
76 336.115 L
76 335.919 L
76 335.919 L
76 335.723 L
76 335.331 L
76 335.331 L
76 335.136 L
76 334.548 L
76 334.352 L
76 334.352 L
76 333.96 L
76 333.765 L
76 333.569 L
76 333.373 L
76 333.373 L
76 333.373 L
76 333.177 L
76 333.177 L
76 332.981 L
76 332.785 L
76 332.198 L
76 332.198 L
76 332.002 L
76 332.002 L
76 332.002 L
76 332.002 L
76 331.023 L
76 330.827 L
76 330.827 L
76 330.631 L
76 330.631 L
76 330.043 L
76 330.043 L
76 329.847 L
76 329.847 L
76 329.652 L
76 329.652 L
76 329.456 L
76 329.26 L
76 329.26 L
76 328.476 L
76 328.476 L
76 328.476 L
76 328.476 L
76 328.281 L
76 328.281 L
76 327.889 L
76 327.693 L
76 326.91 L
76 326.714 L
76 326.714 L
76 326.714 L
76 326.714 L
76 326.126 L
76 326.126 L
76 325.539 L
76 325.343 L
76 325.343 L
76 325.147 L
76 324.755 L
76 324.168 L
76 324.168 L
76 324.168 L
76 323.972 L
76 323.384 L
76 323.384 L
76 323.384 L
76 323.188 L
76 322.992 L
76 322.992 L
76 322.601 L
76 322.013 L
76 321.817 L
76 321.817 L
76 321.621 L
76 321.621 L
76 321.034 L
76 320.642 L
76 320.25 L
76 320.25 L
76 320.055 L
76 319.663 L
76 319.467 L
76 318.879 L
76 318.879 L
76 318.488 L
76 318.488 L
76 317.9 L
76 317.9 L
76 317.9 L
76 316.921 L
76 316.921 L
76 316.333 L
76 316.333 L
76 316.137 L
76 315.942 L
76 315.746 L
76 315.55 L
76 315.55 L
76 315.354 L
76 314.571 L
76 314.571 L
76 314.179 L
76 313.591 L
76 312.808 L
76 312.024 L
76 312.024 L
76 311.829 L
76 311.829 L
76 311.241 L
76 311.241 L
76 311.045 L
76 310.849 L
76 310.458 L
76 310.458 L
76 309.674 L
76 308.499 L
76 308.107 L
76 306.932 L
76 306.736 L
76 306.149 L
76 306.149 L
76 305.757 L
76 305.561 L
76 304.974 L
76 304.974 L
76 304.386 L
76 304.19 L
76 303.994 L
76 303.015 L
76 302.623 L
76 302.427 L
76 302.036 L
76 301.644 L
76 301.448 L
76 300.469 L
76 300.273 L
76 299.685 L
76 299.685 L
76 299.294 L
76 298.902 L
76 298.902 L
76 298.51 L
76 298.315 L
76 297.727 L
76 297.335 L
76 296.552 L
76 296.356 L
76 295.964 L
76 295.377 L
76 294.593 L
76 294.006 L
76 293.81 L
76 292.635 L
76 292.439 L
76 291.655 L
76 290.872 L
76 290.676 L
76 290.676 L
76 289.697 L
76 289.697 L
76 289.305 L
76 288.913 L
76 288.718 L
76 288.326 L
76 288.326 L
76 287.347 L
76 286.759 L
76 285.192 L
76 284.8 L
76 284.017 L
76 283.625 L
76 283.038 L
76 282.646 L
76 282.254 L
76 282.058 L
76 281.275 L
76 281.275 L
76 280.687 L
76 280.687 L
76 280.492 L
76 278.925 L
76 278.729 L
76 277.75 L
76 277.162 L
76 276.574 L
76 275.791 L
76 275.399 L
76 274.616 L
76 274.028 L
76 274.028 L
76 274.028 L
76.004 273.637 L
76.004 273.637 L
76.004 272.853 L
76.004 272.657 L
76.004 271.678 L
76.004 271.286 L
76.004 269.719 L
76.004 269.328 L
76.004 268.936 L
76.004 268.348 L
76.004 267.565 L
76.004 267.565 L
76.004 266.977 L
76.004 266.586 L
76.004 266.586 L
76.004 264.431 L
76.004 264.431 L
76.004 263.648 L
76.004 263.256 L
76.004 262.277 L
76.004 261.885 L
76.004 261.102 L
76.008 260.71 L
76.012 259.927 L
76.012 259.535 L
76.012 259.143 L
76.012 257.968 L
76.012 257.576 L
76.012 256.597 L
76.012 255.814 L
76.012 255.03 L
76.012 254.247 L
76.012 253.267 L
76.012 253.072 L
76.012 252.876 L
76.012 252.68 L
76.012 252.288 L
76.012 251.701 L
76.012 251.505 L
76.016 251.113 L
76.016 250.33 L
76.02 249.938 L
76.02 249.938 L
76.02 249.35 L
76.02 249.154 L
76.02 248.763 L
76.02 248.567 L
76.032 247.392 L
76.032 246.608 L
76.036 246.217 L
76.04 245.237 L
76.04 244.258 L
76.04 243.279 L
76.048 242.887 L
76.048 241.908 L
76.048 241.712 L
76.056 239.949 L
76.056 239.362 L
76.056 238.578 L
76.059 238.578 L
76.059 237.207 L
76.059 236.815 L
76.059 236.228 L
76.067 235.64 L
76.067 235.64 L
76.067 234.269 L
76.071 233.878 L
76.075 233.094 L
76.075 233.094 L
76.079 231.919 L
76.079 231.723 L
76.079 230.94 L
76.079 230.548 L
76.087 229.373 L
76.087 229.177 L
76.087 228.981 L
76.091 228.198 L
76.099 227.806 L
76.103 226.827 L
76.103 226.239 L
76.111 225.064 L
76.115 225.064 L
76.123 224.281 L
76.131 223.693 L
76.159 222.518 L
76.163 221.539 L
76.171 221.147 L
76.182 220.951 L
76.186 220.168 L
76.198 219.776 L
76.202 219.188 L
76.218 218.797 L
76.226 218.601 L
76.246 217.426 L
76.246 216.838 L
76.266 216.446 L
76.27 215.859 L
76.29 214.292 L
76.305 213.508 L
76.317 212.333 L
76.361 211.942 L
76.385 211.354 L
76.393 210.571 L
76.405 209.787 L
76.444 209.395 L
76.46 209.004 L
76.504 207.437 L
76.524 207.045 L
76.563 206.066 L
76.579 205.478 L
76.627 204.695 L
76.65 204.107 L
76.666 203.716 L
76.722 203.324 L
76.738 203.324 L
76.789 202.345 L
76.813 201.757 L
76.888 200.582 L
76.904 199.994 L
76.976 199.211 L
76.999 198.036 L
77.071 197.448 L
77.091 197.252 L
77.142 196.273 L
77.166 195.881 L
77.226 195.294 L
77.321 193.139 L
77.364 192.748 L
77.412 192.16 L
77.456 191.377 L
77.551 190.593 L
77.579 190.006 L
77.678 189.222 L
77.725 188.635 L
77.817 187.068 L
77.868 186.676 L
77.971 186.089 L
78.035 185.305 L
78.114 184.913 L
78.265 183.542 L
78.316 183.347 L
78.463 182.367 L
78.511 180.605 L
78.673 180.017 L
78.78 179.625 L
78.955 179.234 L
79.058 178.646 L
79.205 177.275 L
79.32 176.296 L
79.399 175.512 L
79.597 172.574 L
79.752 171.203 L
79.942 169.441 L
80.061 168.657 L
80.26 167.482 L
80.359 166.699 L
80.577 165.915 L
80.684 165.524 L
80.962 164.936 L
81.1 164.348 L
81.386 162.977 L
81.561 162.586 L
81.711 161.802 L
82.021 160.823 L
82.231 160.431 L
82.505 158.081 L
82.635 157.689 L
82.961 156.122 L
83.119 155.143 L
83.441 153.576 L
83.56 153.185 L
83.948 151.03 L
84.111 151.03 L
84.412 150.051 L
84.607 149.855 L
84.781 148.68 L
85.221 147.701 L
85.459 147.309 L
85.888 146.134 L
86.086 145.742 L
86.562 143.196 L
86.824 142.804 L
87.28 141.041 L
87.585 140.258 L
88.113 139.083 L
88.339 138.299 L
88.934 136.928 L
89.235 136.537 L
89.584 136.341 L
90.215 134.382 L
90.504 134.382 L
91.159 133.011 L
91.436 132.62 L
92.206 129.094 L
92.579 128.311 L
93.293 126.548 L
93.705 125.373 L
94.518 123.806 L
94.942 123.61 L
95.783 121.456 L
96.255 120.476 L
96.759 120.281 L
97.699 118.518 L
98.191 118.126 L
99.143 116.559 L
99.619 116.363 L
100.634 115.384 L
101.229 114.601 L
102.335 112.642 L
102.847 112.446 L
104.215 110.879 L
104.652 110.684 L
105.092 110.292 L
106.337 109.117 L
106.809 108.333 L
108.007 106.375 L
108.65 106.375 L
109.97 105.2 L
110.581 104.22 L
111.934 103.045 L
112.493 102.458 L
113.996 101.282 L
114.686 101.282 L
116.098 99.911 L
116.883 99.52 L
117.645 98.345 L
119.196 97.757 L
119.909 97.17 L
121.559 95.603 L
122.448 95.603 L
124.07 94.623 L
125.03 94.232 L
126.783 93.056 L
127.774 92.469 L
129.543 91.686 L
130.467 91.098 L
132.3 89.139 L
133.236 88.748 L
134.223 88.552 L
135.961 86.789 L
137.024 86.593 L
139.189 84.635 L
139.943 84.047 L
142.084 83.851 L
143.06 83.46 L
145.059 83.068 L
146.225 82.872 L
148.621 82.284 L
149.727 81.893 L
151.976 81.109 L
153.221 80.522 L
154.336 79.934 L
156.842 77.78 L
158.08 77.78 L
160.424 77.388 L
161.749 76.605 L
164.394 76.213 L
165.445 76.213 L
168.237 76.213 L
169.895 75.625 L
172.62 74.254 L
173.913 73.667 L
176.523 73.079 L
177.82 72.492 L
179.343 71.708 L
181.929 70.533 L
183.495 70.141 L
186.347 69.945 L
187.858 69.75 L
190.757 69.358 L
192.177 68.966 L
195.041 67.595 L
196.417 67.595 L
199.685 67.008 L
201.236 66.42 L
202.85 66.42 L
206.11 65.832 L
207.728 65.637 L
211.159 65.049 L
212.829 64.657 L
215.839 63.678 L
217.192 63.678 L
221.051 62.699 L
222.506 62.699 L
225.866 61.915 L
227.536 61.915 L
231.371 61.132 L
232.838 61.132 L
234.453 60.936 L
237.955 60.153 L
239.87 59.957 L
243.131 59.565 L
244.658 59.369 L
248.045 58.586 L
249.766 58.194 L
253.363 57.215 L
255.041 56.823 L
258.571 56.04 L
260.272 55.844 L
263.905 55.256 L
265.888 55.256 L
267.57 55.256 L
271.278 55.06 L
273.095 55.06 L
277.097 54.669 L
278.481 54.277 L
282.384 53.298 L
284.303 53.102 L
287.877 53.102 L
289.773 52.906 L
293.675 52.71 L
295.417 52.514 L
298.978 52.514 L
300.989 52.122 L
302.861 51.731 L
306.562 51.339 L
308.584 51.143 L
311.944 50.947 L
313.855 50.556 L
317.576 50.556 L
319.269 50.556 L
322.763 50.164 L
324.639 50.164 L
328.375 50.164 L
330.089 49.968 L
332.032 49.968 L
335.598 49.38 L
337.284 49.185 L
340.73 48.793 L
342.697 48.793 L
346.449 48.597 L
348.036 48.401 L
351.617 48.205 L
353.481 48.205 L
356.872 47.618 L
358.994 47.618 L
362.211 47.03 L
363.992 47.03 L
365.515 46.834 L
369.14 46.638 L
370.699 46.638 L
373.84 46.638 L
375.89 46.443 L
378.829 45.855 L
380.8 45.855 L
383.636 45.267 L
385.413 45.267 L
388.177 45.267 L
389.776 45.267 L
392.481 45.072 L
394.325 45.072 L
395.785 44.876 L
398.624 44.484 L
400.373 44.484 L
402.979 44.484 L
404.732 44.484 L
407.517 43.896 L
409.139 43.896 L
411.483 43.505 L
413.133 43.505 L
415.623 43.113 L
417.055 43.113 L
419.78 43.113 L
420.938 43.113 L
422.398 43.113 L
424.591 42.721 L
426.288 42.721 L
428.486 42.525 L
430.112 42.33 L
432.059 42.134 L
433.499 42.134 L
435.597 41.938 L
436.767 41.938 L
439.123 41.742 L
439.928 41.742 L
442.391 41.35 L
443.137 41.35 L
444.787 41.35 L
446.357 41.35 L
447.86 41.35 L
449.387 41.35 L
450.573 41.35 L
452.164 40.959 L
452.905 40.959 L
455.23 40.567 L
455.678 40.567 L
458.081 40.567 L
458.315 40.567 L
460.068 40.567 L
461.088 40.371 L
462.559 40.371 L
463.923 40.371 L
464.479 40.371 L
466.68 40.371 L
466.811 40.371 L
469.183 40.175 L
469.183 40.175 L
471.582 40.175 L
471.582 40.175 L
472.942 40.175 L
473.609 40.175 L
473.625 40.175 L
475.731 40.175 L
475.862 40.175 L
477.734 40.175 L
477.932 40.175 L
479.328 40.175 L
479.733 40.175 L
480.851 40.175 L
481.462 40.175 L
482.283 39.979 L
483.048 39.979 L
483.81 39.979 L
484.595 39.979 L
484.845 39.979 L
485.825 39.979 L
486.126 39.979 L
487.094 39.979 L
487.514 39.979 L
488.411 39.588 L
488.898 39.588 L
489.517 39.588 L
489.965 39.588 L
490.544 39.392 L
491.02 39.392 L
491.536 39.392 L
492.075 39.392 L
492.289 39.392 L
493.035 39.196 L
493.348 39.196 L
493.88 39.196 L
494.296 39.196 L
494.741 39 L
495.113 39 L
495.649 39 L
495.994 39 L
496.49 39 L
496.771 39 L
497.204 39 L
497.445 39 L
497.636 39 L
498.104 39 L
498.374 39 L
498.814 39 L
499.044 39 L
499.353 39 L
499.524 39 L
499.786 39 L
500.008 39 L
500.341 39 L
500.539 39 L
500.706 39 L
500.96 39 L
501.114 39 L
501.412 39 L
501.598 39 L
501.864 39 L
502.034 39 L
502.268 39 L
502.387 39 L
502.645 39 L
502.752 39 L
503.002 39 L
503.07 39 L
503.173 39 L
503.383 39 L
503.474 39 L
503.649 39 L
503.72 39 L
503.851 39 L
503.958 39 L
504.105 39 L
504.164 39 L
504.359 39 L
504.402 39 L
504.565 39 L
504.612 39 L
504.692 39 L
504.787 39 L
504.842 39 L
504.953 39 L
504.997 39 L
505.104 39 L
505.132 39 L
505.251 39 L
505.271 39 L
505.378 39 L
505.417 39 L
505.56 39 L
505.572 39 L
505.612 39 L
505.663 39 L
505.699 39 L
505.786 39 L
505.826 39 L
505.874 39 L
505.905 39 L
505.973 39 L
505.997 39 L
506.056 39 L
506.06 39 L
506.127 39 L
506.143 39 L
506.155 39 L
506.195 39 L
506.215 39 L
506.242 39 L
506.25 39 L
506.286 39 L
506.302 39 L
506.342 39 L
506.346 39 L
506.365 39 L
506.373 39 L
506.385 39 L
506.433 39 L
506.449 39 L
506.484 39 L
506.492 39 L
506.52 39 L
506.532 39 L
506.564 39 L
506.572 39 L
506.595 39 L
506.611 39 L
506.643 39 L
506.663 39 L
506.667 39 L
506.679 39 L
506.683 39 L
506.714 39 L
506.718 39 L
506.738 39 L
506.75 39 L
506.77 39 L
506.77 39 L
506.774 39 L
506.778 39 L
506.782 39 L
506.782 39 L
506.786 39 L
506.798 39 L
506.798 39 L
506.806 39 L
506.806 39 L
506.826 39 L
506.829 39 L
506.837 39 L
506.841 39 L
506.845 39 L
506.849 39 L
506.857 39 L
506.861 39 L
506.865 39 L
506.873 39 L
506.873 39 L
506.885 39 L
506.885 39 L
506.885 39 L
506.885 39 L
506.889 39 L
506.889 39 L
506.901 39 L
506.901 39 L
506.909 39 L
506.909 39 L
506.913 39 L
506.933 39 L
506.933 39 L
506.933 39 L
506.937 39 L
506.94 39 L
506.94 39 L
506.94 39 L
506.94 39 L
506.944 39 L
506.944 39 L
506.944 39 L
506.96 39 L
506.964 39 L
506.968 39 L
506.968 39 L
506.968 39 L
506.968 39 L
506.968 39 L
506.968 39 L
506.968 39 L
506.968 39 L
506.972 39 L
506.972 39 L
506.98 39 L
506.98 39 L
506.98 39 L
506.98 39 L
506.98 39 L
506.98 39 L
506.98 39 L
506.98 39 L
506.98 39 L
506.98 39 L
506.98 39 L
506.98 39 L
506.98 39 L
506.98 39 L
506.98 39 L
506.98 39 L
506.984 39 L
506.984 39 L
506.984 39 L
506.984 39 L
506.984 39 L
506.988 39 L
506.996 39 L
506.996 39 L
506.996 39 L
506.996 39 L
506.996 39 L
506.996 39 L
506.996 39 L
506.996 39 L
506.996 39 L
506.996 39 L
506.996 39 L
506.996 39 L
506.996 39 L
506.996 39 L
506.996 39 L
506.996 39 L
507 39 L
S
GR
GS
[1 0 0 1 338.91 216.84] CT
/Helvetica 24 F
GS
[1 0 0 1 0 0] CT
0 8.5 moveto 
1 -1 scale
(EER line) t 
GR
GR
GS
[10 6] 0 setdash
2 LJ
0.5 LW
N
507 351 M
76 39 L
S
GR
GS
1 GC
N
497 341 M
497 249 L
132 249 L
132 341 L
cp
f
GR
GS
[1 0 0 1 169 265.5] CT
/Helvetica 24 F
GS
[1 0 0 1 0 0] CT
0 8.5 moveto 
1 -1 scale
(NIR images, EER = 0.02) t 
GR
GR
GS
0 0 1 RC
1 LJ
3 LW
N
136 265.5 M
166 265.5 L
S
GR
GS
[1 0 0 1 169 295] CT
/Helvetica 24 F
GS
[1 0 0 1 0 0] CT
0 8.5 moveto 
1 -1 scale
(R images, EER = 0.01) t 
GR
GR
GS
1 0 0 RC
1 LJ
3 LW
N
136 295 M
166 295 L
S
GR
GS
[1 0 0 1 169 324.5] CT
/Helvetica 24 F
GS
[1 0 0 1 0 0] CT
0 8.5 moveto 
1 -1 scale
(cross-wavelength, EER = 0.15) t 
GR
GR
GS
[12 12] 0 setdash
2 LJ
3 LW
N
136 324.5 M
166 324.5 L
S
GR
GS
0.149 GC
10.0 ML
0.5 LW
N
132 341 M
132 249 L
497 249 L
497 341 L
cp
S
GR
%%Trailer
%%Pages: 1
%%EOF
