%!PS-Adobe-3.0 EPSF-3.0
%%Creator: (MATLAB, The Mathworks, Inc. Version 9.3.0.713579 \(R2017b\). Operating System: Mac OS X)
%%Title: ./shortTerm_IriCore.eps
%%CreationDate: 2018-02-10T12:19:22
%%Pages: (atend)
%%BoundingBox:     7     5   509   413
%%LanguageLevel: 3
%%EndComments
%%BeginProlog
%%BeginResource: procset (Apache XML Graphics Std ProcSet) 1.2 0
%%Version: 1.2 0
%%Copyright: (Copyright 2001-2003,2010 The Apache Software Foundation. License terms: http://www.apache.org/licenses/LICENSE-2.0)
/bd{bind def}bind def
/ld{load def}bd
/GR/grestore ld
/GS/gsave ld
/RM/rmoveto ld
/C/curveto ld
/t/show ld
/L/lineto ld
/ML/setmiterlimit ld
/CT/concat ld
/f/fill ld
/N/newpath ld
/S/stroke ld
/CC/setcmykcolor ld
/A/ashow ld
/cp/closepath ld
/RC/setrgbcolor ld
/LJ/setlinejoin ld
/GC/setgray ld
/LW/setlinewidth ld
/M/moveto ld
/re {4 2 roll M
1 index 0 rlineto
0 exch rlineto
neg 0 rlineto
cp } bd
/_ctm matrix def
/_tm matrix def
/BT { _ctm currentmatrix pop matrix _tm copy pop 0 0 moveto } bd
/ET { _ctm setmatrix } bd
/iTm { _ctm setmatrix _tm concat } bd
/Tm { _tm astore pop iTm 0 0 moveto } bd
/ux 0.0 def
/uy 0.0 def
/F {
  /Tp exch def
  /Tf exch def
  Tf findfont Tp scalefont setfont
  /cf Tf def  /cs Tp def
} bd
/ULS {currentpoint /uy exch def /ux exch def} bd
/ULE {
  /Tcx currentpoint pop def
  gsave
  newpath
  cf findfont cs scalefont dup
  /FontMatrix get 0 get /Ts exch def /FontInfo get dup
  /UnderlinePosition get Ts mul /To exch def
  /UnderlineThickness get Ts mul /Tt exch def
  ux uy To add moveto  Tcx uy To add lineto
  Tt setlinewidth stroke
  grestore
} bd
/OLE {
  /Tcx currentpoint pop def
  gsave
  newpath
  cf findfont cs scalefont dup
  /FontMatrix get 0 get /Ts exch def /FontInfo get dup
  /UnderlinePosition get Ts mul /To exch def
  /UnderlineThickness get Ts mul /Tt exch def
  ux uy To add cs add moveto Tcx uy To add cs add lineto
  Tt setlinewidth stroke
  grestore
} bd
/SOE {
  /Tcx currentpoint pop def
  gsave
  newpath
  cf findfont cs scalefont dup
  /FontMatrix get 0 get /Ts exch def /FontInfo get dup
  /UnderlinePosition get Ts mul /To exch def
  /UnderlineThickness get Ts mul /Tt exch def
  ux uy To add cs 10 mul 26 idiv add moveto Tcx uy To add cs 10 mul 26 idiv add lineto
  Tt setlinewidth stroke
  grestore
} bd
/QT {
/Y22 exch store
/X22 exch store
/Y21 exch store
/X21 exch store
currentpoint
/Y21 load 2 mul add 3 div exch
/X21 load 2 mul add 3 div exch
/X21 load 2 mul /X22 load add 3 div
/Y21 load 2 mul /Y22 load add 3 div
/X22 load /Y22 load curveto
} bd
/SSPD {
dup length /d exch dict def
{
/v exch def
/k exch def
currentpagedevice k known {
/cpdv currentpagedevice k get def
v cpdv ne {
/upd false def
/nullv v type /nulltype eq def
/nullcpdv cpdv type /nulltype eq def
nullv nullcpdv or
{
/upd true def
} {
/sametype v type cpdv type eq def
sametype {
v type /arraytype eq {
/vlen v length def
/cpdvlen cpdv length def
vlen cpdvlen eq {
0 1 vlen 1 sub {
/i exch def
/obj v i get def
/cpdobj cpdv i get def
obj cpdobj ne {
/upd true def
exit
} if
} for
} {
/upd true def
} ifelse
} {
v type /dicttype eq {
v {
/dv exch def
/dk exch def
/cpddv cpdv dk get def
dv cpddv ne {
/upd true def
exit
} if
} forall
} {
/upd true def
} ifelse
} ifelse
} if
} ifelse
upd true eq {
d k v put
} if
} if
} if
} forall
d length 0 gt {
d setpagedevice
} if
} bd
/RE { % /NewFontName [NewEncodingArray] /FontName RE -
  findfont dup length dict begin
  {
    1 index /FID ne
    {def} {pop pop} ifelse
  } forall
  /Encoding exch def
  /FontName 1 index def
  currentdict definefont pop
  end
} bind def
%%EndResource
%%BeginResource: procset (Apache XML Graphics EPS ProcSet) 1.0 0
%%Version: 1.0 0
%%Copyright: (Copyright 2002-2003 The Apache Software Foundation. License terms: http://www.apache.org/licenses/LICENSE-2.0)
/BeginEPSF { %def
/b4_Inc_state save def         % Save state for cleanup
/dict_count countdictstack def % Count objects on dict stack
/op_count count 1 sub def      % Count objects on operand stack
userdict begin                 % Push userdict on dict stack
/showpage { } def              % Redefine showpage, { } = null proc
0 setgray 0 setlinecap         % Prepare graphics state
1 setlinewidth 0 setlinejoin
10 setmiterlimit [ ] 0 setdash newpath
/languagelevel where           % If level not equal to 1 then
{pop languagelevel             % set strokeadjust and
1 ne                           % overprint to their defaults.
{false setstrokeadjust false setoverprint
} if
} if
} bd
/EndEPSF { %def
count op_count sub {pop} repeat            % Clean up stacks
countdictstack dict_count sub {end} repeat
b4_Inc_state restore
} bd
%%EndResource
%FOPBeginFontDict
%%IncludeResource: font Courier-Oblique
%%IncludeResource: font Courier-BoldOblique
%%IncludeResource: font Courier-Bold
%%IncludeResource: font ZapfDingbats
%%IncludeResource: font Symbol
%%IncludeResource: font Helvetica
%%IncludeResource: font Helvetica-Oblique
%%IncludeResource: font Helvetica-Bold
%%IncludeResource: font Helvetica-BoldOblique
%%IncludeResource: font Times-Roman
%%IncludeResource: font Times-Italic
%%IncludeResource: font Times-Bold
%%IncludeResource: font Times-BoldItalic
%%IncludeResource: font Courier
%FOPEndFontDict
%%BeginResource: encoding WinAnsiEncoding
/WinAnsiEncoding [
/.notdef /.notdef /.notdef /.notdef /.notdef
/.notdef /.notdef /.notdef /.notdef /.notdef
/.notdef /.notdef /.notdef /.notdef /.notdef
/.notdef /.notdef /.notdef /.notdef /.notdef
/.notdef /.notdef /.notdef /.notdef /.notdef
/.notdef /.notdef /.notdef /.notdef /.notdef
/.notdef /.notdef /space /exclam /quotedbl
/numbersign /dollar /percent /ampersand /quotesingle
/parenleft /parenright /asterisk /plus /comma
/hyphen /period /slash /zero /one
/two /three /four /five /six
/seven /eight /nine /colon /semicolon
/less /equal /greater /question /at
/A /B /C /D /E
/F /G /H /I /J
/K /L /M /N /O
/P /Q /R /S /T
/U /V /W /X /Y
/Z /bracketleft /backslash /bracketright /asciicircum
/underscore /quoteleft /a /b /c
/d /e /f /g /h
/i /j /k /l /m
/n /o /p /q /r
/s /t /u /v /w
/x /y /z /braceleft /bar
/braceright /asciitilde /bullet /Euro /bullet
/quotesinglbase /florin /quotedblbase /ellipsis /dagger
/daggerdbl /circumflex /perthousand /Scaron /guilsinglleft
/OE /bullet /Zcaron /bullet /bullet
/quoteleft /quoteright /quotedblleft /quotedblright /bullet
/endash /emdash /asciitilde /trademark /scaron
/guilsinglright /oe /bullet /zcaron /Ydieresis
/space /exclamdown /cent /sterling /currency
/yen /brokenbar /section /dieresis /copyright
/ordfeminine /guillemotleft /logicalnot /sfthyphen /registered
/macron /degree /plusminus /twosuperior /threesuperior
/acute /mu /paragraph /middot /cedilla
/onesuperior /ordmasculine /guillemotright /onequarter /onehalf
/threequarters /questiondown /Agrave /Aacute /Acircumflex
/Atilde /Adieresis /Aring /AE /Ccedilla
/Egrave /Eacute /Ecircumflex /Edieresis /Igrave
/Iacute /Icircumflex /Idieresis /Eth /Ntilde
/Ograve /Oacute /Ocircumflex /Otilde /Odieresis
/multiply /Oslash /Ugrave /Uacute /Ucircumflex
/Udieresis /Yacute /Thorn /germandbls /agrave
/aacute /acircumflex /atilde /adieresis /aring
/ae /ccedilla /egrave /eacute /ecircumflex
/edieresis /igrave /iacute /icircumflex /idieresis
/eth /ntilde /ograve /oacute /ocircumflex
/otilde /odieresis /divide /oslash /ugrave
/uacute /ucircumflex /udieresis /yacute /thorn
/ydieresis
] def
%%EndResource
%FOPBeginFontReencode
/Courier-Oblique findfont
dup length dict begin
  {1 index /FID ne {def} {pop pop} ifelse} forall
  /Encoding WinAnsiEncoding def
  currentdict
end
/Courier-Oblique exch definefont pop
/Courier-BoldOblique findfont
dup length dict begin
  {1 index /FID ne {def} {pop pop} ifelse} forall
  /Encoding WinAnsiEncoding def
  currentdict
end
/Courier-BoldOblique exch definefont pop
/Courier-Bold findfont
dup length dict begin
  {1 index /FID ne {def} {pop pop} ifelse} forall
  /Encoding WinAnsiEncoding def
  currentdict
end
/Courier-Bold exch definefont pop
/Helvetica findfont
dup length dict begin
  {1 index /FID ne {def} {pop pop} ifelse} forall
  /Encoding WinAnsiEncoding def
  currentdict
end
/Helvetica exch definefont pop
/Helvetica-Oblique findfont
dup length dict begin
  {1 index /FID ne {def} {pop pop} ifelse} forall
  /Encoding WinAnsiEncoding def
  currentdict
end
/Helvetica-Oblique exch definefont pop
/Helvetica-Bold findfont
dup length dict begin
  {1 index /FID ne {def} {pop pop} ifelse} forall
  /Encoding WinAnsiEncoding def
  currentdict
end
/Helvetica-Bold exch definefont pop
/Helvetica-BoldOblique findfont
dup length dict begin
  {1 index /FID ne {def} {pop pop} ifelse} forall
  /Encoding WinAnsiEncoding def
  currentdict
end
/Helvetica-BoldOblique exch definefont pop
/Times-Roman findfont
dup length dict begin
  {1 index /FID ne {def} {pop pop} ifelse} forall
  /Encoding WinAnsiEncoding def
  currentdict
end
/Times-Roman exch definefont pop
/Times-Italic findfont
dup length dict begin
  {1 index /FID ne {def} {pop pop} ifelse} forall
  /Encoding WinAnsiEncoding def
  currentdict
end
/Times-Italic exch definefont pop
/Times-Bold findfont
dup length dict begin
  {1 index /FID ne {def} {pop pop} ifelse} forall
  /Encoding WinAnsiEncoding def
  currentdict
end
/Times-Bold exch definefont pop
/Times-BoldItalic findfont
dup length dict begin
  {1 index /FID ne {def} {pop pop} ifelse} forall
  /Encoding WinAnsiEncoding def
  currentdict
end
/Times-BoldItalic exch definefont pop
/Courier findfont
dup length dict begin
  {1 index /FID ne {def} {pop pop} ifelse} forall
  /Encoding WinAnsiEncoding def
  currentdict
end
/Courier exch definefont pop
%FOPEndFontReencode
%%EndProlog
%%Page: 1 1
%%PageBoundingBox: 0 0 560 420
%%BeginPageSetup
[1 0 0 -1 0 420] CT
%%EndPageSetup
GS
1 GC
N
0 0 560 420 re
f
GR
GS
1 GC
N
0 0 560 420 re
f
GR
GS
1 GC
N
76 351 M
507 351 L
507 39 L
76 39 L
cp
f
GR
GS
0.873 GC
1 LJ
0.5 LW
N
76 351 M
76 39 L
S
GR
GS
0.873 GC
1 LJ
0.5 LW
N
162.2 351 M
162.2 39 L
S
GR
GS
0.873 GC
1 LJ
0.5 LW
N
248.4 351 M
248.4 39 L
S
GR
GS
0.873 GC
1 LJ
0.5 LW
N
334.6 351 M
334.6 39 L
S
GR
GS
0.873 GC
1 LJ
0.5 LW
N
420.8 351 M
420.8 39 L
S
GR
GS
0.873 GC
1 LJ
0.5 LW
N
507 351 M
507 39 L
S
GR
GS
0.873 GC
1 LJ
0.5 LW
N
507 351 M
76 351 L
S
GR
GS
0.873 GC
1 LJ
0.5 LW
N
507 288.6 M
76 288.6 L
S
GR
GS
0.873 GC
1 LJ
0.5 LW
N
507 226.2 M
76 226.2 L
S
GR
GS
0.873 GC
1 LJ
0.5 LW
N
507 163.8 M
76 163.8 L
S
GR
GS
0.873 GC
1 LJ
0.5 LW
N
507 101.4 M
76 101.4 L
S
GR
GS
0.873 GC
1 LJ
0.5 LW
N
507 39 M
76 39 L
S
GR
GS
0.149 GC
2 setlinecap
1 LJ
0.5 LW
N
76 351 M
507 351 L
S
GR
GS
0.149 GC
2 setlinecap
1 LJ
0.5 LW
N
76 39 M
507 39 L
S
GR
GS
0.149 GC
2 setlinecap
1 LJ
0.5 LW
N
76 351 M
76 346.69 L
S
GR
GS
0.149 GC
2 setlinecap
1 LJ
0.5 LW
N
162.2 351 M
162.2 346.69 L
S
GR
GS
0.149 GC
2 setlinecap
1 LJ
0.5 LW
N
248.4 351 M
248.4 346.69 L
S
GR
GS
0.149 GC
2 setlinecap
1 LJ
0.5 LW
N
334.6 351 M
334.6 346.69 L
S
GR
GS
0.149 GC
2 setlinecap
1 LJ
0.5 LW
N
420.8 351 M
420.8 346.69 L
S
GR
GS
0.149 GC
2 setlinecap
1 LJ
0.5 LW
N
507 351 M
507 346.69 L
S
GR
GS
0.149 GC
2 setlinecap
1 LJ
0.5 LW
N
76 39 M
76 43.31 L
S
GR
GS
0.149 GC
2 setlinecap
1 LJ
0.5 LW
N
162.2 39 M
162.2 43.31 L
S
GR
GS
0.149 GC
2 setlinecap
1 LJ
0.5 LW
N
248.4 39 M
248.4 43.31 L
S
GR
GS
0.149 GC
2 setlinecap
1 LJ
0.5 LW
N
334.6 39 M
334.6 43.31 L
S
GR
GS
0.149 GC
2 setlinecap
1 LJ
0.5 LW
N
420.8 39 M
420.8 43.31 L
S
GR
GS
0.149 GC
2 setlinecap
1 LJ
0.5 LW
N
507 39 M
507 43.31 L
S
GR
GS
[1 0 0 1 76 357.79999] CT
0.149 GC
/Helvetica 24 F
GS
[1 0 0 1 0 0] CT
-7 23 moveto 
1 -1 scale
(0) t 
GR
GR
GS
[1 0 0 1 162.2 357.79999] CT
0.149 GC
/Helvetica 24 F
GS
[1 0 0 1 0 0] CT
-17 23 moveto 
1 -1 scale
(0.2) t 
GR
GR
GS
[1 0 0 1 248.40001 357.79999] CT
0.149 GC
/Helvetica 24 F
GS
[1 0 0 1 0 0] CT
-17 23 moveto 
1 -1 scale
(0.4) t 
GR
GR
GS
[1 0 0 1 334.60001 357.79999] CT
0.149 GC
/Helvetica 24 F
GS
[1 0 0 1 0 0] CT
-17 23 moveto 
1 -1 scale
(0.6) t 
GR
GR
GS
[1 0 0 1 420.80002 357.79999] CT
0.149 GC
/Helvetica 24 F
GS
[1 0 0 1 0 0] CT
-17 23 moveto 
1 -1 scale
(0.8) t 
GR
GR
GS
[1 0 0 1 507 357.79999] CT
0.149 GC
/Helvetica 24 F
GS
[1 0 0 1 0 0] CT
-7 23 moveto 
1 -1 scale
(1) t 
GR
GR
GS
[1 0 0 1 291.50021 387.79999] CT
0.149 GC
/Helvetica 26.4 F
GS
[1 0 0 1 0 0] CT
-112.5 26 moveto 
1 -1 scale
(False Positive Rate) t 
GR
GR
GS
0.149 GC
2 setlinecap
1 LJ
0.5 LW
N
76 351 M
76 39 L
S
GR
GS
0.149 GC
2 setlinecap
1 LJ
0.5 LW
N
507 351 M
507 39 L
S
GR
GS
0.149 GC
2 setlinecap
1 LJ
0.5 LW
N
76 351 M
80.31 351 L
S
GR
GS
0.149 GC
2 setlinecap
1 LJ
0.5 LW
N
76 288.6 M
80.31 288.6 L
S
GR
GS
0.149 GC
2 setlinecap
1 LJ
0.5 LW
N
76 226.2 M
80.31 226.2 L
S
GR
GS
0.149 GC
2 setlinecap
1 LJ
0.5 LW
N
76 163.8 M
80.31 163.8 L
S
GR
GS
0.149 GC
2 setlinecap
1 LJ
0.5 LW
N
76 101.4 M
80.31 101.4 L
S
GR
GS
0.149 GC
2 setlinecap
1 LJ
0.5 LW
N
76 39 M
80.31 39 L
S
GR
GS
0.149 GC
2 setlinecap
1 LJ
0.5 LW
N
507 351 M
502.69 351 L
S
GR
GS
0.149 GC
2 setlinecap
1 LJ
0.5 LW
N
507 288.6 M
502.69 288.6 L
S
GR
GS
0.149 GC
2 setlinecap
1 LJ
0.5 LW
N
507 226.2 M
502.69 226.2 L
S
GR
GS
0.149 GC
2 setlinecap
1 LJ
0.5 LW
N
507 163.8 M
502.69 163.8 L
S
GR
GS
0.149 GC
2 setlinecap
1 LJ
0.5 LW
N
507 101.4 M
502.69 101.4 L
S
GR
GS
0.149 GC
2 setlinecap
1 LJ
0.5 LW
N
507 39 M
502.69 39 L
S
GR
GS
[1 0 0 1 69.2 351] CT
0.149 GC
/Helvetica 24 F
GS
[1 0 0 1 0 0] CT
-14 8.5 moveto 
1 -1 scale
(0) t 
GR
GR
GS
[1 0 0 1 69.2 288.60001] CT
0.149 GC
/Helvetica 24 F
GS
[1 0 0 1 0 0] CT
-34 8.5 moveto 
1 -1 scale
(0.2) t 
GR
GR
GS
[1 0 0 1 69.2 226.2] CT
0.149 GC
/Helvetica 24 F
GS
[1 0 0 1 0 0] CT
-34 8.5 moveto 
1 -1 scale
(0.4) t 
GR
GR
GS
[1 0 0 1 69.2 163.79999] CT
0.149 GC
/Helvetica 24 F
GS
[1 0 0 1 0 0] CT
-34 8.5 moveto 
1 -1 scale
(0.6) t 
GR
GR
GS
[1 0 0 1 69.2 101.39999] CT
0.149 GC
/Helvetica 24 F
GS
[1 0 0 1 0 0] CT
-34 8.5 moveto 
1 -1 scale
(0.8) t 
GR
GR
GS
[1 0 0 1 69.2 39] CT
0.149 GC
/Helvetica 24 F
GS
[1 0 0 1 0 0] CT
-14 8.5 moveto 
1 -1 scale
(1) t 
GR
GR
GS
[0 -1 1 0 32.2 194.99985] CT
0.149 GC
/Helvetica 26.4 F
GS
[1 0 0 1 0 0] CT
-108 -6 moveto 
1 -1 scale
(True Positive Rate) t 
GR
GR
GS
[1 0 0 1 291.50027 32.40001] CT
/Helvetica-Bold 26.4 F
GS
[1 0 0 1 0 0] CT
-43 -6 moveto 
1 -1 scale
(IriCore) t 
GR
GR
GS
0 0 1 RC
1 LJ
3 LW
N
76 347.861 M
76 345.35 L
76 345.35 L
76 345.35 L
76 345.35 L
76 344.722 L
76 344.722 L
76 344.722 L
76 344.722 L
76 344.722 L
76 344.722 L
76 344.722 L
76 344.722 L
76 344.722 L
76 344.722 L
76 344.722 L
76 344.722 L
76 344.722 L
76 344.722 L
76 344.722 L
76 344.722 L
76 344.722 L
76 344.722 L
76 344.722 L
76 344.722 L
76 344.722 L
76 344.722 L
76 344.722 L
76 344.722 L
76 344.722 L
76 344.722 L
76 344.722 L
76 344.722 L
76 344.722 L
76 344.722 L
76 344.722 L
76 344.722 L
76 344.722 L
76 344.722 L
76 344.722 L
76 344.722 L
76 344.722 L
76 344.722 L
76 344.722 L
76 344.722 L
76 344.722 L
76 344.722 L
76 344.722 L
76 344.722 L
76 344.722 L
76 344.722 L
76 344.722 L
76 344.722 L
76 344.722 L
76 344.722 L
76 344.722 L
76 344.722 L
76 344.722 L
76 344.722 L
76 344.722 L
76 344.722 L
76 344.722 L
76 344.722 L
76 344.722 L
76 344.722 L
76 344.722 L
76 344.722 L
76 344.722 L
76 344.722 L
76 344.722 L
76 344.722 L
76 344.722 L
76 344.722 L
76 344.722 L
76 344.722 L
76 344.722 L
76 344.722 L
76 344.722 L
76 344.722 L
76 344.722 L
76 344.722 L
76 344.722 L
76 344.722 L
76 344.722 L
76 344.722 L
76 344.722 L
76 344.722 L
76 344.722 L
76 344.722 L
76 344.722 L
76 344.722 L
76 344.722 L
76 344.722 L
76 344.722 L
76 344.722 L
76 344.722 L
76 344.722 L
76 344.722 L
76 344.722 L
76 344.722 L
76 344.722 L
76 344.722 L
76 344.722 L
76 344.722 L
76 344.722 L
76 344.722 L
76 344.722 L
76 344.722 L
76 344.722 L
76 344.722 L
76 344.722 L
76 344.722 L
76 344.722 L
76 344.722 L
76 344.722 L
76 344.722 L
76 344.722 L
76 344.722 L
76 344.722 L
76 344.722 L
76 344.722 L
76 344.722 L
76 344.722 L
76 344.722 L
76 344.722 L
76 344.722 L
76 344.722 L
76 344.722 L
76 344.722 L
76 344.722 L
76 344.722 L
76 344.722 L
76 344.722 L
76 344.722 L
76 344.722 L
76 344.722 L
76 344.722 L
76 344.722 L
76 344.722 L
76 344.722 L
76 344.722 L
76 344.722 L
76 344.722 L
76 344.722 L
76 344.722 L
76 344.722 L
76 344.722 L
76 344.722 L
76 344.722 L
76 344.722 L
76 344.722 L
76 344.722 L
76 344.722 L
76 344.722 L
76 344.722 L
76 344.722 L
76 344.722 L
76 344.722 L
76 344.722 L
76 344.722 L
76 344.722 L
76 344.722 L
76 344.095 L
76 344.095 L
76 344.095 L
76 344.095 L
76 344.095 L
76 344.095 L
76 344.095 L
76 344.095 L
76 344.095 L
76 344.095 L
76 344.095 L
76 344.095 L
76 344.095 L
76 344.095 L
76 344.095 L
76 344.095 L
76 344.095 L
76 344.095 L
76 344.095 L
76 344.095 L
76 344.095 L
76 344.095 L
76 344.095 L
76 343.467 L
76 342.839 L
76 342.211 L
76 342.211 L
76 342.211 L
76 342.211 L
76 342.211 L
76 342.211 L
76 342.211 L
76 342.211 L
76 342.211 L
76 342.211 L
76 342.211 L
76 342.211 L
76 342.211 L
76 342.211 L
76 341.583 L
76 341.583 L
76 340.328 L
76 340.328 L
76 340.328 L
76 340.328 L
76 340.328 L
76 339.7 L
76 339.7 L
76 337.189 L
76 336.561 L
76 336.561 L
76 336.561 L
76 336.561 L
76 335.934 L
76 335.306 L
76 334.05 L
76 333.423 L
76 332.795 L
76 331.539 L
76 330.911 L
76 329.656 L
76 328.4 L
76 327.773 L
76 326.517 L
76 326.517 L
76 325.262 L
76 325.262 L
76 323.378 L
76 323.378 L
76 322.75 L
76 322.75 L
76 322.123 L
76 320.239 L
76 318.984 L
76 318.356 L
76 317.728 L
76 316.473 L
76 315.217 L
76 314.59 L
76 313.334 L
76 312.706 L
76 312.706 L
76 311.451 L
76 310.823 L
76 308.312 L
76 307.684 L
76 307.684 L
76 307.684 L
76 307.056 L
76 306.429 L
76 305.801 L
76 305.173 L
76 303.29 L
76 301.406 L
76 298.268 L
76 297.012 L
76 295.757 L
76 294.501 L
76 293.245 L
76 291.99 L
76 290.107 L
76 289.479 L
76 287.596 L
76 285.712 L
76 285.085 L
76 283.829 L
76 283.829 L
76 283.201 L
76 283.201 L
76 282.573 L
76 280.69 L
76 278.807 L
76 278.807 L
76 278.179 L
76 275.668 L
76 275.04 L
76 273.157 L
76 271.901 L
76 270.646 L
76 269.39 L
76 268.763 L
76 264.368 L
76 262.485 L
76 260.602 L
76 259.346 L
76 253.068 L
76 253.068 L
76 250.557 L
76 249.302 L
76 246.163 L
76 244.28 L
76 243.652 L
76 239.258 L
76 238.002 L
76 236.119 L
76 234.863 L
76 234.235 L
76 232.98 L
76 232.98 L
76 229.213 L
76 225.447 L
76 221.68 L
76 219.169 L
76 218.541 L
76 218.541 L
76 217.286 L
76 216.658 L
76 216.658 L
76 216.658 L
76 216.03 L
76 214.147 L
76 211.636 L
76 210.38 L
76 208.497 L
76 207.241 L
76 204.73 L
76 203.475 L
76 203.475 L
76 202.219 L
76 200.964 L
76 199.708 L
76 197.825 L
76 197.825 L
76 194.686 L
76 194.686 L
76 193.431 L
76 192.175 L
76 190.92 L
76 189.664 L
76 188.408 L
76 185.27 L
76 182.131 L
76 179.62 L
76 178.992 L
76 178.364 L
76 177.109 L
76 175.853 L
76 175.225 L
76 175.225 L
76 173.342 L
76 170.203 L
76 167.692 L
76 167.692 L
76 166.437 L
76 163.926 L
76 163.298 L
76 162.67 L
76 158.903 L
76 157.648 L
76 155.765 L
76 155.137 L
76 153.254 L
76 153.254 L
76 151.37 L
76 150.742 L
76 148.231 L
76 147.604 L
76 146.348 L
76 145.093 L
76 143.837 L
76 143.837 L
76 141.954 L
76 139.443 L
76 139.443 L
76 139.443 L
76 138.815 L
76 137.559 L
76 137.559 L
76 134.421 L
76 133.165 L
76 132.537 L
76 131.909 L
76 130.654 L
76 130.026 L
76 128.771 L
76 127.515 L
76 127.515 L
76 126.26 L
76 124.376 L
76 123.748 L
76 123.121 L
76 123.121 L
76 121.865 L
76 120.61 L
76 118.726 L
76 118.726 L
76 116.843 L
76 116.215 L
76 115.588 L
76 114.96 L
76 113.704 L
76 113.704 L
76 113.076 L
76 112.449 L
76 111.821 L
76 111.821 L
76 111.821 L
76 111.193 L
76 110.565 L
76 109.31 L
76 108.682 L
76 107.427 L
76 107.427 L
76 107.427 L
76 107.427 L
76 106.171 L
76 105.543 L
76 104.915 L
76 103.66 L
76 103.66 L
76 101.777 L
76 99.893 L
76 99.266 L
76 98.638 L
76 98.01 L
76 98.01 L
76 98.01 L
76 96.755 L
76 95.499 L
76 94.871 L
76 94.871 L
76 91.732 L
76 89.849 L
76 89.221 L
76 88.594 L
76 87.966 L
76 87.966 L
76 87.338 L
76 87.338 L
76 87.338 L
76 87.338 L
76 86.71 L
76 86.71 L
76 85.455 L
76 85.455 L
76 85.455 L
76 85.455 L
76 84.827 L
76 84.827 L
76 84.199 L
76 82.944 L
76 82.316 L
76 81.06 L
76 81.06 L
76 81.06 L
76 81.06 L
76 80.433 L
76 80.433 L
76 79.805 L
76 79.805 L
76 79.177 L
76 79.177 L
76 79.177 L
76 79.177 L
76 79.177 L
76 79.177 L
76 79.177 L
76 79.177 L
76 77.922 L
76 77.294 L
76 74.783 L
76 74.783 L
76 74.155 L
76 74.155 L
76 73.527 L
76 72.899 L
76 71.644 L
76 71.016 L
76 69.761 L
76 69.761 L
76 69.133 L
76 69.133 L
76 68.505 L
76 68.505 L
76 68.505 L
76 68.505 L
76 68.505 L
76 67.877 L
76 66.622 L
76 66.622 L
76 66.622 L
76 65.994 L
76 65.994 L
76 65.366 L
76 64.738 L
76 63.483 L
76 63.483 L
76 62.227 L
76 62.227 L
76 61.6 L
76 61.6 L
76 61.6 L
76 61.6 L
76 61.6 L
76 60.972 L
76 60.972 L
76 60.972 L
76 60.972 L
76 60.972 L
76 60.972 L
76 60.972 L
76 60.972 L
76 60.972 L
76 60.972 L
76 60.972 L
76 60.972 L
76 60.972 L
76 60.972 L
76 60.972 L
76 60.972 L
76 60.972 L
76 60.972 L
76 60.344 L
76 60.344 L
76 60.344 L
76 60.344 L
76 60.344 L
76 59.716 L
76 59.716 L
76 59.716 L
76 59.716 L
76 59.716 L
76 59.089 L
76 58.461 L
76 55.95 L
76 55.95 L
76 55.95 L
76 55.95 L
76 55.95 L
76 55.95 L
76 55.95 L
76 55.95 L
76 55.95 L
76 55.95 L
76 55.95 L
76 55.95 L
76 55.95 L
76 55.95 L
76 55.95 L
76 55.95 L
76 55.95 L
76 54.694 L
76 54.694 L
76 54.694 L
76 54.066 L
76 54.066 L
76 54.066 L
76 52.811 L
76 52.811 L
76 52.811 L
76 52.811 L
76 52.811 L
76 52.811 L
76.011 52.183 L
76.022 52.183 L
76.022 52.183 L
76.022 52.183 L
76.022 52.183 L
76.044 52.183 L
76.044 52.183 L
76.055 52.183 L
76.055 52.183 L
76.099 52.183 L
76.121 52.183 L
76.121 51.555 L
76.132 51.555 L
76.22 51.555 L
76.253 51.555 L
76.264 51.555 L
76.342 51.555 L
76.43 51.555 L
76.463 51.555 L
76.595 51.555 L
76.738 51.555 L
76.793 51.555 L
76.903 51.555 L
77.058 51.555 L
77.168 51.555 L
77.289 51.555 L
77.498 51.555 L
77.597 51.555 L
77.752 51.555 L
77.994 51.555 L
78.368 51.555 L
78.809 51.555 L
79.162 51.555 L
79.569 51.555 L
79.966 51.555 L
80.517 51.555 L
81.09 51.555 L
81.552 51.555 L
82.004 51.555 L
82.478 51.555 L
83.094 51.555 L
83.601 51.555 L
84.174 51.555 L
84.868 51.555 L
85.595 51.555 L
86.311 51.555 L
87.038 51.555 L
87.699 51.555 L
88.228 51.555 L
88.889 51.555 L
89.539 51.555 L
90.321 51.555 L
90.883 51.555 L
91.775 51.555 L
92.359 51.555 L
92.888 51.555 L
93.615 51.555 L
94.144 51.555 L
94.893 51.555 L
95.664 50.928 L
96.127 50.928 L
96.666 50.928 L
97.14 50.928 L
97.614 50.928 L
98.154 50.928 L
98.473 50.928 L
98.848 50.928 L
99.2 50.928 L
99.696 50.928 L
100.048 50.928 L
100.302 50.928 L
100.555 50.928 L
100.963 50.928 L
101.216 50.928 L
101.503 50.928 L
101.756 50.928 L
102.009 50.928 L
102.153 50.928 L
102.23 50.928 L
102.362 50.928 L
102.505 50.928 L
102.593 50.928 L
102.67 50.928 L
102.747 50.928 L
102.803 50.928 L
102.858 50.928 L
102.88 50.928 L
102.913 50.928 L
102.924 50.928 L
102.924 50.928 L
102.946 50.928 L
102.968 50.928 L
102.979 50.928 L
102.99 50.928 L
103.001 50.928 L
103.001 50.3 L
103.012 50.3 L
103.023 50.3 L
103.023 50.3 L
103.023 50.3 L
103.034 50.3 L
103.045 50.3 L
103.056 50.3 L
103.067 50.3 L
103.078 50.3 L
103.089 50.3 L
103.089 50.3 L
103.089 50.3 L
105.127 50.3 L
107.275 50.3 L
109.478 50.3 L
112.001 50.3 L
114.7 50.3 L
117.763 50.3 L
120.803 49.672 L
124.174 49.672 L
127.292 49.672 L
130.608 49.672 L
134.353 49.672 L
138.187 49.672 L
141.657 49.672 L
145.942 49.044 L
149.743 49.044 L
153.709 49.044 L
157.641 49.044 L
161.717 49.044 L
165.562 49.044 L
169.341 49.044 L
172.855 49.044 L
176.105 49.044 L
179.002 49.044 L
181.591 49.044 L
183.827 48.417 L
185.744 48.417 L
187.154 48.417 L
188.278 48.417 L
189.071 48.417 L
189.71 48.417 L
190.117 48.417 L
190.393 48.417 L
190.514 48.417 L
190.69 48.417 L
190.734 48.417 L
190.734 48.417 L
190.745 48.417 L
190.745 48.417 L
190.745 48.417 L
190.745 48.417 L
190.745 48.417 L
190.745 48.417 L
190.745 48.417 L
190.745 48.417 L
190.745 48.417 L
190.745 48.417 L
190.745 48.417 L
190.745 48.417 L
190.745 48.417 L
190.745 48.417 L
190.745 48.417 L
190.745 48.417 L
190.745 48.417 L
190.745 48.417 L
190.745 48.417 L
190.745 48.417 L
190.745 48.417 L
190.745 48.417 L
190.745 48.417 L
190.745 48.417 L
190.745 48.417 L
190.745 48.417 L
190.745 48.417 L
190.745 48.417 L
190.745 48.417 L
190.745 48.417 L
190.745 48.417 L
190.745 48.417 L
190.745 48.417 L
190.745 48.417 L
190.745 48.417 L
190.745 48.417 L
190.745 48.417 L
190.745 48.417 L
190.745 48.417 L
190.745 48.417 L
190.745 48.417 L
190.745 48.417 L
190.745 48.417 L
190.745 48.417 L
190.745 48.417 L
190.745 48.417 L
190.745 48.417 L
190.745 48.417 L
190.745 48.417 L
190.745 48.417 L
190.745 48.417 L
190.745 48.417 L
190.745 48.417 L
190.745 48.417 L
190.745 48.417 L
190.745 48.417 L
190.745 48.417 L
190.745 48.417 L
190.745 48.417 L
190.745 48.417 L
190.745 48.417 L
190.745 48.417 L
190.745 48.417 L
190.745 48.417 L
190.745 48.417 L
190.745 48.417 L
190.745 48.417 L
190.745 48.417 L
190.745 48.417 L
190.745 48.417 L
190.745 48.417 L
190.745 48.417 L
190.745 48.417 L
190.745 48.417 L
190.745 48.417 L
190.745 48.417 L
190.745 48.417 L
190.745 48.417 L
190.745 48.417 L
190.745 48.417 L
190.745 48.417 L
190.745 48.417 L
190.745 48.417 L
190.745 48.417 L
190.745 48.417 L
190.745 48.417 L
190.745 48.417 L
190.745 48.417 L
190.745 48.417 L
190.745 48.417 L
190.745 48.417 L
190.745 48.417 L
190.745 48.417 L
190.745 48.417 L
190.745 48.417 L
190.745 48.417 L
190.745 48.417 L
190.745 48.417 L
190.745 48.417 L
190.745 48.417 L
190.745 48.417 L
190.745 48.417 L
190.745 48.417 L
190.745 48.417 L
190.745 48.417 L
190.745 48.417 L
190.745 48.417 L
190.745 48.417 L
190.745 48.417 L
190.745 48.417 L
190.745 48.417 L
190.745 48.417 L
190.745 48.417 L
190.745 48.417 L
190.745 48.417 L
190.745 48.417 L
190.745 48.417 L
190.745 48.417 L
190.745 48.417 L
190.745 48.417 L
190.745 48.417 L
190.745 48.417 L
190.745 48.417 L
190.745 48.417 L
190.745 48.417 L
190.745 48.417 L
190.745 48.417 L
190.745 48.417 L
190.745 48.417 L
190.745 48.417 L
190.745 48.417 L
190.745 48.417 L
190.745 48.417 L
190.745 48.417 L
190.745 48.417 L
190.745 48.417 L
190.745 48.417 L
190.745 48.417 L
190.745 48.417 L
190.745 48.417 L
190.745 48.417 L
190.745 48.417 L
190.745 48.417 L
190.745 48.417 L
190.745 48.417 L
190.745 48.417 L
190.745 48.417 L
190.745 48.417 L
190.745 48.417 L
190.745 48.417 L
190.745 48.417 L
190.745 48.417 L
190.745 48.417 L
190.745 48.417 L
190.745 48.417 L
190.745 48.417 L
190.745 48.417 L
190.745 48.417 L
190.745 48.417 L
190.745 48.417 L
190.745 48.417 L
190.745 48.417 L
190.745 48.417 L
190.745 48.417 L
190.745 48.417 L
190.745 48.417 L
190.745 48.417 L
190.745 48.417 L
190.745 48.417 L
190.745 48.417 L
190.745 48.417 L
190.745 48.417 L
190.745 48.417 L
190.745 48.417 L
190.745 48.417 L
190.745 48.417 L
190.745 48.417 L
190.745 48.417 L
190.745 48.417 L
190.745 48.417 L
190.745 48.417 L
190.745 48.417 L
190.745 48.417 L
190.745 48.417 L
190.745 48.417 L
190.745 48.417 L
190.745 48.417 L
190.745 48.417 L
190.745 48.417 L
190.745 48.417 L
190.745 48.417 L
190.745 48.417 L
190.745 48.417 L
190.745 48.417 L
190.745 48.417 L
190.745 48.417 L
190.745 48.417 L
190.745 48.417 L
190.745 48.417 L
190.745 48.417 L
190.745 48.417 L
190.745 48.417 L
190.745 48.417 L
190.745 48.417 L
190.745 48.417 L
190.745 48.417 L
190.745 48.417 L
190.745 48.417 L
190.745 48.417 L
190.745 48.417 L
190.745 48.417 L
190.745 48.417 L
190.745 48.417 L
190.745 48.417 L
190.745 48.417 L
190.745 48.417 L
190.745 48.417 L
190.745 48.417 L
190.745 48.417 L
190.745 48.417 L
190.745 48.417 L
190.745 48.417 L
190.745 48.417 L
190.745 48.417 L
190.745 48.417 L
190.745 48.417 L
190.745 48.417 L
190.745 48.417 L
190.745 48.417 L
190.745 48.417 L
190.745 48.417 L
190.745 48.417 L
190.745 48.417 L
190.745 48.417 L
190.745 48.417 L
190.745 48.417 L
190.745 48.417 L
190.745 48.417 L
190.745 48.417 L
190.745 48.417 L
190.745 48.417 L
190.745 48.417 L
190.745 48.417 L
190.745 48.417 L
190.745 48.417 L
190.745 48.417 L
190.745 48.417 L
190.745 48.417 L
190.745 48.417 L
190.745 48.417 L
190.745 48.417 L
190.745 48.417 L
190.745 48.417 L
190.745 48.417 L
190.745 48.417 L
190.745 48.417 L
190.745 48.417 L
190.745 48.417 L
190.745 48.417 L
190.745 48.417 L
190.745 48.417 L
190.745 48.417 L
190.745 48.417 L
190.745 48.417 L
190.745 48.417 L
190.745 48.417 L
190.745 48.417 L
190.745 48.417 L
190.745 48.417 L
190.745 48.417 L
190.745 48.417 L
190.745 48.417 L
190.745 48.417 L
190.745 48.417 L
190.745 48.417 L
190.745 48.417 L
190.745 48.417 L
190.745 48.417 L
190.745 48.417 L
190.745 48.417 L
190.745 48.417 L
190.745 48.417 L
190.745 48.417 L
190.745 48.417 L
190.745 48.417 L
190.745 48.417 L
190.745 48.417 L
190.745 48.417 L
190.745 48.417 L
190.745 48.417 L
190.745 48.417 L
190.745 48.417 L
190.745 48.417 L
190.745 48.417 L
190.745 48.417 L
190.745 48.417 L
190.745 48.417 L
190.745 48.417 L
190.745 48.417 L
190.745 48.417 L
190.745 48.417 L
507 39 L
S
GR
GS
1 0 0 RC
1 LJ
3 LW
N
76 350.697 M
76 350.697 L
76 350.697 L
76 350.697 L
76 350.697 L
76 350.697 L
76 350.697 L
76 350.393 L
76 350.09 L
76 350.09 L
76 349.786 L
76 349.786 L
76 349.786 L
76 349.786 L
76 349.786 L
76 349.786 L
76 349.482 L
76 349.482 L
76 349.482 L
76 349.482 L
76 349.482 L
76 349.482 L
76 349.179 L
76 348.875 L
76 348.268 L
76 347.965 L
76 347.661 L
76 347.661 L
76 347.358 L
76 346.751 L
76 346.144 L
76 346.144 L
76 346.144 L
76 345.84 L
76 345.84 L
76 345.84 L
76 345.84 L
76 345.537 L
76 345.233 L
76 345.233 L
76 344.626 L
76 344.019 L
76 343.716 L
76 343.716 L
76 343.109 L
76 342.502 L
76 342.198 L
76 341.288 L
76 340.681 L
76 340.074 L
76 339.77 L
76 339.467 L
76 338.86 L
76 338.86 L
76 338.556 L
76 338.253 L
76 337.646 L
76 337.039 L
76 336.432 L
76 335.825 L
76 335.521 L
76 334.914 L
76 334.914 L
76 334.611 L
76 334.004 L
76 333.7 L
76 333.7 L
76 333.397 L
76 333.397 L
76 333.093 L
76 332.486 L
76 331.879 L
76 330.665 L
76 329.755 L
76 328.541 L
76 327.63 L
76 326.72 L
76 326.416 L
76 326.416 L
76 325.809 L
76 325.202 L
76 324.899 L
76 324.292 L
76 322.774 L
76 321.864 L
76 321.257 L
76 320.65 L
76 319.436 L
76 318.525 L
76 316.704 L
76 315.794 L
76 315.187 L
76 313.669 L
76 313.062 L
76 311.241 L
76 310.938 L
76 310.027 L
76 309.117 L
76 308.51 L
76 308.206 L
76 307.296 L
76 306.689 L
76 305.778 L
76 303.957 L
76 303.35 L
76 302.44 L
76 302.136 L
76 301.833 L
76 300.619 L
76 298.494 L
76 296.977 L
76 296.066 L
76 293.942 L
76 292.121 L
76 290.3 L
76 290.3 L
76 289.693 L
76 288.175 L
76 287.568 L
76 286.354 L
76 285.444 L
76 284.23 L
76 283.623 L
76 282.105 L
76 279.677 L
76 278.463 L
76 277.249 L
76 276.339 L
76 275.125 L
76 274.821 L
76 273.91 L
76 273 L
76 271.786 L
76 270.875 L
76 270.268 L
76 269.661 L
76 269.661 L
76 268.751 L
76 266.93 L
76 264.805 L
76 264.502 L
76 262.681 L
76 261.77 L
76 260.86 L
76 259.949 L
76 259.342 L
76 258.128 L
76 257.825 L
76 256.611 L
76 256.004 L
76 255.7 L
76 255.397 L
76 254.79 L
76 253.879 L
76 252.665 L
76 251.755 L
76 251.148 L
76 250.844 L
76 249.023 L
76 247.809 L
76 245.988 L
76 244.774 L
76 243.56 L
76 242.043 L
76 239.918 L
76 239.311 L
76 238.401 L
76 238.097 L
76 237.187 L
76 235.366 L
76 234.152 L
76 232.634 L
76 231.42 L
76 231.117 L
76 230.206 L
76 228.992 L
76 227.778 L
76 225.654 L
76 225.047 L
76 223.833 L
76 222.619 L
76 221.405 L
76 220.191 L
76 218.37 L
76 217.459 L
76 215.638 L
76 215.335 L
76 212.3 L
76 211.996 L
76 211.086 L
76 209.265 L
76 208.051 L
76 207.444 L
76 206.23 L
76 205.926 L
76 204.105 L
76 203.498 L
76 202.284 L
76 201.07 L
76 200.16 L
76 198.946 L
76 197.125 L
76 196.214 L
76 195.607 L
76 194.089 L
76 193.482 L
76 192.572 L
76 190.144 L
76 188.626 L
76 186.502 L
76 184.984 L
76 183.467 L
76 182.556 L
76 181.342 L
76 180.432 L
76 180.432 L
76 178.611 L
76 177.7 L
76 176.183 L
76 173.755 L
76 173.148 L
76 172.237 L
76 171.327 L
76 170.113 L
76 169.506 L
76 168.595 L
76 167.381 L
76 164.953 L
76 164.346 L
76 163.739 L
76 162.222 L
76 160.704 L
76 160.097 L
76 158.883 L
76 157.366 L
76 156.759 L
76 155.241 L
76 154.331 L
76 153.724 L
76 153.42 L
76 153.117 L
76 152.206 L
76 151.296 L
76 150.689 L
76 149.475 L
76 148.564 L
76 147.35 L
76 146.743 L
76 145.833 L
76 143.405 L
76 140.977 L
76 140.066 L
76 139.156 L
76 137.335 L
76 137.335 L
76 137.031 L
76 135.817 L
76 135.21 L
76 134.3 L
76 133.693 L
76 132.782 L
76 130.961 L
76 129.747 L
76 129.444 L
76 128.23 L
76 127.926 L
76 127.623 L
76 127.319 L
76 126.409 L
76 126.409 L
76 126.105 L
76 125.498 L
76 125.195 L
76 124.588 L
76 123.981 L
76 123.677 L
76 123.07 L
76 121.553 L
76 120.642 L
76 119.732 L
76 119.428 L
76 118.518 L
76 117.303 L
76 117.303 L
76 116.697 L
76 115.482 L
76 114.572 L
76 114.268 L
76 114.268 L
76 113.965 L
76 113.661 L
76 112.447 L
76 111.537 L
76 111.233 L
76 110.626 L
76 110.626 L
76 110.019 L
76 109.109 L
76 108.502 L
76 107.591 L
76 106.984 L
76 106.074 L
76 105.467 L
76 104.86 L
76 104.253 L
76 103.646 L
76 103.039 L
76 102.735 L
76 101.825 L
76 101.521 L
76 101.521 L
76 100.004 L
76 99.7 L
76 99.093 L
76 99.093 L
76 98.183 L
76 97.576 L
76 97.272 L
76 96.665 L
76 96.665 L
76 95.451 L
76 95.451 L
76 94.541 L
76 94.541 L
76 93.934 L
76 93.327 L
76 93.327 L
76 93.023 L
76 92.416 L
76 92.416 L
76 91.202 L
76 90.595 L
76 89.988 L
76 89.078 L
76 89.078 L
76 88.774 L
76 88.167 L
76 86.953 L
76 86.65 L
76 85.739 L
76 85.132 L
76 84.829 L
76 84.525 L
76 84.525 L
76 83.918 L
76 83.311 L
76 82.704 L
76 82.401 L
76 82.401 L
76 82.401 L
76 82.097 L
76 81.49 L
76 81.187 L
76 80.58 L
76 79.669 L
76 79.366 L
76 79.366 L
76 78.152 L
76 77.545 L
76 77.545 L
76 77.241 L
76 76.938 L
76 76.938 L
76 76.634 L
76 76.331 L
76 76.027 L
76 75.42 L
76 75.117 L
76 74.206 L
76 74.206 L
76 73.296 L
76 73.296 L
76 73.296 L
76 73.296 L
76 72.992 L
76 72.992 L
76 72.992 L
76 72.992 L
76 72.689 L
76 72.689 L
76 72.689 L
76 72.385 L
76 72.385 L
76 72.082 L
76 71.778 L
76 71.778 L
76 71.171 L
76 70.564 L
76 70.564 L
76 70.261 L
76 69.957 L
76 69.957 L
76 69.654 L
76 69.35 L
76 69.35 L
76 69.047 L
76 68.743 L
76 67.833 L
76 67.529 L
76 67.226 L
76 67.226 L
76 66.619 L
76 66.315 L
76 66.012 L
76 66.012 L
76 66.012 L
76 64.798 L
76 64.494 L
76 63.887 L
76 63.887 L
76 63.887 L
76 63.887 L
76 63.28 L
76 62.977 L
76 62.977 L
76 62.977 L
76 62.977 L
76 62.673 L
76 62.673 L
76 62.673 L
76 62.673 L
76 62.673 L
76 62.37 L
76 62.066 L
76 60.852 L
76 60.245 L
76 60.245 L
76 60.245 L
76 59.942 L
76 59.638 L
76 59.335 L
76 59.335 L
76 59.335 L
76 59.335 L
76 59.335 L
76 59.031 L
76 59.031 L
76 59.031 L
76 58.728 L
76 58.728 L
76 58.121 L
76 57.817 L
76 56.907 L
76 56.907 L
76 56.907 L
76 56.603 L
76 56.3 L
76 56.3 L
76 56.3 L
76 55.996 L
76 55.996 L
76 55.996 L
76 55.996 L
76 55.996 L
76 55.996 L
76 55.996 L
76 55.996 L
76 55.996 L
76 55.996 L
76 55.693 L
76 55.389 L
76 55.086 L
76 55.086 L
76 54.782 L
76 54.782 L
76 54.782 L
76 54.782 L
76 54.782 L
76 54.479 L
76 54.479 L
76 54.175 L
76 54.175 L
76 54.175 L
76 53.872 L
76 53.872 L
76 53.872 L
76 53.872 L
76 53.872 L
76 53.265 L
76 53.265 L
76 53.265 L
76 53.265 L
76.006 53.265 L
76.006 52.961 L
76.006 52.354 L
76.006 52.354 L
76.006 52.354 L
76.006 52.354 L
76.017 52.354 L
76.029 52.051 L
76.029 52.051 L
76.04 52.051 L
76.046 52.051 L
76.069 52.051 L
76.092 52.051 L
76.097 51.747 L
76.097 51.747 L
76.132 51.747 L
76.155 51.444 L
76.183 51.14 L
76.195 51.14 L
76.258 51.14 L
76.327 51.14 L
76.35 50.837 L
76.401 50.533 L
76.493 49.926 L
76.539 49.623 L
76.63 49.016 L
76.722 49.016 L
76.837 49.016 L
76.963 49.016 L
77.106 49.016 L
77.203 49.016 L
77.398 49.016 L
77.564 48.712 L
77.776 48.712 L
77.948 48.409 L
78.206 48.409 L
78.435 48.105 L
78.682 47.802 L
78.922 47.498 L
79.226 47.498 L
79.564 47.498 L
79.914 47.498 L
80.298 47.498 L
80.733 47.195 L
81.117 47.195 L
81.558 46.891 L
81.925 46.891 L
82.315 46.891 L
82.859 46.588 L
83.386 46.588 L
83.867 46.588 L
84.452 46.588 L
85.019 46.588 L
85.564 46.588 L
86.114 46.588 L
86.687 46.284 L
87.409 45.677 L
88.073 45.677 L
88.595 45.374 L
89.317 45.07 L
89.958 45.07 L
90.658 45.07 L
91.236 45.07 L
91.884 45.07 L
92.451 45.07 L
93.087 44.767 L
93.672 44.767 L
94.268 44.767 L
94.881 44.767 L
95.316 44.463 L
95.792 44.463 L
96.164 44.463 L
96.64 44.463 L
97.012 44.463 L
97.408 44.463 L
97.751 44.463 L
98.135 44.16 L
98.502 44.16 L
98.886 44.16 L
99.241 44.16 L
99.516 43.856 L
99.74 43.856 L
99.975 43.553 L
100.215 43.553 L
100.399 43.553 L
100.599 43.553 L
100.748 43.553 L
100.823 43.553 L
100.937 43.553 L
101.086 43.553 L
101.161 43.553 L
101.241 43.553 L
101.316 43.553 L
101.396 43.553 L
101.442 43.553 L
101.499 43.553 L
101.55 43.553 L
101.608 43.553 L
101.625 43.553 L
101.677 43.553 L
101.728 43.553 L
101.734 43.553 L
101.757 43.553 L
101.785 43.553 L
101.803 43.553 L
101.803 43.553 L
101.826 43.553 L
101.826 43.553 L
101.831 43.553 L
101.843 43.553 L
101.843 43.553 L
101.843 43.553 L
101.86 43.553 L
101.883 43.553 L
101.883 43.553 L
101.883 43.553 L
101.883 43.553 L
101.883 43.553 L
101.883 43.553 L
101.883 43.553 L
101.883 43.553 L
101.883 43.553 L
102.502 43.553 L
104.691 43.249 L
107.057 42.946 L
109.613 42.946 L
112.34 42.946 L
115.005 42.946 L
118.145 42.946 L
121.48 42.946 L
124.803 42.946 L
128.184 42.642 L
131.777 42.642 L
135.576 42.642 L
139.524 42.642 L
143.5 42.339 L
147.752 42.035 L
152.233 42.035 L
156.645 42.035 L
161.269 42.035 L
166.02 41.732 L
170.793 41.732 L
174.884 41.732 L
179.073 41.732 L
183.009 41.732 L
186.574 41.732 L
190.189 41.732 L
193.495 41.732 L
196.624 41.732 L
199.283 41.732 L
201.489 41.732 L
203.277 41.428 L
204.841 41.428 L
206.039 41.428 L
207.059 41.428 L
207.815 41.428 L
208.474 41.428 L
208.927 41.428 L
209.19 41.428 L
209.328 41.428 L
209.431 41.428 L
209.448 41.428 L
209.494 41.428 L
209.494 41.428 L
209.494 41.428 L
209.494 41.428 L
209.494 41.428 L
209.494 41.428 L
209.494 41.428 L
209.494 41.428 L
209.494 41.428 L
209.494 41.428 L
209.494 41.428 L
209.494 41.428 L
209.494 41.428 L
209.494 41.428 L
209.494 41.428 L
209.494 41.428 L
209.494 41.428 L
209.494 41.428 L
209.494 41.428 L
209.494 41.428 L
209.494 41.428 L
209.494 41.428 L
209.494 41.428 L
209.494 41.428 L
209.494 41.428 L
209.494 41.428 L
209.494 41.428 L
209.494 41.428 L
209.494 41.428 L
209.494 41.428 L
209.494 41.428 L
209.494 41.428 L
209.494 41.428 L
209.494 41.428 L
209.494 41.428 L
209.494 41.428 L
209.494 41.428 L
209.494 41.428 L
209.494 41.428 L
209.494 41.428 L
209.494 41.428 L
209.494 41.428 L
209.494 41.428 L
209.494 41.428 L
209.494 41.428 L
209.494 41.428 L
209.494 41.428 L
209.494 41.428 L
209.494 41.428 L
209.494 41.428 L
209.494 41.428 L
209.494 41.428 L
209.494 41.428 L
209.494 41.428 L
209.494 41.428 L
209.494 41.428 L
209.494 41.428 L
209.494 41.428 L
209.494 41.428 L
209.494 41.428 L
209.494 41.428 L
209.494 41.428 L
209.494 41.428 L
209.494 41.428 L
209.494 41.428 L
209.494 41.428 L
209.494 41.428 L
209.494 41.428 L
209.494 41.428 L
209.494 41.428 L
209.494 41.428 L
209.494 41.428 L
209.494 41.428 L
209.494 41.428 L
209.494 41.428 L
209.494 41.428 L
209.494 41.428 L
209.494 41.428 L
209.494 41.428 L
209.494 41.428 L
209.494 41.428 L
209.494 41.428 L
209.494 41.428 L
209.494 41.428 L
209.494 41.428 L
209.494 41.428 L
209.494 41.428 L
209.494 41.428 L
209.494 41.428 L
209.494 41.428 L
209.494 41.428 L
209.494 41.428 L
209.494 41.428 L
209.494 41.428 L
209.494 41.428 L
209.494 41.428 L
209.494 41.428 L
209.494 41.428 L
209.494 41.428 L
209.494 41.428 L
209.494 41.428 L
209.494 41.428 L
209.494 41.428 L
209.494 41.428 L
209.494 41.428 L
209.494 41.428 L
209.494 41.428 L
209.494 41.428 L
209.494 41.428 L
209.494 41.428 L
209.494 41.428 L
209.494 41.428 L
209.494 41.428 L
209.494 41.428 L
209.494 41.428 L
209.494 41.428 L
209.494 41.428 L
209.494 41.428 L
209.494 41.428 L
209.494 41.428 L
209.494 41.428 L
209.494 41.428 L
209.494 41.428 L
209.494 41.428 L
209.494 41.428 L
209.494 41.428 L
209.494 41.428 L
209.494 41.428 L
209.494 41.428 L
209.494 41.428 L
209.494 41.428 L
209.494 41.428 L
209.494 41.428 L
209.494 41.428 L
209.494 41.428 L
209.494 41.428 L
209.494 41.428 L
209.494 41.428 L
209.494 41.428 L
209.494 41.428 L
209.494 41.428 L
209.494 41.428 L
209.494 41.428 L
209.494 41.428 L
209.494 41.428 L
209.494 41.428 L
209.494 41.428 L
209.494 41.428 L
209.494 41.428 L
209.494 41.428 L
209.494 41.428 L
209.494 41.428 L
209.494 41.428 L
209.494 41.428 L
209.494 41.428 L
209.494 41.428 L
209.494 41.428 L
209.494 41.428 L
209.494 41.428 L
209.494 41.428 L
209.494 41.428 L
209.494 41.428 L
209.494 41.428 L
209.494 41.428 L
209.494 41.428 L
209.494 41.428 L
209.494 41.428 L
209.494 41.428 L
209.494 41.428 L
209.494 41.428 L
209.494 41.428 L
209.494 41.428 L
209.494 41.428 L
209.494 41.428 L
209.494 41.428 L
209.494 41.428 L
209.494 41.428 L
209.494 41.428 L
209.494 41.428 L
209.494 41.428 L
209.494 41.428 L
209.494 41.428 L
209.494 41.428 L
209.494 41.428 L
209.494 41.428 L
209.494 41.428 L
209.494 41.428 L
209.494 41.428 L
209.494 41.428 L
209.494 41.428 L
209.494 41.428 L
209.494 41.428 L
209.494 41.428 L
209.494 41.428 L
209.494 41.428 L
209.494 41.428 L
209.494 41.428 L
209.494 41.428 L
209.494 41.428 L
209.494 41.428 L
209.494 41.428 L
209.494 41.428 L
209.494 41.428 L
209.494 41.428 L
209.494 41.428 L
209.494 41.428 L
209.494 41.428 L
209.494 41.428 L
209.494 41.428 L
209.494 41.428 L
209.494 41.428 L
209.494 41.428 L
209.494 41.428 L
209.494 41.428 L
209.494 41.428 L
209.494 41.428 L
209.494 41.428 L
209.494 41.428 L
209.494 41.428 L
209.494 41.428 L
209.494 41.428 L
209.494 41.428 L
209.494 41.428 L
209.494 41.428 L
209.494 41.428 L
209.494 41.428 L
209.494 41.428 L
209.494 41.428 L
209.494 41.428 L
209.494 41.428 L
209.494 41.428 L
209.494 41.428 L
209.494 41.428 L
209.494 41.428 L
209.494 41.428 L
209.494 41.428 L
209.494 41.428 L
209.494 41.428 L
209.494 41.428 L
209.494 41.428 L
209.494 41.428 L
209.494 41.428 L
209.494 41.428 L
209.494 41.428 L
209.494 41.428 L
209.494 41.428 L
209.494 41.428 L
209.494 41.428 L
209.494 41.428 L
209.494 41.428 L
209.494 41.428 L
209.494 41.428 L
209.494 41.428 L
209.494 41.428 L
209.494 41.428 L
209.494 41.428 L
209.494 41.428 L
209.494 41.428 L
209.494 41.428 L
209.494 41.428 L
209.494 41.428 L
209.494 41.428 L
209.494 41.428 L
209.494 41.428 L
209.494 41.428 L
209.494 41.428 L
209.494 41.428 L
209.494 41.428 L
209.494 41.428 L
209.494 41.428 L
209.494 41.428 L
209.494 41.428 L
209.494 41.428 L
209.494 41.428 L
209.494 41.428 L
209.494 41.428 L
209.494 41.428 L
209.494 41.428 L
209.494 41.428 L
209.494 41.428 L
209.494 41.428 L
209.494 41.428 L
209.494 41.428 L
209.494 41.428 L
209.494 41.428 L
209.494 41.428 L
209.494 41.428 L
209.494 41.428 L
209.494 41.428 L
209.494 41.428 L
209.494 41.428 L
209.494 41.428 L
209.494 41.428 L
209.494 41.428 L
209.494 41.428 L
209.494 41.428 L
209.494 41.428 L
209.494 41.428 L
209.494 41.428 L
209.494 41.428 L
209.494 41.428 L
209.494 41.428 L
209.494 41.428 L
209.494 41.428 L
209.494 41.428 L
209.494 41.428 L
209.494 41.428 L
209.494 41.428 L
209.494 41.428 L
209.494 41.428 L
209.494 41.428 L
209.494 41.428 L
209.494 41.428 L
209.494 41.428 L
209.494 41.428 L
209.494 41.428 L
209.494 41.428 L
209.494 41.428 L
209.494 41.428 L
209.494 41.428 L
209.494 41.428 L
209.494 41.428 L
209.494 41.428 L
209.494 41.428 L
209.494 41.428 L
209.494 41.428 L
209.494 41.428 L
209.494 41.428 L
209.494 41.428 L
209.494 41.428 L
209.494 41.428 L
209.494 41.428 L
209.494 41.428 L
209.494 41.428 L
209.494 41.428 L
209.494 41.428 L
209.494 41.428 L
209.494 41.428 L
209.494 41.428 L
209.494 41.428 L
209.494 41.428 L
209.494 41.428 L
209.494 41.428 L
209.494 41.428 L
209.494 41.428 L
209.494 41.428 L
209.494 41.428 L
209.494 41.428 L
209.494 41.428 L
209.494 41.428 L
209.494 41.428 L
209.494 41.428 L
209.494 41.428 L
209.494 41.428 L
209.494 41.428 L
209.494 41.428 L
507 39 L
S
GR
GS
[12 12] 0 setdash
2 LJ
3 LW
N
76 350.804 M
76 350.608 L
76 350.412 L
76 350.412 L
76 350.412 L
76 350.217 L
76 350.217 L
76 350.021 L
76 349.825 L
76 349.629 L
76 349.433 L
76 349.433 L
76 349.041 L
76 349.041 L
76 349.041 L
76 348.846 L
76 348.846 L
76 348.65 L
76 348.65 L
76 348.454 L
76 348.258 L
76 348.258 L
76 348.258 L
76 348.258 L
76 348.258 L
76 347.866 L
76 347.67 L
76 347.475 L
76 347.475 L
76 347.279 L
76 347.279 L
76 347.279 L
76 347.279 L
76 347.083 L
76 347.083 L
76 346.887 L
76 346.691 L
76 346.691 L
76 346.691 L
76 346.299 L
76 346.299 L
76 346.104 L
76 346.104 L
76 346.104 L
76 345.908 L
76 345.516 L
76 345.516 L
76 345.516 L
76 345.516 L
76 345.516 L
76 345.516 L
76 345.516 L
76 345.124 L
76 344.733 L
76 344.733 L
76 344.537 L
76 344.537 L
76 344.537 L
76 344.341 L
76 344.341 L
76 344.341 L
76 344.341 L
76 344.145 L
76 344.145 L
76 344.145 L
76 343.949 L
76 343.949 L
76 343.753 L
76 343.362 L
76 343.166 L
76 343.166 L
76 343.166 L
76 342.774 L
76 342.382 L
76 342.382 L
76 342.382 L
76 342.382 L
76 342.382 L
76 342.382 L
76 342.186 L
76 341.991 L
76 341.403 L
76 341.403 L
76 341.403 L
76 341.207 L
76 341.011 L
76 340.815 L
76 340.424 L
76 340.228 L
76 340.032 L
76 339.64 L
76 339.053 L
76 339.053 L
76 338.857 L
76 338.465 L
76 338.465 L
76 338.073 L
76 337.878 L
76 337.878 L
76 337.682 L
76 337.486 L
76 337.29 L
76 336.898 L
76 336.507 L
76 336.115 L
76 335.527 L
76 335.527 L
76 334.744 L
76 334.548 L
76 334.352 L
76 334.156 L
76 334.156 L
76 333.569 L
76 333.373 L
76 333.177 L
76 332.198 L
76 332.198 L
76 332.198 L
76 332.002 L
76 331.61 L
76 330.827 L
76 330.043 L
76 329.652 L
76 329.456 L
76 329.26 L
76 328.868 L
76 328.672 L
76 328.085 L
76 327.693 L
76 327.301 L
76 326.518 L
76 326.322 L
76 325.93 L
76 325.93 L
76 325.539 L
76 325.147 L
76 324.951 L
76 324.363 L
76 323.776 L
76 323.188 L
76 322.405 L
76 322.013 L
76 321.621 L
76 321.426 L
76 321.034 L
76 321.034 L
76 320.446 L
76 320.055 L
76 319.663 L
76 319.467 L
76 318.488 L
76 317.9 L
76 317.313 L
76 316.921 L
76 315.942 L
76 315.158 L
76 314.375 L
76 313.591 L
76 313.004 L
76 312.024 L
76 311.633 L
76 311.045 L
76 310.849 L
76 310.653 L
76 309.674 L
76 308.891 L
76 308.499 L
76 307.911 L
76 307.324 L
76 306.345 L
76 305.169 L
76 304.778 L
76 304.582 L
76 304.19 L
76 303.015 L
76 302.427 L
76 301.644 L
76 301.056 L
76 300.665 L
76 299.49 L
76 298.706 L
76 298.119 L
76 296.748 L
76 295.768 L
76 294.006 L
76 293.418 L
76 292.243 L
76 291.46 L
76 290.48 L
76 289.501 L
76 289.109 L
76 288.326 L
76 286.759 L
76 285.976 L
76 285.192 L
76 284.8 L
76 284.213 L
76 283.821 L
76 282.842 L
76 281.079 L
76 280.1 L
76 279.121 L
76 277.945 L
76 277.162 L
76 276.574 L
76 275.203 L
76 274.42 L
76 272.657 L
76 271.678 L
76 271.482 L
76 271.09 L
76 270.895 L
76 270.699 L
76 269.328 L
76 267.957 L
76 267.173 L
76 266.586 L
76 265.998 L
76 265.411 L
76 265.019 L
76 264.235 L
76 263.844 L
76 263.648 L
76 262.864 L
76 262.669 L
76 262.081 L
76 261.493 L
76 261.102 L
76 260.71 L
76 260.514 L
76 258.947 L
76 258.164 L
76 257.185 L
76 256.793 L
76 256.401 L
76 255.618 L
76 255.03 L
76 254.051 L
76 253.463 L
76 252.092 L
76 251.309 L
76 250.721 L
76 250.134 L
76 249.546 L
76 248.763 L
76 247.196 L
76 246.021 L
76 245.433 L
76 244.846 L
76 243.083 L
76 241.908 L
76 240.537 L
76 238.97 L
76 238.382 L
76 237.795 L
76 236.424 L
76 234.465 L
76 232.898 L
76 231.723 L
76 230.744 L
76 229.765 L
76 228.981 L
76 227.61 L
76 226.827 L
76 225.847 L
76 224.868 L
76 223.105 L
76 222.322 L
76 220.951 L
76 219.776 L
76 218.405 L
76 216.642 L
76 214.684 L
76 213.117 L
76 211.942 L
76 210.766 L
76 209.2 L
76 208.024 L
76 206.066 L
76 205.087 L
76 202.54 L
76 201.365 L
76 200.778 L
76 199.603 L
76 198.623 L
76 197.84 L
76 195.49 L
76 194.706 L
76 194.315 L
76 193.139 L
76 192.16 L
76 190.397 L
76 188.831 L
76 187.46 L
76 186.48 L
76 185.697 L
76 183.738 L
76 182.955 L
76.004 181.976 L
76.004 180.8 L
76.004 180.017 L
76.004 178.646 L
76.012 177.863 L
76.024 177.079 L
76.028 174.925 L
76.032 173.358 L
76.036 172.77 L
76.04 171.203 L
76.04 170.224 L
76.04 170.028 L
76.044 169.049 L
76.048 167.678 L
76.052 166.111 L
76.052 165.328 L
76.059 163.761 L
76.071 161.802 L
76.095 160.823 L
76.107 160.04 L
76.123 159.452 L
76.147 158.669 L
76.167 156.514 L
76.175 155.339 L
76.186 153.772 L
76.21 153.185 L
76.218 152.597 L
76.258 151.814 L
76.278 151.03 L
76.317 150.051 L
76.349 148.68 L
76.389 147.896 L
76.436 146.721 L
76.452 146.33 L
76.512 145.938 L
76.563 145.546 L
76.646 144.763 L
76.698 143.783 L
76.75 142.412 L
76.821 141.433 L
76.928 141.041 L
76.996 139.475 L
77.071 138.691 L
77.142 137.32 L
77.237 136.537 L
77.341 135.557 L
77.487 134.578 L
77.606 134.186 L
77.753 133.599 L
77.884 133.207 L
78.023 131.64 L
78.146 131.053 L
78.324 130.269 L
78.499 129.29 L
78.693 129.094 L
78.875 128.507 L
79.058 128.115 L
79.3 127.136 L
79.502 125.765 L
79.704 124.981 L
79.915 123.806 L
80.192 123.023 L
80.402 122.239 L
80.664 121.26 L
80.985 120.868 L
81.323 120.281 L
81.616 119.497 L
81.933 118.518 L
82.298 118.126 L
82.604 116.951 L
82.913 115.972 L
83.286 115.58 L
83.655 115.384 L
84.012 114.601 L
84.408 114.209 L
84.805 113.426 L
85.154 112.642 L
85.558 111.859 L
86.042 111.663 L
86.487 111.075 L
86.959 110.292 L
87.387 109.704 L
87.851 109.117 L
88.22 108.921 L
88.597 108.529 L
88.969 108.333 L
89.386 107.942 L
89.838 107.942 L
90.179 107.746 L
90.477 107.746 L
90.853 107.746 L
91.246 107.354 L
91.678 106.962 L
92.019 105.787 L
92.38 105.591 L
92.753 105.004 L
93.102 105.004 L
93.419 104.612 L
93.705 104.416 L
94.006 104.416 L
94.24 104.22 L
94.534 104.22 L
94.8 104.024 L
95.081 104.024 L
95.311 104.024 L
95.569 104.024 L
95.795 104.024 L
95.978 104.024 L
96.168 103.829 L
96.382 103.437 L
96.616 103.241 L
96.83 103.241 L
96.981 103.241 L
97.144 103.241 L
97.298 103.045 L
97.429 103.045 L
97.612 103.045 L
97.747 103.045 L
97.905 103.045 L
98.044 103.045 L
98.163 102.849 L
98.286 102.653 L
98.361 102.653 L
98.468 102.262 L
98.591 102.262 L
98.667 102.262 L
98.754 102.066 L
98.805 102.066 L
98.901 101.87 L
98.944 101.87 L
98.976 101.87 L
99.047 101.87 L
99.091 101.87 L
99.143 101.87 L
99.166 101.87 L
99.202 101.87 L
99.234 101.87 L
99.266 101.87 L
99.317 101.87 L
99.333 101.87 L
99.337 101.87 L
99.361 101.87 L
99.373 101.87 L
99.396 101.87 L
99.416 101.87 L
99.44 101.87 L
99.456 101.87 L
99.464 101.87 L
99.476 101.87 L
99.476 101.87 L
99.476 101.87 L
99.484 101.87 L
99.488 101.87 L
99.496 101.87 L
99.496 101.87 L
99.5 101.87 L
99.504 101.87 L
99.515 101.87 L
99.515 101.87 L
99.515 101.87 L
99.519 101.87 L
99.519 101.87 L
99.523 101.87 L
99.523 101.87 L
99.523 101.87 L
99.523 101.87 L
99.523 101.87 L
99.523 101.87 L
99.527 101.87 L
100.566 101.087 L
101.998 100.303 L
103.505 100.107 L
105.163 98.345 L
106.825 96.582 L
108.483 95.603 L
110.196 94.623 L
112.053 93.84 L
113.944 93.056 L
116.042 92.665 L
118.275 92.077 L
120.516 90.314 L
122.606 89.727 L
124.752 89.139 L
126.969 88.356 L
129.321 87.573 L
131.578 87.377 L
134.029 86.985 L
136.698 86.202 L
139.348 85.614 L
141.946 85.026 L
144.734 85.026 L
147.712 84.243 L
150.461 82.872 L
153.313 82.284 L
156.133 81.893 L
158.857 80.522 L
161.534 80.326 L
164.279 79.542 L
167.095 79.347 L
169.752 78.367 L
172.315 77.976 L
174.647 77.584 L
176.963 77.192 L
178.994 76.409 L
180.996 76.213 L
183.067 76.017 L
184.713 75.821 L
186.184 75.821 L
187.485 75.821 L
188.667 75.625 L
189.694 75.625 L
190.595 75.429 L
191.336 75.234 L
191.991 75.234 L
192.431 75.234 L
192.768 75.234 L
193.081 75.234 L
193.3 75.234 L
193.498 75.234 L
193.633 75.234 L
193.692 75.234 L
193.744 75.234 L
193.775 75.234 L
193.807 75.234 L
193.823 75.234 L
193.835 75.234 L
193.839 75.234 L
193.839 75.234 L
193.839 75.234 L
193.839 75.234 L
193.839 75.234 L
193.839 75.234 L
193.839 75.234 L
193.839 75.234 L
193.839 75.234 L
193.839 75.234 L
193.839 75.234 L
193.839 75.234 L
193.839 75.234 L
193.839 75.234 L
193.839 75.234 L
193.839 75.234 L
193.839 75.234 L
193.839 75.234 L
193.839 75.234 L
193.839 75.234 L
193.839 75.234 L
193.839 75.234 L
193.839 75.234 L
193.839 75.234 L
193.839 75.234 L
193.839 75.234 L
193.839 75.234 L
193.839 75.234 L
193.839 75.234 L
193.839 75.234 L
193.839 75.234 L
193.839 75.234 L
193.839 75.234 L
193.839 75.234 L
193.839 75.234 L
193.839 75.234 L
193.839 75.234 L
193.839 75.234 L
193.839 75.234 L
193.839 75.234 L
193.839 75.234 L
193.839 75.234 L
193.839 75.234 L
193.839 75.234 L
193.839 75.234 L
193.839 75.234 L
193.839 75.234 L
193.839 75.234 L
193.839 75.234 L
193.839 75.234 L
193.839 75.234 L
193.839 75.234 L
193.839 75.234 L
193.839 75.234 L
193.839 75.234 L
193.839 75.234 L
193.839 75.234 L
193.839 75.234 L
193.839 75.234 L
193.839 75.234 L
193.839 75.234 L
193.839 75.234 L
193.839 75.234 L
193.839 75.234 L
193.839 75.234 L
193.839 75.234 L
193.839 75.234 L
193.839 75.234 L
193.839 75.234 L
193.839 75.234 L
193.839 75.234 L
193.839 75.234 L
193.839 75.234 L
193.839 75.234 L
193.839 75.234 L
193.839 75.234 L
193.839 75.234 L
193.839 75.234 L
193.839 75.234 L
193.839 75.234 L
193.839 75.234 L
193.839 75.234 L
193.839 75.234 L
193.839 75.234 L
193.839 75.234 L
193.839 75.234 L
193.839 75.234 L
193.839 75.234 L
193.839 75.234 L
193.839 75.234 L
193.839 75.234 L
193.839 75.234 L
193.839 75.234 L
193.839 75.234 L
193.839 75.234 L
193.839 75.234 L
193.839 75.234 L
193.839 75.234 L
193.839 75.234 L
193.839 75.234 L
193.839 75.234 L
193.839 75.234 L
193.839 75.234 L
193.839 75.234 L
193.839 75.234 L
193.839 75.234 L
193.839 75.234 L
193.839 75.234 L
193.839 75.234 L
193.839 75.234 L
193.839 75.234 L
193.839 75.234 L
193.839 75.234 L
193.839 75.234 L
193.839 75.234 L
193.839 75.234 L
193.839 75.234 L
193.839 75.234 L
193.839 75.234 L
193.839 75.234 L
193.839 75.234 L
193.839 75.234 L
193.839 75.234 L
193.839 75.234 L
193.839 75.234 L
193.839 75.234 L
193.839 75.234 L
193.839 75.234 L
193.839 75.234 L
193.839 75.234 L
193.839 75.234 L
193.839 75.234 L
193.839 75.234 L
193.839 75.234 L
193.839 75.234 L
193.839 75.234 L
193.839 75.234 L
193.839 75.234 L
193.839 75.234 L
193.839 75.234 L
193.839 75.234 L
193.839 75.234 L
193.839 75.234 L
193.839 75.234 L
193.839 75.234 L
193.839 75.234 L
193.839 75.234 L
193.839 75.234 L
193.839 75.234 L
193.839 75.234 L
193.839 75.234 L
193.839 75.234 L
193.839 75.234 L
193.839 75.234 L
193.839 75.234 L
193.839 75.234 L
193.839 75.234 L
193.839 75.234 L
193.839 75.234 L
193.839 75.234 L
193.839 75.234 L
193.839 75.234 L
193.839 75.234 L
193.839 75.234 L
193.839 75.234 L
193.839 75.234 L
193.839 75.234 L
193.839 75.234 L
193.839 75.234 L
193.839 75.234 L
193.839 75.234 L
193.839 75.234 L
193.839 75.234 L
193.839 75.234 L
193.839 75.234 L
193.839 75.234 L
193.839 75.234 L
193.839 75.234 L
193.839 75.234 L
193.839 75.234 L
193.839 75.234 L
193.839 75.234 L
193.839 75.234 L
193.839 75.234 L
193.839 75.234 L
193.839 75.234 L
193.839 75.234 L
193.839 75.234 L
193.839 75.234 L
193.839 75.234 L
193.839 75.234 L
193.839 75.234 L
193.839 75.234 L
193.839 75.234 L
193.839 75.234 L
193.839 75.234 L
193.839 75.234 L
193.839 75.234 L
193.839 75.234 L
193.839 75.234 L
193.839 75.234 L
193.839 75.234 L
193.839 75.234 L
193.839 75.234 L
193.839 75.234 L
193.839 75.234 L
193.839 75.234 L
193.839 75.234 L
193.839 75.234 L
193.839 75.234 L
193.839 75.234 L
193.839 75.234 L
193.839 75.234 L
193.839 75.234 L
193.839 75.234 L
193.839 75.234 L
193.839 75.234 L
193.839 75.234 L
193.839 75.234 L
193.839 75.234 L
193.839 75.234 L
193.839 75.234 L
193.839 75.234 L
193.839 75.234 L
193.839 75.234 L
193.839 75.234 L
193.839 75.234 L
193.839 75.234 L
193.839 75.234 L
193.839 75.234 L
193.839 75.234 L
193.839 75.234 L
193.839 75.234 L
193.839 75.234 L
193.839 75.234 L
193.839 75.234 L
193.839 75.234 L
193.839 75.234 L
193.839 75.234 L
193.839 75.234 L
193.839 75.234 L
193.839 75.234 L
193.839 75.234 L
193.839 75.234 L
193.839 75.234 L
193.839 75.234 L
193.839 75.234 L
193.839 75.234 L
193.839 75.234 L
193.839 75.234 L
193.839 75.234 L
193.839 75.234 L
193.839 75.234 L
193.839 75.234 L
193.839 75.234 L
193.839 75.234 L
193.839 75.234 L
193.839 75.234 L
193.839 75.234 L
193.839 75.234 L
193.839 75.234 L
193.839 75.234 L
193.839 75.234 L
193.839 75.234 L
193.839 75.234 L
193.839 75.234 L
193.839 75.234 L
193.839 75.234 L
193.839 75.234 L
193.839 75.234 L
193.839 75.234 L
193.839 75.234 L
193.839 75.234 L
193.839 75.234 L
193.839 75.234 L
193.839 75.234 L
193.839 75.234 L
193.839 75.234 L
193.839 75.234 L
193.839 75.234 L
193.839 75.234 L
193.839 75.234 L
193.839 75.234 L
193.839 75.234 L
193.839 75.234 L
193.839 75.234 L
193.839 75.234 L
193.839 75.234 L
193.839 75.234 L
193.839 75.234 L
193.839 75.234 L
193.839 75.234 L
193.839 75.234 L
193.839 75.234 L
193.839 75.234 L
193.839 75.234 L
193.839 75.234 L
193.839 75.234 L
193.839 75.234 L
193.839 75.234 L
193.839 75.234 L
193.839 75.234 L
193.839 75.234 L
193.839 75.234 L
193.839 75.234 L
193.839 75.234 L
193.839 75.234 L
193.839 75.234 L
193.839 75.234 L
193.839 75.234 L
193.839 75.234 L
193.839 75.234 L
193.839 75.234 L
193.839 75.234 L
193.839 75.234 L
193.839 75.234 L
193.839 75.234 L
193.839 75.234 L
193.839 75.234 L
193.839 75.234 L
193.839 75.234 L
193.839 75.234 L
193.839 75.234 L
193.839 75.234 L
193.839 75.234 L
193.839 75.234 L
193.839 75.234 L
193.839 75.234 L
193.839 75.234 L
193.839 75.234 L
193.839 75.234 L
193.839 75.234 L
193.839 75.234 L
193.839 75.234 L
193.839 75.234 L
193.839 75.234 L
193.839 75.234 L
193.839 75.234 L
193.839 75.234 L
193.839 75.234 L
193.839 75.234 L
193.839 75.234 L
193.839 75.234 L
193.839 75.234 L
193.839 75.234 L
193.839 75.234 L
193.839 75.234 L
193.839 75.234 L
193.839 75.234 L
193.839 75.234 L
193.839 75.234 L
193.839 75.234 L
193.839 75.234 L
193.839 75.234 L
193.839 75.234 L
193.839 75.234 L
193.839 75.234 L
193.839 75.234 L
193.839 75.234 L
193.839 75.234 L
193.839 75.234 L
193.839 75.234 L
193.839 75.234 L
193.839 75.234 L
193.839 75.234 L
193.839 75.234 L
193.839 75.234 L
193.839 75.234 L
193.839 75.234 L
193.839 75.234 L
193.839 75.234 L
193.839 75.234 L
193.839 75.234 L
193.839 75.234 L
193.839 75.234 L
193.839 75.234 L
193.839 75.234 L
193.839 75.234 L
193.839 75.234 L
193.839 75.234 L
193.839 75.234 L
193.839 75.234 L
193.839 75.234 L
193.839 75.234 L
193.839 75.234 L
193.839 75.234 L
193.839 75.234 L
193.839 75.234 L
193.839 75.234 L
193.839 75.234 L
193.839 75.234 L
193.839 75.234 L
193.839 75.234 L
193.839 75.234 L
193.839 75.234 L
193.839 75.234 L
193.839 75.234 L
193.839 75.234 L
193.839 75.234 L
193.839 75.234 L
193.839 75.234 L
193.839 75.234 L
193.839 75.234 L
193.839 75.234 L
193.839 75.234 L
193.839 75.234 L
193.839 75.234 L
193.839 75.234 L
193.839 75.234 L
193.839 75.234 L
193.839 75.234 L
193.839 75.234 L
193.839 75.234 L
193.839 75.234 L
193.839 75.234 L
193.839 75.234 L
193.839 75.234 L
193.839 75.234 L
193.839 75.234 L
193.839 75.234 L
193.839 75.234 L
193.839 75.234 L
193.839 75.234 L
193.839 75.234 L
193.839 75.234 L
193.839 75.234 L
193.839 75.234 L
193.839 75.234 L
193.839 75.234 L
193.839 75.234 L
193.839 75.234 L
193.839 75.234 L
193.839 75.234 L
193.839 75.234 L
193.839 75.234 L
193.839 75.234 L
193.839 75.234 L
193.839 75.234 L
193.839 75.234 L
193.839 75.234 L
193.839 75.234 L
193.839 75.234 L
193.839 75.234 L
193.839 75.234 L
193.839 75.234 L
193.839 75.234 L
193.839 75.234 L
193.839 75.234 L
193.839 75.234 L
193.839 75.234 L
193.839 75.234 L
193.839 75.234 L
193.839 75.234 L
193.839 75.234 L
193.839 75.234 L
193.839 75.234 L
193.839 75.234 L
193.839 75.234 L
193.839 75.234 L
193.839 75.234 L
193.839 75.234 L
193.839 75.234 L
193.839 75.234 L
193.839 75.234 L
193.839 75.234 L
193.839 75.234 L
193.839 75.234 L
193.839 75.234 L
193.839 75.234 L
193.839 75.234 L
193.839 75.234 L
193.839 75.234 L
193.839 75.234 L
193.839 75.234 L
193.839 75.234 L
193.839 75.234 L
507 39 L
S
GR
GS
[1 0 0 1 338.91 216.84] CT
/Helvetica 24 F
GS
[1 0 0 1 0 0] CT
0 8.5 moveto 
1 -1 scale
(EER line) t 
GR
GR
GS
[10 6] 0 setdash
2 LJ
0.5 LW
N
507 351 M
76 39 L
S
GR
GS
1 GC
N
497 341 M
497 249 L
132 249 L
132 341 L
cp
f
GR
GS
[1 0 0 1 169 265.5] CT
/Helvetica 24 F
GS
[1 0 0 1 0 0] CT
0 8.5 moveto 
1 -1 scale
(NIR images, EER = 0.04) t 
GR
GR
GS
0 0 1 RC
1 LJ
3 LW
N
136 265.5 M
166 265.5 L
S
GR
GS
[1 0 0 1 169 295] CT
/Helvetica 24 F
GS
[1 0 0 1 0 0] CT
0 8.5 moveto 
1 -1 scale
(R images, EER = 0.02) t 
GR
GR
GS
1 0 0 RC
1 LJ
3 LW
N
136 295 M
166 295 L
S
GR
GS
[1 0 0 1 169 324.5] CT
/Helvetica 24 F
GS
[1 0 0 1 0 0] CT
0 8.5 moveto 
1 -1 scale
(cross-wavelength, EER = 0.15) t 
GR
GR
GS
[12 12] 0 setdash
2 LJ
3 LW
N
136 324.5 M
166 324.5 L
S
GR
GS
0.149 GC
10.0 ML
0.5 LW
N
132 341 M
132 249 L
497 249 L
497 341 L
cp
S
GR
%%Trailer
%%Pages: 1
%%EOF
