%!PS-Adobe-3.0 EPSF-3.0
%%Creator: (MATLAB, The Mathworks, Inc. Version 9.0.0.307022 \(R2016a\) Prerelease. Operating System: Mac OS X)
%%Title: /Users/trokielewicz/Dropbox/Aplikacje/Texpad/ColdIris-ICB2016/graphics/VE.eps
%%CreationDate: 2016-01-16T22:51:23
%%Pages: (atend)
%%BoundingBox: 0 0 974 902
%%LanguageLevel: 3
%%EndComments
%%BeginProlog
%%BeginResource: procset (Apache XML Graphics Std ProcSet) 1.2 0
%%Version: 1.2 0
%%Copyright: (Copyright 2001-2003,2010 The Apache Software Foundation. License terms: http://www.apache.org/licenses/LICENSE-2.0)
/bd{bind def}bind def
/ld{load def}bd
/GR/grestore ld
/M/moveto ld
/LJ/setlinejoin ld
/C/curveto ld
/f/fill ld
/LW/setlinewidth ld
/GC/setgray ld
/t/show ld
/N/newpath ld
/CT/concat ld
/cp/closepath ld
/S/stroke ld
/L/lineto ld
/CC/setcmykcolor ld
/A/ashow ld
/GS/gsave ld
/RC/setrgbcolor ld
/RM/rmoveto ld
/ML/setmiterlimit ld
/re {4 2 roll M
1 index 0 rlineto
0 exch rlineto
neg 0 rlineto
cp } bd
/_ctm matrix def
/_tm matrix def
/BT { _ctm currentmatrix pop matrix _tm copy pop 0 0 moveto } bd
/ET { _ctm setmatrix } bd
/iTm { _ctm setmatrix _tm concat } bd
/Tm { _tm astore pop iTm 0 0 moveto } bd
/ux 0.0 def
/uy 0.0 def
/F {
  /Tp exch def
  /Tf exch def
  Tf findfont Tp scalefont setfont
  /cf Tf def  /cs Tp def
} bd
/ULS {currentpoint /uy exch def /ux exch def} bd
/ULE {
  /Tcx currentpoint pop def
  gsave
  newpath
  cf findfont cs scalefont dup
  /FontMatrix get 0 get /Ts exch def /FontInfo get dup
  /UnderlinePosition get Ts mul /To exch def
  /UnderlineThickness get Ts mul /Tt exch def
  ux uy To add moveto  Tcx uy To add lineto
  Tt setlinewidth stroke
  grestore
} bd
/OLE {
  /Tcx currentpoint pop def
  gsave
  newpath
  cf findfont cs scalefont dup
  /FontMatrix get 0 get /Ts exch def /FontInfo get dup
  /UnderlinePosition get Ts mul /To exch def
  /UnderlineThickness get Ts mul /Tt exch def
  ux uy To add cs add moveto Tcx uy To add cs add lineto
  Tt setlinewidth stroke
  grestore
} bd
/SOE {
  /Tcx currentpoint pop def
  gsave
  newpath
  cf findfont cs scalefont dup
  /FontMatrix get 0 get /Ts exch def /FontInfo get dup
  /UnderlinePosition get Ts mul /To exch def
  /UnderlineThickness get Ts mul /Tt exch def
  ux uy To add cs 10 mul 26 idiv add moveto Tcx uy To add cs 10 mul 26 idiv add lineto
  Tt setlinewidth stroke
  grestore
} bd
/QT {
/Y22 exch store
/X22 exch store
/Y21 exch store
/X21 exch store
currentpoint
/Y21 load 2 mul add 3 div exch
/X21 load 2 mul add 3 div exch
/X21 load 2 mul /X22 load add 3 div
/Y21 load 2 mul /Y22 load add 3 div
/X22 load /Y22 load curveto
} bd
/SSPD {
dup length /d exch dict def
{
/v exch def
/k exch def
currentpagedevice k known {
/cpdv currentpagedevice k get def
v cpdv ne {
/upd false def
/nullv v type /nulltype eq def
/nullcpdv cpdv type /nulltype eq def
nullv nullcpdv or
{
/upd true def
} {
/sametype v type cpdv type eq def
sametype {
v type /arraytype eq {
/vlen v length def
/cpdvlen cpdv length def
vlen cpdvlen eq {
0 1 vlen 1 sub {
/i exch def
/obj v i get def
/cpdobj cpdv i get def
obj cpdobj ne {
/upd true def
exit
} if
} for
} {
/upd true def
} ifelse
} {
v type /dicttype eq {
v {
/dv exch def
/dk exch def
/cpddv cpdv dk get def
dv cpddv ne {
/upd true def
exit
} if
} forall
} {
/upd true def
} ifelse
} ifelse
} if
} ifelse
upd true eq {
d k v put
} if
} if
} if
} forall
d length 0 gt {
d setpagedevice
} if
} bd
%%EndResource
%%BeginResource: procset (Apache XML Graphics EPS ProcSet) 1.0 0
%%Version: 1.0 0
%%Copyright: (Copyright 2002-2003 The Apache Software Foundation. License terms: http://www.apache.org/licenses/LICENSE-2.0)
/BeginEPSF { %def
/b4_Inc_state save def         % Save state for cleanup
/dict_count countdictstack def % Count objects on dict stack
/op_count count 1 sub def      % Count objects on operand stack
userdict begin                 % Push userdict on dict stack
/showpage { } def              % Redefine showpage, { } = null proc
0 setgray 0 setlinecap         % Prepare graphics state
1 setlinewidth 0 setlinejoin
10 setmiterlimit [ ] 0 setdash newpath
/languagelevel where           % If level not equal to 1 then
{pop languagelevel             % set strokeadjust and
1 ne                           % overprint to their defaults.
{false setstrokeadjust false setoverprint
} if
} if
} bd
/EndEPSF { %def
count op_count sub {pop} repeat            % Clean up stacks
countdictstack dict_count sub {end} repeat
b4_Inc_state restore
} bd
%%EndResource
%FOPBeginFontDict
%%IncludeResource: font Courier-Bold
%%IncludeResource: font Helvetica
%%IncludeResource: font Courier-BoldOblique
%%IncludeResource: font Courier-Oblique
%%IncludeResource: font Times-Roman
%%IncludeResource: font Helvetica-BoldOblique
%%IncludeResource: font Helvetica-Bold
%%IncludeResource: font Helvetica-Oblique
%%IncludeResource: font Times-BoldItalic
%%IncludeResource: font Courier
%%IncludeResource: font Times-Italic
%%IncludeResource: font Times-Bold
%%IncludeResource: font Symbol
%%IncludeResource: font ZapfDingbats
%FOPEndFontDict
%%BeginResource: encoding WinAnsiEncoding
/WinAnsiEncoding [
/.notdef /.notdef /.notdef /.notdef /.notdef
/.notdef /.notdef /.notdef /.notdef /.notdef
/.notdef /.notdef /.notdef /.notdef /.notdef
/.notdef /.notdef /.notdef /.notdef /.notdef
/.notdef /.notdef /.notdef /.notdef /.notdef
/.notdef /.notdef /.notdef /.notdef /.notdef
/.notdef /.notdef /space /exclam /quotedbl
/numbersign /dollar /percent /ampersand /quotesingle
/parenleft /parenright /asterisk /plus /comma
/hyphen /period /slash /zero /one
/two /three /four /five /six
/seven /eight /nine /colon /semicolon
/less /equal /greater /question /at
/A /B /C /D /E
/F /G /H /I /J
/K /L /M /N /O
/P /Q /R /S /T
/U /V /W /X /Y
/Z /bracketleft /backslash /bracketright /asciicircum
/underscore /quoteleft /a /b /c
/d /e /f /g /h
/i /j /k /l /m
/n /o /p /q /r
/s /t /u /v /w
/x /y /z /braceleft /bar
/braceright /asciitilde /bullet /Euro /bullet
/quotesinglbase /florin /quotedblbase /ellipsis /dagger
/daggerdbl /circumflex /perthousand /Scaron /guilsinglleft
/OE /bullet /Zcaron /bullet /bullet
/quoteleft /quoteright /quotedblleft /quotedblright /bullet
/endash /emdash /asciitilde /trademark /scaron
/guilsinglright /oe /bullet /zcaron /Ydieresis
/space /exclamdown /cent /sterling /currency
/yen /brokenbar /section /dieresis /copyright
/ordfeminine /guillemotleft /logicalnot /sfthyphen /registered
/macron /degree /plusminus /twosuperior /threesuperior
/acute /mu /paragraph /middot /cedilla
/onesuperior /ordmasculine /guillemotright /onequarter /onehalf
/threequarters /questiondown /Agrave /Aacute /Acircumflex
/Atilde /Adieresis /Aring /AE /Ccedilla
/Egrave /Eacute /Ecircumflex /Edieresis /Igrave
/Iacute /Icircumflex /Idieresis /Eth /Ntilde
/Ograve /Oacute /Ocircumflex /Otilde /Odieresis
/multiply /Oslash /Ugrave /Uacute /Ucircumflex
/Udieresis /Yacute /Thorn /germandbls /agrave
/aacute /acircumflex /atilde /adieresis /aring
/ae /ccedilla /egrave /eacute /ecircumflex
/edieresis /igrave /iacute /icircumflex /idieresis
/eth /ntilde /ograve /oacute /ocircumflex
/otilde /odieresis /divide /oslash /ugrave
/uacute /ucircumflex /udieresis /yacute /thorn
/ydieresis
] def
%%EndResource
%FOPBeginFontReencode
/Courier-Bold findfont
dup length dict begin
  {1 index /FID ne {def} {pop pop} ifelse} forall
  /Encoding WinAnsiEncoding def
  currentdict
end
/Courier-Bold exch definefont pop
/Helvetica findfont
dup length dict begin
  {1 index /FID ne {def} {pop pop} ifelse} forall
  /Encoding WinAnsiEncoding def
  currentdict
end
/Helvetica exch definefont pop
/Courier-BoldOblique findfont
dup length dict begin
  {1 index /FID ne {def} {pop pop} ifelse} forall
  /Encoding WinAnsiEncoding def
  currentdict
end
/Courier-BoldOblique exch definefont pop
/Courier-Oblique findfont
dup length dict begin
  {1 index /FID ne {def} {pop pop} ifelse} forall
  /Encoding WinAnsiEncoding def
  currentdict
end
/Courier-Oblique exch definefont pop
/Times-Roman findfont
dup length dict begin
  {1 index /FID ne {def} {pop pop} ifelse} forall
  /Encoding WinAnsiEncoding def
  currentdict
end
/Times-Roman exch definefont pop
/Helvetica-BoldOblique findfont
dup length dict begin
  {1 index /FID ne {def} {pop pop} ifelse} forall
  /Encoding WinAnsiEncoding def
  currentdict
end
/Helvetica-BoldOblique exch definefont pop
/Helvetica-Bold findfont
dup length dict begin
  {1 index /FID ne {def} {pop pop} ifelse} forall
  /Encoding WinAnsiEncoding def
  currentdict
end
/Helvetica-Bold exch definefont pop
/Helvetica-Oblique findfont
dup length dict begin
  {1 index /FID ne {def} {pop pop} ifelse} forall
  /Encoding WinAnsiEncoding def
  currentdict
end
/Helvetica-Oblique exch definefont pop
/Times-BoldItalic findfont
dup length dict begin
  {1 index /FID ne {def} {pop pop} ifelse} forall
  /Encoding WinAnsiEncoding def
  currentdict
end
/Times-BoldItalic exch definefont pop
/Courier findfont
dup length dict begin
  {1 index /FID ne {def} {pop pop} ifelse} forall
  /Encoding WinAnsiEncoding def
  currentdict
end
/Courier exch definefont pop
/Times-Italic findfont
dup length dict begin
  {1 index /FID ne {def} {pop pop} ifelse} forall
  /Encoding WinAnsiEncoding def
  currentdict
end
/Times-Italic exch definefont pop
/Times-Bold findfont
dup length dict begin
  {1 index /FID ne {def} {pop pop} ifelse} forall
  /Encoding WinAnsiEncoding def
  currentdict
end
/Times-Bold exch definefont pop
%FOPEndFontReencode
%%EndProlog
%%Page: 1 1
%%PageBoundingBox: 0 0 974 902
%%BeginPageSetup
[1 0 0 -1 0 902] CT
%%EndPageSetup
GS
[1.00309 0 0 1.00222 0 0] CT
1 GC
N
0 0 971 900 re
f
GR
GS
[1.00309 0 0 1.00222 0 0] CT
1 GC
N
0 0 971 900 re
f
GR
GS
[1.00309 0 0 1.00222 0 0] CT
1 GC
N
126 801 M
880 801 L
880 67 L
126 67 L
cp
f
GR
GS
[1.00309 0 0 1.00222 0 0] CT
0.873 GC
1 LJ
0.5 LW
N
126 801 M
126 67 L
S
GR
GS
[1.00309 0 0 1.00222 0 0] CT
0.873 GC
1 LJ
0.5 LW
N
243.813 801 M
243.813 67 L
S
GR
GS
[1.00309 0 0 1.00222 0 0] CT
0.873 GC
1 LJ
0.5 LW
N
361.625 801 M
361.625 67 L
S
GR
GS
[1.00309 0 0 1.00222 0 0] CT
0.873 GC
1 LJ
0.5 LW
N
479.438 801 M
479.438 67 L
S
GR
GS
[1.00309 0 0 1.00222 0 0] CT
0.873 GC
1 LJ
0.5 LW
N
597.25 801 M
597.25 67 L
S
GR
GS
[1.00309 0 0 1.00222 0 0] CT
0.873 GC
1 LJ
0.5 LW
N
715.063 801 M
715.063 67 L
S
GR
GS
[1.00309 0 0 1.00222 0 0] CT
0.873 GC
1 LJ
0.5 LW
N
832.875 801 M
832.875 67 L
S
GR
GS
[1.00309 0 0 1.00222 0 0] CT
0.873 GC
1 LJ
0.5 LW
N
880 801 M
126 801 L
S
GR
GS
[1.00309 0 0 1.00222 0 0] CT
0.873 GC
1 LJ
0.5 LW
N
880 727.6 M
126 727.6 L
S
GR
GS
[1.00309 0 0 1.00222 0 0] CT
0.873 GC
1 LJ
0.5 LW
N
880 654.2 M
126 654.2 L
S
GR
GS
[1.00309 0 0 1.00222 0 0] CT
0.873 GC
1 LJ
0.5 LW
N
880 580.8 M
126 580.8 L
S
GR
GS
[1.00309 0 0 1.00222 0 0] CT
0.873 GC
1 LJ
0.5 LW
N
880 507.4 M
126 507.4 L
S
GR
GS
[1.00309 0 0 1.00222 0 0] CT
0.873 GC
1 LJ
0.5 LW
N
880 434 M
126 434 L
S
GR
GS
[1.00309 0 0 1.00222 0 0] CT
0.873 GC
1 LJ
0.5 LW
N
880 360.6 M
126 360.6 L
S
GR
GS
[1.00309 0 0 1.00222 0 0] CT
0.873 GC
1 LJ
0.5 LW
N
880 287.2 M
126 287.2 L
S
GR
GS
[1.00309 0 0 1.00222 0 0] CT
0.873 GC
1 LJ
0.5 LW
N
880 213.8 M
126 213.8 L
S
GR
GS
[1.00309 0 0 1.00222 0 0] CT
0.873 GC
1 LJ
0.5 LW
N
880 140.4 M
126 140.4 L
S
GR
GS
[1.00309 0 0 1.00222 0 0] CT
0.873 GC
1 LJ
0.5 LW
N
880 67 M
126 67 L
S
GR
GS
[1.00309 0 0 1.00222 0 0] CT
0.149 GC
2 setlinecap
1 LJ
0.5 LW
N
126 801 M
880 801 L
S
GR
GS
[1.00309 0 0 1.00222 0 0] CT
0.149 GC
2 setlinecap
1 LJ
0.5 LW
N
126 67 M
880 67 L
S
GR
GS
[1.00309 0 0 1.00222 0 0] CT
0.149 GC
2 setlinecap
1 LJ
0.5 LW
N
126 801 M
126 793.46 L
S
GR
GS
[1.00309 0 0 1.00222 0 0] CT
0.149 GC
2 setlinecap
1 LJ
0.5 LW
N
243.813 801 M
243.813 793.46 L
S
GR
GS
[1.00309 0 0 1.00222 0 0] CT
0.149 GC
2 setlinecap
1 LJ
0.5 LW
N
361.625 801 M
361.625 793.46 L
S
GR
GS
[1.00309 0 0 1.00222 0 0] CT
0.149 GC
2 setlinecap
1 LJ
0.5 LW
N
479.438 801 M
479.438 793.46 L
S
GR
GS
[1.00309 0 0 1.00222 0 0] CT
0.149 GC
2 setlinecap
1 LJ
0.5 LW
N
597.25 801 M
597.25 793.46 L
S
GR
GS
[1.00309 0 0 1.00222 0 0] CT
0.149 GC
2 setlinecap
1 LJ
0.5 LW
N
715.063 801 M
715.063 793.46 L
S
GR
GS
[1.00309 0 0 1.00222 0 0] CT
0.149 GC
2 setlinecap
1 LJ
0.5 LW
N
832.875 801 M
832.875 793.46 L
S
GR
GS
[1.00309 0 0 1.00222 0 0] CT
0.149 GC
2 setlinecap
1 LJ
0.5 LW
N
126 67 M
126 74.54 L
S
GR
GS
[1.00309 0 0 1.00222 0 0] CT
0.149 GC
2 setlinecap
1 LJ
0.5 LW
N
243.813 67 M
243.813 74.54 L
S
GR
GS
[1.00309 0 0 1.00222 0 0] CT
0.149 GC
2 setlinecap
1 LJ
0.5 LW
N
361.625 67 M
361.625 74.54 L
S
GR
GS
[1.00309 0 0 1.00222 0 0] CT
0.149 GC
2 setlinecap
1 LJ
0.5 LW
N
479.438 67 M
479.438 74.54 L
S
GR
GS
[1.00309 0 0 1.00222 0 0] CT
0.149 GC
2 setlinecap
1 LJ
0.5 LW
N
597.25 67 M
597.25 74.54 L
S
GR
GS
[1.00309 0 0 1.00222 0 0] CT
0.149 GC
2 setlinecap
1 LJ
0.5 LW
N
715.063 67 M
715.063 74.54 L
S
GR
GS
[1.00309 0 0 1.00222 0 0] CT
0.149 GC
2 setlinecap
1 LJ
0.5 LW
N
832.875 67 M
832.875 74.54 L
S
GR
GS
[1.00309 0 0 1.00222 126.38929 810.78444] CT
0.149 GC
/Helvetica 29.933 F
GS
[1 0 0 1 0 0] CT
-8.5 29 moveto 
1 -1 scale
(0) t 
GR
GR
GS
[1.00309 0 0 1.00222 244.56578 810.78444] CT
0.149 GC
/Helvetica 29.933 F
GS
[1 0 0 1 0 0] CT
-25.5 29 moveto 
1 -1 scale
(250) t 
GR
GR
GS
[1.00309 0 0 1.00222 362.74228 810.78444] CT
0.149 GC
/Helvetica 29.933 F
GS
[1 0 0 1 0 0] CT
-25.5 29 moveto 
1 -1 scale
(500) t 
GR
GR
GS
[1.00309 0 0 1.00222 480.91877 810.78444] CT
0.149 GC
/Helvetica 29.933 F
GS
[1 0 0 1 0 0] CT
-25.5 29 moveto 
1 -1 scale
(750) t 
GR
GR
GS
[1.00309 0 0 1.00222 599.09526 810.78444] CT
0.149 GC
/Helvetica 29.933 F
GS
[1 0 0 1 0 0] CT
-33.5 29 moveto 
1 -1 scale
(1000) t 
GR
GR
GS
[1.00309 0 0 1.00222 717.27176 810.78444] CT
0.149 GC
/Helvetica 29.933 F
GS
[1 0 0 1 0 0] CT
-33.5 29 moveto 
1 -1 scale
(1250) t 
GR
GR
GS
[1.00309 0 0 1.00222 835.44825 810.78444] CT
0.149 GC
/Helvetica 29.933 F
GS
[1 0 0 1 0 0] CT
-33.5 29 moveto 
1 -1 scale
(1500) t 
GR
GR
GS
[1.00309 0 0 1.00222 504.5544 847.86666] CT
0.149 GC
/Helvetica 32.927 F
GS
[1 0 0 1 0 0] CT
-214 32 moveto 
1 -1 scale
(Comparison score \(similarity\)) t 
GR
GR
GS
[1.00309 0 0 1.00222 0 0] CT
0.149 GC
2 setlinecap
1 LJ
0.5 LW
N
126 801 M
126 67 L
S
GR
GS
[1.00309 0 0 1.00222 0 0] CT
0.149 GC
2 setlinecap
1 LJ
0.5 LW
N
880 801 M
880 67 L
S
GR
GS
[1.00309 0 0 1.00222 0 0] CT
0.149 GC
2 setlinecap
1 LJ
0.5 LW
N
126 801 M
133.54 801 L
S
GR
GS
[1.00309 0 0 1.00222 0 0] CT
0.149 GC
2 setlinecap
1 LJ
0.5 LW
N
126 727.6 M
133.54 727.6 L
S
GR
GS
[1.00309 0 0 1.00222 0 0] CT
0.149 GC
2 setlinecap
1 LJ
0.5 LW
N
126 654.2 M
133.54 654.2 L
S
GR
GS
[1.00309 0 0 1.00222 0 0] CT
0.149 GC
2 setlinecap
1 LJ
0.5 LW
N
126 580.8 M
133.54 580.8 L
S
GR
GS
[1.00309 0 0 1.00222 0 0] CT
0.149 GC
2 setlinecap
1 LJ
0.5 LW
N
126 507.4 M
133.54 507.4 L
S
GR
GS
[1.00309 0 0 1.00222 0 0] CT
0.149 GC
2 setlinecap
1 LJ
0.5 LW
N
126 434 M
133.54 434 L
S
GR
GS
[1.00309 0 0 1.00222 0 0] CT
0.149 GC
2 setlinecap
1 LJ
0.5 LW
N
126 360.6 M
133.54 360.6 L
S
GR
GS
[1.00309 0 0 1.00222 0 0] CT
0.149 GC
2 setlinecap
1 LJ
0.5 LW
N
126 287.2 M
133.54 287.2 L
S
GR
GS
[1.00309 0 0 1.00222 0 0] CT
0.149 GC
2 setlinecap
1 LJ
0.5 LW
N
126 213.8 M
133.54 213.8 L
S
GR
GS
[1.00309 0 0 1.00222 0 0] CT
0.149 GC
2 setlinecap
1 LJ
0.5 LW
N
126 140.4 M
133.54 140.4 L
S
GR
GS
[1.00309 0 0 1.00222 0 0] CT
0.149 GC
2 setlinecap
1 LJ
0.5 LW
N
126 67 M
133.54 67 L
S
GR
GS
[1.00309 0 0 1.00222 0 0] CT
0.149 GC
2 setlinecap
1 LJ
0.5 LW
N
880 801 M
872.46 801 L
S
GR
GS
[1.00309 0 0 1.00222 0 0] CT
0.149 GC
2 setlinecap
1 LJ
0.5 LW
N
880 727.6 M
872.46 727.6 L
S
GR
GS
[1.00309 0 0 1.00222 0 0] CT
0.149 GC
2 setlinecap
1 LJ
0.5 LW
N
880 654.2 M
872.46 654.2 L
S
GR
GS
[1.00309 0 0 1.00222 0 0] CT
0.149 GC
2 setlinecap
1 LJ
0.5 LW
N
880 580.8 M
872.46 580.8 L
S
GR
GS
[1.00309 0 0 1.00222 0 0] CT
0.149 GC
2 setlinecap
1 LJ
0.5 LW
N
880 507.4 M
872.46 507.4 L
S
GR
GS
[1.00309 0 0 1.00222 0 0] CT
0.149 GC
2 setlinecap
1 LJ
0.5 LW
N
880 434 M
872.46 434 L
S
GR
GS
[1.00309 0 0 1.00222 0 0] CT
0.149 GC
2 setlinecap
1 LJ
0.5 LW
N
880 360.6 M
872.46 360.6 L
S
GR
GS
[1.00309 0 0 1.00222 0 0] CT
0.149 GC
2 setlinecap
1 LJ
0.5 LW
N
880 287.2 M
872.46 287.2 L
S
GR
GS
[1.00309 0 0 1.00222 0 0] CT
0.149 GC
2 setlinecap
1 LJ
0.5 LW
N
880 213.8 M
872.46 213.8 L
S
GR
GS
[1.00309 0 0 1.00222 0 0] CT
0.149 GC
2 setlinecap
1 LJ
0.5 LW
N
880 140.4 M
872.46 140.4 L
S
GR
GS
[1.00309 0 0 1.00222 0 0] CT
0.149 GC
2 setlinecap
1 LJ
0.5 LW
N
880 67 M
872.46 67 L
S
GR
GS
[1.00309 0 0 1.00222 118.37792 802.78] CT
0.149 GC
/Helvetica 29.933 F
GS
[1 0 0 1 0 0] CT
-17 11 moveto 
1 -1 scale
(0) t 
GR
GR
GS
[1.00309 0 0 1.00222 118.37792 729.21686] CT
0.149 GC
/Helvetica 29.933 F
GS
[1 0 0 1 0 0] CT
-42 11 moveto 
1 -1 scale
(0.1) t 
GR
GR
GS
[1.00309 0 0 1.00222 118.37792 655.65379] CT
0.149 GC
/Helvetica 29.933 F
GS
[1 0 0 1 0 0] CT
-42 11 moveto 
1 -1 scale
(0.2) t 
GR
GR
GS
[1.00309 0 0 1.00222 118.37792 582.09065] CT
0.149 GC
/Helvetica 29.933 F
GS
[1 0 0 1 0 0] CT
-42 11 moveto 
1 -1 scale
(0.3) t 
GR
GR
GS
[1.00309 0 0 1.00222 118.37792 508.52755] CT
0.149 GC
/Helvetica 29.933 F
GS
[1 0 0 1 0 0] CT
-42 11 moveto 
1 -1 scale
(0.4) t 
GR
GR
GS
[1.00309 0 0 1.00222 118.37792 434.96444] CT
0.149 GC
/Helvetica 29.933 F
GS
[1 0 0 1 0 0] CT
-42 11 moveto 
1 -1 scale
(0.5) t 
GR
GR
GS
[1.00309 0 0 1.00222 118.37792 361.40131] CT
0.149 GC
/Helvetica 29.933 F
GS
[1 0 0 1 0 0] CT
-42 11 moveto 
1 -1 scale
(0.6) t 
GR
GR
GS
[1.00309 0 0 1.00222 118.37792 287.83823] CT
0.149 GC
/Helvetica 29.933 F
GS
[1 0 0 1 0 0] CT
-42 11 moveto 
1 -1 scale
(0.7) t 
GR
GR
GS
[1.00309 0 0 1.00222 118.37792 214.2751] CT
0.149 GC
/Helvetica 29.933 F
GS
[1 0 0 1 0 0] CT
-42 11 moveto 
1 -1 scale
(0.8) t 
GR
GR
GS
[1.00309 0 0 1.00222 118.37792 140.71202] CT
0.149 GC
/Helvetica 29.933 F
GS
[1 0 0 1 0 0] CT
-42 11 moveto 
1 -1 scale
(0.9) t 
GR
GR
GS
[1.00309 0 0 1.00222 118.37792 67.14889] CT
0.149 GC
/Helvetica 29.933 F
GS
[1 0 0 1 0 0] CT
-17 11 moveto 
1 -1 scale
(1) t 
GR
GR
GS
[0 -1.00222 1.00309 0 73.23889 434.96411] CT
0.149 GC
/Helvetica 32.927 F
GS
[1 0 0 1 0 0] CT
-170 -8 moveto 
1 -1 scale
(Cumulative distribution) t 
GR
GR
GS
[1.00309 0 0 1.00222 0 0] CT
0.494 0.184 0.557 RC
1 LJ
6 LW
N
126 801 M
126 760.222 L
155.689 750.028 L
168.884 739.833 L
170.298 729.639 L
171.711 719.444 L
188.205 709.25 L
188.676 699.056 L
195.745 688.861 L
219.307 678.667 L
224.02 668.472 L
228.261 658.278 L
234.387 648.083 L
243.813 637.889 L
249.467 627.694 L
250.881 617.5 L
253.238 607.306 L
261.249 597.111 L
262.663 586.917 L
265.961 576.722 L
270.203 566.528 L
271.145 556.333 L
273.501 535.944 L
278.214 525.75 L
282.455 515.556 L
282.926 495.167 L
286.696 484.972 L
291.88 464.583 L
292.351 454.389 L
292.823 444.194 L
293.294 423.806 L
300.362 403.417 L
303.661 393.222 L
306.017 383.028 L
307.431 372.833 L
310.73 362.639 L
311.672 352.444 L
315.443 342.25 L
317.328 332.056 L
317.799 321.861 L
321.569 311.667 L
323.454 301.472 L
324.396 291.278 L
328.166 281.083 L
331.936 270.889 L
332.879 260.694 L
337.12 250.5 L
343.246 240.306 L
350.786 230.111 L
363.981 219.917 L
366.337 209.722 L
368.223 199.528 L
368.694 189.333 L
370.108 179.139 L
373.406 168.944 L
378.119 158.75 L
378.59 148.556 L
394.141 128.167 L
400.739 117.972 L
401.21 107.778 L
401.681 97.583 L
413.462 87.389 L
424.772 77.194 L
859.736 67 L
S
GR
GS
[1.00309 0 0 1.00222 0 0] CT
0 0.447 0.741 RC
1 LJ
6 LW
N
126 801 M
126 574.202 L
126.471 565.955 L
126.942 561.831 L
127.414 549.461 L
127.885 545.337 L
128.827 537.09 L
130.241 528.843 L
130.712 520.596 L
131.184 516.472 L
131.655 508.225 L
145.321 504.101 L
149.091 495.854 L
150.034 491.73 L
151.919 487.607 L
152.861 479.36 L
154.746 475.236 L
155.217 471.112 L
155.689 466.989 L
156.631 462.865 L
157.102 458.742 L
159.459 454.618 L
160.872 450.494 L
161.344 446.371 L
162.286 442.247 L
162.758 421.629 L
163.229 417.506 L
163.7 413.382 L
166.056 409.258 L
169.355 405.135 L
169.826 401.011 L
172.182 396.888 L
173.596 392.764 L
174.068 388.64 L
175.01 384.517 L
175.481 380.393 L
176.424 372.146 L
177.837 368.022 L
178.309 363.899 L
178.78 359.775 L
179.251 351.528 L
180.665 347.405 L
183.492 343.281 L
185.849 339.157 L
186.791 335.034 L
188.676 330.91 L
191.033 326.786 L
191.504 322.663 L
192.917 318.539 L
193.389 314.416 L
193.86 310.292 L
194.331 306.169 L
195.274 302.045 L
196.216 297.921 L
197.63 293.798 L
199.986 289.674 L
200.458 285.551 L
201.4 277.303 L
202.814 273.18 L
205.17 269.056 L
207.055 264.933 L
208.94 260.809 L
209.411 256.685 L
211.296 252.562 L
213.181 248.438 L
214.124 244.315 L
214.595 240.191 L
215.066 231.944 L
217.423 223.697 L
217.894 207.202 L
220.721 198.955 L
223.077 194.831 L
224.02 190.708 L
227.319 186.584 L
231.56 182.461 L
233.445 178.337 L
234.859 174.214 L
235.801 170.09 L
236.744 165.966 L
238.629 161.843 L
244.284 157.719 L
244.755 149.472 L
245.697 145.348 L
246.169 137.101 L
248.996 132.978 L
249.939 124.73 L
250.41 120.607 L
250.881 116.483 L
253.709 108.236 L
255.122 104.112 L
256.536 95.865 L
258.421 91.742 L
258.892 87.618 L
261.249 83.494 L
262.191 79.371 L
268.318 75.247 L
281.041 71.124 L
295.65 67 L
S
GR
GS
[1.00309 0 0 1.00222 0 0] CT
0.851 0.325 0.098 RC
1 LJ
6 LW
N
126 801 M
126 678.667 L
126.471 654.2 L
129.77 605.267 L
132.598 580.8 L
140.137 556.333 L
141.551 531.867 L
143.436 507.4 L
144.85 458.467 L
145.321 434 L
152.861 409.533 L
154.275 385.067 L
155.217 360.6 L
156.16 311.667 L
157.102 287.2 L
158.045 262.733 L
158.988 238.267 L
159.93 213.8 L
161.815 189.333 L
162.758 164.867 L
179.251 140.4 L
222.135 115.933 L
239.571 91.467 L
240.985 67 L
S
GR
GS
[1.00309 0 0 1.00222 0 0] CT
1 LJ
N
144.85 801 M
144.85 67 L
S
GR
GS
[1.00309 0 0 1.00222 0 0] CT
1 GC
N
575 745 M
575 630 L
848 630 L
848 745 L
cp
f
GR
GS
[1.00309 0 0 1.00222 614.58327 651.9406] CT
/Helvetica 27 F
GS
[1 0 0 1 0 0] CT
0 10 moveto 
1 -1 scale
(S1 vs S1 \(364.375\)) t 
GR
GR
GS
[1.00309 0 0 1.00222 0 0] CT
0.494 0.184 0.557 RC
1 LJ
6 LW
N
579.075 650.495 M
609.634 650.495 L
S
GR
GS
[1.00309 0 0 1.00222 614.58327 689.02778] CT
/Helvetica 27 F
GS
[1 0 0 1 0 0] CT
0 10 moveto 
1 -1 scale
(S2 vs S1 \(99.084\)) t 
GR
GR
GS
[1.00309 0 0 1.00222 0 0] CT
0 0.447 0.741 RC
1 LJ
6 LW
N
579.075 687.5 M
609.634 687.5 L
S
GR
GS
[1.00309 0 0 1.00222 614.58327 726.11495] CT
/Helvetica 27 F
GS
[1 0 0 1 0 0] CT
0 10 moveto 
1 -1 scale
(S3 vs S1 \(59.700\)) t 
GR
GR
GS
[1.00309 0 0 1.00222 0 0] CT
0.851 0.325 0.098 RC
1 LJ
6 LW
N
579.075 724.505 M
609.634 724.505 L
S
GR
GS
[1.00309 0 0 1.00222 0 0] CT
0.149 GC
10.0 ML
0.5 LW
N
575 745 M
575 630 L
848 630 L
848 745 L
cp
S
GR
GS
[1.00309 0 0 1.00222 0 0] CT
0 0.447 0.741 RC
1 LJ
2 LW
N
396.185 378.16 M
150.488 503.912 L
S
GR
GS
[1.00309 0 0 1.00222 0 0] CT
0 0.447 0.741 RC
1 LJ
0.5 LW
N
155.313 505.656 M
144.702 506.874 L
150.488 503.912 L
155.313 505.656 L
S
GR
GS
[1.00309 0 0 1.00222 0 0] CT
0 0.447 0.741 RC
1 LJ
0.5 LW
N
144.702 506.874 M
151.895 498.979 L
150.488 503.912 L
144.702 506.874 L
S
GR
GS
[1.00309 0 0 1.00222 0 0] CT
0 0.447 0.741 RC
N
155.313 505.656 M
144.702 506.874 L
150.488 503.912 L
cp
f
GR
GS
[1.00309 0 0 1.00222 0 0] CT
0 0.447 0.741 RC
N
144.702 506.874 M
151.895 498.979 L
150.488 503.912 L
cp
f
GR
GS
[1.00309 0 0 1.00222 0 0] CT
0.494 0.184 0.557 RC
1 LJ
2 LW
N
394.189 424.058 M
149.616 748.138 L
S
GR
GS
[1.00309 0 0 1.00222 0 0] CT
0.494 0.184 0.557 RC
1 LJ
0.5 LW
N
154.717 747.603 M
145.7 753.326 L
149.616 748.138 L
154.717 747.603 L
S
GR
GS
[1.00309 0 0 1.00222 0 0] CT
0.494 0.184 0.557 RC
1 LJ
0.5 LW
N
145.7 753.326 M
148.731 743.085 L
149.616 748.138 L
145.7 753.326 L
S
GR
GS
[1.00309 0 0 1.00222 0 0] CT
0.494 0.184 0.557 RC
N
154.717 747.603 M
145.7 753.326 L
149.616 748.138 L
cp
f
GR
GS
[1.00309 0 0 1.00222 0 0] CT
0.494 0.184 0.557 RC
N
145.7 753.326 M
148.731 743.085 L
149.616 748.138 L
cp
f
GR
GS
[1.00309 0 0 1.00222 0 0] CT
1 LJ
2 LW
N
394.189 468.958 M
149.677 785.102 L
S
GR
GS
[1.00309 0 0 1.00222 0 0] CT
1 LJ
0.5 LW
N
154.784 784.628 M
145.7 790.244 L
149.677 785.102 L
154.784 784.628 L
S
GR
GS
[1.00309 0 0 1.00222 0 0] CT
1 LJ
0.5 LW
N
145.7 790.244 M
148.852 780.039 L
149.677 785.102 L
145.7 790.244 L
S
GR
GS
[1.00309 0 0 1.00222 0 0] CT
N
154.784 784.628 M
145.7 790.244 L
149.677 785.102 L
cp
f
GR
GS
[1.00309 0 0 1.00222 0 0] CT
N
145.7 790.244 M
148.852 780.039 L
149.677 785.102 L
cp
f
GR
GS
[1.00309 0 0 1.00222 0 0] CT
0 0.447 0.741 RC
10.0 ML
2 LW
N
395.187 395.849 M
395.187 359.77 L
597.77 359.77 L
597.77 395.849 L
cp
S
GR
GS
[1.00309 0 0 1.00222 498.01234 363.5759] CT
0 0.447 0.741 RC
/Helvetica 23.947 F
GS
[1 0 0 1 0 0] CT
-90.5 23 moveto 
1 -1 scale
(FNMR = 39.89%) t 
GR
GR
GS
[1.00309 0 0 1.00222 0 0] CT
0.494 0.184 0.557 RC
10.0 ML
2 LW
N
395.187 441.196 M
395.187 405.998 L
597.77 405.998 L
597.77 441.196 L
cp
S
GR
GS
[1.00309 0 0 1.00222 498.01234 409.90644] CT
0.494 0.184 0.557 RC
/Helvetica 23.947 F
GS
[1 0 0 1 0 0] CT
-83.5 23 moveto 
1 -1 scale
(FNMR = 5.56%) t 
GR
GR
GS
[1.00309 0 0 1.00222 0 0] CT
10.0 ML
2 LW
N
395.187 485.99 M
395.187 450.177 L
597.77 450.177 L
597.77 485.99 L
cp
S
GR
GS
[1.00309 0 0 1.00222 498.01234 454.18397] CT
/Helvetica 23.947 F
GS
[1 0 0 1 0 0] CT
-77.5 23 moveto 
1 -1 scale
(threshold = 40) t 
GR
GR
GS
[1.00309 0 0 1.00222 0 0] CT
0.851 0.325 0.098 RC
10.0 ML
2 LW
N
395.187 348.707 M
395.187 314.302 L
597.77 314.302 L
597.77 348.707 L
cp
S
GR
GS
[1.00309 0 0 1.00222 498.01234 318.00663] CT
0.851 0.325 0.098 RC
/Helvetica 23.947 F
GS
[1 0 0 1 0 0] CT
-90.5 23 moveto 
1 -1 scale
(FNMR = 40.00%) t 
GR
GR
GS
[1.00309 0 0 1.00222 0 0] CT
0.851 0.325 0.098 RC
1 LJ
2 LW
N
394.189 331.264 M
151.039 500.172 L
S
GR
GS
[1.00309 0 0 1.00222 0 0] CT
0.851 0.325 0.098 RC
1 LJ
0.5 LW
N
156.053 501.255 M
145.7 503.88 L
151.039 500.172 L
156.053 501.255 L
S
GR
GS
[1.00309 0 0 1.00222 0 0] CT
0.851 0.325 0.098 RC
1 LJ
0.5 LW
N
145.7 503.88 M
151.774 495.095 L
151.039 500.172 L
145.7 503.88 L
S
GR
GS
[1.00309 0 0 1.00222 0 0] CT
0.851 0.325 0.098 RC
N
156.053 501.255 M
145.7 503.88 L
151.039 500.172 L
cp
f
GR
GS
[1.00309 0 0 1.00222 0 0] CT
0.851 0.325 0.098 RC
N
145.7 503.88 M
151.774 495.095 L
151.039 500.172 L
cp
f
GR
%%Trailer
%%Pages: 1
%%EOF
