%!PS-Adobe-3.0 EPSF-3.0
%%Creator: (MATLAB, The Mathworks, Inc. Version 9.3.0.713579 \(R2017b\). Operating System: Mac OS X)
%%Title: /Users/aczajka/Work/Research/Programs/Iris/ColdIrises/preTIFS2018/wwc_thr.eps
%%CreationDate: 2018-07-28T14:59:41
%%Pages: (atend)
%%BoundingBox: 0 0 198 165
%%LanguageLevel: 3
%%EndComments
%%BeginProlog
%%BeginResource: procset (Apache XML Graphics Std ProcSet) 1.2 0
%%Version: 1.2 0
%%Copyright: (Copyright 2001-2003,2010 The Apache Software Foundation. License terms: http://www.apache.org/licenses/LICENSE-2.0)
/bd{bind def}bind def
/ld{load def}bd
/GR/grestore ld
/GS/gsave ld
/RM/rmoveto ld
/C/curveto ld
/t/show ld
/L/lineto ld
/ML/setmiterlimit ld
/CT/concat ld
/f/fill ld
/N/newpath ld
/S/stroke ld
/CC/setcmykcolor ld
/A/ashow ld
/cp/closepath ld
/RC/setrgbcolor ld
/LJ/setlinejoin ld
/GC/setgray ld
/LW/setlinewidth ld
/M/moveto ld
/re {4 2 roll M
1 index 0 rlineto
0 exch rlineto
neg 0 rlineto
cp } bd
/_ctm matrix def
/_tm matrix def
/BT { _ctm currentmatrix pop matrix _tm copy pop 0 0 moveto } bd
/ET { _ctm setmatrix } bd
/iTm { _ctm setmatrix _tm concat } bd
/Tm { _tm astore pop iTm 0 0 moveto } bd
/ux 0.0 def
/uy 0.0 def
/F {
  /Tp exch def
  /Tf exch def
  Tf findfont Tp scalefont setfont
  /cf Tf def  /cs Tp def
} bd
/ULS {currentpoint /uy exch def /ux exch def} bd
/ULE {
  /Tcx currentpoint pop def
  gsave
  newpath
  cf findfont cs scalefont dup
  /FontMatrix get 0 get /Ts exch def /FontInfo get dup
  /UnderlinePosition get Ts mul /To exch def
  /UnderlineThickness get Ts mul /Tt exch def
  ux uy To add moveto  Tcx uy To add lineto
  Tt setlinewidth stroke
  grestore
} bd
/OLE {
  /Tcx currentpoint pop def
  gsave
  newpath
  cf findfont cs scalefont dup
  /FontMatrix get 0 get /Ts exch def /FontInfo get dup
  /UnderlinePosition get Ts mul /To exch def
  /UnderlineThickness get Ts mul /Tt exch def
  ux uy To add cs add moveto Tcx uy To add cs add lineto
  Tt setlinewidth stroke
  grestore
} bd
/SOE {
  /Tcx currentpoint pop def
  gsave
  newpath
  cf findfont cs scalefont dup
  /FontMatrix get 0 get /Ts exch def /FontInfo get dup
  /UnderlinePosition get Ts mul /To exch def
  /UnderlineThickness get Ts mul /Tt exch def
  ux uy To add cs 10 mul 26 idiv add moveto Tcx uy To add cs 10 mul 26 idiv add lineto
  Tt setlinewidth stroke
  grestore
} bd
/QT {
/Y22 exch store
/X22 exch store
/Y21 exch store
/X21 exch store
currentpoint
/Y21 load 2 mul add 3 div exch
/X21 load 2 mul add 3 div exch
/X21 load 2 mul /X22 load add 3 div
/Y21 load 2 mul /Y22 load add 3 div
/X22 load /Y22 load curveto
} bd
/SSPD {
dup length /d exch dict def
{
/v exch def
/k exch def
currentpagedevice k known {
/cpdv currentpagedevice k get def
v cpdv ne {
/upd false def
/nullv v type /nulltype eq def
/nullcpdv cpdv type /nulltype eq def
nullv nullcpdv or
{
/upd true def
} {
/sametype v type cpdv type eq def
sametype {
v type /arraytype eq {
/vlen v length def
/cpdvlen cpdv length def
vlen cpdvlen eq {
0 1 vlen 1 sub {
/i exch def
/obj v i get def
/cpdobj cpdv i get def
obj cpdobj ne {
/upd true def
exit
} if
} for
} {
/upd true def
} ifelse
} {
v type /dicttype eq {
v {
/dv exch def
/dk exch def
/cpddv cpdv dk get def
dv cpddv ne {
/upd true def
exit
} if
} forall
} {
/upd true def
} ifelse
} ifelse
} if
} ifelse
upd true eq {
d k v put
} if
} if
} if
} forall
d length 0 gt {
d setpagedevice
} if
} bd
/RE { % /NewFontName [NewEncodingArray] /FontName RE -
  findfont dup length dict begin
  {
    1 index /FID ne
    {def} {pop pop} ifelse
  } forall
  /Encoding exch def
  /FontName 1 index def
  currentdict definefont pop
  end
} bind def
%%EndResource
%%BeginResource: procset (Apache XML Graphics EPS ProcSet) 1.0 0
%%Version: 1.0 0
%%Copyright: (Copyright 2002-2003 The Apache Software Foundation. License terms: http://www.apache.org/licenses/LICENSE-2.0)
/BeginEPSF { %def
/b4_Inc_state save def         % Save state for cleanup
/dict_count countdictstack def % Count objects on dict stack
/op_count count 1 sub def      % Count objects on operand stack
userdict begin                 % Push userdict on dict stack
/showpage { } def              % Redefine showpage, { } = null proc
0 setgray 0 setlinecap         % Prepare graphics state
1 setlinewidth 0 setlinejoin
10 setmiterlimit [ ] 0 setdash newpath
/languagelevel where           % If level not equal to 1 then
{pop languagelevel             % set strokeadjust and
1 ne                           % overprint to their defaults.
{false setstrokeadjust false setoverprint
} if
} if
} bd
/EndEPSF { %def
count op_count sub {pop} repeat            % Clean up stacks
countdictstack dict_count sub {end} repeat
b4_Inc_state restore
} bd
%%EndResource
%FOPBeginFontDict
%%IncludeResource: font Courier-Oblique
%%IncludeResource: font Courier-BoldOblique
%%IncludeResource: font Courier-Bold
%%IncludeResource: font ZapfDingbats
%%IncludeResource: font Symbol
%%IncludeResource: font Helvetica
%%IncludeResource: font Helvetica-Oblique
%%IncludeResource: font Helvetica-Bold
%%IncludeResource: font Helvetica-BoldOblique
%%IncludeResource: font Times-Roman
%%IncludeResource: font Times-Italic
%%IncludeResource: font Times-Bold
%%IncludeResource: font Times-BoldItalic
%%IncludeResource: font Courier
%FOPEndFontDict
%%BeginResource: encoding WinAnsiEncoding
/WinAnsiEncoding [
/.notdef /.notdef /.notdef /.notdef /.notdef
/.notdef /.notdef /.notdef /.notdef /.notdef
/.notdef /.notdef /.notdef /.notdef /.notdef
/.notdef /.notdef /.notdef /.notdef /.notdef
/.notdef /.notdef /.notdef /.notdef /.notdef
/.notdef /.notdef /.notdef /.notdef /.notdef
/.notdef /.notdef /space /exclam /quotedbl
/numbersign /dollar /percent /ampersand /quotesingle
/parenleft /parenright /asterisk /plus /comma
/hyphen /period /slash /zero /one
/two /three /four /five /six
/seven /eight /nine /colon /semicolon
/less /equal /greater /question /at
/A /B /C /D /E
/F /G /H /I /J
/K /L /M /N /O
/P /Q /R /S /T
/U /V /W /X /Y
/Z /bracketleft /backslash /bracketright /asciicircum
/underscore /quoteleft /a /b /c
/d /e /f /g /h
/i /j /k /l /m
/n /o /p /q /r
/s /t /u /v /w
/x /y /z /braceleft /bar
/braceright /asciitilde /bullet /Euro /bullet
/quotesinglbase /florin /quotedblbase /ellipsis /dagger
/daggerdbl /circumflex /perthousand /Scaron /guilsinglleft
/OE /bullet /Zcaron /bullet /bullet
/quoteleft /quoteright /quotedblleft /quotedblright /bullet
/endash /emdash /asciitilde /trademark /scaron
/guilsinglright /oe /bullet /zcaron /Ydieresis
/space /exclamdown /cent /sterling /currency
/yen /brokenbar /section /dieresis /copyright
/ordfeminine /guillemotleft /logicalnot /sfthyphen /registered
/macron /degree /plusminus /twosuperior /threesuperior
/acute /mu /paragraph /middot /cedilla
/onesuperior /ordmasculine /guillemotright /onequarter /onehalf
/threequarters /questiondown /Agrave /Aacute /Acircumflex
/Atilde /Adieresis /Aring /AE /Ccedilla
/Egrave /Eacute /Ecircumflex /Edieresis /Igrave
/Iacute /Icircumflex /Idieresis /Eth /Ntilde
/Ograve /Oacute /Ocircumflex /Otilde /Odieresis
/multiply /Oslash /Ugrave /Uacute /Ucircumflex
/Udieresis /Yacute /Thorn /germandbls /agrave
/aacute /acircumflex /atilde /adieresis /aring
/ae /ccedilla /egrave /eacute /ecircumflex
/edieresis /igrave /iacute /icircumflex /idieresis
/eth /ntilde /ograve /oacute /ocircumflex
/otilde /odieresis /divide /oslash /ugrave
/uacute /ucircumflex /udieresis /yacute /thorn
/ydieresis
] def
%%EndResource
%FOPBeginFontReencode
/Courier-Oblique findfont
dup length dict begin
  {1 index /FID ne {def} {pop pop} ifelse} forall
  /Encoding WinAnsiEncoding def
  currentdict
end
/Courier-Oblique exch definefont pop
/Courier-BoldOblique findfont
dup length dict begin
  {1 index /FID ne {def} {pop pop} ifelse} forall
  /Encoding WinAnsiEncoding def
  currentdict
end
/Courier-BoldOblique exch definefont pop
/Courier-Bold findfont
dup length dict begin
  {1 index /FID ne {def} {pop pop} ifelse} forall
  /Encoding WinAnsiEncoding def
  currentdict
end
/Courier-Bold exch definefont pop
/Helvetica findfont
dup length dict begin
  {1 index /FID ne {def} {pop pop} ifelse} forall
  /Encoding WinAnsiEncoding def
  currentdict
end
/Helvetica exch definefont pop
/Helvetica-Oblique findfont
dup length dict begin
  {1 index /FID ne {def} {pop pop} ifelse} forall
  /Encoding WinAnsiEncoding def
  currentdict
end
/Helvetica-Oblique exch definefont pop
/Helvetica-Bold findfont
dup length dict begin
  {1 index /FID ne {def} {pop pop} ifelse} forall
  /Encoding WinAnsiEncoding def
  currentdict
end
/Helvetica-Bold exch definefont pop
/Helvetica-BoldOblique findfont
dup length dict begin
  {1 index /FID ne {def} {pop pop} ifelse} forall
  /Encoding WinAnsiEncoding def
  currentdict
end
/Helvetica-BoldOblique exch definefont pop
/Times-Roman findfont
dup length dict begin
  {1 index /FID ne {def} {pop pop} ifelse} forall
  /Encoding WinAnsiEncoding def
  currentdict
end
/Times-Roman exch definefont pop
/Times-Italic findfont
dup length dict begin
  {1 index /FID ne {def} {pop pop} ifelse} forall
  /Encoding WinAnsiEncoding def
  currentdict
end
/Times-Italic exch definefont pop
/Times-Bold findfont
dup length dict begin
  {1 index /FID ne {def} {pop pop} ifelse} forall
  /Encoding WinAnsiEncoding def
  currentdict
end
/Times-Bold exch definefont pop
/Times-BoldItalic findfont
dup length dict begin
  {1 index /FID ne {def} {pop pop} ifelse} forall
  /Encoding WinAnsiEncoding def
  currentdict
end
/Times-BoldItalic exch definefont pop
/Courier findfont
dup length dict begin
  {1 index /FID ne {def} {pop pop} ifelse} forall
  /Encoding WinAnsiEncoding def
  currentdict
end
/Courier exch definefont pop
%FOPEndFontReencode
%%EndProlog
%%Page: 1 1
%%PageBoundingBox: 0 0 198 165
%%BeginPageSetup
[1 0 0 -1 0 165] CT
%%EndPageSetup
GS
1 GC
N
0 0 198 165 re
f
GR
GS
1 GC
N
0 0 198 165 re
f
GR
GS
1 GC
N
43.5 132 M
187.5 132 L
187.5 6.5 L
43.5 6.5 L
cp
f
GR
GS
0.873 GC
1 LJ
0.5 LW
N
43.5 132 M
43.5 6.5 L
S
GR
GS
0.873 GC
1 LJ
0.5 LW
N
67.5 132 M
67.5 6.5 L
S
GR
GS
0.873 GC
1 LJ
0.5 LW
N
91.5 132 M
91.5 6.5 L
S
GR
GS
0.873 GC
1 LJ
0.5 LW
N
115.5 132 M
115.5 6.5 L
S
GR
GS
0.873 GC
1 LJ
0.5 LW
N
139.5 132 M
139.5 6.5 L
S
GR
GS
0.873 GC
1 LJ
0.5 LW
N
163.5 132 M
163.5 6.5 L
S
GR
GS
0.873 GC
1 LJ
0.5 LW
N
187.5 132 M
187.5 6.5 L
S
GR
GS
0.873 GC
1 LJ
0.5 LW
N
187.5 132 M
43.5 132 L
S
GR
GS
0.873 GC
1 LJ
0.5 LW
N
187.5 111.083 M
43.5 111.083 L
S
GR
GS
0.873 GC
1 LJ
0.5 LW
N
187.5 90.167 M
43.5 90.167 L
S
GR
GS
0.873 GC
1 LJ
0.5 LW
N
187.5 69.25 M
43.5 69.25 L
S
GR
GS
0.873 GC
1 LJ
0.5 LW
N
187.5 48.333 M
43.5 48.333 L
S
GR
GS
0.873 GC
1 LJ
0.5 LW
N
187.5 27.417 M
43.5 27.417 L
S
GR
GS
0.149 GC
2 setlinecap
1 LJ
0.5 LW
N
43.5 132 M
187.5 132 L
S
GR
GS
0.149 GC
2 setlinecap
1 LJ
0.5 LW
N
43.5 132 M
43.5 130.564 L
S
GR
GS
0.149 GC
2 setlinecap
1 LJ
0.5 LW
N
67.5 132 M
67.5 130.564 L
S
GR
GS
0.149 GC
2 setlinecap
1 LJ
0.5 LW
N
91.5 132 M
91.5 130.564 L
S
GR
GS
0.149 GC
2 setlinecap
1 LJ
0.5 LW
N
115.5 132 M
115.5 130.564 L
S
GR
GS
0.149 GC
2 setlinecap
1 LJ
0.5 LW
N
139.5 132 M
139.5 130.564 L
S
GR
GS
0.149 GC
2 setlinecap
1 LJ
0.5 LW
N
163.5 132 M
163.5 130.564 L
S
GR
GS
0.149 GC
2 setlinecap
1 LJ
0.5 LW
N
187.5 132 M
187.5 130.564 L
S
GR
GS
[1 0 0 1 43.5 136.2] CT
0.149 GC
/Helvetica 11 F
GS
[1 0 0 1 0 0] CT
-8 11 moveto 
1 -1 scale
(1   ) t 
GR
GR
GS
[1 0 0 1 67.49998 136.2] CT
0.149 GC
/Helvetica 11 F
GS
[1 0 0 1 0 0] CT
-11 11 moveto 
1 -1 scale
(1.05) t 
GR
GR
GS
[1 0 0 1 91.50001 136.2] CT
0.149 GC
/Helvetica 11 F
GS
[1 0 0 1 0 0] CT
-9.5 11 moveto 
1 -1 scale
(1.1 ) t 
GR
GR
GS
[1 0 0 1 115.49998 136.2] CT
0.149 GC
/Helvetica 11 F
GS
[1 0 0 1 0 0] CT
-11 11 moveto 
1 -1 scale
(1.15) t 
GR
GR
GS
[1 0 0 1 139.50002 136.2] CT
0.149 GC
/Helvetica 11 F
GS
[1 0 0 1 0 0] CT
-9.5 11 moveto 
1 -1 scale
(1.2 ) t 
GR
GR
GS
[1 0 0 1 163.5 136.2] CT
0.149 GC
/Helvetica 11 F
GS
[1 0 0 1 0 0] CT
-11 11 moveto 
1 -1 scale
(1.25) t 
GR
GR
GS
[1 0 0 1 187.49997 136.2] CT
0.149 GC
/Helvetica 11 F
GS
[1 0 0 1 0 0] CT
-9.5 11 moveto 
1 -1 scale
(1.3 ) t 
GR
GR
GS
[1 0 0 1 115.50005 150] CT
0.149 GC
/Helvetica 12.1 F
GS
[1 0 0 1 0 0] CT
-59.5 12 moveto 
1 -1 scale
(Acceptance threshold) t 
GR
GR
GS
0.149 GC
2 setlinecap
1 LJ
0.5 LW
N
43.5 132 M
43.5 6.5 L
S
GR
GS
0.149 GC
2 setlinecap
1 LJ
0.5 LW
N
43.5 132 M
44.935 132 L
S
GR
GS
0.149 GC
2 setlinecap
1 LJ
0.5 LW
N
43.5 111.083 M
44.935 111.083 L
S
GR
GS
0.149 GC
2 setlinecap
1 LJ
0.5 LW
N
43.5 90.167 M
44.935 90.167 L
S
GR
GS
0.149 GC
2 setlinecap
1 LJ
0.5 LW
N
43.5 69.25 M
44.935 69.25 L
S
GR
GS
0.149 GC
2 setlinecap
1 LJ
0.5 LW
N
43.5 48.333 M
44.935 48.333 L
S
GR
GS
0.149 GC
2 setlinecap
1 LJ
0.5 LW
N
43.5 27.417 M
44.935 27.417 L
S
GR
GS
[1 0 0 1 39.29999 132] CT
0.149 GC
/Helvetica 11 F
GS
[1 0 0 1 0 0] CT
-7 4 moveto 
1 -1 scale
(0) t 
GR
GR
GS
[1 0 0 1 39.29999 111.08334] CT
0.149 GC
/Helvetica 11 F
GS
[1 0 0 1 0 0] CT
-22 4 moveto 
1 -1 scale
(0.02) t 
GR
GR
GS
[1 0 0 1 39.29999 90.16666] CT
0.149 GC
/Helvetica 11 F
GS
[1 0 0 1 0 0] CT
-22 4 moveto 
1 -1 scale
(0.04) t 
GR
GR
GS
[1 0 0 1 39.29999 69.25] CT
0.149 GC
/Helvetica 11 F
GS
[1 0 0 1 0 0] CT
-22 4 moveto 
1 -1 scale
(0.06) t 
GR
GR
GS
[1 0 0 1 39.29999 48.33334] CT
0.149 GC
/Helvetica 11 F
GS
[1 0 0 1 0 0] CT
-22 4 moveto 
1 -1 scale
(0.08) t 
GR
GR
GS
[1 0 0 1 39.29999 27.41667] CT
0.149 GC
/Helvetica 11 F
GS
[1 0 0 1 0 0] CT
-16 4 moveto 
1 -1 scale
(0.1) t 
GR
GR
GS
[0 -1 1 0 15.00001 69.24995] CT
0.149 GC
/Helvetica 12.1 F
GS
[1 0 0 1 0 0] CT
-47.5 -3 moveto 
1 -1 scale
(False Match Rate) t 
GR
GR
GS
1 0 0 RC
1 LJ
2 LW
N
43.5 132 M
48.3 132 L
53.1 132 L
57.9 132 L
62.7 132 L
67.5 131.994 L
72.3 131.985 L
77.1 131.957 L
81.9 131.939 L
86.7 131.886 L
91.5 131.828 L
96.3 131.708 L
101.1 131.533 L
105.9 131.373 L
110.7 131.1 L
115.5 130.522 L
120.3 129.551 L
125.1 127.842 L
129.9 125.282 L
134.7 121.576 L
139.5 116.678 L
144.3 110.796 L
149.1 104.844 L
153.9 99.229 L
158.7 94.862 L
163.5 91.753 L
168.3 89.734 L
173.1 88.643 L
177.9 88.093 L
182.7 87.798 L
187.5 87.693 L
S
GR
GS
0 0 1 RC
1 LJ
2 LW
N
43.5 132 M
48.3 132 L
53.1 132 L
57.9 132 L
62.7 132 L
67.5 132 L
72.3 131.997 L
77.1 131.989 L
81.9 131.978 L
86.7 131.952 L
91.5 131.938 L
96.3 131.885 L
101.1 131.799 L
105.9 131.597 L
110.7 131.161 L
115.5 130.313 L
120.3 128.887 L
125.1 126.527 L
129.9 122.51 L
134.7 116.62 L
139.5 108.428 L
144.3 97.375 L
149.1 84.834 L
153.9 71.135 L
158.7 57.995 L
163.5 46.402 L
168.3 36.734 L
173.1 29.716 L
177.9 25.009 L
182.7 22.081 L
187.5 20.565 L
S
GR
GS
[1 0 0 1 43.5 132] CT
1 0 0 RC
N
2.667 0 M
2.667 1.473 1.473 2.667 0 2.667 C
-1.473 2.667 -2.667 1.473 -2.667 0 C
-2.667 -1.473 -1.473 -2.667 0 -2.667 C
1.473 -2.667 2.667 -1.473 2.667 0 C
cp
f
GR
GS
[1 0 0 1 48.3 132] CT
1 0 0 RC
N
/f-1992514645{2.667 0 M
2.667 1.473 1.473 2.667 0 2.667 C
-1.473 2.667 -2.667 1.473 -2.667 0 C
-2.667 -1.473 -1.473 -2.667 0 -2.667 C
1.473 -2.667 2.667 -1.473 2.667 0 C
cp}def
f-1992514645
f
GR
GS
[1 0 0 1 53.09999 132] CT
1 0 0 RC
N
f-1992514645
f
GR
GS
[1 0 0 1 57.89999 132] CT
1 0 0 RC
N
f-1992514645
f
GR
GS
[1 0 0 1 62.69998 132] CT
1 0 0 RC
N
f-1992514645
f
GR
GS
[1 0 0 1 67.49998 131.99385] CT
1 0 0 RC
N
f-1992514645
f
GR
GS
[1 0 0 1 72.29997 131.98463] CT
1 0 0 RC
N
f-1992514645
f
GR
GS
[1 0 0 1 77.10002 131.95697] CT
1 0 0 RC
N
f-1992514645
f
GR
GS
[1 0 0 1 81.90002 131.93854] CT
1 0 0 RC
N
f-1992514645
f
GR
GS
[1 0 0 1 86.70001 131.88629] CT
1 0 0 RC
N
f-1992514645
f
GR
GS
[1 0 0 1 91.50001 131.82791] CT
1 0 0 RC
N
f-1992514645
f
GR
GS
[1 0 0 1 96.3 131.70807] CT
1 0 0 RC
N
f-1992514645
f
GR
GS
[1 0 0 1 101.1 131.5329] CT
1 0 0 RC
N
f-1992514645
f
GR
GS
[1 0 0 1 105.89999 131.37311] CT
1 0 0 RC
N
f-1992514645
f
GR
GS
[1 0 0 1 110.69999 131.09961] CT
1 0 0 RC
N
f-1992514645
f
GR
GS
[1 0 0 1 115.49998 130.52188] CT
1 0 0 RC
N
f-1992514645
f
GR
GS
[1 0 0 1 120.29998 129.5508] CT
1 0 0 RC
N
f-1992514645
f
GR
GS
[1 0 0 1 125.09998 127.84219] CT
1 0 0 RC
N
f-1992514645
f
GR
GS
[1 0 0 1 129.89998 125.28237] CT
1 0 0 RC
N
f-1992514645
f
GR
GS
[1 0 0 1 134.70003 121.5763] CT
1 0 0 RC
N
f-1992514645
f
GR
GS
[1 0 0 1 139.50002 116.67789] CT
1 0 0 RC
N
f-1992514645
f
GR
GS
[1 0 0 1 144.30002 110.79613] CT
1 0 0 RC
N
f-1992514645
f
GR
GS
[1 0 0 1 149.10001 104.84368] CT
1 0 0 RC
N
f-1992514645
f
GR
GS
[1 0 0 1 153.90001 99.22926] CT
1 0 0 RC
N
f-1992514645
f
GR
GS
[1 0 0 1 158.7 94.8625] CT
1 0 0 RC
N
f-1992514645
f
GR
GS
[1 0 0 1 163.5 91.75259] CT
1 0 0 RC
N
f-1992514645
f
GR
GS
[1 0 0 1 168.29999 89.73361] CT
1 0 0 RC
N
f-1992514645
f
GR
GS
[1 0 0 1 173.09999 88.64269] CT
1 0 0 RC
N
f-1992514645
f
GR
GS
[1 0 0 1 177.89998 88.09262] CT
1 0 0 RC
N
f-1992514645
f
GR
GS
[1 0 0 1 182.69998 87.79761] CT
1 0 0 RC
N
f-1992514645
f
GR
GS
[1 0 0 1 187.49997 87.69313] CT
1 0 0 RC
N
f-1992514645
f
GR
GS
[1 0 0 1 43.5 132] CT
0 0 1 RC
N
f-1992514645
f
GR
GS
[1 0 0 1 48.3 132] CT
0 0 1 RC
N
f-1992514645
f
GR
GS
[1 0 0 1 53.09999 132] CT
0 0 1 RC
N
f-1992514645
f
GR
GS
[1 0 0 1 57.89999 132] CT
0 0 1 RC
N
f-1992514645
f
GR
GS
[1 0 0 1 62.69998 132] CT
0 0 1 RC
N
f-1992514645
f
GR
GS
[1 0 0 1 67.49998 132] CT
0 0 1 RC
N
f-1992514645
f
GR
GS
[1 0 0 1 72.29997 131.99721] CT
0 0 1 RC
N
f-1992514645
f
GR
GS
[1 0 0 1 77.10002 131.98882] CT
0 0 1 RC
N
f-1992514645
f
GR
GS
[1 0 0 1 81.90002 131.97763] CT
0 0 1 RC
N
f-1992514645
f
GR
GS
[1 0 0 1 86.70001 131.95245] CT
0 0 1 RC
N
f-1992514645
f
GR
GS
[1 0 0 1 91.50001 131.93848] CT
0 0 1 RC
N
f-1992514645
f
GR
GS
[1 0 0 1 96.3 131.88533] CT
0 0 1 RC
N
f-1992514645
f
GR
GS
[1 0 0 1 101.1 131.79863] CT
0 0 1 RC
N
f-1992514645
f
GR
GS
[1 0 0 1 105.89999 131.59726] CT
0 0 1 RC
N
f-1992514645
f
GR
GS
[1 0 0 1 110.69999 131.16095] CT
0 0 1 RC
N
f-1992514645
f
GR
GS
[1 0 0 1 115.49998 130.31349] CT
0 0 1 RC
N
f-1992514645
f
GR
GS
[1 0 0 1 120.29998 128.8871] CT
0 0 1 RC
N
f-1992514645
f
GR
GS
[1 0 0 1 125.09998 126.52656] CT
0 0 1 RC
N
f-1992514645
f
GR
GS
[1 0 0 1 129.89998 122.51028] CT
0 0 1 RC
N
f-1992514645
f
GR
GS
[1 0 0 1 134.70003 116.62009] CT
0 0 1 RC
N
f-1992514645
f
GR
GS
[1 0 0 1 139.50002 108.42811] CT
0 0 1 RC
N
f-1992514645
f
GR
GS
[1 0 0 1 144.30002 97.37495] CT
0 0 1 RC
N
f-1992514645
f
GR
GS
[1 0 0 1 149.10001 84.83385] CT
0 0 1 RC
N
f-1992514645
f
GR
GS
[1 0 0 1 153.90001 71.13486] CT
0 0 1 RC
N
f-1992514645
f
GR
GS
[1 0 0 1 158.7 57.99523] CT
0 0 1 RC
N
f-1992514645
f
GR
GS
[1 0 0 1 163.5 46.40228] CT
0 0 1 RC
N
f-1992514645
f
GR
GS
[1 0 0 1 168.29999 36.73354] CT
0 0 1 RC
N
f-1992514645
f
GR
GS
[1 0 0 1 173.09999 29.71624] CT
0 0 1 RC
N
f-1992514645
f
GR
GS
[1 0 0 1 177.89998 25.00913] CT
0 0 1 RC
N
f-1992514645
f
GR
GS
[1 0 0 1 182.69998 22.08083] CT
0 0 1 RC
N
f-1992514645
f
GR
GS
[1 0 0 1 187.49997 20.56493] CT
0 0 1 RC
N
f-1992514645
f
GR
GS
1 GC
N
151.5 62.5 M
151.5 10 L
50 10 L
50 62.5 L
cp
f
GR
GS
[1 0 0 1 87 24] CT
/Helvetica 9.9 F
GS
[1 0 0 1 0 0] CT
0 -3 moveto 
1 -1 scale
(live-test vs) t 
GR
GR
GS
[1 0 0 1 87 24] CT
/Helvetica 9.9 F
GS
[1 0 0 1 0 0] CT
0 10 moveto 
1 -1 scale
(live-reference) t 
GR
GR
GS
1 0 0 RC
1 LJ
2 LW
N
54 24 M
84 24 L
S
GR
GS
[1 0 0 1 87 48.5] CT
/Helvetica 9.9 F
GS
[1 0 0 1 0 0] CT
0 -3 moveto 
1 -1 scale
(live-test vs) t 
GR
GR
GS
[1 0 0 1 87 48.5] CT
/Helvetica 9.9 F
GS
[1 0 0 1 0 0] CT
0 10 moveto 
1 -1 scale
(post-mortem) t 
GR
GR
GS
0 0 1 RC
1 LJ
2 LW
N
54 48.5 M
84 48.5 L
S
GR
GS
0.149 GC
10.0 ML
0.5 LW
N
50 62.5 M
50 10 L
151.5 10 L
151.5 62.5 L
cp
S
GR
%%Trailer
%%Pages: 1
%%EOF
