%!PS-Adobe-3.0 EPSF-3.0
%%Creator: (MATLAB, The Mathworks, Inc. Version 9.3.0.713579 \(R2017b\). Operating System: Mac OS X)
%%Title: /Users/aczajka/Work/Research/Programs/Iris/ColdIrises/preTIFS2018/wwc_pmi.eps
%%CreationDate: 2018-07-28T14:59:53
%%Pages: (atend)
%%BoundingBox: 0 0 220 165
%%LanguageLevel: 3
%%EndComments
%%BeginProlog
%%BeginResource: procset (Apache XML Graphics Std ProcSet) 1.2 0
%%Version: 1.2 0
%%Copyright: (Copyright 2001-2003,2010 The Apache Software Foundation. License terms: http://www.apache.org/licenses/LICENSE-2.0)
/bd{bind def}bind def
/ld{load def}bd
/GR/grestore ld
/GS/gsave ld
/RM/rmoveto ld
/C/curveto ld
/t/show ld
/L/lineto ld
/ML/setmiterlimit ld
/CT/concat ld
/f/fill ld
/N/newpath ld
/S/stroke ld
/CC/setcmykcolor ld
/A/ashow ld
/cp/closepath ld
/RC/setrgbcolor ld
/LJ/setlinejoin ld
/GC/setgray ld
/LW/setlinewidth ld
/M/moveto ld
/re {4 2 roll M
1 index 0 rlineto
0 exch rlineto
neg 0 rlineto
cp } bd
/_ctm matrix def
/_tm matrix def
/BT { _ctm currentmatrix pop matrix _tm copy pop 0 0 moveto } bd
/ET { _ctm setmatrix } bd
/iTm { _ctm setmatrix _tm concat } bd
/Tm { _tm astore pop iTm 0 0 moveto } bd
/ux 0.0 def
/uy 0.0 def
/F {
  /Tp exch def
  /Tf exch def
  Tf findfont Tp scalefont setfont
  /cf Tf def  /cs Tp def
} bd
/ULS {currentpoint /uy exch def /ux exch def} bd
/ULE {
  /Tcx currentpoint pop def
  gsave
  newpath
  cf findfont cs scalefont dup
  /FontMatrix get 0 get /Ts exch def /FontInfo get dup
  /UnderlinePosition get Ts mul /To exch def
  /UnderlineThickness get Ts mul /Tt exch def
  ux uy To add moveto  Tcx uy To add lineto
  Tt setlinewidth stroke
  grestore
} bd
/OLE {
  /Tcx currentpoint pop def
  gsave
  newpath
  cf findfont cs scalefont dup
  /FontMatrix get 0 get /Ts exch def /FontInfo get dup
  /UnderlinePosition get Ts mul /To exch def
  /UnderlineThickness get Ts mul /Tt exch def
  ux uy To add cs add moveto Tcx uy To add cs add lineto
  Tt setlinewidth stroke
  grestore
} bd
/SOE {
  /Tcx currentpoint pop def
  gsave
  newpath
  cf findfont cs scalefont dup
  /FontMatrix get 0 get /Ts exch def /FontInfo get dup
  /UnderlinePosition get Ts mul /To exch def
  /UnderlineThickness get Ts mul /Tt exch def
  ux uy To add cs 10 mul 26 idiv add moveto Tcx uy To add cs 10 mul 26 idiv add lineto
  Tt setlinewidth stroke
  grestore
} bd
/QT {
/Y22 exch store
/X22 exch store
/Y21 exch store
/X21 exch store
currentpoint
/Y21 load 2 mul add 3 div exch
/X21 load 2 mul add 3 div exch
/X21 load 2 mul /X22 load add 3 div
/Y21 load 2 mul /Y22 load add 3 div
/X22 load /Y22 load curveto
} bd
/SSPD {
dup length /d exch dict def
{
/v exch def
/k exch def
currentpagedevice k known {
/cpdv currentpagedevice k get def
v cpdv ne {
/upd false def
/nullv v type /nulltype eq def
/nullcpdv cpdv type /nulltype eq def
nullv nullcpdv or
{
/upd true def
} {
/sametype v type cpdv type eq def
sametype {
v type /arraytype eq {
/vlen v length def
/cpdvlen cpdv length def
vlen cpdvlen eq {
0 1 vlen 1 sub {
/i exch def
/obj v i get def
/cpdobj cpdv i get def
obj cpdobj ne {
/upd true def
exit
} if
} for
} {
/upd true def
} ifelse
} {
v type /dicttype eq {
v {
/dv exch def
/dk exch def
/cpddv cpdv dk get def
dv cpddv ne {
/upd true def
exit
} if
} forall
} {
/upd true def
} ifelse
} ifelse
} if
} ifelse
upd true eq {
d k v put
} if
} if
} if
} forall
d length 0 gt {
d setpagedevice
} if
} bd
/RE { % /NewFontName [NewEncodingArray] /FontName RE -
  findfont dup length dict begin
  {
    1 index /FID ne
    {def} {pop pop} ifelse
  } forall
  /Encoding exch def
  /FontName 1 index def
  currentdict definefont pop
  end
} bind def
%%EndResource
%%BeginResource: procset (Apache XML Graphics EPS ProcSet) 1.0 0
%%Version: 1.0 0
%%Copyright: (Copyright 2002-2003 The Apache Software Foundation. License terms: http://www.apache.org/licenses/LICENSE-2.0)
/BeginEPSF { %def
/b4_Inc_state save def         % Save state for cleanup
/dict_count countdictstack def % Count objects on dict stack
/op_count count 1 sub def      % Count objects on operand stack
userdict begin                 % Push userdict on dict stack
/showpage { } def              % Redefine showpage, { } = null proc
0 setgray 0 setlinecap         % Prepare graphics state
1 setlinewidth 0 setlinejoin
10 setmiterlimit [ ] 0 setdash newpath
/languagelevel where           % If level not equal to 1 then
{pop languagelevel             % set strokeadjust and
1 ne                           % overprint to their defaults.
{false setstrokeadjust false setoverprint
} if
} if
} bd
/EndEPSF { %def
count op_count sub {pop} repeat            % Clean up stacks
countdictstack dict_count sub {end} repeat
b4_Inc_state restore
} bd
%%EndResource
%FOPBeginFontDict
%%IncludeResource: font Courier-Oblique
%%IncludeResource: font Courier-BoldOblique
%%IncludeResource: font Courier-Bold
%%IncludeResource: font ZapfDingbats
%%IncludeResource: font Symbol
%%IncludeResource: font Helvetica
%%IncludeResource: font Helvetica-Oblique
%%IncludeResource: font Helvetica-Bold
%%IncludeResource: font Helvetica-BoldOblique
%%IncludeResource: font Times-Roman
%%IncludeResource: font Times-Italic
%%IncludeResource: font Times-Bold
%%IncludeResource: font Times-BoldItalic
%%IncludeResource: font Courier
%FOPEndFontDict
%%BeginResource: encoding WinAnsiEncoding
/WinAnsiEncoding [
/.notdef /.notdef /.notdef /.notdef /.notdef
/.notdef /.notdef /.notdef /.notdef /.notdef
/.notdef /.notdef /.notdef /.notdef /.notdef
/.notdef /.notdef /.notdef /.notdef /.notdef
/.notdef /.notdef /.notdef /.notdef /.notdef
/.notdef /.notdef /.notdef /.notdef /.notdef
/.notdef /.notdef /space /exclam /quotedbl
/numbersign /dollar /percent /ampersand /quotesingle
/parenleft /parenright /asterisk /plus /comma
/hyphen /period /slash /zero /one
/two /three /four /five /six
/seven /eight /nine /colon /semicolon
/less /equal /greater /question /at
/A /B /C /D /E
/F /G /H /I /J
/K /L /M /N /O
/P /Q /R /S /T
/U /V /W /X /Y
/Z /bracketleft /backslash /bracketright /asciicircum
/underscore /quoteleft /a /b /c
/d /e /f /g /h
/i /j /k /l /m
/n /o /p /q /r
/s /t /u /v /w
/x /y /z /braceleft /bar
/braceright /asciitilde /bullet /Euro /bullet
/quotesinglbase /florin /quotedblbase /ellipsis /dagger
/daggerdbl /circumflex /perthousand /Scaron /guilsinglleft
/OE /bullet /Zcaron /bullet /bullet
/quoteleft /quoteright /quotedblleft /quotedblright /bullet
/endash /emdash /asciitilde /trademark /scaron
/guilsinglright /oe /bullet /zcaron /Ydieresis
/space /exclamdown /cent /sterling /currency
/yen /brokenbar /section /dieresis /copyright
/ordfeminine /guillemotleft /logicalnot /sfthyphen /registered
/macron /degree /plusminus /twosuperior /threesuperior
/acute /mu /paragraph /middot /cedilla
/onesuperior /ordmasculine /guillemotright /onequarter /onehalf
/threequarters /questiondown /Agrave /Aacute /Acircumflex
/Atilde /Adieresis /Aring /AE /Ccedilla
/Egrave /Eacute /Ecircumflex /Edieresis /Igrave
/Iacute /Icircumflex /Idieresis /Eth /Ntilde
/Ograve /Oacute /Ocircumflex /Otilde /Odieresis
/multiply /Oslash /Ugrave /Uacute /Ucircumflex
/Udieresis /Yacute /Thorn /germandbls /agrave
/aacute /acircumflex /atilde /adieresis /aring
/ae /ccedilla /egrave /eacute /ecircumflex
/edieresis /igrave /iacute /icircumflex /idieresis
/eth /ntilde /ograve /oacute /ocircumflex
/otilde /odieresis /divide /oslash /ugrave
/uacute /ucircumflex /udieresis /yacute /thorn
/ydieresis
] def
%%EndResource
%FOPBeginFontReencode
/Courier-Oblique findfont
dup length dict begin
  {1 index /FID ne {def} {pop pop} ifelse} forall
  /Encoding WinAnsiEncoding def
  currentdict
end
/Courier-Oblique exch definefont pop
/Courier-BoldOblique findfont
dup length dict begin
  {1 index /FID ne {def} {pop pop} ifelse} forall
  /Encoding WinAnsiEncoding def
  currentdict
end
/Courier-BoldOblique exch definefont pop
/Courier-Bold findfont
dup length dict begin
  {1 index /FID ne {def} {pop pop} ifelse} forall
  /Encoding WinAnsiEncoding def
  currentdict
end
/Courier-Bold exch definefont pop
/Helvetica findfont
dup length dict begin
  {1 index /FID ne {def} {pop pop} ifelse} forall
  /Encoding WinAnsiEncoding def
  currentdict
end
/Helvetica exch definefont pop
/Helvetica-Oblique findfont
dup length dict begin
  {1 index /FID ne {def} {pop pop} ifelse} forall
  /Encoding WinAnsiEncoding def
  currentdict
end
/Helvetica-Oblique exch definefont pop
/Helvetica-Bold findfont
dup length dict begin
  {1 index /FID ne {def} {pop pop} ifelse} forall
  /Encoding WinAnsiEncoding def
  currentdict
end
/Helvetica-Bold exch definefont pop
/Helvetica-BoldOblique findfont
dup length dict begin
  {1 index /FID ne {def} {pop pop} ifelse} forall
  /Encoding WinAnsiEncoding def
  currentdict
end
/Helvetica-BoldOblique exch definefont pop
/Times-Roman findfont
dup length dict begin
  {1 index /FID ne {def} {pop pop} ifelse} forall
  /Encoding WinAnsiEncoding def
  currentdict
end
/Times-Roman exch definefont pop
/Times-Italic findfont
dup length dict begin
  {1 index /FID ne {def} {pop pop} ifelse} forall
  /Encoding WinAnsiEncoding def
  currentdict
end
/Times-Italic exch definefont pop
/Times-Bold findfont
dup length dict begin
  {1 index /FID ne {def} {pop pop} ifelse} forall
  /Encoding WinAnsiEncoding def
  currentdict
end
/Times-Bold exch definefont pop
/Times-BoldItalic findfont
dup length dict begin
  {1 index /FID ne {def} {pop pop} ifelse} forall
  /Encoding WinAnsiEncoding def
  currentdict
end
/Times-BoldItalic exch definefont pop
/Courier findfont
dup length dict begin
  {1 index /FID ne {def} {pop pop} ifelse} forall
  /Encoding WinAnsiEncoding def
  currentdict
end
/Courier exch definefont pop
%FOPEndFontReencode
%%EndProlog
%%Page: 1 1
%%PageBoundingBox: 0 0 220 165
%%BeginPageSetup
[1 0 0 -1 0 165] CT
%%EndPageSetup
GS
1 GC
N
0 0 220 165 re
f
GR
GS
1 GC
N
0 0 220 165 re
f
GR
GS
1 GC
N
43.5 132 M
213.5 132 L
213.5 0 L
43.5 0 L
cp
f
GR
GS
0.873 GC
1 LJ
0.5 LW
N
64.303 132 M
64.303 0 L
S
GR
GS
0.873 GC
1 LJ
0.5 LW
N
85.317 132 M
85.317 0 L
S
GR
GS
0.873 GC
1 LJ
0.5 LW
N
106.331 132 M
106.331 0 L
S
GR
GS
0.873 GC
1 LJ
0.5 LW
N
127.344 132 M
127.344 0 L
S
GR
GS
0.873 GC
1 LJ
0.5 LW
N
148.358 132 M
148.358 0 L
S
GR
GS
0.873 GC
1 LJ
0.5 LW
N
169.371 132 M
169.371 0 L
S
GR
GS
0.873 GC
1 LJ
0.5 LW
N
190.385 132 M
190.385 0 L
S
GR
GS
0.873 GC
1 LJ
0.5 LW
N
211.399 132 M
211.399 0 L
S
GR
GS
0.873 GC
1 LJ
0.5 LW
N
213.5 132 M
43.5 132 L
S
GR
GS
0.873 GC
1 LJ
0.5 LW
N
213.5 91.385 M
43.5 91.385 L
S
GR
GS
0.873 GC
1 LJ
0.5 LW
N
213.5 50.769 M
43.5 50.769 L
S
GR
GS
0.873 GC
1 LJ
0.5 LW
N
213.5 10.154 M
43.5 10.154 L
S
GR
GS
0.149 GC
2 setlinecap
1 LJ
0.5 LW
N
43.5 132 M
213.5 132 L
S
GR
GS
0.149 GC
2 setlinecap
1 LJ
0.5 LW
N
64.303 132 M
64.303 130.304 L
S
GR
GS
0.149 GC
2 setlinecap
1 LJ
0.5 LW
N
85.317 132 M
85.317 130.304 L
S
GR
GS
0.149 GC
2 setlinecap
1 LJ
0.5 LW
N
106.331 132 M
106.331 130.304 L
S
GR
GS
0.149 GC
2 setlinecap
1 LJ
0.5 LW
N
127.344 132 M
127.344 130.304 L
S
GR
GS
0.149 GC
2 setlinecap
1 LJ
0.5 LW
N
148.358 132 M
148.358 130.304 L
S
GR
GS
0.149 GC
2 setlinecap
1 LJ
0.5 LW
N
169.371 132 M
169.371 130.304 L
S
GR
GS
0.149 GC
2 setlinecap
1 LJ
0.5 LW
N
190.385 132 M
190.385 130.304 L
S
GR
GS
0.149 GC
2 setlinecap
1 LJ
0.5 LW
N
211.399 132 M
211.399 130.304 L
S
GR
GS
[1 0 0 1 64.30346 136.2] CT
0.149 GC
/Helvetica 11 F
GS
[1 0 0 1 0 0] CT
-9.5 11 moveto 
1 -1 scale
(100) t 
GR
GR
GS
[1 0 0 1 85.31705 136.2] CT
0.149 GC
/Helvetica 11 F
GS
[1 0 0 1 0 0] CT
-9.5 11 moveto 
1 -1 scale
(200) t 
GR
GR
GS
[1 0 0 1 106.33066 136.2] CT
0.149 GC
/Helvetica 11 F
GS
[1 0 0 1 0 0] CT
-9.5 11 moveto 
1 -1 scale
(300) t 
GR
GR
GS
[1 0 0 1 127.34425 136.2] CT
0.149 GC
/Helvetica 11 F
GS
[1 0 0 1 0 0] CT
-9.5 11 moveto 
1 -1 scale
(400) t 
GR
GR
GS
[1 0 0 1 148.35785 136.2] CT
0.149 GC
/Helvetica 11 F
GS
[1 0 0 1 0 0] CT
-9.5 11 moveto 
1 -1 scale
(500) t 
GR
GR
GS
[1 0 0 1 169.37144 136.2] CT
0.149 GC
/Helvetica 11 F
GS
[1 0 0 1 0 0] CT
-9.5 11 moveto 
1 -1 scale
(600) t 
GR
GR
GS
[1 0 0 1 190.38504 136.2] CT
0.149 GC
/Helvetica 11 F
GS
[1 0 0 1 0 0] CT
-9.5 11 moveto 
1 -1 scale
(700) t 
GR
GR
GS
[1 0 0 1 211.39864 136.2] CT
0.149 GC
/Helvetica 11 F
GS
[1 0 0 1 0 0] CT
-9.5 11 moveto 
1 -1 scale
(800) t 
GR
GR
GS
[1 0 0 1 128.50008 150] CT
0.149 GC
/Helvetica 12.1 F
GS
[1 0 0 1 0 0] CT
-53 12 moveto 
1 -1 scale
(Hours post mortem) t 
GR
GR
GS
0.149 GC
2 setlinecap
1 LJ
0.5 LW
N
43.5 132 M
43.5 0 L
S
GR
GS
0.149 GC
2 setlinecap
1 LJ
0.5 LW
N
43.5 132 M
45.196 132 L
S
GR
GS
0.149 GC
2 setlinecap
1 LJ
0.5 LW
N
43.5 91.385 M
45.196 91.385 L
S
GR
GS
0.149 GC
2 setlinecap
1 LJ
0.5 LW
N
43.5 50.769 M
45.196 50.769 L
S
GR
GS
0.149 GC
2 setlinecap
1 LJ
0.5 LW
N
43.5 10.154 M
45.196 10.154 L
S
GR
GS
[1 0 0 1 39.3 132] CT
0.149 GC
/Helvetica 11 F
GS
[1 0 0 1 0 0] CT
-7 4 moveto 
1 -1 scale
(0) t 
GR
GR
GS
[1 0 0 1 39.3 91.38461] CT
0.149 GC
/Helvetica 11 F
GS
[1 0 0 1 0 0] CT
-22 4 moveto 
1 -1 scale
(0.02) t 
GR
GR
GS
[1 0 0 1 39.3 50.76923] CT
0.149 GC
/Helvetica 11 F
GS
[1 0 0 1 0 0] CT
-22 4 moveto 
1 -1 scale
(0.04) t 
GR
GR
GS
[1 0 0 1 39.3 10.15385] CT
0.149 GC
/Helvetica 11 F
GS
[1 0 0 1 0 0] CT
-22 4 moveto 
1 -1 scale
(0.06) t 
GR
GR
GS
[0 -1 1 0 15 65.99994] CT
0.149 GC
/Helvetica 12.1 F
GS
[1 0 0 1 0 0] CT
-47.5 -3 moveto 
1 -1 scale
(False Match Rate) t 
GR
GR
GS
[1 0 0 1 44.34055 105.24973] CT
0 0 1 RC
N
2.667 0 M
2.667 1.473 1.473 2.667 0 2.667 C
-1.473 2.667 -2.667 1.473 -2.667 0 C
-2.667 -1.473 -1.473 -2.667 0 -2.667 C
1.473 -2.667 2.667 -1.473 2.667 0 C
cp
f
GR
GS
[1 0 0 1 44.76081 89.55299] CT
0 0 1 RC
N
/f-1992514645{2.667 0 M
2.667 1.473 1.473 2.667 0 2.667 C
-1.473 2.667 -2.667 1.473 -2.667 0 C
-2.667 -1.473 -1.473 -2.667 0 -2.667 C
1.473 -2.667 2.667 -1.473 2.667 0 C
cp}def
f-1992514645
f
GR
GS
[1 0 0 1 46.65204 103.8595] CT
0 0 1 RC
N
f-1992514645
f
GR
GS
[1 0 0 1 46.86217 106.51844] CT
0 0 1 RC
N
f-1992514645
f
GR
GS
[1 0 0 1 47.59765 102.50233] CT
0 0 1 RC
N
f-1992514645
f
GR
GS
[1 0 0 1 47.70272 123.13685] CT
0 0 1 RC
N
f-1992514645
f
GR
GS
[1 0 0 1 47.91286 92.11582] CT
0 0 1 RC
N
f-1992514645
f
GR
GS
[1 0 0 1 48.12299 65.05156] CT
0 0 1 RC
N
f-1992514645
f
GR
GS
[1 0 0 1 48.54326 69.79968] CT
0 0 1 RC
N
f-1992514645
f
GR
GS
[1 0 0 1 48.96354 110.95002] CT
0 0 1 RC
N
f-1992514645
f
GR
GS
[1 0 0 1 51.6953 110.63348] CT
0 0 1 RC
N
f-1992514645
f
GR
GS
[1 0 0 1 51.90544 95.43951] CT
0 0 1 RC
N
f-1992514645
f
GR
GS
[1 0 0 1 52.74598 90.21658] CT
0 0 1 RC
N
f-1992514645
f
GR
GS
[1 0 0 1 52.95612 94.48988] CT
0 0 1 RC
N
f-1992514645
f
GR
GS
[1 0 0 1 53.58652 100.42503] CT
0 0 1 RC
N
f-1992514645
f
GR
GS
[1 0 0 1 54.63721 98.20924] CT
0 0 1 RC
N
f-1992514645
f
GR
GS
[1 0 0 1 55.05748 77.15926] CT
0 0 1 RC
N
f-1992514645
f
GR
GS
[1 0 0 1 56.10816 75.49741] CT
0 0 1 RC
N
f-1992514645
f
GR
GS
[1 0 0 1 56.9487 93.77766] CT
0 0 1 RC
N
f-1992514645
f
GR
GS
[1 0 0 1 57.36897 106.24147] CT
0 0 1 RC
N
f-1992514645
f
GR
GS
[1 0 0 1 57.78925 124.24474] CT
0 0 1 RC
N
f-1992514645
f
GR
GS
[1 0 0 1 57.99938 87.1303] CT
0 0 1 RC
N
f-1992514645
f
GR
GS
[1 0 0 1 58.83993 94.33161] CT
0 0 1 RC
N
f-1992514645
f
GR
GS
[1 0 0 1 59.05006 107.62634] CT
0 0 1 RC
N
f-1992514645
f
GR
GS
[1 0 0 1 61.99197 9.68853] CT
0 0 1 RC
N
f-1992514645
f
GR
GS
[1 0 0 1 63.25278 86.71484] CT
0 0 1 RC
N
f-1992514645
f
GR
GS
[1 0 0 1 63.46292 64.19691] CT
0 0 1 RC
N
f-1992514645
f
GR
GS
[1 0 0 1 64.5136 76.60531] CT
0 0 1 RC
N
f-1992514645
f
GR
GS
[1 0 0 1 66.40482 97.00359] CT
0 0 1 RC
N
f-1992514645
f
GR
GS
[1 0 0 1 67.24536 82.9757] CT
0 0 1 RC
N
f-1992514645
f
GR
GS
[1 0 0 1 67.4555 42.26061] CT
0 0 1 RC
N
f-1992514645
f
GR
GS
[1 0 0 1 67.87577 87.1303] CT
0 0 1 RC
N
f-1992514645
f
GR
GS
[1 0 0 1 68.92645 98.76319] CT
0 0 1 RC
N
f-1992514645
f
GR
GS
[1 0 0 1 69.34673 82.14478] CT
0 0 1 RC
N
f-1992514645
f
GR
GS
[1 0 0 1 69.55686 52.23165] CT
0 0 1 RC
N
f-1992514645
f
GR
GS
[1 0 0 1 72.28863 67.18822] CT
0 0 1 RC
N
f-1992514645
f
GR
GS
[1 0 0 1 73.75958 49.73889] CT
0 0 1 RC
N
f-1992514645
f
GR
GS
[1 0 0 1 74.81026 86.90872] CT
0 0 1 RC
N
f-1992514645
f
GR
GS
[1 0 0 1 75.6508 104.99509] CT
0 0 1 RC
N
f-1992514645
f
GR
GS
[1 0 0 1 77.9623 61.4641] CT
0 0 1 RC
N
f-1992514645
f
GR
GS
[1 0 0 1 83.63597 55.08052] CT
0 0 1 RC
N
f-1992514645
f
GR
GS
[1 0 0 1 85.10692 85.053] CT
0 0 1 RC
N
f-1992514645
f
GR
GS
[1 0 0 1 86.36774 70.38406] CT
0 0 1 RC
N
f-1992514645
f
GR
GS
[1 0 0 1 87.62856 85.053] CT
0 0 1 RC
N
f-1992514645
f
GR
GS
[1 0 0 1 88.4691 102.08687] CT
0 0 1 RC
N
f-1992514645
f
GR
GS
[1 0 0 1 92.04141 58.87901] CT
0 0 1 RC
N
f-1992514645
f
GR
GS
[1 0 0 1 93.51236 38.27219] CT
0 0 1 RC
N
f-1992514645
f
GR
GS
[1 0 0 1 94.77318 53.89349] CT
0 0 1 RC
N
f-1992514645
f
GR
GS
[1 0 0 1 98.55563 82.14478] CT
0 0 1 RC
N
f-1992514645
f
GR
GS
[1 0 0 1 102.33807 34.28378] CT
0 0 1 RC
N
f-1992514645
f
GR
GS
[1 0 0 1 115.3665 103.19476] CT
0 0 1 RC
N
f-1992514645
f
GR
GS
[1 0 0 1 118.72868 68.29611] CT
0 0 1 RC
N
f-1992514645
f
GR
GS
[1 0 0 1 128.60507 98.76319] CT
0 0 1 RC
N
f-1992514645
f
GR
GS
[1 0 0 1 128.8152 75.77439] CT
0 0 1 RC
N
f-1992514645
f
GR
GS
[1 0 0 1 138.48146 81.31386] CT
0 0 1 RC
N
f-1992514645
f
GR
GS
[1 0 0 1 148.98825 92.41798] CT
0 0 1 RC
N
f-1992514645
f
GR
GS
[1 0 0 1 163.90791 75.49741] CT
0 0 1 RC
N
f-1992514645
f
GR
GS
[1 0 0 1 173.99443 70.23492] CT
0 0 1 RC
N
f-1992514645
f
GR
GS
[1 0 0 1 199.21075 88.79214] CT
0 0 1 RC
N
f-1992514645
f
GR
%%Trailer
%%Pages: 1
%%EOF
